GBprotID	LFQ intensity CtrPig1	LFQ intensity CtrPig2	LFQ intensity CtrPig3	LFQ intensity CtrPig4	LFQ intensity MannanPig1	LFQ intensity MannanPig2	LFQ intensity MannanPig3	LFQ intensity MannanPig4	Only identified by site	Reverse	Contaminant	Peptides	Unique peptides	PEP	Protein IDs	Majority protein IDs	Fasta headers	IDcomb	ftype	gene	EC_number	product
HGFJFKAI_00001			20.188699999999997									2	0	0,013699	dRep_bin284_DEHKNOBF_01566;dRep_bin335_JIOGNAPG_01357;dRep_bin186_HJAAFFNP_01603;dRep_bin347_EKGCMFPD_00174;dRep_bin325_EIIGOGHN_00933;dRep_bin226_NLNLHLLD_01138;dRep_bin211_LGJEFJIK_01575;dRep_bin168_HKDILBFE_00526;dRep_bin157_JPNIKEKI_01583;dRep_bin133_NOBPDBPA_02120;dRep_bin099_DNDAGJEJ_00490;dRep_bin023_HGFJFKAI_00001;dRep_bin181_MKGPMPIA_00811;dRep_bin344_CJJBDGAA_00826;dRep_bin154_JGOKHKLI_00807;dRep_bin209_NKIHFCEN_01867;dRep_bin160_EFKMPBOM_01681;dRep_bin324_IPNHOHFK_00236	dRep_bin284_DEHKNOBF_01566;dRep_bin335_JIOGNAPG_01357;dRep_bin186_HJAAFFNP_01603;dRep_bin347_EKGCMFPD_00174;dRep_bin325_EIIGOGHN_00933;dRep_bin226_NLNLHLLD_01138;dRep_bin211_LGJEFJIK_01575;dRep_bin168_HKDILBFE_00526;dRep_bin157_JPNIKEKI_01583;dRep_bin133_NOBPDBPA_02120;dRep_bin099_DNDAGJEJ_00490;dRep_bin023_HGFJFKAI_00001;dRep_bin181_MKGPMPIA_00811;dRep_bin344_CJJBDGAA_00826;dRep_bin154_JGOKHKLI_00807;dRep_bin209_NKIHFCEN_01867;dRep_bin160_EFKMPBOM_01681;dRep_bin324_IPNHOHFK_00236	>dRep_bin284_DEHKNOBF_01566 L-methionine gamma-lyase;>dRep_bin335_JIOGNAPG_01357 L-methionine gamma-lyase;>dRep_bin186_HJAAFFNP_01603 L-methionine gamma-lyase;>dRep_bin347_EKGCMFPD_00174 L-methionine gamma-lyase;>dRep_bin325_EIIGOGHN_00933 L-methionine gam	dRep_bin023_HGFJFKAI_00001	CDS	mgl_1	4.4.1.11	L-methionine gamma-lyase
HGFJFKAI_00109						21.653290000000002						5	1	1,5296E-38	dRep_bin168_HKDILBFE_01364;dRep_bin099_DNDAGJEJ_01145;dRep_bin325_EIIGOGHN_00023;dRep_bin023_HGFJFKAI_00109;dRep_bin089_PAJFOJBN_00998;dRep_bin167_BLMEBMNN_01329;dRep_bin091_MAFACGAD_00623;dRep_bin077_DNNBMPMC_01604;dRep_bin194_MEPDOGGJ_00853;dRep_bin107_EFNBPDOP_00602;dRep_bin025_CBEJJMLE_01032;dRep_bin017_FGFLFOPJ_00296;dRep_bin066_AJACLPEE_00208;dRep_bin319_PBDBJGCJ_01472;dRep_bin065_DFABHCBI_00657	dRep_bin168_HKDILBFE_01364;dRep_bin099_DNDAGJEJ_01145;dRep_bin325_EIIGOGHN_00023;dRep_bin023_HGFJFKAI_00109;dRep_bin089_PAJFOJBN_00998;dRep_bin167_BLMEBMNN_01329;dRep_bin091_MAFACGAD_00623	>dRep_bin168_HKDILBFE_01364 Caffeyl-CoA reductase-Etf complex subunit CarE;>dRep_bin099_DNDAGJEJ_01145 Caffeyl-CoA reductase-Etf complex subunit CarE;>dRep_bin325_EIIGOGHN_00023 Caffeyl-CoA reductase-Etf complex subunit CarE;>dRep_bin023_HGFJFKAI_00109 Caf	dRep_bin023_HGFJFKAI_00109	CDS	carE	1.3.1.108	Caffeyl-CoA reductase-Etf complex subunit CarE
HGFJFKAI_00171	25.285099999999996	24.581529999999997	24.45325	22.868219999999997	26.20208	24.466749999999998	26.4389	24.2553				4	3	1,1842E-153	dRep_bin023_HGFJFKAI_00171	dRep_bin023_HGFJFKAI_00171	>dRep_bin023_HGFJFKAI_00171 Flagellar filament 33 kDa core protein	dRep_bin023_HGFJFKAI_00171	CDS	flaB2		Flagellar filament 33 kDa core protein
HGFJFKAI_00208			21.67258									4	0	1,6659E-06	dRep_bin240_LDBBGJKG_00963;dRep_bin023_HGFJFKAI_00208;dRep_bin325_EIIGOGHN_00785;dRep_bin071_JHMCIJPE_01055	dRep_bin240_LDBBGJKG_00963;dRep_bin023_HGFJFKAI_00208;dRep_bin325_EIIGOGHN_00785	>dRep_bin240_LDBBGJKG_00963 Isocitrate dehydrogenase [NADP];>dRep_bin023_HGFJFKAI_00208 Isocitrate dehydrogenase [NADP];>dRep_bin325_EIIGOGHN_00785 Isocitrate dehydrogenase [NADP]	dRep_bin023_HGFJFKAI_00208	CDS	icd	1.1.1.42	Isocitrate dehydrogenase [NADP]
HGFJFKAI_00316			23.286019999999997	23.610880000000005								4	1	5,7789E-14	dRep_bin133_NOBPDBPA_01467;dRep_bin209_NKIHFCEN_01581;dRep_bin179_HFEIPPPA_02264;dRep_bin226_NLNLHLLD_01531;dRep_bin324_IPNHOHFK_01023;dRep_bin335_JIOGNAPG_00849;dRep_bin297_EDHEEICA_01086;dRep_bin308_JBPDGLPP_01561;dRep_bin249_OFIIEIDJ_01347;dRep_bin024_OLHDGABE_00861;dRep_bin248_CCDFPECI_00398;dRep_bin095_HOBNOEEF_00461;dRep_bin168_HKDILBFE_01532;dRep_bin099_DNDAGJEJ_00152;dRep_bin091_MAFACGAD_01498;dRep_bin053_OMGNPOOB_00496;dRep_bin347_EKGCMFPD_00942;dRep_bin017_FGFLFOPJ_00104;dRep_bin001_GHHJMDAL_00099;dRep_bin260_HELEPKJL_01156;dRep_bin139_KGAJINND_00655;dRep_bin284_DEHKNOBF_00340;dRep_bin158_OGFICEAP_00774;dRep_bin115_IFKGOGCL_00685;dRep_bin023_HGFJFKAI_00316;dRep_bin127_FIPNHBCH_00146;dRep_bin254_GJDPFAEA_01402;dRep_bin167_BLMEBMNN_01288;dRep_bin328_GIGKNKPJ_00098;dRep_bin065_DFABHCBI_00298	dRep_bin133_NOBPDBPA_01467;dRep_bin209_NKIHFCEN_01581;dRep_bin179_HFEIPPPA_02264;dRep_bin226_NLNLHLLD_01531;dRep_bin324_IPNHOHFK_01023;dRep_bin335_JIOGNAPG_00849;dRep_bin297_EDHEEICA_01086	>dRep_bin133_NOBPDBPA_01467 2,3-dimethylmalate dehydratase large subunit;>dRep_bin209_NKIHFCEN_01581 2,3-dimethylmalate dehydratase large subunit;>dRep_bin179_HFEIPPPA_02264 2,3-dimethylmalate dehydratase large subunit;>dRep_bin226_NLNLHLLD_01531 Homoaconi	dRep_bin023_HGFJFKAI_00316	CDS	dmdA	4.2.1.85	2,3-dimethylmalate dehydratase large subunit
HGFJFKAI_00342	28.184	28.697930000000003	27.848519999999997	28.320880000000002	27.693980000000003	27.09768	28.2359	27.717050000000004				21	1	0	dRep_bin023_HGFJFKAI_00342	dRep_bin023_HGFJFKAI_00342	>dRep_bin023_HGFJFKAI_00342 Ketol-acid reductoisomerase (NADP(+))	dRep_bin023_HGFJFKAI_00342	CDS	ilvC	1.1.1.86	Ketol-acid reductoisomerase (NADP(+))
HGFJFKAI_00403		22.20771		23.81812								4	1	2,7695E-15	dRep_bin292_JIBLDOOH_00188;dRep_bin226_NLNLHLLD_01596;dRep_bin179_HFEIPPPA_01433;dRep_bin133_NOBPDBPA_03838;dRep_bin324_IPNHOHFK_00698;dRep_bin209_NKIHFCEN_01643;dRep_bin023_HGFJFKAI_00403	dRep_bin292_JIBLDOOH_00188;dRep_bin226_NLNLHLLD_01596;dRep_bin179_HFEIPPPA_01433	>dRep_bin292_JIBLDOOH_00188 4-hydroxy-2-oxovalerate aldolase;>dRep_bin226_NLNLHLLD_01596 4-hydroxy-2-oxovalerate aldolase;>dRep_bin179_HFEIPPPA_01433 4-hydroxy-2-oxovalerate aldolase	dRep_bin023_HGFJFKAI_00403	CDS		4.1.3.39	4-hydroxy-2-oxovalerate aldolase
HGFJFKAI_00434					24.562029999999996							2	1	3,0916E-05	dRep_bin335_JIOGNAPG_00600;dRep_bin322_OJELOJOF_00311;dRep_bin007_LNLEAAAN_00207;dRep_bin023_HGFJFKAI_00434;dRep_bin347_EKGCMFPD_00657;dRep_bin160_EFKMPBOM_02824;dRep_bin154_JGOKHKLI_01039;dRep_bin081_JDPCKDNP_00803;dRep_bin249_OFIIEIDJ_00404;dRep_bin031_BNHMFOII_01368;dRep_bin324_IPNHOHFK_01694	dRep_bin335_JIOGNAPG_00600;dRep_bin322_OJELOJOF_00311;dRep_bin007_LNLEAAAN_00207;dRep_bin023_HGFJFKAI_00434;dRep_bin347_EKGCMFPD_00657;dRep_bin160_EFKMPBOM_02824;dRep_bin154_JGOKHKLI_01039;dRep_bin081_JDPCKDNP_00803;dRep_bin249_OFIIEIDJ_00404;dRep_bin031_BNHMFOII_01368;dRep_bin324_IPNHOHFK_01694	>dRep_bin335_JIOGNAPG_00600 Chaperone protein HtpG;>dRep_bin322_OJELOJOF_00311 Chaperone protein HtpG;>dRep_bin007_LNLEAAAN_00207 Chaperone protein HtpG;>dRep_bin023_HGFJFKAI_00434 Chaperone protein HtpG;>dRep_bin347_EKGCMFPD_00657 Chaperone protein HtpG;>	dRep_bin023_HGFJFKAI_00434	CDS	htpG		Chaperone protein HtpG
HGFJFKAI_00483						25.37859						4	2	2,2689E-13	dRep_bin157_JPNIKEKI_00942;dRep_bin065_DFABHCBI_01945;dRep_bin282_PKAAPBFP_01707;dRep_bin075_EPEMMOCL_01191;dRep_bin089_PAJFOJBN_02054;dRep_bin269_PNILGKPH_01091;dRep_bin039_IJNOFOJK_01301;dRep_bin023_HGFJFKAI_00483;dRep_bin167_BLMEBMNN_01800;dRep_bin074_EHAOMODJ_01079;dRep_bin005_CNDFPKJG_00576;dRep_bin277_MIPNGEJE_00824;dRep_bin143_PFLDJMPF_00484;dRep_bin091_MAFACGAD_00708;dRep_bin335_JIOGNAPG_01712;dRep_bin308_JBPDGLPP_01394;dRep_bin306_FGHMKMMP_00157;dRep_bin200_JJGKEOHI_00644;dRep_bin160_EFKMPBOM_01770;dRep_bin154_JGOKHKLI_01254;dRep_bin088_DNGPPFDK_00607;dRep_bin081_JDPCKDNP_00472;dRep_bin234_ECABPBME_00056;dRep_bin101_BNDDLDCL_01417;dRep_bin250_NMCAMJIO_00706;dRep_bin041_OPKGAAAG_01876;dRep_bin240_LDBBGJKG_00488;dRep_bin001_GHHJMDAL_00373;dRep_bin315_AGEMOMDG_00838;dRep_bin239_JIMDAIOF_00250;dRep_bin313_CJFGINPI_01381;dRep_bin163_EBDOGNGI_00300;dRep_bin280_IMCGLKKG_00217;dRep_bin012_KEBBILMO_00361;dRep_bin347_EKGCMFPD_00218;dRep_bin102_ICFDHPGB_00448;dRep_bin178_FLGBGGJB_00789;dRep_bin156_GFIMJAAC_00472	dRep_bin157_JPNIKEKI_00942;dRep_bin065_DFABHCBI_01945;dRep_bin282_PKAAPBFP_01707;dRep_bin075_EPEMMOCL_01191;dRep_bin089_PAJFOJBN_02054;dRep_bin269_PNILGKPH_01091;dRep_bin039_IJNOFOJK_01301;dRep_bin023_HGFJFKAI_00483;dRep_bin167_BLMEBMNN_01800;dRep_bin074_EHAOMODJ_01079;dRep_bin005_CNDFPKJG_00576;dRep_bin277_MIPNGEJE_00824;dRep_bin143_PFLDJMPF_00484;dRep_bin091_MAFACGAD_00708;dRep_bin335_JIOGNAPG_01712;dRep_bin308_JBPDGLPP_01394;dRep_bin306_FGHMKMMP_00157;dRep_bin200_JJGKEOHI_00644;dRep_bin160_EFKMPBOM_01770;dRep_bin154_JGOKHKLI_01254;dRep_bin088_DNGPPFDK_00607;dRep_bin081_JDPCKDNP_00472;dRep_bin234_ECABPBME_00056;dRep_bin101_BNDDLDCL_01417;dRep_bin250_NMCAMJIO_00706	>dRep_bin157_JPNIKEKI_00942 Aspartate--tRNA ligase;>dRep_bin065_DFABHCBI_01945 Aspartate--tRNA ligase;>dRep_bin282_PKAAPBFP_01707 Aspartate--tRNA ligase;>dRep_bin075_EPEMMOCL_01191 Aspartate--tRNA ligase;>dRep_bin089_PAJFOJBN_02054 Aspartate--tRNA ligase;>	dRep_bin023_HGFJFKAI_00483	CDS	aspS_2	6.1.1.12	Aspartate--tRNA ligase
HGFJFKAI_00503			22.460569999999997									2	1	2,4794E-10	dRep_bin135_HHKACLPM_01315;dRep_bin249_OFIIEIDJ_01934;dRep_bin284_DEHKNOBF_00489;dRep_bin001_GHHJMDAL_00077;dRep_bin300_MJPPENNL_01366;dRep_bin306_FGHMKMMP_00653;dRep_bin023_HGFJFKAI_00503;dRep_bin332_KAOPCDPF_01288;dRep_bin344_CJJBDGAA_01850;dRep_bin310_IMBAFDIF_00279;dRep_bin288_KOIAAABN_00684;dRep_bin248_CCDFPECI_01334;dRep_bin254_GJDPFAEA_02026;dRep_bin277_MIPNGEJE_00216;dRep_bin293_MEPKGOAN_00506;dRep_bin075_EPEMMOCL_01819;dRep_bin286_OEMIJKMC_00231;dRep_bin115_IFKGOGCL_01177;dRep_bin005_CNDFPKJG_01656;dRep_bin095_HOBNOEEF_00899;dRep_bin197_NHLBHFEI_00443;dRep_bin281_OGHLKMAI_00140;dRep_bin058_GJKCICJN_01024;dRep_bin263_OLEFOGIJ_00135;dRep_bin189_AHHEHGDL_00535;dRep_bin103_IGJBLKMC_00221;dRep_bin205_LKIOOBKC_01773;dRep_bin011_KOGMKLNO_00247;dRep_bin304_JDNJGFKH_00846;dRep_bin120_EKLBOPNC_01967;dRep_bin083_OCBADPJJ_00857	dRep_bin135_HHKACLPM_01315;dRep_bin249_OFIIEIDJ_01934;dRep_bin284_DEHKNOBF_00489;dRep_bin001_GHHJMDAL_00077;dRep_bin300_MJPPENNL_01366;dRep_bin306_FGHMKMMP_00653;dRep_bin023_HGFJFKAI_00503;dRep_bin332_KAOPCDPF_01288;dRep_bin344_CJJBDGAA_01850;dRep_bin310_IMBAFDIF_00279;dRep_bin288_KOIAAABN_00684;dRep_bin248_CCDFPECI_01334;dRep_bin254_GJDPFAEA_02026;dRep_bin277_MIPNGEJE_00216;dRep_bin293_MEPKGOAN_00506;dRep_bin075_EPEMMOCL_01819;dRep_bin286_OEMIJKMC_00231;dRep_bin115_IFKGOGCL_01177;dRep_bin005_CNDFPKJG_01656;dRep_bin095_HOBNOEEF_00899;dRep_bin197_NHLBHFEI_00443;dRep_bin281_OGHLKMAI_00140;dRep_bin058_GJKCICJN_01024;dRep_bin263_OLEFOGIJ_00135;dRep_bin189_AHHEHGDL_00535;dRep_bin103_IGJBLKMC_00221;dRep_bin205_LKIOOBKC_01773;dRep_bin011_KOGMKLNO_00247;dRep_bin304_JDNJGFKH_00846;dRep_bin120_EKLBOPNC_01967;dRep_bin083_OCBADPJJ_00857	>dRep_bin135_HHKACLPM_01315 Leucine--tRNA ligase;>dRep_bin249_OFIIEIDJ_01934 Leucine--tRNA ligase;>dRep_bin284_DEHKNOBF_00489 Leucine--tRNA ligase;>dRep_bin001_GHHJMDAL_00077 Leucine--tRNA ligase;>dRep_bin300_MJPPENNL_01366 Leucine--tRNA ligase;>dRep_bin30	dRep_bin023_HGFJFKAI_00503	CDS	leuS	6.1.1.4	Leucine--tRNA ligase
HGFJFKAI_00522			19.70065									1	1	0,00094842	dRep_bin019_MOJEPLJF_01253;dRep_bin322_OJELOJOF_00998;dRep_bin266_JFOCEDAE_01255;dRep_bin203_CLFNNOCF_01667;dRep_bin179_HFEIPPPA_01487;dRep_bin062_BOFBFLDA_00482;dRep_bin335_JIOGNAPG_01394;dRep_bin325_EIIGOGHN_00716;dRep_bin300_MJPPENNL_01210;dRep_bin287_DONBGKDH_01487;dRep_bin282_PKAAPBFP_00060;dRep_bin279_IAEFEPEN_01206;dRep_bin269_PNILGKPH_01047;dRep_bin261_FJICAFFM_00341;dRep_bin249_OFIIEIDJ_00793;dRep_bin220_PILICLLL_00785;dRep_bin201_OLKDIBOK_02285;dRep_bin168_HKDILBFE_00870;dRep_bin160_EFKMPBOM_02348;dRep_bin158_OGFICEAP_00078;dRep_bin154_JGOKHKLI_02345;dRep_bin145_KMJJJOEJ_00681;dRep_bin139_KGAJINND_00935;dRep_bin135_HHKACLPM_01083;dRep_bin134_HIAPAODO_01183;dRep_bin133_NOBPDBPA_03238;dRep_bin099_DNDAGJEJ_00384;dRep_bin095_HOBNOEEF_02248;dRep_bin091_MAFACGAD_00479;dRep_bin081_JDPCKDNP_01979;dRep_bin039_IJNOFOJK_00775;dRep_bin023_HGFJFKAI_00522;dRep_bin324_IPNHOHFK_00121;dRep_bin278_BFCONKOE_01329;dRep_bin234_ECABPBME_01690;dRep_bin027_OFJCHLJJ_00792;dRep_bin024_OLHDGABE_00305;dRep_bin005_CNDFPKJG_01369;dRep_bin088_DNGPPFDK_01526;dRep_bin077_DNNBMPMC_01927;dRep_bin310_IMBAFDIF_00406	dRep_bin019_MOJEPLJF_01253;dRep_bin322_OJELOJOF_00998;dRep_bin266_JFOCEDAE_01255;dRep_bin203_CLFNNOCF_01667;dRep_bin179_HFEIPPPA_01487;dRep_bin062_BOFBFLDA_00482;dRep_bin335_JIOGNAPG_01394;dRep_bin325_EIIGOGHN_00716;dRep_bin300_MJPPENNL_01210;dRep_bin287_DONBGKDH_01487;dRep_bin282_PKAAPBFP_00060;dRep_bin279_IAEFEPEN_01206;dRep_bin269_PNILGKPH_01047;dRep_bin261_FJICAFFM_00341;dRep_bin249_OFIIEIDJ_00793;dRep_bin220_PILICLLL_00785;dRep_bin201_OLKDIBOK_02285;dRep_bin168_HKDILBFE_00870;dRep_bin160_EFKMPBOM_02348;dRep_bin158_OGFICEAP_00078;dRep_bin154_JGOKHKLI_02345;dRep_bin145_KMJJJOEJ_00681;dRep_bin139_KGAJINND_00935;dRep_bin135_HHKACLPM_01083;dRep_bin134_HIAPAODO_01183;dRep_bin133_NOBPDBPA_03238;dRep_bin099_DNDAGJEJ_00384;dRep_bin095_HOBNOEEF_02248;dRep_bin091_MAFACGAD_00479;dRep_bin081_JDPCKDNP_01979;dRep_bin039_IJNOFOJK_00775;dRep_bin023_HGFJFKAI_00522;dRep_bin324_IPNHOHFK_00121;dRep_bin278_BFCONKOE_01329;dRep_bin234_ECABPBME_01690;dRep_bin027_OFJCHLJJ_00792;dRep_bin024_OLHDGABE_00305;dRep_bin005_CNDFPKJG_01369;dRep_bin088_DNGPPFDK_01526;dRep_bin077_DNNBMPMC_01927;dRep_bin310_IMBAFDIF_00406	>dRep_bin019_MOJEPLJF_01253 Purine catabolism regulatory protein;>dRep_bin322_OJELOJOF_00998 Purine catabolism regulatory protein;>dRep_bin266_JFOCEDAE_01255 Purine catabolism regulatory protein;>dRep_bin203_CLFNNOCF_01667 Carbohydrate diacid regulator;>dR	dRep_bin023_HGFJFKAI_00522	CDS	cdaR_2		Carbohydrate diacid regulator
HGFJFKAI_00537						22.20246						11	1	4,9652E-139	dRep_bin023_HGFJFKAI_00537	dRep_bin023_HGFJFKAI_00537	>dRep_bin023_HGFJFKAI_00537 60 kDa chaperonin	dRep_bin023_HGFJFKAI_00537	CDS	groL		60 kDa chaperonin
HGFJFKAI_00542	26.13275	25.59594	26.750339999999998	27.379060000000003	27.74926	29.51672	27.90191	27.78382				14	7	1,4072E-98	dRep_bin191_NGFJMLOL_00360;dRep_bin149_GABCHCDI_01133;dRep_bin057_BNCFHBBO_00744;dRep_bin262_LLCGOPIE_00862;dRep_bin118_FGIOKLBC_00953;dRep_bin220_PILICLLL_01651;dRep_bin023_HGFJFKAI_00542	dRep_bin191_NGFJMLOL_00360	>dRep_bin191_NGFJMLOL_00360 Glucose-6-phosphate isomerase	dRep_bin023_HGFJFKAI_00542	CDS	pgi_2	5.3.1.9	Glucose-6-phosphate isomerase
HGFJFKAI_00570	28.738789999999998	28.75124	29.01084	29.3506	29.64461	30.02168	29.81859	30.104370000000003				12	4	1,026E-72	dRep_bin191_NGFJMLOL_01578;dRep_bin070_EMBHKIOF_00129;dRep_bin154_JGOKHKLI_00366;dRep_bin055_IBMMJAEE_00161;dRep_bin328_GIGKNKPJ_00645;dRep_bin047_IFFANOMN_00612;dRep_bin027_OFJCHLJJ_00977;dRep_bin005_CNDFPKJG_01432;dRep_bin278_BFCONKOE_00469;dRep_bin282_PKAAPBFP_00320;dRep_bin284_DEHKNOBF_00421;dRep_bin303_DDDNDJCF_00133;dRep_bin287_DONBGKDH_00272;dRep_bin220_PILICLLL_00145;dRep_bin107_EFNBPDOP_01320;dRep_bin158_OGFICEAP_01424;dRep_bin323_FBBLPLCG_01090;dRep_bin318_IEDEJOFJ_00395;dRep_bin308_JBPDGLPP_01660;dRep_bin306_FGHMKMMP_01032;dRep_bin261_FJICAFFM_00034;dRep_bin240_LDBBGJKG_01385;dRep_bin234_ECABPBME_00209;dRep_bin181_MKGPMPIA_00707;dRep_bin077_DNNBMPMC_00629;dRep_bin066_AJACLPEE_00619;dRep_bin065_DFABHCBI_01813;dRep_bin023_HGFJFKAI_00570;dRep_bin235_EGJBMLPF_00465;dRep_bin186_HJAAFFNP_00454;dRep_bin145_KMJJJOEJ_01616;dRep_bin095_HOBNOEEF_00383	dRep_bin191_NGFJMLOL_01578;dRep_bin070_EMBHKIOF_00129	>dRep_bin191_NGFJMLOL_01578 hypothetical protein;>dRep_bin070_EMBHKIOF_00129 hypothetical protein	dRep_bin023_HGFJFKAI_00570	CDS			hypothetical protein
HGFJFKAI_00593				26.368709999999997								4	2	1,0849E-12	dRep_bin292_JIBLDOOH_01063;dRep_bin041_OPKGAAAG_01075;dRep_bin209_NKIHFCEN_01331;dRep_bin269_PNILGKPH_00386;dRep_bin039_IJNOFOJK_00028;dRep_bin324_IPNHOHFK_01206;dRep_bin300_MJPPENNL_00977;dRep_bin279_IAEFEPEN_01295;dRep_bin344_CJJBDGAA_00875;dRep_bin328_GIGKNKPJ_01713;dRep_bin308_JBPDGLPP_01081;dRep_bin303_DDDNDJCF_01452;dRep_bin260_HELEPKJL_01814;dRep_bin240_LDBBGJKG_01949;dRep_bin211_LGJEFJIK_01488;dRep_bin201_OLKDIBOK_00486;dRep_bin186_HJAAFFNP_00498;dRep_bin161_JMKPMHCO_00510;dRep_bin140_ACFAKGIL_00966;dRep_bin139_KGAJINND_01935;dRep_bin127_FIPNHBCH_01109;dRep_bin091_MAFACGAD_00938;dRep_bin069_EGGEOGDC_00173;dRep_bin065_DFABHCBI_01020;dRep_bin062_BOFBFLDA_00118;dRep_bin024_OLHDGABE_00006;dRep_bin016_JLGAHGOJ_01717;dRep_bin347_EKGCMFPD_00813;dRep_bin332_KAOPCDPF_00718;dRep_bin322_OJELOJOF_01104;dRep_bin310_IMBAFDIF_01100;dRep_bin306_FGHMKMMP_01495;dRep_bin282_PKAAPBFP_00123;dRep_bin266_JFOCEDAE_01441;dRep_bin249_OFIIEIDJ_00818;dRep_bin248_CCDFPECI_00304;dRep_bin234_ECABPBME_02078;dRep_bin181_MKGPMPIA_00013;dRep_bin160_EFKMPBOM_00454;dRep_bin158_OGFICEAP_01438;dRep_bin154_JGOKHKLI_00210;dRep_bin145_KMJJJOEJ_01040;dRep_bin135_HHKACLPM_01477;dRep_bin107_EFNBPDOP_01455;dRep_bin089_PAJFOJBN_01775;dRep_bin081_JDPCKDNP_00410;dRep_bin077_DNNBMPMC_01401;dRep_bin075_EPEMMOCL_00061;dRep_bin027_OFJCHLJJ_01614;dRep_bin023_HGFJFKAI_00593;dRep_bin019_MOJEPLJF_00571;dRep_bin007_LNLEAAAN_01143;dRep_bin005_CNDFPKJG_01435;dRep_bin001_GHHJMDAL_01190	dRep_bin292_JIBLDOOH_01063;dRep_bin041_OPKGAAAG_01075;dRep_bin209_NKIHFCEN_01331;dRep_bin269_PNILGKPH_00386;dRep_bin039_IJNOFOJK_00028;dRep_bin324_IPNHOHFK_01206;dRep_bin300_MJPPENNL_00977;dRep_bin279_IAEFEPEN_01295	>dRep_bin292_JIBLDOOH_01063 50S ribosomal protein L21;>dRep_bin041_OPKGAAAG_01075 50S ribosomal protein L21;>dRep_bin209_NKIHFCEN_01331 50S ribosomal protein L21;>dRep_bin269_PNILGKPH_00386 50S ribosomal protein L21;>dRep_bin039_IJNOFOJK_00028 50S ribosoma	dRep_bin023_HGFJFKAI_00593	CDS	rplU		50S ribosomal protein L21
HGFJFKAI_00612					22.957800000000002							3	1	2,4082E-10	dRep_bin023_HGFJFKAI_00612	dRep_bin023_HGFJFKAI_00612	>dRep_bin023_HGFJFKAI_00612 Glycogen phosphorylase	dRep_bin023_HGFJFKAI_00612	CDS	glgP	2.4.1.1	Glycogen phosphorylase
HGFJFKAI_00643				20.12956								4	1	1,9606E-08	dRep_bin260_HELEPKJL_00003;dRep_bin303_DDDNDJCF_01034;dRep_bin254_GJDPFAEA_00291;dRep_bin248_CCDFPECI_01105;dRep_bin240_LDBBGJKG_00257;dRep_bin234_ECABPBME_02182;dRep_bin186_HJAAFFNP_02094;dRep_bin069_EGGEOGDC_00700;dRep_bin065_DFABHCBI_02333;dRep_bin344_CJJBDGAA_01016;dRep_bin287_DONBGKDH_00957;dRep_bin158_OGFICEAP_01016;dRep_bin134_HIAPAODO_01243;dRep_bin088_DNGPPFDK_00299;dRep_bin016_JLGAHGOJ_01972;dRep_bin168_HKDILBFE_00283;dRep_bin099_DNDAGJEJ_01634;dRep_bin023_HGFJFKAI_00643;dRep_bin335_JIOGNAPG_00172	dRep_bin260_HELEPKJL_00003;dRep_bin303_DDDNDJCF_01034;dRep_bin254_GJDPFAEA_00291;dRep_bin248_CCDFPECI_01105;dRep_bin240_LDBBGJKG_00257;dRep_bin234_ECABPBME_02182;dRep_bin186_HJAAFFNP_02094;dRep_bin069_EGGEOGDC_00700;dRep_bin065_DFABHCBI_02333;dRep_bin344_CJJBDGAA_01016;dRep_bin287_DONBGKDH_00957;dRep_bin158_OGFICEAP_01016;dRep_bin134_HIAPAODO_01243;dRep_bin088_DNGPPFDK_00299;dRep_bin016_JLGAHGOJ_01972	>dRep_bin260_HELEPKJL_00003 Inosine-5-monophosphate dehydrogenase;>dRep_bin303_DDDNDJCF_01034 Inosine-5-monophosphate dehydrogenase;>dRep_bin254_GJDPFAEA_00291 Inosine-5-monophosphate dehydrogenase;>dRep_bin248_CCDFPECI_01105 Inosine-5-monophosphate de	dRep_bin023_HGFJFKAI_00643	CDS	guaB	1.1.1.205	Inosine-5'-monophosphate dehydrogenase
HGFJFKAI_00653					24.24887	26.77128	24.69339	24.025629999999996				3	1	5,593E-12	dRep_bin139_KGAJINND_01577;dRep_bin344_CJJBDGAA_01807;dRep_bin300_MJPPENNL_01697;dRep_bin324_IPNHOHFK_02134;dRep_bin261_FJICAFFM_01134;dRep_bin303_DDDNDJCF_01519;dRep_bin297_EDHEEICA_00415;dRep_bin209_NKIHFCEN_00709;dRep_bin167_BLMEBMNN_00621;dRep_bin157_JPNIKEKI_01820;dRep_bin133_NOBPDBPA_02652;dRep_bin016_JLGAHGOJ_01099;dRep_bin292_JIBLDOOH_01420;dRep_bin127_FIPNHBCH_01248;dRep_bin062_BOFBFLDA_01336;dRep_bin115_IFKGOGCL_01923;dRep_bin269_PNILGKPH_02213;dRep_bin208_DHPGEIBC_01209;dRep_bin347_EKGCMFPD_00714;dRep_bin266_JFOCEDAE_00751;dRep_bin211_LGJEFJIK_00719;dRep_bin316_FNLHDNEO_01427;dRep_bin065_DFABHCBI_00784;dRep_bin319_PBDBJGCJ_00028;dRep_bin077_DNNBMPMC_00009;dRep_bin006_HPJGJCAG_01885;dRep_bin066_AJACLPEE_00266;dRep_bin279_IAEFEPEN_00114;dRep_bin254_GJDPFAEA_01714;dRep_bin035_JBNPBOKG_00265;dRep_bin092_OOJCPDEA_01135;dRep_bin173_BEBNCADL_00932;dRep_bin261_FJICAFFM_01422;dRep_bin288_KOIAAABN_01088;dRep_bin263_OLEFOGIJ_00124;dRep_bin099_DNDAGJEJ_00022;dRep_bin325_EIIGOGHN_01093;dRep_bin076_GLAOFBEC_01169;dRep_bin089_PAJFOJBN_00283;dRep_bin287_DONBGKDH_01271;dRep_bin162_JBGCCDIN_01770;dRep_bin135_HHKACLPM_00267;dRep_bin332_KAOPCDPF_00441;dRep_bin310_IMBAFDIF_00637;dRep_bin304_JDNJGFKH_01711;dRep_bin222_GGCAJABB_01248;dRep_bin159_ADJJGPBG_01860;dRep_bin043_KLAFNACO_01408;dRep_bin023_HGFJFKAI_00653;dRep_bin189_AHHEHGDL_01147;dRep_bin328_GIGKNKPJ_01484;dRep_bin282_PKAAPBFP_01012;dRep_bin229_FFOBPPJI_01006;dRep_bin203_CLFNNOCF_00634;dRep_bin102_ICFDHPGB_01107;dRep_bin072_JOBJPCGA_00187;dRep_bin029_LFMGBBEC_00768;dRep_bin017_FGFLFOPJ_00988;dRep_bin195_DDMDFNOK_00791;dRep_bin120_EKLBOPNC_01828;dRep_bin058_GJKCICJN_00813;dRep_bin046_GKEJLOEK_00003;dRep_bin186_HJAAFFNP_01596;dRep_bin349_AMCJEEEG_00676;dRep_bin200_JJGKEOHI_00578;dRep_bin027_OFJCHLJJ_00701;dRep_bin161_JMKPMHCO_01186;dRep_bin160_EFKMPBOM_00139;dRep_bin154_JGOKHKLI_00533;dRep_bin083_OCBADPJJ_00750;dRep_bin049_MNFBDPNO_00757;dRep_bin008_MNDMJLEI_00707;dRep_bin158_OGFICEAP_00389;dRep_bin334_NAPFFNLD_00463;dRep_bin339_DBNBAHDK_00481;dRep_bin241_LMMMGDNI_00312;dRep_bin179_HFEIPPPA_00773;dRep_bin245_MBCFLKOF_01292;dRep_bin010_MFFFGEGD_00549	dRep_bin139_KGAJINND_01577;dRep_bin344_CJJBDGAA_01807;dRep_bin300_MJPPENNL_01697;dRep_bin324_IPNHOHFK_02134;dRep_bin261_FJICAFFM_01134;dRep_bin303_DDDNDJCF_01519;dRep_bin297_EDHEEICA_00415;dRep_bin209_NKIHFCEN_00709;dRep_bin167_BLMEBMNN_00621;dRep_bin157_JPNIKEKI_01820;dRep_bin133_NOBPDBPA_02652;dRep_bin016_JLGAHGOJ_01099;dRep_bin292_JIBLDOOH_01420;dRep_bin127_FIPNHBCH_01248;dRep_bin062_BOFBFLDA_01336;dRep_bin115_IFKGOGCL_01923;dRep_bin269_PNILGKPH_02213	>dRep_bin139_KGAJINND_01577 Chaperone protein ClpB 1;>dRep_bin344_CJJBDGAA_01807 Chaperone protein ClpB;>dRep_bin300_MJPPENNL_01697 Chaperone protein ClpB;>dRep_bin324_IPNHOHFK_02134 Chaperone protein ClpB;>dRep_bin261_FJICAFFM_01134 Chaperone protein ClpB	dRep_bin023_HGFJFKAI_00653	CDS	clpB		Chaperone protein ClpB
HGFJFKAI_00760				27.51262	26.903689999999997	26.242709999999995	26.850550000000002	26.542769999999997				3	2	5,492E-20	dRep_bin158_OGFICEAP_00610;dRep_bin062_BOFBFLDA_00726;dRep_bin016_JLGAHGOJ_00430;dRep_bin282_PKAAPBFP_00486;dRep_bin260_HELEPKJL_01349;dRep_bin167_BLMEBMNN_01078;dRep_bin160_EFKMPBOM_01985;dRep_bin127_FIPNHBCH_00031;dRep_bin081_JDPCKDNP_01235;dRep_bin047_IFFANOMN_00244;dRep_bin023_HGFJFKAI_00760;dRep_bin001_GHHJMDAL_01428;dRep_bin001_GHHJMDAL_01069;dRep_bin328_GIGKNKPJ_01342;dRep_bin266_JFOCEDAE_01010;dRep_bin211_LGJEFJIK_01524;dRep_bin065_DFABHCBI_01274;dRep_bin001_GHHJMDAL_00751	dRep_bin158_OGFICEAP_00610;dRep_bin062_BOFBFLDA_00726;dRep_bin016_JLGAHGOJ_00430	>dRep_bin158_OGFICEAP_00610 50S ribosomal protein L22;>dRep_bin062_BOFBFLDA_00726 50S ribosomal protein L22;>dRep_bin016_JLGAHGOJ_00430 50S ribosomal protein L22	dRep_bin023_HGFJFKAI_00760	CDS	rplV		50S ribosomal protein L22
HGFJFKAI_00761		24.228539999999995		25.783139999999996								6	0	2,226E-19	dRep_bin016_JLGAHGOJ_00429;dRep_bin211_LGJEFJIK_01523;dRep_bin160_EFKMPBOM_01986;dRep_bin001_GHHJMDAL_01068;dRep_bin310_IMBAFDIF_00080;dRep_bin023_HGFJFKAI_00761;dRep_bin261_FJICAFFM_00376	dRep_bin016_JLGAHGOJ_00429;dRep_bin211_LGJEFJIK_01523;dRep_bin160_EFKMPBOM_01986;dRep_bin001_GHHJMDAL_01068;dRep_bin310_IMBAFDIF_00080;dRep_bin023_HGFJFKAI_00761	>dRep_bin016_JLGAHGOJ_00429 30S ribosomal protein S19;>dRep_bin211_LGJEFJIK_01523 30S ribosomal protein S19;>dRep_bin160_EFKMPBOM_01986 30S ribosomal protein S19;>dRep_bin001_GHHJMDAL_01068 30S ribosomal protein S19;>dRep_bin310_IMBAFDIF_00080 30S ribosoma	dRep_bin023_HGFJFKAI_00761	CDS	rpsS		30S ribosomal protein S19
HGFJFKAI_00771					25.616020000000002	23.6184	23.54922					4	1	1,9799E-33	dRep_bin260_HELEPKJL_01845;dRep_bin201_OLKDIBOK_00112;dRep_bin303_DDDNDJCF_00142;dRep_bin287_DONBGKDH_01854;dRep_bin322_OJELOJOF_01184;dRep_bin257_JHFDCHCB_00967;dRep_bin169_PNICKJKO_00877;A0A287A8P8;dRep_bin051_HIEIDCID_00151;dRep_bin086_HHEJBMCP_00386;dRep_bin122_JHMJFODI_00063;dRep_bin023_HGFJFKAI_00771;dRep_bin181_MKGPMPIA_00103;dRep_bin066_AJACLPEE_00701;dRep_bin259_IFIOODLK_02454;dRep_bin180_JMFOHHIL_00810;dRep_bin176_DLEJNGKN_00496;dRep_bin102_ICFDHPGB_00705;dRep_bin054_NNOKONMC_00274;dRep_bin141_GMCOOECB_00272;dRep_bin081_JDPCKDNP_01556;dRep_bin191_NGFJMLOL_01066;dRep_bin347_EKGCMFPD_00368;dRep_bin258_DAMEHFEK_00953;dRep_bin207_OHNPDPFI_00730;dRep_bin155_CLHNKEHA_00341;dRep_bin147_EJLBNEBE_00007;dRep_bin003_GOBBLOGO_01064;dRep_bin001_GHHJMDAL_00643;dRep_bin178_FLGBGGJB_01411;dRep_bin161_JMKPMHCO_00287;dRep_bin096_GNHMEKPF_00190;dRep_bin074_EHAOMODJ_00071;dRep_bin059_OOBKFNPP_00877;dRep_bin009_KMMEHEKA_00693;dRep_bin308_JBPDGLPP_01578;dRep_bin276_EHNFLEBP_00798;dRep_bin337_FHKPNFDB_01542;dRep_bin273_FGAEBHNP_00709;dRep_bin167_BLMEBMNN_01919;dRep_bin114_FJHJKHGL_00074;dRep_bin085_MBHLGCDB_00354;dRep_bin058_GJKCICJN_00485;A0A287B9S9;dRep_bin342_BMMENEMP_00811;dRep_bin341_NBEGOKEF_00144;dRep_bin231_CFOLMJBA_00136;dRep_bin095_HOBNOEEF_01465;dRep_bin236_BNONDECB_00582;dRep_bin168_HKDILBFE_01225;dRep_bin099_DNDAGJEJ_01201;dRep_bin024_OLHDGABE_00735;dRep_bin006_HPJGJCAG_01680;I3LL84;dRep_bin332_KAOPCDPF_00242;dRep_bin336_MPGOKPOL_00237;A0A287BIW1;dRep_bin319_PBDBJGCJ_00470	dRep_bin260_HELEPKJL_01845;dRep_bin201_OLKDIBOK_00112;dRep_bin303_DDDNDJCF_00142;dRep_bin287_DONBGKDH_01854	>dRep_bin260_HELEPKJL_01845 UDP-glucose 4-epimerase;>dRep_bin201_OLKDIBOK_00112 UDP-glucose 4-epimerase;>dRep_bin303_DDDNDJCF_00142 UDP-glucose 4-epimerase;>dRep_bin287_DONBGKDH_01854 UDP-glucose 4-epimerase	dRep_bin023_HGFJFKAI_00771	CDS	lnpD	5.1.3.2	UDP-glucose 4-epimerase
HGFJFKAI_00810	29.2999	29.566509999999997	30.05931	29.04828	28.991699999999998	28.57391	29.705099999999998	29.51452				9	6	1,4542E-37	dRep_bin013_IODPEDPB_00467;dRep_bin247_EKGBJCBM_00057;dRep_bin161_JMKPMHCO_00432;dRep_bin105_AAEIHAFF_01723;dRep_bin277_MIPNGEJE_00757;dRep_bin023_HGFJFKAI_00810;dRep_bin166_DFIAJFEC_00239;dRep_bin253_CPMOAOBJ_00188;dRep_bin339_DBNBAHDK_00879	dRep_bin013_IODPEDPB_00467	>dRep_bin013_IODPEDPB_00467 DNA-directed RNA polymerase subunit alpha	dRep_bin023_HGFJFKAI_00810	CDS	rpoA	2.7.7.6	DNA-directed RNA polymerase subunit alpha
HGFJFKAI_00865	26.06739	26.95138	25.7744	27.166339999999998	27.017120000000002	26.53912	27.01744	27.44419				7	1	4,9636E-55	dRep_bin209_NKIHFCEN_00145;dRep_bin300_MJPPENNL_01356;dRep_bin279_IAEFEPEN_00777;dRep_bin069_EGGEOGDC_01214;dRep_bin065_DFABHCBI_01689;dRep_bin292_JIBLDOOH_00391;dRep_bin226_NLNLHLLD_00910;dRep_bin095_HOBNOEEF_01500;dRep_bin041_OPKGAAAG_01855;dRep_bin324_IPNHOHFK_00257;dRep_bin047_IFFANOMN_01252;dRep_bin023_HGFJFKAI_00865;dRep_bin234_ECABPBME_01126;dRep_bin016_JLGAHGOJ_01180;dRep_bin310_IMBAFDIF_01344;dRep_bin297_EDHEEICA_00623;dRep_bin201_OLKDIBOK_01309;dRep_bin248_CCDFPECI_00260;dRep_bin157_JPNIKEKI_00566;dRep_bin240_LDBBGJKG_01099;dRep_bin308_JBPDGLPP_00042;dRep_bin319_PBDBJGCJ_00310;dRep_bin066_AJACLPEE_00006;dRep_bin344_CJJBDGAA_00764;dRep_bin075_EPEMMOCL_01885	dRep_bin209_NKIHFCEN_00145;dRep_bin300_MJPPENNL_01356;dRep_bin279_IAEFEPEN_00777;dRep_bin069_EGGEOGDC_01214;dRep_bin065_DFABHCBI_01689;dRep_bin292_JIBLDOOH_00391;dRep_bin226_NLNLHLLD_00910;dRep_bin095_HOBNOEEF_01500;dRep_bin041_OPKGAAAG_01855;dRep_bin324_IPNHOHFK_00257;dRep_bin047_IFFANOMN_01252;dRep_bin023_HGFJFKAI_00865	>dRep_bin209_NKIHFCEN_00145 Adenylosuccinate synthetase;>dRep_bin300_MJPPENNL_01356 Adenylosuccinate synthetase;>dRep_bin279_IAEFEPEN_00777 Adenylosuccinate synthetase;>dRep_bin069_EGGEOGDC_01214 Adenylosuccinate synthetase;>dRep_bin065_DFABHCBI_01689 Aden	dRep_bin023_HGFJFKAI_00865	CDS	purA	6.3.4.4	Adenylosuccinate synthetase
HGFJFKAI_00898			23.262129999999996									1	1	1,124E-05	dRep_bin325_EIIGOGHN_00455;dRep_bin287_DONBGKDH_01891;dRep_bin260_HELEPKJL_00793;dRep_bin095_HOBNOEEF_02183;dRep_bin023_HGFJFKAI_00898;dRep_bin226_NLNLHLLD_01485;dRep_bin041_OPKGAAAG_02051;dRep_bin062_BOFBFLDA_01385;dRep_bin181_MKGPMPIA_01332;dRep_bin269_PNILGKPH_01447;dRep_bin282_PKAAPBFP_01100;dRep_bin261_FJICAFFM_01242;dRep_bin203_CLFNNOCF_00622;dRep_bin234_ECABPBME_01964;dRep_bin007_LNLEAAAN_01741;dRep_bin335_JIOGNAPG_00799;dRep_bin309_BIOHLCGG_01161;dRep_bin160_EFKMPBOM_00129;dRep_bin154_JGOKHKLI_00545;dRep_bin133_NOBPDBPA_03678;dRep_bin089_PAJFOJBN_00292;dRep_bin019_MOJEPLJF_01283;dRep_bin134_HIAPAODO_00643;dRep_bin024_OLHDGABE_01143;dRep_bin005_CNDFPKJG_01361;dRep_bin209_NKIHFCEN_00699;dRep_bin179_HFEIPPPA_01887;dRep_bin157_JPNIKEKI_01833;dRep_bin107_EFNBPDOP_00671;dRep_bin077_DNNBMPMC_00160;dRep_bin039_IJNOFOJK_00262;dRep_bin016_JLGAHGOJ_00401;dRep_bin344_CJJBDGAA_00564;dRep_bin324_IPNHOHFK_02103;dRep_bin249_OFIIEIDJ_01493;dRep_bin139_KGAJINND_00448;dRep_bin081_JDPCKDNP_01186;dRep_bin319_PBDBJGCJ_01293;dRep_bin279_IAEFEPEN_01252;dRep_bin220_PILICLLL_00969;dRep_bin201_OLKDIBOK_00798;dRep_bin293_MEPKGOAN_01317;dRep_bin292_JIBLDOOH_01431;dRep_bin027_OFJCHLJJ_01511;dRep_bin347_EKGCMFPD_00408;dRep_bin211_LGJEFJIK_00568	dRep_bin325_EIIGOGHN_00455;dRep_bin287_DONBGKDH_01891;dRep_bin260_HELEPKJL_00793;dRep_bin095_HOBNOEEF_02183;dRep_bin023_HGFJFKAI_00898;dRep_bin226_NLNLHLLD_01485;dRep_bin041_OPKGAAAG_02051;dRep_bin062_BOFBFLDA_01385;dRep_bin181_MKGPMPIA_01332;dRep_bin269_PNILGKPH_01447;dRep_bin282_PKAAPBFP_01100;dRep_bin261_FJICAFFM_01242;dRep_bin203_CLFNNOCF_00622;dRep_bin234_ECABPBME_01964;dRep_bin007_LNLEAAAN_01741;dRep_bin335_JIOGNAPG_00799;dRep_bin309_BIOHLCGG_01161;dRep_bin160_EFKMPBOM_00129;dRep_bin154_JGOKHKLI_00545;dRep_bin133_NOBPDBPA_03678;dRep_bin089_PAJFOJBN_00292;dRep_bin019_MOJEPLJF_01283;dRep_bin134_HIAPAODO_00643;dRep_bin024_OLHDGABE_01143;dRep_bin005_CNDFPKJG_01361;dRep_bin209_NKIHFCEN_00699;dRep_bin179_HFEIPPPA_01887;dRep_bin157_JPNIKEKI_01833;dRep_bin107_EFNBPDOP_00671;dRep_bin077_DNNBMPMC_00160;dRep_bin039_IJNOFOJK_00262;dRep_bin016_JLGAHGOJ_00401;dRep_bin344_CJJBDGAA_00564;dRep_bin324_IPNHOHFK_02103;dRep_bin249_OFIIEIDJ_01493;dRep_bin139_KGAJINND_00448;dRep_bin081_JDPCKDNP_01186;dRep_bin319_PBDBJGCJ_01293;dRep_bin279_IAEFEPEN_01252;dRep_bin220_PILICLLL_00969;dRep_bin201_OLKDIBOK_00798;dRep_bin293_MEPKGOAN_01317;dRep_bin292_JIBLDOOH_01431;dRep_bin027_OFJCHLJJ_01511;dRep_bin347_EKGCMFPD_00408;dRep_bin211_LGJEFJIK_00568	>dRep_bin325_EIIGOGHN_00455 Valine--tRNA ligase;>dRep_bin287_DONBGKDH_01891 Valine--tRNA ligase;>dRep_bin260_HELEPKJL_00793 Valine--tRNA ligase;>dRep_bin095_HOBNOEEF_02183 Valine--tRNA ligase;>dRep_bin023_HGFJFKAI_00898 Valine--tRNA ligase;>dRep_bin226_NLN	dRep_bin023_HGFJFKAI_00898	CDS	valS	6.1.1.9	Valine--tRNA ligase
HGFJFKAI_00926		25.25472										2	2	0,0015256	dRep_bin325_EIIGOGHN_00643;dRep_bin224_NFENHJGB_00524;dRep_bin107_EFNBPDOP_00730;dRep_bin077_DNNBMPMC_01445;dRep_bin282_PKAAPBFP_00946;dRep_bin293_MEPKGOAN_01040;dRep_bin066_AJACLPEE_01013;dRep_bin023_HGFJFKAI_00926;dRep_bin319_PBDBJGCJ_00614;dRep_bin041_OPKGAAAG_00710;dRep_bin106_BKDHGPBE_00334;dRep_bin335_JIOGNAPG_00933;dRep_bin089_PAJFOJBN_01195;dRep_bin008_MNDMJLEI_00243;dRep_bin177_HLHGKLFL_00188;dRep_bin250_NMCAMJIO_01007;dRep_bin140_ACFAKGIL_00119	dRep_bin325_EIIGOGHN_00643;dRep_bin224_NFENHJGB_00524;dRep_bin107_EFNBPDOP_00730;dRep_bin077_DNNBMPMC_01445;dRep_bin282_PKAAPBFP_00946;dRep_bin293_MEPKGOAN_01040;dRep_bin066_AJACLPEE_01013;dRep_bin023_HGFJFKAI_00926;dRep_bin319_PBDBJGCJ_00614;dRep_bin041_OPKGAAAG_00710;dRep_bin106_BKDHGPBE_00334;dRep_bin335_JIOGNAPG_00933;dRep_bin089_PAJFOJBN_01195;dRep_bin008_MNDMJLEI_00243;dRep_bin177_HLHGKLFL_00188;dRep_bin250_NMCAMJIO_01007;dRep_bin140_ACFAKGIL_00119	>dRep_bin325_EIIGOGHN_00643 Pantothenate synthetase;>dRep_bin224_NFENHJGB_00524 Pantothenate synthetase;>dRep_bin107_EFNBPDOP_00730 Pantothenate synthetase;>dRep_bin077_DNNBMPMC_01445 Pantothenate synthetase;>dRep_bin282_PKAAPBFP_00946 Pantothenate synthet	dRep_bin023_HGFJFKAI_00926	CDS	panC	6.3.2.1	Pantothenate synthetase
HGFJFKAI_01079	25.06719	24.575539999999997	24.59412	24.91324	25.45466	25.418599999999998	25.00971	26.31672				5	0	2,2862E-11	dRep_bin193_GDMDPNNM_01460;dRep_bin238_OLNFACLE_00660;dRep_bin044_IPFKHAEF_01609;dRep_bin049_MNFBDPNO_01690;dRep_bin354_MMOALAFN_01287;dRep_bin023_HGFJFKAI_01079	dRep_bin193_GDMDPNNM_01460;dRep_bin238_OLNFACLE_00660;dRep_bin044_IPFKHAEF_01609;dRep_bin049_MNFBDPNO_01690;dRep_bin354_MMOALAFN_01287;dRep_bin023_HGFJFKAI_01079	>dRep_bin193_GDMDPNNM_01460 Cysteine synthase;>dRep_bin238_OLNFACLE_00660 Cysteine synthase;>dRep_bin044_IPFKHAEF_01609 Cysteine synthase;>dRep_bin049_MNFBDPNO_01690 O-acetylserine sulfhydrylase;>dRep_bin354_MMOALAFN_01287 O-acetylserine sulfhydrylase;>dRe	dRep_bin023_HGFJFKAI_01079	CDS	cysK1	2.5.1.47	O-acetylserine sulfhydrylase
HGFJFKAI_01138	29.895639999999997	30.7809	30.231350000000003	30.858900000000002	29.677760000000003	30.19049	29.354850000000006	29.610980000000005				14	2	9,6215E-110	dRep_bin133_NOBPDBPA_01525;dRep_bin069_EGGEOGDC_00770;dRep_bin095_HOBNOEEF_02261;dRep_bin279_IAEFEPEN_00690;dRep_bin240_LDBBGJKG_00170;dRep_bin324_IPNHOHFK_01232;dRep_bin168_HKDILBFE_01877;dRep_bin186_HJAAFFNP_00589;dRep_bin023_HGFJFKAI_01138;dRep_bin308_JBPDGLPP_00699;dRep_bin107_EFNBPDOP_00870;dRep_bin319_PBDBJGCJ_01310;dRep_bin107_EFNBPDOP_01430;dRep_bin089_PAJFOJBN_01445;dRep_bin077_DNNBMPMC_01129;dRep_bin066_AJACLPEE_00745;dRep_bin347_EKGCMFPD_00717;dRep_bin001_GHHJMDAL_01300;dRep_bin181_MKGPMPIA_00661	dRep_bin133_NOBPDBPA_01525;dRep_bin069_EGGEOGDC_00770;dRep_bin095_HOBNOEEF_02261;dRep_bin279_IAEFEPEN_00690;dRep_bin240_LDBBGJKG_00170;dRep_bin324_IPNHOHFK_01232;dRep_bin168_HKDILBFE_01877;dRep_bin186_HJAAFFNP_00589;dRep_bin023_HGFJFKAI_01138	>dRep_bin133_NOBPDBPA_01525 Aspartate-semialdehyde dehydrogenase 2;>dRep_bin069_EGGEOGDC_00770 Aspartate-semialdehyde dehydrogenase 2;>dRep_bin095_HOBNOEEF_02261 Aspartate-semialdehyde dehydrogenase 2;>dRep_bin279_IAEFEPEN_00690 Aspartate-semialdehyde dehy	dRep_bin023_HGFJFKAI_01138	CDS	asd2	1.2.1.11	Aspartate-semialdehyde dehydrogenase 2
HGFJFKAI_01146	25.368329999999997	24.68555	25.86302	24.76182	25.762789999999995	25.892639999999997	24.990229999999997					10	4	1,7673E-62	dRep_bin023_HGFJFKAI_01146	dRep_bin023_HGFJFKAI_01146	>dRep_bin023_HGFJFKAI_01146 Formate acetyltransferase	dRep_bin023_HGFJFKAI_01146	CDS	pflB_1	2.3.1.54	Formate acetyltransferase
HGFJFKAI_01250		24.53629	25.0059									2	1	0,00019779	dRep_bin023_HGFJFKAI_01250;dRep_bin099_DNDAGJEJ_01283;dRep_bin248_CCDFPECI_01188;dRep_bin145_KMJJJOEJ_01627;dRep_bin220_PILICLLL_00379;dRep_bin303_DDDNDJCF_01527;dRep_bin254_GJDPFAEA_00295;dRep_bin211_LGJEFJIK_00752;dRep_bin124_HIHDFGCL_01240;dRep_bin091_MAFACGAD_00828;dRep_bin168_HKDILBFE_00712;dRep_bin088_DNGPPFDK_00057;dRep_bin300_MJPPENNL_00870;dRep_bin203_CLFNNOCF_01251;dRep_bin069_EGGEOGDC_00393;dRep_bin344_CJJBDGAA_01938;dRep_bin328_GIGKNKPJ_00733;dRep_bin249_OFIIEIDJ_00615;dRep_bin127_FIPNHBCH_01426;dRep_bin065_DFABHCBI_01328;dRep_bin056_EMNHHOJA_00171;dRep_bin016_JLGAHGOJ_00622;dRep_bin152_LJMCIADF_01306;dRep_bin095_HOBNOEEF_00399;dRep_bin079_GAOGCKND_00062;dRep_bin068_ENOLAELK_00735;dRep_bin026_HNPIIINL_00729;dRep_bin081_JDPCKDNP_00247;dRep_bin201_OLKDIBOK_01233;dRep_bin297_EDHEEICA_00257;dRep_bin308_JBPDGLPP_00521	dRep_bin023_HGFJFKAI_01250;dRep_bin099_DNDAGJEJ_01283;dRep_bin248_CCDFPECI_01188;dRep_bin145_KMJJJOEJ_01627;dRep_bin220_PILICLLL_00379;dRep_bin303_DDDNDJCF_01527;dRep_bin254_GJDPFAEA_00295;dRep_bin211_LGJEFJIK_00752;dRep_bin124_HIHDFGCL_01240;dRep_bin091_MAFACGAD_00828;dRep_bin168_HKDILBFE_00712;dRep_bin088_DNGPPFDK_00057;dRep_bin300_MJPPENNL_00870;dRep_bin203_CLFNNOCF_01251;dRep_bin069_EGGEOGDC_00393;dRep_bin344_CJJBDGAA_01938;dRep_bin328_GIGKNKPJ_00733;dRep_bin249_OFIIEIDJ_00615;dRep_bin127_FIPNHBCH_01426;dRep_bin065_DFABHCBI_01328;dRep_bin056_EMNHHOJA_00171;dRep_bin016_JLGAHGOJ_00622;dRep_bin152_LJMCIADF_01306;dRep_bin095_HOBNOEEF_00399;dRep_bin079_GAOGCKND_00062;dRep_bin068_ENOLAELK_00735;dRep_bin026_HNPIIINL_00729;dRep_bin081_JDPCKDNP_00247;dRep_bin201_OLKDIBOK_01233;dRep_bin297_EDHEEICA_00257;dRep_bin308_JBPDGLPP_00521	>dRep_bin023_HGFJFKAI_01250 Diaminopimelate decarboxylase;>dRep_bin099_DNDAGJEJ_01283 Diaminopimelate decarboxylase;>dRep_bin248_CCDFPECI_01188 Diaminopimelate decarboxylase;>dRep_bin145_KMJJJOEJ_01627 Diaminopimelate decarboxylase;>dRep_bin220_PILICLLL_00	dRep_bin023_HGFJFKAI_01250	CDS	lysA_1	4.1.1.20	Diaminopimelate decarboxylase
HGFJFKAI_01253		24.67546		25.102980000000002								8	1	6,8671E-27	dRep_bin039_IJNOFOJK_00365;dRep_bin023_HGFJFKAI_01253	dRep_bin039_IJNOFOJK_00365;dRep_bin023_HGFJFKAI_01253	>dRep_bin039_IJNOFOJK_00365 Bifunctional purine biosynthesis protein PurH;>dRep_bin023_HGFJFKAI_01253 Bifunctional purine biosynthesis protein PurH	dRep_bin023_HGFJFKAI_01253	CDS	purH		Bifunctional purine biosynthesis protein PurH
HGFJFKAI_01254	25.80075	25.68779	26.6702	26.31724	24.611270000000005	24.348950000000002	25.425789999999996	24.824450000000002				6	1	3,3881E-44	dRep_bin081_JDPCKDNP_02240;dRep_bin023_HGFJFKAI_01254;dRep_bin154_JGOKHKLI_02183;dRep_bin024_OLHDGABE_00597;dRep_bin124_HIHDFGCL_01271;dRep_bin006_HPJGJCAG_01436;dRep_bin333_EFOKIBLA_01177	dRep_bin081_JDPCKDNP_02240;dRep_bin023_HGFJFKAI_01254;dRep_bin154_JGOKHKLI_02183	>dRep_bin081_JDPCKDNP_02240 IMP cyclohydrolase-like protein;>dRep_bin023_HGFJFKAI_01254 IMP cyclohydrolase-like protein;>dRep_bin154_JGOKHKLI_02183 IMP cyclohydrolase-like protein	dRep_bin023_HGFJFKAI_01254	CDS			IMP cyclohydrolase-like protein
HGFJFKAI_01284								23.49826				6	1	4,9058E-104	dRep_bin095_HOBNOEEF_02007;dRep_bin297_EDHEEICA_00996;dRep_bin287_DONBGKDH_00529;dRep_bin203_CLFNNOCF_02530;dRep_bin145_KMJJJOEJ_00745;dRep_bin328_GIGKNKPJ_01323;dRep_bin308_JBPDGLPP_01130;dRep_bin306_FGHMKMMP_00318;dRep_bin282_PKAAPBFP_00465;dRep_bin211_LGJEFJIK_00345;dRep_bin139_KGAJINND_00945;dRep_bin127_FIPNHBCH_00052;dRep_bin095_HOBNOEEF_01888;dRep_bin095_HOBNOEEF_01790;dRep_bin091_MAFACGAD_01162;dRep_bin088_DNGPPFDK_00714;dRep_bin075_EPEMMOCL_00488;dRep_bin134_HIAPAODO_00290;dRep_bin160_EFKMPBOM_01967;dRep_bin154_JGOKHKLI_00778;dRep_bin016_JLGAHGOJ_00450;dRep_bin221_LMGNIMOJ_00494;dRep_bin262_LLCGOPIE_00946;dRep_bin321_EJNAAGJG_00981;dRep_bin310_IMBAFDIF_00300;dRep_bin250_NMCAMJIO_00649;dRep_bin247_EKGBJCBM_00054;dRep_bin143_PFLDJMPF_00817;dRep_bin124_HIHDFGCL_01300;dRep_bin114_FJHJKHGL_01242;dRep_bin105_AAEIHAFF_01720;dRep_bin074_EHAOMODJ_01300;dRep_bin026_HNPIIINL_00948;dRep_bin177_HLHGKLFL_00479;dRep_bin146_LCCIBLJG_00787;dRep_bin005_CNDFPKJG_00738;dRep_bin325_EIIGOGHN_00065;dRep_bin303_DDDNDJCF_01078;dRep_bin266_JFOCEDAE_00989;dRep_bin181_MKGPMPIA_00365;dRep_bin089_PAJFOJBN_02097;dRep_bin047_IFFANOMN_00393;dRep_bin024_OLHDGABE_01301;dRep_bin023_HGFJFKAI_01284;dRep_bin017_FGFLFOPJ_00125;dRep_bin081_JDPCKDNP_01256;dRep_bin065_DFABHCBI_01254;dRep_bin001_GHHJMDAL_01184	dRep_bin095_HOBNOEEF_02007;dRep_bin297_EDHEEICA_00996;dRep_bin287_DONBGKDH_00529;dRep_bin203_CLFNNOCF_02530;dRep_bin145_KMJJJOEJ_00745;dRep_bin328_GIGKNKPJ_01323;dRep_bin308_JBPDGLPP_01130;dRep_bin306_FGHMKMMP_00318;dRep_bin282_PKAAPBFP_00465;dRep_bin211_LGJEFJIK_00345;dRep_bin139_KGAJINND_00945;dRep_bin127_FIPNHBCH_00052;dRep_bin095_HOBNOEEF_01888;dRep_bin095_HOBNOEEF_01790;dRep_bin091_MAFACGAD_01162;dRep_bin088_DNGPPFDK_00714;dRep_bin075_EPEMMOCL_00488;dRep_bin134_HIAPAODO_00290;dRep_bin160_EFKMPBOM_01967;dRep_bin154_JGOKHKLI_00778;dRep_bin016_JLGAHGOJ_00450;dRep_bin221_LMGNIMOJ_00494	>dRep_bin095_HOBNOEEF_02007 30S ribosomal protein S13;>dRep_bin297_EDHEEICA_00996 30S ribosomal protein S13;>dRep_bin287_DONBGKDH_00529 30S ribosomal protein S13;>dRep_bin203_CLFNNOCF_02530 30S ribosomal protein S13;>dRep_bin145_KMJJJOEJ_00745 30S ribosoma	dRep_bin023_HGFJFKAI_01284	CDS	rpsM		30S ribosomal protein S13
HGFJFKAI_01291			20.928319999999996									1	1	0,0075121	dRep_bin023_HGFJFKAI_01291	dRep_bin023_HGFJFKAI_01291	>dRep_bin023_HGFJFKAI_01291 30S ribosomal protein S5	dRep_bin023_HGFJFKAI_01291	CDS	rpsE		30S ribosomal protein S5
HGFJFKAI_01298					23.93742			23.47098				3	1	1,1062E-09	dRep_bin243_JDMELKLC_00398;dRep_bin303_DDDNDJCF_00769;dRep_bin282_PKAAPBFP_01679;dRep_bin201_OLKDIBOK_01319;dRep_bin319_PBDBJGCJ_01591;dRep_bin242_LKAIBGGJ_00029;dRep_bin310_IMBAFDIF_01505;dRep_bin260_HELEPKJL_01696;dRep_bin166_DFIAJFEC_00514;dRep_bin147_EJLBNEBE_00361;dRep_bin077_DNNBMPMC_00391;dRep_bin282_PKAAPBFP_00757;dRep_bin041_OPKGAAAG_01476;dRep_bin179_HFEIPPPA_00680;dRep_bin169_PNICKJKO_00497;dRep_bin139_KGAJINND_01602;dRep_bin101_BNDDLDCL_01738;dRep_bin023_HGFJFKAI_01298;dRep_bin160_EFKMPBOM_01956;dRep_bin069_EGGEOGDC_01526	dRep_bin243_JDMELKLC_00398;dRep_bin303_DDDNDJCF_00769;dRep_bin282_PKAAPBFP_01679;dRep_bin201_OLKDIBOK_01319;dRep_bin319_PBDBJGCJ_01591;dRep_bin242_LKAIBGGJ_00029;dRep_bin310_IMBAFDIF_01505;dRep_bin260_HELEPKJL_01696;dRep_bin166_DFIAJFEC_00514;dRep_bin147_EJLBNEBE_00361;dRep_bin077_DNNBMPMC_00391;dRep_bin282_PKAAPBFP_00757;dRep_bin041_OPKGAAAG_01476;dRep_bin179_HFEIPPPA_00680;dRep_bin169_PNICKJKO_00497;dRep_bin139_KGAJINND_01602;dRep_bin101_BNDDLDCL_01738;dRep_bin023_HGFJFKAI_01298;dRep_bin160_EFKMPBOM_01956;dRep_bin069_EGGEOGDC_01526	>dRep_bin243_JDMELKLC_00398 Enolase;>dRep_bin303_DDDNDJCF_00769 Enolase;>dRep_bin282_PKAAPBFP_01679 Enolase;>dRep_bin201_OLKDIBOK_01319 Enolase;>dRep_bin319_PBDBJGCJ_01591 Enolase;>dRep_bin242_LKAIBGGJ_00029 Enolase;>dRep_bin310_IMBAFDIF_01505 Enolase;>dRe	dRep_bin023_HGFJFKAI_01298	CDS	eno	4.2.1.11	Enolase
HGFJFKAI_01368					23.62333	23.07401		24.25068				4	3	4,4157E-47	dRep_bin243_JDMELKLC_00712;dRep_bin023_HGFJFKAI_01368;dRep_bin095_HOBNOEEF_01225;dRep_bin260_HELEPKJL_01732;dRep_bin283_NLJJFFAC_01319;dRep_bin310_IMBAFDIF_01399;dRep_bin240_LDBBGJKG_00021;dRep_bin278_BFCONKOE_00740	dRep_bin243_JDMELKLC_00712	>dRep_bin243_JDMELKLC_00712 Bacterial extracellular solute-binding protein	dRep_bin023_HGFJFKAI_01368	CDS			Bacterial extracellular solute-binding protein
HGFJFKAI_01457	26.568379999999998	28.028489999999998	26.87526	26.77605	28.2968	25.960449999999998	26.55639	27.79383				8	3	1,6148E-37	dRep_bin243_JDMELKLC_00153;dRep_bin308_JBPDGLPP_01221;dRep_bin094_LBLICAAO_00561;dRep_bin325_EIIGOGHN_00256;dRep_bin168_HKDILBFE_00631;dRep_bin099_DNDAGJEJ_00618;dRep_bin023_HGFJFKAI_01457;dRep_bin319_PBDBJGCJ_00547;dRep_bin006_HPJGJCAG_01559;dRep_bin347_EKGCMFPD_00224;dRep_bin001_GHHJMDAL_00367	dRep_bin243_JDMELKLC_00153	>dRep_bin243_JDMELKLC_00153 Phosphoribosylaminoimidazole-succinocarboxamide synthase	dRep_bin023_HGFJFKAI_01457	CDS	purC	6.3.2.6	Phosphoribosylaminoimidazole-succinocarboxamide synthase
HGFJFKAI_01486					26.930329999999998							1	1	0,0016962	dRep_bin023_HGFJFKAI_01486	dRep_bin023_HGFJFKAI_01486	>dRep_bin023_HGFJFKAI_01486 HPr kinase/phosphorylase	dRep_bin023_HGFJFKAI_01486	CDS	hprK	2.7.11.-	HPr kinase/phosphorylase
HGFJFKAI_01527				21.86884								3	1	1,3797E-13	dRep_bin021_AJDDCGJC_00051;dRep_bin252_NDAKLAGD_00826;dRep_bin317_ABPHNCOD_01131;dRep_bin216_JNJMCPHB_01076;dRep_bin272_LGBDGEIM_00618;dRep_bin097_CBBLIPAN_01579;dRep_bin053_OMGNPOOB_00833;dRep_bin337_FHKPNFDB_00090;dRep_bin052_PGOOKKFH_01594;dRep_bin168_HKDILBFE_01015;dRep_bin322_OJELOJOF_01622;dRep_bin220_PILICLLL_01543;dRep_bin055_IBMMJAEE_00610;dRep_bin061_ONFGDLGO_01234;dRep_bin168_HKDILBFE_00368;dRep_bin055_IBMMJAEE_00168;dRep_bin261_FJICAFFM_00490;dRep_bin017_FGFLFOPJ_00414;dRep_bin115_IFKGOGCL_01280;dRep_bin257_JHFDCHCB_01406;dRep_bin323_FBBLPLCG_01600;dRep_bin007_LNLEAAAN_00766;dRep_bin049_MNFBDPNO_00781;dRep_bin333_EFOKIBLA_01149;dRep_bin279_IAEFEPEN_01471;dRep_bin234_ECABPBME_01515;dRep_bin179_HFEIPPPA_02108;dRep_bin023_HGFJFKAI_01527;dRep_bin335_JIOGNAPG_00787;dRep_bin250_NMCAMJIO_00423;dRep_bin158_OGFICEAP_00549;dRep_bin100_CODMOHGB_01341;dRep_bin089_PAJFOJBN_02515;dRep_bin088_DNGPPFDK_01371;dRep_bin081_JDPCKDNP_00684;dRep_bin324_IPNHOHFK_01454;dRep_bin300_MJPPENNL_01260;dRep_bin292_JIBLDOOH_01593;dRep_bin284_DEHKNOBF_00281;dRep_bin282_PKAAPBFP_00934;dRep_bin279_IAEFEPEN_01275;dRep_bin269_PNILGKPH_00152;dRep_bin240_LDBBGJKG_01257;dRep_bin226_NLNLHLLD_00367;dRep_bin209_NKIHFCEN_01541;dRep_bin203_CLFNNOCF_01928;dRep_bin179_HFEIPPPA_00359;dRep_bin167_BLMEBMNN_00233;dRep_bin160_EFKMPBOM_02132;dRep_bin154_JGOKHKLI_02775;dRep_bin133_NOBPDBPA_00727;dRep_bin114_FJHJKHGL_00838;dRep_bin095_HOBNOEEF_00822;dRep_bin075_EPEMMOCL_00939;dRep_bin074_EHAOMODJ_00291;dRep_bin065_DFABHCBI_01203;dRep_bin347_EKGCMFPD_00625;dRep_bin325_EIIGOGHN_00612;dRep_bin310_IMBAFDIF_01359;dRep_bin308_JBPDGLPP_00545;dRep_bin306_FGHMKMMP_01018;dRep_bin297_EDHEEICA_01903;dRep_bin201_OLKDIBOK_00335;dRep_bin186_HJAAFFNP_00409;dRep_bin173_BEBNCADL_00242;dRep_bin169_PNICKJKO_00103;dRep_bin145_KMJJJOEJ_01348;dRep_bin135_HHKACLPM_00566;dRep_bin101_BNDDLDCL_00036;dRep_bin069_EGGEOGDC_01480;dRep_bin062_BOFBFLDA_00487;dRep_bin047_IFFANOMN_01271;dRep_bin042_MMFCLHOO_00308;dRep_bin041_OPKGAAAG_00762;dRep_bin024_OLHDGABE_00679;dRep_bin016_JLGAHGOJ_01831;dRep_bin001_GHHJMDAL_00660;dRep_bin349_AMCJEEEG_00131;dRep_bin312_MJFEFHMP_00833;dRep_bin264_DNFFGNEG_00100;dRep_bin246_MMFBABHK_00297;dRep_bin219_HGPEELLF_00003;dRep_bin174_LJJOKEME_01103;dRep_bin129_GADIAMAA_01409;dRep_bin127_FIPNHBCH_00703;dRep_bin077_DNNBMPMC_01278;dRep_bin030_OGPDLGOC_01790;dRep_bin004_OCHNPJPO_01519;dRep_bin218_ACMPALGF_00968;dRep_bin185_OOOLKACK_00657;dRep_bin181_MKGPMPIA_00538;dRep_bin148_NAJFKJMD_01090;dRep_bin058_GJKCICJN_01056;dRep_bin291_EILOACJB_00579;dRep_bin244_LBFMHLBI_01277;dRep_bin223_PIMCDKJI_01006;dRep_bin204_INMOGLDN_01473;dRep_bin184_MBMMJHKO_00222;dRep_bin302_AHDEPDKG_00621;dRep_bin265_LFKFBJPC_00590;dRep_bin233_BAGKKAOB_00885;dRep_bin188_EJILNMPE_01053;dRep_bin081_JDPCKDNP_01324;dRep_bin318_IEDEJOFJ_00724;dRep_bin144_NPHACCKF_00221;dRep_bin096_GNHMEKPF_00086;dRep_bin344_CJJBDGAA_01489;dRep_bin295_EJGKDKNE_00851;dRep_bin048_PABMBHAL_01507;dRep_bin303_DDDNDJCF_00663;dRep_bin283_NLJJFFAC_01754;dRep_bin201_OLKDIBOK_00523;dRep_bin139_KGAJINND_01276;dRep_bin134_HIAPAODO_01158;dRep_bin094_LBLICAAO_00942;dRep_bin062_BOFBFLDA_00417;dRep_bin336_MPGOKPOL_02385;dRep_bin082_HBEFABJN_00650;dRep_bin125_FADLGGII_00540;dRep_bin334_NAPFFNLD_01195;dRep_bin217_MJCEAEPB_00530;dRep_bin195_DDMDFNOK_00971;dRep_bin060_HNFNENOI_00088;dRep_bin328_GIGKNKPJ_00426;dRep_bin281_OGHLKMAI_01076;dRep_bin197_NHLBHFEI_00626;dRep_bin103_IGJBLKMC_00726;dRep_bin116_CLFDBMOF_00455;dRep_bin332_KAOPCDPF_00448;dRep_bin345_GLPJDLOI_00589;dRep_bin314_KCHFPLIP_00788;dRep_bin128_JPBBHEMA_00693;dRep_bin073_AKBCEHHO_01462;dRep_bin045_GJACFFBC_00428;dRep_bin329_GDOHKPBL_01522;dRep_bin316_FNLHDNEO_00349;dRep_bin307_AOCKHIKF_00400;dRep_bin294_EHJINIDK_01408;dRep_bin289_KALDCNNP_01327;dRep_bin183_FPGIOKBG_00622;dRep_bin098_DDEBHDKK_01308;dRep_bin165_HMDFFMMM_01247;dRep_bin037_GEAOEKHA_01212;dRep_bin256_KEMNAOBC_00113;dRep_bin092_OOJCPDEA_01143;dRep_bin126_PPDNCIBN_00264;dRep_bin090_IPGNHCBJ_00911;dRep_bin215_ABBFGCAF_00280;dRep_bin005_CNDFPKJG_00629;dRep_bin270_GEJAHNCN_01426;dRep_bin116_CLFDBMOF_00686;dRep_bin069_EGGEOGDC_00857;dRep_bin007_LNLEAAAN_01604;dRep_bin057_BNCFHBBO_01159;dRep_bin038_EIGFILKG_00229;dRep_bin114_FJHJKHGL_00934;dRep_bin152_LJMCIADF_00045;dRep_bin322_OJELOJOF_00826;dRep_bin266_JFOCEDAE_00030;dRep_bin194_MEPDOGGJ_01235;dRep_bin079_GAOGCKND_01437;dRep_bin068_ENOLAELK_01387;dRep_bin025_CBEJJMLE_00917;dRep_bin240_LDBBGJKG_00802;dRep_bin347_EKGCMFPD_01498;dRep_bin167_BLMEBMNN_00596;dRep_bin160_EFKMPBOM_02114;dRep_bin260_HELEPKJL_02017;dRep_bin091_MAFACGAD_00797;dRep_bin099_DNDAGJEJ_01471;dRep_bin278_BFCONKOE_01179;dRep_bin168_HKDILBFE_00397;dRep_bin284_DEHKNOBF_00737;dRep_bin001_GHHJMDAL_01209;dRep_bin236_BNONDECB_00531;dRep_bin286_OEMIJKMC_01078;dRep_bin231_CFOLMJBA_00464;dRep_bin193_GDMDPNNM_00224;dRep_bin172_ALNHGLMD_01787;dRep_bin182_EMCFODCD_00065;dRep_bin044_IPFKHAEF_00183	dRep_bin021_AJDDCGJC_00051;dRep_bin252_NDAKLAGD_00826;dRep_bin317_ABPHNCOD_01131;dRep_bin216_JNJMCPHB_01076;dRep_bin272_LGBDGEIM_00618;dRep_bin097_CBBLIPAN_01579;dRep_bin053_OMGNPOOB_00833;dRep_bin337_FHKPNFDB_00090;dRep_bin052_PGOOKKFH_01594	>dRep_bin021_AJDDCGJC_00051 ATP synthase subunit alpha;>dRep_bin252_NDAKLAGD_00826 ATP synthase subunit alpha;>dRep_bin317_ABPHNCOD_01131 ATP synthase subunit alpha;>dRep_bin216_JNJMCPHB_01076 ATP synthase subunit alpha;>dRep_bin272_LGBDGEIM_00618 ATP synt	dRep_bin023_HGFJFKAI_01527	CDS	atpA	3.6.3.14	ATP synthase subunit alpha
HGFJFKAI_01538								21.53744				1	1	9,4284E-05	dRep_bin226_NLNLHLLD_01510;dRep_bin168_HKDILBFE_01356;dRep_bin099_DNDAGJEJ_01674;dRep_bin095_HOBNOEEF_01956;dRep_bin023_HGFJFKAI_01538;dRep_bin047_IFFANOMN_01380	dRep_bin226_NLNLHLLD_01510;dRep_bin168_HKDILBFE_01356;dRep_bin099_DNDAGJEJ_01674;dRep_bin095_HOBNOEEF_01956;dRep_bin023_HGFJFKAI_01538;dRep_bin047_IFFANOMN_01380	>dRep_bin226_NLNLHLLD_01510 Dihydroorotate dehydrogenase B (NAD(+)), catalytic subunit;>dRep_bin168_HKDILBFE_01356 Dihydroorotate dehydrogenase B (NAD(+)), catalytic subunit;>dRep_bin099_DNDAGJEJ_01674 Dihydroorotate dehydrogenase B (NAD(+)), catalytic sub	dRep_bin023_HGFJFKAI_01538	CDS	pyrD	1.3.1.14	Dihydroorotate dehydrogenase B (NAD(+)), catalytic subunit
HGFJFKAI_01546	24.07218	23.716800000000003	23.95118	26.763439999999996	25.16549	24.475189999999998	24.676160000000003	26.104560000000003				15	4	9,6629E-89	dRep_bin292_JIBLDOOH_00231;dRep_bin297_EDHEEICA_01717;dRep_bin211_LGJEFJIK_01294;dRep_bin157_JPNIKEKI_01376;dRep_bin019_MOJEPLJF_01906;dRep_bin005_CNDFPKJG_01248;dRep_bin159_ADJJGPBG_00225;dRep_bin168_HKDILBFE_01106;dRep_bin099_DNDAGJEJ_00713;dRep_bin205_LKIOOBKC_01411;dRep_bin043_KLAFNACO_02125;dRep_bin245_MBCFLKOF_01021;dRep_bin023_HGFJFKAI_01546;dRep_bin101_BNDDLDCL_00015;dRep_bin010_MFFFGEGD_02440	dRep_bin292_JIBLDOOH_00231;dRep_bin297_EDHEEICA_01717;dRep_bin211_LGJEFJIK_01294	>dRep_bin292_JIBLDOOH_00231 Cellobiose phosphorylase;>dRep_bin297_EDHEEICA_01717 Cellobiose phosphorylase;>dRep_bin211_LGJEFJIK_01294 Cellobiose phosphorylase	dRep_bin023_HGFJFKAI_01546	CDS	cbpA	2.4.1.20	Cellobiose phosphorylase
HGFJFKAI_01643						22.306860000000004						3	1	6,3831E-08	dRep_bin041_OPKGAAAG_00367;dRep_bin284_DEHKNOBF_00254;dRep_bin319_PBDBJGCJ_00655;dRep_bin203_CLFNNOCF_01297;dRep_bin181_MKGPMPIA_00407;dRep_bin179_HFEIPPPA_00842;dRep_bin139_KGAJINND_00918;dRep_bin133_NOBPDBPA_02473;dRep_bin066_AJACLPEE_00004;dRep_bin194_MEPDOGGJ_00508;dRep_bin152_LJMCIADF_01431;dRep_bin068_ENOLAELK_01095;dRep_bin038_EIGFILKG_01028;dRep_bin025_CBEJJMLE_01384;dRep_bin324_IPNHOHFK_01934;dRep_bin023_HGFJFKAI_01643;dRep_bin209_NKIHFCEN_00957;dRep_bin157_JPNIKEKI_01504;dRep_bin297_EDHEEICA_00667;dRep_bin226_NLNLHLLD_00265;dRep_bin306_FGHMKMMP_01756;dRep_bin005_CNDFPKJG_00040;dRep_bin158_OGFICEAP_01238;dRep_bin303_DDDNDJCF_00102;dRep_bin299_AKNBKJGM_01304;dRep_bin248_CCDFPECI_01165;dRep_bin145_KMJJJOEJ_00716;dRep_bin095_HOBNOEEF_01829;dRep_bin081_JDPCKDNP_01870;dRep_bin053_OMGNPOOB_00265;dRep_bin310_IMBAFDIF_00723;dRep_bin077_DNNBMPMC_01957;dRep_bin201_OLKDIBOK_00147;dRep_bin124_HIHDFGCL_01069;dRep_bin079_GAOGCKND_00667;dRep_bin107_EFNBPDOP_00920	dRep_bin041_OPKGAAAG_00367;dRep_bin284_DEHKNOBF_00254;dRep_bin319_PBDBJGCJ_00655;dRep_bin203_CLFNNOCF_01297;dRep_bin181_MKGPMPIA_00407;dRep_bin179_HFEIPPPA_00842;dRep_bin139_KGAJINND_00918;dRep_bin133_NOBPDBPA_02473;dRep_bin066_AJACLPEE_00004;dRep_bin194_MEPDOGGJ_00508;dRep_bin152_LJMCIADF_01431;dRep_bin068_ENOLAELK_01095;dRep_bin038_EIGFILKG_01028;dRep_bin025_CBEJJMLE_01384;dRep_bin324_IPNHOHFK_01934;dRep_bin023_HGFJFKAI_01643;dRep_bin209_NKIHFCEN_00957;dRep_bin157_JPNIKEKI_01504;dRep_bin297_EDHEEICA_00667;dRep_bin226_NLNLHLLD_00265;dRep_bin306_FGHMKMMP_01756;dRep_bin005_CNDFPKJG_00040	>dRep_bin041_OPKGAAAG_00367 Nicotinate-nucleotide pyrophosphorylase [carboxylating];>dRep_bin284_DEHKNOBF_00254 Nicotinate-nucleotide pyrophosphorylase [carboxylating];>dRep_bin319_PBDBJGCJ_00655 putative nicotinate-nucleotide pyrophosphorylase [carboxylat	dRep_bin023_HGFJFKAI_01643	CDS	nadC	2.4.2.19	putative nicotinate-nucleotide pyrophosphorylase [carboxylating]
HGFJFKAI_01666		26.07165										11	1	1,783E-177	dRep_bin023_HGFJFKAI_01666	dRep_bin023_HGFJFKAI_01666	>dRep_bin023_HGFJFKAI_01666 GGGtGRT protein	dRep_bin023_HGFJFKAI_01666	CDS			GGGtGRT protein
HGFJFKAI_01677			21.705439999999996									1	1	5,739E-11	dRep_bin023_HGFJFKAI_01677;dRep_bin167_BLMEBMNN_01632;dRep_bin017_FGFLFOPJ_01055	dRep_bin023_HGFJFKAI_01677;dRep_bin167_BLMEBMNN_01632;dRep_bin017_FGFLFOPJ_01055	>dRep_bin023_HGFJFKAI_01677 Flagellar hook protein FlgE;>dRep_bin167_BLMEBMNN_01632 Flagellar hook protein FlgE;>dRep_bin017_FGFLFOPJ_01055 Flagellar hook protein FlgE	dRep_bin023_HGFJFKAI_01677	CDS	flgE		Flagellar hook protein FlgE
HGFJFKAI_01708			22.09941									2	1	6,714E-06	dRep_bin179_HFEIPPPA_02337;dRep_bin324_IPNHOHFK_00622;dRep_bin116_CLFDBMOF_00799;dRep_bin006_HPJGJCAG_01804;dRep_bin302_AHDEPDKG_00994;dRep_bin306_FGHMKMMP_00469;dRep_bin292_JIBLDOOH_01500;dRep_bin226_NLNLHLLD_00785;dRep_bin209_NKIHFCEN_02132;dRep_bin269_PNILGKPH_00882;dRep_bin238_OLNFACLE_00688;dRep_bin025_CBEJJMLE_00614;dRep_bin347_EKGCMFPD_00065;dRep_bin001_GHHJMDAL_01148;dRep_bin322_OJELOJOF_00643;dRep_bin284_DEHKNOBF_00598;dRep_bin266_JFOCEDAE_00905;dRep_bin023_HGFJFKAI_01708;dRep_bin115_IFKGOGCL_02485;dRep_bin158_OGFICEAP_00573;dRep_bin234_ECABPBME_00814;dRep_bin027_OFJCHLJJ_01525	dRep_bin179_HFEIPPPA_02337;dRep_bin324_IPNHOHFK_00622;dRep_bin116_CLFDBMOF_00799;dRep_bin006_HPJGJCAG_01804;dRep_bin302_AHDEPDKG_00994;dRep_bin306_FGHMKMMP_00469;dRep_bin292_JIBLDOOH_01500;dRep_bin226_NLNLHLLD_00785;dRep_bin209_NKIHFCEN_02132;dRep_bin269_PNILGKPH_00882;dRep_bin238_OLNFACLE_00688;dRep_bin025_CBEJJMLE_00614;dRep_bin347_EKGCMFPD_00065;dRep_bin001_GHHJMDAL_01148;dRep_bin322_OJELOJOF_00643;dRep_bin284_DEHKNOBF_00598;dRep_bin266_JFOCEDAE_00905;dRep_bin023_HGFJFKAI_01708;dRep_bin115_IFKGOGCL_02485;dRep_bin158_OGFICEAP_00573;dRep_bin234_ECABPBME_00814;dRep_bin027_OFJCHLJJ_01525	>dRep_bin179_HFEIPPPA_02337 Diaminopimelate decarboxylase;>dRep_bin324_IPNHOHFK_00622 Diaminopimelate decarboxylase;>dRep_bin116_CLFDBMOF_00799 Diaminopimelate decarboxylase;>dRep_bin006_HPJGJCAG_01804 Diaminopimelate decarboxylase;>dRep_bin302_AHDEPDKG_00	dRep_bin023_HGFJFKAI_01708	CDS	lysA_2	4.1.1.20	Diaminopimelate decarboxylase
