GBprotID	LFQ intensity CtrPig1	LFQ intensity CtrPig2	LFQ intensity CtrPig3	LFQ intensity CtrPig4	LFQ intensity MannanPig1	LFQ intensity MannanPig2	LFQ intensity MannanPig3	LFQ intensity MannanPig4	Only identified by site	Reverse	Contaminant	Peptides	Unique peptides	PEP	Protein IDs	Majority protein IDs	Fasta headers	IDcomb	ftype	gene	EC_number	product
HNPIIINL_00033					24.827160000000003	24.766939999999998	25.354940000000003	24.93778				4	1	2,6143E-16	dRep_bin179_HFEIPPPA_01106;dRep_bin081_JDPCKDNP_00227;dRep_bin310_IMBAFDIF_00789;dRep_bin047_IFFANOMN_01496;dRep_bin269_PNILGKPH_00580;dRep_bin133_NOBPDBPA_00629;dRep_bin344_CJJBDGAA_00139;dRep_bin287_DONBGKDH_00900;dRep_bin260_HELEPKJL_01759;dRep_bin167_BLMEBMNN_02130;dRep_bin017_FGFLFOPJ_00410;dRep_bin332_KAOPCDPF_00175;dRep_bin328_GIGKNKPJ_00524;dRep_bin306_FGHMKMMP_00565;dRep_bin297_EDHEEICA_01573;dRep_bin292_JIBLDOOH_01650;dRep_bin226_NLNLHLLD_00938;dRep_bin209_NKIHFCEN_01785;dRep_bin203_CLFNNOCF_02551;dRep_bin194_MEPDOGGJ_00132;dRep_bin186_HJAAFFNP_01551;dRep_bin179_HFEIPPPA_02186;dRep_bin177_HLHGKLFL_00944;dRep_bin157_JPNIKEKI_01051;dRep_bin152_LJMCIADF_00176;dRep_bin144_NPHACCKF_01603;dRep_bin133_NOBPDBPA_02384;dRep_bin127_FIPNHBCH_00466;dRep_bin079_GAOGCKND_00600;dRep_bin068_ENOLAELK_01364;dRep_bin041_OPKGAAAG_01949;dRep_bin039_IJNOFOJK_01664;dRep_bin025_CBEJJMLE_00100;dRep_bin273_FGAEBHNP_00413;dRep_bin203_CLFNNOCF_01124;dRep_bin085_MBHLGCDB_01454;dRep_bin069_EGGEOGDC_00328;dRep_bin057_BNCFHBBO_00329;dRep_bin049_MNFBDPNO_01360;dRep_bin123_PJKBFKBB_01535;dRep_bin075_EPEMMOCL_01035;dRep_bin026_HNPIIINL_00033;dRep_bin336_MPGOKPOL_00844;dRep_bin147_EJLBNEBE_01290;dRep_bin065_DFABHCBI_00546;dRep_bin257_JHFDCHCB_01035;dRep_bin299_AKNBKJGM_00588	dRep_bin179_HFEIPPPA_01106;dRep_bin081_JDPCKDNP_00227;dRep_bin310_IMBAFDIF_00789;dRep_bin047_IFFANOMN_01496	>dRep_bin179_HFEIPPPA_01106 1-deoxy-D-xylulose-5-phosphate synthase;>dRep_bin081_JDPCKDNP_00227 1-deoxy-D-xylulose-5-phosphate synthase;>dRep_bin310_IMBAFDIF_00789 1-deoxy-D-xylulose-5-phosphate synthase;>dRep_bin047_IFFANOMN_01496 1-deoxy-D-xylulose-5-pho	dRep_bin026_HNPIIINL_00033	CDS	dxs_1	2.2.1.7	1-deoxy-D-xylulose-5-phosphate synthase
HNPIIINL_00089	24.827890000000004	24.995289999999997	27.57773	24.967539999999996								2	2	5,745E-05	dRep_bin094_LBLICAAO_00035;dRep_bin029_LFMGBBEC_00468;dRep_bin351_CKFFBPHM_00106;dRep_bin115_IFKGOGCL_01618;dRep_bin105_AAEIHAFF_00821;dRep_bin118_FGIOKLBC_00146;dRep_bin348_LCLFDNEE_00839;dRep_bin057_BNCFHBBO_00956;dRep_bin328_GIGKNKPJ_00687;dRep_bin056_EMNHHOJA_00366;dRep_bin026_HNPIIINL_00089	dRep_bin094_LBLICAAO_00035;dRep_bin029_LFMGBBEC_00468;dRep_bin351_CKFFBPHM_00106;dRep_bin115_IFKGOGCL_01618;dRep_bin105_AAEIHAFF_00821;dRep_bin118_FGIOKLBC_00146;dRep_bin348_LCLFDNEE_00839;dRep_bin057_BNCFHBBO_00956;dRep_bin328_GIGKNKPJ_00687;dRep_bin056_EMNHHOJA_00366;dRep_bin026_HNPIIINL_00089	>dRep_bin094_LBLICAAO_00035 UDP-2,3-diacetamido-2,3-dideoxy-D-glucuronate 2-epimerase;>dRep_bin029_LFMGBBEC_00468 UDP-2,3-diacetamido-2,3-dideoxy-D-glucuronate 2-epimerase;>dRep_bin351_CKFFBPHM_00106 UDP-2,3-diacetamido-2,3-dideoxy-D-glucuronate 2-epimeras	dRep_bin026_HNPIIINL_00089	CDS	wbpI	5.1.3.23	UDP-2,3-diacetamido-2,3-dideoxy-D-glucuronate 2-epimerase
HNPIIINL_00211	29.566519999999997	29.568679999999997	28.55943	28.435239999999997	27.85976	27.72358	27.95382	27.70114				15	0	0	dRep_bin287_DONBGKDH_01482;dRep_bin107_EFNBPDOP_01392;dRep_bin278_BFCONKOE_01030;dRep_bin168_HKDILBFE_01198;dRep_bin140_ACFAKGIL_00910;dRep_bin099_DNDAGJEJ_00420;dRep_bin349_AMCJEEEG_01505;dRep_bin279_IAEFEPEN_00072;dRep_bin249_OFIIEIDJ_01057;dRep_bin135_HHKACLPM_00365;dRep_bin096_GNHMEKPF_00596;dRep_bin075_EPEMMOCL_00452;dRep_bin026_HNPIIINL_00211;dRep_bin019_MOJEPLJF_01655	dRep_bin287_DONBGKDH_01482	>dRep_bin287_DONBGKDH_01482 Formate--tetrahydrofolate ligase	dRep_bin026_HNPIIINL_00211	CDS	fhs	6.3.4.3	Formate--tetrahydrofolate ligase
HNPIIINL_00248								24.445939999999997				3	1	1,2536E-20	dRep_bin193_GDMDPNNM_01335;dRep_bin194_MEPDOGGJ_00909;dRep_bin152_LJMCIADF_01136;dRep_bin124_HIHDFGCL_01283;dRep_bin101_BNDDLDCL_01786;dRep_bin079_GAOGCKND_00249;dRep_bin068_ENOLAELK_01480;dRep_bin038_EIGFILKG_00281;dRep_bin025_CBEJJMLE_00745;dRep_bin286_OEMIJKMC_00443;dRep_bin231_CFOLMJBA_00984;dRep_bin172_ALNHGLMD_00252;dRep_bin142_NDNPJBEM_00885;dRep_bin126_PPDNCIBN_01642;dRep_bin090_IPGNHCBJ_00359;dRep_bin321_EJNAAGJG_00108;dRep_bin273_FGAEBHNP_01040;dRep_bin323_FBBLPLCG_00442;dRep_bin309_BIOHLCGG_00720;dRep_bin268_LKMHIMLG_00991;dRep_bin166_DFIAJFEC_01338;dRep_bin143_PFLDJMPF_01113;dRep_bin108_BPNCDINP_00985;dRep_bin056_EMNHHOJA_01394;dRep_bin026_HNPIIINL_00248;dRep_bin006_HPJGJCAG_00021;dRep_bin340_OFLHNGJM_01045;dRep_bin270_GEJAHNCN_00054;dRep_bin182_EMCFODCD_00202;dRep_bin044_IPFKHAEF_00804;dRep_bin354_MMOALAFN_00312;dRep_bin253_CPMOAOBJ_00594;dRep_bin074_EHAOMODJ_00802;dRep_bin049_MNFBDPNO_00646;dRep_bin257_JHFDCHCB_00163;dRep_bin336_MPGOKPOL_00030;dRep_bin169_PNICKJKO_01093;dRep_bin147_EJLBNEBE_00336;dRep_bin123_PJKBFKBB_00356;dRep_bin032_PPNIGLME_01273;dRep_bin293_MEPKGOAN_00625	dRep_bin193_GDMDPNNM_01335;dRep_bin194_MEPDOGGJ_00909;dRep_bin152_LJMCIADF_01136;dRep_bin124_HIHDFGCL_01283;dRep_bin101_BNDDLDCL_01786;dRep_bin079_GAOGCKND_00249;dRep_bin068_ENOLAELK_01480;dRep_bin038_EIGFILKG_00281;dRep_bin025_CBEJJMLE_00745;dRep_bin286_OEMIJKMC_00443;dRep_bin231_CFOLMJBA_00984;dRep_bin172_ALNHGLMD_00252;dRep_bin142_NDNPJBEM_00885;dRep_bin126_PPDNCIBN_01642;dRep_bin090_IPGNHCBJ_00359	>dRep_bin193_GDMDPNNM_01335 HPr-like protein Crh;>dRep_bin194_MEPDOGGJ_00909 HPr-like protein Crh;>dRep_bin152_LJMCIADF_01136 HPr-like protein Crh;>dRep_bin124_HIHDFGCL_01283 HPr-like protein Crh;>dRep_bin101_BNDDLDCL_01786 HPr-like protein Crh;>dRep_bin07	dRep_bin026_HNPIIINL_00248	CDS	crh		HPr-like protein Crh
HNPIIINL_00271					25.211890000000004	25.339260000000003	26.12879	25.574070000000003				3	1	2,9195E-08	dRep_bin286_OEMIJKMC_01056;dRep_bin231_CFOLMJBA_01394;dRep_bin126_PPDNCIBN_01281;dRep_bin182_EMCFODCD_00271;dRep_bin044_IPFKHAEF_01245;dRep_bin143_PFLDJMPF_00478;dRep_bin193_GDMDPNNM_00467;dRep_bin172_ALNHGLMD_00257;dRep_bin257_JHFDCHCB_01356;dRep_bin166_DFIAJFEC_00278;dRep_bin101_BNDDLDCL_00093;dRep_bin309_BIOHLCGG_01620;dRep_bin293_MEPKGOAN_01598;dRep_bin056_EMNHHOJA_00250;dRep_bin026_HNPIIINL_00271;dRep_bin253_CPMOAOBJ_00737;dRep_bin161_JMKPMHCO_00827	dRep_bin286_OEMIJKMC_01056;dRep_bin231_CFOLMJBA_01394;dRep_bin126_PPDNCIBN_01281;dRep_bin182_EMCFODCD_00271;dRep_bin044_IPFKHAEF_01245;dRep_bin143_PFLDJMPF_00478;dRep_bin193_GDMDPNNM_00467;dRep_bin172_ALNHGLMD_00257;dRep_bin257_JHFDCHCB_01356;dRep_bin166_DFIAJFEC_00278;dRep_bin101_BNDDLDCL_00093;dRep_bin309_BIOHLCGG_01620;dRep_bin293_MEPKGOAN_01598;dRep_bin056_EMNHHOJA_00250;dRep_bin026_HNPIIINL_00271;dRep_bin253_CPMOAOBJ_00737	>dRep_bin286_OEMIJKMC_01056 Acetate kinase;>dRep_bin231_CFOLMJBA_01394 Acetate kinase;>dRep_bin126_PPDNCIBN_01281 Acetate kinase;>dRep_bin182_EMCFODCD_00271 Acetate kinase;>dRep_bin044_IPFKHAEF_01245 Acetate kinase;>dRep_bin143_PFLDJMPF_00478 Acetate kinas	dRep_bin026_HNPIIINL_00271	CDS	ackA	2.7.2.1	Acetate kinase
HNPIIINL_00319	25.929329999999997	25.80334	28.56587	25.608739999999997	28.330830000000002	28.851180000000003	29.565199999999997	28.06394				23	21	2,0039E-260	dRep_bin053_OMGNPOOB_01278;dRep_bin302_AHDEPDKG_00299;dRep_bin238_OLNFACLE_00618;dRep_bin125_FADLGGII_00735;dRep_bin097_CBBLIPAN_01892;dRep_bin134_HIAPAODO_01198;dRep_bin261_FJICAFFM_00295;dRep_bin282_PKAAPBFP_01577;dRep_bin074_EHAOMODJ_00946;dRep_bin347_EKGCMFPD_01776;dRep_bin127_FIPNHBCH_01523;dRep_bin075_EPEMMOCL_00770;dRep_bin201_OLKDIBOK_02470;dRep_bin323_FBBLPLCG_00116;dRep_bin242_LKAIBGGJ_01298;dRep_bin029_LFMGBBEC_01403;dRep_bin250_NMCAMJIO_00064;dRep_bin049_MNFBDPNO_00772;dRep_bin309_BIOHLCGG_00465;dRep_bin193_GDMDPNNM_00894;dRep_bin106_BKDHGPBE_01007;dRep_bin243_JDMELKLC_00010;dRep_bin057_BNCFHBBO_00002;dRep_bin026_HNPIIINL_00319;dRep_bin085_MBHLGCDB_00395;dRep_bin140_ACFAKGIL_00161;dRep_bin150_HCDEOBMH_00480;dRep_bin177_HLHGKLFL_01057;dRep_bin260_HELEPKJL_01297;dRep_bin159_ADJJGPBG_00428	dRep_bin053_OMGNPOOB_01278	>dRep_bin053_OMGNPOOB_01278 Phosphoribosylformylglycinamidine synthase	dRep_bin026_HNPIIINL_00319	CDS	purL	6.3.5.3	Phosphoribosylformylglycinamidine synthase
HNPIIINL_00405	24.60541	23.799960000000002	25.702479999999998	24.386139999999997								9	0	1,4415E-104	dRep_bin026_HNPIIINL_00405	dRep_bin026_HNPIIINL_00405	>dRep_bin026_HNPIIINL_00405 Pyruvate synthase	dRep_bin026_HNPIIINL_00405	CDS	por	1.2.7.1	Pyruvate synthase
HNPIIINL_00489						25.658890000000003						14	0	1,2116E-68	dRep_bin154_JGOKHKLI_02714;dRep_bin160_EFKMPBOM_01388;dRep_bin026_HNPIIINL_00489;dRep_bin074_EHAOMODJ_00099	dRep_bin154_JGOKHKLI_02714;dRep_bin160_EFKMPBOM_01388	>dRep_bin154_JGOKHKLI_02714 Chaperone protein DnaK;>dRep_bin160_EFKMPBOM_01388 Chaperone protein DnaK	dRep_bin026_HNPIIINL_00489	CDS	dnaK		Chaperone protein DnaK
HNPIIINL_00549	26.95638	27.83912		26.40137								9	1	1,2261E-26	dRep_bin026_HNPIIINL_00549	dRep_bin026_HNPIIINL_00549	>dRep_bin026_HNPIIINL_00549 L-fucose isomerase	dRep_bin026_HNPIIINL_00549	CDS	fucI	5.3.1.25	L-fucose isomerase
HNPIIINL_00564	25.672060000000002	25.183699999999998	27.895509999999998	26.38412	27.742079999999998	26.64361	25.851930000000003	27.16375				10	1	5,7417E-142	dRep_bin026_HNPIIINL_00564	dRep_bin026_HNPIIINL_00564	>dRep_bin026_HNPIIINL_00564 Elongation factor Tu	dRep_bin026_HNPIIINL_00564	CDS	tuf		Elongation factor Tu
HNPIIINL_00565								25.762709999999995				9	0	2,6874E-145	dRep_bin026_HNPIIINL_00565;dRep_bin309_BIOHLCGG_00069;dRep_bin182_EMCFODCD_01256;dRep_bin044_IPFKHAEF_00002;dRep_bin230_NINMBMKB_00397;dRep_bin221_LMGNIMOJ_00250	dRep_bin026_HNPIIINL_00565;dRep_bin309_BIOHLCGG_00069	>dRep_bin026_HNPIIINL_00565 Elongation factor G;>dRep_bin309_BIOHLCGG_00069 Elongation factor G	dRep_bin026_HNPIIINL_00565	CDS	fusA		Elongation factor G
HNPIIINL_00566			25.22055	25.501880000000003								4	1	1,8831E-09	dRep_bin079_GAOGCKND_00309;dRep_bin152_LJMCIADF_00842;dRep_bin049_MNFBDPNO_01112;dRep_bin213_HHHELMFN_00434;dRep_bin085_MBHLGCDB_01493;dRep_bin354_MMOALAFN_01092;dRep_bin026_HNPIIINL_00566;dRep_bin321_EJNAAGJG_00386	dRep_bin079_GAOGCKND_00309;dRep_bin152_LJMCIADF_00842;dRep_bin049_MNFBDPNO_01112	>dRep_bin079_GAOGCKND_00309 30S ribosomal protein S7;>dRep_bin152_LJMCIADF_00842 30S ribosomal protein S7;>dRep_bin049_MNFBDPNO_01112 30S ribosomal protein S7	dRep_bin026_HNPIIINL_00566	CDS	rpsG		30S ribosomal protein S7
HNPIIINL_00567			28.77903	29.416960000000003	27.236439999999998	27.457870000000003	26.988259999999997	26.782069999999997				3	1	5,5654E-46	dRep_bin005_CNDFPKJG_00512;dRep_bin135_HHKACLPM_00996;dRep_bin007_LNLEAAAN_00555;dRep_bin303_DDDNDJCF_00538;dRep_bin328_GIGKNKPJ_00724;dRep_bin308_JBPDGLPP_01472;dRep_bin292_JIBLDOOH_00033;dRep_bin278_BFCONKOE_00439;dRep_bin269_PNILGKPH_00427;dRep_bin179_HFEIPPPA_01854;dRep_bin133_NOBPDBPA_03738;dRep_bin127_FIPNHBCH_00184;dRep_bin065_DFABHCBI_01543;dRep_bin039_IJNOFOJK_00835;dRep_bin031_BNHMFOII_01289;dRep_bin024_OLHDGABE_00632;dRep_bin001_GHHJMDAL_01042;dRep_bin027_OFJCHLJJ_01571;dRep_bin134_HIAPAODO_00757;dRep_bin339_DBNBAHDK_00274;dRep_bin268_LKMHIMLG_00767;dRep_bin215_ABBFGCAF_00889;dRep_bin142_NDNPJBEM_01236;dRep_bin347_EKGCMFPD_01033;dRep_bin325_EIIGOGHN_00650;dRep_bin310_IMBAFDIF_01183;dRep_bin293_MEPKGOAN_00730;dRep_bin282_PKAAPBFP_00286;dRep_bin100_CODMOHGB_00949;dRep_bin091_MAFACGAD_00437;dRep_bin079_GAOGCKND_00310;dRep_bin323_FBBLPLCG_01106;dRep_bin322_OJELOJOF_01654;dRep_bin273_FGAEBHNP_01366;dRep_bin266_JFOCEDAE_01192;dRep_bin231_CFOLMJBA_00878;dRep_bin194_MEPDOGGJ_01303;dRep_bin182_EMCFODCD_01258;dRep_bin169_PNICKJKO_01164;dRep_bin158_OGFICEAP_00873;dRep_bin115_IFKGOGCL_01307;dRep_bin108_BPNCDINP_01062;dRep_bin087_FCLGAPPI_00927;dRep_bin056_EMNHHOJA_01448;dRep_bin047_IFFANOMN_00919;dRep_bin044_IPFKHAEF_00004;dRep_bin026_HNPIIINL_00567;dRep_bin025_CBEJJMLE_00162;dRep_bin336_MPGOKPOL_00656;dRep_bin277_MIPNGEJE_00938;dRep_bin257_JHFDCHCB_01267;dRep_bin172_ALNHGLMD_01450;dRep_bin166_DFIAJFEC_00114;dRep_bin147_EJLBNEBE_01610;dRep_bin105_AAEIHAFF_01928	dRep_bin005_CNDFPKJG_00512;dRep_bin135_HHKACLPM_00996;dRep_bin007_LNLEAAAN_00555;dRep_bin303_DDDNDJCF_00538;dRep_bin328_GIGKNKPJ_00724;dRep_bin308_JBPDGLPP_01472;dRep_bin292_JIBLDOOH_00033;dRep_bin278_BFCONKOE_00439;dRep_bin269_PNILGKPH_00427;dRep_bin179_HFEIPPPA_01854;dRep_bin133_NOBPDBPA_03738;dRep_bin127_FIPNHBCH_00184;dRep_bin065_DFABHCBI_01543;dRep_bin039_IJNOFOJK_00835;dRep_bin031_BNHMFOII_01289;dRep_bin024_OLHDGABE_00632;dRep_bin001_GHHJMDAL_01042;dRep_bin027_OFJCHLJJ_01571	>dRep_bin005_CNDFPKJG_00512 30S ribosomal protein S12;>dRep_bin135_HHKACLPM_00996 30S ribosomal protein S12;>dRep_bin007_LNLEAAAN_00555 30S ribosomal protein S12;>dRep_bin303_DDDNDJCF_00538 30S ribosomal protein S12;>dRep_bin328_GIGKNKPJ_00724 30S ribosoma	dRep_bin026_HNPIIINL_00567	CDS	rpsL		30S ribosomal protein S12
HNPIIINL_00624	27.45325		27.60633	27.34875	27.55311	26.292109999999997	27.99129	27.414820000000002				3	3	2,7731E-35	dRep_bin013_IODPEDPB_00129;dRep_bin152_LJMCIADF_00561;dRep_bin026_HNPIIINL_00624;dRep_bin194_MEPDOGGJ_00252;dRep_bin124_HIHDFGCL_00172;dRep_bin038_EIGFILKG_00845;dRep_bin025_CBEJJMLE_00504;dRep_bin353_PPDHLNJB_01721;dRep_bin079_GAOGCKND_01237;dRep_bin068_ENOLAELK_00465;dRep_bin006_HPJGJCAG_01285;dRep_bin175_HANCENAK_01299;dRep_bin337_FHKPNFDB_01083;dRep_bin318_IEDEJOFJ_00698;dRep_bin225_FLBKEJIP_00557;dRep_bin140_ACFAKGIL_00191	dRep_bin013_IODPEDPB_00129	>dRep_bin013_IODPEDPB_00129 Uridylate kinase	dRep_bin026_HNPIIINL_00624	CDS	pyrH	2.7.4.22	Uridylate kinase
HNPIIINL_00729		24.53629	25.0059									2	1	0,00019779	dRep_bin023_HGFJFKAI_01250;dRep_bin099_DNDAGJEJ_01283;dRep_bin248_CCDFPECI_01188;dRep_bin145_KMJJJOEJ_01627;dRep_bin220_PILICLLL_00379;dRep_bin303_DDDNDJCF_01527;dRep_bin254_GJDPFAEA_00295;dRep_bin211_LGJEFJIK_00752;dRep_bin124_HIHDFGCL_01240;dRep_bin091_MAFACGAD_00828;dRep_bin168_HKDILBFE_00712;dRep_bin088_DNGPPFDK_00057;dRep_bin300_MJPPENNL_00870;dRep_bin203_CLFNNOCF_01251;dRep_bin069_EGGEOGDC_00393;dRep_bin344_CJJBDGAA_01938;dRep_bin328_GIGKNKPJ_00733;dRep_bin249_OFIIEIDJ_00615;dRep_bin127_FIPNHBCH_01426;dRep_bin065_DFABHCBI_01328;dRep_bin056_EMNHHOJA_00171;dRep_bin016_JLGAHGOJ_00622;dRep_bin152_LJMCIADF_01306;dRep_bin095_HOBNOEEF_00399;dRep_bin079_GAOGCKND_00062;dRep_bin068_ENOLAELK_00735;dRep_bin026_HNPIIINL_00729;dRep_bin081_JDPCKDNP_00247;dRep_bin201_OLKDIBOK_01233;dRep_bin297_EDHEEICA_00257;dRep_bin308_JBPDGLPP_00521	dRep_bin023_HGFJFKAI_01250;dRep_bin099_DNDAGJEJ_01283;dRep_bin248_CCDFPECI_01188;dRep_bin145_KMJJJOEJ_01627;dRep_bin220_PILICLLL_00379;dRep_bin303_DDDNDJCF_01527;dRep_bin254_GJDPFAEA_00295;dRep_bin211_LGJEFJIK_00752;dRep_bin124_HIHDFGCL_01240;dRep_bin091_MAFACGAD_00828;dRep_bin168_HKDILBFE_00712;dRep_bin088_DNGPPFDK_00057;dRep_bin300_MJPPENNL_00870;dRep_bin203_CLFNNOCF_01251;dRep_bin069_EGGEOGDC_00393;dRep_bin344_CJJBDGAA_01938;dRep_bin328_GIGKNKPJ_00733;dRep_bin249_OFIIEIDJ_00615;dRep_bin127_FIPNHBCH_01426;dRep_bin065_DFABHCBI_01328;dRep_bin056_EMNHHOJA_00171;dRep_bin016_JLGAHGOJ_00622;dRep_bin152_LJMCIADF_01306;dRep_bin095_HOBNOEEF_00399;dRep_bin079_GAOGCKND_00062;dRep_bin068_ENOLAELK_00735;dRep_bin026_HNPIIINL_00729;dRep_bin081_JDPCKDNP_00247;dRep_bin201_OLKDIBOK_01233;dRep_bin297_EDHEEICA_00257;dRep_bin308_JBPDGLPP_00521	>dRep_bin023_HGFJFKAI_01250 Diaminopimelate decarboxylase;>dRep_bin099_DNDAGJEJ_01283 Diaminopimelate decarboxylase;>dRep_bin248_CCDFPECI_01188 Diaminopimelate decarboxylase;>dRep_bin145_KMJJJOEJ_01627 Diaminopimelate decarboxylase;>dRep_bin220_PILICLLL_00	dRep_bin026_HNPIIINL_00729	CDS	lysA	4.1.1.20	Diaminopimelate decarboxylase
HNPIIINL_00748							20.097					3	1	1,8784E-09	dRep_bin082_HBEFABJN_01139;dRep_bin283_NLJJFFAC_01668;dRep_bin144_NPHACCKF_01069;dRep_bin117_PMEMANMD_00800;dRep_bin332_KAOPCDPF_00231;dRep_bin180_JMFOHHIL_00586;dRep_bin207_OHNPDPFI_00264;dRep_bin330_CODAKHDJ_00578;dRep_bin288_KOIAAABN_01373;dRep_bin263_OLEFOGIJ_01436;dRep_bin236_BNONDECB_00176;dRep_bin096_GNHMEKPF_00698;dRep_bin188_EJILNMPE_01149;dRep_bin237_KJDLIPND_01021;dRep_bin054_NNOKONMC_00095;dRep_bin109_MJABCPAK_01188;dRep_bin102_ICFDHPGB_00117;dRep_bin078_GKFCBAEI_00283;dRep_bin108_BPNCDINP_01471;dRep_bin321_EJNAAGJG_00236;dRep_bin273_FGAEBHNP_00297;dRep_bin026_HNPIIINL_00748;dRep_bin079_GAOGCKND_00846;dRep_bin325_EIIGOGHN_01163;dRep_bin250_NMCAMJIO_01559;dRep_bin168_HKDILBFE_00882;dRep_bin099_DNDAGJEJ_00544	dRep_bin082_HBEFABJN_01139;dRep_bin283_NLJJFFAC_01668;dRep_bin144_NPHACCKF_01069	>dRep_bin082_HBEFABJN_01139 Glucose-6-phosphate isomerase;>dRep_bin283_NLJJFFAC_01668 Glucose-6-phosphate isomerase;>dRep_bin144_NPHACCKF_01069 Glucose-6-phosphate isomerase	dRep_bin026_HNPIIINL_00748	CDS	pgi	5.3.1.9	Glucose-6-phosphate isomerase
HNPIIINL_00788				15.87301								1	1	2,4835E-05	dRep_bin257_JHFDCHCB_00099;dRep_bin056_EMNHHOJA_00602;dRep_bin026_HNPIIINL_00788	dRep_bin257_JHFDCHCB_00099;dRep_bin056_EMNHHOJA_00602;dRep_bin026_HNPIIINL_00788	>dRep_bin257_JHFDCHCB_00099 L-arabinose isomerase;>dRep_bin056_EMNHHOJA_00602 L-arabinose isomerase;>dRep_bin026_HNPIIINL_00788 L-arabinose isomerase	dRep_bin026_HNPIIINL_00788	CDS	araA	5.3.1.4	L-arabinose isomerase
HNPIIINL_00792		24.54587										5	1	2,0594E-16	dRep_bin194_MEPDOGGJ_01382;dRep_bin025_CBEJJMLE_00895;dRep_bin026_HNPIIINL_00792;dRep_bin068_ENOLAELK_01360	dRep_bin194_MEPDOGGJ_01382;dRep_bin025_CBEJJMLE_00895;dRep_bin026_HNPIIINL_00792	>dRep_bin194_MEPDOGGJ_01382 Phosphoenolpyruvate carboxykinase [GTP];>dRep_bin025_CBEJJMLE_00895 Phosphoenolpyruvate carboxykinase [GTP];>dRep_bin026_HNPIIINL_00792 Phosphoenolpyruvate carboxykinase [GTP]	dRep_bin026_HNPIIINL_00792	CDS	pckG	4.1.1.32	Phosphoenolpyruvate carboxykinase [GTP]
HNPIIINL_00860	20.461739999999995											1	1	0,0056189	dRep_bin257_JHFDCHCB_00121;dRep_bin069_EGGEOGDC_00812;dRep_bin162_JBGCCDIN_01960;dRep_bin101_BNDDLDCL_00341;dRep_bin026_HNPIIINL_00860;dRep_bin194_MEPDOGGJ_00081;dRep_bin025_CBEJJMLE_00047;dRep_bin320_LDBKCCKL_00733	dRep_bin257_JHFDCHCB_00121;dRep_bin069_EGGEOGDC_00812;dRep_bin162_JBGCCDIN_01960;dRep_bin101_BNDDLDCL_00341;dRep_bin026_HNPIIINL_00860;dRep_bin194_MEPDOGGJ_00081;dRep_bin025_CBEJJMLE_00047;dRep_bin320_LDBKCCKL_00733	>dRep_bin257_JHFDCHCB_00121 4-hydroxy-2-oxovalerate aldolase;>dRep_bin069_EGGEOGDC_00812 4-hydroxy-2-oxovalerate aldolase;>dRep_bin162_JBGCCDIN_01960 4-hydroxy-2-oxovalerate aldolase;>dRep_bin101_BNDDLDCL_00341 4-hydroxy-2-oxovalerate aldolase;>dRep_bin026	dRep_bin026_HNPIIINL_00860	CDS		4.1.3.39	4-hydroxy-2-oxovalerate aldolase
HNPIIINL_00916					23.00606	23.896980000000003						2	1	8,6813E-10	dRep_bin324_IPNHOHFK_01144;dRep_bin297_EDHEEICA_00687;dRep_bin292_JIBLDOOH_02195;dRep_bin261_FJICAFFM_00057;dRep_bin226_NLNLHLLD_01357;dRep_bin209_NKIHFCEN_00791;dRep_bin203_CLFNNOCF_00406;dRep_bin179_HFEIPPPA_00190;dRep_bin157_JPNIKEKI_00583;dRep_bin133_NOBPDBPA_01168;dRep_bin041_OPKGAAAG_01275;dRep_bin168_HKDILBFE_01397;dRep_bin130_OIFFANPF_00962;dRep_bin083_OCBADPJJ_00812;dRep_bin169_PNICKJKO_00385;dRep_bin319_PBDBJGCJ_01796;dRep_bin109_MJABCPAK_00038;dRep_bin106_BKDHGPBE_00849;dRep_bin216_JNJMCPHB_01613;dRep_bin299_AKNBKJGM_00580;dRep_bin100_CODMOHGB_00911;dRep_bin317_ABPHNCOD_01390;dRep_bin272_LGBDGEIM_00788;dRep_bin249_OFIIEIDJ_00467;dRep_bin066_AJACLPEE_01038;dRep_bin335_JIOGNAPG_00681;dRep_bin234_ECABPBME_00227;dRep_bin088_DNGPPFDK_01237;dRep_bin303_DDDNDJCF_00797;dRep_bin300_MJPPENNL_00671;dRep_bin279_IAEFEPEN_01368;dRep_bin278_BFCONKOE_00336;dRep_bin269_PNILGKPH_01089;dRep_bin260_HELEPKJL_01496;dRep_bin089_PAJFOJBN_00528;dRep_bin027_OFJCHLJJ_00828;dRep_bin019_MOJEPLJF_01606;dRep_bin116_CLFDBMOF_00536;dRep_bin057_BNCFHBBO_00059;dRep_bin134_HIAPAODO_00123;dRep_bin322_OJELOJOF_01583;dRep_bin270_GEJAHNCN_00957;dRep_bin348_LCLFDNEE_00829;dRep_bin295_EJGKDKNE_00315;dRep_bin277_MIPNGEJE_01644;dRep_bin166_DFIAJFEC_00192;dRep_bin264_DNFFGNEG_00340;dRep_bin153_JGABJFBF_01236;dRep_bin114_FJHJKHGL_00133;dRep_bin111_FPJIHFKE_00195;dRep_bin252_NDAKLAGD_00473;dRep_bin247_EKGBJCBM_00710;dRep_bin035_JBNPBOKG_01025;dRep_bin026_HNPIIINL_00916;dRep_bin085_MBHLGCDB_01217;dRep_bin068_ENOLAELK_00657;dRep_bin049_MNFBDPNO_00064;dRep_bin038_EIGFILKG_00881;dRep_bin152_LJMCIADF_01515;dRep_bin079_GAOGCKND_00762;dRep_bin231_CFOLMJBA_00732;dRep_bin126_PPDNCIBN_00705;dRep_bin333_EFOKIBLA_00857;dRep_bin123_PJKBFKBB_00290;dRep_bin185_OOOLKACK_01362;dRep_bin305_FCIEFIHE_01147;dRep_bin070_EMBHKIOF_00605;dRep_bin006_HPJGJCAG_01539;dRep_bin101_BNDDLDCL_00049;dRep_bin331_HPKAPHAF_00752;dRep_bin301_NJFJIJGA_00013;dRep_bin037_GEAOEKHA_01146;dRep_bin087_FCLGAPPI_00654;dRep_bin159_ADJJGPBG_01916;dRep_bin304_JDNJGFKH_01533;dRep_bin120_EKLBOPNC_00943;dRep_bin162_JBGCCDIN_00762;dRep_bin072_JOBJPCGA_01185;dRep_bin320_LDBKCCKL_00985;dRep_bin245_MBCFLKOF_00867;dRep_bin010_MFFFGEGD_00116;dRep_bin205_LKIOOBKC_01048;dRep_bin043_KLAFNACO_01234;dRep_bin011_KOGMKLNO_01366;dRep_bin189_AHHEHGDL_01620;dRep_bin222_GGCAJABB_00316;dRep_bin208_DHPGEIBC_01479;dRep_bin130_OIFFANPF_00887	dRep_bin324_IPNHOHFK_01144;dRep_bin297_EDHEEICA_00687;dRep_bin292_JIBLDOOH_02195;dRep_bin261_FJICAFFM_00057;dRep_bin226_NLNLHLLD_01357;dRep_bin209_NKIHFCEN_00791;dRep_bin203_CLFNNOCF_00406;dRep_bin179_HFEIPPPA_00190;dRep_bin157_JPNIKEKI_00583;dRep_bin133_NOBPDBPA_01168;dRep_bin041_OPKGAAAG_01275;dRep_bin168_HKDILBFE_01397;dRep_bin130_OIFFANPF_00962;dRep_bin083_OCBADPJJ_00812;dRep_bin169_PNICKJKO_00385;dRep_bin319_PBDBJGCJ_01796;dRep_bin109_MJABCPAK_00038;dRep_bin106_BKDHGPBE_00849;dRep_bin216_JNJMCPHB_01613;dRep_bin299_AKNBKJGM_00580;dRep_bin100_CODMOHGB_00911;dRep_bin317_ABPHNCOD_01390;dRep_bin272_LGBDGEIM_00788;dRep_bin249_OFIIEIDJ_00467;dRep_bin066_AJACLPEE_01038;dRep_bin335_JIOGNAPG_00681;dRep_bin234_ECABPBME_00227;dRep_bin088_DNGPPFDK_01237;dRep_bin303_DDDNDJCF_00797;dRep_bin300_MJPPENNL_00671;dRep_bin279_IAEFEPEN_01368;dRep_bin278_BFCONKOE_00336;dRep_bin269_PNILGKPH_01089;dRep_bin260_HELEPKJL_01496;dRep_bin089_PAJFOJBN_00528;dRep_bin027_OFJCHLJJ_00828;dRep_bin019_MOJEPLJF_01606;dRep_bin116_CLFDBMOF_00536;dRep_bin057_BNCFHBBO_00059;dRep_bin134_HIAPAODO_00123;dRep_bin322_OJELOJOF_01583;dRep_bin270_GEJAHNCN_00957;dRep_bin348_LCLFDNEE_00829;dRep_bin295_EJGKDKNE_00315;dRep_bin277_MIPNGEJE_01644;dRep_bin166_DFIAJFEC_00192;dRep_bin264_DNFFGNEG_00340;dRep_bin153_JGABJFBF_01236;dRep_bin114_FJHJKHGL_00133;dRep_bin111_FPJIHFKE_00195;dRep_bin252_NDAKLAGD_00473;dRep_bin247_EKGBJCBM_00710;dRep_bin035_JBNPBOKG_01025;dRep_bin026_HNPIIINL_00916;dRep_bin085_MBHLGCDB_01217;dRep_bin068_ENOLAELK_00657;dRep_bin049_MNFBDPNO_00064;dRep_bin038_EIGFILKG_00881;dRep_bin152_LJMCIADF_01515;dRep_bin079_GAOGCKND_00762;dRep_bin231_CFOLMJBA_00732;dRep_bin126_PPDNCIBN_00705;dRep_bin333_EFOKIBLA_00857;dRep_bin123_PJKBFKBB_00290;dRep_bin185_OOOLKACK_01362;dRep_bin305_FCIEFIHE_01147;dRep_bin070_EMBHKIOF_00605;dRep_bin006_HPJGJCAG_01539;dRep_bin101_BNDDLDCL_00049;dRep_bin331_HPKAPHAF_00752;dRep_bin301_NJFJIJGA_00013;dRep_bin037_GEAOEKHA_01146;dRep_bin087_FCLGAPPI_00654;dRep_bin159_ADJJGPBG_01916;dRep_bin304_JDNJGFKH_01533;dRep_bin120_EKLBOPNC_00943;dRep_bin162_JBGCCDIN_00762;dRep_bin072_JOBJPCGA_01185;dRep_bin320_LDBKCCKL_00985;dRep_bin245_MBCFLKOF_00867;dRep_bin010_MFFFGEGD_00116;dRep_bin205_LKIOOBKC_01048;dRep_bin043_KLAFNACO_01234;dRep_bin011_KOGMKLNO_01366;dRep_bin189_AHHEHGDL_01620;dRep_bin222_GGCAJABB_00316;dRep_bin208_DHPGEIBC_01479;dRep_bin130_OIFFANPF_00887	>dRep_bin324_IPNHOHFK_01144 Glutaconyl-CoA decarboxylase subunit beta;>dRep_bin297_EDHEEICA_00687 Glutaconyl-CoA decarboxylase subunit beta;>dRep_bin292_JIBLDOOH_02195 Glutaconyl-CoA decarboxylase subunit beta;>dRep_bin261_FJICAFFM_00057 Glutaconyl-CoA dec	dRep_bin026_HNPIIINL_00916	CDS	gcdB	4.1.1.70	Glutaconyl-CoA decarboxylase subunit beta
HNPIIINL_00941	22.803880000000003	23.24625	23.595599999999997	25.77092	24.33538	25.85868	23.93508	24.224860000000003				2	0	4,1229E-07	dRep_bin201_OLKDIBOK_00936;dRep_bin292_JIBLDOOH_01822;dRep_bin056_EMNHHOJA_01539;dRep_bin300_MJPPENNL_01742;dRep_bin287_DONBGKDH_00978;dRep_bin007_LNLEAAAN_01637;dRep_bin026_HNPIIINL_00941;dRep_bin328_GIGKNKPJ_01411;dRep_bin120_EKLBOPNC_01345	dRep_bin201_OLKDIBOK_00936;dRep_bin292_JIBLDOOH_01822;dRep_bin056_EMNHHOJA_01539;dRep_bin300_MJPPENNL_01742;dRep_bin287_DONBGKDH_00978;dRep_bin007_LNLEAAAN_01637;dRep_bin026_HNPIIINL_00941;dRep_bin328_GIGKNKPJ_01411;dRep_bin120_EKLBOPNC_01345	>dRep_bin201_OLKDIBOK_00936 L-glyceraldehyde 3-phosphate reductase;>dRep_bin292_JIBLDOOH_01822 L-glyceraldehyde 3-phosphate reductase;>dRep_bin056_EMNHHOJA_01539 L-glyceraldehyde 3-phosphate reductase;>dRep_bin300_MJPPENNL_01742 L-glyceraldehyde 3-phosphat	dRep_bin026_HNPIIINL_00941	CDS	gpr_2	1.1.1.-	L-glyceraldehyde 3-phosphate reductase
HNPIIINL_00948								23.49826				6	1	4,9058E-104	dRep_bin095_HOBNOEEF_02007;dRep_bin297_EDHEEICA_00996;dRep_bin287_DONBGKDH_00529;dRep_bin203_CLFNNOCF_02530;dRep_bin145_KMJJJOEJ_00745;dRep_bin328_GIGKNKPJ_01323;dRep_bin308_JBPDGLPP_01130;dRep_bin306_FGHMKMMP_00318;dRep_bin282_PKAAPBFP_00465;dRep_bin211_LGJEFJIK_00345;dRep_bin139_KGAJINND_00945;dRep_bin127_FIPNHBCH_00052;dRep_bin095_HOBNOEEF_01888;dRep_bin095_HOBNOEEF_01790;dRep_bin091_MAFACGAD_01162;dRep_bin088_DNGPPFDK_00714;dRep_bin075_EPEMMOCL_00488;dRep_bin134_HIAPAODO_00290;dRep_bin160_EFKMPBOM_01967;dRep_bin154_JGOKHKLI_00778;dRep_bin016_JLGAHGOJ_00450;dRep_bin221_LMGNIMOJ_00494;dRep_bin262_LLCGOPIE_00946;dRep_bin321_EJNAAGJG_00981;dRep_bin310_IMBAFDIF_00300;dRep_bin250_NMCAMJIO_00649;dRep_bin247_EKGBJCBM_00054;dRep_bin143_PFLDJMPF_00817;dRep_bin124_HIHDFGCL_01300;dRep_bin114_FJHJKHGL_01242;dRep_bin105_AAEIHAFF_01720;dRep_bin074_EHAOMODJ_01300;dRep_bin026_HNPIIINL_00948;dRep_bin177_HLHGKLFL_00479;dRep_bin146_LCCIBLJG_00787;dRep_bin005_CNDFPKJG_00738;dRep_bin325_EIIGOGHN_00065;dRep_bin303_DDDNDJCF_01078;dRep_bin266_JFOCEDAE_00989;dRep_bin181_MKGPMPIA_00365;dRep_bin089_PAJFOJBN_02097;dRep_bin047_IFFANOMN_00393;dRep_bin024_OLHDGABE_01301;dRep_bin023_HGFJFKAI_01284;dRep_bin017_FGFLFOPJ_00125;dRep_bin081_JDPCKDNP_01256;dRep_bin065_DFABHCBI_01254;dRep_bin001_GHHJMDAL_01184	dRep_bin095_HOBNOEEF_02007;dRep_bin297_EDHEEICA_00996;dRep_bin287_DONBGKDH_00529;dRep_bin203_CLFNNOCF_02530;dRep_bin145_KMJJJOEJ_00745;dRep_bin328_GIGKNKPJ_01323;dRep_bin308_JBPDGLPP_01130;dRep_bin306_FGHMKMMP_00318;dRep_bin282_PKAAPBFP_00465;dRep_bin211_LGJEFJIK_00345;dRep_bin139_KGAJINND_00945;dRep_bin127_FIPNHBCH_00052;dRep_bin095_HOBNOEEF_01888;dRep_bin095_HOBNOEEF_01790;dRep_bin091_MAFACGAD_01162;dRep_bin088_DNGPPFDK_00714;dRep_bin075_EPEMMOCL_00488;dRep_bin134_HIAPAODO_00290;dRep_bin160_EFKMPBOM_01967;dRep_bin154_JGOKHKLI_00778;dRep_bin016_JLGAHGOJ_00450;dRep_bin221_LMGNIMOJ_00494	>dRep_bin095_HOBNOEEF_02007 30S ribosomal protein S13;>dRep_bin297_EDHEEICA_00996 30S ribosomal protein S13;>dRep_bin287_DONBGKDH_00529 30S ribosomal protein S13;>dRep_bin203_CLFNNOCF_02530 30S ribosomal protein S13;>dRep_bin145_KMJJJOEJ_00745 30S ribosoma	dRep_bin026_HNPIIINL_00948	CDS	rpsM		30S ribosomal protein S13
HNPIIINL_00980	23.339190000000002			25.50018	26.857210000000002	25.17154	25.03069	24.31576				4	4	2,4798E-16	dRep_bin201_OLKDIBOK_00002;dRep_bin260_HELEPKJL_01692;dRep_bin194_MEPDOGGJ_00071;dRep_bin124_HIHDFGCL_00655;dRep_bin025_CBEJJMLE_00037;dRep_bin181_MKGPMPIA_01164;dRep_bin127_FIPNHBCH_01402;dRep_bin056_EMNHHOJA_01420;dRep_bin026_HNPIIINL_00980;dRep_bin253_CPMOAOBJ_00446;dRep_bin248_CCDFPECI_00832;dRep_bin016_JLGAHGOJ_01875	dRep_bin201_OLKDIBOK_00002;dRep_bin260_HELEPKJL_01692	>dRep_bin201_OLKDIBOK_00002 Intracellular exo-alpha-(1->5)-L-arabinofuranosidase;>dRep_bin260_HELEPKJL_01692 Intracellular exo-alpha-(1->5)-L-arabinofuranosidase	dRep_bin026_HNPIIINL_00980	CDS	abfA	3.2.1.55	Intracellular exo-alpha-(1->5)-L-arabinofuranosidase
HNPIIINL_00985	28.62954	29.354750000000003	29.992399999999996	30.023139999999998	30.21083	30.89937	29.70792	30.0531				20	3	1,2194E-156	dRep_bin191_NGFJMLOL_01259;dRep_bin296_FDMPKPOH_00205;dRep_bin210_AGEDAEIA_00766;dRep_bin195_DDMDFNOK_00108;dRep_bin334_NAPFFNLD_01038;dRep_bin211_LGJEFJIK_01419;dRep_bin295_EJGKDKNE_00091;dRep_bin341_NBEGOKEF_00239;dRep_bin020_JCCELPIE_00888;dRep_bin283_NLJJFFAC_01280;dRep_bin274_DBJHKLDG_00956;dRep_bin016_JLGAHGOJ_01458;dRep_bin108_BPNCDINP_01604;dRep_bin008_MNDMJLEI_00335;dRep_bin270_GEJAHNCN_01137;dRep_bin005_CNDFPKJG_01352;dRep_bin060_HNFNENOI_00669;dRep_bin146_LCCIBLJG_00571;dRep_bin326_CEEAIPKF_00877;dRep_bin333_EFOKIBLA_00153;dRep_bin168_HKDILBFE_01558;dRep_bin244_LBFMHLBI_01599;dRep_bin096_GNHMEKPF_00231;dRep_bin237_KJDLIPND_00220;dRep_bin188_EJILNMPE_01240;dRep_bin251_FGNGCJDD_00076;dRep_bin227_IJODGBOI_00103;dRep_bin151_AHBJLMBI_00923;dRep_bin116_CLFDBMOF_00729;dRep_bin141_GMCOOECB_00805;dRep_bin350_EKOOEEGH_00925;dRep_bin132_FAPBDCMG_00754;dRep_bin080_CBEBHNNK_00317;dRep_bin051_HIEIDCID_00971;dRep_bin228_CECEDMJG_00643;dRep_bin009_KMMEHEKA_00811;dRep_bin318_IEDEJOFJ_01292;dRep_bin207_OHNPDPFI_00717;dRep_bin345_GLPJDLOI_00471;dRep_bin144_NPHACCKF_01507;dRep_bin118_FGIOKLBC_00082;dRep_bin355_KJEFNADK_00986;dRep_bin293_MEPKGOAN_00544;dRep_bin230_NINMBMKB_00674;dRep_bin014_CHIHIMAN_00029;dRep_bin218_ACMPALGF_00178;dRep_bin165_HMDFFMMM_01108;dRep_bin094_LBLICAAO_00513;dRep_bin076_GLAOFBEC_01428;dRep_bin267_LJCFMAFA_00110;dRep_bin048_PABMBHAL_00321;dRep_bin147_EJLBNEBE_02032;dRep_bin128_JPBBHEMA_00007;dRep_bin042_MMFCLHOO_01063;dRep_bin351_CKFFBPHM_00913;dRep_bin123_PJKBFKBB_00095;dRep_bin330_CODAKHDJ_00708;dRep_bin252_NDAKLAGD_01294;dRep_bin233_BAGKKAOB_01574;dRep_bin217_MJCEAEPB_00244;dRep_bin110_JGOEJECF_00272;dRep_bin109_MJABCPAK_00670;dRep_bin101_BNDDLDCL_01055;dRep_bin092_OOJCPDEA_00344;dRep_bin074_EHAOMODJ_00824;dRep_bin336_MPGOKPOL_02107;dRep_bin290_OIOJKBNK_01058;dRep_bin264_DNFFGNEG_00269;dRep_bin256_KEMNAOBC_01330;dRep_bin246_MMFBABHK_01553;dRep_bin166_DFIAJFEC_00041;dRep_bin153_JGABJFBF_00098;dRep_bin143_PFLDJMPF_00060;dRep_bin106_BKDHGPBE_01156;dRep_bin071_JHMCIJPE_01039;dRep_bin250_NMCAMJIO_00472;dRep_bin312_MJFEFHMP_01194;dRep_bin194_MEPDOGGJ_00657;dRep_bin129_GADIAMAA_01832;dRep_bin061_ONFGDLGO_01341;dRep_bin030_OGPDLGOC_01109;dRep_bin025_CBEJJMLE_00255;dRep_bin223_PIMCDKJI_01311;dRep_bin204_INMOGLDN_00399;dRep_bin202_HEPPALPH_00661;dRep_bin105_AAEIHAFF_01590;dRep_bin056_EMNHHOJA_01586;dRep_bin174_LJJOKEME_01552;dRep_bin057_BNCFHBBO_00981;dRep_bin348_LCLFDNEE_01410;dRep_bin339_DBNBAHDK_00024;dRep_bin321_EJNAAGJG_00897;dRep_bin273_FGAEBHNP_01096;dRep_bin248_CCDFPECI_01765;dRep_bin124_HIHDFGCL_01059;dRep_bin068_ENOLAELK_01049;dRep_bin038_EIGFILKG_00020;dRep_bin276_EHNFLEBP_00417;dRep_bin152_LJMCIADF_00769;dRep_bin115_IFKGOGCL_00005;dRep_bin099_DNDAGJEJ_00435;dRep_bin085_MBHLGCDB_01722;dRep_bin079_GAOGCKND_00892;dRep_bin026_HNPIIINL_00985;dRep_bin353_PPDHLNJB_01438;dRep_bin319_PBDBJGCJ_01331;dRep_bin291_EILOACJB_00194;dRep_bin241_LMMMGDNI_00361;dRep_bin091_MAFACGAD_00751;dRep_bin303_DDDNDJCF_01255;dRep_bin216_JNJMCPHB_01481;dRep_bin184_MBMMJHKO_01167;dRep_bin161_JMKPMHCO_00103;dRep_bin021_AJDDCGJC_01597;dRep_bin095_HOBNOEEF_00033;dRep_bin059_OOBKFNPP_00633;dRep_bin018_ILOONPIC_00093;dRep_bin306_FGHMKMMP_00476;dRep_bin175_HANCENAK_00082;dRep_bin040_EIFLLDOA_01832;dRep_bin166_DFIAJFEC_00288;dRep_bin085_MBHLGCDB_01583	dRep_bin191_NGFJMLOL_01259	>dRep_bin191_NGFJMLOL_01259 Aspartate--tRNA ligase	dRep_bin026_HNPIIINL_00985	CDS	aspS_1	6.1.1.12	Aspartate--tRNA ligase
HNPIIINL_01011	22.442129999999995		23.827260000000003	22.52984	24.373910000000002	23.1697	24.233810000000002	23.283759999999997				3	2	1,2032E-19	dRep_bin201_OLKDIBOK_02152;dRep_bin303_DDDNDJCF_00821;dRep_bin134_HIAPAODO_01657;dRep_bin287_DONBGKDH_00415;dRep_bin158_OGFICEAP_00108;dRep_bin257_JHFDCHCB_00470;dRep_bin323_FBBLPLCG_00211;dRep_bin169_PNICKJKO_00577;dRep_bin056_EMNHHOJA_00890;dRep_bin024_OLHDGABE_01284;dRep_bin066_AJACLPEE_00551;dRep_bin254_GJDPFAEA_01693;dRep_bin207_OHNPDPFI_01049;dRep_bin151_AHBJLMBI_00266;dRep_bin119_AKFBCGDO_00602;dRep_bin081_JDPCKDNP_00442;dRep_bin027_OFJCHLJJ_00341;dRep_bin009_KMMEHEKA_00446;dRep_bin322_OJELOJOF_01023;dRep_bin321_EJNAAGJG_00651;dRep_bin282_PKAAPBFP_01369;dRep_bin273_FGAEBHNP_01231;dRep_bin016_JLGAHGOJ_00303;dRep_bin147_EJLBNEBE_01876;dRep_bin026_HNPIIINL_01011;dRep_bin309_BIOHLCGG_00817;dRep_bin253_CPMOAOBJ_01191;dRep_bin278_BFCONKOE_00460;dRep_bin227_IJODGBOI_00814;dRep_bin220_PILICLLL_00789	dRep_bin201_OLKDIBOK_02152;dRep_bin303_DDDNDJCF_00821;dRep_bin134_HIAPAODO_01657;dRep_bin287_DONBGKDH_00415;dRep_bin158_OGFICEAP_00108;dRep_bin257_JHFDCHCB_00470;dRep_bin323_FBBLPLCG_00211;dRep_bin169_PNICKJKO_00577;dRep_bin056_EMNHHOJA_00890;dRep_bin024_OLHDGABE_01284	>dRep_bin201_OLKDIBOK_02152 Leucine--tRNA ligase;>dRep_bin303_DDDNDJCF_00821 Leucine--tRNA ligase;>dRep_bin134_HIAPAODO_01657 Leucine--tRNA ligase;>dRep_bin287_DONBGKDH_00415 Leucine--tRNA ligase;>dRep_bin158_OGFICEAP_00108 Leucine--tRNA ligase;>dRep_bin25	dRep_bin026_HNPIIINL_01011	CDS	leuS	6.1.1.4	Leucine--tRNA ligase
HNPIIINL_01047	24.909950000000002	26.008409999999998	26.43557	26.35592	26.00267	26.164360000000002	26.32337	25.978229999999996				5	3	3,5357E-11	dRep_bin133_NOBPDBPA_01431;dRep_bin179_HFEIPPPA_01728;dRep_bin297_EDHEEICA_01357;dRep_bin211_LGJEFJIK_00920;dRep_bin203_CLFNNOCF_02084;dRep_bin240_LDBBGJKG_01545;dRep_bin026_HNPIIINL_01047;dRep_bin282_PKAAPBFP_00190;dRep_bin328_GIGKNKPJ_00916;dRep_bin335_JIOGNAPG_00084;dRep_bin085_MBHLGCDB_00002;dRep_bin134_HIAPAODO_01587;dRep_bin181_MKGPMPIA_00058;dRep_bin077_DNNBMPMC_01745;dRep_bin154_JGOKHKLI_01584;dRep_bin186_HJAAFFNP_01739;dRep_bin168_HKDILBFE_01500	dRep_bin133_NOBPDBPA_01431;dRep_bin179_HFEIPPPA_01728;dRep_bin297_EDHEEICA_01357;dRep_bin211_LGJEFJIK_00920;dRep_bin203_CLFNNOCF_02084;dRep_bin240_LDBBGJKG_01545	>dRep_bin133_NOBPDBPA_01431 Lysine--tRNA ligase;>dRep_bin179_HFEIPPPA_01728 Lysine--tRNA ligase;>dRep_bin297_EDHEEICA_01357 Lysine--tRNA ligase;>dRep_bin211_LGJEFJIK_00920 Lysine--tRNA ligase;>dRep_bin203_CLFNNOCF_02084 Lysine--tRNA ligase;>dRep_bin240_LDB	dRep_bin026_HNPIIINL_01047	CDS	lysS	6.1.1.6	Lysine--tRNA ligase
HNPIIINL_01132		25.886950000000002										4	1	1,5708E-11	dRep_bin220_PILICLLL_02001;dRep_bin201_OLKDIBOK_01007;dRep_bin139_KGAJINND_00406;dRep_bin193_GDMDPNNM_00158;dRep_bin056_EMNHHOJA_00828;dRep_bin026_HNPIIINL_01132	dRep_bin220_PILICLLL_02001	>dRep_bin220_PILICLLL_02001 NAD-dependent malic enzyme	dRep_bin026_HNPIIINL_01132	CDS		1.1.1.38	NAD-dependent malic enzyme
HNPIIINL_01186	21.83364											2	1	1,2818E-12	dRep_bin019_MOJEPLJF_01018;dRep_bin319_PBDBJGCJ_00670;dRep_bin279_IAEFEPEN_01430;dRep_bin088_DNGPPFDK_01543;dRep_bin074_EHAOMODJ_00170;dRep_bin026_HNPIIINL_01186	dRep_bin019_MOJEPLJF_01018;dRep_bin319_PBDBJGCJ_00670;dRep_bin279_IAEFEPEN_01430;dRep_bin088_DNGPPFDK_01543;dRep_bin074_EHAOMODJ_00170;dRep_bin026_HNPIIINL_01186	>dRep_bin019_MOJEPLJF_01018 Lactaldehyde reductase;>dRep_bin319_PBDBJGCJ_00670 Lactaldehyde reductase;>dRep_bin279_IAEFEPEN_01430 Lactaldehyde reductase;>dRep_bin088_DNGPPFDK_01543 Lactaldehyde reductase;>dRep_bin074_EHAOMODJ_00170 Lactaldehyde reductase;>	dRep_bin026_HNPIIINL_01186	CDS	fucO	1.1.1.77	Lactaldehyde reductase
HNPIIINL_01207		27.404619999999998										5	1	1,6998E-49	dRep_bin026_HNPIIINL_01207	dRep_bin026_HNPIIINL_01207	>dRep_bin026_HNPIIINL_01207 Glyceraldehyde-3-phosphate dehydrogenase	dRep_bin026_HNPIIINL_01207	CDS	gap	1.2.1.12	Glyceraldehyde-3-phosphate dehydrogenase
HNPIIINL_01313	24.402689999999996	24.7102	24.236150000000002	24.09144	24.903389999999998		24.79089	24.386860000000002				4	2	1,7827E-52	dRep_bin056_EMNHHOJA_01434;dRep_bin026_HNPIIINL_01313;dRep_bin154_JGOKHKLI_01667	dRep_bin056_EMNHHOJA_01434;dRep_bin026_HNPIIINL_01313	>dRep_bin056_EMNHHOJA_01434 Aldehyde-alcohol dehydrogenase;>dRep_bin026_HNPIIINL_01313 Aldehyde-alcohol dehydrogenase	dRep_bin026_HNPIIINL_01313	CDS	adhE		Aldehyde-alcohol dehydrogenase
HNPIIINL_01320	29.241999999999997	28.83002	28.66743	28.24481	27.857090000000003	27.498609999999996	27.40981	28.09527				21	14	1,2002E-242	dRep_bin002_CFBNDKDN_01067;dRep_bin037_GEAOEKHA_01508;dRep_bin071_JHMCIJPE_00803;dRep_bin018_ILOONPIC_00642;dRep_bin224_NFENHJGB_01709;dRep_bin071_JHMCIJPE_01570;dRep_bin316_FNLHDNEO_00193;dRep_bin131_HLFNHDGI_00037;dRep_bin096_GNHMEKPF_01084;dRep_bin100_CODMOHGB_01077;dRep_bin211_LGJEFJIK_00551;dRep_bin049_MNFBDPNO_01334;dRep_bin323_FBBLPLCG_01081;dRep_bin309_BIOHLCGG_00788;dRep_bin056_EMNHHOJA_00346;dRep_bin026_HNPIIINL_01320;dRep_bin007_LNLEAAAN_00164;dRep_bin343_JCMCKBGF_01550;dRep_bin192_GCMBELNN_00689;dRep_bin016_JLGAHGOJ_01842;dRep_bin136_NAIECEIF_01051;dRep_bin092_OOJCPDEA_01123;dRep_bin043_KLAFNACO_00445	dRep_bin002_CFBNDKDN_01067	>dRep_bin002_CFBNDKDN_01067 Uronate isomerase	dRep_bin026_HNPIIINL_01320	CDS	uxaC	5.3.1.12	Uronate isomerase
HNPIIINL_01362	26.357850000000006	26.35671	26.91056	27.442689999999995	27.565649999999998	26.268909999999998	27.855729999999998	26.992369999999998				6	0	1,6744E-13	dRep_bin220_PILICLLL_00989;dRep_bin016_JLGAHGOJ_00301;dRep_bin260_HELEPKJL_01949;dRep_bin024_OLHDGABE_01286;dRep_bin068_ENOLAELK_00820;dRep_bin056_EMNHHOJA_00968;dRep_bin026_HNPIIINL_01362;dRep_bin253_CPMOAOBJ_00875;dRep_bin145_KMJJJOEJ_00851;dRep_bin344_CJJBDGAA_02006;dRep_bin278_BFCONKOE_01078;dRep_bin269_PNILGKPH_01415;dRep_bin240_LDBBGJKG_01602;dRep_bin065_DFABHCBI_01421;dRep_bin158_OGFICEAP_01010	dRep_bin220_PILICLLL_00989;dRep_bin016_JLGAHGOJ_00301	>dRep_bin220_PILICLLL_00989 Elongation factor G;>dRep_bin016_JLGAHGOJ_00301 Elongation factor G	dRep_bin026_HNPIIINL_01362	CDS	fus		Elongation factor G
HNPIIINL_01416		26.54225										5	1	4,0367E-17	dRep_bin107_EFNBPDOP_00842;dRep_bin248_CCDFPECI_00359;dRep_bin297_EDHEEICA_01390;dRep_bin134_HIAPAODO_00250;dRep_bin209_NKIHFCEN_01919;dRep_bin026_HNPIIINL_01416;dRep_bin193_GDMDPNNM_00355;dRep_bin181_MKGPMPIA_00803;dRep_bin180_JMFOHHIL_00102;dRep_bin262_LLCGOPIE_00545;dRep_bin154_JGOKHKLI_01246	dRep_bin107_EFNBPDOP_00842;dRep_bin248_CCDFPECI_00359	>dRep_bin107_EFNBPDOP_00842 Rubrerythrin;>dRep_bin248_CCDFPECI_00359 Rubrerythrin-1	dRep_bin026_HNPIIINL_01416	CDS	rbr_2		Rubrerythrin
HNPIIINL_01433							23.988669999999995					2	1	5,0697E-18	dRep_bin256_KEMNAOBC_00285;dRep_bin026_HNPIIINL_01433	dRep_bin256_KEMNAOBC_00285;dRep_bin026_HNPIIINL_01433	>dRep_bin256_KEMNAOBC_00285 Rubrerythrin;>dRep_bin026_HNPIIINL_01433 Rubrerythrin	dRep_bin026_HNPIIINL_01433	CDS	rbr_3		Rubrerythrin
HNPIIINL_01435	25.41429	26.21804	25.321820000000002	26.78992	25.7932	26.41227	24.62762	25.451860000000003				6	4	2,3896E-89	dRep_bin272_LGBDGEIM_00183;dRep_bin124_HIHDFGCL_01205;dRep_bin336_MPGOKPOL_02304;dRep_bin194_MEPDOGGJ_00982;dRep_bin147_EJLBNEBE_00222;dRep_bin025_CBEJJMLE_00718;dRep_bin079_GAOGCKND_01339;dRep_bin068_ENOLAELK_00487;dRep_bin038_EIGFILKG_01086;dRep_bin032_PPNIGLME_00387;dRep_bin026_HNPIIINL_01435;dRep_bin100_CODMOHGB_01146;dRep_bin056_EMNHHOJA_00876;dRep_bin317_ABPHNCOD_00566;dRep_bin097_CBBLIPAN_00610	dRep_bin272_LGBDGEIM_00183	>dRep_bin272_LGBDGEIM_00183 Ornithine carbamoyltransferase	dRep_bin026_HNPIIINL_01435	CDS	argF	2.1.3.3	Ornithine carbamoyltransferase
HNPIIINL_01449							26.063529999999997					1	1	0,0027024	dRep_bin026_HNPIIINL_01449	dRep_bin026_HNPIIINL_01449	>dRep_bin026_HNPIIINL_01449 hypothetical protein	dRep_bin026_HNPIIINL_01449	CDS			hypothetical protein
HNPIIINL_01484	26.409309999999998	26.73518	27.015850000000004	25.91205								4	2	1,2093E-20	dRep_bin336_MPGOKPOL_00896;dRep_bin147_EJLBNEBE_00136;dRep_bin085_MBHLGCDB_00357;dRep_bin238_OLNFACLE_01925;dRep_bin339_DBNBAHDK_02208;dRep_bin262_LLCGOPIE_00576;dRep_bin332_KAOPCDPF_00403;dRep_bin321_EJNAAGJG_01053;dRep_bin186_HJAAFFNP_01167;dRep_bin158_OGFICEAP_01582;dRep_bin145_KMJJJOEJ_00451;dRep_bin295_EJGKDKNE_00688;dRep_bin243_JDMELKLC_00439;dRep_bin194_MEPDOGGJ_00203;dRep_bin152_LJMCIADF_01105;dRep_bin101_BNDDLDCL_00447;dRep_bin079_GAOGCKND_00351;dRep_bin068_ENOLAELK_00629;dRep_bin026_HNPIIINL_01484;dRep_bin025_CBEJJMLE_00462;dRep_bin125_FADLGGII_01452;dRep_bin123_PJKBFKBB_00308;dRep_bin354_MMOALAFN_00213;dRep_bin248_CCDFPECI_00809;dRep_bin268_LKMHIMLG_00072;dRep_bin090_IPGNHCBJ_01072	dRep_bin336_MPGOKPOL_00896;dRep_bin147_EJLBNEBE_00136;dRep_bin085_MBHLGCDB_00357	>dRep_bin336_MPGOKPOL_00896 Serine hydroxymethyltransferase;>dRep_bin147_EJLBNEBE_00136 Serine hydroxymethyltransferase;>dRep_bin085_MBHLGCDB_00357 Serine hydroxymethyltransferase	dRep_bin026_HNPIIINL_01484	CDS	glyA	2.1.2.1	Serine hydroxymethyltransferase
HNPIIINL_01525			24.900299999999998									4	1	8,795E-17	dRep_bin074_EHAOMODJ_01218;dRep_bin056_EMNHHOJA_01558;dRep_bin026_HNPIIINL_01525	dRep_bin074_EHAOMODJ_01218	>dRep_bin074_EHAOMODJ_01218 Elongation factor P	dRep_bin026_HNPIIINL_01525	CDS	efp		Elongation factor P
HNPIIINL_01581		26.470229999999997	25.21152									6	3	1,4431E-23	dRep_bin148_NAJFKJMD_00605;dRep_bin029_LFMGBBEC_01610;dRep_bin038_EIGFILKG_00861;dRep_bin194_MEPDOGGJ_00577;dRep_bin152_LJMCIADF_01468;dRep_bin079_GAOGCKND_01498;dRep_bin056_EMNHHOJA_01212;dRep_bin026_HNPIIINL_01581;dRep_bin200_JJGKEOHI_00137;dRep_bin068_ENOLAELK_00848;dRep_bin262_LLCGOPIE_00844;dRep_bin058_GJKCICJN_00799;dRep_bin025_CBEJJMLE_01180	dRep_bin148_NAJFKJMD_00605;dRep_bin029_LFMGBBEC_01610;dRep_bin038_EIGFILKG_00861;dRep_bin194_MEPDOGGJ_00577;dRep_bin152_LJMCIADF_01468;dRep_bin079_GAOGCKND_01498;dRep_bin056_EMNHHOJA_01212;dRep_bin026_HNPIIINL_01581;dRep_bin200_JJGKEOHI_00137;dRep_bin068_ENOLAELK_00848;dRep_bin262_LLCGOPIE_00844;dRep_bin058_GJKCICJN_00799;dRep_bin025_CBEJJMLE_01180	>dRep_bin148_NAJFKJMD_00605 Aspartate--tRNA(Asp) ligase;>dRep_bin029_LFMGBBEC_01610 Aspartate--tRNA(Asp) ligase;>dRep_bin038_EIGFILKG_00861 Aspartate--tRNA(Asp/Asn) ligase;>dRep_bin194_MEPDOGGJ_00577 Aspartate--tRNA(Asp/Asn) ligase;>dRep_bin152_LJMCIADF_01	dRep_bin026_HNPIIINL_01581	CDS	aspS_2	6.1.1.12	Aspartate--tRNA ligase
HNPIIINL_01583	31.69062	31.497960000000003	31.258499999999998	30.57867	30.338729999999998	30.18754	31.41518	31.29647				16	13	0	dRep_bin225_FLBKEJIP_00638;dRep_bin193_GDMDPNNM_00391;dRep_bin104_EGLEJOLM_00429;dRep_bin267_LJCFMAFA_01104;dRep_bin128_JPBBHEMA_00063;dRep_bin322_OJELOJOF_01579;dRep_bin220_PILICLLL_00965;dRep_bin237_KJDLIPND_01288;dRep_bin273_FGAEBHNP_00090;dRep_bin350_EKOOEEGH_00878;dRep_bin341_NBEGOKEF_01245;dRep_bin230_NINMBMKB_00865;dRep_bin355_KJEFNADK_01484;dRep_bin306_FGHMKMMP_01597;dRep_bin291_EILOACJB_00178;dRep_bin276_EHNFLEBP_00863;dRep_bin107_EFNBPDOP_00094;dRep_bin077_DNNBMPMC_01312;dRep_bin324_IPNHOHFK_02120;dRep_bin308_JBPDGLPP_01844;dRep_bin089_PAJFOJBN_01453;dRep_bin031_BNHMFOII_01699;dRep_bin007_LNLEAAAN_01377;dRep_bin179_HFEIPPPA_01144;dRep_bin347_EKGCMFPD_01400;dRep_bin226_NLNLHLLD_00768;dRep_bin056_EMNHHOJA_00523;dRep_bin026_HNPIIINL_01583;dRep_bin020_JCCELPIE_01111;dRep_bin345_GLPJDLOI_00559;dRep_bin343_JCMCKBGF_01283;dRep_bin333_EFOKIBLA_00575;dRep_bin323_FBBLPLCG_00787;dRep_bin274_DBJHKLDG_00045;dRep_bin195_DDMDFNOK_00591;dRep_bin078_GKFCBAEI_00992;dRep_bin008_MNDMJLEI_01069;dRep_bin316_FNLHDNEO_00739;dRep_bin092_OOJCPDEA_01821;dRep_bin074_EHAOMODJ_00660;dRep_bin256_KEMNAOBC_00450;dRep_bin123_PJKBFKBB_01350;dRep_bin110_JGOEJECF_00180;dRep_bin101_BNDDLDCL_01841;dRep_bin071_JHMCIJPE_01380;dRep_bin040_EIFLLDOA_01745;dRep_bin032_PPNIGLME_01067;dRep_bin014_CHIHIMAN_00063;dRep_bin321_EJNAAGJG_00005;dRep_bin290_OIOJKBNK_00982;dRep_bin229_FFOBPPJI_01385;dRep_bin124_HIHDFGCL_00127;dRep_bin028_GKEJLBAM_01146;dRep_bin351_CKFFBPHM_00748;dRep_bin296_FDMPKPOH_01066;dRep_bin257_JHFDCHCB_01960;dRep_bin194_MEPDOGGJ_00157;dRep_bin191_NGFJMLOL_00394;dRep_bin136_NAIECEIF_01100;dRep_bin118_FGIOKLBC_00461;dRep_bin025_CBEJJMLE_00124;dRep_bin293_MEPKGOAN_00978;dRep_bin210_AGEDAEIA_00638;dRep_bin314_KCHFPLIP_00446;dRep_bin165_HMDFFMMM_00776;dRep_bin353_PPDHLNJB_00892;dRep_bin018_ILOONPIC_00585;dRep_bin060_HNFNENOI_01252;dRep_bin217_MJCEAEPB_01380	dRep_bin225_FLBKEJIP_00638	>dRep_bin225_FLBKEJIP_00638 Inosine-5-monophosphate dehydrogenase	dRep_bin026_HNPIIINL_01583	CDS	guaB	1.1.1.205	Inosine-5'-monophosphate dehydrogenase
