GBprotID	LFQ intensity CtrPig1	LFQ intensity CtrPig2	LFQ intensity CtrPig3	LFQ intensity CtrPig4	LFQ intensity MannanPig1	LFQ intensity MannanPig2	LFQ intensity MannanPig3	LFQ intensity MannanPig4	Only identified by site	Reverse	Contaminant	Peptides	Unique peptides	PEP	Protein IDs	Majority protein IDs	Fasta headers	IDcomb	ftype	gene	EC_number	product
JBNPBOKG_00032	28.02284	28.002709999999997	28.035639999999997	28.14749	28.879350000000002	29.022499999999997	28.484239999999996	28.630860000000006				8	5	1,3437E-250	dRep_bin170_LICLFCFF_00272;dRep_bin289_KALDCNNP_00206;dRep_bin183_FPGIOKBG_00728;dRep_bin138_EJGHNBMI_00076;dRep_bin137_NABPABPB_00684;dRep_bin035_JBNPBOKG_00032;dRep_bin111_FPJIHFKE_00090;dRep_bin294_EHJINIDK_01048;dRep_bin014_CHIHIMAN_00481	dRep_bin170_LICLFCFF_00272;dRep_bin289_KALDCNNP_00206;dRep_bin183_FPGIOKBG_00728;dRep_bin138_EJGHNBMI_00076;dRep_bin137_NABPABPB_00684	>dRep_bin170_LICLFCFF_00272 hypothetical protein;>dRep_bin289_KALDCNNP_00206 hypothetical protein;>dRep_bin183_FPGIOKBG_00728 hypothetical protein;>dRep_bin138_EJGHNBMI_00076 hypothetical protein;>dRep_bin137_NABPABPB_00684 hypothetical protein	dRep_bin035_JBNPBOKG_00032	CDS			hypothetical protein
JBNPBOKG_00057					25.57508	26.73776	25.131480000000003	25.210739999999998				3	3	2,6068E-10	dRep_bin191_NGFJMLOL_00154;dRep_bin045_GJACFFBC_00079;dRep_bin111_FPJIHFKE_00406;dRep_bin138_EJGHNBMI_01064;dRep_bin285_IPHKFJAN_00515;dRep_bin196_BIELHBNH_01025;dRep_bin224_NFENHJGB_01269;dRep_bin296_FDMPKPOH_01413;dRep_bin128_JPBBHEMA_00518;dRep_bin073_AKBCEHHO_01705;dRep_bin232_JGAEDAFA_01214;dRep_bin110_JGOEJECF_00385;dRep_bin307_AOCKHIKF_01479;dRep_bin098_DDEBHDKK_01514;dRep_bin018_ILOONPIC_00305;dRep_bin170_LICLFCFF_00331;dRep_bin035_JBNPBOKG_00057;dRep_bin034_MEBMFDLL_01539;dRep_bin346_JKFDGFHC_00885;dRep_bin298_EIPJCOMF_00371;dRep_bin165_HMDFFMMM_00204;dRep_bin028_GKEJLBAM_01477;dRep_bin229_FFOBPPJI_00453;dRep_bin275_NIDIBBDA_00691;dRep_bin118_FGIOKLBC_01843;dRep_bin113_LIFKCGBF_00471;dRep_bin084_CGBIKHBH_01308;dRep_bin329_GDOHKPBL_00694;dRep_bin131_HLFNHDGI_00779;dRep_bin036_DOKCEIDH_00191;dRep_bin137_NABPABPB_00552;dRep_bin210_AGEDAEIA_00804;dRep_bin022_BOEAFNDE_00719;dRep_bin294_EHJINIDK_00312;dRep_bin093_PGADNPMG_01602;dRep_bin289_KALDCNNP_00932;dRep_bin040_EIFLLDOA_00160;dRep_bin183_FPGIOKBG_00710	dRep_bin191_NGFJMLOL_00154;dRep_bin045_GJACFFBC_00079;dRep_bin111_FPJIHFKE_00406;dRep_bin138_EJGHNBMI_01064;dRep_bin285_IPHKFJAN_00515;dRep_bin196_BIELHBNH_01025;dRep_bin224_NFENHJGB_01269	>dRep_bin191_NGFJMLOL_00154 Protein translocase subunit SecA;>dRep_bin045_GJACFFBC_00079 Protein translocase subunit SecA;>dRep_bin111_FPJIHFKE_00406 Protein translocase subunit SecA;>dRep_bin138_EJGHNBMI_01064 Protein translocase subunit SecA;>dRep_bin285	dRep_bin035_JBNPBOKG_00057	CDS	secA		Protein translocase subunit SecA
JBNPBOKG_00075					25.900119999999998	27.46987	26.849950000000003	26.325139999999998				4	0	3,2743E-28	dRep_bin307_AOCKHIKF_00160;dRep_bin098_DDEBHDKK_00652;dRep_bin183_FPGIOKBG_00590;dRep_bin128_JPBBHEMA_00391;dRep_bin137_NABPABPB_01015;dRep_bin198_GMLJKALI_00983;dRep_bin112_NDMGAKCH_00558;dRep_bin073_AKBCEHHO_00630;dRep_bin111_FPJIHFKE_01146;dRep_bin064_CMDDCDKG_00952;dRep_bin070_EMBHKIOF_00143;dRep_bin037_GEAOEKHA_00627;dRep_bin314_KCHFPLIP_01340;dRep_bin232_JGAEDAFA_00436;dRep_bin290_OIOJKBNK_01502;dRep_bin136_NAIECEIF_00125;dRep_bin018_ILOONPIC_00511;dRep_bin110_JGOEJECF_00059;dRep_bin092_OOJCPDEA_01586;dRep_bin271_NGFBCHKH_00234;dRep_bin224_NFENHJGB_01651;dRep_bin084_CGBIKHBH_01000;dRep_bin346_JKFDGFHC_00749;dRep_bin036_DOKCEIDH_01514;dRep_bin002_CFBNDKDN_00078;dRep_bin351_CKFFBPHM_00883;dRep_bin289_KALDCNNP_01019;dRep_bin298_EIPJCOMF_00289;dRep_bin229_FFOBPPJI_00563;dRep_bin275_NIDIBBDA_01303;dRep_bin210_AGEDAEIA_00620;dRep_bin104_EGLEJOLM_00781;dRep_bin257_JHFDCHCB_01689;dRep_bin097_CBBLIPAN_01153;dRep_bin337_FHKPNFDB_01364;dRep_bin335_JIOGNAPG_00046;dRep_bin282_PKAAPBFP_01042;dRep_bin234_ECABPBME_00099;dRep_bin135_HHKACLPM_00078;dRep_bin089_PAJFOJBN_00724;dRep_bin088_DNGPPFDK_00540;dRep_bin075_EPEMMOCL_00011;dRep_bin035_JBNPBOKG_00075;dRep_bin093_PGADNPMG_00660;dRep_bin169_PNICKJKO_01447;dRep_bin230_NINMBMKB_00368;dRep_bin294_EHJINIDK_00696;dRep_bin028_GKEJLBAM_00575;dRep_bin014_CHIHIMAN_01200;dRep_bin355_KJEFNADK_00480;dRep_bin063_PJANDMAH_00595;dRep_bin034_MEBMFDLL_01871;dRep_bin320_LDBKCCKL_00526;dRep_bin301_NJFJIJGA_01347;dRep_bin149_GABCHCDI_01402;dRep_bin310_IMBAFDIF_01474;dRep_bin242_LKAIBGGJ_00169;dRep_bin181_MKGPMPIA_00142;dRep_bin267_LJCFMAFA_00611;dRep_bin306_FGHMKMMP_00339;dRep_bin150_HCDEOBMH_01051;dRep_bin091_MAFACGAD_01386;dRep_bin040_EIFLLDOA_01982;dRep_bin005_CNDFPKJG_00382;dRep_bin333_EFOKIBLA_01313;dRep_bin317_ABPHNCOD_01616;dRep_bin081_JDPCKDNP_00758;dRep_bin138_EJGHNBMI_00536;dRep_bin162_JBGCCDIN_00612;dRep_bin272_LGBDGEIM_00307;dRep_bin168_HKDILBFE_01242;dRep_bin118_FGIOKLBC_01317	dRep_bin307_AOCKHIKF_00160;dRep_bin098_DDEBHDKK_00652;dRep_bin183_FPGIOKBG_00590;dRep_bin128_JPBBHEMA_00391;dRep_bin137_NABPABPB_01015;dRep_bin198_GMLJKALI_00983;dRep_bin112_NDMGAKCH_00558;dRep_bin073_AKBCEHHO_00630;dRep_bin111_FPJIHFKE_01146;dRep_bin064_CMDDCDKG_00952;dRep_bin070_EMBHKIOF_00143;dRep_bin037_GEAOEKHA_00627;dRep_bin314_KCHFPLIP_01340;dRep_bin232_JGAEDAFA_00436;dRep_bin290_OIOJKBNK_01502;dRep_bin136_NAIECEIF_00125;dRep_bin018_ILOONPIC_00511;dRep_bin110_JGOEJECF_00059;dRep_bin092_OOJCPDEA_01586;dRep_bin271_NGFBCHKH_00234;dRep_bin224_NFENHJGB_01651;dRep_bin084_CGBIKHBH_01000;dRep_bin346_JKFDGFHC_00749;dRep_bin036_DOKCEIDH_01514;dRep_bin002_CFBNDKDN_00078;dRep_bin351_CKFFBPHM_00883;dRep_bin289_KALDCNNP_01019;dRep_bin298_EIPJCOMF_00289;dRep_bin229_FFOBPPJI_00563;dRep_bin275_NIDIBBDA_01303;dRep_bin210_AGEDAEIA_00620;dRep_bin104_EGLEJOLM_00781;dRep_bin257_JHFDCHCB_01689;dRep_bin097_CBBLIPAN_01153;dRep_bin337_FHKPNFDB_01364;dRep_bin335_JIOGNAPG_00046;dRep_bin282_PKAAPBFP_01042;dRep_bin234_ECABPBME_00099;dRep_bin135_HHKACLPM_00078;dRep_bin089_PAJFOJBN_00724;dRep_bin088_DNGPPFDK_00540;dRep_bin075_EPEMMOCL_00011;dRep_bin035_JBNPBOKG_00075;dRep_bin093_PGADNPMG_00660	>dRep_bin307_AOCKHIKF_00160 NADPH-dependent 7-cyano-7-deazaguanine reductase;>dRep_bin098_DDEBHDKK_00652 NADPH-dependent 7-cyano-7-deazaguanine reductase;>dRep_bin183_FPGIOKBG_00590 NADPH-dependent 7-cyano-7-deazaguanine reductase;>dRep_bin128_JPBBHEMA_003	dRep_bin035_JBNPBOKG_00075	CDS	queF	1.7.1.13	NADPH-dependent 7-cyano-7-deazaguanine reductase
JBNPBOKG_00098					26.991619999999998	27.819460000000003	27.02506	26.770519999999998				2	2	0,00032284	dRep_bin002_CFBNDKDN_01991;dRep_bin191_NGFJMLOL_00337;dRep_bin138_EJGHNBMI_00078;dRep_bin289_KALDCNNP_00742;dRep_bin036_DOKCEIDH_01783;dRep_bin035_JBNPBOKG_00098;dRep_bin118_FGIOKLBC_00827;dRep_bin131_HLFNHDGI_00018;dRep_bin229_FFOBPPJI_01526;dRep_bin301_NJFJIJGA_01587;dRep_bin149_GABCHCDI_00630	dRep_bin002_CFBNDKDN_01991;dRep_bin191_NGFJMLOL_00337;dRep_bin138_EJGHNBMI_00078;dRep_bin289_KALDCNNP_00742;dRep_bin036_DOKCEIDH_01783;dRep_bin035_JBNPBOKG_00098;dRep_bin118_FGIOKLBC_00827;dRep_bin131_HLFNHDGI_00018;dRep_bin229_FFOBPPJI_01526;dRep_bin301_NJFJIJGA_01587;dRep_bin149_GABCHCDI_00630	>dRep_bin002_CFBNDKDN_01991 8-amino-3,8-dideoxy-manno-octulosonate cytidylyltransferase;>dRep_bin191_NGFJMLOL_00337 3-deoxy-manno-octulosonate cytidylyltransferase;>dRep_bin138_EJGHNBMI_00078 8-amino-3,8-dideoxy-manno-octulosonate cytidylyltransferase;>dRe	dRep_bin035_JBNPBOKG_00098	CDS	kdsB	2.7.7.38	3-deoxy-manno-octulosonate cytidylyltransferase
JBNPBOKG_00111	26.21356		25.671280000000003									2	2	4,7222E-07	dRep_bin006_HPJGJCAG_01240;dRep_bin182_EMCFODCD_00820;dRep_bin170_LICLFCFF_01229;dRep_bin305_FCIEFIHE_01069;dRep_bin014_CHIHIMAN_01666;dRep_bin339_DBNBAHDK_01473;dRep_bin152_LJMCIADF_00377;dRep_bin056_EMNHHOJA_01634;dRep_bin340_OFLHNGJM_00549;dRep_bin105_AAEIHAFF_01471;dRep_bin349_AMCJEEEG_01021;dRep_bin071_JHMCIJPE_00244;dRep_bin290_OIOJKBNK_00925;dRep_bin256_KEMNAOBC_00667;dRep_bin092_OOJCPDEA_00173;dRep_bin035_JBNPBOKG_00111;dRep_bin346_JKFDGFHC_01406;dRep_bin289_KALDCNNP_00852;dRep_bin224_NFENHJGB_00838;dRep_bin128_JPBBHEMA_00685;dRep_bin063_PJANDMAH_01585;dRep_bin036_DOKCEIDH_00293;dRep_bin034_MEBMFDLL_01420;dRep_bin285_IPHKFJAN_00040;dRep_bin271_NGFBCHKH_01233;dRep_bin232_JGAEDAFA_00411;dRep_bin137_NABPABPB_00329;dRep_bin113_LIFKCGBF_01779;dRep_bin064_CMDDCDKG_00556;dRep_bin002_CFBNDKDN_00103;dRep_bin045_GJACFFBC_00424;dRep_bin183_FPGIOKBG_00003;dRep_bin316_FNLHDNEO_01144;dRep_bin018_ILOONPIC_00045;dRep_bin076_GLAOFBEC_00013	dRep_bin006_HPJGJCAG_01240;dRep_bin182_EMCFODCD_00820;dRep_bin170_LICLFCFF_01229;dRep_bin305_FCIEFIHE_01069;dRep_bin014_CHIHIMAN_01666;dRep_bin339_DBNBAHDK_01473;dRep_bin152_LJMCIADF_00377;dRep_bin056_EMNHHOJA_01634;dRep_bin340_OFLHNGJM_00549;dRep_bin105_AAEIHAFF_01471;dRep_bin349_AMCJEEEG_01021;dRep_bin071_JHMCIJPE_00244;dRep_bin290_OIOJKBNK_00925;dRep_bin256_KEMNAOBC_00667;dRep_bin092_OOJCPDEA_00173;dRep_bin035_JBNPBOKG_00111;dRep_bin346_JKFDGFHC_01406;dRep_bin289_KALDCNNP_00852;dRep_bin224_NFENHJGB_00838;dRep_bin128_JPBBHEMA_00685;dRep_bin063_PJANDMAH_01585;dRep_bin036_DOKCEIDH_00293;dRep_bin034_MEBMFDLL_01420;dRep_bin285_IPHKFJAN_00040;dRep_bin271_NGFBCHKH_01233;dRep_bin232_JGAEDAFA_00411;dRep_bin137_NABPABPB_00329;dRep_bin113_LIFKCGBF_01779;dRep_bin064_CMDDCDKG_00556;dRep_bin002_CFBNDKDN_00103;dRep_bin045_GJACFFBC_00424;dRep_bin183_FPGIOKBG_00003;dRep_bin316_FNLHDNEO_01144;dRep_bin018_ILOONPIC_00045;dRep_bin076_GLAOFBEC_00013	>dRep_bin006_HPJGJCAG_01240 Putative K(+)-stimulated pyrophosphate-energized sodium pump;>dRep_bin182_EMCFODCD_00820 Putative K(+)-stimulated pyrophosphate-energized sodium pump;>dRep_bin170_LICLFCFF_01229 Putative K(+)-stimulated pyrophosphate-energized s	dRep_bin035_JBNPBOKG_00111	CDS	hppA	3.6.1.1	K(+)-stimulated pyrophosphate-energized sodium pump
JBNPBOKG_00161						22.93276						5	0	4,7821E-13	dRep_bin294_EHJINIDK_00428;dRep_bin149_GABCHCDI_00125;dRep_bin275_NIDIBBDA_00359;dRep_bin035_JBNPBOKG_00161;dRep_bin183_FPGIOKBG_00485	dRep_bin294_EHJINIDK_00428;dRep_bin149_GABCHCDI_00125	>dRep_bin294_EHJINIDK_00428 Arginine--tRNA ligase;>dRep_bin149_GABCHCDI_00125 Arginine--tRNA ligase	dRep_bin035_JBNPBOKG_00161	CDS	argS	6.1.1.19	Arginine--tRNA ligase
JBNPBOKG_00188					20.53069	21.577270000000002		20.33276				5	2	1,783E-16	dRep_bin113_LIFKCGBF_00505;dRep_bin294_EHJINIDK_00833;dRep_bin196_BIELHBNH_01297;dRep_bin170_LICLFCFF_01629;dRep_bin137_NABPABPB_00302;dRep_bin346_JKFDGFHC_00444;dRep_bin036_DOKCEIDH_00414;dRep_bin040_EIFLLDOA_01234;dRep_bin224_NFENHJGB_01674;dRep_bin289_KALDCNNP_00984;dRep_bin271_NGFBCHKH_00791;dRep_bin198_GMLJKALI_00590;dRep_bin064_CMDDCDKG_00055;dRep_bin314_KCHFPLIP_01557;dRep_bin131_HLFNHDGI_00561;dRep_bin070_EMBHKIOF_01134;dRep_bin037_GEAOEKHA_00155;dRep_bin022_BOEAFNDE_00228;dRep_bin084_CGBIKHBH_01193;dRep_bin345_GLPJDLOI_00546;dRep_bin014_CHIHIMAN_00513;dRep_bin028_GKEJLBAM_01061;dRep_bin331_HPKAPHAF_00011;dRep_bin149_GABCHCDI_00050;dRep_bin111_FPJIHFKE_00420;dRep_bin035_JBNPBOKG_00188	dRep_bin113_LIFKCGBF_00505;dRep_bin294_EHJINIDK_00833;dRep_bin196_BIELHBNH_01297;dRep_bin170_LICLFCFF_01629;dRep_bin137_NABPABPB_00302;dRep_bin346_JKFDGFHC_00444;dRep_bin036_DOKCEIDH_00414	>dRep_bin113_LIFKCGBF_00505 hypothetical protein;>dRep_bin294_EHJINIDK_00833 hypothetical protein;>dRep_bin196_BIELHBNH_01297 hypothetical protein;>dRep_bin170_LICLFCFF_01629 hypothetical protein;>dRep_bin137_NABPABPB_00302 hypothetical protein;>dRep_bin34	dRep_bin035_JBNPBOKG_00188	CDS			hypothetical protein
JBNPBOKG_00194	26.90713	27.16394	29.35527	28.894460000000002	30.282069999999997	30.30856	30.05103	30.039960000000004				17	12	5,593E-256	dRep_bin191_NGFJMLOL_00980;dRep_bin165_HMDFFMMM_01127;dRep_bin301_NJFJIJGA_01168;dRep_bin210_AGEDAEIA_01494;dRep_bin275_NIDIBBDA_01144;dRep_bin022_BOEAFNDE_01167;dRep_bin296_FDMPKPOH_00081;dRep_bin035_JBNPBOKG_00194;dRep_bin294_EHJINIDK_01919;dRep_bin040_EIFLLDOA_01765	dRep_bin191_NGFJMLOL_00980	>dRep_bin191_NGFJMLOL_00980 Glycine--tRNA ligase	dRep_bin035_JBNPBOKG_00194	CDS	glyQS	6.1.1.14	Glycine--tRNA ligase
JBNPBOKG_00242		29.87953	28.52903	28.648729999999997								7	0	1,5046E-74	dRep_bin137_NABPABPB_00175;dRep_bin296_FDMPKPOH_00808;dRep_bin263_OLEFOGIJ_01226;dRep_bin035_JBNPBOKG_00242;dRep_bin130_OIFFANPF_00886	dRep_bin137_NABPABPB_00175;dRep_bin296_FDMPKPOH_00808	>dRep_bin137_NABPABPB_00175 6-pyruvoyl tetrahydropterin synthase;>dRep_bin296_FDMPKPOH_00808 6-pyruvoyl tetrahydropterin synthase	dRep_bin035_JBNPBOKG_00242	CDS			6-pyruvoyl tetrahydropterin synthase
JBNPBOKG_00248			26.255860000000002		27.09979	27.88116	27.32766	27.094360000000002				10	6	1,521E-50	dRep_bin113_LIFKCGBF_00031;dRep_bin346_JKFDGFHC_00006;dRep_bin198_GMLJKALI_00581;dRep_bin138_EJGHNBMI_00287;dRep_bin034_MEBMFDLL_01508;dRep_bin170_LICLFCFF_00665;dRep_bin137_NABPABPB_00994;dRep_bin045_GJACFFBC_00888;dRep_bin294_EHJINIDK_01344;dRep_bin064_CMDDCDKG_00528;dRep_bin307_AOCKHIKF_00238;dRep_bin098_DDEBHDKK_00868;dRep_bin112_NDMGAKCH_01674;dRep_bin084_CGBIKHBH_00225;dRep_bin298_EIPJCOMF_00344;dRep_bin002_CFBNDKDN_01211;dRep_bin329_GDOHKPBL_00079;dRep_bin036_DOKCEIDH_00904;dRep_bin289_KALDCNNP_00477;dRep_bin232_JGAEDAFA_01154;dRep_bin285_IPHKFJAN_01630;dRep_bin063_PJANDMAH_01519;dRep_bin028_GKEJLBAM_01530;dRep_bin035_JBNPBOKG_00248;dRep_bin070_EMBHKIOF_00086;dRep_bin296_FDMPKPOH_01041;dRep_bin131_HLFNHDGI_00542;dRep_bin290_OIOJKBNK_00191;dRep_bin183_FPGIOKBG_02052;dRep_bin018_ILOONPIC_00344;dRep_bin136_NAIECEIF_00891;dRep_bin040_EIFLLDOA_00566;dRep_bin256_KEMNAOBC_00140;dRep_bin092_OOJCPDEA_00029;dRep_bin071_JHMCIJPE_00746;dRep_bin229_FFOBPPJI_00538;dRep_bin110_JGOEJECF_00075;dRep_bin111_FPJIHFKE_00060;dRep_bin022_BOEAFNDE_00417;dRep_bin331_HPKAPHAF_01204	dRep_bin113_LIFKCGBF_00031;dRep_bin346_JKFDGFHC_00006;dRep_bin198_GMLJKALI_00581;dRep_bin138_EJGHNBMI_00287	>dRep_bin113_LIFKCGBF_00031 Leucine--tRNA ligase;>dRep_bin346_JKFDGFHC_00006 Leucine--tRNA ligase;>dRep_bin198_GMLJKALI_00581 Leucine--tRNA ligase;>dRep_bin138_EJGHNBMI_00287 Leucine--tRNA ligase	dRep_bin035_JBNPBOKG_00248	CDS	leuS	6.1.1.4	Leucine--tRNA ligase
JBNPBOKG_00265					24.24887	26.77128	24.69339	24.025629999999996				3	1	5,593E-12	dRep_bin139_KGAJINND_01577;dRep_bin344_CJJBDGAA_01807;dRep_bin300_MJPPENNL_01697;dRep_bin324_IPNHOHFK_02134;dRep_bin261_FJICAFFM_01134;dRep_bin303_DDDNDJCF_01519;dRep_bin297_EDHEEICA_00415;dRep_bin209_NKIHFCEN_00709;dRep_bin167_BLMEBMNN_00621;dRep_bin157_JPNIKEKI_01820;dRep_bin133_NOBPDBPA_02652;dRep_bin016_JLGAHGOJ_01099;dRep_bin292_JIBLDOOH_01420;dRep_bin127_FIPNHBCH_01248;dRep_bin062_BOFBFLDA_01336;dRep_bin115_IFKGOGCL_01923;dRep_bin269_PNILGKPH_02213;dRep_bin208_DHPGEIBC_01209;dRep_bin347_EKGCMFPD_00714;dRep_bin266_JFOCEDAE_00751;dRep_bin211_LGJEFJIK_00719;dRep_bin316_FNLHDNEO_01427;dRep_bin065_DFABHCBI_00784;dRep_bin319_PBDBJGCJ_00028;dRep_bin077_DNNBMPMC_00009;dRep_bin006_HPJGJCAG_01885;dRep_bin066_AJACLPEE_00266;dRep_bin279_IAEFEPEN_00114;dRep_bin254_GJDPFAEA_01714;dRep_bin035_JBNPBOKG_00265;dRep_bin092_OOJCPDEA_01135;dRep_bin173_BEBNCADL_00932;dRep_bin261_FJICAFFM_01422;dRep_bin288_KOIAAABN_01088;dRep_bin263_OLEFOGIJ_00124;dRep_bin099_DNDAGJEJ_00022;dRep_bin325_EIIGOGHN_01093;dRep_bin076_GLAOFBEC_01169;dRep_bin089_PAJFOJBN_00283;dRep_bin287_DONBGKDH_01271;dRep_bin162_JBGCCDIN_01770;dRep_bin135_HHKACLPM_00267;dRep_bin332_KAOPCDPF_00441;dRep_bin310_IMBAFDIF_00637;dRep_bin304_JDNJGFKH_01711;dRep_bin222_GGCAJABB_01248;dRep_bin159_ADJJGPBG_01860;dRep_bin043_KLAFNACO_01408;dRep_bin023_HGFJFKAI_00653;dRep_bin189_AHHEHGDL_01147;dRep_bin328_GIGKNKPJ_01484;dRep_bin282_PKAAPBFP_01012;dRep_bin229_FFOBPPJI_01006;dRep_bin203_CLFNNOCF_00634;dRep_bin102_ICFDHPGB_01107;dRep_bin072_JOBJPCGA_00187;dRep_bin029_LFMGBBEC_00768;dRep_bin017_FGFLFOPJ_00988;dRep_bin195_DDMDFNOK_00791;dRep_bin120_EKLBOPNC_01828;dRep_bin058_GJKCICJN_00813;dRep_bin046_GKEJLOEK_00003;dRep_bin186_HJAAFFNP_01596;dRep_bin349_AMCJEEEG_00676;dRep_bin200_JJGKEOHI_00578;dRep_bin027_OFJCHLJJ_00701;dRep_bin161_JMKPMHCO_01186;dRep_bin160_EFKMPBOM_00139;dRep_bin154_JGOKHKLI_00533;dRep_bin083_OCBADPJJ_00750;dRep_bin049_MNFBDPNO_00757;dRep_bin008_MNDMJLEI_00707;dRep_bin158_OGFICEAP_00389;dRep_bin334_NAPFFNLD_00463;dRep_bin339_DBNBAHDK_00481;dRep_bin241_LMMMGDNI_00312;dRep_bin179_HFEIPPPA_00773;dRep_bin245_MBCFLKOF_01292;dRep_bin010_MFFFGEGD_00549	dRep_bin139_KGAJINND_01577;dRep_bin344_CJJBDGAA_01807;dRep_bin300_MJPPENNL_01697;dRep_bin324_IPNHOHFK_02134;dRep_bin261_FJICAFFM_01134;dRep_bin303_DDDNDJCF_01519;dRep_bin297_EDHEEICA_00415;dRep_bin209_NKIHFCEN_00709;dRep_bin167_BLMEBMNN_00621;dRep_bin157_JPNIKEKI_01820;dRep_bin133_NOBPDBPA_02652;dRep_bin016_JLGAHGOJ_01099;dRep_bin292_JIBLDOOH_01420;dRep_bin127_FIPNHBCH_01248;dRep_bin062_BOFBFLDA_01336;dRep_bin115_IFKGOGCL_01923;dRep_bin269_PNILGKPH_02213	>dRep_bin139_KGAJINND_01577 Chaperone protein ClpB 1;>dRep_bin344_CJJBDGAA_01807 Chaperone protein ClpB;>dRep_bin300_MJPPENNL_01697 Chaperone protein ClpB;>dRep_bin324_IPNHOHFK_02134 Chaperone protein ClpB;>dRep_bin261_FJICAFFM_01134 Chaperone protein ClpB	dRep_bin035_JBNPBOKG_00265	CDS	clpB		Chaperone protein ClpB
JBNPBOKG_00282					26.826990000000002	28.10674	25.7098	28.504910000000002				3	0	3,1969E-39	dRep_bin296_FDMPKPOH_02022;dRep_bin035_JBNPBOKG_00282	dRep_bin296_FDMPKPOH_02022;dRep_bin035_JBNPBOKG_00282	>dRep_bin296_FDMPKPOH_02022 30S ribosomal protein S1;>dRep_bin035_JBNPBOKG_00282 30S ribosomal protein S1	dRep_bin035_JBNPBOKG_00282	CDS	rpsA		30S ribosomal protein S1
JBNPBOKG_00289						25.440689999999996						2	2	4,1296E-05	dRep_bin064_CMDDCDKG_01330;dRep_bin331_HPKAPHAF_01854;dRep_bin018_ILOONPIC_00848;dRep_bin345_GLPJDLOI_00724;dRep_bin035_JBNPBOKG_00289;dRep_bin210_AGEDAEIA_00655;dRep_bin040_EIFLLDOA_01402;dRep_bin118_FGIOKLBC_01360;dRep_bin028_GKEJLBAM_00709;dRep_bin022_BOEAFNDE_01282;dRep_bin329_GDOHKPBL_01606;dRep_bin298_EIPJCOMF_00432;dRep_bin289_KALDCNNP_01273;dRep_bin285_IPHKFJAN_00943;dRep_bin224_NFENHJGB_01604;dRep_bin196_BIELHBNH_00776;dRep_bin112_NDMGAKCH_01277;dRep_bin063_PJANDMAH_00973;dRep_bin036_DOKCEIDH_01516;dRep_bin034_MEBMFDLL_00231;dRep_bin307_AOCKHIKF_01110;dRep_bin294_EHJINIDK_00507;dRep_bin198_GMLJKALI_01032;dRep_bin183_FPGIOKBG_02003;dRep_bin170_LICLFCFF_00138;dRep_bin138_EJGHNBMI_01137;dRep_bin137_NABPABPB_01486;dRep_bin113_LIFKCGBF_00538;dRep_bin098_DDEBHDKK_00164;dRep_bin045_GJACFFBC_00127;dRep_bin165_HMDFFMMM_01102;dRep_bin002_CFBNDKDN_00484;dRep_bin073_AKBCEHHO_01701;dRep_bin232_JGAEDAFA_00348;dRep_bin111_FPJIHFKE_01011;dRep_bin346_JKFDGFHC_01226	dRep_bin064_CMDDCDKG_01330;dRep_bin331_HPKAPHAF_01854;dRep_bin018_ILOONPIC_00848;dRep_bin345_GLPJDLOI_00724;dRep_bin035_JBNPBOKG_00289;dRep_bin210_AGEDAEIA_00655;dRep_bin040_EIFLLDOA_01402;dRep_bin118_FGIOKLBC_01360;dRep_bin028_GKEJLBAM_00709;dRep_bin022_BOEAFNDE_01282;dRep_bin329_GDOHKPBL_01606;dRep_bin298_EIPJCOMF_00432;dRep_bin289_KALDCNNP_01273;dRep_bin285_IPHKFJAN_00943;dRep_bin224_NFENHJGB_01604;dRep_bin196_BIELHBNH_00776;dRep_bin112_NDMGAKCH_01277;dRep_bin063_PJANDMAH_00973;dRep_bin036_DOKCEIDH_01516;dRep_bin034_MEBMFDLL_00231;dRep_bin307_AOCKHIKF_01110;dRep_bin294_EHJINIDK_00507;dRep_bin198_GMLJKALI_01032;dRep_bin183_FPGIOKBG_02003;dRep_bin170_LICLFCFF_00138;dRep_bin138_EJGHNBMI_01137;dRep_bin137_NABPABPB_01486;dRep_bin113_LIFKCGBF_00538;dRep_bin098_DDEBHDKK_00164;dRep_bin045_GJACFFBC_00127;dRep_bin165_HMDFFMMM_01102;dRep_bin002_CFBNDKDN_00484;dRep_bin073_AKBCEHHO_01701;dRep_bin232_JGAEDAFA_00348;dRep_bin111_FPJIHFKE_01011;dRep_bin346_JKFDGFHC_01226	>dRep_bin064_CMDDCDKG_01330 Chaperone protein HtpG;>dRep_bin331_HPKAPHAF_01854 Chaperone protein HtpG;>dRep_bin018_ILOONPIC_00848 Chaperone protein HtpG;>dRep_bin345_GLPJDLOI_00724 Chaperone protein HtpG;>dRep_bin035_JBNPBOKG_00289 Chaperone protein HtpG;>	dRep_bin035_JBNPBOKG_00289	CDS	htpG		Chaperone protein HtpG
JBNPBOKG_00317				26.38225								4	1	1,146E-14	dRep_bin035_JBNPBOKG_00317	dRep_bin035_JBNPBOKG_00317	>dRep_bin035_JBNPBOKG_00317 Valine--tRNA ligase	dRep_bin035_JBNPBOKG_00317	CDS	valS	6.1.1.9	Valine--tRNA ligase
JBNPBOKG_00326					26.982609999999994	27.28189						7	0	1,3586E-54	dRep_bin036_DOKCEIDH_01598;dRep_bin035_JBNPBOKG_00326	dRep_bin036_DOKCEIDH_01598	>dRep_bin036_DOKCEIDH_01598 4-O-beta-D-mannosyl-D-glucose phosphorylase	dRep_bin035_JBNPBOKG_00326	CDS		2.4.1.281	4-O-beta-D-mannosyl-D-glucose phosphorylase
JBNPBOKG_00347	26.780319999999996	27.59548	26.41651	26.09517								10	2	4,6701E-193	dRep_bin036_DOKCEIDH_01191;dRep_bin198_GMLJKALI_00059;dRep_bin035_JBNPBOKG_00347	dRep_bin036_DOKCEIDH_01191;dRep_bin198_GMLJKALI_00059	>dRep_bin036_DOKCEIDH_01191 Methylmalonyl-CoA mutase small subunit;>dRep_bin198_GMLJKALI_00059 Methylmalonyl-CoA mutase small subunit	dRep_bin035_JBNPBOKG_00347	CDS	mutA	5.4.99.2	Methylmalonyl-CoA mutase small subunit
JBNPBOKG_00349						24.637930000000004		23.308				1	1	2,2198E-08	dRep_bin232_JGAEDAFA_00172;dRep_bin111_FPJIHFKE_00023;dRep_bin110_JGOEJECF_00828;dRep_bin035_JBNPBOKG_00349;dRep_bin275_NIDIBBDA_01694	dRep_bin232_JGAEDAFA_00172;dRep_bin111_FPJIHFKE_00023;dRep_bin110_JGOEJECF_00828;dRep_bin035_JBNPBOKG_00349;dRep_bin275_NIDIBBDA_01694	>dRep_bin232_JGAEDAFA_00172 Na(+)-translocating NADH-quinone reductase subunit F;>dRep_bin111_FPJIHFKE_00023 Na(+)-translocating NADH-quinone reductase subunit F;>dRep_bin110_JGOEJECF_00828 Na(+)-translocating NADH-quinone reductase subunit F;>dRep_bin035_	dRep_bin035_JBNPBOKG_00349	CDS	nqrF	1.6.5.8	Na(+)-translocating NADH-quinone reductase subunit F
JBNPBOKG_00423					26.78905							3	1	2,9994E-56	dRep_bin064_CMDDCDKG_00598;dRep_bin298_EIPJCOMF_01516;dRep_bin289_KALDCNNP_01128;dRep_bin137_NABPABPB_00737;dRep_bin271_NGFBCHKH_00768;dRep_bin198_GMLJKALI_00972;dRep_bin036_DOKCEIDH_00889;dRep_bin346_JKFDGFHC_00290;dRep_bin224_NFENHJGB_01536;dRep_bin063_PJANDMAH_00409;dRep_bin034_MEBMFDLL_01911;dRep_bin170_LICLFCFF_01809;dRep_bin112_NDMGAKCH_00311;dRep_bin073_AKBCEHHO_00710;dRep_bin037_GEAOEKHA_00265;dRep_bin331_HPKAPHAF_01029;dRep_bin165_HMDFFMMM_01382;dRep_bin314_KCHFPLIP_00442;dRep_bin070_EMBHKIOF_00368;dRep_bin111_FPJIHFKE_00002;dRep_bin035_JBNPBOKG_00423;dRep_bin028_GKEJLBAM_01067;dRep_bin040_EIFLLDOA_00213;dRep_bin084_CGBIKHBH_00590	dRep_bin064_CMDDCDKG_00598;dRep_bin298_EIPJCOMF_01516;dRep_bin289_KALDCNNP_01128;dRep_bin137_NABPABPB_00737;dRep_bin271_NGFBCHKH_00768;dRep_bin198_GMLJKALI_00972;dRep_bin036_DOKCEIDH_00889;dRep_bin346_JKFDGFHC_00290;dRep_bin224_NFENHJGB_01536;dRep_bin063_PJANDMAH_00409;dRep_bin034_MEBMFDLL_01911;dRep_bin170_LICLFCFF_01809;dRep_bin112_NDMGAKCH_00311	>dRep_bin064_CMDDCDKG_00598 ATP-dependent Clp protease proteolytic subunit;>dRep_bin298_EIPJCOMF_01516 ATP-dependent Clp protease proteolytic subunit;>dRep_bin289_KALDCNNP_01128 ATP-dependent Clp protease proteolytic subunit;>dRep_bin137_NABPABPB_00737 ATP	dRep_bin035_JBNPBOKG_00423	CDS	clpP	3.4.21.92	ATP-dependent Clp protease proteolytic subunit
JBNPBOKG_00424	26.30222		26.87444	26.8597	26.4069	27.051860000000005	26.487739999999995	26.68392				5	4	2,2606E-14	dRep_bin191_NGFJMLOL_00741;dRep_bin064_CMDDCDKG_00569;dRep_bin198_GMLJKALI_01012;dRep_bin170_LICLFCFF_01412;dRep_bin137_NABPABPB_01416;dRep_bin294_EHJINIDK_01527;dRep_bin196_BIELHBNH_00019;dRep_bin002_CFBNDKDN_01734;dRep_bin036_DOKCEIDH_01404;dRep_bin224_NFENHJGB_01517;dRep_bin138_EJGHNBMI_00242;dRep_bin113_LIFKCGBF_01700;dRep_bin112_NDMGAKCH_00140;dRep_bin289_KALDCNNP_00306;dRep_bin045_GJACFFBC_00463;dRep_bin329_GDOHKPBL_00938;dRep_bin296_FDMPKPOH_00250;dRep_bin063_PJANDMAH_00646;dRep_bin035_JBNPBOKG_00424	dRep_bin191_NGFJMLOL_00741	>dRep_bin191_NGFJMLOL_00741 Protein export membrane protein	dRep_bin035_JBNPBOKG_00424	CDS			Protein export membrane protein
JBNPBOKG_00430	24.86505											22	3	0	dRep_bin035_JBNPBOKG_00430	dRep_bin035_JBNPBOKG_00430	>dRep_bin035_JBNPBOKG_00430 Phosphoenolpyruvate carboxykinase (ATP)	dRep_bin035_JBNPBOKG_00430	CDS	pckA	4.1.1.49	Phosphoenolpyruvate carboxykinase (ATP)
JBNPBOKG_00571							25.918709999999997					8	0	5,4575E-38	dRep_bin307_AOCKHIKF_01520;dRep_bin098_DDEBHDKK_01179;dRep_bin165_HMDFFMMM_00804;dRep_bin229_FFOBPPJI_00622;dRep_bin035_JBNPBOKG_00571	dRep_bin307_AOCKHIKF_01520;dRep_bin098_DDEBHDKK_01179;dRep_bin165_HMDFFMMM_00804	>dRep_bin307_AOCKHIKF_01520 Polyribonucleotide nucleotidyltransferase;>dRep_bin098_DDEBHDKK_01179 Polyribonucleotide nucleotidyltransferase;>dRep_bin165_HMDFFMMM_00804 Polyribonucleotide nucleotidyltransferase	dRep_bin035_JBNPBOKG_00571	CDS	pnp	2.7.7.8	Polyribonucleotide nucleotidyltransferase
JBNPBOKG_00657	26.014460000000003		25.12967	27.45057	26.391250000000003	27.115550000000002	25.769709999999996	26.69046				26	1	0	dRep_bin063_PJANDMAH_00143;dRep_bin314_KCHFPLIP_01628;dRep_bin210_AGEDAEIA_01730;dRep_bin028_GKEJLBAM_01263;dRep_bin035_JBNPBOKG_00657	dRep_bin063_PJANDMAH_00143;dRep_bin314_KCHFPLIP_01628	>dRep_bin063_PJANDMAH_00143 DNA-directed RNA polymerase subunit beta;>dRep_bin314_KCHFPLIP_01628 DNA-directed RNA polymerase subunit beta	dRep_bin035_JBNPBOKG_00657	CDS	rpoB	2.7.7.6	DNA-directed RNA polymerase subunit beta
JBNPBOKG_00661	25.27941	24.596339999999998	25.36456	25.5386								3	1	7,3487E-10	dRep_bin307_AOCKHIKF_00271;dRep_bin232_JGAEDAFA_00457;dRep_bin165_HMDFFMMM_00920;dRep_bin098_DDEBHDKK_00990;dRep_bin084_CGBIKHBH_01019;dRep_bin331_HPKAPHAF_00074;dRep_bin035_JBNPBOKG_00661	dRep_bin307_AOCKHIKF_00271;dRep_bin232_JGAEDAFA_00457;dRep_bin165_HMDFFMMM_00920;dRep_bin098_DDEBHDKK_00990;dRep_bin084_CGBIKHBH_01019;dRep_bin331_HPKAPHAF_00074	>dRep_bin307_AOCKHIKF_00271 50S ribosomal protein L11;>dRep_bin232_JGAEDAFA_00457 50S ribosomal protein L11;>dRep_bin165_HMDFFMMM_00920 50S ribosomal protein L11;>dRep_bin098_DDEBHDKK_00990 50S ribosomal protein L11;>dRep_bin084_CGBIKHBH_01019 50S ribosoma	dRep_bin035_JBNPBOKG_00661	CDS	rplK		50S ribosomal protein L11
JBNPBOKG_00784						25.80349						1	1	0,0038747	dRep_bin035_JBNPBOKG_00784;dRep_bin029_LFMGBBEC_00357;dRep_bin298_EIPJCOMF_00518	dRep_bin035_JBNPBOKG_00784;dRep_bin029_LFMGBBEC_00357;dRep_bin298_EIPJCOMF_00518	>dRep_bin035_JBNPBOKG_00784 Aldose 1-epimerase;>dRep_bin029_LFMGBBEC_00357 Aldose 1-epimerase;>dRep_bin298_EIPJCOMF_00518 Aldose 1-epimerase	dRep_bin035_JBNPBOKG_00784	CDS	mro	5.1.3.3	Aldose 1-epimerase
JBNPBOKG_00884	25.79417		25.231800000000003				28.02332					9	1	5,1688E-69	dRep_bin035_JBNPBOKG_00884	dRep_bin035_JBNPBOKG_00884	>dRep_bin035_JBNPBOKG_00884 NAD-specific glutamate dehydrogenase	dRep_bin035_JBNPBOKG_00884	CDS	gdhB	1.4.1.2	NAD-specific glutamate dehydrogenase
JBNPBOKG_00940	27.418519999999997	27.66173	27.57766	27.025589999999998	26.65363	26.843739999999997	26.581329999999998	26.365679999999998				11	5	2,1633E-79	dRep_bin198_GMLJKALI_01548;dRep_bin035_JBNPBOKG_00940	dRep_bin198_GMLJKALI_01548	>dRep_bin198_GMLJKALI_01548 Phosphoserine aminotransferase	dRep_bin035_JBNPBOKG_00940	CDS	serC	2.6.1.52	Phosphoserine aminotransferase
JBNPBOKG_00959								22.32083				4	4	4,2814E-09	dRep_bin285_IPHKFJAN_00256;dRep_bin191_NGFJMLOL_01989;dRep_bin198_GMLJKALI_00587;dRep_bin331_HPKAPHAF_00007;dRep_bin329_GDOHKPBL_01268;dRep_bin289_KALDCNNP_00981;dRep_bin165_HMDFFMMM_00696;dRep_bin131_HLFNHDGI_00718;dRep_bin113_LIFKCGBF_00500;dRep_bin063_PJANDMAH_00059;dRep_bin034_MEBMFDLL_01272;dRep_bin002_CFBNDKDN_00541;dRep_bin351_CKFFBPHM_00917;dRep_bin296_FDMPKPOH_00587;dRep_bin196_BIELHBNH_01300;dRep_bin183_FPGIOKBG_00770;dRep_bin112_NDMGAKCH_01434;dRep_bin111_FPJIHFKE_00148;dRep_bin070_EMBHKIOF_01137;dRep_bin064_CMDDCDKG_00052;dRep_bin036_DOKCEIDH_01300;dRep_bin346_JKFDGFHC_01112;dRep_bin138_EJGHNBMI_00733;dRep_bin045_GJACFFBC_00441;dRep_bin037_GEAOEKHA_00158;dRep_bin014_CHIHIMAN_01042;dRep_bin271_NGFBCHKH_01000;dRep_bin035_JBNPBOKG_00959;dRep_bin128_JPBBHEMA_00009;dRep_bin018_ILOONPIC_00875;dRep_bin210_AGEDAEIA_00260	dRep_bin285_IPHKFJAN_00256;dRep_bin191_NGFJMLOL_01989;dRep_bin198_GMLJKALI_00587;dRep_bin331_HPKAPHAF_00007;dRep_bin329_GDOHKPBL_01268;dRep_bin289_KALDCNNP_00981;dRep_bin165_HMDFFMMM_00696;dRep_bin131_HLFNHDGI_00718;dRep_bin113_LIFKCGBF_00500;dRep_bin063_PJANDMAH_00059;dRep_bin034_MEBMFDLL_01272;dRep_bin002_CFBNDKDN_00541;dRep_bin351_CKFFBPHM_00917;dRep_bin296_FDMPKPOH_00587;dRep_bin196_BIELHBNH_01300;dRep_bin183_FPGIOKBG_00770;dRep_bin112_NDMGAKCH_01434;dRep_bin111_FPJIHFKE_00148;dRep_bin070_EMBHKIOF_01137;dRep_bin064_CMDDCDKG_00052;dRep_bin036_DOKCEIDH_01300;dRep_bin346_JKFDGFHC_01112;dRep_bin138_EJGHNBMI_00733;dRep_bin045_GJACFFBC_00441;dRep_bin037_GEAOEKHA_00158;dRep_bin014_CHIHIMAN_01042;dRep_bin271_NGFBCHKH_01000;dRep_bin035_JBNPBOKG_00959	>dRep_bin285_IPHKFJAN_00256 UDP-N-acetylglucosamine 1-carboxyvinyltransferase;>dRep_bin191_NGFJMLOL_01989 UDP-N-acetylglucosamine 1-carboxyvinyltransferase;>dRep_bin198_GMLJKALI_00587 UDP-N-acetylglucosamine 1-carboxyvinyltransferase 1;>dRep_bin331_HPKAPHA	dRep_bin035_JBNPBOKG_00959	CDS	murA	2.5.1.7	UDP-N-acetylglucosamine 1-carboxyvinyltransferase
JBNPBOKG_00969	26.43138	25.78905	25.7543	25.566709999999997								9	0	5,0511E-151	dRep_bin232_JGAEDAFA_01543;dRep_bin035_JBNPBOKG_00969;dRep_bin124_HIHDFGCL_01646;dRep_bin302_AHDEPDKG_00813	dRep_bin232_JGAEDAFA_01543	>dRep_bin232_JGAEDAFA_01543 Triosephosphate isomerase	dRep_bin035_JBNPBOKG_00969	CDS	tpiA	5.3.1.1	Triosephosphate isomerase
JBNPBOKG_00973								26.04743				2	1	4,8217E-05	dRep_bin028_GKEJLBAM_01643;dRep_bin128_JPBBHEMA_01073;dRep_bin118_FGIOKLBC_00883;dRep_bin071_JHMCIJPE_01696;dRep_bin037_GEAOEKHA_00348;dRep_bin035_JBNPBOKG_00973;dRep_bin345_GLPJDLOI_00032;dRep_bin138_EJGHNBMI_00982;dRep_bin331_HPKAPHAF_01081;dRep_bin196_BIELHBNH_00149;dRep_bin131_HLFNHDGI_00011;dRep_bin346_JKFDGFHC_00817;dRep_bin307_AOCKHIKF_01413;dRep_bin301_NJFJIJGA_00837;dRep_bin289_KALDCNNP_01573;dRep_bin232_JGAEDAFA_00772;dRep_bin229_FFOBPPJI_00082;dRep_bin137_NABPABPB_00505;dRep_bin098_DDEBHDKK_01005;dRep_bin040_EIFLLDOA_01981;dRep_bin002_CFBNDKDN_00501;dRep_bin329_GDOHKPBL_00262;dRep_bin294_EHJINIDK_00096;dRep_bin285_IPHKFJAN_01572;dRep_bin224_NFENHJGB_00105;dRep_bin183_FPGIOKBG_00084;dRep_bin170_LICLFCFF_01487;dRep_bin136_NAIECEIF_00942;dRep_bin210_AGEDAEIA_01305;dRep_bin198_GMLJKALI_00447;dRep_bin070_EMBHKIOF_00743;dRep_bin063_PJANDMAH_01551;dRep_bin034_MEBMFDLL_00116;dRep_bin045_GJACFFBC_00808;dRep_bin036_DOKCEIDH_00110;A0A287A876;dRep_bin314_KCHFPLIP_01194;dRep_bin014_CHIHIMAN_00691;dRep_bin256_KEMNAOBC_01441;dRep_bin092_OOJCPDEA_00764;dRep_bin022_BOEAFNDE_01392;dRep_bin351_CKFFBPHM_00409;dRep_bin316_FNLHDNEO_00929;dRep_bin271_NGFBCHKH_00981;F1RGD8;F1RGD9	dRep_bin028_GKEJLBAM_01643;dRep_bin128_JPBBHEMA_01073;dRep_bin118_FGIOKLBC_00883;dRep_bin071_JHMCIJPE_01696;dRep_bin037_GEAOEKHA_00348;dRep_bin035_JBNPBOKG_00973;dRep_bin345_GLPJDLOI_00032;dRep_bin138_EJGHNBMI_00982;dRep_bin331_HPKAPHAF_01081;dRep_bin196_BIELHBNH_00149;dRep_bin131_HLFNHDGI_00011;dRep_bin346_JKFDGFHC_00817;dRep_bin307_AOCKHIKF_01413;dRep_bin301_NJFJIJGA_00837;dRep_bin289_KALDCNNP_01573;dRep_bin232_JGAEDAFA_00772;dRep_bin229_FFOBPPJI_00082;dRep_bin137_NABPABPB_00505;dRep_bin098_DDEBHDKK_01005;dRep_bin040_EIFLLDOA_01981;dRep_bin002_CFBNDKDN_00501;dRep_bin329_GDOHKPBL_00262;dRep_bin294_EHJINIDK_00096;dRep_bin285_IPHKFJAN_01572;dRep_bin224_NFENHJGB_00105;dRep_bin183_FPGIOKBG_00084;dRep_bin170_LICLFCFF_01487;dRep_bin136_NAIECEIF_00942;dRep_bin210_AGEDAEIA_01305;dRep_bin198_GMLJKALI_00447;dRep_bin070_EMBHKIOF_00743;dRep_bin063_PJANDMAH_01551;dRep_bin034_MEBMFDLL_00116;dRep_bin045_GJACFFBC_00808;dRep_bin036_DOKCEIDH_00110;A0A287A876;dRep_bin314_KCHFPLIP_01194;dRep_bin014_CHIHIMAN_00691;dRep_bin256_KEMNAOBC_01441;dRep_bin092_OOJCPDEA_00764;dRep_bin022_BOEAFNDE_01392;dRep_bin351_CKFFBPHM_00409;dRep_bin316_FNLHDNEO_00929;dRep_bin271_NGFBCHKH_00981;F1RGD8;F1RGD9	>dRep_bin028_GKEJLBAM_01643 Histidine--tRNA ligase;>dRep_bin128_JPBBHEMA_01073 Histidine--tRNA ligase;>dRep_bin118_FGIOKLBC_00883 Histidine--tRNA ligase;>dRep_bin071_JHMCIJPE_01696 Histidine--tRNA ligase;>dRep_bin037_GEAOEKHA_00348 Histidine--tRNA ligase;>	dRep_bin035_JBNPBOKG_00973	CDS	hisS	6.1.1.21	Histidine--tRNA ligase
JBNPBOKG_01000	27.03612		27.08335		27.92128	28.50684	26.835810000000002	27.86667				4	3	3,6073E-16	dRep_bin137_NABPABPB_00600;dRep_bin112_NDMGAKCH_01343;dRep_bin285_IPHKFJAN_01350;dRep_bin294_EHJINIDK_00848;dRep_bin002_CFBNDKDN_00366;dRep_bin229_FFOBPPJI_00505;dRep_bin314_KCHFPLIP_00960;dRep_bin196_BIELHBNH_00748;dRep_bin149_GABCHCDI_01076;dRep_bin084_CGBIKHBH_01143;dRep_bin232_JGAEDAFA_01057;dRep_bin111_FPJIHFKE_00361;dRep_bin118_FGIOKLBC_00159;dRep_bin301_NJFJIJGA_00146;dRep_bin296_FDMPKPOH_00698;dRep_bin198_GMLJKALI_00381;dRep_bin093_PGADNPMG_01219;dRep_bin131_HLFNHDGI_00129;dRep_bin165_HMDFFMMM_00670;dRep_bin138_EJGHNBMI_00753;dRep_bin035_JBNPBOKG_01000;dRep_bin307_AOCKHIKF_01322;dRep_bin098_DDEBHDKK_00252;dRep_bin064_CMDDCDKG_00072;dRep_bin210_AGEDAEIA_01699;dRep_bin028_GKEJLBAM_01652;dRep_bin040_EIFLLDOA_00629;dRep_bin045_GJACFFBC_00472;dRep_bin022_BOEAFNDE_00176;dRep_bin275_NIDIBBDA_01502;dRep_bin183_FPGIOKBG_01873	dRep_bin137_NABPABPB_00600;dRep_bin112_NDMGAKCH_01343;dRep_bin285_IPHKFJAN_01350;dRep_bin294_EHJINIDK_00848;dRep_bin002_CFBNDKDN_00366;dRep_bin229_FFOBPPJI_00505;dRep_bin314_KCHFPLIP_00960;dRep_bin196_BIELHBNH_00748	>dRep_bin137_NABPABPB_00600 30S ribosomal protein S2;>dRep_bin112_NDMGAKCH_01343 30S ribosomal protein S2;>dRep_bin285_IPHKFJAN_01350 30S ribosomal protein S2;>dRep_bin294_EHJINIDK_00848 30S ribosomal protein S2;>dRep_bin002_CFBNDKDN_00366 30S ribosomal pr	dRep_bin035_JBNPBOKG_01000	CDS	rpsB		30S ribosomal protein S2
JBNPBOKG_01003					25.40882	26.47308	26.490299999999998	25.88292				4	3	4,4491E-09	dRep_bin138_EJGHNBMI_01639;dRep_bin307_AOCKHIKF_01086;dRep_bin098_DDEBHDKK_00713;dRep_bin329_GDOHKPBL_00419;dRep_bin191_NGFJMLOL_00847;dRep_bin170_LICLFCFF_00965;dRep_bin165_HMDFFMMM_00927;dRep_bin113_LIFKCGBF_01112;dRep_bin224_NFENHJGB_00298;dRep_bin314_KCHFPLIP_00004;dRep_bin331_HPKAPHAF_00061;dRep_bin232_JGAEDAFA_00713;dRep_bin183_FPGIOKBG_01695;dRep_bin112_NDMGAKCH_01187;dRep_bin002_CFBNDKDN_01131;dRep_bin084_CGBIKHBH_00935;dRep_bin346_JKFDGFHC_01179;dRep_bin289_KALDCNNP_00795;dRep_bin285_IPHKFJAN_01930;dRep_bin196_BIELHBNH_00336;dRep_bin137_NABPABPB_01184;dRep_bin036_DOKCEIDH_00725;dRep_bin131_HLFNHDGI_00904;dRep_bin064_CMDDCDKG_01223;dRep_bin045_GJACFFBC_00259;dRep_bin301_NJFJIJGA_00332;dRep_bin022_BOEAFNDE_00400;dRep_bin298_EIPJCOMF_00358;dRep_bin073_AKBCEHHO_00354;dRep_bin070_EMBHKIOF_00023;dRep_bin271_NGFBCHKH_00636;dRep_bin035_JBNPBOKG_01003;dRep_bin296_FDMPKPOH_01310;dRep_bin294_EHJINIDK_01251;dRep_bin028_GKEJLBAM_01831;dRep_bin229_FFOBPPJI_00533;dRep_bin210_AGEDAEIA_01547;dRep_bin118_FGIOKLBC_00954;dRep_bin037_GEAOEKHA_01502;dRep_bin034_MEBMFDLL_00160	dRep_bin138_EJGHNBMI_01639;dRep_bin307_AOCKHIKF_01086;dRep_bin098_DDEBHDKK_00713;dRep_bin329_GDOHKPBL_00419;dRep_bin191_NGFJMLOL_00847;dRep_bin170_LICLFCFF_00965;dRep_bin165_HMDFFMMM_00927;dRep_bin113_LIFKCGBF_01112;dRep_bin224_NFENHJGB_00298;dRep_bin314_KCHFPLIP_00004;dRep_bin331_HPKAPHAF_00061;dRep_bin232_JGAEDAFA_00713;dRep_bin183_FPGIOKBG_01695;dRep_bin112_NDMGAKCH_01187;dRep_bin002_CFBNDKDN_01131;dRep_bin084_CGBIKHBH_00935;dRep_bin346_JKFDGFHC_01179;dRep_bin289_KALDCNNP_00795;dRep_bin285_IPHKFJAN_01930;dRep_bin196_BIELHBNH_00336;dRep_bin137_NABPABPB_01184;dRep_bin036_DOKCEIDH_00725;dRep_bin131_HLFNHDGI_00904;dRep_bin064_CMDDCDKG_01223;dRep_bin045_GJACFFBC_00259;dRep_bin301_NJFJIJGA_00332;dRep_bin022_BOEAFNDE_00400;dRep_bin298_EIPJCOMF_00358;dRep_bin073_AKBCEHHO_00354;dRep_bin070_EMBHKIOF_00023;dRep_bin271_NGFBCHKH_00636;dRep_bin035_JBNPBOKG_01003	>dRep_bin138_EJGHNBMI_01639 Glutamate--tRNA ligase;>dRep_bin307_AOCKHIKF_01086 Glutamate--tRNA ligase;>dRep_bin098_DDEBHDKK_00713 Glutamate--tRNA ligase;>dRep_bin329_GDOHKPBL_00419 Glutamate--tRNA ligase;>dRep_bin191_NGFJMLOL_00847 Glutamate--tRNA ligase;>	dRep_bin035_JBNPBOKG_01003	CDS	gltX	6.1.1.17	Glutamate--tRNA ligase
JBNPBOKG_01005			24.60823									2	2	0,0002395	dRep_bin138_EJGHNBMI_00907;dRep_bin035_JBNPBOKG_01005	dRep_bin138_EJGHNBMI_00907;dRep_bin035_JBNPBOKG_01005	>dRep_bin138_EJGHNBMI_00907 UDP-4-amino-4-deoxy-L-arabinose--oxoglutarate aminotransferase;>dRep_bin035_JBNPBOKG_01005 UDP-4-amino-4-deoxy-L-arabinose--oxoglutarate aminotransferase	dRep_bin035_JBNPBOKG_01005	CDS	arnB	2.6.1.87	UDP-4-amino-4-deoxy-L-arabinose--oxoglutarate aminotransferase
JBNPBOKG_01014	23.93139	23.92515	24.32924	29.68001								3	2	1,1245E-16	dRep_bin035_JBNPBOKG_01014	dRep_bin035_JBNPBOKG_01014	>dRep_bin035_JBNPBOKG_01014 UDP-glucose 6-dehydrogenase	dRep_bin035_JBNPBOKG_01014	CDS	rkpK	1.1.1.22	UDP-glucose 6-dehydrogenase
JBNPBOKG_01025					23.00606	23.896980000000003						2	1	8,6813E-10	dRep_bin324_IPNHOHFK_01144;dRep_bin297_EDHEEICA_00687;dRep_bin292_JIBLDOOH_02195;dRep_bin261_FJICAFFM_00057;dRep_bin226_NLNLHLLD_01357;dRep_bin209_NKIHFCEN_00791;dRep_bin203_CLFNNOCF_00406;dRep_bin179_HFEIPPPA_00190;dRep_bin157_JPNIKEKI_00583;dRep_bin133_NOBPDBPA_01168;dRep_bin041_OPKGAAAG_01275;dRep_bin168_HKDILBFE_01397;dRep_bin130_OIFFANPF_00962;dRep_bin083_OCBADPJJ_00812;dRep_bin169_PNICKJKO_00385;dRep_bin319_PBDBJGCJ_01796;dRep_bin109_MJABCPAK_00038;dRep_bin106_BKDHGPBE_00849;dRep_bin216_JNJMCPHB_01613;dRep_bin299_AKNBKJGM_00580;dRep_bin100_CODMOHGB_00911;dRep_bin317_ABPHNCOD_01390;dRep_bin272_LGBDGEIM_00788;dRep_bin249_OFIIEIDJ_00467;dRep_bin066_AJACLPEE_01038;dRep_bin335_JIOGNAPG_00681;dRep_bin234_ECABPBME_00227;dRep_bin088_DNGPPFDK_01237;dRep_bin303_DDDNDJCF_00797;dRep_bin300_MJPPENNL_00671;dRep_bin279_IAEFEPEN_01368;dRep_bin278_BFCONKOE_00336;dRep_bin269_PNILGKPH_01089;dRep_bin260_HELEPKJL_01496;dRep_bin089_PAJFOJBN_00528;dRep_bin027_OFJCHLJJ_00828;dRep_bin019_MOJEPLJF_01606;dRep_bin116_CLFDBMOF_00536;dRep_bin057_BNCFHBBO_00059;dRep_bin134_HIAPAODO_00123;dRep_bin322_OJELOJOF_01583;dRep_bin270_GEJAHNCN_00957;dRep_bin348_LCLFDNEE_00829;dRep_bin295_EJGKDKNE_00315;dRep_bin277_MIPNGEJE_01644;dRep_bin166_DFIAJFEC_00192;dRep_bin264_DNFFGNEG_00340;dRep_bin153_JGABJFBF_01236;dRep_bin114_FJHJKHGL_00133;dRep_bin111_FPJIHFKE_00195;dRep_bin252_NDAKLAGD_00473;dRep_bin247_EKGBJCBM_00710;dRep_bin035_JBNPBOKG_01025;dRep_bin026_HNPIIINL_00916;dRep_bin085_MBHLGCDB_01217;dRep_bin068_ENOLAELK_00657;dRep_bin049_MNFBDPNO_00064;dRep_bin038_EIGFILKG_00881;dRep_bin152_LJMCIADF_01515;dRep_bin079_GAOGCKND_00762;dRep_bin231_CFOLMJBA_00732;dRep_bin126_PPDNCIBN_00705;dRep_bin333_EFOKIBLA_00857;dRep_bin123_PJKBFKBB_00290;dRep_bin185_OOOLKACK_01362;dRep_bin305_FCIEFIHE_01147;dRep_bin070_EMBHKIOF_00605;dRep_bin006_HPJGJCAG_01539;dRep_bin101_BNDDLDCL_00049;dRep_bin331_HPKAPHAF_00752;dRep_bin301_NJFJIJGA_00013;dRep_bin037_GEAOEKHA_01146;dRep_bin087_FCLGAPPI_00654;dRep_bin159_ADJJGPBG_01916;dRep_bin304_JDNJGFKH_01533;dRep_bin120_EKLBOPNC_00943;dRep_bin162_JBGCCDIN_00762;dRep_bin072_JOBJPCGA_01185;dRep_bin320_LDBKCCKL_00985;dRep_bin245_MBCFLKOF_00867;dRep_bin010_MFFFGEGD_00116;dRep_bin205_LKIOOBKC_01048;dRep_bin043_KLAFNACO_01234;dRep_bin011_KOGMKLNO_01366;dRep_bin189_AHHEHGDL_01620;dRep_bin222_GGCAJABB_00316;dRep_bin208_DHPGEIBC_01479;dRep_bin130_OIFFANPF_00887	dRep_bin324_IPNHOHFK_01144;dRep_bin297_EDHEEICA_00687;dRep_bin292_JIBLDOOH_02195;dRep_bin261_FJICAFFM_00057;dRep_bin226_NLNLHLLD_01357;dRep_bin209_NKIHFCEN_00791;dRep_bin203_CLFNNOCF_00406;dRep_bin179_HFEIPPPA_00190;dRep_bin157_JPNIKEKI_00583;dRep_bin133_NOBPDBPA_01168;dRep_bin041_OPKGAAAG_01275;dRep_bin168_HKDILBFE_01397;dRep_bin130_OIFFANPF_00962;dRep_bin083_OCBADPJJ_00812;dRep_bin169_PNICKJKO_00385;dRep_bin319_PBDBJGCJ_01796;dRep_bin109_MJABCPAK_00038;dRep_bin106_BKDHGPBE_00849;dRep_bin216_JNJMCPHB_01613;dRep_bin299_AKNBKJGM_00580;dRep_bin100_CODMOHGB_00911;dRep_bin317_ABPHNCOD_01390;dRep_bin272_LGBDGEIM_00788;dRep_bin249_OFIIEIDJ_00467;dRep_bin066_AJACLPEE_01038;dRep_bin335_JIOGNAPG_00681;dRep_bin234_ECABPBME_00227;dRep_bin088_DNGPPFDK_01237;dRep_bin303_DDDNDJCF_00797;dRep_bin300_MJPPENNL_00671;dRep_bin279_IAEFEPEN_01368;dRep_bin278_BFCONKOE_00336;dRep_bin269_PNILGKPH_01089;dRep_bin260_HELEPKJL_01496;dRep_bin089_PAJFOJBN_00528;dRep_bin027_OFJCHLJJ_00828;dRep_bin019_MOJEPLJF_01606;dRep_bin116_CLFDBMOF_00536;dRep_bin057_BNCFHBBO_00059;dRep_bin134_HIAPAODO_00123;dRep_bin322_OJELOJOF_01583;dRep_bin270_GEJAHNCN_00957;dRep_bin348_LCLFDNEE_00829;dRep_bin295_EJGKDKNE_00315;dRep_bin277_MIPNGEJE_01644;dRep_bin166_DFIAJFEC_00192;dRep_bin264_DNFFGNEG_00340;dRep_bin153_JGABJFBF_01236;dRep_bin114_FJHJKHGL_00133;dRep_bin111_FPJIHFKE_00195;dRep_bin252_NDAKLAGD_00473;dRep_bin247_EKGBJCBM_00710;dRep_bin035_JBNPBOKG_01025;dRep_bin026_HNPIIINL_00916;dRep_bin085_MBHLGCDB_01217;dRep_bin068_ENOLAELK_00657;dRep_bin049_MNFBDPNO_00064;dRep_bin038_EIGFILKG_00881;dRep_bin152_LJMCIADF_01515;dRep_bin079_GAOGCKND_00762;dRep_bin231_CFOLMJBA_00732;dRep_bin126_PPDNCIBN_00705;dRep_bin333_EFOKIBLA_00857;dRep_bin123_PJKBFKBB_00290;dRep_bin185_OOOLKACK_01362;dRep_bin305_FCIEFIHE_01147;dRep_bin070_EMBHKIOF_00605;dRep_bin006_HPJGJCAG_01539;dRep_bin101_BNDDLDCL_00049;dRep_bin331_HPKAPHAF_00752;dRep_bin301_NJFJIJGA_00013;dRep_bin037_GEAOEKHA_01146;dRep_bin087_FCLGAPPI_00654;dRep_bin159_ADJJGPBG_01916;dRep_bin304_JDNJGFKH_01533;dRep_bin120_EKLBOPNC_00943;dRep_bin162_JBGCCDIN_00762;dRep_bin072_JOBJPCGA_01185;dRep_bin320_LDBKCCKL_00985;dRep_bin245_MBCFLKOF_00867;dRep_bin010_MFFFGEGD_00116;dRep_bin205_LKIOOBKC_01048;dRep_bin043_KLAFNACO_01234;dRep_bin011_KOGMKLNO_01366;dRep_bin189_AHHEHGDL_01620;dRep_bin222_GGCAJABB_00316;dRep_bin208_DHPGEIBC_01479;dRep_bin130_OIFFANPF_00887	>dRep_bin324_IPNHOHFK_01144 Glutaconyl-CoA decarboxylase subunit beta;>dRep_bin297_EDHEEICA_00687 Glutaconyl-CoA decarboxylase subunit beta;>dRep_bin292_JIBLDOOH_02195 Glutaconyl-CoA decarboxylase subunit beta;>dRep_bin261_FJICAFFM_00057 Glutaconyl-CoA dec	dRep_bin035_JBNPBOKG_01025	CDS	gcdB	4.1.1.70	Glutaconyl-CoA decarboxylase subunit beta
JBNPBOKG_01078	28.295569999999998	25.962829999999997	28.403609999999997	28.414460000000002	28.51514	29.748299999999997	28.56118	28.68167				11	6	2,0791E-187	dRep_bin191_NGFJMLOL_01222;dRep_bin035_JBNPBOKG_01078;dRep_bin329_GDOHKPBL_00498;dRep_bin285_IPHKFJAN_00993;dRep_bin112_NDMGAKCH_00992;dRep_bin271_NGFBCHKH_00756;dRep_bin137_NABPABPB_00062;dRep_bin113_LIFKCGBF_00835;dRep_bin196_BIELHBNH_01310;dRep_bin002_CFBNDKDN_00006;dRep_bin084_CGBIKHBH_01339;dRep_bin229_FFOBPPJI_00499;dRep_bin256_KEMNAOBC_00273;dRep_bin060_HNFNENOI_01820	dRep_bin191_NGFJMLOL_01222	>dRep_bin191_NGFJMLOL_01222 dTDP-glucose 4,6-dehydratase	dRep_bin035_JBNPBOKG_01078	CDS	rfbB	4.2.1.46	dTDP-glucose 4,6-dehydratase
JBNPBOKG_01124		25.30744	27.366950000000003	26.114240000000002	28.8031	29.84742	27.367950000000004	28.02099				20	2	1,04E-100	dRep_bin191_NGFJMLOL_01299;dRep_bin138_EJGHNBMI_00239;dRep_bin346_JKFDGFHC_01257;dRep_bin036_DOKCEIDH_00826;dRep_bin183_FPGIOKBG_00488;dRep_bin331_HPKAPHAF_00454;dRep_bin232_JGAEDAFA_01447;dRep_bin196_BIELHBNH_01253;dRep_bin296_FDMPKPOH_01263;dRep_bin131_HLFNHDGI_00252;dRep_bin098_DDEBHDKK_00888;dRep_bin070_EMBHKIOF_01302;dRep_bin073_AKBCEHHO_00450;dRep_bin084_CGBIKHBH_01137;dRep_bin329_GDOHKPBL_01294;dRep_bin040_EIFLLDOA_01849;dRep_bin210_AGEDAEIA_00524;dRep_bin307_AOCKHIKF_00203;dRep_bin165_HMDFFMMM_01534;dRep_bin093_PGADNPMG_01180;dRep_bin022_BOEAFNDE_00338;dRep_bin035_JBNPBOKG_01124;dRep_bin229_FFOBPPJI_00119;dRep_bin118_FGIOKLBC_00645;dRep_bin028_GKEJLBAM_01034;dRep_bin128_JPBBHEMA_00126;dRep_bin290_OIOJKBNK_00154;dRep_bin092_OOJCPDEA_00297;dRep_bin351_CKFFBPHM_00653;dRep_bin110_JGOEJECF_00871;dRep_bin256_KEMNAOBC_00992;dRep_bin071_JHMCIJPE_00892;dRep_bin316_FNLHDNEO_00335	dRep_bin191_NGFJMLOL_01299	>dRep_bin191_NGFJMLOL_01299 Methionine--tRNA ligase	dRep_bin035_JBNPBOKG_01124	CDS	metG	6.1.1.10	Methionine--tRNA ligase
JBNPBOKG_01155	26.035970000000002	24.86967		24.3808								5	4	5,4172E-34	dRep_bin232_JGAEDAFA_01051;dRep_bin073_AKBCEHHO_00797;dRep_bin035_JBNPBOKG_01155;dRep_bin271_NGFBCHKH_00241;dRep_bin138_EJGHNBMI_00260;dRep_bin196_BIELHBNH_01233;dRep_bin111_FPJIHFKE_00813;dRep_bin331_HPKAPHAF_01759;dRep_bin183_FPGIOKBG_02005;dRep_bin346_JKFDGFHC_00183	dRep_bin232_JGAEDAFA_01051	>dRep_bin232_JGAEDAFA_01051 Protease 3	dRep_bin035_JBNPBOKG_01155	CDS			Insulinase (Peptidase family M16)
JBNPBOKG_01195		23.23771	23.20127									2	1	0,00017256	dRep_bin035_JBNPBOKG_01195;dRep_bin126_PPDNCIBN_01018;dRep_bin305_FCIEFIHE_00446;dRep_bin231_CFOLMJBA_01036;dRep_bin114_FJHJKHGL_01424;dRep_bin105_AAEIHAFF_01699;dRep_bin268_LKMHIMLG_01117;dRep_bin031_BNHMFOII_01346;dRep_bin321_EJNAAGJG_01026;dRep_bin324_IPNHOHFK_01645;dRep_bin236_BNONDECB_01150;dRep_bin055_IBMMJAEE_00573;dRep_bin340_OFLHNGJM_00320;dRep_bin076_GLAOFBEC_01385;dRep_bin343_JCMCKBGF_00786	dRep_bin035_JBNPBOKG_01195;dRep_bin126_PPDNCIBN_01018;dRep_bin305_FCIEFIHE_00446;dRep_bin231_CFOLMJBA_01036;dRep_bin114_FJHJKHGL_01424;dRep_bin105_AAEIHAFF_01699;dRep_bin268_LKMHIMLG_01117;dRep_bin031_BNHMFOII_01346;dRep_bin321_EJNAAGJG_01026;dRep_bin324_IPNHOHFK_01645;dRep_bin236_BNONDECB_01150;dRep_bin055_IBMMJAEE_00573;dRep_bin340_OFLHNGJM_00320;dRep_bin076_GLAOFBEC_01385;dRep_bin343_JCMCKBGF_00786	>dRep_bin035_JBNPBOKG_01195 Pseudouridine-5-phosphate glycosidase;>dRep_bin126_PPDNCIBN_01018 Pseudouridine-5-phosphate glycosidase;>dRep_bin305_FCIEFIHE_00446 Pseudouridine-5-phosphate glycosidase;>dRep_bin231_CFOLMJBA_01036 Pseudouridine-5-phosphate	dRep_bin035_JBNPBOKG_01195	CDS	psuG	4.2.1.70	Pseudouridine-5'-phosphate glycosidase
JBNPBOKG_01199					26.78756							4	1	3,6767E-34	dRep_bin329_GDOHKPBL_00873;dRep_bin131_HLFNHDGI_01410;dRep_bin149_GABCHCDI_01123;dRep_bin346_JKFDGFHC_00265;dRep_bin294_EHJINIDK_01022;dRep_bin063_PJANDMAH_00322;dRep_bin034_MEBMFDLL_01671;dRep_bin014_CHIHIMAN_01364;dRep_bin002_CFBNDKDN_01693;dRep_bin018_ILOONPIC_00037;dRep_bin092_OOJCPDEA_00392;dRep_bin301_NJFJIJGA_01709;dRep_bin035_JBNPBOKG_01199;dRep_bin275_NIDIBBDA_01888	dRep_bin329_GDOHKPBL_00873;dRep_bin131_HLFNHDGI_01410	>dRep_bin329_GDOHKPBL_00873 Glucosamine-6-phosphate deaminase;>dRep_bin131_HLFNHDGI_01410 Glucosamine-6-phosphate deaminase	dRep_bin035_JBNPBOKG_01199	CDS	nagB	3.5.99.6	Glucosamine-6-phosphate deaminase
JBNPBOKG_01263	26.72442	26.89977	27.237810000000003	26.77931	28.453329999999998	27.25467	27.560339999999997	27.462399999999995				8	0	1,4503E-56	dRep_bin064_CMDDCDKG_01484;dRep_bin040_EIFLLDOA_01404;dRep_bin118_FGIOKLBC_01478;dRep_bin035_JBNPBOKG_01263	dRep_bin064_CMDDCDKG_01484	>dRep_bin064_CMDDCDKG_01484 Elongation factor G	dRep_bin035_JBNPBOKG_01263	CDS	fusA_1		Elongation factor G
JBNPBOKG_01313								26.06215				3	1	1,7815E-09	dRep_bin191_NGFJMLOL_00549;dRep_bin113_LIFKCGBF_00949;dRep_bin289_KALDCNNP_00506;dRep_bin138_EJGHNBMI_00677;dRep_bin285_IPHKFJAN_00440;dRep_bin224_NFENHJGB_00233;dRep_bin210_AGEDAEIA_01325;dRep_bin137_NABPABPB_00978;dRep_bin112_NDMGAKCH_00278;dRep_bin294_EHJINIDK_00550;dRep_bin170_LICLFCFF_00373;dRep_bin271_NGFBCHKH_00490;dRep_bin329_GDOHKPBL_01481;dRep_bin298_EIPJCOMF_00752;dRep_bin063_PJANDMAH_01114;dRep_bin034_MEBMFDLL_00357;dRep_bin028_GKEJLBAM_00149;dRep_bin183_FPGIOKBG_00064;dRep_bin045_GJACFFBC_00858;dRep_bin035_JBNPBOKG_01313	dRep_bin191_NGFJMLOL_00549;dRep_bin113_LIFKCGBF_00949;dRep_bin289_KALDCNNP_00506	>dRep_bin191_NGFJMLOL_00549 Amylo-alpha-1,6-glucosidase;>dRep_bin113_LIFKCGBF_00949 Amylo-alpha-1,6-glucosidase;>dRep_bin289_KALDCNNP_00506 Amylo-alpha-1,6-glucosidase	dRep_bin035_JBNPBOKG_01313	CDS			Amylo-alpha-1,6-glucosidase
JBNPBOKG_01411	27.465209999999995	26.617510000000003	28.678150000000002	28.989749999999997	28.991509999999998	29.52083	26.64733	26.935399999999998				3	1	3,1897E-56	dRep_bin314_KCHFPLIP_01289;dRep_bin232_JGAEDAFA_00471;dRep_bin036_DOKCEIDH_01120;dRep_bin331_HPKAPHAF_00114;dRep_bin307_AOCKHIKF_00040;dRep_bin165_HMDFFMMM_00264;dRep_bin098_DDEBHDKK_01390;dRep_bin070_EMBHKIOF_01571;dRep_bin037_GEAOEKHA_01075;dRep_bin112_NDMGAKCH_01044;dRep_bin084_CGBIKHBH_01665;dRep_bin035_JBNPBOKG_01411;dRep_bin296_FDMPKPOH_00654;dRep_bin198_GMLJKALI_01470;dRep_bin036_DOKCEIDH_02019;dRep_bin002_CFBNDKDN_02028;dRep_bin196_BIELHBNH_01569;dRep_bin138_EJGHNBMI_01663;dRep_bin113_LIFKCGBF_00319;dRep_bin210_AGEDAEIA_01443;dRep_bin118_FGIOKLBC_01259;dRep_bin022_BOEAFNDE_00156;dRep_bin131_HLFNHDGI_00538;dRep_bin136_NAIECEIF_00794;dRep_bin161_JMKPMHCO_00063;dRep_bin301_NJFJIJGA_01272;dRep_bin149_GABCHCDI_00372;dRep_bin128_JPBBHEMA_01131;dRep_bin111_FPJIHFKE_01180;dRep_bin204_INMOGLDN_01390;dRep_bin202_HEPPALPH_01173;dRep_bin050_FBECOHCI_00340;dRep_bin351_CKFFBPHM_01226;dRep_bin276_EHNFLEBP_02115;dRep_bin256_KEMNAOBC_01381;dRep_bin104_EGLEJOLM_01403;dRep_bin294_EHJINIDK_01819;dRep_bin264_DNFFGNEG_00661;dRep_bin092_OOJCPDEA_01313;dRep_bin312_MJFEFHMP_01095;dRep_bin246_MMFBABHK_00569;dRep_bin174_LJJOKEME_01423;dRep_bin129_GADIAMAA_00400;dRep_bin061_ONFGDLGO_00654;dRep_bin030_OGPDLGOC_01307;dRep_bin093_PGADNPMG_00805;dRep_bin047_IFFANOMN_01577	dRep_bin314_KCHFPLIP_01289;dRep_bin232_JGAEDAFA_00471;dRep_bin036_DOKCEIDH_01120;dRep_bin331_HPKAPHAF_00114;dRep_bin307_AOCKHIKF_00040;dRep_bin165_HMDFFMMM_00264;dRep_bin098_DDEBHDKK_01390;dRep_bin070_EMBHKIOF_01571;dRep_bin037_GEAOEKHA_01075;dRep_bin112_NDMGAKCH_01044;dRep_bin084_CGBIKHBH_01665;dRep_bin035_JBNPBOKG_01411;dRep_bin296_FDMPKPOH_00654;dRep_bin198_GMLJKALI_01470;dRep_bin036_DOKCEIDH_02019;dRep_bin002_CFBNDKDN_02028;dRep_bin196_BIELHBNH_01569;dRep_bin138_EJGHNBMI_01663;dRep_bin113_LIFKCGBF_00319;dRep_bin210_AGEDAEIA_01443;dRep_bin118_FGIOKLBC_01259;dRep_bin022_BOEAFNDE_00156;dRep_bin131_HLFNHDGI_00538	>dRep_bin314_KCHFPLIP_01289 30S ribosomal protein S12;>dRep_bin232_JGAEDAFA_00471 30S ribosomal protein S12;>dRep_bin036_DOKCEIDH_01120 30S ribosomal protein S12;>dRep_bin331_HPKAPHAF_00114 30S ribosomal protein S12;>dRep_bin307_AOCKHIKF_00040 30S ribosoma	dRep_bin035_JBNPBOKG_01411	CDS	rpsL		30S ribosomal protein S12
JBNPBOKG_01412				26.19963								5	1	1,0498E-43	dRep_bin112_NDMGAKCH_01045;dRep_bin002_CFBNDKDN_02029;dRep_bin113_LIFKCGBF_00318;dRep_bin183_FPGIOKBG_02443;dRep_bin028_GKEJLBAM_00452;dRep_bin301_NJFJIJGA_01273;dRep_bin296_FDMPKPOH_00653;dRep_bin149_GABCHCDI_00371;dRep_bin035_JBNPBOKG_01412;dRep_bin275_NIDIBBDA_00658;dRep_bin229_FFOBPPJI_01260;dRep_bin210_AGEDAEIA_01442;dRep_bin131_HLFNHDGI_00539;dRep_bin118_FGIOKLBC_01258;dRep_bin093_PGADNPMG_00804;dRep_bin022_BOEAFNDE_00155	dRep_bin112_NDMGAKCH_01045;dRep_bin002_CFBNDKDN_02029;dRep_bin113_LIFKCGBF_00318;dRep_bin183_FPGIOKBG_02443	>dRep_bin112_NDMGAKCH_01045 30S ribosomal protein S7;>dRep_bin002_CFBNDKDN_02029 30S ribosomal protein S7;>dRep_bin113_LIFKCGBF_00318 30S ribosomal protein S7;>dRep_bin183_FPGIOKBG_02443 30S ribosomal protein S7	dRep_bin035_JBNPBOKG_01412	CDS	rpsG		30S ribosomal protein S7
JBNPBOKG_01418								24.780119999999997				2	1	5,0142E-11	dRep_bin307_AOCKHIKF_00177;dRep_bin165_HMDFFMMM_00254;dRep_bin098_DDEBHDKK_00916;dRep_bin183_FPGIOKBG_02438;dRep_bin084_CGBIKHBH_00447;dRep_bin314_KCHFPLIP_01282;dRep_bin296_FDMPKPOH_02068;dRep_bin035_JBNPBOKG_01418	dRep_bin307_AOCKHIKF_00177;dRep_bin165_HMDFFMMM_00254;dRep_bin098_DDEBHDKK_00916;dRep_bin183_FPGIOKBG_02438;dRep_bin084_CGBIKHBH_00447;dRep_bin314_KCHFPLIP_01282;dRep_bin296_FDMPKPOH_02068;dRep_bin035_JBNPBOKG_01418	>dRep_bin307_AOCKHIKF_00177 50S ribosomal protein L2;>dRep_bin165_HMDFFMMM_00254 50S ribosomal protein L2;>dRep_bin098_DDEBHDKK_00916 50S ribosomal protein L2;>dRep_bin183_FPGIOKBG_02438 50S ribosomal protein L2;>dRep_bin084_CGBIKHBH_00447 50S ribosomal pr	dRep_bin035_JBNPBOKG_01418	CDS	rplB		50S ribosomal protein L2
JBNPBOKG_01419	27.52835	26.94737	29.002039999999997	29.48597	28.257820000000002	28.287539999999996	26.99281	27.77875				2	1	9,9879E-31	dRep_bin331_HPKAPHAF_00123;dRep_bin307_AOCKHIKF_00178;dRep_bin165_HMDFFMMM_00253;dRep_bin098_DDEBHDKK_00915;dRep_bin110_JGOEJECF_00651;dRep_bin314_KCHFPLIP_01281;dRep_bin229_FFOBPPJI_00306;dRep_bin210_AGEDAEIA_01435;dRep_bin118_FGIOKLBC_01251;dRep_bin093_PGADNPMG_00797;dRep_bin084_CGBIKHBH_00448;dRep_bin040_EIFLLDOA_00829;dRep_bin035_JBNPBOKG_01419;dRep_bin028_GKEJLBAM_00445;dRep_bin022_BOEAFNDE_00148;dRep_bin256_KEMNAOBC_00170;dRep_bin014_CHIHIMAN_01500;dRep_bin353_PPDHLNJB_00491	dRep_bin331_HPKAPHAF_00123;dRep_bin307_AOCKHIKF_00178;dRep_bin165_HMDFFMMM_00253;dRep_bin098_DDEBHDKK_00915;dRep_bin110_JGOEJECF_00651;dRep_bin314_KCHFPLIP_01281;dRep_bin229_FFOBPPJI_00306;dRep_bin210_AGEDAEIA_01435;dRep_bin118_FGIOKLBC_01251;dRep_bin093_PGADNPMG_00797;dRep_bin084_CGBIKHBH_00448;dRep_bin040_EIFLLDOA_00829;dRep_bin035_JBNPBOKG_01419;dRep_bin028_GKEJLBAM_00445;dRep_bin022_BOEAFNDE_00148;dRep_bin256_KEMNAOBC_00170;dRep_bin014_CHIHIMAN_01500;dRep_bin353_PPDHLNJB_00491	>dRep_bin331_HPKAPHAF_00123 30S ribosomal protein S19;>dRep_bin307_AOCKHIKF_00178 30S ribosomal protein S19;>dRep_bin165_HMDFFMMM_00253 30S ribosomal protein S19;>dRep_bin098_DDEBHDKK_00915 30S ribosomal protein S19;>dRep_bin110_JGOEJECF_00651 30S ribosoma	dRep_bin035_JBNPBOKG_01419	CDS	rpsS		30S ribosomal protein S19
JBNPBOKG_01421	28.20093	27.32629	28.5721	28.23032	29.17312	29.656830000000003	27.66255	29.27126				6	5	7,9369E-18	dRep_bin183_FPGIOKBG_02435;dRep_bin092_OOJCPDEA_01762;dRep_bin084_CGBIKHBH_00450;dRep_bin307_AOCKHIKF_00180;dRep_bin098_DDEBHDKK_00913;dRep_bin296_FDMPKPOH_02071;dRep_bin331_HPKAPHAF_00125;dRep_bin314_KCHFPLIP_01279;dRep_bin232_JGAEDAFA_01038;dRep_bin035_JBNPBOKG_01421;dRep_bin128_JPBBHEMA_00034;dRep_bin210_AGEDAEIA_01433;dRep_bin351_CKFFBPHM_01104;dRep_bin290_OIOJKBNK_00535;dRep_bin256_KEMNAOBC_00172;dRep_bin022_BOEAFNDE_00146;A0A287AJV9;A0A287B388;A0A286ZTN6;A0A287B4T5;A0A287A049;F1S643;K7GLV1;A0A287BD18;A0A286ZJK1	dRep_bin183_FPGIOKBG_02435	>dRep_bin183_FPGIOKBG_02435 30S ribosomal protein S3	dRep_bin035_JBNPBOKG_01421	CDS	rpsC		30S ribosomal protein S3
JBNPBOKG_01440					27.747529999999998	28.23891	27.49595	27.534900000000004				3	2	3,5027E-06	dRep_bin191_NGFJMLOL_00684;dRep_bin298_EIPJCOMF_01139;dRep_bin271_NGFBCHKH_00137;dRep_bin064_CMDDCDKG_00942;dRep_bin034_MEBMFDLL_01057;dRep_bin307_AOCKHIKF_00199;dRep_bin296_FDMPKPOH_02053;dRep_bin098_DDEBHDKK_00894;dRep_bin035_JBNPBOKG_01440;dRep_bin183_FPGIOKBG_01275	dRep_bin191_NGFJMLOL_00684;dRep_bin298_EIPJCOMF_01139;dRep_bin271_NGFBCHKH_00137;dRep_bin064_CMDDCDKG_00942;dRep_bin034_MEBMFDLL_01057	>dRep_bin191_NGFJMLOL_00684 30S ribosomal protein S11;>dRep_bin298_EIPJCOMF_01139 30S ribosomal protein S11;>dRep_bin271_NGFBCHKH_00137 30S ribosomal protein S11;>dRep_bin064_CMDDCDKG_00942 30S ribosomal protein S11;>dRep_bin034_MEBMFDLL_01057 30S ribosoma	dRep_bin035_JBNPBOKG_01440	CDS	rpsK		30S ribosomal protein S11
JBNPBOKG_01441				23.93112								5	1	2,6605E-19	dRep_bin034_MEBMFDLL_01056;dRep_bin279_IAEFEPEN_01416;dRep_bin177_HLHGKLFL_00481;dRep_bin169_PNICKJKO_00788;dRep_bin140_ACFAKGIL_01122;dRep_bin003_GOBBLOGO_00647;dRep_bin299_AKNBKJGM_01257;dRep_bin257_JHFDCHCB_00866;dRep_bin018_ILOONPIC_00165;dRep_bin238_OLNFACLE_00469;dRep_bin125_FADLGGII_00937;dRep_bin035_JBNPBOKG_01441;dRep_bin348_LCLFDNEE_00738;dRep_bin331_HPKAPHAF_00145;dRep_bin172_ALNHGLMD_00137;dRep_bin106_BKDHGPBE_00653;dRep_bin304_JDNJGFKH_00619;dRep_bin205_LKIOOBKC_00377	dRep_bin034_MEBMFDLL_01056	>dRep_bin034_MEBMFDLL_01056 30S ribosomal protein S4	dRep_bin035_JBNPBOKG_01441	CDS	rpsD		30S ribosomal protein S4
JBNPBOKG_01458	28.72611	29.289599999999997	29.5258	28.677410000000002	28.746439999999996	28.10174	28.90693	28.88591				20	16	8,3592E-185	dRep_bin158_OGFICEAP_01428;dRep_bin254_GJDPFAEA_00108;dRep_bin326_CEEAIPKF_00144;dRep_bin122_JHMJFODI_00778;dRep_bin207_OHNPDPFI_00238;dRep_bin276_EHNFLEBP_00969;dRep_bin180_JMFOHHIL_00772;dRep_bin329_GDOHKPBL_01560;dRep_bin076_GLAOFBEC_02388;dRep_bin035_JBNPBOKG_01458;dRep_bin012_KEBBILMO_01041;dRep_bin070_EMBHKIOF_01360;dRep_bin229_FFOBPPJI_00960;dRep_bin210_AGEDAEIA_01389;dRep_bin354_MMOALAFN_00639;dRep_bin345_GLPJDLOI_00473;dRep_bin123_PJKBFKBB_01063;dRep_bin111_FPJIHFKE_00154;dRep_bin045_GJACFFBC_01941;dRep_bin040_EIFLLDOA_00889;dRep_bin333_EFOKIBLA_01013;dRep_bin131_HLFNHDGI_01012;dRep_bin022_BOEAFNDE_01446;dRep_bin301_NJFJIJGA_00142;dRep_bin275_NIDIBBDA_01350;dRep_bin149_GABCHCDI_01079;dRep_bin138_EJGHNBMI_00344;dRep_bin049_MNFBDPNO_00104;dRep_bin032_PPNIGLME_00241;dRep_bin343_JCMCKBGF_01571;dRep_bin118_FGIOKLBC_01793;dRep_bin093_PGADNPMG_00211;dRep_bin085_MBHLGCDB_01455;dRep_bin018_ILOONPIC_01183;dRep_bin323_FBBLPLCG_01525;dRep_bin265_LFKFBJPC_01879;dRep_bin121_BHOOLFKN_01093;dRep_bin122_JHMJFODI_01227	dRep_bin158_OGFICEAP_01428	>dRep_bin158_OGFICEAP_01428 Acetate kinase	dRep_bin035_JBNPBOKG_01458	CDS	ackA	2.7.2.1	Acetate kinase
JBNPBOKG_01459	24.58909											2	1	8,1338E-07	dRep_bin111_FPJIHFKE_00153;dRep_bin035_JBNPBOKG_01459	dRep_bin111_FPJIHFKE_00153;dRep_bin035_JBNPBOKG_01459	>dRep_bin111_FPJIHFKE_00153 Phosphate acetyltransferase;>dRep_bin035_JBNPBOKG_01459 Phosphate acetyltransferase	dRep_bin035_JBNPBOKG_01459	CDS	pta	2.3.1.8	Phosphate acetyltransferase
JBNPBOKG_01585					26.48696	26.522509999999997	26.51057	26.931910000000002				5	2	1,0115E-12	dRep_bin165_HMDFFMMM_01318;dRep_bin084_CGBIKHBH_00672;dRep_bin307_AOCKHIKF_01345;dRep_bin296_FDMPKPOH_00721;dRep_bin035_JBNPBOKG_01585	dRep_bin165_HMDFFMMM_01318;dRep_bin084_CGBIKHBH_00672;dRep_bin307_AOCKHIKF_01345;dRep_bin296_FDMPKPOH_00721	>dRep_bin165_HMDFFMMM_01318 Lysine--tRNA ligase, heat inducible;>dRep_bin084_CGBIKHBH_00672 Lysine--tRNA ligase;>dRep_bin307_AOCKHIKF_01345 Lysine--tRNA ligase;>dRep_bin296_FDMPKPOH_00721 Lysine--tRNA ligase, heat inducible	dRep_bin035_JBNPBOKG_01585	CDS	lysS	6.1.1.6	Lysine--tRNA ligase
JBNPBOKG_01587	26.110680000000002	25.75835	27.465599999999995	27.15663	27.475139999999996	27.87526	26.341639999999998	27.081719999999997				13	4	5,388E-130	dRep_bin113_LIFKCGBF_00824;dRep_bin035_JBNPBOKG_01587;dRep_bin294_EHJINIDK_01510;dRep_bin110_JGOEJECF_00586;dRep_bin301_NJFJIJGA_01498;dRep_bin093_PGADNPMG_01314;dRep_bin210_AGEDAEIA_00885	dRep_bin113_LIFKCGBF_00824	>dRep_bin113_LIFKCGBF_00824 Glucose-6-phosphate isomerase	dRep_bin035_JBNPBOKG_01587	CDS	pgi	5.3.1.9	Glucose-6-phosphate isomerase
JBNPBOKG_01624							23.0609					9	1	5,026E-107	dRep_bin035_JBNPBOKG_01624;dRep_bin111_FPJIHFKE_00598	dRep_bin035_JBNPBOKG_01624;dRep_bin111_FPJIHFKE_00598	>dRep_bin035_JBNPBOKG_01624 Pyruvate synthase;>dRep_bin111_FPJIHFKE_00598 Pyruvate synthase	dRep_bin035_JBNPBOKG_01624	CDS	por	1.2.7.1	Pyruvate synthase
JBNPBOKG_01646	29.4068	28.74397	30.546739999999996	29.539250000000003	30.514460000000003	29.968699999999995	29.80014	29.81377				22	10	2,7984E-172	dRep_bin002_CFBNDKDN_00893;dRep_bin035_JBNPBOKG_01646	dRep_bin002_CFBNDKDN_00893	>dRep_bin002_CFBNDKDN_00893 Pyruvate, phosphate dikinase	dRep_bin035_JBNPBOKG_01646	CDS	ppdK	2.7.9.1	Pyruvate, phosphate dikinase
JBNPBOKG_01652		24.71602		24.617400000000004								4	0	1,675E-08	dRep_bin262_LLCGOPIE_01089;dRep_bin135_HHKACLPM_01796;dRep_bin168_HKDILBFE_00337;dRep_bin035_JBNPBOKG_01652	dRep_bin262_LLCGOPIE_01089;dRep_bin135_HHKACLPM_01796;dRep_bin168_HKDILBFE_00337;dRep_bin035_JBNPBOKG_01652	>dRep_bin262_LLCGOPIE_01089 Flavo-diiron protein FprA1;>dRep_bin135_HHKACLPM_01796 Flavo-diiron protein FprA1;>dRep_bin168_HKDILBFE_00337 Flavo-diiron protein FprA1;>dRep_bin035_JBNPBOKG_01652 Flavo-diiron protein FprA1	dRep_bin035_JBNPBOKG_01652	CDS	fprA1	1.6.3.4	Flavo-diiron protein FprA1
JBNPBOKG_01683					26.943239999999996	26.122970000000002	26.065189999999998	26.90782				5	2	6,127E-29	dRep_bin243_JDMELKLC_00540;dRep_bin257_JHFDCHCB_00581;dRep_bin169_PNICKJKO_01385;dRep_bin348_LCLFDNEE_00791;dRep_bin302_AHDEPDKG_00610;dRep_bin238_OLNFACLE_00096;dRep_bin125_FADLGGII_00977;dRep_bin323_FBBLPLCG_00090;dRep_bin035_JBNPBOKG_01683	dRep_bin243_JDMELKLC_00540;dRep_bin257_JHFDCHCB_00581;dRep_bin169_PNICKJKO_01385	>dRep_bin243_JDMELKLC_00540 ATP-dependent 6-phosphofructokinase;>dRep_bin257_JHFDCHCB_00581 ATP-dependent 6-phosphofructokinase;>dRep_bin169_PNICKJKO_01385 ATP-dependent 6-phosphofructokinase	dRep_bin035_JBNPBOKG_01683	CDS	pfkA	2.7.1.11	ATP-dependent 6-phosphofructokinase 1
JBNPBOKG_01689		23.727960000000003	23.27056	24.807250000000003								4	1	1,2428E-15	dRep_bin035_JBNPBOKG_01689;dRep_bin111_FPJIHFKE_00532	dRep_bin035_JBNPBOKG_01689;dRep_bin111_FPJIHFKE_00532	>dRep_bin035_JBNPBOKG_01689 Chaperone protein DnaK;>dRep_bin111_FPJIHFKE_00532 Chaperone protein DnaK	dRep_bin035_JBNPBOKG_01689	CDS	dnaK		Chaperone protein DnaK
