GBprotID	LFQ intensity CtrPig1	LFQ intensity CtrPig2	LFQ intensity CtrPig3	LFQ intensity CtrPig4	LFQ intensity MannanPig1	LFQ intensity MannanPig2	LFQ intensity MannanPig3	LFQ intensity MannanPig4	Only identified by site	Reverse	Contaminant	Peptides	Unique peptides	PEP	Protein IDs	Majority protein IDs	Fasta headers	IDcomb	ftype	gene	EC_number	product
IBMMJAEE_00053				23.59457								6	2	2,0836E-161	dRep_bin055_IBMMJAEE_00053	dRep_bin055_IBMMJAEE_00053	>dRep_bin055_IBMMJAEE_00053 Elongation factor Tu	dRep_bin055_IBMMJAEE_00053	CDS	tuf		Elongation factor Tu
IBMMJAEE_00104					24.55309	24.09965	24.639480000000002	24.26392				3	2	8,0046E-22	dRep_bin144_NPHACCKF_00496;dRep_bin055_IBMMJAEE_00104	dRep_bin144_NPHACCKF_00496;dRep_bin055_IBMMJAEE_00104	>dRep_bin144_NPHACCKF_00496 Phosphoglycerate kinase;>dRep_bin055_IBMMJAEE_00104 Phosphoglycerate kinase	dRep_bin055_IBMMJAEE_00104	CDS	pgk	2.7.2.3	Phosphoglycerate kinase
IBMMJAEE_00106					23.829970000000003		24.135080000000002					1	1	0,00025282	dRep_bin086_HHEJBMCP_00868;dRep_bin055_IBMMJAEE_00106;dRep_bin102_ICFDHPGB_00910	dRep_bin086_HHEJBMCP_00868;dRep_bin055_IBMMJAEE_00106;dRep_bin102_ICFDHPGB_00910	>dRep_bin086_HHEJBMCP_00868 Enolase;>dRep_bin055_IBMMJAEE_00106 Enolase;>dRep_bin102_ICFDHPGB_00910 Enolase	dRep_bin055_IBMMJAEE_00106	CDS	eno	4.2.1.11	Enolase
IBMMJAEE_00109	25.8986	25.973339999999997	26.19903	26.281	26.514310000000002	26.59049	25.7571	26.25906				4	1	4,6283E-12	dRep_bin145_KMJJJOEJ_01258;dRep_bin242_LKAIBGGJ_00691;dRep_bin081_JDPCKDNP_01525;dRep_bin317_ABPHNCOD_01232;dRep_bin347_EKGCMFPD_00789;dRep_bin282_PKAAPBFP_00053;dRep_bin039_IJNOFOJK_00980;dRep_bin001_GHHJMDAL_00862;dRep_bin272_LGBDGEIM_01970;dRep_bin186_HJAAFFNP_02184;dRep_bin005_CNDFPKJG_01374;dRep_bin332_KAOPCDPF_00412;dRep_bin167_BLMEBMNN_01248;dRep_bin260_HELEPKJL_00916;dRep_bin160_EFKMPBOM_00919;dRep_bin209_NKIHFCEN_00567;dRep_bin158_OGFICEAP_02130;dRep_bin283_NLJJFFAC_01508;dRep_bin278_BFCONKOE_00571;dRep_bin325_EIIGOGHN_00662;dRep_bin218_ACMPALGF_01369;dRep_bin094_LBLICAAO_00052;dRep_bin299_AKNBKJGM_01021;dRep_bin157_JPNIKEKI_01309;dRep_bin075_EPEMMOCL_02359;dRep_bin055_IBMMJAEE_00109;dRep_bin306_FGHMKMMP_00327;dRep_bin216_JNJMCPHB_00254;dRep_bin292_JIBLDOOH_01625;dRep_bin179_HFEIPPPA_02175;dRep_bin133_NOBPDBPA_01803;dRep_bin088_DNGPPFDK_01392;dRep_bin024_OLHDGABE_00503;dRep_bin324_IPNHOHFK_01870;dRep_bin203_CLFNNOCF_00851;dRep_bin017_FGFLFOPJ_00925;dRep_bin065_DFABHCBI_01998;dRep_bin192_GCMBELNN_00043;dRep_bin310_IMBAFDIF_01495;dRep_bin218_ACMPALGF_00670	dRep_bin145_KMJJJOEJ_01258;dRep_bin242_LKAIBGGJ_00691;dRep_bin081_JDPCKDNP_01525;dRep_bin317_ABPHNCOD_01232;dRep_bin347_EKGCMFPD_00789;dRep_bin282_PKAAPBFP_00053;dRep_bin039_IJNOFOJK_00980;dRep_bin001_GHHJMDAL_00862;dRep_bin272_LGBDGEIM_01970;dRep_bin186_HJAAFFNP_02184;dRep_bin005_CNDFPKJG_01374;dRep_bin332_KAOPCDPF_00412;dRep_bin167_BLMEBMNN_01248;dRep_bin260_HELEPKJL_00916;dRep_bin160_EFKMPBOM_00919;dRep_bin209_NKIHFCEN_00567;dRep_bin158_OGFICEAP_02130;dRep_bin283_NLJJFFAC_01508;dRep_bin278_BFCONKOE_00571;dRep_bin325_EIIGOGHN_00662;dRep_bin218_ACMPALGF_01369;dRep_bin094_LBLICAAO_00052;dRep_bin299_AKNBKJGM_01021;dRep_bin157_JPNIKEKI_01309;dRep_bin075_EPEMMOCL_02359;dRep_bin055_IBMMJAEE_00109;dRep_bin306_FGHMKMMP_00327;dRep_bin216_JNJMCPHB_00254;dRep_bin292_JIBLDOOH_01625;dRep_bin179_HFEIPPPA_02175;dRep_bin133_NOBPDBPA_01803;dRep_bin088_DNGPPFDK_01392;dRep_bin024_OLHDGABE_00503;dRep_bin324_IPNHOHFK_01870;dRep_bin203_CLFNNOCF_00851;dRep_bin017_FGFLFOPJ_00925;dRep_bin065_DFABHCBI_01998	>dRep_bin145_KMJJJOEJ_01258 GMP synthase [glutamine-hydrolyzing];>dRep_bin242_LKAIBGGJ_00691 GMP synthase [glutamine-hydrolyzing];>dRep_bin081_JDPCKDNP_01525 GMP synthase [glutamine-hydrolyzing];>dRep_bin317_ABPHNCOD_01232 GMP synthase [glutamine-hydrolyzi	dRep_bin055_IBMMJAEE_00109	CDS	guaA	6.3.5.2	GMP synthase [glutamine-hydrolyzing]
IBMMJAEE_00161	28.738789999999998	28.75124	29.01084	29.3506	29.64461	30.02168	29.81859	30.104370000000003				12	4	1,026E-72	dRep_bin191_NGFJMLOL_01578;dRep_bin070_EMBHKIOF_00129;dRep_bin154_JGOKHKLI_00366;dRep_bin055_IBMMJAEE_00161;dRep_bin328_GIGKNKPJ_00645;dRep_bin047_IFFANOMN_00612;dRep_bin027_OFJCHLJJ_00977;dRep_bin005_CNDFPKJG_01432;dRep_bin278_BFCONKOE_00469;dRep_bin282_PKAAPBFP_00320;dRep_bin284_DEHKNOBF_00421;dRep_bin303_DDDNDJCF_00133;dRep_bin287_DONBGKDH_00272;dRep_bin220_PILICLLL_00145;dRep_bin107_EFNBPDOP_01320;dRep_bin158_OGFICEAP_01424;dRep_bin323_FBBLPLCG_01090;dRep_bin318_IEDEJOFJ_00395;dRep_bin308_JBPDGLPP_01660;dRep_bin306_FGHMKMMP_01032;dRep_bin261_FJICAFFM_00034;dRep_bin240_LDBBGJKG_01385;dRep_bin234_ECABPBME_00209;dRep_bin181_MKGPMPIA_00707;dRep_bin077_DNNBMPMC_00629;dRep_bin066_AJACLPEE_00619;dRep_bin065_DFABHCBI_01813;dRep_bin023_HGFJFKAI_00570;dRep_bin235_EGJBMLPF_00465;dRep_bin186_HJAAFFNP_00454;dRep_bin145_KMJJJOEJ_01616;dRep_bin095_HOBNOEEF_00383	dRep_bin191_NGFJMLOL_01578;dRep_bin070_EMBHKIOF_00129	>dRep_bin191_NGFJMLOL_01578 hypothetical protein;>dRep_bin070_EMBHKIOF_00129 hypothetical protein	dRep_bin055_IBMMJAEE_00161	CDS			hypothetical protein
IBMMJAEE_00165					23.93355	22.466829999999998		23.061629999999997				4	4	5,2078E-19	dRep_bin048_PABMBHAL_00472;dRep_bin144_NPHACCKF_00208;dRep_bin055_IBMMJAEE_00165	dRep_bin048_PABMBHAL_00472	>dRep_bin048_PABMBHAL_00472 Bifunctional purine biosynthesis protein PurH	dRep_bin055_IBMMJAEE_00165	CDS	purH		Bifunctional purine biosynthesis protein PurH
IBMMJAEE_00170					20.66084	20.19075						6	1	4,1576E-39	dRep_bin346_JKFDGFHC_00049;dRep_bin271_NGFBCHKH_01432;dRep_bin170_LICLFCFF_00076;dRep_bin113_LIFKCGBF_00665;dRep_bin036_DOKCEIDH_00273;dRep_bin034_MEBMFDLL_01305;dRep_bin285_IPHKFJAN_00808;dRep_bin298_EIPJCOMF_01620;dRep_bin289_KALDCNNP_01320;dRep_bin196_BIELHBNH_01057;dRep_bin138_EJGHNBMI_00590;dRep_bin064_CMDDCDKG_01375;dRep_bin183_FPGIOKBG_00615;dRep_bin073_AKBCEHHO_01469;dRep_bin323_FBBLPLCG_01598;dRep_bin101_BNDDLDCL_00033;dRep_bin049_MNFBDPNO_00783;dRep_bin087_FCLGAPPI_00381;dRep_bin281_OGHLKMAI_01074;dRep_bin210_AGEDAEIA_01693;dRep_bin118_FGIOKLBC_01781;dRep_bin022_BOEAFNDE_01420;dRep_bin131_HLFNHDGI_01253;dRep_bin002_CFBNDKDN_00034;dRep_bin014_CHIHIMAN_01271;dRep_bin329_GDOHKPBL_01515;dRep_bin314_KCHFPLIP_00795;dRep_bin307_AOCKHIKF_00407;dRep_bin098_DDEBHDKK_01315;dRep_bin306_FGHMKMMP_00477;dRep_bin153_JGABJFBF_01420;dRep_bin172_ALNHGLMD_01785;dRep_bin286_OEMIJKMC_01076;dRep_bin182_EMCFODCD_00063;dRep_bin126_PPDNCIBN_00262;dRep_bin044_IPFKHAEF_00185;dRep_bin283_NLJJFFAC_01756;dRep_bin203_CLFNNOCF_01930;dRep_bin179_HFEIPPPA_00361;dRep_bin218_ACMPALGF_01344;dRep_bin144_NPHACCKF_00223;dRep_bin094_LBLICAAO_00940;dRep_bin032_PPNIGLME_01008;dRep_bin027_OFJCHLJJ_00625;dRep_bin096_GNHMEKPF_00088;dRep_bin257_JHFDCHCB_01408;dRep_bin190_MOGDLGIN_00302;dRep_bin114_FJHJKHGL_00840;dRep_bin055_IBMMJAEE_00170;dRep_bin048_PABMBHAL_01509;dRep_bin318_IEDEJOFJ_00726;dRep_bin264_DNFFGNEG_00422;dRep_bin244_LBFMHLBI_01058;dRep_bin223_PIMCDKJI_01107;dRep_bin202_HEPPALPH_00196;dRep_bin242_LKAIBGGJ_00303;dRep_bin204_INMOGLDN_01542;dRep_bin174_LJJOKEME_00810;dRep_bin080_CBEBHNNK_00066;dRep_bin312_MJFEFHMP_00588;dRep_bin246_MMFBABHK_00194;dRep_bin116_CLFDBMOF_00457;dRep_bin061_ONFGDLGO_01437;dRep_bin030_OGPDLGOC_00261;dRep_bin004_OCHNPJPO_01274;dRep_bin251_FGNGCJDD_00242;dRep_bin219_HGPEELLF_01206;dRep_bin129_GADIAMAA_00806;dRep_bin076_GLAOFBEC_00429;dRep_bin188_EJILNMPE_01055;dRep_bin252_NDAKLAGD_01289;dRep_bin352_KFNHGNFC_00642;dRep_bin206_OIIBOIAK_00292;dRep_bin078_GKFCBAEI_00119;dRep_bin301_NJFJIJGA_00585;dRep_bin275_NIDIBBDA_00034;dRep_bin040_EIFLLDOA_01203;dRep_bin028_GKEJLBAM_00163;dRep_bin149_GABCHCDI_00012;dRep_bin093_PGADNPMG_00427;dRep_bin345_GLPJDLOI_00001;dRep_bin296_FDMPKPOH_01296;dRep_bin316_FNLHDNEO_00355;dRep_bin256_KEMNAOBC_01607;dRep_bin071_JHMCIJPE_01347;dRep_bin128_JPBBHEMA_00687;dRep_bin165_HMDFFMMM_01254;dRep_bin351_CKFFBPHM_01191;dRep_bin092_OOJCPDEA_01149	dRep_bin346_JKFDGFHC_00049;dRep_bin271_NGFBCHKH_01432;dRep_bin170_LICLFCFF_00076;dRep_bin113_LIFKCGBF_00665;dRep_bin036_DOKCEIDH_00273;dRep_bin034_MEBMFDLL_01305;dRep_bin285_IPHKFJAN_00808;dRep_bin298_EIPJCOMF_01620;dRep_bin289_KALDCNNP_01320;dRep_bin196_BIELHBNH_01057;dRep_bin138_EJGHNBMI_00590;dRep_bin064_CMDDCDKG_01375;dRep_bin183_FPGIOKBG_00615;dRep_bin073_AKBCEHHO_01469	>dRep_bin346_JKFDGFHC_00049 ATP synthase subunit beta, sodium ion specific;>dRep_bin271_NGFBCHKH_01432 ATP synthase subunit beta;>dRep_bin170_LICLFCFF_00076 ATP synthase subunit beta, sodium ion specific;>dRep_bin113_LIFKCGBF_00665 ATP synthase subunit bet	dRep_bin055_IBMMJAEE_00170	CDS	atpD_1	3.6.3.15	ATP synthase subunit beta, sodium ion specific
IBMMJAEE_00237	25.844360000000002	25.393060000000002	25.485909999999997	25.10769								6	4	5,1184E-24	dRep_bin225_FLBKEJIP_00237;dRep_bin055_IBMMJAEE_00237	dRep_bin225_FLBKEJIP_00237	>dRep_bin225_FLBKEJIP_00237 UDP-N-acetylglucosamine 1-carboxyvinyltransferase	dRep_bin055_IBMMJAEE_00237	CDS	murA2	2.5.1.7	UDP-N-acetylglucosamine 1-carboxyvinyltransferase 2
IBMMJAEE_00337	25.27153	26.70636	25.16454	25.252589999999998								2	2	2,0876E-05	dRep_bin300_MJPPENNL_01704;dRep_bin300_MJPPENNL_01252;dRep_bin203_CLFNNOCF_00791;dRep_bin260_HELEPKJL_01877;dRep_bin134_HIAPAODO_01500;dRep_bin328_GIGKNKPJ_01849;dRep_bin249_OFIIEIDJ_01438;dRep_bin160_EFKMPBOM_00895;dRep_bin145_KMJJJOEJ_01164;dRep_bin065_DFABHCBI_00956;dRep_bin055_IBMMJAEE_00337;dRep_bin154_JGOKHKLI_01528;dRep_bin347_EKGCMFPD_01412	dRep_bin300_MJPPENNL_01704;dRep_bin300_MJPPENNL_01252;dRep_bin203_CLFNNOCF_00791;dRep_bin260_HELEPKJL_01877;dRep_bin134_HIAPAODO_01500;dRep_bin328_GIGKNKPJ_01849;dRep_bin249_OFIIEIDJ_01438;dRep_bin160_EFKMPBOM_00895;dRep_bin145_KMJJJOEJ_01164;dRep_bin065_DFABHCBI_00956;dRep_bin055_IBMMJAEE_00337;dRep_bin154_JGOKHKLI_01528;dRep_bin347_EKGCMFPD_01412	>dRep_bin300_MJPPENNL_01704 5-dehydro-2-deoxygluconokinase;>dRep_bin300_MJPPENNL_01252 5-dehydro-2-deoxygluconokinase;>dRep_bin203_CLFNNOCF_00791 5-dehydro-2-deoxygluconokinase;>dRep_bin260_HELEPKJL_01877 5-dehydro-2-deoxygluconokinase;>dRep_bin134_HIAPAOD	dRep_bin055_IBMMJAEE_00337	CDS	iolC	2.7.1.92	5-dehydro-2-deoxygluconokinase
IBMMJAEE_00341					27.346629999999998	25.21308	25.205719999999996	26.402499999999996				3	1	9,0657E-13	dRep_bin218_ACMPALGF_01115;dRep_bin243_JDMELKLC_01287;dRep_bin055_IBMMJAEE_00341	dRep_bin218_ACMPALGF_01115	>dRep_bin218_ACMPALGF_01115 Phosphate acetyltransferase	dRep_bin055_IBMMJAEE_00341	CDS	pta	2.3.1.8	Phosphate acetyltransferase
IBMMJAEE_00371	19.29129											7	1	3,4525E-54	dRep_bin157_JPNIKEKI_01364;dRep_bin055_IBMMJAEE_00371;dRep_bin185_OOOLKACK_00412	dRep_bin157_JPNIKEKI_01364	>dRep_bin157_JPNIKEKI_01364 Aldehyde-alcohol dehydrogenase	dRep_bin055_IBMMJAEE_00371	CDS	adhE_1		Aldehyde-alcohol dehydrogenase
IBMMJAEE_00403					25.76757							7	1	3,7163E-81	dRep_bin055_IBMMJAEE_00403;dRep_bin189_AHHEHGDL_01398;dRep_bin050_FBECOHCI_01165;dRep_bin030_OGPDLGOC_00315	dRep_bin055_IBMMJAEE_00403	>dRep_bin055_IBMMJAEE_00403 Formate acetyltransferase	dRep_bin055_IBMMJAEE_00403	CDS	pflB	2.3.1.54	Formate acetyltransferase
IBMMJAEE_00565					27.68866	28.85067	26.93146	27.22683				5	1	2,0271E-61	dRep_bin071_JHMCIJPE_00774;dRep_bin271_NGFBCHKH_00710;dRep_bin063_PJANDMAH_00185;dRep_bin034_MEBMFDLL_00247;dRep_bin084_CGBIKHBH_01287;dRep_bin307_AOCKHIKF_01139;dRep_bin098_DDEBHDKK_01407;dRep_bin290_OIOJKBNK_01581;dRep_bin165_HMDFFMMM_00576;dRep_bin351_CKFFBPHM_00569;dRep_bin229_FFOBPPJI_00495;dRep_bin070_EMBHKIOF_00542;dRep_bin136_NAIECEIF_01032;dRep_bin073_AKBCEHHO_01226;dRep_bin014_CHIHIMAN_00024;dRep_bin289_KALDCNNP_00248;dRep_bin199_JBCGANNF_00237;dRep_bin244_LBFMHLBI_01073;dRep_bin036_DOKCEIDH_00668;dRep_bin004_OCHNPJPO_00478;dRep_bin329_GDOHKPBL_00723;dRep_bin316_FNLHDNEO_01012;dRep_bin256_KEMNAOBC_01521;dRep_bin198_GMLJKALI_00058;dRep_bin092_OOJCPDEA_01022;dRep_bin318_IEDEJOFJ_00455;dRep_bin301_NJFJIJGA_00149;dRep_bin183_FPGIOKBG_00223;dRep_bin149_GABCHCDI_01562;dRep_bin022_BOEAFNDE_00838;dRep_bin345_GLPJDLOI_00727;dRep_bin275_NIDIBBDA_00580;dRep_bin096_GNHMEKPF_01251;dRep_bin314_KCHFPLIP_01102;dRep_bin272_LGBDGEIM_00187;dRep_bin118_FGIOKLBC_01064;dRep_bin055_IBMMJAEE_00565;dRep_bin331_HPKAPHAF_01667;dRep_bin028_GKEJLBAM_00501;dRep_bin012_KEBBILMO_00805	dRep_bin071_JHMCIJPE_00774	>dRep_bin071_JHMCIJPE_00774 Glucose-1-phosphate thymidylyltransferase 2	dRep_bin055_IBMMJAEE_00565	CDS	rmlA	2.7.7.24	Glucose-1-phosphate thymidylyltransferase
IBMMJAEE_00573		23.23771	23.20127									2	1	0,00017256	dRep_bin035_JBNPBOKG_01195;dRep_bin126_PPDNCIBN_01018;dRep_bin305_FCIEFIHE_00446;dRep_bin231_CFOLMJBA_01036;dRep_bin114_FJHJKHGL_01424;dRep_bin105_AAEIHAFF_01699;dRep_bin268_LKMHIMLG_01117;dRep_bin031_BNHMFOII_01346;dRep_bin321_EJNAAGJG_01026;dRep_bin324_IPNHOHFK_01645;dRep_bin236_BNONDECB_01150;dRep_bin055_IBMMJAEE_00573;dRep_bin340_OFLHNGJM_00320;dRep_bin076_GLAOFBEC_01385;dRep_bin343_JCMCKBGF_00786	dRep_bin035_JBNPBOKG_01195;dRep_bin126_PPDNCIBN_01018;dRep_bin305_FCIEFIHE_00446;dRep_bin231_CFOLMJBA_01036;dRep_bin114_FJHJKHGL_01424;dRep_bin105_AAEIHAFF_01699;dRep_bin268_LKMHIMLG_01117;dRep_bin031_BNHMFOII_01346;dRep_bin321_EJNAAGJG_01026;dRep_bin324_IPNHOHFK_01645;dRep_bin236_BNONDECB_01150;dRep_bin055_IBMMJAEE_00573;dRep_bin340_OFLHNGJM_00320;dRep_bin076_GLAOFBEC_01385;dRep_bin343_JCMCKBGF_00786	>dRep_bin035_JBNPBOKG_01195 Pseudouridine-5-phosphate glycosidase;>dRep_bin126_PPDNCIBN_01018 Pseudouridine-5-phosphate glycosidase;>dRep_bin305_FCIEFIHE_00446 Pseudouridine-5-phosphate glycosidase;>dRep_bin231_CFOLMJBA_01036 Pseudouridine-5-phosphate	dRep_bin055_IBMMJAEE_00573	CDS	psuG	4.2.1.70	Pseudouridine-5'-phosphate glycosidase
IBMMJAEE_00610				21.86884								3	1	1,3797E-13	dRep_bin021_AJDDCGJC_00051;dRep_bin252_NDAKLAGD_00826;dRep_bin317_ABPHNCOD_01131;dRep_bin216_JNJMCPHB_01076;dRep_bin272_LGBDGEIM_00618;dRep_bin097_CBBLIPAN_01579;dRep_bin053_OMGNPOOB_00833;dRep_bin337_FHKPNFDB_00090;dRep_bin052_PGOOKKFH_01594;dRep_bin168_HKDILBFE_01015;dRep_bin322_OJELOJOF_01622;dRep_bin220_PILICLLL_01543;dRep_bin055_IBMMJAEE_00610;dRep_bin061_ONFGDLGO_01234;dRep_bin168_HKDILBFE_00368;dRep_bin055_IBMMJAEE_00168;dRep_bin261_FJICAFFM_00490;dRep_bin017_FGFLFOPJ_00414;dRep_bin115_IFKGOGCL_01280;dRep_bin257_JHFDCHCB_01406;dRep_bin323_FBBLPLCG_01600;dRep_bin007_LNLEAAAN_00766;dRep_bin049_MNFBDPNO_00781;dRep_bin333_EFOKIBLA_01149;dRep_bin279_IAEFEPEN_01471;dRep_bin234_ECABPBME_01515;dRep_bin179_HFEIPPPA_02108;dRep_bin023_HGFJFKAI_01527;dRep_bin335_JIOGNAPG_00787;dRep_bin250_NMCAMJIO_00423;dRep_bin158_OGFICEAP_00549;dRep_bin100_CODMOHGB_01341;dRep_bin089_PAJFOJBN_02515;dRep_bin088_DNGPPFDK_01371;dRep_bin081_JDPCKDNP_00684;dRep_bin324_IPNHOHFK_01454;dRep_bin300_MJPPENNL_01260;dRep_bin292_JIBLDOOH_01593;dRep_bin284_DEHKNOBF_00281;dRep_bin282_PKAAPBFP_00934;dRep_bin279_IAEFEPEN_01275;dRep_bin269_PNILGKPH_00152;dRep_bin240_LDBBGJKG_01257;dRep_bin226_NLNLHLLD_00367;dRep_bin209_NKIHFCEN_01541;dRep_bin203_CLFNNOCF_01928;dRep_bin179_HFEIPPPA_00359;dRep_bin167_BLMEBMNN_00233;dRep_bin160_EFKMPBOM_02132;dRep_bin154_JGOKHKLI_02775;dRep_bin133_NOBPDBPA_00727;dRep_bin114_FJHJKHGL_00838;dRep_bin095_HOBNOEEF_00822;dRep_bin075_EPEMMOCL_00939;dRep_bin074_EHAOMODJ_00291;dRep_bin065_DFABHCBI_01203;dRep_bin347_EKGCMFPD_00625;dRep_bin325_EIIGOGHN_00612;dRep_bin310_IMBAFDIF_01359;dRep_bin308_JBPDGLPP_00545;dRep_bin306_FGHMKMMP_01018;dRep_bin297_EDHEEICA_01903;dRep_bin201_OLKDIBOK_00335;dRep_bin186_HJAAFFNP_00409;dRep_bin173_BEBNCADL_00242;dRep_bin169_PNICKJKO_00103;dRep_bin145_KMJJJOEJ_01348;dRep_bin135_HHKACLPM_00566;dRep_bin101_BNDDLDCL_00036;dRep_bin069_EGGEOGDC_01480;dRep_bin062_BOFBFLDA_00487;dRep_bin047_IFFANOMN_01271;dRep_bin042_MMFCLHOO_00308;dRep_bin041_OPKGAAAG_00762;dRep_bin024_OLHDGABE_00679;dRep_bin016_JLGAHGOJ_01831;dRep_bin001_GHHJMDAL_00660;dRep_bin349_AMCJEEEG_00131;dRep_bin312_MJFEFHMP_00833;dRep_bin264_DNFFGNEG_00100;dRep_bin246_MMFBABHK_00297;dRep_bin219_HGPEELLF_00003;dRep_bin174_LJJOKEME_01103;dRep_bin129_GADIAMAA_01409;dRep_bin127_FIPNHBCH_00703;dRep_bin077_DNNBMPMC_01278;dRep_bin030_OGPDLGOC_01790;dRep_bin004_OCHNPJPO_01519;dRep_bin218_ACMPALGF_00968;dRep_bin185_OOOLKACK_00657;dRep_bin181_MKGPMPIA_00538;dRep_bin148_NAJFKJMD_01090;dRep_bin058_GJKCICJN_01056;dRep_bin291_EILOACJB_00579;dRep_bin244_LBFMHLBI_01277;dRep_bin223_PIMCDKJI_01006;dRep_bin204_INMOGLDN_01473;dRep_bin184_MBMMJHKO_00222;dRep_bin302_AHDEPDKG_00621;dRep_bin265_LFKFBJPC_00590;dRep_bin233_BAGKKAOB_00885;dRep_bin188_EJILNMPE_01053;dRep_bin081_JDPCKDNP_01324;dRep_bin318_IEDEJOFJ_00724;dRep_bin144_NPHACCKF_00221;dRep_bin096_GNHMEKPF_00086;dRep_bin344_CJJBDGAA_01489;dRep_bin295_EJGKDKNE_00851;dRep_bin048_PABMBHAL_01507;dRep_bin303_DDDNDJCF_00663;dRep_bin283_NLJJFFAC_01754;dRep_bin201_OLKDIBOK_00523;dRep_bin139_KGAJINND_01276;dRep_bin134_HIAPAODO_01158;dRep_bin094_LBLICAAO_00942;dRep_bin062_BOFBFLDA_00417;dRep_bin336_MPGOKPOL_02385;dRep_bin082_HBEFABJN_00650;dRep_bin125_FADLGGII_00540;dRep_bin334_NAPFFNLD_01195;dRep_bin217_MJCEAEPB_00530;dRep_bin195_DDMDFNOK_00971;dRep_bin060_HNFNENOI_00088;dRep_bin328_GIGKNKPJ_00426;dRep_bin281_OGHLKMAI_01076;dRep_bin197_NHLBHFEI_00626;dRep_bin103_IGJBLKMC_00726;dRep_bin116_CLFDBMOF_00455;dRep_bin332_KAOPCDPF_00448;dRep_bin345_GLPJDLOI_00589;dRep_bin314_KCHFPLIP_00788;dRep_bin128_JPBBHEMA_00693;dRep_bin073_AKBCEHHO_01462;dRep_bin045_GJACFFBC_00428;dRep_bin329_GDOHKPBL_01522;dRep_bin316_FNLHDNEO_00349;dRep_bin307_AOCKHIKF_00400;dRep_bin294_EHJINIDK_01408;dRep_bin289_KALDCNNP_01327;dRep_bin183_FPGIOKBG_00622;dRep_bin098_DDEBHDKK_01308;dRep_bin165_HMDFFMMM_01247;dRep_bin037_GEAOEKHA_01212;dRep_bin256_KEMNAOBC_00113;dRep_bin092_OOJCPDEA_01143;dRep_bin126_PPDNCIBN_00264;dRep_bin090_IPGNHCBJ_00911;dRep_bin215_ABBFGCAF_00280;dRep_bin005_CNDFPKJG_00629;dRep_bin270_GEJAHNCN_01426;dRep_bin116_CLFDBMOF_00686;dRep_bin069_EGGEOGDC_00857;dRep_bin007_LNLEAAAN_01604;dRep_bin057_BNCFHBBO_01159;dRep_bin038_EIGFILKG_00229;dRep_bin114_FJHJKHGL_00934;dRep_bin152_LJMCIADF_00045;dRep_bin322_OJELOJOF_00826;dRep_bin266_JFOCEDAE_00030;dRep_bin194_MEPDOGGJ_01235;dRep_bin079_GAOGCKND_01437;dRep_bin068_ENOLAELK_01387;dRep_bin025_CBEJJMLE_00917;dRep_bin240_LDBBGJKG_00802;dRep_bin347_EKGCMFPD_01498;dRep_bin167_BLMEBMNN_00596;dRep_bin160_EFKMPBOM_02114;dRep_bin260_HELEPKJL_02017;dRep_bin091_MAFACGAD_00797;dRep_bin099_DNDAGJEJ_01471;dRep_bin278_BFCONKOE_01179;dRep_bin168_HKDILBFE_00397;dRep_bin284_DEHKNOBF_00737;dRep_bin001_GHHJMDAL_01209;dRep_bin236_BNONDECB_00531;dRep_bin286_OEMIJKMC_01078;dRep_bin231_CFOLMJBA_00464;dRep_bin193_GDMDPNNM_00224;dRep_bin172_ALNHGLMD_01787;dRep_bin182_EMCFODCD_00065;dRep_bin044_IPFKHAEF_00183	dRep_bin021_AJDDCGJC_00051;dRep_bin252_NDAKLAGD_00826;dRep_bin317_ABPHNCOD_01131;dRep_bin216_JNJMCPHB_01076;dRep_bin272_LGBDGEIM_00618;dRep_bin097_CBBLIPAN_01579;dRep_bin053_OMGNPOOB_00833;dRep_bin337_FHKPNFDB_00090;dRep_bin052_PGOOKKFH_01594	>dRep_bin021_AJDDCGJC_00051 ATP synthase subunit alpha;>dRep_bin252_NDAKLAGD_00826 ATP synthase subunit alpha;>dRep_bin317_ABPHNCOD_01131 ATP synthase subunit alpha;>dRep_bin216_JNJMCPHB_01076 ATP synthase subunit alpha;>dRep_bin272_LGBDGEIM_00618 ATP synt	dRep_bin055_IBMMJAEE_00610	CDS	atpA_2	3.6.3.14	ATP synthase subunit alpha
IBMMJAEE_00636	25.0135	27.312250000000002	24.147090000000002	24.425469999999997								1	1	1,7312E-44	dRep_bin055_IBMMJAEE_00636	dRep_bin055_IBMMJAEE_00636	>dRep_bin055_IBMMJAEE_00636 Bacterial extracellular solute-binding protein	dRep_bin055_IBMMJAEE_00636	CDS			Bacterial extracellular solute-binding protein
IBMMJAEE_00646	24.465689999999995	26.260689999999997	25.31261	25.246119999999998								9	2	1,0106E-26	dRep_bin133_NOBPDBPA_01176;dRep_bin179_HFEIPPPA_00199;dRep_bin203_CLFNNOCF_00399;dRep_bin145_KMJJJOEJ_01160;dRep_bin027_OFJCHLJJ_01925;dRep_bin325_EIIGOGHN_01404;dRep_bin310_IMBAFDIF_00767;dRep_bin211_LGJEFJIK_00541;dRep_bin115_IFKGOGCL_00023;dRep_bin328_GIGKNKPJ_00117;dRep_bin017_FGFLFOPJ_00444;dRep_bin261_FJICAFFM_00065;dRep_bin282_PKAAPBFP_01129;dRep_bin005_CNDFPKJG_00647;dRep_bin332_KAOPCDPF_00563;dRep_bin249_OFIIEIDJ_00155;dRep_bin001_GHHJMDAL_01332;dRep_bin127_FIPNHBCH_01505;dRep_bin077_DNNBMPMC_01412;dRep_bin075_EPEMMOCL_00769;dRep_bin188_EJILNMPE_00165;dRep_bin096_GNHMEKPF_00442;dRep_bin055_IBMMJAEE_00646;dRep_bin094_LBLICAAO_00410;dRep_bin144_NPHACCKF_00825;dRep_bin283_NLJJFFAC_01601	dRep_bin133_NOBPDBPA_01176;dRep_bin179_HFEIPPPA_00199;dRep_bin203_CLFNNOCF_00399	>dRep_bin133_NOBPDBPA_01176 Polyribonucleotide nucleotidyltransferase;>dRep_bin179_HFEIPPPA_00199 Polyribonucleotide nucleotidyltransferase;>dRep_bin203_CLFNNOCF_00399 Polyribonucleotide nucleotidyltransferase	dRep_bin055_IBMMJAEE_00646	CDS	pnp	2.7.7.8	Polyribonucleotide nucleotidyltransferase
IBMMJAEE_00781								21.643810000000002				9	0	4,6207E-36	dRep_bin143_PFLDJMPF_01162;dRep_bin074_EHAOMODJ_00197;dRep_bin152_LJMCIADF_00840;dRep_bin079_GAOGCKND_00311;dRep_bin068_ENOLAELK_00990;dRep_bin124_HIHDFGCL_00318;dRep_bin272_LGBDGEIM_00728;dRep_bin337_FHKPNFDB_00324;dRep_bin056_EMNHHOJA_01446;dRep_bin054_NNOKONMC_00657;dRep_bin102_ICFDHPGB_00342;dRep_bin259_IFIOODLK_00485;dRep_bin086_HHEJBMCP_01132;dRep_bin054_NNOKONMC_00873;dRep_bin161_JMKPMHCO_00072;dRep_bin044_IPFKHAEF_00005;dRep_bin085_MBHLGCDB_01101;dRep_bin059_OOBKFNPP_00481;dRep_bin171_FIDMCACI_00747;dRep_bin012_KEBBILMO_00314;dRep_bin212_IEMJENOD_00204;dRep_bin257_JHFDCHCB_01099;dRep_bin277_MIPNGEJE_00939;dRep_bin238_OLNFACLE_01881;dRep_bin200_JJGKEOHI_00480;dRep_bin144_NPHACCKF_01932;dRep_bin321_EJNAAGJG_00384;dRep_bin333_EFOKIBLA_00721;dRep_bin273_FGAEBHNP_01365;dRep_bin280_IMCGLKKG_00438;dRep_bin171_FIDMCACI_00165;dRep_bin051_HIEIDCID_00833;dRep_bin141_GMCOOECB_01065;dRep_bin122_JHMJFODI_00609;dRep_bin155_CLHNKEHA_00697;dRep_bin313_CJFGINPI_00865;dRep_bin213_HHHELMFN_00711;dRep_bin258_DAMEHFEK_00926;dRep_bin169_PNICKJKO_00880;dRep_bin055_IBMMJAEE_00781;dRep_bin096_GNHMEKPF_00270;dRep_bin082_HBEFABJN_01176;dRep_bin094_LBLICAAO_01798;dRep_bin052_PGOOKKFH_00001;dRep_bin178_FLGBGGJB_00429;dRep_bin123_PJKBFKBB_00530;dRep_bin046_GKEJLOEK_00533;dRep_bin270_GEJAHNCN_00559;dRep_bin087_FCLGAPPI_00749;dRep_bin317_ABPHNCOD_01524;dRep_bin354_MMOALAFN_01090;dRep_bin221_LMGNIMOJ_00256;dRep_bin005_CNDFPKJG_00513;dRep_bin144_NPHACCKF_01674;dRep_bin215_ABBFGCAF_00891;dRep_bin024_OLHDGABE_01486;dRep_bin207_OHNPDPFI_01006;dRep_bin109_MJABCPAK_00005;dRep_bin121_BHOOLFKN_00138;dRep_bin144_NPHACCKF_01593;dRep_bin236_BNONDECB_00589;dRep_bin166_DFIAJFEC_00113;dRep_bin352_KFNHGNFC_00788;dRep_bin187_CLPDGDBG_00447;dRep_bin192_GCMBELNN_00637;dRep_bin206_OIIBOIAK_00839;dRep_bin173_BEBNCADL_00299;dRep_bin080_CBEBHNNK_00392;dRep_bin237_KJDLIPND_00675	dRep_bin143_PFLDJMPF_01162;dRep_bin074_EHAOMODJ_00197;dRep_bin152_LJMCIADF_00840;dRep_bin079_GAOGCKND_00311;dRep_bin068_ENOLAELK_00990;dRep_bin124_HIHDFGCL_00318;dRep_bin272_LGBDGEIM_00728;dRep_bin337_FHKPNFDB_00324;dRep_bin056_EMNHHOJA_01446;dRep_bin054_NNOKONMC_00657;dRep_bin102_ICFDHPGB_00342;dRep_bin259_IFIOODLK_00485;dRep_bin086_HHEJBMCP_01132;dRep_bin054_NNOKONMC_00873;dRep_bin161_JMKPMHCO_00072;dRep_bin044_IPFKHAEF_00005;dRep_bin085_MBHLGCDB_01101	>dRep_bin143_PFLDJMPF_01162 DNA-directed RNA polymerase subunit beta;>dRep_bin074_EHAOMODJ_00197 DNA-directed RNA polymerase subunit beta;>dRep_bin152_LJMCIADF_00840 DNA-directed RNA polymerase subunit beta;>dRep_bin079_GAOGCKND_00311 DNA-directed RNA p	dRep_bin055_IBMMJAEE_00781	CDS	rpoC	2.7.7.6	DNA-directed RNA polymerase subunit beta'
IBMMJAEE_00885	29.88809	28.107590000000002	29.828039999999998	26.80501	25.79516	29.174270000000003	26.224	26.811760000000003				15	15	1,4328E-288	dRep_bin228_CECEDMJG_00130;dRep_bin078_GKFCBAEI_00557;dRep_bin055_IBMMJAEE_00885;dRep_bin309_BIOHLCGG_01138;dRep_bin212_IEMJENOD_01239;dRep_bin144_NPHACCKF_00066	dRep_bin228_CECEDMJG_00130	>dRep_bin228_CECEDMJG_00130 Choloylglycine hydrolase	dRep_bin055_IBMMJAEE_00885	CDS	cbh	3.5.1.24	Choloylglycine hydrolase
IBMMJAEE_01006	28.269099999999998	27.321050000000003	27.52313	27.43349	29.555850000000003	28.4649	29.5133	30.816810000000004				23	9	0	dRep_bin139_KGAJINND_01821;dRep_bin215_ABBFGCAF_00253;dRep_bin042_MMFCLHOO_00160;dRep_bin283_NLJJFFAC_00705;dRep_bin160_EFKMPBOM_00712;dRep_bin154_JGOKHKLI_01926;dRep_bin087_FCLGAPPI_00028;dRep_bin046_GKEJLOEK_00646;dRep_bin308_JBPDGLPP_01510;dRep_bin226_NLNLHLLD_01292;dRep_bin203_CLFNNOCF_00196;dRep_bin169_PNICKJKO_01458;dRep_bin167_BLMEBMNN_02003;dRep_bin144_NPHACCKF_00207;dRep_bin127_FIPNHBCH_01156;dRep_bin101_BNDDLDCL_00920;dRep_bin091_MAFACGAD_00174;dRep_bin089_PAJFOJBN_01094;dRep_bin055_IBMMJAEE_01006;dRep_bin024_OLHDGABE_00811;dRep_bin017_FGFLFOPJ_01094;dRep_bin005_CNDFPKJG_00650;dRep_bin282_PKAAPBFP_01434;dRep_bin347_EKGCMFPD_01249;dRep_bin250_NMCAMJIO_00216;dRep_bin257_JHFDCHCB_02386;dRep_bin186_HJAAFFNP_01166;dRep_bin123_PJKBFKBB_01198	dRep_bin139_KGAJINND_01821	>dRep_bin139_KGAJINND_01821 Formate--tetrahydrofolate ligase	dRep_bin055_IBMMJAEE_01006	CDS	fhs	6.3.4.3	Formate--tetrahydrofolate ligase
IBMMJAEE_01023	31.478559999999998	32.31265	32.0676	30.842209999999998	29.834370000000003	29.72835	29.078319999999998	30.505309999999998				18	16	1,0949E-267	dRep_bin013_IODPEDPB_00809;dRep_bin055_IBMMJAEE_01023;dRep_bin283_NLJJFFAC_01714	dRep_bin013_IODPEDPB_00809	>dRep_bin013_IODPEDPB_00809 ATP-dependent 6-phosphofructokinase	dRep_bin055_IBMMJAEE_01023	CDS	pfkA	2.7.1.11	ATP-dependent 6-phosphofructokinase isozyme 1
IBMMJAEE_01049						25.892519999999998						20	1	0	dRep_bin298_EIPJCOMF_01427;dRep_bin055_IBMMJAEE_01049	dRep_bin298_EIPJCOMF_01427	>dRep_bin298_EIPJCOMF_01427 Chaperone protein DnaK	dRep_bin055_IBMMJAEE_01049	CDS	dnaK_1		Chaperone protein DnaK
IBMMJAEE_01124						27.325599999999998						1	1	1,0823E-08	dRep_bin053_OMGNPOOB_00560;dRep_bin055_IBMMJAEE_01124	dRep_bin053_OMGNPOOB_00560;dRep_bin055_IBMMJAEE_01124	>dRep_bin053_OMGNPOOB_00560 Altronate oxidoreductase;>dRep_bin055_IBMMJAEE_01124 Altronate oxidoreductase	dRep_bin055_IBMMJAEE_01124	CDS	uxaB	1.1.1.58	Altronate oxidoreductase
IBMMJAEE_01236	27.04958	26.317790000000002	26.584629999999997	27.2238	27.12139	27.482619999999994	26.22183	26.99183				9	4	1,6562E-30	dRep_bin191_NGFJMLOL_00515;dRep_bin183_FPGIOKBG_01567;dRep_bin285_IPHKFJAN_01525;dRep_bin037_GEAOEKHA_01472;dRep_bin045_GJACFFBC_00013;dRep_bin346_JKFDGFHC_00991;dRep_bin165_HMDFFMMM_01286;dRep_bin084_CGBIKHBH_00960;dRep_bin070_EMBHKIOF_00921;dRep_bin307_AOCKHIKF_01313;dRep_bin098_DDEBHDKK_01493;dRep_bin198_GMLJKALI_01431;dRep_bin314_KCHFPLIP_01180;dRep_bin036_DOKCEIDH_00004;dRep_bin116_CLFDBMOF_00484;dRep_bin236_BNONDECB_01144;dRep_bin055_IBMMJAEE_01236;dRep_bin082_HBEFABJN_00896;dRep_bin144_NPHACCKF_01365;dRep_bin237_KJDLIPND_00135;dRep_bin281_OGHLKMAI_01171;dRep_bin232_JGAEDAFA_01141;dRep_bin331_HPKAPHAF_01222;dRep_bin064_CMDDCDKG_01005;dRep_bin073_AKBCEHHO_01209	dRep_bin191_NGFJMLOL_00515	>dRep_bin191_NGFJMLOL_00515 Translation initiation factor IF-2	dRep_bin055_IBMMJAEE_01236	CDS	infB		Translation initiation factor IF-2
IBMMJAEE_01243	32.87822	31.595299999999998	32.472300000000004	31.82817	31.281509999999997	31.41584	33.188970000000005	32.499900000000004				28	25	0	dRep_bin225_FLBKEJIP_00744;dRep_bin213_HHHELMFN_00436;dRep_bin141_GMCOOECB_01061;dRep_bin121_BHOOLFKN_01295;dRep_bin051_HIEIDCID_00837;dRep_bin009_KMMEHEKA_00957;dRep_bin055_IBMMJAEE_01243;dRep_bin178_FLGBGGJB_00898;dRep_bin054_NNOKONMC_00954	dRep_bin225_FLBKEJIP_00744	>dRep_bin225_FLBKEJIP_00744 Elongation factor G	dRep_bin055_IBMMJAEE_01243	CDS	fusA_3		Elongation factor G
IBMMJAEE_01254	25.23114	26.20021	25.60848	25.00539	25.231910000000003	24.7476	24.899800000000003	25.86637				5	4	9,1623E-50	dRep_bin158_OGFICEAP_01083;dRep_bin055_IBMMJAEE_01254;dRep_bin192_GCMBELNN_00771;dRep_bin293_MEPKGOAN_00645;dRep_bin185_OOOLKACK_00545	dRep_bin158_OGFICEAP_01083	>dRep_bin158_OGFICEAP_01083 NADP-dependent 7-alpha-hydroxysteroid dehydrogenase	dRep_bin055_IBMMJAEE_01254	CDS		1.1.1.-	NADP-dependent 7-alpha-hydroxysteroid dehydrogenase
