GBprotID	LFQ intensity CtrPig1	LFQ intensity CtrPig2	LFQ intensity CtrPig3	LFQ intensity CtrPig4	LFQ intensity MannanPig1	LFQ intensity MannanPig2	LFQ intensity MannanPig3	LFQ intensity MannanPig4	Only identified by site	Reverse	Contaminant	Peptides	Unique peptides	PEP	Protein IDs	Majority protein IDs	Fasta headers	IDcomb	ftype	gene	EC_number	product
BOFBFLDA_00028					24.058619999999998	25.601870000000005	24.23506	23.76608				12	2	1,1428E-236	dRep_bin062_BOFBFLDA_00028	dRep_bin062_BOFBFLDA_00028	>dRep_bin062_BOFBFLDA_00028 Chaperone protein DnaK	dRep_bin062_BOFBFLDA_00028	CDS	dnaK		Chaperone protein DnaK
BOFBFLDA_00036					20.400519999999997							1	1	0,0074778	dRep_bin266_JFOCEDAE_00832;dRep_bin201_OLKDIBOK_00919;dRep_bin134_HIAPAODO_01516;dRep_bin062_BOFBFLDA_00036;dRep_bin047_IFFANOMN_01224;dRep_bin016_JLGAHGOJ_01130;dRep_bin253_CPMOAOBJ_01120;dRep_bin027_OFJCHLJJ_00760	dRep_bin266_JFOCEDAE_00832;dRep_bin201_OLKDIBOK_00919;dRep_bin134_HIAPAODO_01516;dRep_bin062_BOFBFLDA_00036;dRep_bin047_IFFANOMN_01224;dRep_bin016_JLGAHGOJ_01130;dRep_bin253_CPMOAOBJ_01120;dRep_bin027_OFJCHLJJ_00760	>dRep_bin266_JFOCEDAE_00832 Anaerobic sulfite reductase subunit B;>dRep_bin201_OLKDIBOK_00919 Anaerobic sulfite reductase subunit B;>dRep_bin134_HIAPAODO_01516 Anaerobic sulfite reductase subunit B;>dRep_bin062_BOFBFLDA_00036 Anaerobic sulfite reductase su	dRep_bin062_BOFBFLDA_00036	CDS	asrB		Anaerobic sulfite reductase subunit B
BOFBFLDA_00050			26.02081									2	0	1,307E-65	dRep_bin134_HIAPAODO_01628;dRep_bin062_BOFBFLDA_00050	dRep_bin134_HIAPAODO_01628;dRep_bin062_BOFBFLDA_00050	>dRep_bin134_HIAPAODO_01628 Cold shock-like protein CspLA;>dRep_bin062_BOFBFLDA_00050 Cold shock-like protein CspLA	dRep_bin062_BOFBFLDA_00050	CDS	cspLA		Cold shock-like protein CspLA
BOFBFLDA_00093				24.25609								5	1	1,5418E-13	dRep_bin209_NKIHFCEN_00317;dRep_bin324_IPNHOHFK_01678;dRep_bin157_JPNIKEKI_00710;dRep_bin074_EHAOMODJ_01437;dRep_bin062_BOFBFLDA_00093;dRep_bin145_KMJJJOEJ_01378;dRep_bin024_OLHDGABE_00204;dRep_bin308_JBPDGLPP_00141;dRep_bin203_CLFNNOCF_01622;dRep_bin226_NLNLHLLD_00884;dRep_bin269_PNILGKPH_01346;dRep_bin179_HFEIPPPA_00528;dRep_bin279_IAEFEPEN_00315;dRep_bin254_GJDPFAEA_01649;dRep_bin158_OGFICEAP_01163;dRep_bin167_BLMEBMNN_00405;dRep_bin065_DFABHCBI_00157	dRep_bin209_NKIHFCEN_00317	>dRep_bin209_NKIHFCEN_00317 N-acetyl-gamma-glutamyl-phosphate reductase	dRep_bin062_BOFBFLDA_00093	CDS	argC	1.2.1.38	N-acetyl-gamma-glutamyl-phosphate reductase
BOFBFLDA_00118				26.368709999999997								4	2	1,0849E-12	dRep_bin292_JIBLDOOH_01063;dRep_bin041_OPKGAAAG_01075;dRep_bin209_NKIHFCEN_01331;dRep_bin269_PNILGKPH_00386;dRep_bin039_IJNOFOJK_00028;dRep_bin324_IPNHOHFK_01206;dRep_bin300_MJPPENNL_00977;dRep_bin279_IAEFEPEN_01295;dRep_bin344_CJJBDGAA_00875;dRep_bin328_GIGKNKPJ_01713;dRep_bin308_JBPDGLPP_01081;dRep_bin303_DDDNDJCF_01452;dRep_bin260_HELEPKJL_01814;dRep_bin240_LDBBGJKG_01949;dRep_bin211_LGJEFJIK_01488;dRep_bin201_OLKDIBOK_00486;dRep_bin186_HJAAFFNP_00498;dRep_bin161_JMKPMHCO_00510;dRep_bin140_ACFAKGIL_00966;dRep_bin139_KGAJINND_01935;dRep_bin127_FIPNHBCH_01109;dRep_bin091_MAFACGAD_00938;dRep_bin069_EGGEOGDC_00173;dRep_bin065_DFABHCBI_01020;dRep_bin062_BOFBFLDA_00118;dRep_bin024_OLHDGABE_00006;dRep_bin016_JLGAHGOJ_01717;dRep_bin347_EKGCMFPD_00813;dRep_bin332_KAOPCDPF_00718;dRep_bin322_OJELOJOF_01104;dRep_bin310_IMBAFDIF_01100;dRep_bin306_FGHMKMMP_01495;dRep_bin282_PKAAPBFP_00123;dRep_bin266_JFOCEDAE_01441;dRep_bin249_OFIIEIDJ_00818;dRep_bin248_CCDFPECI_00304;dRep_bin234_ECABPBME_02078;dRep_bin181_MKGPMPIA_00013;dRep_bin160_EFKMPBOM_00454;dRep_bin158_OGFICEAP_01438;dRep_bin154_JGOKHKLI_00210;dRep_bin145_KMJJJOEJ_01040;dRep_bin135_HHKACLPM_01477;dRep_bin107_EFNBPDOP_01455;dRep_bin089_PAJFOJBN_01775;dRep_bin081_JDPCKDNP_00410;dRep_bin077_DNNBMPMC_01401;dRep_bin075_EPEMMOCL_00061;dRep_bin027_OFJCHLJJ_01614;dRep_bin023_HGFJFKAI_00593;dRep_bin019_MOJEPLJF_00571;dRep_bin007_LNLEAAAN_01143;dRep_bin005_CNDFPKJG_01435;dRep_bin001_GHHJMDAL_01190	dRep_bin292_JIBLDOOH_01063;dRep_bin041_OPKGAAAG_01075;dRep_bin209_NKIHFCEN_01331;dRep_bin269_PNILGKPH_00386;dRep_bin039_IJNOFOJK_00028;dRep_bin324_IPNHOHFK_01206;dRep_bin300_MJPPENNL_00977;dRep_bin279_IAEFEPEN_01295	>dRep_bin292_JIBLDOOH_01063 50S ribosomal protein L21;>dRep_bin041_OPKGAAAG_01075 50S ribosomal protein L21;>dRep_bin209_NKIHFCEN_01331 50S ribosomal protein L21;>dRep_bin269_PNILGKPH_00386 50S ribosomal protein L21;>dRep_bin039_IJNOFOJK_00028 50S ribosoma	dRep_bin062_BOFBFLDA_00118	CDS	rplU		50S ribosomal protein L21
BOFBFLDA_00155	26.35328	26.39411	26.607100000000003	26.55289	26.351970000000005	25.29112	26.460119999999996	25.396990000000002				10	1	3,3536E-48	dRep_bin095_HOBNOEEF_00945;dRep_bin062_BOFBFLDA_00155;dRep_bin220_PILICLLL_01499;dRep_bin017_FGFLFOPJ_01073	dRep_bin095_HOBNOEEF_00945	>dRep_bin095_HOBNOEEF_00945 Phosphoserine aminotransferase	dRep_bin062_BOFBFLDA_00155	CDS	serC	2.6.1.52	Phosphoserine aminotransferase
BOFBFLDA_00157				25.27427								11	0	5,4394E-115	dRep_bin297_EDHEEICA_00822;dRep_bin127_FIPNHBCH_00210;dRep_bin167_BLMEBMNN_00828;dRep_bin065_DFABHCBI_00751;dRep_bin308_JBPDGLPP_00714;dRep_bin154_JGOKHKLI_02876;dRep_bin001_GHHJMDAL_00880;dRep_bin160_EFKMPBOM_00062;dRep_bin024_OLHDGABE_01423;dRep_bin069_EGGEOGDC_00464;dRep_bin062_BOFBFLDA_00157	dRep_bin297_EDHEEICA_00822;dRep_bin127_FIPNHBCH_00210;dRep_bin167_BLMEBMNN_00828;dRep_bin065_DFABHCBI_00751;dRep_bin308_JBPDGLPP_00714	>dRep_bin297_EDHEEICA_00822 Dihydroxy-acid dehydratase;>dRep_bin127_FIPNHBCH_00210 Dihydroxy-acid dehydratase;>dRep_bin167_BLMEBMNN_00828 Dihydroxy-acid dehydratase;>dRep_bin065_DFABHCBI_00751 Dihydroxy-acid dehydratase;>dRep_bin308_JBPDGLPP_00714 Dihydrox	dRep_bin062_BOFBFLDA_00157	CDS	ilvD	4.2.1.9	Dihydroxy-acid dehydratase
BOFBFLDA_00221	27.22656	25.469639999999995	27.139560000000003	26.76989								3	0	2,5341E-17	dRep_bin074_EHAOMODJ_00357;dRep_bin335_JIOGNAPG_00060;dRep_bin234_ECABPBME_00543;dRep_bin185_OOOLKACK_00415;dRep_bin095_HOBNOEEF_01010;dRep_bin194_MEPDOGGJ_00068;dRep_bin025_CBEJJMLE_00034;dRep_bin282_PKAAPBFP_01136;dRep_bin260_HELEPKJL_01581;dRep_bin135_HHKACLPM_00020;dRep_bin047_IFFANOMN_01119;dRep_bin049_MNFBDPNO_00067;dRep_bin268_LKMHIMLG_00651;dRep_bin303_DDDNDJCF_00095;dRep_bin248_CCDFPECI_00722;dRep_bin243_JDMELKLC_00605;dRep_bin340_OFLHNGJM_00522;dRep_bin109_MJABCPAK_00884;dRep_bin087_FCLGAPPI_00696;dRep_bin160_EFKMPBOM_01056;dRep_bin154_JGOKHKLI_00096;dRep_bin354_MMOALAFN_01723;dRep_bin349_AMCJEEEG_01213;dRep_bin116_CLFDBMOF_00907;dRep_bin347_EKGCMFPD_01393;dRep_bin001_GHHJMDAL_01273;dRep_bin247_EKGBJCBM_00529;dRep_bin254_GJDPFAEA_00457;dRep_bin145_KMJJJOEJ_01456;dRep_bin322_OJELOJOF_01191;dRep_bin336_MPGOKPOL_00223;dRep_bin147_EJLBNEBE_01602;dRep_bin134_HIAPAODO_02129;dRep_bin062_BOFBFLDA_00221;dRep_bin332_KAOPCDPF_00824;dRep_bin253_CPMOAOBJ_01534;dRep_bin114_FJHJKHGL_01331;dRep_bin352_KFNHGNFC_00409;dRep_bin192_GCMBELNN_00663;dRep_bin187_CLPDGDBG_00783	dRep_bin074_EHAOMODJ_00357;dRep_bin335_JIOGNAPG_00060;dRep_bin234_ECABPBME_00543;dRep_bin185_OOOLKACK_00415;dRep_bin095_HOBNOEEF_01010;dRep_bin194_MEPDOGGJ_00068;dRep_bin025_CBEJJMLE_00034;dRep_bin282_PKAAPBFP_01136;dRep_bin260_HELEPKJL_01581;dRep_bin135_HHKACLPM_00020;dRep_bin047_IFFANOMN_01119;dRep_bin049_MNFBDPNO_00067;dRep_bin268_LKMHIMLG_00651;dRep_bin303_DDDNDJCF_00095;dRep_bin248_CCDFPECI_00722;dRep_bin243_JDMELKLC_00605;dRep_bin340_OFLHNGJM_00522;dRep_bin109_MJABCPAK_00884;dRep_bin087_FCLGAPPI_00696;dRep_bin160_EFKMPBOM_01056;dRep_bin154_JGOKHKLI_00096;dRep_bin354_MMOALAFN_01723	>dRep_bin074_EHAOMODJ_00357 Glutamate synthase [NADPH] small chain;>dRep_bin335_JIOGNAPG_00060 Glutamate synthase [NADPH] small chain;>dRep_bin234_ECABPBME_00543 Glutamate synthase [NADPH] small chain;>dRep_bin185_OOOLKACK_00415 Glutamate synthase [NADPH]	dRep_bin062_BOFBFLDA_00221	CDS	gltD	1.4.1.13	Glutamate synthase [NADPH] small chain
BOFBFLDA_00357						25.756970000000003						1	1	0,007356	dRep_bin158_OGFICEAP_00836;dRep_bin115_IFKGOGCL_02533;dRep_bin062_BOFBFLDA_00357;dRep_bin292_JIBLDOOH_00157;dRep_bin203_CLFNNOCF_00943;dRep_bin157_JPNIKEKI_00928;dRep_bin041_OPKGAAAG_00529;dRep_bin047_IFFANOMN_01141	dRep_bin158_OGFICEAP_00836;dRep_bin115_IFKGOGCL_02533;dRep_bin062_BOFBFLDA_00357;dRep_bin292_JIBLDOOH_00157;dRep_bin203_CLFNNOCF_00943;dRep_bin157_JPNIKEKI_00928;dRep_bin041_OPKGAAAG_00529;dRep_bin047_IFFANOMN_01141	>dRep_bin158_OGFICEAP_00836 Pyrroline-5-carboxylate reductase;>dRep_bin115_IFKGOGCL_02533 Pyrroline-5-carboxylate reductase;>dRep_bin062_BOFBFLDA_00357 Pyrroline-5-carboxylate reductase;>dRep_bin292_JIBLDOOH_00157 Pyrroline-5-carboxylate reductase;>dRep_bi	dRep_bin062_BOFBFLDA_00357	CDS	proC	1.5.1.2	Pyrroline-5-carboxylate reductase
BOFBFLDA_00368					24.095629999999996	23.78636	24.787709999999997	24.951850000000004				6	3	5,6404E-32	dRep_bin139_KGAJINND_00923;dRep_bin062_BOFBFLDA_00368	dRep_bin139_KGAJINND_00923	>dRep_bin139_KGAJINND_00923 Aspartate carbamoyltransferase catalytic subunit	dRep_bin062_BOFBFLDA_00368	CDS	pyrB	2.1.3.2	Aspartate carbamoyltransferase catalytic subunit
BOFBFLDA_00371					25.147910000000003	24.656380000000002	23.406129999999997	23.987019999999998				2	2	2,0171E-06	dRep_bin062_BOFBFLDA_00371;dRep_bin081_JDPCKDNP_02227;dRep_bin167_BLMEBMNN_00678;dRep_bin133_NOBPDBPA_01886;dRep_bin024_OLHDGABE_00362;dRep_bin203_CLFNNOCF_00573;dRep_bin095_HOBNOEEF_01210;dRep_bin019_MOJEPLJF_02112;dRep_bin179_HFEIPPPA_00739	dRep_bin062_BOFBFLDA_00371;dRep_bin081_JDPCKDNP_02227;dRep_bin167_BLMEBMNN_00678;dRep_bin133_NOBPDBPA_01886;dRep_bin024_OLHDGABE_00362;dRep_bin203_CLFNNOCF_00573;dRep_bin095_HOBNOEEF_01210;dRep_bin019_MOJEPLJF_02112;dRep_bin179_HFEIPPPA_00739	>dRep_bin062_BOFBFLDA_00371 UDP-galactopyranose mutase;>dRep_bin081_JDPCKDNP_02227 UDP-galactopyranose mutase;>dRep_bin167_BLMEBMNN_00678 UDP-galactopyranose mutase;>dRep_bin133_NOBPDBPA_01886 UDP-galactopyranose mutase;>dRep_bin024_OLHDGABE_00362 UDP-gala	dRep_bin062_BOFBFLDA_00371	CDS	glf_1	5.4.99.9	UDP-galactopyranose mutase
BOFBFLDA_00395	24.737940000000002	25.91205	25.373910000000002	25.227								13	1	1,3364E-238	dRep_bin062_BOFBFLDA_00395	dRep_bin062_BOFBFLDA_00395	>dRep_bin062_BOFBFLDA_00395 GGGtGRT protein	dRep_bin062_BOFBFLDA_00395	CDS			GGGtGRT protein
BOFBFLDA_00396	29.26121	29.624920000000003	29.265749999999997	29.200229999999998	28.795759999999998	28.21248	29.083399999999997	28.401539999999997				8	0	0	dRep_bin062_BOFBFLDA_00396;dRep_bin328_GIGKNKPJ_01288;dRep_bin325_EIIGOGHN_00833	dRep_bin062_BOFBFLDA_00396;dRep_bin328_GIGKNKPJ_01288;dRep_bin325_EIIGOGHN_00833	>dRep_bin062_BOFBFLDA_00396 hypothetical protein;>dRep_bin328_GIGKNKPJ_01288 hypothetical protein;>dRep_bin325_EIIGOGHN_00833 hypothetical protein	dRep_bin062_BOFBFLDA_00396	CDS			hypothetical protein
BOFBFLDA_00414	25.59958											1	1	4,4137E-05	dRep_bin344_CJJBDGAA_01486;dRep_bin220_PILICLLL_00038;dRep_bin139_KGAJINND_01279;dRep_bin134_HIAPAODO_01161;dRep_bin062_BOFBFLDA_00414;dRep_bin019_MOJEPLJF_01365;dRep_bin201_OLKDIBOK_00520	dRep_bin344_CJJBDGAA_01486;dRep_bin220_PILICLLL_00038;dRep_bin139_KGAJINND_01279;dRep_bin134_HIAPAODO_01161;dRep_bin062_BOFBFLDA_00414;dRep_bin019_MOJEPLJF_01365;dRep_bin201_OLKDIBOK_00520	>dRep_bin344_CJJBDGAA_01486 ATP synthase subunit c, sodium ion specific;>dRep_bin220_PILICLLL_00038 ATP synthase subunit c, sodium ion specific;>dRep_bin139_KGAJINND_01279 ATP synthase subunit c, sodium ion specific;>dRep_bin134_HIAPAODO_01161 ATP synthase	dRep_bin062_BOFBFLDA_00414	CDS	atpE_1		ATP synthase subunit c, sodium ion specific
BOFBFLDA_00419								22.45179				4	0	6,4263E-19	dRep_bin348_LCLFDNEE_01056;dRep_bin201_OLKDIBOK_00525;dRep_bin134_HIAPAODO_01156;dRep_bin220_PILICLLL_01541;dRep_bin139_KGAJINND_01274;dRep_bin062_BOFBFLDA_00419;dRep_bin019_MOJEPLJF_00009;dRep_bin344_CJJBDGAA_00530;dRep_bin243_JDMELKLC_01162;dRep_bin173_BEBNCADL_00240	dRep_bin348_LCLFDNEE_01056;dRep_bin201_OLKDIBOK_00525;dRep_bin134_HIAPAODO_01156;dRep_bin220_PILICLLL_01541;dRep_bin139_KGAJINND_01274;dRep_bin062_BOFBFLDA_00419;dRep_bin019_MOJEPLJF_00009;dRep_bin344_CJJBDGAA_00530;dRep_bin243_JDMELKLC_01162	>dRep_bin348_LCLFDNEE_01056 ATP synthase subunit beta;>dRep_bin201_OLKDIBOK_00525 ATP synthase subunit beta;>dRep_bin134_HIAPAODO_01156 ATP synthase subunit beta;>dRep_bin220_PILICLLL_01541 ATP synthase subunit beta;>dRep_bin139_KGAJINND_01274 ATP synthase	dRep_bin062_BOFBFLDA_00419	CDS	atpD_1	3.6.3.14	ATP synthase subunit beta
BOFBFLDA_00453	28.515970000000003	28.41671	28.426019999999998	27.148609999999998	27.67526	27.92065	28.272	28.173460000000002				15	9	4,9493E-79	dRep_bin225_FLBKEJIP_01173;dRep_bin251_FGNGCJDD_01070;dRep_bin237_KJDLIPND_01290;dRep_bin206_OIIBOIAK_00625;dRep_bin172_ALNHGLMD_00009;dRep_bin031_BNHMFOII_01700;dRep_bin181_MKGPMPIA_00935;dRep_bin089_PAJFOJBN_02615;dRep_bin027_OFJCHLJJ_01041;dRep_bin308_JBPDGLPP_00001;dRep_bin220_PILICLLL_01148;dRep_bin062_BOFBFLDA_00453	dRep_bin225_FLBKEJIP_01173	>dRep_bin225_FLBKEJIP_01173 GMP synthase [glutamine-hydrolyzing]	dRep_bin062_BOFBFLDA_00453	CDS	guaA	6.3.5.2	GMP synthase [glutamine-hydrolyzing]
BOFBFLDA_00466	27.43245	27.243719999999996	27.226739999999996	27.982119999999995	28.25714	27.78082	27.637130000000003	28.24118				20	1	7,9186E-281	dRep_bin062_BOFBFLDA_00466	dRep_bin062_BOFBFLDA_00466	>dRep_bin062_BOFBFLDA_00466 Ketol-acid reductoisomerase (NADP(+))	dRep_bin062_BOFBFLDA_00466	CDS	ilvC	1.1.1.86	Ketol-acid reductoisomerase (NADP(+))
BOFBFLDA_00482			19.70065									1	1	0,00094842	dRep_bin019_MOJEPLJF_01253;dRep_bin322_OJELOJOF_00998;dRep_bin266_JFOCEDAE_01255;dRep_bin203_CLFNNOCF_01667;dRep_bin179_HFEIPPPA_01487;dRep_bin062_BOFBFLDA_00482;dRep_bin335_JIOGNAPG_01394;dRep_bin325_EIIGOGHN_00716;dRep_bin300_MJPPENNL_01210;dRep_bin287_DONBGKDH_01487;dRep_bin282_PKAAPBFP_00060;dRep_bin279_IAEFEPEN_01206;dRep_bin269_PNILGKPH_01047;dRep_bin261_FJICAFFM_00341;dRep_bin249_OFIIEIDJ_00793;dRep_bin220_PILICLLL_00785;dRep_bin201_OLKDIBOK_02285;dRep_bin168_HKDILBFE_00870;dRep_bin160_EFKMPBOM_02348;dRep_bin158_OGFICEAP_00078;dRep_bin154_JGOKHKLI_02345;dRep_bin145_KMJJJOEJ_00681;dRep_bin139_KGAJINND_00935;dRep_bin135_HHKACLPM_01083;dRep_bin134_HIAPAODO_01183;dRep_bin133_NOBPDBPA_03238;dRep_bin099_DNDAGJEJ_00384;dRep_bin095_HOBNOEEF_02248;dRep_bin091_MAFACGAD_00479;dRep_bin081_JDPCKDNP_01979;dRep_bin039_IJNOFOJK_00775;dRep_bin023_HGFJFKAI_00522;dRep_bin324_IPNHOHFK_00121;dRep_bin278_BFCONKOE_01329;dRep_bin234_ECABPBME_01690;dRep_bin027_OFJCHLJJ_00792;dRep_bin024_OLHDGABE_00305;dRep_bin005_CNDFPKJG_01369;dRep_bin088_DNGPPFDK_01526;dRep_bin077_DNNBMPMC_01927;dRep_bin310_IMBAFDIF_00406	dRep_bin019_MOJEPLJF_01253;dRep_bin322_OJELOJOF_00998;dRep_bin266_JFOCEDAE_01255;dRep_bin203_CLFNNOCF_01667;dRep_bin179_HFEIPPPA_01487;dRep_bin062_BOFBFLDA_00482;dRep_bin335_JIOGNAPG_01394;dRep_bin325_EIIGOGHN_00716;dRep_bin300_MJPPENNL_01210;dRep_bin287_DONBGKDH_01487;dRep_bin282_PKAAPBFP_00060;dRep_bin279_IAEFEPEN_01206;dRep_bin269_PNILGKPH_01047;dRep_bin261_FJICAFFM_00341;dRep_bin249_OFIIEIDJ_00793;dRep_bin220_PILICLLL_00785;dRep_bin201_OLKDIBOK_02285;dRep_bin168_HKDILBFE_00870;dRep_bin160_EFKMPBOM_02348;dRep_bin158_OGFICEAP_00078;dRep_bin154_JGOKHKLI_02345;dRep_bin145_KMJJJOEJ_00681;dRep_bin139_KGAJINND_00935;dRep_bin135_HHKACLPM_01083;dRep_bin134_HIAPAODO_01183;dRep_bin133_NOBPDBPA_03238;dRep_bin099_DNDAGJEJ_00384;dRep_bin095_HOBNOEEF_02248;dRep_bin091_MAFACGAD_00479;dRep_bin081_JDPCKDNP_01979;dRep_bin039_IJNOFOJK_00775;dRep_bin023_HGFJFKAI_00522;dRep_bin324_IPNHOHFK_00121;dRep_bin278_BFCONKOE_01329;dRep_bin234_ECABPBME_01690;dRep_bin027_OFJCHLJJ_00792;dRep_bin024_OLHDGABE_00305;dRep_bin005_CNDFPKJG_01369;dRep_bin088_DNGPPFDK_01526;dRep_bin077_DNNBMPMC_01927;dRep_bin310_IMBAFDIF_00406	>dRep_bin019_MOJEPLJF_01253 Purine catabolism regulatory protein;>dRep_bin322_OJELOJOF_00998 Purine catabolism regulatory protein;>dRep_bin266_JFOCEDAE_01255 Purine catabolism regulatory protein;>dRep_bin203_CLFNNOCF_01667 Carbohydrate diacid regulator;>dR	dRep_bin062_BOFBFLDA_00482	CDS	cdaR_1		Carbohydrate diacid regulator
BOFBFLDA_00487				21.86884								3	1	1,3797E-13	dRep_bin021_AJDDCGJC_00051;dRep_bin252_NDAKLAGD_00826;dRep_bin317_ABPHNCOD_01131;dRep_bin216_JNJMCPHB_01076;dRep_bin272_LGBDGEIM_00618;dRep_bin097_CBBLIPAN_01579;dRep_bin053_OMGNPOOB_00833;dRep_bin337_FHKPNFDB_00090;dRep_bin052_PGOOKKFH_01594;dRep_bin168_HKDILBFE_01015;dRep_bin322_OJELOJOF_01622;dRep_bin220_PILICLLL_01543;dRep_bin055_IBMMJAEE_00610;dRep_bin061_ONFGDLGO_01234;dRep_bin168_HKDILBFE_00368;dRep_bin055_IBMMJAEE_00168;dRep_bin261_FJICAFFM_00490;dRep_bin017_FGFLFOPJ_00414;dRep_bin115_IFKGOGCL_01280;dRep_bin257_JHFDCHCB_01406;dRep_bin323_FBBLPLCG_01600;dRep_bin007_LNLEAAAN_00766;dRep_bin049_MNFBDPNO_00781;dRep_bin333_EFOKIBLA_01149;dRep_bin279_IAEFEPEN_01471;dRep_bin234_ECABPBME_01515;dRep_bin179_HFEIPPPA_02108;dRep_bin023_HGFJFKAI_01527;dRep_bin335_JIOGNAPG_00787;dRep_bin250_NMCAMJIO_00423;dRep_bin158_OGFICEAP_00549;dRep_bin100_CODMOHGB_01341;dRep_bin089_PAJFOJBN_02515;dRep_bin088_DNGPPFDK_01371;dRep_bin081_JDPCKDNP_00684;dRep_bin324_IPNHOHFK_01454;dRep_bin300_MJPPENNL_01260;dRep_bin292_JIBLDOOH_01593;dRep_bin284_DEHKNOBF_00281;dRep_bin282_PKAAPBFP_00934;dRep_bin279_IAEFEPEN_01275;dRep_bin269_PNILGKPH_00152;dRep_bin240_LDBBGJKG_01257;dRep_bin226_NLNLHLLD_00367;dRep_bin209_NKIHFCEN_01541;dRep_bin203_CLFNNOCF_01928;dRep_bin179_HFEIPPPA_00359;dRep_bin167_BLMEBMNN_00233;dRep_bin160_EFKMPBOM_02132;dRep_bin154_JGOKHKLI_02775;dRep_bin133_NOBPDBPA_00727;dRep_bin114_FJHJKHGL_00838;dRep_bin095_HOBNOEEF_00822;dRep_bin075_EPEMMOCL_00939;dRep_bin074_EHAOMODJ_00291;dRep_bin065_DFABHCBI_01203;dRep_bin347_EKGCMFPD_00625;dRep_bin325_EIIGOGHN_00612;dRep_bin310_IMBAFDIF_01359;dRep_bin308_JBPDGLPP_00545;dRep_bin306_FGHMKMMP_01018;dRep_bin297_EDHEEICA_01903;dRep_bin201_OLKDIBOK_00335;dRep_bin186_HJAAFFNP_00409;dRep_bin173_BEBNCADL_00242;dRep_bin169_PNICKJKO_00103;dRep_bin145_KMJJJOEJ_01348;dRep_bin135_HHKACLPM_00566;dRep_bin101_BNDDLDCL_00036;dRep_bin069_EGGEOGDC_01480;dRep_bin062_BOFBFLDA_00487;dRep_bin047_IFFANOMN_01271;dRep_bin042_MMFCLHOO_00308;dRep_bin041_OPKGAAAG_00762;dRep_bin024_OLHDGABE_00679;dRep_bin016_JLGAHGOJ_01831;dRep_bin001_GHHJMDAL_00660;dRep_bin349_AMCJEEEG_00131;dRep_bin312_MJFEFHMP_00833;dRep_bin264_DNFFGNEG_00100;dRep_bin246_MMFBABHK_00297;dRep_bin219_HGPEELLF_00003;dRep_bin174_LJJOKEME_01103;dRep_bin129_GADIAMAA_01409;dRep_bin127_FIPNHBCH_00703;dRep_bin077_DNNBMPMC_01278;dRep_bin030_OGPDLGOC_01790;dRep_bin004_OCHNPJPO_01519;dRep_bin218_ACMPALGF_00968;dRep_bin185_OOOLKACK_00657;dRep_bin181_MKGPMPIA_00538;dRep_bin148_NAJFKJMD_01090;dRep_bin058_GJKCICJN_01056;dRep_bin291_EILOACJB_00579;dRep_bin244_LBFMHLBI_01277;dRep_bin223_PIMCDKJI_01006;dRep_bin204_INMOGLDN_01473;dRep_bin184_MBMMJHKO_00222;dRep_bin302_AHDEPDKG_00621;dRep_bin265_LFKFBJPC_00590;dRep_bin233_BAGKKAOB_00885;dRep_bin188_EJILNMPE_01053;dRep_bin081_JDPCKDNP_01324;dRep_bin318_IEDEJOFJ_00724;dRep_bin144_NPHACCKF_00221;dRep_bin096_GNHMEKPF_00086;dRep_bin344_CJJBDGAA_01489;dRep_bin295_EJGKDKNE_00851;dRep_bin048_PABMBHAL_01507;dRep_bin303_DDDNDJCF_00663;dRep_bin283_NLJJFFAC_01754;dRep_bin201_OLKDIBOK_00523;dRep_bin139_KGAJINND_01276;dRep_bin134_HIAPAODO_01158;dRep_bin094_LBLICAAO_00942;dRep_bin062_BOFBFLDA_00417;dRep_bin336_MPGOKPOL_02385;dRep_bin082_HBEFABJN_00650;dRep_bin125_FADLGGII_00540;dRep_bin334_NAPFFNLD_01195;dRep_bin217_MJCEAEPB_00530;dRep_bin195_DDMDFNOK_00971;dRep_bin060_HNFNENOI_00088;dRep_bin328_GIGKNKPJ_00426;dRep_bin281_OGHLKMAI_01076;dRep_bin197_NHLBHFEI_00626;dRep_bin103_IGJBLKMC_00726;dRep_bin116_CLFDBMOF_00455;dRep_bin332_KAOPCDPF_00448;dRep_bin345_GLPJDLOI_00589;dRep_bin314_KCHFPLIP_00788;dRep_bin128_JPBBHEMA_00693;dRep_bin073_AKBCEHHO_01462;dRep_bin045_GJACFFBC_00428;dRep_bin329_GDOHKPBL_01522;dRep_bin316_FNLHDNEO_00349;dRep_bin307_AOCKHIKF_00400;dRep_bin294_EHJINIDK_01408;dRep_bin289_KALDCNNP_01327;dRep_bin183_FPGIOKBG_00622;dRep_bin098_DDEBHDKK_01308;dRep_bin165_HMDFFMMM_01247;dRep_bin037_GEAOEKHA_01212;dRep_bin256_KEMNAOBC_00113;dRep_bin092_OOJCPDEA_01143;dRep_bin126_PPDNCIBN_00264;dRep_bin090_IPGNHCBJ_00911;dRep_bin215_ABBFGCAF_00280;dRep_bin005_CNDFPKJG_00629;dRep_bin270_GEJAHNCN_01426;dRep_bin116_CLFDBMOF_00686;dRep_bin069_EGGEOGDC_00857;dRep_bin007_LNLEAAAN_01604;dRep_bin057_BNCFHBBO_01159;dRep_bin038_EIGFILKG_00229;dRep_bin114_FJHJKHGL_00934;dRep_bin152_LJMCIADF_00045;dRep_bin322_OJELOJOF_00826;dRep_bin266_JFOCEDAE_00030;dRep_bin194_MEPDOGGJ_01235;dRep_bin079_GAOGCKND_01437;dRep_bin068_ENOLAELK_01387;dRep_bin025_CBEJJMLE_00917;dRep_bin240_LDBBGJKG_00802;dRep_bin347_EKGCMFPD_01498;dRep_bin167_BLMEBMNN_00596;dRep_bin160_EFKMPBOM_02114;dRep_bin260_HELEPKJL_02017;dRep_bin091_MAFACGAD_00797;dRep_bin099_DNDAGJEJ_01471;dRep_bin278_BFCONKOE_01179;dRep_bin168_HKDILBFE_00397;dRep_bin284_DEHKNOBF_00737;dRep_bin001_GHHJMDAL_01209;dRep_bin236_BNONDECB_00531;dRep_bin286_OEMIJKMC_01078;dRep_bin231_CFOLMJBA_00464;dRep_bin193_GDMDPNNM_00224;dRep_bin172_ALNHGLMD_01787;dRep_bin182_EMCFODCD_00065;dRep_bin044_IPFKHAEF_00183	dRep_bin021_AJDDCGJC_00051;dRep_bin252_NDAKLAGD_00826;dRep_bin317_ABPHNCOD_01131;dRep_bin216_JNJMCPHB_01076;dRep_bin272_LGBDGEIM_00618;dRep_bin097_CBBLIPAN_01579;dRep_bin053_OMGNPOOB_00833;dRep_bin337_FHKPNFDB_00090;dRep_bin052_PGOOKKFH_01594	>dRep_bin021_AJDDCGJC_00051 ATP synthase subunit alpha;>dRep_bin252_NDAKLAGD_00826 ATP synthase subunit alpha;>dRep_bin317_ABPHNCOD_01131 ATP synthase subunit alpha;>dRep_bin216_JNJMCPHB_01076 ATP synthase subunit alpha;>dRep_bin272_LGBDGEIM_00618 ATP synt	dRep_bin062_BOFBFLDA_00487	CDS	atpA_2	3.6.3.14	ATP synthase subunit alpha
BOFBFLDA_00505	25.21512	27.54694	24.83673	24.85472								6	6	5,2488E-18	dRep_bin016_JLGAHGOJ_00565;dRep_bin134_HIAPAODO_00350;dRep_bin062_BOFBFLDA_00505	dRep_bin016_JLGAHGOJ_00565	>dRep_bin016_JLGAHGOJ_00565 Bifunctional alpha-galactosidase/sucrose kinase AgaSK	dRep_bin062_BOFBFLDA_00505	CDS	agaSK		Bifunctional alpha-galactosidase/sucrose kinase AgaSK
BOFBFLDA_00570	28.374840000000003	28.72452	27.63256	28.314280000000004	28.551750000000002	27.480389999999996	28.63052	27.668039999999998				11	3	8,1629E-54	dRep_bin062_BOFBFLDA_00570	dRep_bin062_BOFBFLDA_00570	>dRep_bin062_BOFBFLDA_00570 Phosphate acetyltransferase	dRep_bin062_BOFBFLDA_00570	CDS	pta	2.3.1.8	Phosphate acetyltransferase
BOFBFLDA_00571	27.297980000000003	26.67828	26.72338	26.943469999999998	27.752639999999996	27.396150000000002	26.98989	26.46395				9	4	2,5541E-88	dRep_bin062_BOFBFLDA_00571	dRep_bin062_BOFBFLDA_00571	>dRep_bin062_BOFBFLDA_00571 Acetate kinase	dRep_bin062_BOFBFLDA_00571	CDS	ackA	2.7.2.1	Acetate kinase
BOFBFLDA_00579	27.07081	27.37526	26.909309999999998	27.00945	26.783189999999998	26.23774	26.37358	25.884				9	1	2,3903E-66	dRep_bin062_BOFBFLDA_00579	dRep_bin062_BOFBFLDA_00579	>dRep_bin062_BOFBFLDA_00579 Triosephosphate isomerase	dRep_bin062_BOFBFLDA_00579	CDS	tpiA	5.3.1.1	Triosephosphate isomerase
BOFBFLDA_00580	26.387439999999998		24.57808	25.93155	26.69644	25.601300000000002	26.33228	25.074840000000002				14	1	4,3872E-139	dRep_bin062_BOFBFLDA_00580	dRep_bin062_BOFBFLDA_00580	>dRep_bin062_BOFBFLDA_00580 Phosphoglycerate kinase	dRep_bin062_BOFBFLDA_00580	CDS	pgk	2.7.2.3	Phosphoglycerate kinase
BOFBFLDA_00581					26.044960000000003	26.35568	26.85852	25.636770000000002				7	2	1,6256E-21	dRep_bin134_HIAPAODO_01104;dRep_bin062_BOFBFLDA_00581;dRep_bin158_OGFICEAP_00581;dRep_bin135_HHKACLPM_00915;dRep_bin016_JLGAHGOJ_00109	dRep_bin134_HIAPAODO_01104;dRep_bin062_BOFBFLDA_00581	>dRep_bin134_HIAPAODO_01104 Glyceraldehyde-3-phosphate dehydrogenase;>dRep_bin062_BOFBFLDA_00581 Glyceraldehyde-3-phosphate dehydrogenase	dRep_bin062_BOFBFLDA_00581	CDS	gap	1.2.1.12	Glyceraldehyde-3-phosphate dehydrogenase
BOFBFLDA_00625								22.391840000000002				2	2	0,0012784	dRep_bin292_JIBLDOOH_01455;dRep_bin297_EDHEEICA_00460;dRep_bin260_HELEPKJL_01994;dRep_bin134_HIAPAODO_01228;dRep_bin115_IFKGOGCL_01262;dRep_bin062_BOFBFLDA_00625;dRep_bin269_PNILGKPH_00784;dRep_bin145_KMJJJOEJ_00869;dRep_bin310_IMBAFDIF_00687;dRep_bin226_NLNLHLLD_01228;dRep_bin209_NKIHFCEN_00359;dRep_bin158_OGFICEAP_01380;dRep_bin157_JPNIKEKI_00889;dRep_bin127_FIPNHBCH_01213;dRep_bin186_HJAAFFNP_00787;dRep_bin167_BLMEBMNN_01301;dRep_bin069_EGGEOGDC_00481;dRep_bin016_JLGAHGOJ_01259;dRep_bin065_DFABHCBI_00254;dRep_bin039_IJNOFOJK_01684;dRep_bin322_OJELOJOF_00527;dRep_bin261_FJICAFFM_00492;dRep_bin220_PILICLLL_01235;dRep_bin201_OLKDIBOK_02013;dRep_bin303_DDDNDJCF_00579	dRep_bin292_JIBLDOOH_01455;dRep_bin297_EDHEEICA_00460;dRep_bin260_HELEPKJL_01994;dRep_bin134_HIAPAODO_01228;dRep_bin115_IFKGOGCL_01262;dRep_bin062_BOFBFLDA_00625;dRep_bin269_PNILGKPH_00784;dRep_bin145_KMJJJOEJ_00869;dRep_bin310_IMBAFDIF_00687;dRep_bin226_NLNLHLLD_01228;dRep_bin209_NKIHFCEN_00359;dRep_bin158_OGFICEAP_01380;dRep_bin157_JPNIKEKI_00889;dRep_bin127_FIPNHBCH_01213;dRep_bin186_HJAAFFNP_00787;dRep_bin167_BLMEBMNN_01301;dRep_bin069_EGGEOGDC_00481;dRep_bin016_JLGAHGOJ_01259;dRep_bin065_DFABHCBI_00254;dRep_bin039_IJNOFOJK_01684;dRep_bin322_OJELOJOF_00527;dRep_bin261_FJICAFFM_00492;dRep_bin220_PILICLLL_01235;dRep_bin201_OLKDIBOK_02013;dRep_bin303_DDDNDJCF_00579	>dRep_bin292_JIBLDOOH_01455 Ribonuclease J1;>dRep_bin297_EDHEEICA_00460 Ribonuclease J1;>dRep_bin260_HELEPKJL_01994 Ribonuclease J1;>dRep_bin134_HIAPAODO_01228 Ribonuclease J1;>dRep_bin115_IFKGOGCL_01262 Ribonuclease J1;>dRep_bin062_BOFBFLDA_00625 Ribonucl	dRep_bin062_BOFBFLDA_00625	CDS	rnjA	3.1.-.-	Ribonuclease J1
BOFBFLDA_00632	24.27284											1	1	7,3035E-10	dRep_bin062_BOFBFLDA_00632	dRep_bin062_BOFBFLDA_00632	>dRep_bin062_BOFBFLDA_00632 Meso-diaminopimelate D-dehydrogenase	dRep_bin062_BOFBFLDA_00632	CDS	ddh	1.4.1.16	Meso-diaminopimelate D-dehydrogenase
BOFBFLDA_00679								20.25257				3	3	2,6882E-06	dRep_bin062_BOFBFLDA_00679	dRep_bin062_BOFBFLDA_00679	>dRep_bin062_BOFBFLDA_00679 putative branched-chain-amino-acid aminotransferase	dRep_bin062_BOFBFLDA_00679	CDS	ilvE_1	2.6.1.42	putative branched-chain-amino-acid aminotransferase
BOFBFLDA_00701			25.725309999999997	25.502850000000002	25.61944	26.247950000000003						2	2	9,4436E-07	dRep_bin323_FBBLPLCG_00203;dRep_bin120_EKLBOPNC_00504;dRep_bin185_OOOLKACK_00026;dRep_bin032_PPNIGLME_00834;dRep_bin300_MJPPENNL_01511;dRep_bin123_PJKBFKBB_00398;dRep_bin019_MOJEPLJF_00423;dRep_bin062_BOFBFLDA_00701	dRep_bin323_FBBLPLCG_00203;dRep_bin120_EKLBOPNC_00504;dRep_bin185_OOOLKACK_00026;dRep_bin032_PPNIGLME_00834;dRep_bin300_MJPPENNL_01511;dRep_bin123_PJKBFKBB_00398;dRep_bin019_MOJEPLJF_00423;dRep_bin062_BOFBFLDA_00701	>dRep_bin323_FBBLPLCG_00203 L-methionine gamma-lyase;>dRep_bin120_EKLBOPNC_00504 L-methionine gamma-lyase;>dRep_bin185_OOOLKACK_00026 L-methionine gamma-lyase;>dRep_bin032_PPNIGLME_00834 L-methionine gamma-lyase;>dRep_bin300_MJPPENNL_01511 L-methionine gam	dRep_bin062_BOFBFLDA_00701	CDS	mgl	4.4.1.11	L-methionine gamma-lyase
BOFBFLDA_00726				27.51262	26.903689999999997	26.242709999999995	26.850550000000002	26.542769999999997				3	2	5,492E-20	dRep_bin158_OGFICEAP_00610;dRep_bin062_BOFBFLDA_00726;dRep_bin016_JLGAHGOJ_00430;dRep_bin282_PKAAPBFP_00486;dRep_bin260_HELEPKJL_01349;dRep_bin167_BLMEBMNN_01078;dRep_bin160_EFKMPBOM_01985;dRep_bin127_FIPNHBCH_00031;dRep_bin081_JDPCKDNP_01235;dRep_bin047_IFFANOMN_00244;dRep_bin023_HGFJFKAI_00760;dRep_bin001_GHHJMDAL_01428;dRep_bin001_GHHJMDAL_01069;dRep_bin328_GIGKNKPJ_01342;dRep_bin266_JFOCEDAE_01010;dRep_bin211_LGJEFJIK_01524;dRep_bin065_DFABHCBI_01274;dRep_bin001_GHHJMDAL_00751	dRep_bin158_OGFICEAP_00610;dRep_bin062_BOFBFLDA_00726;dRep_bin016_JLGAHGOJ_00430	>dRep_bin158_OGFICEAP_00610 50S ribosomal protein L22;>dRep_bin062_BOFBFLDA_00726 50S ribosomal protein L22;>dRep_bin016_JLGAHGOJ_00430 50S ribosomal protein L22	dRep_bin062_BOFBFLDA_00726	CDS	rplV		50S ribosomal protein L22
BOFBFLDA_00727							27.04145					8	0	3,6665E-54	dRep_bin135_HHKACLPM_00482;dRep_bin308_JBPDGLPP_01108;dRep_bin186_HJAAFFNP_00336;dRep_bin127_FIPNHBCH_00030;dRep_bin328_GIGKNKPJ_01343;dRep_bin065_DFABHCBI_01275;dRep_bin001_GHHJMDAL_00750;dRep_bin062_BOFBFLDA_00727;dRep_bin158_OGFICEAP_00611;dRep_bin211_LGJEFJIK_00743;dRep_bin260_HELEPKJL_01348;dRep_bin234_ECABPBME_00125;dRep_bin115_IFKGOGCL_00642;dRep_bin088_DNGPPFDK_00693;dRep_bin001_GHHJMDAL_01427;dRep_bin253_CPMOAOBJ_00213;dRep_bin150_HCDEOBMH_00592;dRep_bin057_BNCFHBBO_00183;dRep_bin299_AKNBKJGM_01127;dRep_bin216_JNJMCPHB_00024;dRep_bin085_MBHLGCDB_00710;dRep_bin286_OEMIJKMC_00079;dRep_bin231_CFOLMJBA_01079;dRep_bin172_ALNHGLMD_00777;dRep_bin182_EMCFODCD_00190;dRep_bin058_GJKCICJN_00161;dRep_bin044_IPFKHAEF_01460;dRep_bin283_NLJJFFAC_00217	dRep_bin135_HHKACLPM_00482;dRep_bin308_JBPDGLPP_01108;dRep_bin186_HJAAFFNP_00336;dRep_bin127_FIPNHBCH_00030;dRep_bin328_GIGKNKPJ_01343;dRep_bin065_DFABHCBI_01275;dRep_bin001_GHHJMDAL_00750;dRep_bin062_BOFBFLDA_00727;dRep_bin158_OGFICEAP_00611;dRep_bin211_LGJEFJIK_00743	>dRep_bin135_HHKACLPM_00482 30S ribosomal protein S19;>dRep_bin308_JBPDGLPP_01108 30S ribosomal protein S19;>dRep_bin186_HJAAFFNP_00336 30S ribosomal protein S19;>dRep_bin127_FIPNHBCH_00030 30S ribosomal protein S19;>dRep_bin328_GIGKNKPJ_01343 30S ribosoma	dRep_bin062_BOFBFLDA_00727	CDS	rpsS		30S ribosomal protein S19
BOFBFLDA_00729				25.40448								2	1	3,6904E-08	dRep_bin062_BOFBFLDA_00729;dRep_bin310_IMBAFDIF_00082	dRep_bin062_BOFBFLDA_00729;dRep_bin310_IMBAFDIF_00082	>dRep_bin062_BOFBFLDA_00729 50S ribosomal protein L23;>dRep_bin310_IMBAFDIF_00082 50S ribosomal protein L23	dRep_bin062_BOFBFLDA_00729	CDS	rplW		50S ribosomal protein L23
BOFBFLDA_00730			25.539080000000002	25.41883								2	2	1,9874E-10	dRep_bin062_BOFBFLDA_00730;dRep_bin332_KAOPCDPF_01346;dRep_bin303_DDDNDJCF_00710;dRep_bin260_HELEPKJL_01345;dRep_bin186_HJAAFFNP_00333;dRep_bin158_OGFICEAP_00614;dRep_bin139_KGAJINND_01533;dRep_bin047_IFFANOMN_00248;dRep_bin001_GHHJMDAL_00747;dRep_bin328_GIGKNKPJ_01346;dRep_bin127_FIPNHBCH_00027	dRep_bin062_BOFBFLDA_00730;dRep_bin332_KAOPCDPF_01346;dRep_bin303_DDDNDJCF_00710;dRep_bin260_HELEPKJL_01345;dRep_bin186_HJAAFFNP_00333;dRep_bin158_OGFICEAP_00614;dRep_bin139_KGAJINND_01533;dRep_bin047_IFFANOMN_00248;dRep_bin001_GHHJMDAL_00747;dRep_bin328_GIGKNKPJ_01346;dRep_bin127_FIPNHBCH_00027	>dRep_bin062_BOFBFLDA_00730 50S ribosomal protein L4;>dRep_bin332_KAOPCDPF_01346 50S ribosomal protein L4;>dRep_bin303_DDDNDJCF_00710 50S ribosomal protein L4;>dRep_bin260_HELEPKJL_01345 50S ribosomal protein L4;>dRep_bin186_HJAAFFNP_00333 50S ribosomal pr	dRep_bin062_BOFBFLDA_00730	CDS	rplD		50S ribosomal protein L4
BOFBFLDA_00731				27.911990000000003								4	1	5,0598E-24	dRep_bin261_FJICAFFM_00380;dRep_bin062_BOFBFLDA_00731;dRep_bin220_PILICLLL_00213;dRep_bin332_KAOPCDPF_01345;dRep_bin287_DONBGKDH_01240;dRep_bin266_JFOCEDAE_01015	dRep_bin261_FJICAFFM_00380	>dRep_bin261_FJICAFFM_00380 50S ribosomal protein L3	dRep_bin062_BOFBFLDA_00731	CDS	rplC		50S ribosomal protein L3
BOFBFLDA_00773					26.246719999999996	25.634480000000003	26.95338	26.064950000000003				6	5	2,7215E-14	dRep_bin062_BOFBFLDA_00773	dRep_bin062_BOFBFLDA_00773	>dRep_bin062_BOFBFLDA_00773 Oligopeptide-binding protein AppA	dRep_bin062_BOFBFLDA_00773	CDS	appA_2		Oligopeptide-binding protein AppA
BOFBFLDA_00805	29.748329999999996	29.82018	29.93129	30.325599999999998	30.308239999999998	30.6062	29.740399999999998	30.226309999999998				8	5	3,417E-221	dRep_bin285_IPHKFJAN_01865;dRep_bin134_HIAPAODO_00851;dRep_bin062_BOFBFLDA_00805;dRep_bin150_HCDEOBMH_00361;dRep_bin028_GKEJLBAM_01294;dRep_bin145_KMJJJOEJ_00968;dRep_bin344_CJJBDGAA_01136	dRep_bin285_IPHKFJAN_01865	>dRep_bin285_IPHKFJAN_01865 L-ribulose-5-phosphate 4-epimerase UlaF	dRep_bin062_BOFBFLDA_00805	CDS	ulaF	5.1.3.4	L-ribulose-5-phosphate 4-epimerase UlaF
BOFBFLDA_00806					25.136490000000002	24.51509		24.00333				4	3	2,0977E-18	dRep_bin021_AJDDCGJC_00277;dRep_bin310_IMBAFDIF_00614;dRep_bin062_BOFBFLDA_00806	dRep_bin021_AJDDCGJC_00277	>dRep_bin021_AJDDCGJC_00277 hypothetical protein	dRep_bin062_BOFBFLDA_00806	CDS	araB	2.7.1.16	Ribulokinase
BOFBFLDA_00821	28.25741	28.442609999999995	28.23599	28.57449	28.280119999999997	26.83038	27.99696	28.1977				35	9	0	dRep_bin201_OLKDIBOK_01785;dRep_bin062_BOFBFLDA_00821;dRep_bin134_HIAPAODO_02173	dRep_bin201_OLKDIBOK_01785	>dRep_bin201_OLKDIBOK_01785 Pyruvate, phosphate dikinase	dRep_bin062_BOFBFLDA_00821	CDS	ppdK	2.7.9.1	Pyruvate, phosphate dikinase
BOFBFLDA_00829		26.237920000000003		27.30226	27.379890000000003		26.413050000000002	26.67074				7	1	3,1565E-26	dRep_bin344_CJJBDGAA_00829;dRep_bin306_FGHMKMMP_00969;dRep_bin181_MKGPMPIA_01169;dRep_bin096_GNHMEKPF_00515;dRep_bin158_OGFICEAP_01179;dRep_bin082_HBEFABJN_00295;dRep_bin066_AJACLPEE_01023;dRep_bin332_KAOPCDPF_01131;dRep_bin062_BOFBFLDA_00829;dRep_bin017_FGFLFOPJ_00885;dRep_bin330_CODAKHDJ_00034;dRep_bin057_BNCFHBBO_01322;dRep_bin005_CNDFPKJG_01715	dRep_bin344_CJJBDGAA_00829	>dRep_bin344_CJJBDGAA_00829 Phosphoribosylaminoimidazole-succinocarboxamide synthase	dRep_bin062_BOFBFLDA_00829	CDS	purC	6.3.2.6	Phosphoribosylaminoimidazole-succinocarboxamide synthase
BOFBFLDA_00838					22.041860000000003		22.286579999999997					2	2	0,0012974	dRep_bin062_BOFBFLDA_00838	dRep_bin062_BOFBFLDA_00838	>dRep_bin062_BOFBFLDA_00838 Exo-alpha-(1->6)-L-arabinopyranosidase	dRep_bin062_BOFBFLDA_00838	CDS		3.2.1.-	Exo-alpha-(1->6)-L-arabinopyranosidase
BOFBFLDA_00860								19.911070000000002				1	1	0,00038059	dRep_bin062_BOFBFLDA_00860	dRep_bin062_BOFBFLDA_00860	>dRep_bin062_BOFBFLDA_00860 hypothetical protein	dRep_bin062_BOFBFLDA_00860	CDS			hypothetical protein
BOFBFLDA_00870								21.504800000000003				5	1	3,9803E-89	dRep_bin260_HELEPKJL_01435;dRep_bin135_HHKACLPM_00878;dRep_bin279_IAEFEPEN_00125;dRep_bin139_KGAJINND_00653;dRep_bin047_IFFANOMN_00833;dRep_bin220_PILICLLL_01353;dRep_bin062_BOFBFLDA_00870;dRep_bin027_OFJCHLJJ_01114;dRep_bin145_KMJJJOEJ_00674;dRep_bin300_MJPPENNL_01153;dRep_bin282_PKAAPBFP_00002;dRep_bin091_MAFACGAD_00478;dRep_bin116_CLFDBMOF_00810;dRep_bin347_EKGCMFPD_00673;dRep_bin322_OJELOJOF_01660;dRep_bin335_JIOGNAPG_01578;dRep_bin201_OLKDIBOK_02525;dRep_bin160_EFKMPBOM_02349;dRep_bin077_DNNBMPMC_01926;dRep_bin246_MMFBABHK_00869;dRep_bin219_HGPEELLF_00755;dRep_bin174_LJJOKEME_01393;dRep_bin312_MJFEFHMP_00102;dRep_bin129_GADIAMAA_01507;dRep_bin030_OGPDLGOC_00490;dRep_bin004_OCHNPJPO_00897;dRep_bin061_ONFGDLGO_00219;dRep_bin264_DNFFGNEG_00399;dRep_bin153_JGABJFBF_00375;dRep_bin244_LBFMHLBI_00924;dRep_bin204_INMOGLDN_00439;dRep_bin050_FBECOHCI_00117;dRep_bin202_HEPPALPH_01023;dRep_bin223_PIMCDKJI_00571;dRep_bin233_BAGKKAOB_00161;dRep_bin336_MPGOKPOL_01196;dRep_bin333_EFOKIBLA_00139;dRep_bin303_DDDNDJCF_00008;dRep_bin095_HOBNOEEF_01151;dRep_bin249_OFIIEIDJ_00631;dRep_bin007_LNLEAAAN_00381;dRep_bin328_GIGKNKPJ_00383;dRep_bin081_JDPCKDNP_00006;dRep_bin078_GKFCBAEI_00579;dRep_bin325_EIIGOGHN_00717;dRep_bin319_PBDBJGCJ_01544;dRep_bin306_FGHMKMMP_01785;dRep_bin181_MKGPMPIA_01340;dRep_bin127_FIPNHBCH_01090;dRep_bin066_AJACLPEE_01002;dRep_bin024_OLHDGABE_01294;dRep_bin220_PILICLLL_00488;dRep_bin078_GKFCBAEI_00372;dRep_bin006_HPJGJCAG_01324;dRep_bin142_NDNPJBEM_00465;dRep_bin350_EKOOEEGH_00689;dRep_bin228_CECEDMJG_00916;dRep_bin218_ACMPALGF_00396;dRep_bin164_KHMELCCL_00939;dRep_bin173_BEBNCADL_00342;dRep_bin058_GJKCICJN_00554;dRep_bin268_LKMHIMLG_00442;dRep_bin237_KJDLIPND_00262;dRep_bin251_FGNGCJDD_00443;dRep_bin192_GCMBELNN_00009	dRep_bin260_HELEPKJL_01435;dRep_bin135_HHKACLPM_00878;dRep_bin279_IAEFEPEN_00125;dRep_bin139_KGAJINND_00653;dRep_bin047_IFFANOMN_00833	>dRep_bin260_HELEPKJL_01435 Trehalose import ATP-binding protein SugC;>dRep_bin135_HHKACLPM_00878 Trehalose import ATP-binding protein SugC;>dRep_bin279_IAEFEPEN_00125 Trehalose import ATP-binding protein SugC;>dRep_bin139_KGAJINND_00653 Trehalose import A	dRep_bin062_BOFBFLDA_00870	CDS	sugC	3.6.3.-	Trehalose import ATP-binding protein SugC
BOFBFLDA_00887				24.058870000000002								2	1	4,2741E-05	dRep_bin209_NKIHFCEN_00801;dRep_bin328_GIGKNKPJ_00118;dRep_bin322_OJELOJOF_01073;dRep_bin300_MJPPENNL_00661;dRep_bin287_DONBGKDH_01832;dRep_bin279_IAEFEPEN_00045;dRep_bin240_LDBBGJKG_00206;dRep_bin157_JPNIKEKI_01150;dRep_bin134_HIAPAODO_00457;dRep_bin127_FIPNHBCH_01686;dRep_bin065_DFABHCBI_00858;dRep_bin062_BOFBFLDA_00887;dRep_bin047_IFFANOMN_01658;dRep_bin041_OPKGAAAG_01265	dRep_bin209_NKIHFCEN_00801;dRep_bin328_GIGKNKPJ_00118;dRep_bin322_OJELOJOF_01073;dRep_bin300_MJPPENNL_00661;dRep_bin287_DONBGKDH_01832;dRep_bin279_IAEFEPEN_00045;dRep_bin240_LDBBGJKG_00206;dRep_bin157_JPNIKEKI_01150;dRep_bin134_HIAPAODO_00457;dRep_bin127_FIPNHBCH_01686;dRep_bin065_DFABHCBI_00858;dRep_bin062_BOFBFLDA_00887;dRep_bin047_IFFANOMN_01658;dRep_bin041_OPKGAAAG_01265	>dRep_bin209_NKIHFCEN_00801 30S ribosomal protein S15;>dRep_bin328_GIGKNKPJ_00118 30S ribosomal protein S15;>dRep_bin322_OJELOJOF_01073 30S ribosomal protein S15;>dRep_bin300_MJPPENNL_00661 30S ribosomal protein S15;>dRep_bin287_DONBGKDH_01832 30S ribosoma	dRep_bin062_BOFBFLDA_00887	CDS	rpsO		30S ribosomal protein S15
BOFBFLDA_00888						23.29292	24.82619					5	1	2,5843E-32	dRep_bin134_HIAPAODO_00456;dRep_bin091_MAFACGAD_01531;dRep_bin201_OLKDIBOK_01197;dRep_bin062_BOFBFLDA_00888;dRep_bin186_HJAAFFNP_02080;dRep_bin303_DDDNDJCF_01158;dRep_bin065_DFABHCBI_00856	dRep_bin134_HIAPAODO_00456;dRep_bin091_MAFACGAD_01531;dRep_bin201_OLKDIBOK_01197;dRep_bin062_BOFBFLDA_00888;dRep_bin186_HJAAFFNP_02080;dRep_bin303_DDDNDJCF_01158;dRep_bin065_DFABHCBI_00856	>dRep_bin134_HIAPAODO_00456 Polyribonucleotide nucleotidyltransferase;>dRep_bin091_MAFACGAD_01531 Polyribonucleotide nucleotidyltransferase;>dRep_bin201_OLKDIBOK_01197 Polyribonucleotide nucleotidyltransferase;>dRep_bin062_BOFBFLDA_00888 Polyribonucleotide	dRep_bin062_BOFBFLDA_00888	CDS	pnp	2.7.7.8	Polyribonucleotide nucleotidyltransferase
BOFBFLDA_00901			21.70235									2	1	1,3269E-05	dRep_bin226_NLNLHLLD_00943;dRep_bin297_EDHEEICA_00652;dRep_bin292_JIBLDOOH_00434;dRep_bin209_NKIHFCEN_00184;dRep_bin203_CLFNNOCF_00778;dRep_bin133_NOBPDBPA_00588;dRep_bin041_OPKGAAAG_01382;dRep_bin303_DDDNDJCF_01779;dRep_bin324_IPNHOHFK_00420;dRep_bin261_FJICAFFM_00572;dRep_bin134_HIAPAODO_00275;dRep_bin104_EGLEJOLM_01650;dRep_bin062_BOFBFLDA_00901;dRep_bin047_IFFANOMN_00330;dRep_bin024_OLHDGABE_01501;dRep_bin017_FGFLFOPJ_01145;dRep_bin300_MJPPENNL_01317;dRep_bin279_IAEFEPEN_01067;dRep_bin269_PNILGKPH_00957;dRep_bin039_IJNOFOJK_01473;dRep_bin266_JFOCEDAE_01133;dRep_bin077_DNNBMPMC_01163;dRep_bin254_GJDPFAEA_01965;dRep_bin167_BLMEBMNN_01484;dRep_bin127_FIPNHBCH_01375;dRep_bin308_JBPDGLPP_00717;dRep_bin005_CNDFPKJG_01429;dRep_bin081_JDPCKDNP_01004	dRep_bin226_NLNLHLLD_00943;dRep_bin297_EDHEEICA_00652;dRep_bin292_JIBLDOOH_00434;dRep_bin209_NKIHFCEN_00184;dRep_bin203_CLFNNOCF_00778;dRep_bin133_NOBPDBPA_00588;dRep_bin041_OPKGAAAG_01382;dRep_bin303_DDDNDJCF_01779;dRep_bin324_IPNHOHFK_00420;dRep_bin261_FJICAFFM_00572;dRep_bin134_HIAPAODO_00275;dRep_bin104_EGLEJOLM_01650;dRep_bin062_BOFBFLDA_00901;dRep_bin047_IFFANOMN_00330;dRep_bin024_OLHDGABE_01501;dRep_bin017_FGFLFOPJ_01145;dRep_bin300_MJPPENNL_01317;dRep_bin279_IAEFEPEN_01067;dRep_bin269_PNILGKPH_00957;dRep_bin039_IJNOFOJK_01473;dRep_bin266_JFOCEDAE_01133;dRep_bin077_DNNBMPMC_01163;dRep_bin254_GJDPFAEA_01965;dRep_bin167_BLMEBMNN_01484;dRep_bin127_FIPNHBCH_01375;dRep_bin308_JBPDGLPP_00717;dRep_bin005_CNDFPKJG_01429;dRep_bin081_JDPCKDNP_01004	>dRep_bin226_NLNLHLLD_00943 L-threonine ammonia-lyase;>dRep_bin297_EDHEEICA_00652 L-threonine ammonia-lyase;>dRep_bin292_JIBLDOOH_00434 L-threonine ammonia-lyase;>dRep_bin209_NKIHFCEN_00184 L-threonine ammonia-lyase;>dRep_bin203_CLFNNOCF_00778 L-threonine	dRep_bin062_BOFBFLDA_00901	CDS	tdcB	4.3.1.19	L-threonine ammonia-lyase
BOFBFLDA_00952		25.58075										6	0	1,3543E-87	dRep_bin108_BPNCDINP_01326;dRep_bin089_PAJFOJBN_00301;dRep_bin300_MJPPENNL_00939;dRep_bin145_KMJJJOEJ_00792;dRep_bin091_MAFACGAD_01189;dRep_bin049_MNFBDPNO_00324;dRep_bin016_JLGAHGOJ_00954;dRep_bin157_JPNIKEKI_00961;dRep_bin297_EDHEEICA_00222;dRep_bin160_EFKMPBOM_02659;dRep_bin079_GAOGCKND_00457;dRep_bin068_ENOLAELK_00441;dRep_bin101_BNDDLDCL_01290;dRep_bin330_CODAKHDJ_00875;dRep_bin133_NOBPDBPA_00602;dRep_bin299_AKNBKJGM_01294;dRep_bin250_NMCAMJIO_01057;dRep_bin123_PJKBFKBB_00547;dRep_bin272_LGBDGEIM_01628;dRep_bin179_HFEIPPPA_01660;dRep_bin216_JNJMCPHB_01272;dRep_bin201_OLKDIBOK_01356;dRep_bin062_BOFBFLDA_00952;dRep_bin107_EFNBPDOP_00212;dRep_bin077_DNNBMPMC_01832;dRep_bin306_FGHMKMMP_01672;dRep_bin095_HOBNOEEF_00755;dRep_bin159_ADJJGPBG_00425;dRep_bin222_GGCAJABB_01443;dRep_bin310_IMBAFDIF_00623;dRep_bin181_MKGPMPIA_00586;dRep_bin074_EHAOMODJ_00159;dRep_bin073_AKBCEHHO_00467;dRep_bin285_IPHKFJAN_00913;dRep_bin228_CECEDMJG_00322;dRep_bin066_AJACLPEE_00029;dRep_bin276_EHNFLEBP_00509;dRep_bin021_AJDDCGJC_01318;dRep_bin104_EGLEJOLM_00960;dRep_bin327_EPEGNBAG_00068;dRep_bin241_LMMMGDNI_00158	dRep_bin108_BPNCDINP_01326;dRep_bin089_PAJFOJBN_00301;dRep_bin300_MJPPENNL_00939;dRep_bin145_KMJJJOEJ_00792;dRep_bin091_MAFACGAD_01189;dRep_bin049_MNFBDPNO_00324;dRep_bin016_JLGAHGOJ_00954;dRep_bin157_JPNIKEKI_00961;dRep_bin297_EDHEEICA_00222;dRep_bin160_EFKMPBOM_02659;dRep_bin079_GAOGCKND_00457;dRep_bin068_ENOLAELK_00441;dRep_bin101_BNDDLDCL_01290;dRep_bin330_CODAKHDJ_00875;dRep_bin133_NOBPDBPA_00602;dRep_bin299_AKNBKJGM_01294;dRep_bin250_NMCAMJIO_01057;dRep_bin123_PJKBFKBB_00547;dRep_bin272_LGBDGEIM_01628;dRep_bin179_HFEIPPPA_01660;dRep_bin216_JNJMCPHB_01272;dRep_bin201_OLKDIBOK_01356;dRep_bin062_BOFBFLDA_00952;dRep_bin107_EFNBPDOP_00212;dRep_bin077_DNNBMPMC_01832;dRep_bin306_FGHMKMMP_01672;dRep_bin095_HOBNOEEF_00755;dRep_bin159_ADJJGPBG_00425;dRep_bin222_GGCAJABB_01443;dRep_bin310_IMBAFDIF_00623;dRep_bin181_MKGPMPIA_00586;dRep_bin074_EHAOMODJ_00159	>dRep_bin108_BPNCDINP_01326 Pyridoxal 5-phosphate synthase subunit PdxS;>dRep_bin089_PAJFOJBN_00301 Pyridoxal 5-phosphate synthase subunit PdxS;>dRep_bin300_MJPPENNL_00939 Pyridoxal 5-phosphate synthase subunit PdxS;>dRep_bin145_KMJJJOEJ_00792 Pyridoxal	dRep_bin062_BOFBFLDA_00952	CDS	pdxS	4.3.3.6	Pyridoxal 5'-phosphate synthase subunit PdxS
BOFBFLDA_00998								23.62778				4	1	3,6641E-10	dRep_bin139_KGAJINND_00546;dRep_bin344_CJJBDGAA_00504;dRep_bin269_PNILGKPH_01782;dRep_bin186_HJAAFFNP_01230;dRep_bin160_EFKMPBOM_02028;dRep_bin154_JGOKHKLI_01570;dRep_bin027_OFJCHLJJ_01704;dRep_bin019_MOJEPLJF_00393;dRep_bin095_HOBNOEEF_01900;dRep_bin007_LNLEAAAN_01664;dRep_bin134_HIAPAODO_02032;dRep_bin220_PILICLLL_00626;dRep_bin201_OLKDIBOK_01146;dRep_bin158_OGFICEAP_00831;dRep_bin261_FJICAFFM_00403;dRep_bin347_EKGCMFPD_01461;dRep_bin328_GIGKNKPJ_00617;dRep_bin308_JBPDGLPP_01735;dRep_bin284_DEHKNOBF_00839;dRep_bin254_GJDPFAEA_01844;dRep_bin127_FIPNHBCH_00020;dRep_bin081_JDPCKDNP_00351;dRep_bin065_DFABHCBI_01741;dRep_bin001_GHHJMDAL_00049;dRep_bin335_JIOGNAPG_00092;dRep_bin282_PKAAPBFP_00201;dRep_bin260_HELEPKJL_01120;dRep_bin039_IJNOFOJK_00928;dRep_bin088_DNGPPFDK_00468;dRep_bin248_CCDFPECI_00111;dRep_bin107_EFNBPDOP_01463;dRep_bin077_DNNBMPMC_00533;dRep_bin300_MJPPENNL_00852;dRep_bin279_IAEFEPEN_01391;dRep_bin145_KMJJJOEJ_01298;dRep_bin062_BOFBFLDA_00998;dRep_bin016_JLGAHGOJ_00540;dRep_bin310_IMBAFDIF_00139;dRep_bin115_IFKGOGCL_00786;dRep_bin158_OGFICEAP_00832;dRep_bin066_AJACLPEE_00773;dRep_bin249_OFIIEIDJ_01720;dRep_bin324_IPNHOHFK_00378;dRep_bin287_DONBGKDH_00056;dRep_bin186_HJAAFFNP_01363;dRep_bin181_MKGPMPIA_00052;dRep_bin319_PBDBJGCJ_00396;dRep_bin278_BFCONKOE_00395;dRep_bin024_OLHDGABE_00254;dRep_bin135_HHKACLPM_01039	dRep_bin139_KGAJINND_00546;dRep_bin344_CJJBDGAA_00504;dRep_bin269_PNILGKPH_01782;dRep_bin186_HJAAFFNP_01230;dRep_bin160_EFKMPBOM_02028;dRep_bin154_JGOKHKLI_01570;dRep_bin027_OFJCHLJJ_01704;dRep_bin019_MOJEPLJF_00393;dRep_bin095_HOBNOEEF_01900;dRep_bin007_LNLEAAAN_01664;dRep_bin134_HIAPAODO_02032;dRep_bin220_PILICLLL_00626;dRep_bin201_OLKDIBOK_01146;dRep_bin158_OGFICEAP_00831;dRep_bin261_FJICAFFM_00403;dRep_bin347_EKGCMFPD_01461;dRep_bin328_GIGKNKPJ_00617;dRep_bin308_JBPDGLPP_01735;dRep_bin284_DEHKNOBF_00839;dRep_bin254_GJDPFAEA_01844;dRep_bin127_FIPNHBCH_00020;dRep_bin081_JDPCKDNP_00351;dRep_bin065_DFABHCBI_01741;dRep_bin001_GHHJMDAL_00049;dRep_bin335_JIOGNAPG_00092;dRep_bin282_PKAAPBFP_00201;dRep_bin260_HELEPKJL_01120;dRep_bin039_IJNOFOJK_00928;dRep_bin088_DNGPPFDK_00468;dRep_bin248_CCDFPECI_00111;dRep_bin107_EFNBPDOP_01463;dRep_bin077_DNNBMPMC_00533;dRep_bin300_MJPPENNL_00852;dRep_bin279_IAEFEPEN_01391;dRep_bin145_KMJJJOEJ_01298;dRep_bin062_BOFBFLDA_00998;dRep_bin016_JLGAHGOJ_00540;dRep_bin310_IMBAFDIF_00139	>dRep_bin139_KGAJINND_00546 ATP-dependent 6-phosphofructokinase;>dRep_bin344_CJJBDGAA_00504 ATP-dependent 6-phosphofructokinase;>dRep_bin269_PNILGKPH_01782 ATP-dependent 6-phosphofructokinase;>dRep_bin186_HJAAFFNP_01230 ATP-dependent 6-phosphofructokinase;	dRep_bin062_BOFBFLDA_00998	CDS	pfkA	2.7.1.11	ATP-dependent 6-phosphofructokinase
BOFBFLDA_01018					22.99315							5	0	1,1324E-33	dRep_bin062_BOFBFLDA_01018	dRep_bin062_BOFBFLDA_01018	>dRep_bin062_BOFBFLDA_01018 Acetylornithine aminotransferase	dRep_bin062_BOFBFLDA_01018	CDS	argD_2	2.6.1.11	Acetylornithine aminotransferase
BOFBFLDA_01027				24.334770000000002	23.127280000000003	21.619210000000002	23.324850000000005	23.14992				9	3	4,9194E-118	dRep_bin062_BOFBFLDA_01027	dRep_bin062_BOFBFLDA_01027	>dRep_bin062_BOFBFLDA_01027 Glucose-6-phosphate isomerase	dRep_bin062_BOFBFLDA_01027	CDS	pgi	5.3.1.9	Glucose-6-phosphate isomerase
BOFBFLDA_01051		25.334900000000005										3	1	5,9857E-23	dRep_bin287_DONBGKDH_01270;dRep_bin135_HHKACLPM_01661;dRep_bin062_BOFBFLDA_01051;dRep_bin092_OOJCPDEA_01517;dRep_bin018_ILOONPIC_00218;dRep_bin164_KHMELCCL_00990;dRep_bin322_OJELOJOF_00712;dRep_bin292_JIBLDOOH_00786;dRep_bin248_CCDFPECI_00998;dRep_bin303_DDDNDJCF_01599;dRep_bin209_NKIHFCEN_00645	dRep_bin287_DONBGKDH_01270;dRep_bin135_HHKACLPM_01661;dRep_bin062_BOFBFLDA_01051	>dRep_bin287_DONBGKDH_01270 Glycerol kinase;>dRep_bin135_HHKACLPM_01661 Glycerol kinase;>dRep_bin062_BOFBFLDA_01051 Glycerol kinase	dRep_bin062_BOFBFLDA_01051	CDS	glpK	2.7.1.30	Glycerol kinase
BOFBFLDA_01112		25.633390000000002										2	2	0,00019066	dRep_bin344_CJJBDGAA_00898;dRep_bin335_JIOGNAPG_01201;dRep_bin139_KGAJINND_01130;dRep_bin041_OPKGAAAG_02277;dRep_bin134_HIAPAODO_00923;dRep_bin089_PAJFOJBN_00023;dRep_bin088_DNGPPFDK_01103;dRep_bin062_BOFBFLDA_01112;dRep_bin158_OGFICEAP_00970;dRep_bin303_DDDNDJCF_01875;dRep_bin287_DONBGKDH_00692;dRep_bin266_JFOCEDAE_01617;dRep_bin234_ECABPBME_01365;dRep_bin254_GJDPFAEA_02106;dRep_bin127_FIPNHBCH_01543;dRep_bin167_BLMEBMNN_01358;dRep_bin069_EGGEOGDC_00688;dRep_bin047_IFFANOMN_00937	dRep_bin344_CJJBDGAA_00898;dRep_bin335_JIOGNAPG_01201;dRep_bin139_KGAJINND_01130;dRep_bin041_OPKGAAAG_02277;dRep_bin134_HIAPAODO_00923;dRep_bin089_PAJFOJBN_00023;dRep_bin088_DNGPPFDK_01103;dRep_bin062_BOFBFLDA_01112;dRep_bin158_OGFICEAP_00970;dRep_bin303_DDDNDJCF_01875;dRep_bin287_DONBGKDH_00692;dRep_bin266_JFOCEDAE_01617;dRep_bin234_ECABPBME_01365;dRep_bin254_GJDPFAEA_02106;dRep_bin127_FIPNHBCH_01543;dRep_bin167_BLMEBMNN_01358;dRep_bin069_EGGEOGDC_00688;dRep_bin047_IFFANOMN_00937	>dRep_bin344_CJJBDGAA_00898 dTDP-4-dehydrorhamnose 3,5-epimerase;>dRep_bin335_JIOGNAPG_01201 dTDP-4-dehydrorhamnose 3,5-epimerase;>dRep_bin139_KGAJINND_01130 dTDP-4-dehydrorhamnose 3,5-epimerase;>dRep_bin041_OPKGAAAG_02277 dTDP-4-dehydrorhamnose 3,5-epimer	dRep_bin062_BOFBFLDA_01112	CDS	rfbC	5.1.3.13	dTDP-4-dehydrorhamnose 3,5-epimerase
BOFBFLDA_01153					24.7103	25.71311		24.8075				2	2	3,0574E-05	dRep_bin041_OPKGAAAG_02321;dRep_bin134_HIAPAODO_01003;dRep_bin062_BOFBFLDA_01153;dRep_bin160_EFKMPBOM_01972;dRep_bin154_JGOKHKLI_00784;dRep_bin347_EKGCMFPD_01116;dRep_bin328_GIGKNKPJ_01328;dRep_bin322_OJELOJOF_01348;dRep_bin300_MJPPENNL_01858;dRep_bin292_JIBLDOOH_01271;dRep_bin284_DEHKNOBF_01490;dRep_bin282_PKAAPBFP_00472;dRep_bin279_IAEFEPEN_01298;dRep_bin269_PNILGKPH_02195;dRep_bin266_JFOCEDAE_00996;dRep_bin254_GJDPFAEA_01481;dRep_bin226_NLNLHLLD_00043;dRep_bin218_ACMPALGF_01304;dRep_bin211_LGJEFJIK_00685;dRep_bin186_HJAAFFNP_00351;dRep_bin145_KMJJJOEJ_01530;dRep_bin145_KMJJJOEJ_00739;dRep_bin139_KGAJINND_00952;dRep_bin133_NOBPDBPA_05091;dRep_bin088_DNGPPFDK_00708;dRep_bin081_JDPCKDNP_01249;dRep_bin065_DFABHCBI_01260;dRep_bin047_IFFANOMN_00230;dRep_bin001_GHHJMDAL_00720;dRep_bin240_LDBBGJKG_00585;dRep_bin335_JIOGNAPG_00127	dRep_bin041_OPKGAAAG_02321;dRep_bin134_HIAPAODO_01003;dRep_bin062_BOFBFLDA_01153;dRep_bin160_EFKMPBOM_01972;dRep_bin154_JGOKHKLI_00784;dRep_bin347_EKGCMFPD_01116;dRep_bin328_GIGKNKPJ_01328;dRep_bin322_OJELOJOF_01348;dRep_bin300_MJPPENNL_01858;dRep_bin292_JIBLDOOH_01271;dRep_bin284_DEHKNOBF_01490;dRep_bin282_PKAAPBFP_00472;dRep_bin279_IAEFEPEN_01298;dRep_bin269_PNILGKPH_02195;dRep_bin266_JFOCEDAE_00996;dRep_bin254_GJDPFAEA_01481;dRep_bin226_NLNLHLLD_00043;dRep_bin218_ACMPALGF_01304;dRep_bin211_LGJEFJIK_00685;dRep_bin186_HJAAFFNP_00351;dRep_bin145_KMJJJOEJ_01530;dRep_bin145_KMJJJOEJ_00739;dRep_bin139_KGAJINND_00952;dRep_bin133_NOBPDBPA_05091;dRep_bin088_DNGPPFDK_00708;dRep_bin081_JDPCKDNP_01249;dRep_bin065_DFABHCBI_01260;dRep_bin047_IFFANOMN_00230;dRep_bin001_GHHJMDAL_00720;dRep_bin240_LDBBGJKG_00585;dRep_bin335_JIOGNAPG_00127	>dRep_bin041_OPKGAAAG_02321 50S ribosomal protein L15;>dRep_bin134_HIAPAODO_01003 50S ribosomal protein L15;>dRep_bin062_BOFBFLDA_01153 50S ribosomal protein L15;>dRep_bin160_EFKMPBOM_01972 50S ribosomal protein L15;>dRep_bin154_JGOKHKLI_00784 50S ribosoma	dRep_bin062_BOFBFLDA_01153	CDS	rplO		50S ribosomal protein L15
BOFBFLDA_01155	23.26026	24.0385	24.520729999999997	24.11633								4	1	2,4395E-14	dRep_bin134_HIAPAODO_01005;dRep_bin016_JLGAHGOJ_00442;dRep_bin139_KGAJINND_00954;dRep_bin115_IFKGOGCL_00629;dRep_bin062_BOFBFLDA_01155;dRep_bin089_PAJFOJBN_02089;dRep_bin303_DDDNDJCF_01217;dRep_bin095_HOBNOEEF_02098;dRep_bin308_JBPDGLPP_01121;dRep_bin300_MJPPENNL_01860;dRep_bin279_IAEFEPEN_01296;dRep_bin260_HELEPKJL_01361;dRep_bin240_LDBBGJKG_00583;dRep_bin127_FIPNHBCH_00043;dRep_bin107_EFNBPDOP_00043;dRep_bin077_DNNBMPMC_00192;dRep_bin066_AJACLPEE_00667;dRep_bin047_IFFANOMN_00232	dRep_bin134_HIAPAODO_01005;dRep_bin016_JLGAHGOJ_00442;dRep_bin139_KGAJINND_00954;dRep_bin115_IFKGOGCL_00629;dRep_bin062_BOFBFLDA_01155;dRep_bin089_PAJFOJBN_02089;dRep_bin303_DDDNDJCF_01217;dRep_bin095_HOBNOEEF_02098	>dRep_bin134_HIAPAODO_01005 30S ribosomal protein S5;>dRep_bin016_JLGAHGOJ_00442 30S ribosomal protein S5;>dRep_bin139_KGAJINND_00954 30S ribosomal protein S5;>dRep_bin115_IFKGOGCL_00629 30S ribosomal protein S5;>dRep_bin062_BOFBFLDA_01155 30S ribosomal pr	dRep_bin062_BOFBFLDA_01155	CDS	rpsE		30S ribosomal protein S5
BOFBFLDA_01260							23.5471					4	1	2,0048E-08	dRep_bin062_BOFBFLDA_01260;dRep_bin145_KMJJJOEJ_00156;dRep_bin158_OGFICEAP_01139	dRep_bin062_BOFBFLDA_01260;dRep_bin145_KMJJJOEJ_00156;dRep_bin158_OGFICEAP_01139	>dRep_bin062_BOFBFLDA_01260 Aspartate--tRNA ligase;>dRep_bin145_KMJJJOEJ_00156 Aspartate--tRNA ligase;>dRep_bin158_OGFICEAP_01139 Aspartate--tRNA ligase	dRep_bin062_BOFBFLDA_01260	CDS	aspS	6.1.1.12	Aspartate--tRNA ligase
BOFBFLDA_01336					24.24887	26.77128	24.69339	24.025629999999996				3	1	5,593E-12	dRep_bin139_KGAJINND_01577;dRep_bin344_CJJBDGAA_01807;dRep_bin300_MJPPENNL_01697;dRep_bin324_IPNHOHFK_02134;dRep_bin261_FJICAFFM_01134;dRep_bin303_DDDNDJCF_01519;dRep_bin297_EDHEEICA_00415;dRep_bin209_NKIHFCEN_00709;dRep_bin167_BLMEBMNN_00621;dRep_bin157_JPNIKEKI_01820;dRep_bin133_NOBPDBPA_02652;dRep_bin016_JLGAHGOJ_01099;dRep_bin292_JIBLDOOH_01420;dRep_bin127_FIPNHBCH_01248;dRep_bin062_BOFBFLDA_01336;dRep_bin115_IFKGOGCL_01923;dRep_bin269_PNILGKPH_02213;dRep_bin208_DHPGEIBC_01209;dRep_bin347_EKGCMFPD_00714;dRep_bin266_JFOCEDAE_00751;dRep_bin211_LGJEFJIK_00719;dRep_bin316_FNLHDNEO_01427;dRep_bin065_DFABHCBI_00784;dRep_bin319_PBDBJGCJ_00028;dRep_bin077_DNNBMPMC_00009;dRep_bin006_HPJGJCAG_01885;dRep_bin066_AJACLPEE_00266;dRep_bin279_IAEFEPEN_00114;dRep_bin254_GJDPFAEA_01714;dRep_bin035_JBNPBOKG_00265;dRep_bin092_OOJCPDEA_01135;dRep_bin173_BEBNCADL_00932;dRep_bin261_FJICAFFM_01422;dRep_bin288_KOIAAABN_01088;dRep_bin263_OLEFOGIJ_00124;dRep_bin099_DNDAGJEJ_00022;dRep_bin325_EIIGOGHN_01093;dRep_bin076_GLAOFBEC_01169;dRep_bin089_PAJFOJBN_00283;dRep_bin287_DONBGKDH_01271;dRep_bin162_JBGCCDIN_01770;dRep_bin135_HHKACLPM_00267;dRep_bin332_KAOPCDPF_00441;dRep_bin310_IMBAFDIF_00637;dRep_bin304_JDNJGFKH_01711;dRep_bin222_GGCAJABB_01248;dRep_bin159_ADJJGPBG_01860;dRep_bin043_KLAFNACO_01408;dRep_bin023_HGFJFKAI_00653;dRep_bin189_AHHEHGDL_01147;dRep_bin328_GIGKNKPJ_01484;dRep_bin282_PKAAPBFP_01012;dRep_bin229_FFOBPPJI_01006;dRep_bin203_CLFNNOCF_00634;dRep_bin102_ICFDHPGB_01107;dRep_bin072_JOBJPCGA_00187;dRep_bin029_LFMGBBEC_00768;dRep_bin017_FGFLFOPJ_00988;dRep_bin195_DDMDFNOK_00791;dRep_bin120_EKLBOPNC_01828;dRep_bin058_GJKCICJN_00813;dRep_bin046_GKEJLOEK_00003;dRep_bin186_HJAAFFNP_01596;dRep_bin349_AMCJEEEG_00676;dRep_bin200_JJGKEOHI_00578;dRep_bin027_OFJCHLJJ_00701;dRep_bin161_JMKPMHCO_01186;dRep_bin160_EFKMPBOM_00139;dRep_bin154_JGOKHKLI_00533;dRep_bin083_OCBADPJJ_00750;dRep_bin049_MNFBDPNO_00757;dRep_bin008_MNDMJLEI_00707;dRep_bin158_OGFICEAP_00389;dRep_bin334_NAPFFNLD_00463;dRep_bin339_DBNBAHDK_00481;dRep_bin241_LMMMGDNI_00312;dRep_bin179_HFEIPPPA_00773;dRep_bin245_MBCFLKOF_01292;dRep_bin010_MFFFGEGD_00549	dRep_bin139_KGAJINND_01577;dRep_bin344_CJJBDGAA_01807;dRep_bin300_MJPPENNL_01697;dRep_bin324_IPNHOHFK_02134;dRep_bin261_FJICAFFM_01134;dRep_bin303_DDDNDJCF_01519;dRep_bin297_EDHEEICA_00415;dRep_bin209_NKIHFCEN_00709;dRep_bin167_BLMEBMNN_00621;dRep_bin157_JPNIKEKI_01820;dRep_bin133_NOBPDBPA_02652;dRep_bin016_JLGAHGOJ_01099;dRep_bin292_JIBLDOOH_01420;dRep_bin127_FIPNHBCH_01248;dRep_bin062_BOFBFLDA_01336;dRep_bin115_IFKGOGCL_01923;dRep_bin269_PNILGKPH_02213	>dRep_bin139_KGAJINND_01577 Chaperone protein ClpB 1;>dRep_bin344_CJJBDGAA_01807 Chaperone protein ClpB;>dRep_bin300_MJPPENNL_01697 Chaperone protein ClpB;>dRep_bin324_IPNHOHFK_02134 Chaperone protein ClpB;>dRep_bin261_FJICAFFM_01134 Chaperone protein ClpB	dRep_bin062_BOFBFLDA_01336	CDS	clpB		Chaperone protein ClpB
BOFBFLDA_01356		25.36389										6	1	2,9022E-24	dRep_bin062_BOFBFLDA_01356	dRep_bin062_BOFBFLDA_01356	>dRep_bin062_BOFBFLDA_01356 Bifunctional purine biosynthesis protein PurH	dRep_bin062_BOFBFLDA_01356	CDS	purH		Bifunctional purine biosynthesis protein PurH
BOFBFLDA_01385			23.262129999999996									1	1	1,124E-05	dRep_bin325_EIIGOGHN_00455;dRep_bin287_DONBGKDH_01891;dRep_bin260_HELEPKJL_00793;dRep_bin095_HOBNOEEF_02183;dRep_bin023_HGFJFKAI_00898;dRep_bin226_NLNLHLLD_01485;dRep_bin041_OPKGAAAG_02051;dRep_bin062_BOFBFLDA_01385;dRep_bin181_MKGPMPIA_01332;dRep_bin269_PNILGKPH_01447;dRep_bin282_PKAAPBFP_01100;dRep_bin261_FJICAFFM_01242;dRep_bin203_CLFNNOCF_00622;dRep_bin234_ECABPBME_01964;dRep_bin007_LNLEAAAN_01741;dRep_bin335_JIOGNAPG_00799;dRep_bin309_BIOHLCGG_01161;dRep_bin160_EFKMPBOM_00129;dRep_bin154_JGOKHKLI_00545;dRep_bin133_NOBPDBPA_03678;dRep_bin089_PAJFOJBN_00292;dRep_bin019_MOJEPLJF_01283;dRep_bin134_HIAPAODO_00643;dRep_bin024_OLHDGABE_01143;dRep_bin005_CNDFPKJG_01361;dRep_bin209_NKIHFCEN_00699;dRep_bin179_HFEIPPPA_01887;dRep_bin157_JPNIKEKI_01833;dRep_bin107_EFNBPDOP_00671;dRep_bin077_DNNBMPMC_00160;dRep_bin039_IJNOFOJK_00262;dRep_bin016_JLGAHGOJ_00401;dRep_bin344_CJJBDGAA_00564;dRep_bin324_IPNHOHFK_02103;dRep_bin249_OFIIEIDJ_01493;dRep_bin139_KGAJINND_00448;dRep_bin081_JDPCKDNP_01186;dRep_bin319_PBDBJGCJ_01293;dRep_bin279_IAEFEPEN_01252;dRep_bin220_PILICLLL_00969;dRep_bin201_OLKDIBOK_00798;dRep_bin293_MEPKGOAN_01317;dRep_bin292_JIBLDOOH_01431;dRep_bin027_OFJCHLJJ_01511;dRep_bin347_EKGCMFPD_00408;dRep_bin211_LGJEFJIK_00568	dRep_bin325_EIIGOGHN_00455;dRep_bin287_DONBGKDH_01891;dRep_bin260_HELEPKJL_00793;dRep_bin095_HOBNOEEF_02183;dRep_bin023_HGFJFKAI_00898;dRep_bin226_NLNLHLLD_01485;dRep_bin041_OPKGAAAG_02051;dRep_bin062_BOFBFLDA_01385;dRep_bin181_MKGPMPIA_01332;dRep_bin269_PNILGKPH_01447;dRep_bin282_PKAAPBFP_01100;dRep_bin261_FJICAFFM_01242;dRep_bin203_CLFNNOCF_00622;dRep_bin234_ECABPBME_01964;dRep_bin007_LNLEAAAN_01741;dRep_bin335_JIOGNAPG_00799;dRep_bin309_BIOHLCGG_01161;dRep_bin160_EFKMPBOM_00129;dRep_bin154_JGOKHKLI_00545;dRep_bin133_NOBPDBPA_03678;dRep_bin089_PAJFOJBN_00292;dRep_bin019_MOJEPLJF_01283;dRep_bin134_HIAPAODO_00643;dRep_bin024_OLHDGABE_01143;dRep_bin005_CNDFPKJG_01361;dRep_bin209_NKIHFCEN_00699;dRep_bin179_HFEIPPPA_01887;dRep_bin157_JPNIKEKI_01833;dRep_bin107_EFNBPDOP_00671;dRep_bin077_DNNBMPMC_00160;dRep_bin039_IJNOFOJK_00262;dRep_bin016_JLGAHGOJ_00401;dRep_bin344_CJJBDGAA_00564;dRep_bin324_IPNHOHFK_02103;dRep_bin249_OFIIEIDJ_01493;dRep_bin139_KGAJINND_00448;dRep_bin081_JDPCKDNP_01186;dRep_bin319_PBDBJGCJ_01293;dRep_bin279_IAEFEPEN_01252;dRep_bin220_PILICLLL_00969;dRep_bin201_OLKDIBOK_00798;dRep_bin293_MEPKGOAN_01317;dRep_bin292_JIBLDOOH_01431;dRep_bin027_OFJCHLJJ_01511;dRep_bin347_EKGCMFPD_00408;dRep_bin211_LGJEFJIK_00568	>dRep_bin325_EIIGOGHN_00455 Valine--tRNA ligase;>dRep_bin287_DONBGKDH_01891 Valine--tRNA ligase;>dRep_bin260_HELEPKJL_00793 Valine--tRNA ligase;>dRep_bin095_HOBNOEEF_02183 Valine--tRNA ligase;>dRep_bin023_HGFJFKAI_00898 Valine--tRNA ligase;>dRep_bin226_NLN	dRep_bin062_BOFBFLDA_01385	CDS	valS	6.1.1.9	Valine--tRNA ligase
BOFBFLDA_01395	24.9213	24.79709	26.017890000000005	25.546219999999998								3	1	3,3501E-13	dRep_bin134_HIAPAODO_00763;dRep_bin069_EGGEOGDC_00830;dRep_bin344_CJJBDGAA_00296;dRep_bin260_HELEPKJL_00042;dRep_bin062_BOFBFLDA_01395;dRep_bin047_IFFANOMN_02133;dRep_bin047_IFFANOMN_00595;dRep_bin282_PKAAPBFP_00292	dRep_bin134_HIAPAODO_00763;dRep_bin069_EGGEOGDC_00830;dRep_bin344_CJJBDGAA_00296;dRep_bin260_HELEPKJL_00042;dRep_bin062_BOFBFLDA_01395;dRep_bin047_IFFANOMN_02133;dRep_bin047_IFFANOMN_00595	>dRep_bin134_HIAPAODO_00763 50S ribosomal protein L11;>dRep_bin069_EGGEOGDC_00830 50S ribosomal protein L11;>dRep_bin344_CJJBDGAA_00296 50S ribosomal protein L11;>dRep_bin260_HELEPKJL_00042 50S ribosomal protein L11;>dRep_bin062_BOFBFLDA_01395 50S ribosoma	dRep_bin062_BOFBFLDA_01395	CDS	rplK		50S ribosomal protein L11
BOFBFLDA_01418	29.082659999999997	28.958589999999997	28.948269999999997	28.980759999999997	29.211880000000004	28.165950000000002	29.009880000000003	29.13861				21	8	0	dRep_bin062_BOFBFLDA_01418	dRep_bin062_BOFBFLDA_01418	>dRep_bin062_BOFBFLDA_01418 Pyruvate synthase	dRep_bin062_BOFBFLDA_01418	CDS	por	1.2.7.1	Pyruvate synthase
BOFBFLDA_01435					25.06357							5	1	3,6059E-73	dRep_bin203_CLFNNOCF_01682;dRep_bin347_EKGCMFPD_01504;dRep_bin284_DEHKNOBF_01057;dRep_bin260_HELEPKJL_00015;dRep_bin310_IMBAFDIF_00287;dRep_bin134_HIAPAODO_00846;dRep_bin062_BOFBFLDA_01435;dRep_bin300_MJPPENNL_01196;dRep_bin201_OLKDIBOK_02047;dRep_bin105_AAEIHAFF_01478;dRep_bin100_CODMOHGB_01221;dRep_bin088_DNGPPFDK_00866;dRep_bin277_MIPNGEJE_00690;dRep_bin166_DFIAJFEC_00146;dRep_bin161_JMKPMHCO_01114;dRep_bin059_OOBKFNPP_00125;dRep_bin046_GKEJLOEK_01062;dRep_bin091_MAFACGAD_00248;dRep_bin017_FGFLFOPJ_00727;dRep_bin354_MMOALAFN_00741;dRep_bin324_IPNHOHFK_00313;dRep_bin323_FBBLPLCG_01264;dRep_bin309_BIOHLCGG_01306;dRep_bin273_FGAEBHNP_00470;dRep_bin261_FJICAFFM_01100;dRep_bin148_NAJFKJMD_00795;dRep_bin115_IFKGOGCL_00123;dRep_bin069_EGGEOGDC_01056;dRep_bin344_CJJBDGAA_01161;dRep_bin249_OFIIEIDJ_00715;dRep_bin220_PILICLLL_00990;dRep_bin134_HIAPAODO_01436;dRep_bin065_DFABHCBI_00344;dRep_bin032_PPNIGLME_00203;dRep_bin270_GEJAHNCN_01587;dRep_bin065_DFABHCBI_00249;dRep_bin278_BFCONKOE_01054;dRep_bin016_JLGAHGOJ_00641;dRep_bin328_GIGKNKPJ_01462;dRep_bin308_JBPDGLPP_01172;dRep_bin303_DDDNDJCF_01320;dRep_bin254_GJDPFAEA_00870;dRep_bin234_ECABPBME_00536;dRep_bin186_HJAAFFNP_01789;dRep_bin167_BLMEBMNN_01296;dRep_bin107_EFNBPDOP_00511;dRep_bin077_DNNBMPMC_01864;dRep_bin066_AJACLPEE_01033;dRep_bin047_IFFANOMN_00697;dRep_bin135_HHKACLPM_00107;dRep_bin303_DDDNDJCF_00377;dRep_bin306_FGHMKMMP_01595;dRep_bin211_LGJEFJIK_00450;dRep_bin007_LNLEAAAN_01312;dRep_bin344_CJJBDGAA_01611;dRep_bin031_BNHMFOII_01628;dRep_bin353_PPDHLNJB_02118;dRep_bin254_GJDPFAEA_00869;dRep_bin094_LBLICAAO_00342;dRep_bin047_IFFANOMN_01357;dRep_bin120_EKLBOPNC_01832;dRep_bin168_HKDILBFE_01442;dRep_bin099_DNDAGJEJ_00392;dRep_bin215_ABBFGCAF_00798;dRep_bin029_LFMGBBEC_01628;dRep_bin240_LDBBGJKG_01094;dRep_bin279_IAEFEPEN_01491;dRep_bin130_OIFFANPF_01666;dRep_bin319_PBDBJGCJ_00268;dRep_bin017_FGFLFOPJ_00820;dRep_bin082_HBEFABJN_01328;dRep_bin245_MBCFLKOF_01762;dRep_bin027_OFJCHLJJ_00790;dRep_bin108_BPNCDINP_00911;dRep_bin308_JBPDGLPP_01750;dRep_bin193_GDMDPNNM_00480;dRep_bin344_CJJBDGAA_02078;dRep_bin049_MNFBDPNO_01413;dRep_bin096_GNHMEKPF_00097;dRep_bin104_EGLEJOLM_01934;dRep_bin339_DBNBAHDK_02499;dRep_bin321_EJNAAGJG_00755;dRep_bin273_FGAEBHNP_00835;dRep_bin250_NMCAMJIO_00087;dRep_bin247_EKGBJCBM_00317;dRep_bin148_NAJFKJMD_01189;dRep_bin337_FHKPNFDB_01633;dRep_bin320_LDBKCCKL_01786;dRep_bin304_JDNJGFKH_01982;dRep_bin286_OEMIJKMC_01141;dRep_bin231_CFOLMJBA_00953;dRep_bin162_JBGCCDIN_01636;dRep_bin126_PPDNCIBN_01067;dRep_bin109_MJABCPAK_00317;dRep_bin057_BNCFHBBO_00597;dRep_bin288_KOIAAABN_00012;dRep_bin263_OLEFOGIJ_00295;dRep_bin304_JDNJGFKH_00179;dRep_bin208_DHPGEIBC_00457;dRep_bin189_AHHEHGDL_01282;dRep_bin177_HLHGKLFL_00741;dRep_bin140_ACFAKGIL_00319;dRep_bin105_AAEIHAFF_01411;dRep_bin082_HBEFABJN_00692;dRep_bin010_MFFFGEGD_00717;dRep_bin005_CNDFPKJG_01705;dRep_bin287_DONBGKDH_01836;dRep_bin094_LBLICAAO_00388;dRep_bin058_GJKCICJN_00227;dRep_bin293_MEPKGOAN_00829;dRep_bin218_ACMPALGF_00229;dRep_bin205_LKIOOBKC_00417;dRep_bin172_ALNHGLMD_01439;dRep_bin159_ADJJGPBG_01342;dRep_bin143_PFLDJMPF_01248;dRep_bin101_BNDDLDCL_01982;dRep_bin091_MAFACGAD_01619;dRep_bin072_JOBJPCGA_00130;dRep_bin011_KOGMKLNO_01272;dRep_bin164_KHMELCCL_01402;dRep_bin305_FCIEFIHE_00371;dRep_bin222_GGCAJABB_00745;dRep_bin006_HPJGJCAG_01874;dRep_bin286_OEMIJKMC_01354;dRep_bin126_PPDNCIBN_00282;dRep_bin185_OOOLKACK_00819;dRep_bin043_KLAFNACO_00900;dRep_bin231_CFOLMJBA_01529;dRep_bin237_KJDLIPND_00869;dRep_bin147_EJLBNEBE_00138;dRep_bin186_HJAAFFNP_01790;dRep_bin081_JDPCKDNP_00172;dRep_bin069_EGGEOGDC_00890;dRep_bin282_PKAAPBFP_00016;dRep_bin206_OIIBOIAK_00984;dRep_bin161_JMKPMHCO_00782;dRep_bin278_BFCONKOE_00310;dRep_bin260_HELEPKJL_01944;dRep_bin336_MPGOKPOL_00897	dRep_bin203_CLFNNOCF_01682;dRep_bin347_EKGCMFPD_01504;dRep_bin284_DEHKNOBF_01057;dRep_bin260_HELEPKJL_00015;dRep_bin310_IMBAFDIF_00287;dRep_bin134_HIAPAODO_00846;dRep_bin062_BOFBFLDA_01435	>dRep_bin203_CLFNNOCF_01682 Glutamine synthetase;>dRep_bin347_EKGCMFPD_01504 Glutamine synthetase;>dRep_bin284_DEHKNOBF_01057 Glutamine synthetase;>dRep_bin260_HELEPKJL_00015 Glutamine synthetase;>dRep_bin310_IMBAFDIF_00287 Glutamine synthetase;>dRep_bin13	dRep_bin062_BOFBFLDA_01435	CDS	glnA_2	6.3.1.2	Glutamine synthetase
BOFBFLDA_01436					22.76111			21.93966				5	2	9,8846E-56	dRep_bin062_BOFBFLDA_01436;dRep_bin167_BLMEBMNN_01762	dRep_bin062_BOFBFLDA_01436	>dRep_bin062_BOFBFLDA_01436 Fructose-bisphosphate aldolase	dRep_bin062_BOFBFLDA_01436	CDS	fba	4.1.2.13	Fructose-bisphosphate aldolase
BOFBFLDA_01441	28.64904	28.89076	29.27784	30.43659	29.088689999999996	28.465049999999998	29.17303	29.32749				6	1	5,3064E-105	dRep_bin292_JIBLDOOH_01266;dRep_bin062_BOFBFLDA_01441	dRep_bin292_JIBLDOOH_01266	>dRep_bin292_JIBLDOOH_01266 30S ribosomal protein S13	dRep_bin062_BOFBFLDA_01441	CDS	rpsM		30S ribosomal protein S13
BOFBFLDA_01443	23.217000000000002											4	1	1,4554E-08	dRep_bin016_JLGAHGOJ_00452;dRep_bin062_BOFBFLDA_01443;dRep_bin134_HIAPAODO_00288;dRep_bin310_IMBAFDIF_00302;dRep_bin088_DNGPPFDK_00716;dRep_bin344_CJJBDGAA_01205;dRep_bin303_DDDNDJCF_01080;dRep_bin287_DONBGKDH_00527;dRep_bin266_JFOCEDAE_00987;dRep_bin260_HELEPKJL_00667;dRep_bin335_JIOGNAPG_01221;dRep_bin234_ECABPBME_00103;dRep_bin160_EFKMPBOM_01965;dRep_bin154_JGOKHKLI_00776;dRep_bin091_MAFACGAD_01389;dRep_bin047_IFFANOMN_02010;dRep_bin001_GHHJMDAL_01182	dRep_bin016_JLGAHGOJ_00452;dRep_bin062_BOFBFLDA_01443;dRep_bin134_HIAPAODO_00288;dRep_bin310_IMBAFDIF_00302;dRep_bin088_DNGPPFDK_00716;dRep_bin344_CJJBDGAA_01205;dRep_bin303_DDDNDJCF_01080;dRep_bin287_DONBGKDH_00527;dRep_bin266_JFOCEDAE_00987;dRep_bin260_HELEPKJL_00667;dRep_bin335_JIOGNAPG_01221;dRep_bin234_ECABPBME_00103;dRep_bin160_EFKMPBOM_01965;dRep_bin154_JGOKHKLI_00776;dRep_bin091_MAFACGAD_01389;dRep_bin047_IFFANOMN_02010;dRep_bin001_GHHJMDAL_01182	>dRep_bin016_JLGAHGOJ_00452 30S ribosomal protein S4;>dRep_bin062_BOFBFLDA_01443 30S ribosomal protein S4;>dRep_bin134_HIAPAODO_00288 30S ribosomal protein S4;>dRep_bin310_IMBAFDIF_00302 30S ribosomal protein S4;>dRep_bin088_DNGPPFDK_00716 30S ribosomal pr	dRep_bin062_BOFBFLDA_01443	CDS	rpsD		30S ribosomal protein S4
BOFBFLDA_01458						23.19969						4	0	2,4012E-12	dRep_bin112_NDMGAKCH_00731;dRep_bin289_KALDCNNP_00011;dRep_bin113_LIFKCGBF_00608;dRep_bin137_NABPABPB_00033;dRep_bin002_CFBNDKDN_00319;dRep_bin329_GDOHKPBL_01539;dRep_bin063_PJANDMAH_01116;dRep_bin136_NAIECEIF_00598;dRep_bin071_JHMCIJPE_00513;dRep_bin275_NIDIBBDA_01478;dRep_bin283_NLJJFFAC_00658;dRep_bin316_FNLHDNEO_00538;dRep_bin016_JLGAHGOJ_01021;dRep_bin093_PGADNPMG_00614;dRep_bin128_JPBBHEMA_01235;dRep_bin196_BIELHBNH_00516;dRep_bin018_ILOONPIC_00864;dRep_bin298_EIPJCOMF_01408;dRep_bin290_OIOJKBNK_00725;dRep_bin256_KEMNAOBC_00377;dRep_bin345_GLPJDLOI_01426;dRep_bin089_PAJFOJBN_01916;dRep_bin027_OFJCHLJJ_01931;dRep_bin328_GIGKNKPJ_01061;dRep_bin091_MAFACGAD_00821;dRep_bin352_KFNHGNFC_00965;dRep_bin096_GNHMEKPF_00111;dRep_bin065_DFABHCBI_02359;dRep_bin048_PABMBHAL_00218;dRep_bin240_LDBBGJKG_00200;dRep_bin094_LBLICAAO_01774;dRep_bin186_HJAAFFNP_01716;dRep_bin160_EFKMPBOM_00295;dRep_bin344_CJJBDGAA_01885;dRep_bin081_JDPCKDNP_02127;dRep_bin062_BOFBFLDA_01458;dRep_bin279_IAEFEPEN_00039;dRep_bin088_DNGPPFDK_00119;dRep_bin335_JIOGNAPG_01546;dRep_bin287_DONBGKDH_00294;dRep_bin150_HCDEOBMH_01332;dRep_bin310_IMBAFDIF_00761;dRep_bin300_MJPPENNL_00654;dRep_bin041_OPKGAAAG_01259;dRep_bin024_OLHDGABE_00962;dRep_bin322_OJELOJOF_01437;dRep_bin017_FGFLFOPJ_00437;dRep_bin158_OGFICEAP_00004;dRep_bin303_DDDNDJCF_01152;dRep_bin310_IMBAFDIF_00173;dRep_bin248_CCDFPECI_00143;dRep_bin131_HLFNHDGI_00101;dRep_bin301_NJFJIJGA_00544;dRep_bin167_BLMEBMNN_01000;dRep_bin134_HIAPAODO_00464;dRep_bin260_HELEPKJL_00441;dRep_bin220_PILICLLL_00077;dRep_bin007_LNLEAAAN_01436;dRep_bin127_FIPNHBCH_00505;dRep_bin014_CHIHIMAN_00797	dRep_bin112_NDMGAKCH_00731;dRep_bin289_KALDCNNP_00011;dRep_bin113_LIFKCGBF_00608;dRep_bin137_NABPABPB_00033;dRep_bin002_CFBNDKDN_00319;dRep_bin329_GDOHKPBL_01539;dRep_bin063_PJANDMAH_01116;dRep_bin136_NAIECEIF_00598;dRep_bin071_JHMCIJPE_00513;dRep_bin275_NIDIBBDA_01478;dRep_bin283_NLJJFFAC_00658;dRep_bin316_FNLHDNEO_00538;dRep_bin016_JLGAHGOJ_01021;dRep_bin093_PGADNPMG_00614;dRep_bin128_JPBBHEMA_01235;dRep_bin196_BIELHBNH_00516;dRep_bin018_ILOONPIC_00864;dRep_bin298_EIPJCOMF_01408;dRep_bin290_OIOJKBNK_00725;dRep_bin256_KEMNAOBC_00377;dRep_bin345_GLPJDLOI_01426	>dRep_bin112_NDMGAKCH_00731 Translation initiation factor IF-2;>dRep_bin289_KALDCNNP_00011 Translation initiation factor IF-2;>dRep_bin113_LIFKCGBF_00608 Translation initiation factor IF-2;>dRep_bin137_NABPABPB_00033 Translation initiation factor IF-2;>dRe	dRep_bin062_BOFBFLDA_01458	CDS	infB		Translation initiation factor IF-2
BOFBFLDA_01465					22.87373	23.542619999999996						10	1	1,3189E-59	dRep_bin062_BOFBFLDA_01465	dRep_bin062_BOFBFLDA_01465	>dRep_bin062_BOFBFLDA_01465 60 kDa chaperonin	dRep_bin062_BOFBFLDA_01465	CDS	groL		60 kDa chaperonin
BOFBFLDA_01471								21.919870000000003				4	1	8,0003E-12	dRep_bin139_KGAJINND_00494;dRep_bin062_BOFBFLDA_01471;dRep_bin088_DNGPPFDK_00518	dRep_bin139_KGAJINND_00494;dRep_bin062_BOFBFLDA_01471	>dRep_bin139_KGAJINND_00494 Phosphoribosylamine--glycine ligase;>dRep_bin062_BOFBFLDA_01471 Phosphoribosylamine--glycine ligase	dRep_bin062_BOFBFLDA_01471	CDS	purD	6.3.4.13	Phosphoribosylamine--glycine ligase
BOFBFLDA_01477	25.427139999999998	25.406	25.829870000000003	25.456950000000003			27.30365					3	0	1,2337E-15	dRep_bin249_OFIIEIDJ_00638;dRep_bin134_HIAPAODO_00760;dRep_bin081_JDPCKDNP_00374;dRep_bin062_BOFBFLDA_01477;dRep_bin047_IFFANOMN_00600;dRep_bin310_IMBAFDIF_01251	dRep_bin249_OFIIEIDJ_00638;dRep_bin134_HIAPAODO_00760;dRep_bin081_JDPCKDNP_00374;dRep_bin062_BOFBFLDA_01477;dRep_bin047_IFFANOMN_00600	>dRep_bin249_OFIIEIDJ_00638 50S ribosomal protein L7/L12;>dRep_bin134_HIAPAODO_00760 50S ribosomal protein L7/L12;>dRep_bin081_JDPCKDNP_00374 50S ribosomal protein L7/L12;>dRep_bin062_BOFBFLDA_01477 50S ribosomal protein L7/L12;>dRep_bin047_IFFANOMN_00600	dRep_bin062_BOFBFLDA_01477	CDS	rplL		50S ribosomal protein L7/L12
