GBprotID	LFQ intensity CtrPig1	LFQ intensity CtrPig2	LFQ intensity CtrPig3	LFQ intensity CtrPig4	LFQ intensity MannanPig1	LFQ intensity MannanPig2	LFQ intensity MannanPig3	LFQ intensity MannanPig4	Only identified by site	Reverse	Contaminant	Peptides	Unique peptides	PEP	Protein IDs	Majority protein IDs	Fasta headers	IDcomb	ftype	gene	EC_number	product
AKBCEHHO_00006						24.889339999999997						1	1	2,502E-05	dRep_bin137_NABPABPB_01552;dRep_bin170_LICLFCFF_00971;dRep_bin002_CFBNDKDN_01261;dRep_bin296_FDMPKPOH_00834;dRep_bin329_GDOHKPBL_00447;dRep_bin294_EHJINIDK_00092;dRep_bin198_GMLJKALI_00198;dRep_bin113_LIFKCGBF_00076;dRep_bin224_NFENHJGB_00379;dRep_bin022_BOEAFNDE_00946;dRep_bin118_FGIOKLBC_00261;dRep_bin232_JGAEDAFA_01824;dRep_bin084_CGBIKHBH_01075;dRep_bin073_AKBCEHHO_00006;dRep_bin307_AOCKHIKF_00325;dRep_bin098_DDEBHDKK_01375;dRep_bin045_GJACFFBC_01020;dRep_bin165_HMDFFMMM_00908;dRep_bin210_AGEDAEIA_01259;dRep_bin183_FPGIOKBG_02142	dRep_bin137_NABPABPB_01552;dRep_bin170_LICLFCFF_00971;dRep_bin002_CFBNDKDN_01261;dRep_bin296_FDMPKPOH_00834;dRep_bin329_GDOHKPBL_00447;dRep_bin294_EHJINIDK_00092;dRep_bin198_GMLJKALI_00198;dRep_bin113_LIFKCGBF_00076;dRep_bin224_NFENHJGB_00379;dRep_bin022_BOEAFNDE_00946;dRep_bin118_FGIOKLBC_00261;dRep_bin232_JGAEDAFA_01824;dRep_bin084_CGBIKHBH_01075;dRep_bin073_AKBCEHHO_00006;dRep_bin307_AOCKHIKF_00325;dRep_bin098_DDEBHDKK_01375;dRep_bin045_GJACFFBC_01020;dRep_bin165_HMDFFMMM_00908;dRep_bin210_AGEDAEIA_01259;dRep_bin183_FPGIOKBG_02142	>dRep_bin137_NABPABPB_01552 putative glycine dehydrogenase (decarboxylating) subunit 2;>dRep_bin170_LICLFCFF_00971 putative glycine dehydrogenase (decarboxylating) subunit 2;>dRep_bin002_CFBNDKDN_01261 putative glycine dehydrogenase (decarboxylating) subun	dRep_bin073_AKBCEHHO_00006	CDS	gcvPB	1.4.4.2	putative glycine dehydrogenase (decarboxylating) subunit 2
AKBCEHHO_00055	21.1937	21.605980000000002										3	2	7,0864E-08	dRep_bin232_JGAEDAFA_01559;dRep_bin073_AKBCEHHO_00055;dRep_bin285_IPHKFJAN_01881;dRep_bin314_KCHFPLIP_00517;dRep_bin198_GMLJKALI_01053	dRep_bin232_JGAEDAFA_01559	>dRep_bin232_JGAEDAFA_01559 Glucokinase	dRep_bin073_AKBCEHHO_00055	CDS	glkA	2.7.1.2	Glucokinase
AKBCEHHO_00075	22.87912	24.450860000000002	23.00194	23.969739999999994								2	2	3,1133E-05	dRep_bin073_AKBCEHHO_00075;dRep_bin331_HPKAPHAF_00216;dRep_bin084_CGBIKHBH_01626	dRep_bin073_AKBCEHHO_00075;dRep_bin331_HPKAPHAF_00216;dRep_bin084_CGBIKHBH_01626	>dRep_bin073_AKBCEHHO_00075 NAD(P)H-dependent FMN reductase;>dRep_bin331_HPKAPHAF_00216 NAD(P)H-dependent FMN reductase;>dRep_bin084_CGBIKHBH_01626 NAD(P)H-dependent FMN reductase	dRep_bin073_AKBCEHHO_00075	CDS		1.-.-.-	NAD(P)H-dependent FMN reductase
AKBCEHHO_00090	26.4393	26.703719999999997	26.700409999999998	27.09668	27.07633	27.69312	25.8335	26.756719999999998				4	2	5,5166E-11	dRep_bin112_NDMGAKCH_01792;dRep_bin063_PJANDMAH_00921;dRep_bin285_IPHKFJAN_00091;dRep_bin113_LIFKCGBF_00862;dRep_bin198_GMLJKALI_01520;dRep_bin138_EJGHNBMI_00646;dRep_bin289_KALDCNNP_01693;dRep_bin307_AOCKHIKF_00589;dRep_bin098_DDEBHDKK_01037;dRep_bin314_KCHFPLIP_00532;dRep_bin070_EMBHKIOF_00327;dRep_bin073_AKBCEHHO_00090;dRep_bin002_CFBNDKDN_01342;dRep_bin183_FPGIOKBG_02272;dRep_bin064_CMDDCDKG_00482;dRep_bin294_EHJINIDK_00783;dRep_bin298_EIPJCOMF_01018;dRep_bin329_GDOHKPBL_00497;dRep_bin165_HMDFFMMM_01262	dRep_bin112_NDMGAKCH_01792;dRep_bin063_PJANDMAH_00921;dRep_bin285_IPHKFJAN_00091;dRep_bin113_LIFKCGBF_00862;dRep_bin198_GMLJKALI_01520;dRep_bin138_EJGHNBMI_00646	>dRep_bin112_NDMGAKCH_01792 Formate-dependent phosphoribosylglycinamide formyltransferase;>dRep_bin063_PJANDMAH_00921 Formate-dependent phosphoribosylglycinamide formyltransferase;>dRep_bin285_IPHKFJAN_00091 Formate-dependent phosphoribosylglycinamide form	dRep_bin073_AKBCEHHO_00090	CDS	purT	2.1.2.-	Formate-dependent phosphoribosylglycinamide formyltransferase
AKBCEHHO_00198	25.395419999999998	23.912139999999997										5	2	1,7256E-10	dRep_bin232_JGAEDAFA_01813;dRep_bin073_AKBCEHHO_00198	dRep_bin232_JGAEDAFA_01813;dRep_bin073_AKBCEHHO_00198	>dRep_bin232_JGAEDAFA_01813 hypothetical protein;>dRep_bin073_AKBCEHHO_00198 hypothetical protein	dRep_bin073_AKBCEHHO_00198	CDS			hypothetical protein
AKBCEHHO_00235								24.8615				2	1	1,9265E-05	dRep_bin073_AKBCEHHO_00235	dRep_bin073_AKBCEHHO_00235	>dRep_bin073_AKBCEHHO_00235 TonB-dependent receptor SusC	dRep_bin073_AKBCEHHO_00235	CDS	susC_1		TonB-dependent receptor SusC
AKBCEHHO_00245							24.060689999999997					2	2	0,0026885	dRep_bin191_NGFJMLOL_00833;dRep_bin232_JGAEDAFA_01184;dRep_bin073_AKBCEHHO_00245;dRep_bin307_AOCKHIKF_00684;dRep_bin098_DDEBHDKK_00679	dRep_bin191_NGFJMLOL_00833;dRep_bin232_JGAEDAFA_01184;dRep_bin073_AKBCEHHO_00245;dRep_bin307_AOCKHIKF_00684;dRep_bin098_DDEBHDKK_00679	>dRep_bin191_NGFJMLOL_00833 Deoxyguanosinetriphosphate triphosphohydrolase;>dRep_bin232_JGAEDAFA_01184 Deoxyguanosinetriphosphate triphosphohydrolase;>dRep_bin073_AKBCEHHO_00245 Deoxyguanosinetriphosphate triphosphohydrolase;>dRep_bin307_AOCKHIKF_00684 Deo	dRep_bin073_AKBCEHHO_00245	CDS	dgt	3.1.5.1	Deoxyguanosinetriphosphate triphosphohydrolase
AKBCEHHO_00247	26.269619999999996	26.99216	25.94989	26.557990000000004	26.24701	25.93537	26.206519999999998	25.773139999999998				8	1	8,4836E-31	dRep_bin063_PJANDMAH_00389;dRep_bin034_MEBMFDLL_00308;dRep_bin198_GMLJKALI_01303;dRep_bin113_LIFKCGBF_00662;dRep_bin232_JGAEDAFA_01186;dRep_bin271_NGFBCHKH_00718;dRep_bin073_AKBCEHHO_00247;dRep_bin084_CGBIKHBH_01149;dRep_bin064_CMDDCDKG_00772;dRep_bin170_LICLFCFF_00595;dRep_bin137_NABPABPB_00708;dRep_bin289_KALDCNNP_00185;dRep_bin165_HMDFFMMM_00712;dRep_bin112_NDMGAKCH_00657	dRep_bin063_PJANDMAH_00389;dRep_bin034_MEBMFDLL_00308;dRep_bin198_GMLJKALI_01303;dRep_bin113_LIFKCGBF_00662;dRep_bin232_JGAEDAFA_01186;dRep_bin271_NGFBCHKH_00718;dRep_bin073_AKBCEHHO_00247;dRep_bin084_CGBIKHBH_01149	>dRep_bin063_PJANDMAH_00389 Serine hydroxymethyltransferase;>dRep_bin034_MEBMFDLL_00308 Serine hydroxymethyltransferase;>dRep_bin198_GMLJKALI_01303 Serine hydroxymethyltransferase;>dRep_bin113_LIFKCGBF_00662 Serine hydroxymethyltransferase;>dRep_bin232_JGA	dRep_bin073_AKBCEHHO_00247	CDS	glyA	2.1.2.1	Serine hydroxymethyltransferase
AKBCEHHO_00255	28.905639999999995	28.66282	28.74881	28.7228	28.85225	29.374350000000003	28.45709	28.44399				16	0	0	dRep_bin073_AKBCEHHO_00255	dRep_bin073_AKBCEHHO_00255	>dRep_bin073_AKBCEHHO_00255 Glyceraldehyde-3-phosphate dehydrogenase A	dRep_bin073_AKBCEHHO_00255	CDS	gapA	1.2.1.12	Glyceraldehyde-3-phosphate dehydrogenase A
AKBCEHHO_00279	26.265909999999998	25.382939999999998	27.448609999999995	27.84296	28.117390000000004	29.25124	27.754360000000002	28.0574				9	7	2,9816E-86	dRep_bin191_NGFJMLOL_00369;dRep_bin196_BIELHBNH_01132;dRep_bin138_EJGHNBMI_01180;dRep_bin070_EMBHKIOF_00250;dRep_bin137_NABPABPB_00348;dRep_bin113_LIFKCGBF_00911;dRep_bin289_KALDCNNP_01803;dRep_bin063_PJANDMAH_00888;dRep_bin036_DOKCEIDH_00839;dRep_bin034_MEBMFDLL_01348;dRep_bin285_IPHKFJAN_01431;dRep_bin045_GJACFFBC_00792;dRep_bin307_AOCKHIKF_01565;dRep_bin198_GMLJKALI_01284;dRep_bin084_CGBIKHBH_00335;dRep_bin098_DDEBHDKK_01704;dRep_bin112_NDMGAKCH_00415;dRep_bin294_EHJINIDK_00887;dRep_bin271_NGFBCHKH_00520;dRep_bin073_AKBCEHHO_00279	dRep_bin191_NGFJMLOL_00369	>dRep_bin191_NGFJMLOL_00369 8-amino-7-oxononanoate synthase	dRep_bin073_AKBCEHHO_00279	CDS	bioF	2.3.1.47	8-amino-7-oxononanoate synthase
AKBCEHHO_00354					25.40882	26.47308	26.490299999999998	25.88292				4	3	4,4491E-09	dRep_bin138_EJGHNBMI_01639;dRep_bin307_AOCKHIKF_01086;dRep_bin098_DDEBHDKK_00713;dRep_bin329_GDOHKPBL_00419;dRep_bin191_NGFJMLOL_00847;dRep_bin170_LICLFCFF_00965;dRep_bin165_HMDFFMMM_00927;dRep_bin113_LIFKCGBF_01112;dRep_bin224_NFENHJGB_00298;dRep_bin314_KCHFPLIP_00004;dRep_bin331_HPKAPHAF_00061;dRep_bin232_JGAEDAFA_00713;dRep_bin183_FPGIOKBG_01695;dRep_bin112_NDMGAKCH_01187;dRep_bin002_CFBNDKDN_01131;dRep_bin084_CGBIKHBH_00935;dRep_bin346_JKFDGFHC_01179;dRep_bin289_KALDCNNP_00795;dRep_bin285_IPHKFJAN_01930;dRep_bin196_BIELHBNH_00336;dRep_bin137_NABPABPB_01184;dRep_bin036_DOKCEIDH_00725;dRep_bin131_HLFNHDGI_00904;dRep_bin064_CMDDCDKG_01223;dRep_bin045_GJACFFBC_00259;dRep_bin301_NJFJIJGA_00332;dRep_bin022_BOEAFNDE_00400;dRep_bin298_EIPJCOMF_00358;dRep_bin073_AKBCEHHO_00354;dRep_bin070_EMBHKIOF_00023;dRep_bin271_NGFBCHKH_00636;dRep_bin035_JBNPBOKG_01003;dRep_bin296_FDMPKPOH_01310;dRep_bin294_EHJINIDK_01251;dRep_bin028_GKEJLBAM_01831;dRep_bin229_FFOBPPJI_00533;dRep_bin210_AGEDAEIA_01547;dRep_bin118_FGIOKLBC_00954;dRep_bin037_GEAOEKHA_01502;dRep_bin034_MEBMFDLL_00160	dRep_bin138_EJGHNBMI_01639;dRep_bin307_AOCKHIKF_01086;dRep_bin098_DDEBHDKK_00713;dRep_bin329_GDOHKPBL_00419;dRep_bin191_NGFJMLOL_00847;dRep_bin170_LICLFCFF_00965;dRep_bin165_HMDFFMMM_00927;dRep_bin113_LIFKCGBF_01112;dRep_bin224_NFENHJGB_00298;dRep_bin314_KCHFPLIP_00004;dRep_bin331_HPKAPHAF_00061;dRep_bin232_JGAEDAFA_00713;dRep_bin183_FPGIOKBG_01695;dRep_bin112_NDMGAKCH_01187;dRep_bin002_CFBNDKDN_01131;dRep_bin084_CGBIKHBH_00935;dRep_bin346_JKFDGFHC_01179;dRep_bin289_KALDCNNP_00795;dRep_bin285_IPHKFJAN_01930;dRep_bin196_BIELHBNH_00336;dRep_bin137_NABPABPB_01184;dRep_bin036_DOKCEIDH_00725;dRep_bin131_HLFNHDGI_00904;dRep_bin064_CMDDCDKG_01223;dRep_bin045_GJACFFBC_00259;dRep_bin301_NJFJIJGA_00332;dRep_bin022_BOEAFNDE_00400;dRep_bin298_EIPJCOMF_00358;dRep_bin073_AKBCEHHO_00354;dRep_bin070_EMBHKIOF_00023;dRep_bin271_NGFBCHKH_00636;dRep_bin035_JBNPBOKG_01003	>dRep_bin138_EJGHNBMI_01639 Glutamate--tRNA ligase;>dRep_bin307_AOCKHIKF_01086 Glutamate--tRNA ligase;>dRep_bin098_DDEBHDKK_00713 Glutamate--tRNA ligase;>dRep_bin329_GDOHKPBL_00419 Glutamate--tRNA ligase;>dRep_bin191_NGFJMLOL_00847 Glutamate--tRNA ligase;>	dRep_bin073_AKBCEHHO_00354	CDS	gltX	6.1.1.17	Glutamate--tRNA ligase
AKBCEHHO_00397				23.49448								2	1	7,5211E-06	dRep_bin084_CGBIKHBH_00461;dRep_bin073_AKBCEHHO_00397;dRep_bin285_IPHKFJAN_01660;dRep_bin183_FPGIOKBG_01267;dRep_bin165_HMDFFMMM_00240	dRep_bin084_CGBIKHBH_00461;dRep_bin073_AKBCEHHO_00397;dRep_bin285_IPHKFJAN_01660;dRep_bin183_FPGIOKBG_01267;dRep_bin165_HMDFFMMM_00240	>dRep_bin084_CGBIKHBH_00461 30S ribosomal protein S5;>dRep_bin073_AKBCEHHO_00397 30S ribosomal protein S5;>dRep_bin285_IPHKFJAN_01660 30S ribosomal protein S5;>dRep_bin183_FPGIOKBG_01267 30S ribosomal protein S5;>dRep_bin165_HMDFFMMM_00240 30S ribosomal pr	dRep_bin073_AKBCEHHO_00397	CDS	rpsE		30S ribosomal protein S5
AKBCEHHO_00404		25.775499999999997										2	1	4,3078E-32	dRep_bin073_AKBCEHHO_00404;dRep_bin070_EMBHKIOF_01188	dRep_bin073_AKBCEHHO_00404;dRep_bin070_EMBHKIOF_01188	>dRep_bin073_AKBCEHHO_00404 Meso-diaminopimelate D-dehydrogenase;>dRep_bin070_EMBHKIOF_01188 Meso-diaminopimelate D-dehydrogenase	dRep_bin073_AKBCEHHO_00404	CDS	ddh	1.4.1.16	Meso-diaminopimelate D-dehydrogenase
AKBCEHHO_00429	28.615830000000003	28.18546	29.82558	29.92139	30.37161	30.505309999999998	29.835990000000002	30.137000000000004				19	11	0	dRep_bin191_NGFJMLOL_01017;dRep_bin307_AOCKHIKF_00836;dRep_bin232_JGAEDAFA_01923;dRep_bin098_DDEBHDKK_00570;dRep_bin073_AKBCEHHO_00429;dRep_bin329_GDOHKPBL_00208;dRep_bin289_KALDCNNP_00441;dRep_bin219_HGPEELLF_00854;dRep_bin047_IFFANOMN_01143;dRep_bin354_MMOALAFN_00793;dRep_bin093_PGADNPMG_00569;dRep_bin327_EPEGNBAG_00694;dRep_bin123_PJKBFKBB_01119;dRep_bin325_EIIGOGHN_01520;dRep_bin335_JIOGNAPG_00036;dRep_bin082_HBEFABJN_00133;dRep_bin204_INMOGLDN_01573;dRep_bin174_LJJOKEME_01467;dRep_bin050_FBECOHCI_00562;dRep_bin264_DNFFGNEG_01376;dRep_bin252_NDAKLAGD_00172;dRep_bin246_MMFBABHK_01476;dRep_bin202_HEPPALPH_01125;dRep_bin004_OCHNPJPO_00139;dRep_bin318_IEDEJOFJ_00360;dRep_bin244_LBFMHLBI_01421;dRep_bin223_PIMCDKJI_00814;dRep_bin186_HJAAFFNP_00783;dRep_bin133_NOBPDBPA_02278;dRep_bin105_AAEIHAFF_01501;dRep_bin005_CNDFPKJG_01278;dRep_bin317_ABPHNCOD_01283;dRep_bin007_LNLEAAAN_00664;dRep_bin312_MJFEFHMP_01049;dRep_bin129_GADIAMAA_00560;dRep_bin065_DFABHCBI_00478;dRep_bin287_DONBGKDH_00800;dRep_bin238_OLNFACLE_00723;dRep_bin179_HFEIPPPA_01221;dRep_bin167_BLMEBMNN_00475;dRep_bin125_FADLGGII_00749;dRep_bin103_IGJBLKMC_00712;dRep_bin088_DNGPPFDK_00743;dRep_bin048_PABMBHAL_01780;dRep_bin348_LCLFDNEE_00919;dRep_bin278_BFCONKOE_00886;dRep_bin097_CBBLIPAN_00374;dRep_bin081_JDPCKDNP_01011;dRep_bin032_PPNIGLME_00057;dRep_bin272_LGBDGEIM_01074;dRep_bin049_MNFBDPNO_01322;dRep_bin013_IODPEDPB_01734;dRep_bin299_AKNBKJGM_01764;dRep_bin266_JFOCEDAE_00776;dRep_bin216_JNJMCPHB_01258;dRep_bin021_AJDDCGJC_00529;dRep_bin316_FNLHDNEO_00493;dRep_bin314_KCHFPLIP_01715;dRep_bin296_FDMPKPOH_01763;dRep_bin275_NIDIBBDA_00322;dRep_bin118_FGIOKLBC_00279;dRep_bin037_GEAOEKHA_00835;dRep_bin028_GKEJLBAM_01763;dRep_bin331_HPKAPHAF_00024;dRep_bin301_NJFJIJGA_01995;dRep_bin149_GABCHCDI_01177;dRep_bin057_BNCFHBBO_00918;dRep_bin040_EIFLLDOA_01272;dRep_bin265_LFKFBJPC_01505;dRep_bin022_BOEAFNDE_00753;dRep_bin210_AGEDAEIA_00448	dRep_bin191_NGFJMLOL_01017	>dRep_bin191_NGFJMLOL_01017 Aspartate aminotransferase	dRep_bin073_AKBCEHHO_00429	CDS		2.6.1.1	Aspartate aminotransferase
AKBCEHHO_00450		25.30744	27.366950000000003	26.114240000000002	28.8031	29.84742	27.367950000000004	28.02099				20	2	1,04E-100	dRep_bin191_NGFJMLOL_01299;dRep_bin138_EJGHNBMI_00239;dRep_bin346_JKFDGFHC_01257;dRep_bin036_DOKCEIDH_00826;dRep_bin183_FPGIOKBG_00488;dRep_bin331_HPKAPHAF_00454;dRep_bin232_JGAEDAFA_01447;dRep_bin196_BIELHBNH_01253;dRep_bin296_FDMPKPOH_01263;dRep_bin131_HLFNHDGI_00252;dRep_bin098_DDEBHDKK_00888;dRep_bin070_EMBHKIOF_01302;dRep_bin073_AKBCEHHO_00450;dRep_bin084_CGBIKHBH_01137;dRep_bin329_GDOHKPBL_01294;dRep_bin040_EIFLLDOA_01849;dRep_bin210_AGEDAEIA_00524;dRep_bin307_AOCKHIKF_00203;dRep_bin165_HMDFFMMM_01534;dRep_bin093_PGADNPMG_01180;dRep_bin022_BOEAFNDE_00338;dRep_bin035_JBNPBOKG_01124;dRep_bin229_FFOBPPJI_00119;dRep_bin118_FGIOKLBC_00645;dRep_bin028_GKEJLBAM_01034;dRep_bin128_JPBBHEMA_00126;dRep_bin290_OIOJKBNK_00154;dRep_bin092_OOJCPDEA_00297;dRep_bin351_CKFFBPHM_00653;dRep_bin110_JGOEJECF_00871;dRep_bin256_KEMNAOBC_00992;dRep_bin071_JHMCIJPE_00892;dRep_bin316_FNLHDNEO_00335	dRep_bin191_NGFJMLOL_01299	>dRep_bin191_NGFJMLOL_01299 Methionine--tRNA ligase	dRep_bin073_AKBCEHHO_00450	CDS	metG	6.1.1.10	Methionine--tRNA ligase
AKBCEHHO_00467		25.58075										6	0	1,3543E-87	dRep_bin108_BPNCDINP_01326;dRep_bin089_PAJFOJBN_00301;dRep_bin300_MJPPENNL_00939;dRep_bin145_KMJJJOEJ_00792;dRep_bin091_MAFACGAD_01189;dRep_bin049_MNFBDPNO_00324;dRep_bin016_JLGAHGOJ_00954;dRep_bin157_JPNIKEKI_00961;dRep_bin297_EDHEEICA_00222;dRep_bin160_EFKMPBOM_02659;dRep_bin079_GAOGCKND_00457;dRep_bin068_ENOLAELK_00441;dRep_bin101_BNDDLDCL_01290;dRep_bin330_CODAKHDJ_00875;dRep_bin133_NOBPDBPA_00602;dRep_bin299_AKNBKJGM_01294;dRep_bin250_NMCAMJIO_01057;dRep_bin123_PJKBFKBB_00547;dRep_bin272_LGBDGEIM_01628;dRep_bin179_HFEIPPPA_01660;dRep_bin216_JNJMCPHB_01272;dRep_bin201_OLKDIBOK_01356;dRep_bin062_BOFBFLDA_00952;dRep_bin107_EFNBPDOP_00212;dRep_bin077_DNNBMPMC_01832;dRep_bin306_FGHMKMMP_01672;dRep_bin095_HOBNOEEF_00755;dRep_bin159_ADJJGPBG_00425;dRep_bin222_GGCAJABB_01443;dRep_bin310_IMBAFDIF_00623;dRep_bin181_MKGPMPIA_00586;dRep_bin074_EHAOMODJ_00159;dRep_bin073_AKBCEHHO_00467;dRep_bin285_IPHKFJAN_00913;dRep_bin228_CECEDMJG_00322;dRep_bin066_AJACLPEE_00029;dRep_bin276_EHNFLEBP_00509;dRep_bin021_AJDDCGJC_01318;dRep_bin104_EGLEJOLM_00960;dRep_bin327_EPEGNBAG_00068;dRep_bin241_LMMMGDNI_00158	dRep_bin108_BPNCDINP_01326;dRep_bin089_PAJFOJBN_00301;dRep_bin300_MJPPENNL_00939;dRep_bin145_KMJJJOEJ_00792;dRep_bin091_MAFACGAD_01189;dRep_bin049_MNFBDPNO_00324;dRep_bin016_JLGAHGOJ_00954;dRep_bin157_JPNIKEKI_00961;dRep_bin297_EDHEEICA_00222;dRep_bin160_EFKMPBOM_02659;dRep_bin079_GAOGCKND_00457;dRep_bin068_ENOLAELK_00441;dRep_bin101_BNDDLDCL_01290;dRep_bin330_CODAKHDJ_00875;dRep_bin133_NOBPDBPA_00602;dRep_bin299_AKNBKJGM_01294;dRep_bin250_NMCAMJIO_01057;dRep_bin123_PJKBFKBB_00547;dRep_bin272_LGBDGEIM_01628;dRep_bin179_HFEIPPPA_01660;dRep_bin216_JNJMCPHB_01272;dRep_bin201_OLKDIBOK_01356;dRep_bin062_BOFBFLDA_00952;dRep_bin107_EFNBPDOP_00212;dRep_bin077_DNNBMPMC_01832;dRep_bin306_FGHMKMMP_01672;dRep_bin095_HOBNOEEF_00755;dRep_bin159_ADJJGPBG_00425;dRep_bin222_GGCAJABB_01443;dRep_bin310_IMBAFDIF_00623;dRep_bin181_MKGPMPIA_00586;dRep_bin074_EHAOMODJ_00159	>dRep_bin108_BPNCDINP_01326 Pyridoxal 5-phosphate synthase subunit PdxS;>dRep_bin089_PAJFOJBN_00301 Pyridoxal 5-phosphate synthase subunit PdxS;>dRep_bin300_MJPPENNL_00939 Pyridoxal 5-phosphate synthase subunit PdxS;>dRep_bin145_KMJJJOEJ_00792 Pyridoxal	dRep_bin073_AKBCEHHO_00467	CDS	pdxS	4.3.3.6	Pyridoxal 5'-phosphate synthase subunit PdxS
AKBCEHHO_00480				28.4103	27.16739	25.41458		25.13548				3	3	3,2495E-10	dRep_bin084_CGBIKHBH_01731;dRep_bin232_JGAEDAFA_01176;dRep_bin073_AKBCEHHO_00480;dRep_bin070_EMBHKIOF_01278;dRep_bin037_GEAOEKHA_01661;dRep_bin229_FFOBPPJI_00394	dRep_bin084_CGBIKHBH_01731	>dRep_bin084_CGBIKHBH_01731 10 kDa chaperonin	dRep_bin073_AKBCEHHO_00480	CDS	groS3		10 kDa chaperonin 3
AKBCEHHO_00481	27.537940000000003	24.16776	23.8723	25.017120000000002	26.0939							10	8	1,1982E-232	dRep_bin232_JGAEDAFA_01175;dRep_bin073_AKBCEHHO_00481	dRep_bin232_JGAEDAFA_01175	>dRep_bin232_JGAEDAFA_01175 60 kDa chaperonin	dRep_bin073_AKBCEHHO_00481	CDS	groL		60 kDa chaperonin
AKBCEHHO_00484					26.925699999999996	26.822739999999996	26.38225	27.293339999999997				5	5	1,1381E-20	dRep_bin285_IPHKFJAN_01949;dRep_bin112_NDMGAKCH_01783;dRep_bin224_NFENHJGB_00095;dRep_bin294_EHJINIDK_01216;dRep_bin314_KCHFPLIP_00719;dRep_bin070_EMBHKIOF_00297;dRep_bin037_GEAOEKHA_01445;dRep_bin331_HPKAPHAF_00560;dRep_bin073_AKBCEHHO_00484	dRep_bin285_IPHKFJAN_01949	>dRep_bin285_IPHKFJAN_01949 Glycosyl hydrolase family 109 protein 1	dRep_bin073_AKBCEHHO_00484	CDS		3.2.1.-	Glycosyl hydrolase family 109 protein 1
AKBCEHHO_00498	26.36048	23.81519	28.063319999999997	26.491139999999998	29.06917	30.1899	27.114760000000004	29.002309999999998				14	13	2,6284E-116	dRep_bin285_IPHKFJAN_01121;dRep_bin036_DOKCEIDH_00223;dRep_bin346_JKFDGFHC_01138;dRep_bin296_FDMPKPOH_01565;dRep_bin073_AKBCEHHO_00498;dRep_bin191_NGFJMLOL_00803;dRep_bin165_HMDFFMMM_00906;dRep_bin113_LIFKCGBF_00555;dRep_bin113_LIFKCGBF_00115;dRep_bin034_MEBMFDLL_01808;dRep_bin183_FPGIOKBG_02161;dRep_bin002_CFBNDKDN_00701	dRep_bin285_IPHKFJAN_01121	>dRep_bin285_IPHKFJAN_01121 Galactokinase	dRep_bin073_AKBCEHHO_00498	CDS	galK	2.7.1.6	Galactokinase
AKBCEHHO_00522					24.32992	24.79347	23.816070000000003	23.956509999999998				3	3	4,0821E-06	dRep_bin191_NGFJMLOL_01377;dRep_bin137_NABPABPB_00748;dRep_bin170_LICLFCFF_00505;dRep_bin224_NFENHJGB_01127;dRep_bin285_IPHKFJAN_00693;dRep_bin298_EIPJCOMF_00080;dRep_bin064_CMDDCDKG_00619;dRep_bin063_PJANDMAH_00028;dRep_bin034_MEBMFDLL_01789;dRep_bin196_BIELHBNH_01434;dRep_bin346_JKFDGFHC_00596;dRep_bin036_DOKCEIDH_00917;dRep_bin294_EHJINIDK_00385;dRep_bin002_CFBNDKDN_01994;dRep_bin329_GDOHKPBL_00689;dRep_bin232_JGAEDAFA_01589;dRep_bin289_KALDCNNP_01262;dRep_bin073_AKBCEHHO_00522;dRep_bin131_HLFNHDGI_01233	dRep_bin191_NGFJMLOL_01377;dRep_bin137_NABPABPB_00748;dRep_bin170_LICLFCFF_00505;dRep_bin224_NFENHJGB_01127	>dRep_bin191_NGFJMLOL_01377 1,4-alpha-glucan branching enzyme GlgB;>dRep_bin137_NABPABPB_00748 1,4-alpha-glucan branching enzyme GlgB;>dRep_bin170_LICLFCFF_00505 1,4-alpha-glucan branching enzyme GlgB;>dRep_bin224_NFENHJGB_01127 1,4-alpha-glucan branching	dRep_bin073_AKBCEHHO_00522	CDS	glgB	2.4.1.18	1,4-alpha-glucan branching enzyme GlgB
AKBCEHHO_00545	23.765169999999998	22.0473	24.52737	22.837360000000004								3	3	3,2182E-10	dRep_bin002_CFBNDKDN_01397;dRep_bin037_GEAOEKHA_00198;dRep_bin296_FDMPKPOH_01526;dRep_bin232_JGAEDAFA_01803;dRep_bin070_EMBHKIOF_00105;dRep_bin073_AKBCEHHO_00545	dRep_bin002_CFBNDKDN_01397;dRep_bin037_GEAOEKHA_00198	>dRep_bin002_CFBNDKDN_01397 2-oxoglutarate oxidoreductase subunit KorA;>dRep_bin037_GEAOEKHA_00198 2-oxoglutarate oxidoreductase subunit KorA	dRep_bin073_AKBCEHHO_00545	CDS	korA_1	1.2.7.3	2-oxoglutarate oxidoreductase subunit KorA
AKBCEHHO_00591						24.33872						4	1	1,6897E-17	dRep_bin112_NDMGAKCH_01491;dRep_bin137_NABPABPB_00529;dRep_bin037_GEAOEKHA_00607;dRep_bin307_AOCKHIKF_01180;dRep_bin098_DDEBHDKK_00841;dRep_bin329_GDOHKPBL_01567;dRep_bin271_NGFBCHKH_00534;dRep_bin198_GMLJKALI_01079;dRep_bin064_CMDDCDKG_00577;dRep_bin294_EHJINIDK_01696;dRep_bin296_FDMPKPOH_01580;dRep_bin045_GJACFFBC_01789;dRep_bin314_KCHFPLIP_00701;dRep_bin289_KALDCNNP_01779;dRep_bin301_NJFJIJGA_01652;dRep_bin331_HPKAPHAF_01064;dRep_bin070_EMBHKIOF_00380;dRep_bin073_AKBCEHHO_00591;dRep_bin084_CGBIKHBH_00848;dRep_bin232_JGAEDAFA_01093	dRep_bin112_NDMGAKCH_01491;dRep_bin137_NABPABPB_00529;dRep_bin037_GEAOEKHA_00607;dRep_bin307_AOCKHIKF_01180;dRep_bin098_DDEBHDKK_00841;dRep_bin329_GDOHKPBL_01567;dRep_bin271_NGFBCHKH_00534;dRep_bin198_GMLJKALI_01079;dRep_bin064_CMDDCDKG_00577;dRep_bin294_EHJINIDK_01696	>dRep_bin112_NDMGAKCH_01491 Asparagine--tRNA ligase;>dRep_bin137_NABPABPB_00529 Asparagine--tRNA ligase;>dRep_bin037_GEAOEKHA_00607 Asparagine--tRNA ligase;>dRep_bin307_AOCKHIKF_01180 Asparagine--tRNA ligase;>dRep_bin098_DDEBHDKK_00841 Asparagine--tRNA lig	dRep_bin073_AKBCEHHO_00591	CDS	asnS	6.1.1.22	Asparagine--tRNA ligase
AKBCEHHO_00630					25.900119999999998	27.46987	26.849950000000003	26.325139999999998				4	0	3,2743E-28	dRep_bin307_AOCKHIKF_00160;dRep_bin098_DDEBHDKK_00652;dRep_bin183_FPGIOKBG_00590;dRep_bin128_JPBBHEMA_00391;dRep_bin137_NABPABPB_01015;dRep_bin198_GMLJKALI_00983;dRep_bin112_NDMGAKCH_00558;dRep_bin073_AKBCEHHO_00630;dRep_bin111_FPJIHFKE_01146;dRep_bin064_CMDDCDKG_00952;dRep_bin070_EMBHKIOF_00143;dRep_bin037_GEAOEKHA_00627;dRep_bin314_KCHFPLIP_01340;dRep_bin232_JGAEDAFA_00436;dRep_bin290_OIOJKBNK_01502;dRep_bin136_NAIECEIF_00125;dRep_bin018_ILOONPIC_00511;dRep_bin110_JGOEJECF_00059;dRep_bin092_OOJCPDEA_01586;dRep_bin271_NGFBCHKH_00234;dRep_bin224_NFENHJGB_01651;dRep_bin084_CGBIKHBH_01000;dRep_bin346_JKFDGFHC_00749;dRep_bin036_DOKCEIDH_01514;dRep_bin002_CFBNDKDN_00078;dRep_bin351_CKFFBPHM_00883;dRep_bin289_KALDCNNP_01019;dRep_bin298_EIPJCOMF_00289;dRep_bin229_FFOBPPJI_00563;dRep_bin275_NIDIBBDA_01303;dRep_bin210_AGEDAEIA_00620;dRep_bin104_EGLEJOLM_00781;dRep_bin257_JHFDCHCB_01689;dRep_bin097_CBBLIPAN_01153;dRep_bin337_FHKPNFDB_01364;dRep_bin335_JIOGNAPG_00046;dRep_bin282_PKAAPBFP_01042;dRep_bin234_ECABPBME_00099;dRep_bin135_HHKACLPM_00078;dRep_bin089_PAJFOJBN_00724;dRep_bin088_DNGPPFDK_00540;dRep_bin075_EPEMMOCL_00011;dRep_bin035_JBNPBOKG_00075;dRep_bin093_PGADNPMG_00660;dRep_bin169_PNICKJKO_01447;dRep_bin230_NINMBMKB_00368;dRep_bin294_EHJINIDK_00696;dRep_bin028_GKEJLBAM_00575;dRep_bin014_CHIHIMAN_01200;dRep_bin355_KJEFNADK_00480;dRep_bin063_PJANDMAH_00595;dRep_bin034_MEBMFDLL_01871;dRep_bin320_LDBKCCKL_00526;dRep_bin301_NJFJIJGA_01347;dRep_bin149_GABCHCDI_01402;dRep_bin310_IMBAFDIF_01474;dRep_bin242_LKAIBGGJ_00169;dRep_bin181_MKGPMPIA_00142;dRep_bin267_LJCFMAFA_00611;dRep_bin306_FGHMKMMP_00339;dRep_bin150_HCDEOBMH_01051;dRep_bin091_MAFACGAD_01386;dRep_bin040_EIFLLDOA_01982;dRep_bin005_CNDFPKJG_00382;dRep_bin333_EFOKIBLA_01313;dRep_bin317_ABPHNCOD_01616;dRep_bin081_JDPCKDNP_00758;dRep_bin138_EJGHNBMI_00536;dRep_bin162_JBGCCDIN_00612;dRep_bin272_LGBDGEIM_00307;dRep_bin168_HKDILBFE_01242;dRep_bin118_FGIOKLBC_01317	dRep_bin307_AOCKHIKF_00160;dRep_bin098_DDEBHDKK_00652;dRep_bin183_FPGIOKBG_00590;dRep_bin128_JPBBHEMA_00391;dRep_bin137_NABPABPB_01015;dRep_bin198_GMLJKALI_00983;dRep_bin112_NDMGAKCH_00558;dRep_bin073_AKBCEHHO_00630;dRep_bin111_FPJIHFKE_01146;dRep_bin064_CMDDCDKG_00952;dRep_bin070_EMBHKIOF_00143;dRep_bin037_GEAOEKHA_00627;dRep_bin314_KCHFPLIP_01340;dRep_bin232_JGAEDAFA_00436;dRep_bin290_OIOJKBNK_01502;dRep_bin136_NAIECEIF_00125;dRep_bin018_ILOONPIC_00511;dRep_bin110_JGOEJECF_00059;dRep_bin092_OOJCPDEA_01586;dRep_bin271_NGFBCHKH_00234;dRep_bin224_NFENHJGB_01651;dRep_bin084_CGBIKHBH_01000;dRep_bin346_JKFDGFHC_00749;dRep_bin036_DOKCEIDH_01514;dRep_bin002_CFBNDKDN_00078;dRep_bin351_CKFFBPHM_00883;dRep_bin289_KALDCNNP_01019;dRep_bin298_EIPJCOMF_00289;dRep_bin229_FFOBPPJI_00563;dRep_bin275_NIDIBBDA_01303;dRep_bin210_AGEDAEIA_00620;dRep_bin104_EGLEJOLM_00781;dRep_bin257_JHFDCHCB_01689;dRep_bin097_CBBLIPAN_01153;dRep_bin337_FHKPNFDB_01364;dRep_bin335_JIOGNAPG_00046;dRep_bin282_PKAAPBFP_01042;dRep_bin234_ECABPBME_00099;dRep_bin135_HHKACLPM_00078;dRep_bin089_PAJFOJBN_00724;dRep_bin088_DNGPPFDK_00540;dRep_bin075_EPEMMOCL_00011;dRep_bin035_JBNPBOKG_00075;dRep_bin093_PGADNPMG_00660	>dRep_bin307_AOCKHIKF_00160 NADPH-dependent 7-cyano-7-deazaguanine reductase;>dRep_bin098_DDEBHDKK_00652 NADPH-dependent 7-cyano-7-deazaguanine reductase;>dRep_bin183_FPGIOKBG_00590 NADPH-dependent 7-cyano-7-deazaguanine reductase;>dRep_bin128_JPBBHEMA_003	dRep_bin073_AKBCEHHO_00630	CDS	queF	1.7.1.13	NADPH-dependent 7-cyano-7-deazaguanine reductase
AKBCEHHO_00632		24.614310000000003	27.88885		28.70757	28.35132	28.171930000000003	28.87804				19	12	2,2441E-86	dRep_bin191_NGFJMLOL_00358;dRep_bin113_LIFKCGBF_00829;dRep_bin329_GDOHKPBL_01071;dRep_bin196_BIELHBNH_00577;dRep_bin170_LICLFCFF_00911;dRep_bin137_NABPABPB_01569;dRep_bin271_NGFBCHKH_00604;dRep_bin138_EJGHNBMI_00187;dRep_bin298_EIPJCOMF_00668;dRep_bin112_NDMGAKCH_01400;dRep_bin294_EHJINIDK_01508;dRep_bin289_KALDCNNP_01396;dRep_bin036_DOKCEIDH_01336;dRep_bin034_MEBMFDLL_00299;dRep_bin224_NFENHJGB_00174;dRep_bin198_GMLJKALI_01279;dRep_bin275_NIDIBBDA_01228;dRep_bin149_GABCHCDI_00916;dRep_bin064_CMDDCDKG_00631;dRep_bin063_PJANDMAH_01637;dRep_bin118_FGIOKLBC_01615;dRep_bin331_HPKAPHAF_01876;dRep_bin002_CFBNDKDN_00097;dRep_bin232_JGAEDAFA_00433;dRep_bin073_AKBCEHHO_00632	dRep_bin191_NGFJMLOL_00358;dRep_bin113_LIFKCGBF_00829	>dRep_bin191_NGFJMLOL_00358 Lysine--tRNA ligase;>dRep_bin113_LIFKCGBF_00829 Lysine--tRNA ligase	dRep_bin073_AKBCEHHO_00632	CDS	lysS	6.1.1.6	Lysine--tRNA ligase
AKBCEHHO_00635			24.553739999999998	26.11811								7	6	1,4291E-40	dRep_bin084_CGBIKHBH_01403;dRep_bin073_AKBCEHHO_00635;dRep_bin084_CGBIKHBH_00561;dRep_bin165_HMDFFMMM_00033;dRep_bin232_JGAEDAFA_01360	dRep_bin084_CGBIKHBH_01403	>dRep_bin084_CGBIKHBH_01403 O-GlcNAcase	dRep_bin073_AKBCEHHO_00635	CDS		3.2.1.169	O-GlcNAcase
AKBCEHHO_00643	27.272039999999997	27.780129999999996	29.73712	30.60973	29.41577	28.615830000000003	28.414460000000002	28.125729999999997				6	5	3,4375E-46	dRep_bin191_NGFJMLOL_00054;dRep_bin285_IPHKFJAN_00952;dRep_bin170_LICLFCFF_00270;dRep_bin137_NABPABPB_00686;dRep_bin165_HMDFFMMM_00628;dRep_bin331_HPKAPHAF_01662;dRep_bin329_GDOHKPBL_00586;dRep_bin314_KCHFPLIP_01316;dRep_bin307_AOCKHIKF_00097;dRep_bin298_EIPJCOMF_01280;dRep_bin232_JGAEDAFA_00932;dRep_bin196_BIELHBNH_01067;dRep_bin183_FPGIOKBG_02202;dRep_bin138_EJGHNBMI_00815;dRep_bin098_DDEBHDKK_01564;dRep_bin084_CGBIKHBH_01228;dRep_bin073_AKBCEHHO_00643;dRep_bin070_EMBHKIOF_00265;dRep_bin037_GEAOEKHA_01109;dRep_bin002_CFBNDKDN_00880	dRep_bin191_NGFJMLOL_00054	>dRep_bin191_NGFJMLOL_00054 50S ribosomal protein L21	dRep_bin073_AKBCEHHO_00643	CDS	rplU		50S ribosomal protein L21
AKBCEHHO_00651	27.86455	28.61523	26.820429999999998	28.09376	26.813110000000002	26.16955	25.862379999999998	25.543419999999998				7	2	2,2957E-62	dRep_bin005_CNDFPKJG_01079;dRep_bin073_AKBCEHHO_00651;dRep_bin205_LKIOOBKC_00580	dRep_bin005_CNDFPKJG_01079	>dRep_bin005_CNDFPKJG_01079 Rubrerythrin-1	dRep_bin073_AKBCEHHO_00651	CDS	rbr1	1.11.1.1	Rubrerythrin-1
AKBCEHHO_00659		24.23162		25.34462	25.5096	25.104060000000004	24.828229999999998	25.679820000000003				2	1	2,7486E-14	dRep_bin073_AKBCEHHO_00659;dRep_bin232_JGAEDAFA_01441;dRep_bin084_CGBIKHBH_00026	dRep_bin073_AKBCEHHO_00659;dRep_bin232_JGAEDAFA_01441;dRep_bin084_CGBIKHBH_00026	>dRep_bin073_AKBCEHHO_00659 Thioredoxin reductase;>dRep_bin232_JGAEDAFA_01441 Thioredoxin reductase;>dRep_bin084_CGBIKHBH_00026 Thioredoxin reductase	dRep_bin073_AKBCEHHO_00659	CDS	trxB	1.8.1.9	Thioredoxin reductase
AKBCEHHO_00698					25.05743							6	0	2,9791E-48	dRep_bin191_NGFJMLOL_01698;dRep_bin073_AKBCEHHO_00698;dRep_bin138_EJGHNBMI_00387;dRep_bin040_EIFLLDOA_01536;dRep_bin275_NIDIBBDA_01445	dRep_bin191_NGFJMLOL_01698	>dRep_bin191_NGFJMLOL_01698 GTP-binding protein TypA/BipA	dRep_bin073_AKBCEHHO_00698	CDS	typA		GTP-binding protein TypA/BipA
AKBCEHHO_00710					26.78905							3	1	2,9994E-56	dRep_bin064_CMDDCDKG_00598;dRep_bin298_EIPJCOMF_01516;dRep_bin289_KALDCNNP_01128;dRep_bin137_NABPABPB_00737;dRep_bin271_NGFBCHKH_00768;dRep_bin198_GMLJKALI_00972;dRep_bin036_DOKCEIDH_00889;dRep_bin346_JKFDGFHC_00290;dRep_bin224_NFENHJGB_01536;dRep_bin063_PJANDMAH_00409;dRep_bin034_MEBMFDLL_01911;dRep_bin170_LICLFCFF_01809;dRep_bin112_NDMGAKCH_00311;dRep_bin073_AKBCEHHO_00710;dRep_bin037_GEAOEKHA_00265;dRep_bin331_HPKAPHAF_01029;dRep_bin165_HMDFFMMM_01382;dRep_bin314_KCHFPLIP_00442;dRep_bin070_EMBHKIOF_00368;dRep_bin111_FPJIHFKE_00002;dRep_bin035_JBNPBOKG_00423;dRep_bin028_GKEJLBAM_01067;dRep_bin040_EIFLLDOA_00213;dRep_bin084_CGBIKHBH_00590	dRep_bin064_CMDDCDKG_00598;dRep_bin298_EIPJCOMF_01516;dRep_bin289_KALDCNNP_01128;dRep_bin137_NABPABPB_00737;dRep_bin271_NGFBCHKH_00768;dRep_bin198_GMLJKALI_00972;dRep_bin036_DOKCEIDH_00889;dRep_bin346_JKFDGFHC_00290;dRep_bin224_NFENHJGB_01536;dRep_bin063_PJANDMAH_00409;dRep_bin034_MEBMFDLL_01911;dRep_bin170_LICLFCFF_01809;dRep_bin112_NDMGAKCH_00311	>dRep_bin064_CMDDCDKG_00598 ATP-dependent Clp protease proteolytic subunit;>dRep_bin298_EIPJCOMF_01516 ATP-dependent Clp protease proteolytic subunit;>dRep_bin289_KALDCNNP_01128 ATP-dependent Clp protease proteolytic subunit;>dRep_bin137_NABPABPB_00737 ATP	dRep_bin073_AKBCEHHO_00710	CDS	clpP	3.4.21.92	ATP-dependent Clp protease proteolytic subunit
AKBCEHHO_00727					26.138250000000003		26.50118	25.82379				3	1	3,9211E-13	dRep_bin196_BIELHBNH_00173;dRep_bin191_NGFJMLOL_00016;dRep_bin113_LIFKCGBF_00426;dRep_bin183_FPGIOKBG_01964;dRep_bin045_GJACFFBC_01161;dRep_bin036_DOKCEIDH_00128;dRep_bin138_EJGHNBMI_00869;dRep_bin289_KALDCNNP_00768;dRep_bin137_NABPABPB_00386;dRep_bin301_NJFJIJGA_00903;dRep_bin307_AOCKHIKF_01369;dRep_bin232_JGAEDAFA_01196;dRep_bin198_GMLJKALI_00654;dRep_bin112_NDMGAKCH_00435;dRep_bin098_DDEBHDKK_01101;dRep_bin073_AKBCEHHO_00727;dRep_bin063_PJANDMAH_00085;dRep_bin034_MEBMFDLL_00429;dRep_bin064_CMDDCDKG_00924;dRep_bin296_FDMPKPOH_02041;dRep_bin070_EMBHKIOF_00446;dRep_bin294_EHJINIDK_00220;dRep_bin170_LICLFCFF_00114;dRep_bin002_CFBNDKDN_00923;dRep_bin331_HPKAPHAF_00956;dRep_bin298_EIPJCOMF_00504;dRep_bin275_NIDIBBDA_01822;dRep_bin229_FFOBPPJI_01199;dRep_bin224_NFENHJGB_00678;dRep_bin131_HLFNHDGI_00746;dRep_bin118_FGIOKLBC_01299;dRep_bin314_KCHFPLIP_00579;dRep_bin040_EIFLLDOA_01380	dRep_bin196_BIELHBNH_00173;dRep_bin191_NGFJMLOL_00016;dRep_bin113_LIFKCGBF_00426;dRep_bin183_FPGIOKBG_01964;dRep_bin045_GJACFFBC_01161;dRep_bin036_DOKCEIDH_00128;dRep_bin138_EJGHNBMI_00869;dRep_bin289_KALDCNNP_00768;dRep_bin137_NABPABPB_00386;dRep_bin301_NJFJIJGA_00903;dRep_bin307_AOCKHIKF_01369;dRep_bin232_JGAEDAFA_01196;dRep_bin198_GMLJKALI_00654;dRep_bin112_NDMGAKCH_00435;dRep_bin098_DDEBHDKK_01101;dRep_bin073_AKBCEHHO_00727;dRep_bin063_PJANDMAH_00085;dRep_bin034_MEBMFDLL_00429;dRep_bin064_CMDDCDKG_00924;dRep_bin296_FDMPKPOH_02041	>dRep_bin196_BIELHBNH_00173 Phosphoribosylformylglycinamidine cyclo-ligase;>dRep_bin191_NGFJMLOL_00016 Phosphoribosylformylglycinamidine cyclo-ligase;>dRep_bin113_LIFKCGBF_00426 Phosphoribosylformylglycinamidine cyclo-ligase;>dRep_bin183_FPGIOKBG_01964 Pho	dRep_bin073_AKBCEHHO_00727	CDS	purM	6.3.3.1	Phosphoribosylformylglycinamidine cyclo-ligase
AKBCEHHO_00756	25.79392	25.75287	26.592209999999998	27.15827	27.53919	28.05227	26.330450000000003	27.487379999999998				2	1	1,7513E-13	dRep_bin331_HPKAPHAF_00202;dRep_bin131_HLFNHDGI_00639;dRep_bin346_JKFDGFHC_00925;dRep_bin289_KALDCNNP_01185;dRep_bin307_AOCKHIKF_01533;dRep_bin296_FDMPKPOH_01400;dRep_bin165_HMDFFMMM_00797;dRep_bin098_DDEBHDKK_00100;dRep_bin084_CGBIKHBH_01431;dRep_bin298_EIPJCOMF_00313;dRep_bin070_EMBHKIOF_00062;dRep_bin037_GEAOEKHA_01272;dRep_bin198_GMLJKALI_00829;dRep_bin064_CMDDCDKG_01001;dRep_bin170_LICLFCFF_00550;dRep_bin314_KCHFPLIP_00377;dRep_bin028_GKEJLBAM_00511;dRep_bin118_FGIOKLBC_00351;dRep_bin045_GJACFFBC_01454;dRep_bin316_FNLHDNEO_00383;dRep_bin294_EHJINIDK_01092;dRep_bin232_JGAEDAFA_00204;dRep_bin073_AKBCEHHO_00756;dRep_bin224_NFENHJGB_00484;dRep_bin112_NDMGAKCH_00047;dRep_bin022_BOEAFNDE_00263;dRep_bin210_AGEDAEIA_01597;dRep_bin002_CFBNDKDN_00791	dRep_bin331_HPKAPHAF_00202;dRep_bin131_HLFNHDGI_00639;dRep_bin346_JKFDGFHC_00925;dRep_bin289_KALDCNNP_01185;dRep_bin307_AOCKHIKF_01533;dRep_bin296_FDMPKPOH_01400;dRep_bin165_HMDFFMMM_00797;dRep_bin098_DDEBHDKK_00100;dRep_bin084_CGBIKHBH_01431;dRep_bin298_EIPJCOMF_00313;dRep_bin070_EMBHKIOF_00062;dRep_bin037_GEAOEKHA_01272;dRep_bin198_GMLJKALI_00829;dRep_bin064_CMDDCDKG_01001;dRep_bin170_LICLFCFF_00550;dRep_bin314_KCHFPLIP_00377;dRep_bin028_GKEJLBAM_00511;dRep_bin118_FGIOKLBC_00351;dRep_bin045_GJACFFBC_01454;dRep_bin316_FNLHDNEO_00383;dRep_bin294_EHJINIDK_01092;dRep_bin232_JGAEDAFA_00204;dRep_bin073_AKBCEHHO_00756;dRep_bin224_NFENHJGB_00484;dRep_bin112_NDMGAKCH_00047;dRep_bin022_BOEAFNDE_00263;dRep_bin210_AGEDAEIA_01597;dRep_bin002_CFBNDKDN_00791	>dRep_bin331_HPKAPHAF_00202 3-methylmercaptopropionyl-CoA dehydrogenase;>dRep_bin131_HLFNHDGI_00639 3-methylmercaptopropionyl-CoA dehydrogenase;>dRep_bin346_JKFDGFHC_00925 3-methylmercaptopropionyl-CoA dehydrogenase;>dRep_bin289_KALDCNNP_01185 3-methylmerc	dRep_bin073_AKBCEHHO_00756	CDS	dmdC	1.3.8.-	3-methylmercaptopropionyl-CoA dehydrogenase
AKBCEHHO_00768	24.993389999999998	24.40295	26.9249	28.057650000000002	27.14277	27.080099999999998		26.059060000000002				1	1	9,4958E-06	dRep_bin345_GLPJDLOI_00186;dRep_bin232_JGAEDAFA_01764;dRep_bin210_AGEDAEIA_01537;dRep_bin118_FGIOKLBC_01282;dRep_bin093_PGADNPMG_01353;dRep_bin073_AKBCEHHO_00768;dRep_bin040_EIFLLDOA_00447;dRep_bin028_GKEJLBAM_00187;dRep_bin022_BOEAFNDE_00928;dRep_bin002_CFBNDKDN_02000	dRep_bin345_GLPJDLOI_00186;dRep_bin232_JGAEDAFA_01764;dRep_bin210_AGEDAEIA_01537;dRep_bin118_FGIOKLBC_01282;dRep_bin093_PGADNPMG_01353;dRep_bin073_AKBCEHHO_00768;dRep_bin040_EIFLLDOA_00447;dRep_bin028_GKEJLBAM_00187;dRep_bin022_BOEAFNDE_00928;dRep_bin002_CFBNDKDN_02000	>dRep_bin345_GLPJDLOI_00186 50S ribosomal protein L33 2;>dRep_bin232_JGAEDAFA_01764 50S ribosomal protein L33 2;>dRep_bin210_AGEDAEIA_01537 50S ribosomal protein L33 2;>dRep_bin118_FGIOKLBC_01282 50S ribosomal protein L33 2;>dRep_bin093_PGADNPMG_01353 50S	dRep_bin073_AKBCEHHO_00768	CDS	rpmG2		50S ribosomal protein L33 2
AKBCEHHO_00797	26.035970000000002	24.86967		24.3808								5	4	5,4172E-34	dRep_bin232_JGAEDAFA_01051;dRep_bin073_AKBCEHHO_00797;dRep_bin035_JBNPBOKG_01155;dRep_bin271_NGFBCHKH_00241;dRep_bin138_EJGHNBMI_00260;dRep_bin196_BIELHBNH_01233;dRep_bin111_FPJIHFKE_00813;dRep_bin331_HPKAPHAF_01759;dRep_bin183_FPGIOKBG_02005;dRep_bin346_JKFDGFHC_00183	dRep_bin232_JGAEDAFA_01051	>dRep_bin232_JGAEDAFA_01051 Protease 3	dRep_bin073_AKBCEHHO_00797	CDS	ptrA	3.4.24.55	Protease 3
AKBCEHHO_00805					26.02968							4	1	6,1883E-107	dRep_bin137_NABPABPB_01529;dRep_bin298_EIPJCOMF_00725;dRep_bin289_KALDCNNP_00408;dRep_bin271_NGFBCHKH_00538;dRep_bin070_EMBHKIOF_00832;dRep_bin064_CMDDCDKG_00560;dRep_bin034_MEBMFDLL_00411;dRep_bin170_LICLFCFF_01212;dRep_bin198_GMLJKALI_01075;dRep_bin224_NFENHJGB_00152;dRep_bin229_FFOBPPJI_00419;dRep_bin113_LIFKCGBF_01546;dRep_bin351_CKFFBPHM_00780;dRep_bin314_KCHFPLIP_01641;dRep_bin307_AOCKHIKF_00296;dRep_bin098_DDEBHDKK_00655;dRep_bin296_FDMPKPOH_00083;dRep_bin073_AKBCEHHO_00805;dRep_bin232_JGAEDAFA_00612	dRep_bin137_NABPABPB_01529;dRep_bin298_EIPJCOMF_00725;dRep_bin289_KALDCNNP_00408;dRep_bin271_NGFBCHKH_00538;dRep_bin070_EMBHKIOF_00832;dRep_bin064_CMDDCDKG_00560;dRep_bin034_MEBMFDLL_00411;dRep_bin170_LICLFCFF_01212	>dRep_bin137_NABPABPB_01529 Aspartate-semialdehyde dehydrogenase;>dRep_bin298_EIPJCOMF_00725 Aspartate-semialdehyde dehydrogenase;>dRep_bin289_KALDCNNP_00408 Aspartate-semialdehyde dehydrogenase;>dRep_bin271_NGFBCHKH_00538 Aspartate-semialdehyde dehydrogen	dRep_bin073_AKBCEHHO_00805	CDS	asd	1.2.1.11	Aspartate-semialdehyde dehydrogenase
AKBCEHHO_00820			27.11862	27.834370000000003	28.940589999999997	27.877070000000003	25.74083	26.228629999999995				9	1	3,0098E-114	dRep_bin113_LIFKCGBF_00576;dRep_bin112_NDMGAKCH_01758;dRep_bin073_AKBCEHHO_00820;dRep_bin084_CGBIKHBH_00295	dRep_bin113_LIFKCGBF_00576;dRep_bin112_NDMGAKCH_01758	>dRep_bin113_LIFKCGBF_00576 Glutamine synthetase;>dRep_bin112_NDMGAKCH_01758 Glutamine synthetase	dRep_bin073_AKBCEHHO_00820	CDS	glnA_2	6.3.1.2	Glutamine synthetase
AKBCEHHO_00909							27.700219999999998					6	1	3,2964E-105	dRep_bin036_DOKCEIDH_00754;dRep_bin137_NABPABPB_00270;dRep_bin346_JKFDGFHC_00024;dRep_bin138_EJGHNBMI_01328;dRep_bin271_NGFBCHKH_00632;dRep_bin002_CFBNDKDN_00158;dRep_bin045_GJACFFBC_01652;dRep_bin232_JGAEDAFA_01203;dRep_bin073_AKBCEHHO_00909	dRep_bin036_DOKCEIDH_00754;dRep_bin137_NABPABPB_00270;dRep_bin346_JKFDGFHC_00024;dRep_bin138_EJGHNBMI_01328;dRep_bin271_NGFBCHKH_00632;dRep_bin002_CFBNDKDN_00158;dRep_bin045_GJACFFBC_01652	>dRep_bin036_DOKCEIDH_00754 putative lipoprotein YiaD;>dRep_bin137_NABPABPB_00270 putative lipoprotein YiaD;>dRep_bin346_JKFDGFHC_00024 putative lipoprotein YiaD;>dRep_bin138_EJGHNBMI_01328 putative lipoprotein YiaD;>dRep_bin271_NGFBCHKH_00632 putative lip	dRep_bin073_AKBCEHHO_00909	CDS	motB		Motility protein B
AKBCEHHO_00919	25.67339											7	0	9,7146E-23	dRep_bin073_AKBCEHHO_00919	dRep_bin073_AKBCEHHO_00919	>dRep_bin073_AKBCEHHO_00919 hypothetical protein	dRep_bin073_AKBCEHHO_00919	CDS			hypothetical protein
AKBCEHHO_00951	27.737830000000002	27.624150000000004	27.848699999999997	28.028229999999997	28.68806	29.07314	27.50892	28.41413				9	3	3,4514E-51	dRep_bin170_LICLFCFF_00799;dRep_bin289_KALDCNNP_01295;dRep_bin063_PJANDMAH_01629;dRep_bin196_BIELHBNH_00104;dRep_bin002_CFBNDKDN_01323;dRep_bin232_JGAEDAFA_00003;dRep_bin073_AKBCEHHO_00951;dRep_bin329_GDOHKPBL_00661;dRep_bin346_JKFDGFHC_01057;dRep_bin271_NGFBCHKH_00658;dRep_bin138_EJGHNBMI_01078;dRep_bin034_MEBMFDLL_00647;dRep_bin070_EMBHKIOF_00097;dRep_bin307_AOCKHIKF_01398;dRep_bin098_DDEBHDKK_00601;dRep_bin045_GJACFFBC_01536;dRep_bin112_NDMGAKCH_00592;dRep_bin345_GLPJDLOI_01369	dRep_bin170_LICLFCFF_00799;dRep_bin289_KALDCNNP_01295;dRep_bin063_PJANDMAH_01629;dRep_bin196_BIELHBNH_00104;dRep_bin002_CFBNDKDN_01323	>dRep_bin170_LICLFCFF_00799 Phosphoribosylamine--glycine ligase;>dRep_bin289_KALDCNNP_01295 Phosphoribosylamine--glycine ligase;>dRep_bin063_PJANDMAH_01629 Phosphoribosylamine--glycine ligase;>dRep_bin196_BIELHBNH_00104 Phosphoribosylamine--glycine ligase;	dRep_bin073_AKBCEHHO_00951	CDS	purD	6.3.4.13	Phosphoribosylamine--glycine ligase
AKBCEHHO_00978								24.661880000000004				1	1	0,00013456	dRep_bin285_IPHKFJAN_00558;dRep_bin113_LIFKCGBF_00158;dRep_bin346_JKFDGFHC_01039;dRep_bin294_EHJINIDK_00047;dRep_bin198_GMLJKALI_00054;dRep_bin191_NGFJMLOL_00139;dRep_bin137_NABPABPB_00663;dRep_bin063_PJANDMAH_00189;dRep_bin036_DOKCEIDH_00664;dRep_bin034_MEBMFDLL_00251;dRep_bin329_GDOHKPBL_00722;dRep_bin170_LICLFCFF_00620;dRep_bin232_JGAEDAFA_00882;dRep_bin224_NFENHJGB_00693;dRep_bin073_AKBCEHHO_00978;dRep_bin138_EJGHNBMI_01270	dRep_bin285_IPHKFJAN_00558;dRep_bin113_LIFKCGBF_00158;dRep_bin346_JKFDGFHC_01039;dRep_bin294_EHJINIDK_00047;dRep_bin198_GMLJKALI_00054;dRep_bin191_NGFJMLOL_00139;dRep_bin137_NABPABPB_00663;dRep_bin063_PJANDMAH_00189;dRep_bin036_DOKCEIDH_00664;dRep_bin034_MEBMFDLL_00251;dRep_bin329_GDOHKPBL_00722;dRep_bin170_LICLFCFF_00620;dRep_bin232_JGAEDAFA_00882;dRep_bin224_NFENHJGB_00693;dRep_bin073_AKBCEHHO_00978;dRep_bin138_EJGHNBMI_01270	>dRep_bin285_IPHKFJAN_00558 Ribonuclease Y;>dRep_bin113_LIFKCGBF_00158 Ribonuclease Y;>dRep_bin346_JKFDGFHC_01039 Ribonuclease Y;>dRep_bin294_EHJINIDK_00047 Ribonuclease Y;>dRep_bin198_GMLJKALI_00054 Ribonuclease Y;>dRep_bin191_NGFJMLOL_00139 Ribonuclease	dRep_bin073_AKBCEHHO_00978	CDS	rny	3.1.-.-	Ribonuclease Y
AKBCEHHO_00987					25.10809	25.969719999999995	24.91255	24.8436				7	4	3,4733E-103	dRep_bin285_IPHKFJAN_00356;dRep_bin294_EHJINIDK_00334;dRep_bin275_NIDIBBDA_00784;dRep_bin002_CFBNDKDN_00133;dRep_bin073_AKBCEHHO_00987;dRep_bin045_GJACFFBC_01321;dRep_bin114_FJHJKHGL_01126;dRep_bin014_CHIHIMAN_01002;dRep_bin028_GKEJLBAM_01235;F1RMH5;dRep_bin040_EIFLLDOA_01438;dRep_bin317_ABPHNCOD_01176;dRep_bin018_ILOONPIC_01491;dRep_bin092_OOJCPDEA_01473;A0A287BPN5;dRep_bin071_JHMCIJPE_00860;dRep_bin136_NAIECEIF_00009	dRep_bin285_IPHKFJAN_00356;dRep_bin294_EHJINIDK_00334	>dRep_bin285_IPHKFJAN_00356 Urocanate hydratase;>dRep_bin294_EHJINIDK_00334 Urocanate hydratase	dRep_bin073_AKBCEHHO_00987	CDS	hutU	4.2.1.49	Urocanate hydratase
AKBCEHHO_00988						21.25747						1	1	0,00041322	dRep_bin170_LICLFCFF_00014;dRep_bin113_LIFKCGBF_00882;dRep_bin073_AKBCEHHO_00988;dRep_bin022_BOEAFNDE_00905;dRep_bin275_NIDIBBDA_00785;dRep_bin045_GJACFFBC_01320	dRep_bin170_LICLFCFF_00014;dRep_bin113_LIFKCGBF_00882;dRep_bin073_AKBCEHHO_00988;dRep_bin022_BOEAFNDE_00905;dRep_bin275_NIDIBBDA_00785;dRep_bin045_GJACFFBC_01320	>dRep_bin170_LICLFCFF_00014 Histidine ammonia-lyase;>dRep_bin113_LIFKCGBF_00882 Histidine ammonia-lyase;>dRep_bin073_AKBCEHHO_00988 Histidine ammonia-lyase;>dRep_bin022_BOEAFNDE_00905 Histidine ammonia-lyase;>dRep_bin275_NIDIBBDA_00785 Histidine ammonia-ly	dRep_bin073_AKBCEHHO_00988	CDS	hutH	4.3.1.3	Histidine ammonia-lyase
AKBCEHHO_01007	26.198950000000004	25.28482	24.78417	26.056								12	0	9,3959E-203	dRep_bin232_JGAEDAFA_00704;dRep_bin073_AKBCEHHO_01007	dRep_bin232_JGAEDAFA_00704;dRep_bin073_AKBCEHHO_01007	>dRep_bin232_JGAEDAFA_00704 GGGtGRT protein;>dRep_bin073_AKBCEHHO_01007 GGGtGRT protein	dRep_bin073_AKBCEHHO_01007	CDS			GGGtGRT protein
AKBCEHHO_01039	27.18594	27.162689999999998	28.489259999999998	27.667970000000004	29.30609	28.761639999999996	27.62506	28.645609999999998				17	15	4,1917E-136	dRep_bin191_NGFJMLOL_00617;dRep_bin191_NGFJMLOL_00235;dRep_bin045_GJACFFBC_00336;dRep_bin183_FPGIOKBG_01639;dRep_bin036_DOKCEIDH_00080;dRep_bin112_NDMGAKCH_01001;dRep_bin138_EJGHNBMI_00418;dRep_bin224_NFENHJGB_00509;dRep_bin329_GDOHKPBL_00375;dRep_bin170_LICLFCFF_01334;dRep_bin137_NABPABPB_00541;dRep_bin294_EHJINIDK_00174;dRep_bin002_CFBNDKDN_00289;dRep_bin285_IPHKFJAN_00180;dRep_bin346_JKFDGFHC_01262;dRep_bin331_HPKAPHAF_01345;dRep_bin073_AKBCEHHO_01039;dRep_bin296_FDMPKPOH_00727;dRep_bin063_PJANDMAH_00212;dRep_bin034_MEBMFDLL_00929;dRep_bin289_KALDCNNP_00358;dRep_bin198_GMLJKALI_00302;dRep_bin298_EIPJCOMF_01546	dRep_bin191_NGFJMLOL_00617	>dRep_bin191_NGFJMLOL_00617 UDP-N-acetylmuramate--L-alanine ligase	dRep_bin073_AKBCEHHO_01039	CDS	murC	6.3.2.8	UDP-N-acetylmuramate--L-alanine ligase
AKBCEHHO_01079	23.566509999999997											9	1	2,4157E-40	dRep_bin307_AOCKHIKF_00820;dRep_bin073_AKBCEHHO_01079	dRep_bin307_AOCKHIKF_00820	>dRep_bin307_AOCKHIKF_00820 TonB-dependent receptor SusC	dRep_bin073_AKBCEHHO_01079	CDS	susC_5		TonB-dependent receptor SusC
AKBCEHHO_01090							26.86526					2	1	3,4672E-07	dRep_bin329_GDOHKPBL_01588;dRep_bin298_EIPJCOMF_00543;dRep_bin196_BIELHBNH_01389;dRep_bin232_JGAEDAFA_01537;dRep_bin073_AKBCEHHO_01090	dRep_bin329_GDOHKPBL_01588;dRep_bin298_EIPJCOMF_00543;dRep_bin196_BIELHBNH_01389;dRep_bin232_JGAEDAFA_01537;dRep_bin073_AKBCEHHO_01090	>dRep_bin329_GDOHKPBL_01588 Adenylate kinase;>dRep_bin298_EIPJCOMF_00543 Adenylate kinase;>dRep_bin196_BIELHBNH_01389 Adenylate kinase;>dRep_bin232_JGAEDAFA_01537 Adenylate kinase;>dRep_bin073_AKBCEHHO_01090 Adenylate kinase	dRep_bin073_AKBCEHHO_01090	CDS	adk	2.7.4.3	Adenylate kinase
AKBCEHHO_01149	26.38905	26.14468	27.417880000000004	27.16433	27.99432	27.664450000000002	28.112270000000002	27.91336				5	0	1,054E-87	dRep_bin232_JGAEDAFA_00952;dRep_bin073_AKBCEHHO_01149	dRep_bin232_JGAEDAFA_00952;dRep_bin073_AKBCEHHO_01149	>dRep_bin232_JGAEDAFA_00952 Phosphoglucomutase;>dRep_bin073_AKBCEHHO_01149 Phosphoglucomutase	dRep_bin073_AKBCEHHO_01149	CDS	pgcA	5.4.2.2	Phosphoglucomutase
AKBCEHHO_01209	27.04958	26.317790000000002	26.584629999999997	27.2238	27.12139	27.482619999999994	26.22183	26.99183				9	4	1,6562E-30	dRep_bin191_NGFJMLOL_00515;dRep_bin183_FPGIOKBG_01567;dRep_bin285_IPHKFJAN_01525;dRep_bin037_GEAOEKHA_01472;dRep_bin045_GJACFFBC_00013;dRep_bin346_JKFDGFHC_00991;dRep_bin165_HMDFFMMM_01286;dRep_bin084_CGBIKHBH_00960;dRep_bin070_EMBHKIOF_00921;dRep_bin307_AOCKHIKF_01313;dRep_bin098_DDEBHDKK_01493;dRep_bin198_GMLJKALI_01431;dRep_bin314_KCHFPLIP_01180;dRep_bin036_DOKCEIDH_00004;dRep_bin116_CLFDBMOF_00484;dRep_bin236_BNONDECB_01144;dRep_bin055_IBMMJAEE_01236;dRep_bin082_HBEFABJN_00896;dRep_bin144_NPHACCKF_01365;dRep_bin237_KJDLIPND_00135;dRep_bin281_OGHLKMAI_01171;dRep_bin232_JGAEDAFA_01141;dRep_bin331_HPKAPHAF_01222;dRep_bin064_CMDDCDKG_01005;dRep_bin073_AKBCEHHO_01209	dRep_bin191_NGFJMLOL_00515	>dRep_bin191_NGFJMLOL_00515 Translation initiation factor IF-2	dRep_bin073_AKBCEHHO_01209	CDS	infB		Translation initiation factor IF-2
AKBCEHHO_01223							26.85472					2	1	7,0517E-09	dRep_bin073_AKBCEHHO_01223;dRep_bin028_GKEJLBAM_01663;dRep_bin276_EHNFLEBP_00390;dRep_bin071_JHMCIJPE_01213;dRep_bin345_GLPJDLOI_00728;dRep_bin070_EMBHKIOF_00544;dRep_bin136_NAIECEIF_01086;dRep_bin351_CKFFBPHM_01718	dRep_bin073_AKBCEHHO_01223;dRep_bin028_GKEJLBAM_01663;dRep_bin276_EHNFLEBP_00390;dRep_bin071_JHMCIJPE_01213;dRep_bin345_GLPJDLOI_00728;dRep_bin070_EMBHKIOF_00544;dRep_bin136_NAIECEIF_01086;dRep_bin351_CKFFBPHM_01718	>dRep_bin073_AKBCEHHO_01223 dTDP-glucose 4,6-dehydratase;>dRep_bin028_GKEJLBAM_01663 dTDP-glucose 4,6-dehydratase;>dRep_bin276_EHNFLEBP_00390 dTDP-glucose 4,6-dehydratase;>dRep_bin071_JHMCIJPE_01213 dTDP-glucose 4,6-dehydratase;>dRep_bin345_GLPJDLOI_00728	dRep_bin073_AKBCEHHO_01223	CDS	rfbB	4.2.1.46	dTDP-glucose 4,6-dehydratase
AKBCEHHO_01225	26.165529999999997	26.26415	25.43917	26.06297	26.4776	26.62464	24.02047	26.22048				4	2	1,9126E-16	dRep_bin191_NGFJMLOL_01939;dRep_bin329_GDOHKPBL_01335;dRep_bin113_LIFKCGBF_00833;dRep_bin070_EMBHKIOF_00873;dRep_bin133_NOBPDBPA_05103;dRep_bin296_FDMPKPOH_00881;dRep_bin256_KEMNAOBC_00271;dRep_bin112_NDMGAKCH_00994;dRep_bin290_OIOJKBNK_01582;dRep_bin296_FDMPKPOH_00794;dRep_bin229_FFOBPPJI_00496;dRep_bin073_AKBCEHHO_01225;dRep_bin036_DOKCEIDH_01918;dRep_bin331_HPKAPHAF_01668;dRep_bin232_JGAEDAFA_00790;dRep_bin306_FGHMKMMP_01527	dRep_bin191_NGFJMLOL_01939;dRep_bin329_GDOHKPBL_01335;dRep_bin113_LIFKCGBF_00833;dRep_bin070_EMBHKIOF_00873	>dRep_bin191_NGFJMLOL_01939 dTDP-4-dehydrorhamnose 3,5-epimerase;>dRep_bin329_GDOHKPBL_01335 dTDP-4-dehydrorhamnose 3,5-epimerase;>dRep_bin113_LIFKCGBF_00833 dTDP-4-dehydrorhamnose 3,5-epimerase;>dRep_bin070_EMBHKIOF_00873 dTDP-4-dehydrorhamnose 3,5-epimer	dRep_bin073_AKBCEHHO_01225	CDS	rfbC	5.1.3.13	dTDP-4-dehydrorhamnose 3,5-epimerase
AKBCEHHO_01226					27.68866	28.85067	26.93146	27.22683				5	1	2,0271E-61	dRep_bin071_JHMCIJPE_00774;dRep_bin271_NGFBCHKH_00710;dRep_bin063_PJANDMAH_00185;dRep_bin034_MEBMFDLL_00247;dRep_bin084_CGBIKHBH_01287;dRep_bin307_AOCKHIKF_01139;dRep_bin098_DDEBHDKK_01407;dRep_bin290_OIOJKBNK_01581;dRep_bin165_HMDFFMMM_00576;dRep_bin351_CKFFBPHM_00569;dRep_bin229_FFOBPPJI_00495;dRep_bin070_EMBHKIOF_00542;dRep_bin136_NAIECEIF_01032;dRep_bin073_AKBCEHHO_01226;dRep_bin014_CHIHIMAN_00024;dRep_bin289_KALDCNNP_00248;dRep_bin199_JBCGANNF_00237;dRep_bin244_LBFMHLBI_01073;dRep_bin036_DOKCEIDH_00668;dRep_bin004_OCHNPJPO_00478;dRep_bin329_GDOHKPBL_00723;dRep_bin316_FNLHDNEO_01012;dRep_bin256_KEMNAOBC_01521;dRep_bin198_GMLJKALI_00058;dRep_bin092_OOJCPDEA_01022;dRep_bin318_IEDEJOFJ_00455;dRep_bin301_NJFJIJGA_00149;dRep_bin183_FPGIOKBG_00223;dRep_bin149_GABCHCDI_01562;dRep_bin022_BOEAFNDE_00838;dRep_bin345_GLPJDLOI_00727;dRep_bin275_NIDIBBDA_00580;dRep_bin096_GNHMEKPF_01251;dRep_bin314_KCHFPLIP_01102;dRep_bin272_LGBDGEIM_00187;dRep_bin118_FGIOKLBC_01064;dRep_bin055_IBMMJAEE_00565;dRep_bin331_HPKAPHAF_01667;dRep_bin028_GKEJLBAM_00501;dRep_bin012_KEBBILMO_00805	dRep_bin071_JHMCIJPE_00774	>dRep_bin071_JHMCIJPE_00774 Glucose-1-phosphate thymidylyltransferase 2	dRep_bin073_AKBCEHHO_01226	CDS	rffH	2.7.7.24	Glucose-1-phosphate thymidylyltransferase 2
AKBCEHHO_01240	26.53865	27.32466	25.925329999999995	27.27675								9	0	1,4703E-42	dRep_bin224_NFENHJGB_00540;dRep_bin196_BIELHBNH_00163;dRep_bin034_MEBMFDLL_01422;dRep_bin036_DOKCEIDH_01531;dRep_bin137_NABPABPB_01656;dRep_bin298_EIPJCOMF_01468;dRep_bin064_CMDDCDKG_00553;dRep_bin063_PJANDMAH_01092;dRep_bin346_JKFDGFHC_00567;dRep_bin073_AKBCEHHO_01240;dRep_bin232_JGAEDAFA_01050;dRep_bin229_FFOBPPJI_01002;dRep_bin093_PGADNPMG_00042;dRep_bin131_HLFNHDGI_00370;dRep_bin002_CFBNDKDN_00482;dRep_bin229_FFOBPPJI_01490;dRep_bin351_CKFFBPHM_01541	dRep_bin224_NFENHJGB_00540;dRep_bin196_BIELHBNH_00163;dRep_bin034_MEBMFDLL_01422;dRep_bin036_DOKCEIDH_01531;dRep_bin137_NABPABPB_01656;dRep_bin298_EIPJCOMF_01468;dRep_bin064_CMDDCDKG_00553;dRep_bin063_PJANDMAH_01092;dRep_bin346_JKFDGFHC_00567;dRep_bin073_AKBCEHHO_01240;dRep_bin232_JGAEDAFA_01050	>dRep_bin224_NFENHJGB_00540 Enoyl-[acyl-carrier-protein] reductase [NADH] FabI;>dRep_bin196_BIELHBNH_00163 Enoyl-[acyl-carrier-protein] reductase [NADH] FabI;>dRep_bin034_MEBMFDLL_01422 Enoyl-[acyl-carrier-protein] reductase [NADH] FabI;>dRep_bin036_DOKCEI	dRep_bin073_AKBCEHHO_01240	CDS	fabI	1.3.1.9	Enoyl-[acyl-carrier-protein] reductase [NADH] FabI
AKBCEHHO_01248	24.96446	25.354070000000004	26.09104	26.130180000000003	27.05434	26.762689999999996	26.35565	26.10049				6	3	1,8864E-19	dRep_bin191_NGFJMLOL_01418;dRep_bin112_NDMGAKCH_01718;dRep_bin063_PJANDMAH_00071;dRep_bin045_GJACFFBC_00444;dRep_bin329_GDOHKPBL_01405;dRep_bin298_EIPJCOMF_01447;dRep_bin285_IPHKFJAN_00253;dRep_bin138_EJGHNBMI_00730;dRep_bin002_CFBNDKDN_00545;dRep_bin307_AOCKHIKF_01464;dRep_bin098_DDEBHDKK_01023;dRep_bin073_AKBCEHHO_01248;dRep_bin232_JGAEDAFA_01297;dRep_bin296_FDMPKPOH_00829	dRep_bin191_NGFJMLOL_01418;dRep_bin112_NDMGAKCH_01718;dRep_bin063_PJANDMAH_00071;dRep_bin045_GJACFFBC_00444;dRep_bin329_GDOHKPBL_01405;dRep_bin298_EIPJCOMF_01447;dRep_bin285_IPHKFJAN_00253;dRep_bin138_EJGHNBMI_00730;dRep_bin002_CFBNDKDN_00545;dRep_bin307_AOCKHIKF_01464;dRep_bin098_DDEBHDKK_01023;dRep_bin073_AKBCEHHO_01248	>dRep_bin191_NGFJMLOL_01418 hypothetical protein;>dRep_bin112_NDMGAKCH_01718 hypothetical protein;>dRep_bin063_PJANDMAH_00071 hypothetical protein;>dRep_bin045_GJACFFBC_00444 hypothetical protein;>dRep_bin329_GDOHKPBL_01405 hypothetical protein;>dRep_bin29	dRep_bin073_AKBCEHHO_01248	CDS			hypothetical protein
AKBCEHHO_01249					25.20855							7	1	1,5896E-37	dRep_bin232_JGAEDAFA_01298;dRep_bin073_AKBCEHHO_01249;dRep_bin307_AOCKHIKF_00829;dRep_bin098_DDEBHDKK_00561	dRep_bin232_JGAEDAFA_01298;dRep_bin073_AKBCEHHO_01249;dRep_bin307_AOCKHIKF_00829;dRep_bin098_DDEBHDKK_00561	>dRep_bin232_JGAEDAFA_01298 Aspartate--tRNA ligase;>dRep_bin073_AKBCEHHO_01249 Aspartate--tRNA ligase;>dRep_bin307_AOCKHIKF_00829 Aspartate--tRNA ligase;>dRep_bin098_DDEBHDKK_00561 Aspartate--tRNA ligase	dRep_bin073_AKBCEHHO_01249	CDS	aspS	6.1.1.12	Aspartate--tRNA ligase
AKBCEHHO_01251	30.60143	30.443419999999996	30.89309	32.03318	31.982199999999995	32.064130000000006	31.759900000000002	31.66276				26	6	0	dRep_bin113_LIFKCGBF_00164;dRep_bin073_AKBCEHHO_01251;dRep_bin232_JGAEDAFA_01299;dRep_bin022_BOEAFNDE_00071;dRep_bin002_CFBNDKDN_00571;dRep_bin118_FGIOKLBC_00081;dRep_bin210_AGEDAEIA_00904;dRep_bin307_AOCKHIKF_00462;dRep_bin098_DDEBHDKK_00798;dRep_bin149_GABCHCDI_00668;dRep_bin037_GEAOEKHA_01107;dRep_bin229_FFOBPPJI_00185;dRep_bin040_EIFLLDOA_00453;dRep_bin092_OOJCPDEA_01611;dRep_bin136_NAIECEIF_00398;dRep_bin256_KEMNAOBC_00652;dRep_bin301_NJFJIJGA_00993;dRep_bin071_JHMCIJPE_01709;dRep_bin331_HPKAPHAF_00551;dRep_bin002_CFBNDKDN_00991;dRep_bin018_ILOONPIC_00361;dRep_bin351_CKFFBPHM_01335;dRep_bin316_FNLHDNEO_01449;dRep_bin020_JCCELPIE_00772;dRep_bin130_OIFFANPF_01695;dRep_bin298_EIPJCOMF_01103;dRep_bin346_JKFDGFHC_00396;dRep_bin301_NJFJIJGA_01061;dRep_bin289_KALDCNNP_01031;dRep_bin271_NGFBCHKH_00336;dRep_bin138_EJGHNBMI_01314;dRep_bin063_PJANDMAH_00202;dRep_bin036_DOKCEIDH_01987;dRep_bin034_MEBMFDLL_00863;dRep_bin343_JCMCKBGF_00754;dRep_bin137_NABPABPB_01723;dRep_bin037_GEAOEKHA_01156;dRep_bin296_FDMPKPOH_01780;dRep_bin341_NBEGOKEF_00571;dRep_bin334_NAPFFNLD_01049;dRep_bin274_DBJHKLDG_01583;dRep_bin060_HNFNENOI_00249;dRep_bin217_MJCEAEPB_00911;dRep_bin291_EILOACJB_01199;dRep_bin329_GDOHKPBL_00752;dRep_bin104_EGLEJOLM_00885;dRep_bin276_EHNFLEBP_00929;F1SSS0	dRep_bin113_LIFKCGBF_00164	>dRep_bin113_LIFKCGBF_00164 Carbamoyl-phosphate synthase large chain	dRep_bin073_AKBCEHHO_01251	CDS	carB	6.3.5.5	Carbamoyl-phosphate synthase large chain
AKBCEHHO_01257			22.37358									1	1	0,00016	dRep_bin073_AKBCEHHO_01257;dRep_bin285_IPHKFJAN_00219;dRep_bin198_GMLJKALI_00757;dRep_bin329_GDOHKPBL_01332	dRep_bin073_AKBCEHHO_01257;dRep_bin285_IPHKFJAN_00219;dRep_bin198_GMLJKALI_00757;dRep_bin329_GDOHKPBL_01332	>dRep_bin073_AKBCEHHO_01257 putative epimerase/dehydratase;>dRep_bin285_IPHKFJAN_00219 putative epimerase/dehydratase;>dRep_bin198_GMLJKALI_00757 putative epimerase/dehydratase;>dRep_bin329_GDOHKPBL_01332 putative epimerase/dehydratase	dRep_bin073_AKBCEHHO_01257	CDS			putative epimerase/dehydratase
AKBCEHHO_01258	26.452419999999996	26.854480000000002	26.55831	27.17236								9	5	2,2155E-37	dRep_bin084_CGBIKHBH_01393;dRep_bin165_HMDFFMMM_00084;dRep_bin232_JGAEDAFA_00262;dRep_bin071_JHMCIJPE_01217;dRep_bin131_HLFNHDGI_01595;dRep_bin073_AKBCEHHO_01258;dRep_bin331_HPKAPHAF_00504;dRep_bin128_JPBBHEMA_00590;dRep_bin136_NAIECEIF_00757	dRep_bin084_CGBIKHBH_01393	>dRep_bin084_CGBIKHBH_01393 2-amino-3-ketobutyrate coenzyme A ligase	dRep_bin073_AKBCEHHO_01258	CDS	kbl	2.3.1.29	2-amino-3-ketobutyrate coenzyme A ligase
AKBCEHHO_01289	26.299970000000002	25.722759999999997	27.932409999999997	29.46086	29.21343	27.72761	25.666439999999998	27.99183				2	0	8,1386E-52	dRep_bin084_CGBIKHBH_00049;dRep_bin232_JGAEDAFA_00304;dRep_bin073_AKBCEHHO_01289;dRep_bin307_AOCKHIKF_00603;dRep_bin098_DDEBHDKK_00379;dRep_bin037_GEAOEKHA_01403;dRep_bin002_CFBNDKDN_00833;dRep_bin036_DOKCEIDH_00174	dRep_bin084_CGBIKHBH_00049;dRep_bin232_JGAEDAFA_00304;dRep_bin073_AKBCEHHO_01289;dRep_bin307_AOCKHIKF_00603;dRep_bin098_DDEBHDKK_00379;dRep_bin037_GEAOEKHA_01403;dRep_bin002_CFBNDKDN_00833;dRep_bin036_DOKCEIDH_00174	>dRep_bin084_CGBIKHBH_00049 50S ribosomal protein L31 type B;>dRep_bin232_JGAEDAFA_00304 50S ribosomal protein L31 type B;>dRep_bin073_AKBCEHHO_01289 50S ribosomal protein L31 type B;>dRep_bin307_AOCKHIKF_00603 50S ribosomal protein L31 type B;>dRep_bin098	dRep_bin073_AKBCEHHO_01289	CDS	rpmE2		50S ribosomal protein L31 type B
AKBCEHHO_01315	24.5528	24.37059	25.156880000000005	26.174680000000002	25.900599999999997	26.449689999999997	25.960759999999997	25.985979999999998				4	3	2,1444E-17	dRep_bin191_NGFJMLOL_00179;dRep_bin329_GDOHKPBL_00046;dRep_bin118_FGIOKLBC_00265;dRep_bin113_LIFKCGBF_01446;dRep_bin111_FPJIHFKE_00389;dRep_bin331_HPKAPHAF_01581;dRep_bin298_EIPJCOMF_00209;dRep_bin285_IPHKFJAN_00616;dRep_bin138_EJGHNBMI_00845;dRep_bin084_CGBIKHBH_00950;dRep_bin036_DOKCEIDH_00573;dRep_bin301_NJFJIJGA_00502;dRep_bin165_HMDFFMMM_00562;dRep_bin137_NABPABPB_00883;dRep_bin112_NDMGAKCH_00607;dRep_bin098_DDEBHDKK_00267;dRep_bin271_NGFBCHKH_00374;dRep_bin196_BIELHBNH_01128;dRep_bin170_LICLFCFF_00847;dRep_bin307_AOCKHIKF_00787;dRep_bin289_KALDCNNP_01315;dRep_bin037_GEAOEKHA_01064;dRep_bin149_GABCHCDI_01295;dRep_bin314_KCHFPLIP_00921;dRep_bin070_EMBHKIOF_01566;dRep_bin064_CMDDCDKG_00459;dRep_bin073_AKBCEHHO_01315;dRep_bin232_JGAEDAFA_00694;dRep_bin002_CFBNDKDN_01690	dRep_bin191_NGFJMLOL_00179;dRep_bin329_GDOHKPBL_00046;dRep_bin118_FGIOKLBC_00265	>dRep_bin191_NGFJMLOL_00179 LL-diaminopimelate aminotransferase;>dRep_bin329_GDOHKPBL_00046 LL-diaminopimelate aminotransferase;>dRep_bin118_FGIOKLBC_00265 LL-diaminopimelate aminotransferase	dRep_bin073_AKBCEHHO_01315	CDS	dapL_2	2.6.1.83	LL-diaminopimelate aminotransferase
AKBCEHHO_01316					25.35276	26.63062	23.891250000000003	24.50294				4	3	1,4286E-20	dRep_bin191_NGFJMLOL_00180;dRep_bin331_HPKAPHAF_01580;dRep_bin271_NGFBCHKH_00375;dRep_bin196_BIELHBNH_01129;dRep_bin045_GJACFFBC_01375;dRep_bin232_JGAEDAFA_00695;dRep_bin073_AKBCEHHO_01316;dRep_bin294_EHJINIDK_00514	dRep_bin191_NGFJMLOL_00180	>dRep_bin191_NGFJMLOL_00180 Phospho-2-dehydro-3-deoxyheptonate aldolase	dRep_bin073_AKBCEHHO_01316	CDS	aroF	2.5.1.54	Phospho-2-dehydro-3-deoxyheptonate aldolase
AKBCEHHO_01328	25.813750000000002	25.454880000000003	26.714370000000002	26.59449	25.722759999999997	26.641270000000002	25.16484	25.95976				3	3	6,0369E-21	dRep_bin285_IPHKFJAN_01754;dRep_bin198_GMLJKALI_00664;dRep_bin036_DOKCEIDH_01382;dRep_bin063_PJANDMAH_00867;dRep_bin034_MEBMFDLL_01261;dRep_bin064_CMDDCDKG_01541;dRep_bin073_AKBCEHHO_01328;dRep_bin289_KALDCNNP_00920;dRep_bin271_NGFBCHKH_01186;dRep_bin170_LICLFCFF_02101	dRep_bin285_IPHKFJAN_01754;dRep_bin198_GMLJKALI_00664;dRep_bin036_DOKCEIDH_01382;dRep_bin063_PJANDMAH_00867;dRep_bin034_MEBMFDLL_01261;dRep_bin064_CMDDCDKG_01541;dRep_bin073_AKBCEHHO_01328;dRep_bin289_KALDCNNP_00920;dRep_bin271_NGFBCHKH_01186	>dRep_bin285_IPHKFJAN_01754 30S ribosomal protein S6;>dRep_bin198_GMLJKALI_00664 30S ribosomal protein S6;>dRep_bin036_DOKCEIDH_01382 30S ribosomal protein S6;>dRep_bin063_PJANDMAH_00867 30S ribosomal protein S6;>dRep_bin034_MEBMFDLL_01261 30S ribosomal pr	dRep_bin073_AKBCEHHO_01328	CDS	rpsF		30S ribosomal protein S6
AKBCEHHO_01338						23.708299999999998						3	1	1,9523E-05	dRep_bin073_AKBCEHHO_01338;dRep_bin070_EMBHKIOF_01459;dRep_bin232_JGAEDAFA_00615	dRep_bin073_AKBCEHHO_01338;dRep_bin070_EMBHKIOF_01459	>dRep_bin073_AKBCEHHO_01338 Glucose-6-phosphate isomerase B;>dRep_bin070_EMBHKIOF_01459 Glucose-6-phosphate isomerase	dRep_bin073_AKBCEHHO_01338	CDS	pgiB	5.3.1.9	Glucose-6-phosphate isomerase B
AKBCEHHO_01358	27.31562	27.05652	26.269099999999998	26.36102	26.54891	27.808519999999998		26.77718				19	6	0	dRep_bin073_AKBCEHHO_01358	dRep_bin073_AKBCEHHO_01358	>dRep_bin073_AKBCEHHO_01358 Phosphoenolpyruvate carboxykinase (ATP)	dRep_bin073_AKBCEHHO_01358	CDS	pckA	4.1.1.49	Phosphoenolpyruvate carboxykinase (ATP)
AKBCEHHO_01369	23.082319999999996											2	1	0,000171	dRep_bin073_AKBCEHHO_01369;dRep_bin331_HPKAPHAF_00910	dRep_bin073_AKBCEHHO_01369;dRep_bin331_HPKAPHAF_00910	>dRep_bin073_AKBCEHHO_01369 hypothetical protein;>dRep_bin331_HPKAPHAF_00910 hypothetical protein	dRep_bin073_AKBCEHHO_01369	CDS			hypothetical protein
AKBCEHHO_01410					25.697980000000005	26.888209999999997	25.629950000000004					5	5	1,4685E-28	dRep_bin191_NGFJMLOL_02023;dRep_bin329_GDOHKPBL_00168;dRep_bin170_LICLFCFF_00338;dRep_bin137_NABPABPB_00215;dRep_bin113_LIFKCGBF_00869;dRep_bin112_NDMGAKCH_00610;dRep_bin002_CFBNDKDN_00039;dRep_bin294_EHJINIDK_01863;dRep_bin285_IPHKFJAN_01264;dRep_bin183_FPGIOKBG_00054;dRep_bin149_GABCHCDI_01567;dRep_bin298_EIPJCOMF_01418;dRep_bin165_HMDFFMMM_01260;dRep_bin196_BIELHBNH_00361;dRep_bin064_CMDDCDKG_01335;dRep_bin036_DOKCEIDH_01060;dRep_bin301_NJFJIJGA_00793;dRep_bin045_GJACFFBC_00211;dRep_bin307_AOCKHIKF_00997;dRep_bin098_DDEBHDKK_00831;dRep_bin138_EJGHNBMI_00075;dRep_bin232_JGAEDAFA_01334;dRep_bin073_AKBCEHHO_01410;dRep_bin070_EMBHKIOF_01067;dRep_bin037_GEAOEKHA_00751	dRep_bin191_NGFJMLOL_02023	>dRep_bin191_NGFJMLOL_02023 Phenylalanine--tRNA ligase beta subunit	dRep_bin073_AKBCEHHO_01410	CDS	pheT	6.1.1.20	Phenylalanine--tRNA ligase beta subunit
AKBCEHHO_01419	26.958479999999998	27.12928	27.453329999999998	28.2971	28.72215	29.4288	28.47178	28.441499999999998				2	1	1,6436E-08	dRep_bin183_FPGIOKBG_00373;dRep_bin314_KCHFPLIP_01535;dRep_bin307_AOCKHIKF_01647;dRep_bin289_KALDCNNP_00719;dRep_bin138_EJGHNBMI_01352;dRep_bin073_AKBCEHHO_01419	dRep_bin183_FPGIOKBG_00373;dRep_bin314_KCHFPLIP_01535;dRep_bin307_AOCKHIKF_01647;dRep_bin289_KALDCNNP_00719;dRep_bin138_EJGHNBMI_01352;dRep_bin073_AKBCEHHO_01419	>dRep_bin183_FPGIOKBG_00373 N5-carboxyaminoimidazole ribonucleotide mutase;>dRep_bin314_KCHFPLIP_01535 N5-carboxyaminoimidazole ribonucleotide mutase;>dRep_bin307_AOCKHIKF_01647 N5-carboxyaminoimidazole ribonucleotide mutase;>dRep_bin289_KALDCNNP_00719 N5-	dRep_bin073_AKBCEHHO_01419	CDS	purE	5.4.99.18	N5-carboxyaminoimidazole ribonucleotide mutase
AKBCEHHO_01425					25.532519999999998	25.534450000000003						8	2	1,8177E-98	dRep_bin138_EJGHNBMI_01237;dRep_bin073_AKBCEHHO_01425;dRep_bin093_PGADNPMG_00264;dRep_bin198_GMLJKALI_01619;dRep_bin037_GEAOEKHA_01026;dRep_bin298_EIPJCOMF_01662;dRep_bin037_GEAOEKHA_01025;dRep_bin351_CKFFBPHM_00162;dRep_bin165_HMDFFMMM_00429;dRep_bin307_AOCKHIKF_00219;dRep_bin098_DDEBHDKK_00922	dRep_bin138_EJGHNBMI_01237;dRep_bin073_AKBCEHHO_01425	>dRep_bin138_EJGHNBMI_01237 Ferredoxin-dependent glutamate synthase 1;>dRep_bin073_AKBCEHHO_01425 Ferredoxin-dependent glutamate synthase 1	dRep_bin073_AKBCEHHO_01425	CDS	gltB	1.4.7.1	Ferredoxin-dependent glutamate synthase 1
AKBCEHHO_01450	30.00892	29.700729999999997	30.57588	30.799850000000003	30.788689999999995	30.565289999999997	31.54319	30.99746				15	3	0	dRep_bin084_CGBIKHBH_00312;dRep_bin073_AKBCEHHO_01450	dRep_bin084_CGBIKHBH_00312;dRep_bin073_AKBCEHHO_01450	>dRep_bin084_CGBIKHBH_00312 Pyrophosphate--fructose 6-phosphate 1-phosphotransferase;>dRep_bin073_AKBCEHHO_01450 Pyrophosphate--fructose 6-phosphate 1-phosphotransferase	dRep_bin073_AKBCEHHO_01450	CDS	pfp	2.7.1.90	Pyrophosphate--fructose 6-phosphate 1-phosphotransferase
AKBCEHHO_01462				21.86884								3	1	1,3797E-13	dRep_bin021_AJDDCGJC_00051;dRep_bin252_NDAKLAGD_00826;dRep_bin317_ABPHNCOD_01131;dRep_bin216_JNJMCPHB_01076;dRep_bin272_LGBDGEIM_00618;dRep_bin097_CBBLIPAN_01579;dRep_bin053_OMGNPOOB_00833;dRep_bin337_FHKPNFDB_00090;dRep_bin052_PGOOKKFH_01594;dRep_bin168_HKDILBFE_01015;dRep_bin322_OJELOJOF_01622;dRep_bin220_PILICLLL_01543;dRep_bin055_IBMMJAEE_00610;dRep_bin061_ONFGDLGO_01234;dRep_bin168_HKDILBFE_00368;dRep_bin055_IBMMJAEE_00168;dRep_bin261_FJICAFFM_00490;dRep_bin017_FGFLFOPJ_00414;dRep_bin115_IFKGOGCL_01280;dRep_bin257_JHFDCHCB_01406;dRep_bin323_FBBLPLCG_01600;dRep_bin007_LNLEAAAN_00766;dRep_bin049_MNFBDPNO_00781;dRep_bin333_EFOKIBLA_01149;dRep_bin279_IAEFEPEN_01471;dRep_bin234_ECABPBME_01515;dRep_bin179_HFEIPPPA_02108;dRep_bin023_HGFJFKAI_01527;dRep_bin335_JIOGNAPG_00787;dRep_bin250_NMCAMJIO_00423;dRep_bin158_OGFICEAP_00549;dRep_bin100_CODMOHGB_01341;dRep_bin089_PAJFOJBN_02515;dRep_bin088_DNGPPFDK_01371;dRep_bin081_JDPCKDNP_00684;dRep_bin324_IPNHOHFK_01454;dRep_bin300_MJPPENNL_01260;dRep_bin292_JIBLDOOH_01593;dRep_bin284_DEHKNOBF_00281;dRep_bin282_PKAAPBFP_00934;dRep_bin279_IAEFEPEN_01275;dRep_bin269_PNILGKPH_00152;dRep_bin240_LDBBGJKG_01257;dRep_bin226_NLNLHLLD_00367;dRep_bin209_NKIHFCEN_01541;dRep_bin203_CLFNNOCF_01928;dRep_bin179_HFEIPPPA_00359;dRep_bin167_BLMEBMNN_00233;dRep_bin160_EFKMPBOM_02132;dRep_bin154_JGOKHKLI_02775;dRep_bin133_NOBPDBPA_00727;dRep_bin114_FJHJKHGL_00838;dRep_bin095_HOBNOEEF_00822;dRep_bin075_EPEMMOCL_00939;dRep_bin074_EHAOMODJ_00291;dRep_bin065_DFABHCBI_01203;dRep_bin347_EKGCMFPD_00625;dRep_bin325_EIIGOGHN_00612;dRep_bin310_IMBAFDIF_01359;dRep_bin308_JBPDGLPP_00545;dRep_bin306_FGHMKMMP_01018;dRep_bin297_EDHEEICA_01903;dRep_bin201_OLKDIBOK_00335;dRep_bin186_HJAAFFNP_00409;dRep_bin173_BEBNCADL_00242;dRep_bin169_PNICKJKO_00103;dRep_bin145_KMJJJOEJ_01348;dRep_bin135_HHKACLPM_00566;dRep_bin101_BNDDLDCL_00036;dRep_bin069_EGGEOGDC_01480;dRep_bin062_BOFBFLDA_00487;dRep_bin047_IFFANOMN_01271;dRep_bin042_MMFCLHOO_00308;dRep_bin041_OPKGAAAG_00762;dRep_bin024_OLHDGABE_00679;dRep_bin016_JLGAHGOJ_01831;dRep_bin001_GHHJMDAL_00660;dRep_bin349_AMCJEEEG_00131;dRep_bin312_MJFEFHMP_00833;dRep_bin264_DNFFGNEG_00100;dRep_bin246_MMFBABHK_00297;dRep_bin219_HGPEELLF_00003;dRep_bin174_LJJOKEME_01103;dRep_bin129_GADIAMAA_01409;dRep_bin127_FIPNHBCH_00703;dRep_bin077_DNNBMPMC_01278;dRep_bin030_OGPDLGOC_01790;dRep_bin004_OCHNPJPO_01519;dRep_bin218_ACMPALGF_00968;dRep_bin185_OOOLKACK_00657;dRep_bin181_MKGPMPIA_00538;dRep_bin148_NAJFKJMD_01090;dRep_bin058_GJKCICJN_01056;dRep_bin291_EILOACJB_00579;dRep_bin244_LBFMHLBI_01277;dRep_bin223_PIMCDKJI_01006;dRep_bin204_INMOGLDN_01473;dRep_bin184_MBMMJHKO_00222;dRep_bin302_AHDEPDKG_00621;dRep_bin265_LFKFBJPC_00590;dRep_bin233_BAGKKAOB_00885;dRep_bin188_EJILNMPE_01053;dRep_bin081_JDPCKDNP_01324;dRep_bin318_IEDEJOFJ_00724;dRep_bin144_NPHACCKF_00221;dRep_bin096_GNHMEKPF_00086;dRep_bin344_CJJBDGAA_01489;dRep_bin295_EJGKDKNE_00851;dRep_bin048_PABMBHAL_01507;dRep_bin303_DDDNDJCF_00663;dRep_bin283_NLJJFFAC_01754;dRep_bin201_OLKDIBOK_00523;dRep_bin139_KGAJINND_01276;dRep_bin134_HIAPAODO_01158;dRep_bin094_LBLICAAO_00942;dRep_bin062_BOFBFLDA_00417;dRep_bin336_MPGOKPOL_02385;dRep_bin082_HBEFABJN_00650;dRep_bin125_FADLGGII_00540;dRep_bin334_NAPFFNLD_01195;dRep_bin217_MJCEAEPB_00530;dRep_bin195_DDMDFNOK_00971;dRep_bin060_HNFNENOI_00088;dRep_bin328_GIGKNKPJ_00426;dRep_bin281_OGHLKMAI_01076;dRep_bin197_NHLBHFEI_00626;dRep_bin103_IGJBLKMC_00726;dRep_bin116_CLFDBMOF_00455;dRep_bin332_KAOPCDPF_00448;dRep_bin345_GLPJDLOI_00589;dRep_bin314_KCHFPLIP_00788;dRep_bin128_JPBBHEMA_00693;dRep_bin073_AKBCEHHO_01462;dRep_bin045_GJACFFBC_00428;dRep_bin329_GDOHKPBL_01522;dRep_bin316_FNLHDNEO_00349;dRep_bin307_AOCKHIKF_00400;dRep_bin294_EHJINIDK_01408;dRep_bin289_KALDCNNP_01327;dRep_bin183_FPGIOKBG_00622;dRep_bin098_DDEBHDKK_01308;dRep_bin165_HMDFFMMM_01247;dRep_bin037_GEAOEKHA_01212;dRep_bin256_KEMNAOBC_00113;dRep_bin092_OOJCPDEA_01143;dRep_bin126_PPDNCIBN_00264;dRep_bin090_IPGNHCBJ_00911;dRep_bin215_ABBFGCAF_00280;dRep_bin005_CNDFPKJG_00629;dRep_bin270_GEJAHNCN_01426;dRep_bin116_CLFDBMOF_00686;dRep_bin069_EGGEOGDC_00857;dRep_bin007_LNLEAAAN_01604;dRep_bin057_BNCFHBBO_01159;dRep_bin038_EIGFILKG_00229;dRep_bin114_FJHJKHGL_00934;dRep_bin152_LJMCIADF_00045;dRep_bin322_OJELOJOF_00826;dRep_bin266_JFOCEDAE_00030;dRep_bin194_MEPDOGGJ_01235;dRep_bin079_GAOGCKND_01437;dRep_bin068_ENOLAELK_01387;dRep_bin025_CBEJJMLE_00917;dRep_bin240_LDBBGJKG_00802;dRep_bin347_EKGCMFPD_01498;dRep_bin167_BLMEBMNN_00596;dRep_bin160_EFKMPBOM_02114;dRep_bin260_HELEPKJL_02017;dRep_bin091_MAFACGAD_00797;dRep_bin099_DNDAGJEJ_01471;dRep_bin278_BFCONKOE_01179;dRep_bin168_HKDILBFE_00397;dRep_bin284_DEHKNOBF_00737;dRep_bin001_GHHJMDAL_01209;dRep_bin236_BNONDECB_00531;dRep_bin286_OEMIJKMC_01078;dRep_bin231_CFOLMJBA_00464;dRep_bin193_GDMDPNNM_00224;dRep_bin172_ALNHGLMD_01787;dRep_bin182_EMCFODCD_00065;dRep_bin044_IPFKHAEF_00183	dRep_bin021_AJDDCGJC_00051;dRep_bin252_NDAKLAGD_00826;dRep_bin317_ABPHNCOD_01131;dRep_bin216_JNJMCPHB_01076;dRep_bin272_LGBDGEIM_00618;dRep_bin097_CBBLIPAN_01579;dRep_bin053_OMGNPOOB_00833;dRep_bin337_FHKPNFDB_00090;dRep_bin052_PGOOKKFH_01594	>dRep_bin021_AJDDCGJC_00051 ATP synthase subunit alpha;>dRep_bin252_NDAKLAGD_00826 ATP synthase subunit alpha;>dRep_bin317_ABPHNCOD_01131 ATP synthase subunit alpha;>dRep_bin216_JNJMCPHB_01076 ATP synthase subunit alpha;>dRep_bin272_LGBDGEIM_00618 ATP synt	dRep_bin073_AKBCEHHO_01462	CDS	atpA	3.6.3.14	ATP synthase subunit alpha
AKBCEHHO_01465					24.16607	23.38745		24.430970000000002				1	1	1,0736E-05	dRep_bin073_AKBCEHHO_01465	dRep_bin073_AKBCEHHO_01465	>dRep_bin073_AKBCEHHO_01465 ATP synthase subunit c	dRep_bin073_AKBCEHHO_01465	CDS	atpE		ATP synthase subunit c
AKBCEHHO_01469					20.66084	20.19075						6	1	4,1576E-39	dRep_bin346_JKFDGFHC_00049;dRep_bin271_NGFBCHKH_01432;dRep_bin170_LICLFCFF_00076;dRep_bin113_LIFKCGBF_00665;dRep_bin036_DOKCEIDH_00273;dRep_bin034_MEBMFDLL_01305;dRep_bin285_IPHKFJAN_00808;dRep_bin298_EIPJCOMF_01620;dRep_bin289_KALDCNNP_01320;dRep_bin196_BIELHBNH_01057;dRep_bin138_EJGHNBMI_00590;dRep_bin064_CMDDCDKG_01375;dRep_bin183_FPGIOKBG_00615;dRep_bin073_AKBCEHHO_01469;dRep_bin323_FBBLPLCG_01598;dRep_bin101_BNDDLDCL_00033;dRep_bin049_MNFBDPNO_00783;dRep_bin087_FCLGAPPI_00381;dRep_bin281_OGHLKMAI_01074;dRep_bin210_AGEDAEIA_01693;dRep_bin118_FGIOKLBC_01781;dRep_bin022_BOEAFNDE_01420;dRep_bin131_HLFNHDGI_01253;dRep_bin002_CFBNDKDN_00034;dRep_bin014_CHIHIMAN_01271;dRep_bin329_GDOHKPBL_01515;dRep_bin314_KCHFPLIP_00795;dRep_bin307_AOCKHIKF_00407;dRep_bin098_DDEBHDKK_01315;dRep_bin306_FGHMKMMP_00477;dRep_bin153_JGABJFBF_01420;dRep_bin172_ALNHGLMD_01785;dRep_bin286_OEMIJKMC_01076;dRep_bin182_EMCFODCD_00063;dRep_bin126_PPDNCIBN_00262;dRep_bin044_IPFKHAEF_00185;dRep_bin283_NLJJFFAC_01756;dRep_bin203_CLFNNOCF_01930;dRep_bin179_HFEIPPPA_00361;dRep_bin218_ACMPALGF_01344;dRep_bin144_NPHACCKF_00223;dRep_bin094_LBLICAAO_00940;dRep_bin032_PPNIGLME_01008;dRep_bin027_OFJCHLJJ_00625;dRep_bin096_GNHMEKPF_00088;dRep_bin257_JHFDCHCB_01408;dRep_bin190_MOGDLGIN_00302;dRep_bin114_FJHJKHGL_00840;dRep_bin055_IBMMJAEE_00170;dRep_bin048_PABMBHAL_01509;dRep_bin318_IEDEJOFJ_00726;dRep_bin264_DNFFGNEG_00422;dRep_bin244_LBFMHLBI_01058;dRep_bin223_PIMCDKJI_01107;dRep_bin202_HEPPALPH_00196;dRep_bin242_LKAIBGGJ_00303;dRep_bin204_INMOGLDN_01542;dRep_bin174_LJJOKEME_00810;dRep_bin080_CBEBHNNK_00066;dRep_bin312_MJFEFHMP_00588;dRep_bin246_MMFBABHK_00194;dRep_bin116_CLFDBMOF_00457;dRep_bin061_ONFGDLGO_01437;dRep_bin030_OGPDLGOC_00261;dRep_bin004_OCHNPJPO_01274;dRep_bin251_FGNGCJDD_00242;dRep_bin219_HGPEELLF_01206;dRep_bin129_GADIAMAA_00806;dRep_bin076_GLAOFBEC_00429;dRep_bin188_EJILNMPE_01055;dRep_bin252_NDAKLAGD_01289;dRep_bin352_KFNHGNFC_00642;dRep_bin206_OIIBOIAK_00292;dRep_bin078_GKFCBAEI_00119;dRep_bin301_NJFJIJGA_00585;dRep_bin275_NIDIBBDA_00034;dRep_bin040_EIFLLDOA_01203;dRep_bin028_GKEJLBAM_00163;dRep_bin149_GABCHCDI_00012;dRep_bin093_PGADNPMG_00427;dRep_bin345_GLPJDLOI_00001;dRep_bin296_FDMPKPOH_01296;dRep_bin316_FNLHDNEO_00355;dRep_bin256_KEMNAOBC_01607;dRep_bin071_JHMCIJPE_01347;dRep_bin128_JPBBHEMA_00687;dRep_bin165_HMDFFMMM_01254;dRep_bin351_CKFFBPHM_01191;dRep_bin092_OOJCPDEA_01149	dRep_bin346_JKFDGFHC_00049;dRep_bin271_NGFBCHKH_01432;dRep_bin170_LICLFCFF_00076;dRep_bin113_LIFKCGBF_00665;dRep_bin036_DOKCEIDH_00273;dRep_bin034_MEBMFDLL_01305;dRep_bin285_IPHKFJAN_00808;dRep_bin298_EIPJCOMF_01620;dRep_bin289_KALDCNNP_01320;dRep_bin196_BIELHBNH_01057;dRep_bin138_EJGHNBMI_00590;dRep_bin064_CMDDCDKG_01375;dRep_bin183_FPGIOKBG_00615;dRep_bin073_AKBCEHHO_01469	>dRep_bin346_JKFDGFHC_00049 ATP synthase subunit beta, sodium ion specific;>dRep_bin271_NGFBCHKH_01432 ATP synthase subunit beta;>dRep_bin170_LICLFCFF_00076 ATP synthase subunit beta, sodium ion specific;>dRep_bin113_LIFKCGBF_00665 ATP synthase subunit bet	dRep_bin073_AKBCEHHO_01469	CDS	atpD	3.6.3.15	ATP synthase subunit beta, sodium ion specific
AKBCEHHO_01470			24.21215									3	0	6,9148E-36	dRep_bin002_CFBNDKDN_00024;dRep_bin073_AKBCEHHO_01470;dRep_bin136_NAIECEIF_00826;dRep_bin296_FDMPKPOH_00667;dRep_bin232_JGAEDAFA_01271;dRep_bin070_EMBHKIOF_01610;dRep_bin037_GEAOEKHA_01569;dRep_bin018_ILOONPIC_00981	dRep_bin002_CFBNDKDN_00024	>dRep_bin002_CFBNDKDN_00024 ATP-dependent 6-phosphofructokinase 1	dRep_bin073_AKBCEHHO_01470	CDS	pfkA	2.7.1.11	ATP-dependent 6-phosphofructokinase 1
AKBCEHHO_01484					27.357830000000003	27.34858	26.40711	26.60583				7	4	5,0707E-20	dRep_bin191_NGFJMLOL_01220;dRep_bin113_LIFKCGBF_01626;dRep_bin138_EJGHNBMI_00540;dRep_bin112_NDMGAKCH_01289;dRep_bin170_LICLFCFF_02040;dRep_bin036_DOKCEIDH_01099;dRep_bin314_KCHFPLIP_00252;dRep_bin198_GMLJKALI_00985;dRep_bin063_PJANDMAH_00366;dRep_bin294_EHJINIDK_00132;dRep_bin307_AOCKHIKF_00510;dRep_bin098_DDEBHDKK_00948;dRep_bin084_CGBIKHBH_00700;dRep_bin224_NFENHJGB_01648;dRep_bin165_HMDFFMMM_01015;dRep_bin073_AKBCEHHO_01484;dRep_bin064_CMDDCDKG_00307;dRep_bin232_JGAEDAFA_01071;dRep_bin131_HLFNHDGI_00031	dRep_bin191_NGFJMLOL_01220;dRep_bin113_LIFKCGBF_01626	>dRep_bin191_NGFJMLOL_01220 Methylmalonyl-CoA carboxyltransferase 5S subunit;>dRep_bin113_LIFKCGBF_01626 Methylmalonyl-CoA carboxyltransferase 5S subunit	dRep_bin073_AKBCEHHO_01484	CDS		2.1.3.1	Methylmalonyl-CoA carboxyltransferase 5S subunit
AKBCEHHO_01508					24.92999	26.26315		24.869850000000003				4	1	2,0693E-53	dRep_bin113_LIFKCGBF_01292;dRep_bin298_EIPJCOMF_00833;dRep_bin271_NGFBCHKH_00996;dRep_bin112_NDMGAKCH_01613;dRep_bin232_JGAEDAFA_00912;dRep_bin073_AKBCEHHO_01508;dRep_bin296_FDMPKPOH_00354	dRep_bin113_LIFKCGBF_01292;dRep_bin298_EIPJCOMF_00833;dRep_bin271_NGFBCHKH_00996;dRep_bin112_NDMGAKCH_01613	>dRep_bin113_LIFKCGBF_01292 Arginine--tRNA ligase;>dRep_bin298_EIPJCOMF_00833 Arginine--tRNA ligase;>dRep_bin271_NGFBCHKH_00996 Arginine--tRNA ligase;>dRep_bin112_NDMGAKCH_01613 Arginine--tRNA ligase	dRep_bin073_AKBCEHHO_01508	CDS	argS	6.1.1.19	Arginine--tRNA ligase
AKBCEHHO_01560	28.57618	28.73908	28.601940000000003	29.525329999999997	29.361539999999998	29.35947	29.47117	28.94081				13	7	2,1177E-64	dRep_bin191_NGFJMLOL_01183;dRep_bin170_LICLFCFF_01189;dRep_bin198_GMLJKALI_01270;dRep_bin064_CMDDCDKG_00041;dRep_bin137_NABPABPB_00428;dRep_bin289_KALDCNNP_00317;dRep_bin183_FPGIOKBG_00493;dRep_bin224_NFENHJGB_01634;dRep_bin314_KCHFPLIP_00994;dRep_bin285_IPHKFJAN_01105;dRep_bin294_EHJINIDK_00253;dRep_bin002_CFBNDKDN_01884;dRep_bin229_FFOBPPJI_00639;dRep_bin318_IEDEJOFJ_01051;dRep_bin355_KJEFNADK_00398;dRep_bin267_LJCFMAFA_00932;dRep_bin230_NINMBMKB_00343;dRep_bin249_OFIIEIDJ_01003;dRep_bin007_LNLEAAAN_00258;dRep_bin037_GEAOEKHA_00979;dRep_bin346_JKFDGFHC_00518;dRep_bin196_BIELHBNH_00928;dRep_bin063_PJANDMAH_01542;dRep_bin045_GJACFFBC_02082;dRep_bin036_DOKCEIDH_00964;dRep_bin034_MEBMFDLL_02139;dRep_bin329_GDOHKPBL_01390;dRep_bin345_GLPJDLOI_00615;dRep_bin307_AOCKHIKF_00674;dRep_bin098_DDEBHDKK_00690;dRep_bin301_NJFJIJGA_01580;dRep_bin275_NIDIBBDA_00434;dRep_bin149_GABCHCDI_00617;dRep_bin093_PGADNPMG_01618;dRep_bin014_CHIHIMAN_00183;dRep_bin073_AKBCEHHO_01560;dRep_bin210_AGEDAEIA_00697;dRep_bin084_CGBIKHBH_01547;dRep_bin070_EMBHKIOF_00966;dRep_bin022_BOEAFNDE_00824;dRep_bin256_KEMNAOBC_01139;dRep_bin071_JHMCIJPE_00028;dRep_bin165_HMDFFMMM_00871;dRep_bin118_FGIOKLBC_00537;dRep_bin110_JGOEJECF_01108;dRep_bin316_FNLHDNEO_00330;dRep_bin296_FDMPKPOH_01624;dRep_bin232_JGAEDAFA_01628;dRep_bin290_OIOJKBNK_00304	dRep_bin191_NGFJMLOL_01183	>dRep_bin191_NGFJMLOL_01183 S-adenosylmethionine synthase	dRep_bin073_AKBCEHHO_01560	CDS	metK	2.5.1.6	S-adenosylmethionine synthase
AKBCEHHO_01564		22.397930000000002										6	1	6,1824E-100	dRep_bin329_GDOHKPBL_01283;dRep_bin064_CMDDCDKG_01156;dRep_bin063_PJANDMAH_01333;dRep_bin036_DOKCEIDH_01325;dRep_bin034_MEBMFDLL_01698;dRep_bin271_NGFBCHKH_01568;dRep_bin298_EIPJCOMF_00766;dRep_bin196_BIELHBNH_01217;dRep_bin289_KALDCNNP_00695;dRep_bin232_JGAEDAFA_00270;dRep_bin073_AKBCEHHO_01564	dRep_bin329_GDOHKPBL_01283;dRep_bin064_CMDDCDKG_01156;dRep_bin063_PJANDMAH_01333;dRep_bin036_DOKCEIDH_01325;dRep_bin034_MEBMFDLL_01698;dRep_bin271_NGFBCHKH_01568;dRep_bin298_EIPJCOMF_00766;dRep_bin196_BIELHBNH_01217;dRep_bin289_KALDCNNP_00695;dRep_bin232_JGAEDAFA_00270;dRep_bin073_AKBCEHHO_01564	>dRep_bin329_GDOHKPBL_01283 Glycine--tRNA ligase;>dRep_bin064_CMDDCDKG_01156 Glycine--tRNA ligase;>dRep_bin063_PJANDMAH_01333 Glycine--tRNA ligase;>dRep_bin036_DOKCEIDH_01325 Glycine--tRNA ligase;>dRep_bin034_MEBMFDLL_01698 Glycine--tRNA ligase;>dRep_bin27	dRep_bin073_AKBCEHHO_01564	CDS	glyQS	6.1.1.14	Glycine--tRNA ligase
AKBCEHHO_01587						24.04135		22.972719999999995				2	2	1,7106E-11	dRep_bin014_CHIHIMAN_00312;dRep_bin028_GKEJLBAM_00939;dRep_bin307_AOCKHIKF_00121;dRep_bin098_DDEBHDKK_00754;dRep_bin084_CGBIKHBH_00883;dRep_bin232_JGAEDAFA_00151;dRep_bin073_AKBCEHHO_01587	dRep_bin014_CHIHIMAN_00312;dRep_bin028_GKEJLBAM_00939;dRep_bin307_AOCKHIKF_00121;dRep_bin098_DDEBHDKK_00754;dRep_bin084_CGBIKHBH_00883;dRep_bin232_JGAEDAFA_00151;dRep_bin073_AKBCEHHO_01587	>dRep_bin014_CHIHIMAN_00312 Alanine--tRNA ligase;>dRep_bin028_GKEJLBAM_00939 Alanine--tRNA ligase;>dRep_bin307_AOCKHIKF_00121 Alanine--tRNA ligase;>dRep_bin098_DDEBHDKK_00754 Alanine--tRNA ligase;>dRep_bin084_CGBIKHBH_00883 Alanine--tRNA ligase;>dRep_bin23	dRep_bin073_AKBCEHHO_01587	CDS	alaS	6.1.1.7	Alanine--tRNA ligase
AKBCEHHO_01672	24.76719	25.137000000000004	24.487319999999997									5	2	6,3204E-86	dRep_bin073_AKBCEHHO_01672;dRep_bin183_FPGIOKBG_00447	dRep_bin073_AKBCEHHO_01672	>dRep_bin073_AKBCEHHO_01672 TonB-dependent receptor SusC	dRep_bin073_AKBCEHHO_01672	CDS	susC_7		TonB-dependent receptor SusC
AKBCEHHO_01701						25.440689999999996						2	2	4,1296E-05	dRep_bin064_CMDDCDKG_01330;dRep_bin331_HPKAPHAF_01854;dRep_bin018_ILOONPIC_00848;dRep_bin345_GLPJDLOI_00724;dRep_bin035_JBNPBOKG_00289;dRep_bin210_AGEDAEIA_00655;dRep_bin040_EIFLLDOA_01402;dRep_bin118_FGIOKLBC_01360;dRep_bin028_GKEJLBAM_00709;dRep_bin022_BOEAFNDE_01282;dRep_bin329_GDOHKPBL_01606;dRep_bin298_EIPJCOMF_00432;dRep_bin289_KALDCNNP_01273;dRep_bin285_IPHKFJAN_00943;dRep_bin224_NFENHJGB_01604;dRep_bin196_BIELHBNH_00776;dRep_bin112_NDMGAKCH_01277;dRep_bin063_PJANDMAH_00973;dRep_bin036_DOKCEIDH_01516;dRep_bin034_MEBMFDLL_00231;dRep_bin307_AOCKHIKF_01110;dRep_bin294_EHJINIDK_00507;dRep_bin198_GMLJKALI_01032;dRep_bin183_FPGIOKBG_02003;dRep_bin170_LICLFCFF_00138;dRep_bin138_EJGHNBMI_01137;dRep_bin137_NABPABPB_01486;dRep_bin113_LIFKCGBF_00538;dRep_bin098_DDEBHDKK_00164;dRep_bin045_GJACFFBC_00127;dRep_bin165_HMDFFMMM_01102;dRep_bin002_CFBNDKDN_00484;dRep_bin073_AKBCEHHO_01701;dRep_bin232_JGAEDAFA_00348;dRep_bin111_FPJIHFKE_01011;dRep_bin346_JKFDGFHC_01226	dRep_bin064_CMDDCDKG_01330;dRep_bin331_HPKAPHAF_01854;dRep_bin018_ILOONPIC_00848;dRep_bin345_GLPJDLOI_00724;dRep_bin035_JBNPBOKG_00289;dRep_bin210_AGEDAEIA_00655;dRep_bin040_EIFLLDOA_01402;dRep_bin118_FGIOKLBC_01360;dRep_bin028_GKEJLBAM_00709;dRep_bin022_BOEAFNDE_01282;dRep_bin329_GDOHKPBL_01606;dRep_bin298_EIPJCOMF_00432;dRep_bin289_KALDCNNP_01273;dRep_bin285_IPHKFJAN_00943;dRep_bin224_NFENHJGB_01604;dRep_bin196_BIELHBNH_00776;dRep_bin112_NDMGAKCH_01277;dRep_bin063_PJANDMAH_00973;dRep_bin036_DOKCEIDH_01516;dRep_bin034_MEBMFDLL_00231;dRep_bin307_AOCKHIKF_01110;dRep_bin294_EHJINIDK_00507;dRep_bin198_GMLJKALI_01032;dRep_bin183_FPGIOKBG_02003;dRep_bin170_LICLFCFF_00138;dRep_bin138_EJGHNBMI_01137;dRep_bin137_NABPABPB_01486;dRep_bin113_LIFKCGBF_00538;dRep_bin098_DDEBHDKK_00164;dRep_bin045_GJACFFBC_00127;dRep_bin165_HMDFFMMM_01102;dRep_bin002_CFBNDKDN_00484;dRep_bin073_AKBCEHHO_01701;dRep_bin232_JGAEDAFA_00348;dRep_bin111_FPJIHFKE_01011;dRep_bin346_JKFDGFHC_01226	>dRep_bin064_CMDDCDKG_01330 Chaperone protein HtpG;>dRep_bin331_HPKAPHAF_01854 Chaperone protein HtpG;>dRep_bin018_ILOONPIC_00848 Chaperone protein HtpG;>dRep_bin345_GLPJDLOI_00724 Chaperone protein HtpG;>dRep_bin035_JBNPBOKG_00289 Chaperone protein HtpG;>	dRep_bin073_AKBCEHHO_01701	CDS	htpG		Chaperone protein HtpG
AKBCEHHO_01703	25.703719999999997											4	3	3,1856E-14	dRep_bin232_JGAEDAFA_01216;dRep_bin073_AKBCEHHO_01703	dRep_bin232_JGAEDAFA_01216;dRep_bin073_AKBCEHHO_01703	>dRep_bin232_JGAEDAFA_01216 Hydroxypyruvate reductase;>dRep_bin073_AKBCEHHO_01703 Hydroxypyruvate reductase	dRep_bin073_AKBCEHHO_01703	CDS		1.1.1.81	Hydroxypyruvate reductase
AKBCEHHO_01704	25.2888	24.781019999999998	25.214970000000005	26.16298	26.917180000000002	27.65547	25.07676	26.51742				5	3	3,2444E-34	dRep_bin073_AKBCEHHO_01704	dRep_bin073_AKBCEHHO_01704	>dRep_bin073_AKBCEHHO_01704 Phosphoserine aminotransferase	dRep_bin073_AKBCEHHO_01704	CDS	serC	2.6.1.52	Phosphoserine aminotransferase
AKBCEHHO_01705					25.57508	26.73776	25.131480000000003	25.210739999999998				3	3	2,6068E-10	dRep_bin191_NGFJMLOL_00154;dRep_bin045_GJACFFBC_00079;dRep_bin111_FPJIHFKE_00406;dRep_bin138_EJGHNBMI_01064;dRep_bin285_IPHKFJAN_00515;dRep_bin196_BIELHBNH_01025;dRep_bin224_NFENHJGB_01269;dRep_bin296_FDMPKPOH_01413;dRep_bin128_JPBBHEMA_00518;dRep_bin073_AKBCEHHO_01705;dRep_bin232_JGAEDAFA_01214;dRep_bin110_JGOEJECF_00385;dRep_bin307_AOCKHIKF_01479;dRep_bin098_DDEBHDKK_01514;dRep_bin018_ILOONPIC_00305;dRep_bin170_LICLFCFF_00331;dRep_bin035_JBNPBOKG_00057;dRep_bin034_MEBMFDLL_01539;dRep_bin346_JKFDGFHC_00885;dRep_bin298_EIPJCOMF_00371;dRep_bin165_HMDFFMMM_00204;dRep_bin028_GKEJLBAM_01477;dRep_bin229_FFOBPPJI_00453;dRep_bin275_NIDIBBDA_00691;dRep_bin118_FGIOKLBC_01843;dRep_bin113_LIFKCGBF_00471;dRep_bin084_CGBIKHBH_01308;dRep_bin329_GDOHKPBL_00694;dRep_bin131_HLFNHDGI_00779;dRep_bin036_DOKCEIDH_00191;dRep_bin137_NABPABPB_00552;dRep_bin210_AGEDAEIA_00804;dRep_bin022_BOEAFNDE_00719;dRep_bin294_EHJINIDK_00312;dRep_bin093_PGADNPMG_01602;dRep_bin289_KALDCNNP_00932;dRep_bin040_EIFLLDOA_00160;dRep_bin183_FPGIOKBG_00710	dRep_bin191_NGFJMLOL_00154;dRep_bin045_GJACFFBC_00079;dRep_bin111_FPJIHFKE_00406;dRep_bin138_EJGHNBMI_01064;dRep_bin285_IPHKFJAN_00515;dRep_bin196_BIELHBNH_01025;dRep_bin224_NFENHJGB_01269	>dRep_bin191_NGFJMLOL_00154 Protein translocase subunit SecA;>dRep_bin045_GJACFFBC_00079 Protein translocase subunit SecA;>dRep_bin111_FPJIHFKE_00406 Protein translocase subunit SecA;>dRep_bin138_EJGHNBMI_01064 Protein translocase subunit SecA;>dRep_bin285	dRep_bin073_AKBCEHHO_01705	CDS	secA		Protein translocase subunit SecA
