GBprotID	LFQ intensity CtrPig1	LFQ intensity CtrPig2	LFQ intensity CtrPig3	LFQ intensity CtrPig4	LFQ intensity MannanPig1	LFQ intensity MannanPig2	LFQ intensity MannanPig3	LFQ intensity MannanPig4	Only identified by site	Reverse	Contaminant	Peptides	Unique peptides	PEP	Protein IDs	Majority protein IDs	Fasta headers	IDcomb	ftype	gene	EC_number	product
DNNBMPMC_00009					24.24887	26.77128	24.69339	24.025629999999996				3	1	5,593E-12	dRep_bin139_KGAJINND_01577;dRep_bin344_CJJBDGAA_01807;dRep_bin300_MJPPENNL_01697;dRep_bin324_IPNHOHFK_02134;dRep_bin261_FJICAFFM_01134;dRep_bin303_DDDNDJCF_01519;dRep_bin297_EDHEEICA_00415;dRep_bin209_NKIHFCEN_00709;dRep_bin167_BLMEBMNN_00621;dRep_bin157_JPNIKEKI_01820;dRep_bin133_NOBPDBPA_02652;dRep_bin016_JLGAHGOJ_01099;dRep_bin292_JIBLDOOH_01420;dRep_bin127_FIPNHBCH_01248;dRep_bin062_BOFBFLDA_01336;dRep_bin115_IFKGOGCL_01923;dRep_bin269_PNILGKPH_02213;dRep_bin208_DHPGEIBC_01209;dRep_bin347_EKGCMFPD_00714;dRep_bin266_JFOCEDAE_00751;dRep_bin211_LGJEFJIK_00719;dRep_bin316_FNLHDNEO_01427;dRep_bin065_DFABHCBI_00784;dRep_bin319_PBDBJGCJ_00028;dRep_bin077_DNNBMPMC_00009;dRep_bin006_HPJGJCAG_01885;dRep_bin066_AJACLPEE_00266;dRep_bin279_IAEFEPEN_00114;dRep_bin254_GJDPFAEA_01714;dRep_bin035_JBNPBOKG_00265;dRep_bin092_OOJCPDEA_01135;dRep_bin173_BEBNCADL_00932;dRep_bin261_FJICAFFM_01422;dRep_bin288_KOIAAABN_01088;dRep_bin263_OLEFOGIJ_00124;dRep_bin099_DNDAGJEJ_00022;dRep_bin325_EIIGOGHN_01093;dRep_bin076_GLAOFBEC_01169;dRep_bin089_PAJFOJBN_00283;dRep_bin287_DONBGKDH_01271;dRep_bin162_JBGCCDIN_01770;dRep_bin135_HHKACLPM_00267;dRep_bin332_KAOPCDPF_00441;dRep_bin310_IMBAFDIF_00637;dRep_bin304_JDNJGFKH_01711;dRep_bin222_GGCAJABB_01248;dRep_bin159_ADJJGPBG_01860;dRep_bin043_KLAFNACO_01408;dRep_bin023_HGFJFKAI_00653;dRep_bin189_AHHEHGDL_01147;dRep_bin328_GIGKNKPJ_01484;dRep_bin282_PKAAPBFP_01012;dRep_bin229_FFOBPPJI_01006;dRep_bin203_CLFNNOCF_00634;dRep_bin102_ICFDHPGB_01107;dRep_bin072_JOBJPCGA_00187;dRep_bin029_LFMGBBEC_00768;dRep_bin017_FGFLFOPJ_00988;dRep_bin195_DDMDFNOK_00791;dRep_bin120_EKLBOPNC_01828;dRep_bin058_GJKCICJN_00813;dRep_bin046_GKEJLOEK_00003;dRep_bin186_HJAAFFNP_01596;dRep_bin349_AMCJEEEG_00676;dRep_bin200_JJGKEOHI_00578;dRep_bin027_OFJCHLJJ_00701;dRep_bin161_JMKPMHCO_01186;dRep_bin160_EFKMPBOM_00139;dRep_bin154_JGOKHKLI_00533;dRep_bin083_OCBADPJJ_00750;dRep_bin049_MNFBDPNO_00757;dRep_bin008_MNDMJLEI_00707;dRep_bin158_OGFICEAP_00389;dRep_bin334_NAPFFNLD_00463;dRep_bin339_DBNBAHDK_00481;dRep_bin241_LMMMGDNI_00312;dRep_bin179_HFEIPPPA_00773;dRep_bin245_MBCFLKOF_01292;dRep_bin010_MFFFGEGD_00549	dRep_bin139_KGAJINND_01577;dRep_bin344_CJJBDGAA_01807;dRep_bin300_MJPPENNL_01697;dRep_bin324_IPNHOHFK_02134;dRep_bin261_FJICAFFM_01134;dRep_bin303_DDDNDJCF_01519;dRep_bin297_EDHEEICA_00415;dRep_bin209_NKIHFCEN_00709;dRep_bin167_BLMEBMNN_00621;dRep_bin157_JPNIKEKI_01820;dRep_bin133_NOBPDBPA_02652;dRep_bin016_JLGAHGOJ_01099;dRep_bin292_JIBLDOOH_01420;dRep_bin127_FIPNHBCH_01248;dRep_bin062_BOFBFLDA_01336;dRep_bin115_IFKGOGCL_01923;dRep_bin269_PNILGKPH_02213	>dRep_bin139_KGAJINND_01577 Chaperone protein ClpB 1;>dRep_bin344_CJJBDGAA_01807 Chaperone protein ClpB;>dRep_bin300_MJPPENNL_01697 Chaperone protein ClpB;>dRep_bin324_IPNHOHFK_02134 Chaperone protein ClpB;>dRep_bin261_FJICAFFM_01134 Chaperone protein ClpB	dRep_bin077_DNNBMPMC_00009	CDS	clpB_1		Chaperone protein ClpB
DNNBMPMC_00027						25.09124						2	1	4,5778E-07	dRep_bin077_DNNBMPMC_00027	dRep_bin077_DNNBMPMC_00027	>dRep_bin077_DNNBMPMC_00027 Pyruvate synthase	dRep_bin077_DNNBMPMC_00027	CDS	por_1	1.2.7.1	Pyruvate synthase
DNNBMPMC_00028							25.961199999999998					2	2	0,00015786	dRep_bin160_EFKMPBOM_01728;dRep_bin154_JGOKHKLI_02759;dRep_bin016_JLGAHGOJ_00947;dRep_bin300_MJPPENNL_00320;dRep_bin279_IAEFEPEN_00556;dRep_bin240_LDBBGJKG_00232;dRep_bin114_FJHJKHGL_00711;dRep_bin319_PBDBJGCJ_01578;dRep_bin303_DDDNDJCF_01052;dRep_bin266_JFOCEDAE_00913;dRep_bin249_OFIIEIDJ_00119;dRep_bin248_CCDFPECI_00592;dRep_bin234_ECABPBME_02379;dRep_bin220_PILICLLL_00845;dRep_bin186_HJAAFFNP_01196;dRep_bin185_OOOLKACK_00335;dRep_bin168_HKDILBFE_00607;dRep_bin166_DFIAJFEC_00186;dRep_bin158_OGFICEAP_00280;dRep_bin148_NAJFKJMD_00336;dRep_bin145_KMJJJOEJ_00820;dRep_bin139_KGAJINND_00662;dRep_bin134_HIAPAODO_02113;dRep_bin115_IFKGOGCL_02339;dRep_bin107_EFNBPDOP_00642;dRep_bin099_DNDAGJEJ_00407;dRep_bin095_HOBNOEEF_01490;dRep_bin077_DNNBMPMC_00028;dRep_bin069_EGGEOGDC_00544;dRep_bin047_IFFANOMN_01760;dRep_bin007_LNLEAAAN_01008;dRep_bin328_GIGKNKPJ_01593;dRep_bin058_GJKCICJN_01440;dRep_bin081_JDPCKDNP_01744;dRep_bin066_AJACLPEE_00558	dRep_bin160_EFKMPBOM_01728;dRep_bin154_JGOKHKLI_02759;dRep_bin016_JLGAHGOJ_00947;dRep_bin300_MJPPENNL_00320;dRep_bin279_IAEFEPEN_00556;dRep_bin240_LDBBGJKG_00232;dRep_bin114_FJHJKHGL_00711;dRep_bin319_PBDBJGCJ_01578;dRep_bin303_DDDNDJCF_01052;dRep_bin266_JFOCEDAE_00913;dRep_bin249_OFIIEIDJ_00119;dRep_bin248_CCDFPECI_00592;dRep_bin234_ECABPBME_02379;dRep_bin220_PILICLLL_00845;dRep_bin186_HJAAFFNP_01196;dRep_bin185_OOOLKACK_00335;dRep_bin168_HKDILBFE_00607;dRep_bin166_DFIAJFEC_00186;dRep_bin158_OGFICEAP_00280;dRep_bin148_NAJFKJMD_00336;dRep_bin145_KMJJJOEJ_00820;dRep_bin139_KGAJINND_00662;dRep_bin134_HIAPAODO_02113;dRep_bin115_IFKGOGCL_02339;dRep_bin107_EFNBPDOP_00642;dRep_bin099_DNDAGJEJ_00407;dRep_bin095_HOBNOEEF_01490;dRep_bin077_DNNBMPMC_00028;dRep_bin069_EGGEOGDC_00544;dRep_bin047_IFFANOMN_01760;dRep_bin007_LNLEAAAN_01008;dRep_bin328_GIGKNKPJ_01593;dRep_bin058_GJKCICJN_01440;dRep_bin081_JDPCKDNP_01744;dRep_bin066_AJACLPEE_00558	>dRep_bin160_EFKMPBOM_01728 Asparagine--tRNA ligase;>dRep_bin154_JGOKHKLI_02759 Asparagine--tRNA ligase;>dRep_bin016_JLGAHGOJ_00947 Asparagine--tRNA ligase;>dRep_bin300_MJPPENNL_00320 Asparagine--tRNA ligase;>dRep_bin279_IAEFEPEN_00556 Asparagine--tRNA lig	dRep_bin077_DNNBMPMC_00028	CDS	asnS	6.1.1.22	Asparagine--tRNA ligase
DNNBMPMC_00037	23.6937	22.55319	22.817590000000003	22.79658								6	2	3,7467E-65	dRep_bin115_IFKGOGCL_02494;dRep_bin328_GIGKNKPJ_01111;dRep_bin181_MKGPMPIA_00465;dRep_bin319_PBDBJGCJ_01232;dRep_bin091_MAFACGAD_00725;dRep_bin077_DNNBMPMC_00037;dRep_bin007_LNLEAAAN_00658;dRep_bin066_AJACLPEE_01254;dRep_bin218_ACMPALGF_00107;dRep_bin168_HKDILBFE_00926;dRep_bin099_DNDAGJEJ_00999;dRep_bin089_PAJFOJBN_00512;dRep_bin306_FGHMKMMP_00549;dRep_bin267_LJCFMAFA_00570	dRep_bin115_IFKGOGCL_02494;dRep_bin328_GIGKNKPJ_01111	>dRep_bin115_IFKGOGCL_02494 Acetate kinase;>dRep_bin328_GIGKNKPJ_01111 Acetate kinase	dRep_bin077_DNNBMPMC_00037	CDS	ackA	2.7.2.1	Acetate kinase
DNNBMPMC_00068	28.490519999999997	28.34143	28.00742	28.15943	28.19221	26.505589999999998	28.288419999999995	27.70616				14	1	2,3057E-295	dRep_bin066_AJACLPEE_00962;dRep_bin181_MKGPMPIA_00170;dRep_bin319_PBDBJGCJ_00888;dRep_bin077_DNNBMPMC_00068;dRep_bin252_NDAKLAGD_01819;dRep_bin219_HGPEELLF_01018;dRep_bin129_GADIAMAA_01157;dRep_bin264_DNFFGNEG_00769;dRep_bin246_MMFBABHK_00503	dRep_bin066_AJACLPEE_00962;dRep_bin181_MKGPMPIA_00170;dRep_bin319_PBDBJGCJ_00888;dRep_bin077_DNNBMPMC_00068	>dRep_bin066_AJACLPEE_00962 GGGtGRT protein;>dRep_bin181_MKGPMPIA_00170 GGGtGRT protein;>dRep_bin319_PBDBJGCJ_00888 GGGtGRT protein;>dRep_bin077_DNNBMPMC_00068 GGGtGRT protein	dRep_bin077_DNNBMPMC_00068	CDS			GGGtGRT protein
DNNBMPMC_00123					23.47482	26.06316	23.80469					5	5	4,9368E-13	dRep_bin041_OPKGAAAG_01786;dRep_bin297_EDHEEICA_00819;dRep_bin226_NLNLHLLD_00014;dRep_bin133_NOBPDBPA_02404;dRep_bin292_JIBLDOOH_01469;dRep_bin157_JPNIKEKI_01549;dRep_bin284_DEHKNOBF_01775;dRep_bin168_HKDILBFE_01874;dRep_bin099_DNDAGJEJ_00210;dRep_bin081_JDPCKDNP_00860;dRep_bin347_EKGCMFPD_00476;dRep_bin335_JIOGNAPG_00892;dRep_bin325_EIIGOGHN_01423;dRep_bin310_IMBAFDIF_01601;dRep_bin308_JBPDGLPP_00710;dRep_bin300_MJPPENNL_00786;dRep_bin282_PKAAPBFP_01049;dRep_bin269_PNILGKPH_00370;dRep_bin254_GJDPFAEA_00787;dRep_bin240_LDBBGJKG_00829;dRep_bin234_ECABPBME_01771;dRep_bin218_ACMPALGF_00712;dRep_bin209_NKIHFCEN_00384;dRep_bin186_HJAAFFNP_00308;dRep_bin179_HFEIPPPA_00593;dRep_bin127_FIPNHBCH_00962;dRep_bin091_MAFACGAD_00732;dRep_bin089_PAJFOJBN_01716;dRep_bin088_DNGPPFDK_00290;dRep_bin069_EGGEOGDC_00822;dRep_bin039_IJNOFOJK_00358;dRep_bin306_FGHMKMMP_00408;dRep_bin077_DNNBMPMC_00123;dRep_bin057_BNCFHBBO_01103	dRep_bin041_OPKGAAAG_01786;dRep_bin297_EDHEEICA_00819;dRep_bin226_NLNLHLLD_00014;dRep_bin133_NOBPDBPA_02404	>dRep_bin041_OPKGAAAG_01786 Hydroxypyruvate reductase;>dRep_bin297_EDHEEICA_00819 Hydroxypyruvate reductase;>dRep_bin226_NLNLHLLD_00014 D-3-phosphoglycerate dehydrogenase;>dRep_bin133_NOBPDBPA_02404 Hydroxypyruvate reductase	dRep_bin077_DNNBMPMC_00123	CDS	serA	1.1.1.95	D-3-phosphoglycerate dehydrogenase
DNNBMPMC_00160			23.262129999999996									1	1	1,124E-05	dRep_bin325_EIIGOGHN_00455;dRep_bin287_DONBGKDH_01891;dRep_bin260_HELEPKJL_00793;dRep_bin095_HOBNOEEF_02183;dRep_bin023_HGFJFKAI_00898;dRep_bin226_NLNLHLLD_01485;dRep_bin041_OPKGAAAG_02051;dRep_bin062_BOFBFLDA_01385;dRep_bin181_MKGPMPIA_01332;dRep_bin269_PNILGKPH_01447;dRep_bin282_PKAAPBFP_01100;dRep_bin261_FJICAFFM_01242;dRep_bin203_CLFNNOCF_00622;dRep_bin234_ECABPBME_01964;dRep_bin007_LNLEAAAN_01741;dRep_bin335_JIOGNAPG_00799;dRep_bin309_BIOHLCGG_01161;dRep_bin160_EFKMPBOM_00129;dRep_bin154_JGOKHKLI_00545;dRep_bin133_NOBPDBPA_03678;dRep_bin089_PAJFOJBN_00292;dRep_bin019_MOJEPLJF_01283;dRep_bin134_HIAPAODO_00643;dRep_bin024_OLHDGABE_01143;dRep_bin005_CNDFPKJG_01361;dRep_bin209_NKIHFCEN_00699;dRep_bin179_HFEIPPPA_01887;dRep_bin157_JPNIKEKI_01833;dRep_bin107_EFNBPDOP_00671;dRep_bin077_DNNBMPMC_00160;dRep_bin039_IJNOFOJK_00262;dRep_bin016_JLGAHGOJ_00401;dRep_bin344_CJJBDGAA_00564;dRep_bin324_IPNHOHFK_02103;dRep_bin249_OFIIEIDJ_01493;dRep_bin139_KGAJINND_00448;dRep_bin081_JDPCKDNP_01186;dRep_bin319_PBDBJGCJ_01293;dRep_bin279_IAEFEPEN_01252;dRep_bin220_PILICLLL_00969;dRep_bin201_OLKDIBOK_00798;dRep_bin293_MEPKGOAN_01317;dRep_bin292_JIBLDOOH_01431;dRep_bin027_OFJCHLJJ_01511;dRep_bin347_EKGCMFPD_00408;dRep_bin211_LGJEFJIK_00568	dRep_bin325_EIIGOGHN_00455;dRep_bin287_DONBGKDH_01891;dRep_bin260_HELEPKJL_00793;dRep_bin095_HOBNOEEF_02183;dRep_bin023_HGFJFKAI_00898;dRep_bin226_NLNLHLLD_01485;dRep_bin041_OPKGAAAG_02051;dRep_bin062_BOFBFLDA_01385;dRep_bin181_MKGPMPIA_01332;dRep_bin269_PNILGKPH_01447;dRep_bin282_PKAAPBFP_01100;dRep_bin261_FJICAFFM_01242;dRep_bin203_CLFNNOCF_00622;dRep_bin234_ECABPBME_01964;dRep_bin007_LNLEAAAN_01741;dRep_bin335_JIOGNAPG_00799;dRep_bin309_BIOHLCGG_01161;dRep_bin160_EFKMPBOM_00129;dRep_bin154_JGOKHKLI_00545;dRep_bin133_NOBPDBPA_03678;dRep_bin089_PAJFOJBN_00292;dRep_bin019_MOJEPLJF_01283;dRep_bin134_HIAPAODO_00643;dRep_bin024_OLHDGABE_01143;dRep_bin005_CNDFPKJG_01361;dRep_bin209_NKIHFCEN_00699;dRep_bin179_HFEIPPPA_01887;dRep_bin157_JPNIKEKI_01833;dRep_bin107_EFNBPDOP_00671;dRep_bin077_DNNBMPMC_00160;dRep_bin039_IJNOFOJK_00262;dRep_bin016_JLGAHGOJ_00401;dRep_bin344_CJJBDGAA_00564;dRep_bin324_IPNHOHFK_02103;dRep_bin249_OFIIEIDJ_01493;dRep_bin139_KGAJINND_00448;dRep_bin081_JDPCKDNP_01186;dRep_bin319_PBDBJGCJ_01293;dRep_bin279_IAEFEPEN_01252;dRep_bin220_PILICLLL_00969;dRep_bin201_OLKDIBOK_00798;dRep_bin293_MEPKGOAN_01317;dRep_bin292_JIBLDOOH_01431;dRep_bin027_OFJCHLJJ_01511;dRep_bin347_EKGCMFPD_00408;dRep_bin211_LGJEFJIK_00568	>dRep_bin325_EIIGOGHN_00455 Valine--tRNA ligase;>dRep_bin287_DONBGKDH_01891 Valine--tRNA ligase;>dRep_bin260_HELEPKJL_00793 Valine--tRNA ligase;>dRep_bin095_HOBNOEEF_02183 Valine--tRNA ligase;>dRep_bin023_HGFJFKAI_00898 Valine--tRNA ligase;>dRep_bin226_NLN	dRep_bin077_DNNBMPMC_00160	CDS	valS	6.1.1.9	Valine--tRNA ligase
DNNBMPMC_00168			21.517780000000002									3	1	2,204E-06	dRep_bin077_DNNBMPMC_00168;dRep_bin107_EFNBPDOP_00049	dRep_bin077_DNNBMPMC_00168;dRep_bin107_EFNBPDOP_00049	>dRep_bin077_DNNBMPMC_00168 Isocitrate dehydrogenase [NADP];>dRep_bin107_EFNBPDOP_00049 Isocitrate dehydrogenase [NADP]	dRep_bin077_DNNBMPMC_00168	CDS	icd	1.1.1.42	Isocitrate dehydrogenase [NADP]
DNNBMPMC_00179				25.57943								5	1	1,2836E-26	dRep_bin292_JIBLDOOH_00584;dRep_bin324_IPNHOHFK_00818;dRep_bin077_DNNBMPMC_00179	dRep_bin292_JIBLDOOH_00584;dRep_bin324_IPNHOHFK_00818	>dRep_bin292_JIBLDOOH_00584 Ornithine carbamoyltransferase;>dRep_bin324_IPNHOHFK_00818 Ornithine carbamoyltransferase	dRep_bin077_DNNBMPMC_00179	CDS	argF	2.1.3.3	Ornithine carbamoyltransferase
DNNBMPMC_00192	23.26026	24.0385	24.520729999999997	24.11633								4	1	2,4395E-14	dRep_bin134_HIAPAODO_01005;dRep_bin016_JLGAHGOJ_00442;dRep_bin139_KGAJINND_00954;dRep_bin115_IFKGOGCL_00629;dRep_bin062_BOFBFLDA_01155;dRep_bin089_PAJFOJBN_02089;dRep_bin303_DDDNDJCF_01217;dRep_bin095_HOBNOEEF_02098;dRep_bin308_JBPDGLPP_01121;dRep_bin300_MJPPENNL_01860;dRep_bin279_IAEFEPEN_01296;dRep_bin260_HELEPKJL_01361;dRep_bin240_LDBBGJKG_00583;dRep_bin127_FIPNHBCH_00043;dRep_bin107_EFNBPDOP_00043;dRep_bin077_DNNBMPMC_00192;dRep_bin066_AJACLPEE_00667;dRep_bin047_IFFANOMN_00232	dRep_bin134_HIAPAODO_01005;dRep_bin016_JLGAHGOJ_00442;dRep_bin139_KGAJINND_00954;dRep_bin115_IFKGOGCL_00629;dRep_bin062_BOFBFLDA_01155;dRep_bin089_PAJFOJBN_02089;dRep_bin303_DDDNDJCF_01217;dRep_bin095_HOBNOEEF_02098	>dRep_bin134_HIAPAODO_01005 30S ribosomal protein S5;>dRep_bin016_JLGAHGOJ_00442 30S ribosomal protein S5;>dRep_bin139_KGAJINND_00954 30S ribosomal protein S5;>dRep_bin115_IFKGOGCL_00629 30S ribosomal protein S5;>dRep_bin062_BOFBFLDA_01155 30S ribosomal pr	dRep_bin077_DNNBMPMC_00192	CDS	rpsE		30S ribosomal protein S5
DNNBMPMC_00351					24.60014	24.441709999999997						6	2	3,3596E-26	dRep_bin042_MMFCLHOO_00240;dRep_bin077_DNNBMPMC_00351	dRep_bin042_MMFCLHOO_00240	>dRep_bin042_MMFCLHOO_00240 Phosphoglucomutase	dRep_bin077_DNNBMPMC_00351	CDS	pgcA_1	5.4.2.2	Phosphoglucomutase
DNNBMPMC_00391					23.93742			23.47098				3	1	1,1062E-09	dRep_bin243_JDMELKLC_00398;dRep_bin303_DDDNDJCF_00769;dRep_bin282_PKAAPBFP_01679;dRep_bin201_OLKDIBOK_01319;dRep_bin319_PBDBJGCJ_01591;dRep_bin242_LKAIBGGJ_00029;dRep_bin310_IMBAFDIF_01505;dRep_bin260_HELEPKJL_01696;dRep_bin166_DFIAJFEC_00514;dRep_bin147_EJLBNEBE_00361;dRep_bin077_DNNBMPMC_00391;dRep_bin282_PKAAPBFP_00757;dRep_bin041_OPKGAAAG_01476;dRep_bin179_HFEIPPPA_00680;dRep_bin169_PNICKJKO_00497;dRep_bin139_KGAJINND_01602;dRep_bin101_BNDDLDCL_01738;dRep_bin023_HGFJFKAI_01298;dRep_bin160_EFKMPBOM_01956;dRep_bin069_EGGEOGDC_01526	dRep_bin243_JDMELKLC_00398;dRep_bin303_DDDNDJCF_00769;dRep_bin282_PKAAPBFP_01679;dRep_bin201_OLKDIBOK_01319;dRep_bin319_PBDBJGCJ_01591;dRep_bin242_LKAIBGGJ_00029;dRep_bin310_IMBAFDIF_01505;dRep_bin260_HELEPKJL_01696;dRep_bin166_DFIAJFEC_00514;dRep_bin147_EJLBNEBE_00361;dRep_bin077_DNNBMPMC_00391;dRep_bin282_PKAAPBFP_00757;dRep_bin041_OPKGAAAG_01476;dRep_bin179_HFEIPPPA_00680;dRep_bin169_PNICKJKO_00497;dRep_bin139_KGAJINND_01602;dRep_bin101_BNDDLDCL_01738;dRep_bin023_HGFJFKAI_01298;dRep_bin160_EFKMPBOM_01956;dRep_bin069_EGGEOGDC_01526	>dRep_bin243_JDMELKLC_00398 Enolase;>dRep_bin303_DDDNDJCF_00769 Enolase;>dRep_bin282_PKAAPBFP_01679 Enolase;>dRep_bin201_OLKDIBOK_01319 Enolase;>dRep_bin319_PBDBJGCJ_01591 Enolase;>dRep_bin242_LKAIBGGJ_00029 Enolase;>dRep_bin310_IMBAFDIF_01505 Enolase;>dRe	dRep_bin077_DNNBMPMC_00391	CDS	eno	4.2.1.11	Enolase
DNNBMPMC_00429	24.66655	25.382279999999998	25.017380000000003	24.617850000000008								2	2	2,4611E-07	dRep_bin336_MPGOKPOL_01888;dRep_bin094_LBLICAAO_00044;dRep_bin352_KFNHGNFC_00332;dRep_bin181_MKGPMPIA_00854;dRep_bin077_DNNBMPMC_00429;dRep_bin293_MEPKGOAN_01829;dRep_bin211_LGJEFJIK_01085	dRep_bin336_MPGOKPOL_01888;dRep_bin094_LBLICAAO_00044;dRep_bin352_KFNHGNFC_00332;dRep_bin181_MKGPMPIA_00854;dRep_bin077_DNNBMPMC_00429;dRep_bin293_MEPKGOAN_01829;dRep_bin211_LGJEFJIK_01085	>dRep_bin336_MPGOKPOL_01888 Peptidyl-prolyl cis-trans isomerase B;>dRep_bin094_LBLICAAO_00044 Peptidyl-prolyl cis-trans isomerase B;>dRep_bin352_KFNHGNFC_00332 Peptidyl-prolyl cis-trans isomerase A;>dRep_bin181_MKGPMPIA_00854 putative peptidyl-prolyl cis-t	dRep_bin077_DNNBMPMC_00429	CDS	ppiA	5.2.1.8	Peptidyl-prolyl cis-trans isomerase A
DNNBMPMC_00533								23.62778				4	1	3,6641E-10	dRep_bin139_KGAJINND_00546;dRep_bin344_CJJBDGAA_00504;dRep_bin269_PNILGKPH_01782;dRep_bin186_HJAAFFNP_01230;dRep_bin160_EFKMPBOM_02028;dRep_bin154_JGOKHKLI_01570;dRep_bin027_OFJCHLJJ_01704;dRep_bin019_MOJEPLJF_00393;dRep_bin095_HOBNOEEF_01900;dRep_bin007_LNLEAAAN_01664;dRep_bin134_HIAPAODO_02032;dRep_bin220_PILICLLL_00626;dRep_bin201_OLKDIBOK_01146;dRep_bin158_OGFICEAP_00831;dRep_bin261_FJICAFFM_00403;dRep_bin347_EKGCMFPD_01461;dRep_bin328_GIGKNKPJ_00617;dRep_bin308_JBPDGLPP_01735;dRep_bin284_DEHKNOBF_00839;dRep_bin254_GJDPFAEA_01844;dRep_bin127_FIPNHBCH_00020;dRep_bin081_JDPCKDNP_00351;dRep_bin065_DFABHCBI_01741;dRep_bin001_GHHJMDAL_00049;dRep_bin335_JIOGNAPG_00092;dRep_bin282_PKAAPBFP_00201;dRep_bin260_HELEPKJL_01120;dRep_bin039_IJNOFOJK_00928;dRep_bin088_DNGPPFDK_00468;dRep_bin248_CCDFPECI_00111;dRep_bin107_EFNBPDOP_01463;dRep_bin077_DNNBMPMC_00533;dRep_bin300_MJPPENNL_00852;dRep_bin279_IAEFEPEN_01391;dRep_bin145_KMJJJOEJ_01298;dRep_bin062_BOFBFLDA_00998;dRep_bin016_JLGAHGOJ_00540;dRep_bin310_IMBAFDIF_00139;dRep_bin115_IFKGOGCL_00786;dRep_bin158_OGFICEAP_00832;dRep_bin066_AJACLPEE_00773;dRep_bin249_OFIIEIDJ_01720;dRep_bin324_IPNHOHFK_00378;dRep_bin287_DONBGKDH_00056;dRep_bin186_HJAAFFNP_01363;dRep_bin181_MKGPMPIA_00052;dRep_bin319_PBDBJGCJ_00396;dRep_bin278_BFCONKOE_00395;dRep_bin024_OLHDGABE_00254;dRep_bin135_HHKACLPM_01039	dRep_bin139_KGAJINND_00546;dRep_bin344_CJJBDGAA_00504;dRep_bin269_PNILGKPH_01782;dRep_bin186_HJAAFFNP_01230;dRep_bin160_EFKMPBOM_02028;dRep_bin154_JGOKHKLI_01570;dRep_bin027_OFJCHLJJ_01704;dRep_bin019_MOJEPLJF_00393;dRep_bin095_HOBNOEEF_01900;dRep_bin007_LNLEAAAN_01664;dRep_bin134_HIAPAODO_02032;dRep_bin220_PILICLLL_00626;dRep_bin201_OLKDIBOK_01146;dRep_bin158_OGFICEAP_00831;dRep_bin261_FJICAFFM_00403;dRep_bin347_EKGCMFPD_01461;dRep_bin328_GIGKNKPJ_00617;dRep_bin308_JBPDGLPP_01735;dRep_bin284_DEHKNOBF_00839;dRep_bin254_GJDPFAEA_01844;dRep_bin127_FIPNHBCH_00020;dRep_bin081_JDPCKDNP_00351;dRep_bin065_DFABHCBI_01741;dRep_bin001_GHHJMDAL_00049;dRep_bin335_JIOGNAPG_00092;dRep_bin282_PKAAPBFP_00201;dRep_bin260_HELEPKJL_01120;dRep_bin039_IJNOFOJK_00928;dRep_bin088_DNGPPFDK_00468;dRep_bin248_CCDFPECI_00111;dRep_bin107_EFNBPDOP_01463;dRep_bin077_DNNBMPMC_00533;dRep_bin300_MJPPENNL_00852;dRep_bin279_IAEFEPEN_01391;dRep_bin145_KMJJJOEJ_01298;dRep_bin062_BOFBFLDA_00998;dRep_bin016_JLGAHGOJ_00540;dRep_bin310_IMBAFDIF_00139	>dRep_bin139_KGAJINND_00546 ATP-dependent 6-phosphofructokinase;>dRep_bin344_CJJBDGAA_00504 ATP-dependent 6-phosphofructokinase;>dRep_bin269_PNILGKPH_01782 ATP-dependent 6-phosphofructokinase;>dRep_bin186_HJAAFFNP_01230 ATP-dependent 6-phosphofructokinase;	dRep_bin077_DNNBMPMC_00533	CDS	pfkA	2.7.1.11	ATP-dependent 6-phosphofructokinase
DNNBMPMC_00629	28.738789999999998	28.75124	29.01084	29.3506	29.64461	30.02168	29.81859	30.104370000000003				12	4	1,026E-72	dRep_bin191_NGFJMLOL_01578;dRep_bin070_EMBHKIOF_00129;dRep_bin154_JGOKHKLI_00366;dRep_bin055_IBMMJAEE_00161;dRep_bin328_GIGKNKPJ_00645;dRep_bin047_IFFANOMN_00612;dRep_bin027_OFJCHLJJ_00977;dRep_bin005_CNDFPKJG_01432;dRep_bin278_BFCONKOE_00469;dRep_bin282_PKAAPBFP_00320;dRep_bin284_DEHKNOBF_00421;dRep_bin303_DDDNDJCF_00133;dRep_bin287_DONBGKDH_00272;dRep_bin220_PILICLLL_00145;dRep_bin107_EFNBPDOP_01320;dRep_bin158_OGFICEAP_01424;dRep_bin323_FBBLPLCG_01090;dRep_bin318_IEDEJOFJ_00395;dRep_bin308_JBPDGLPP_01660;dRep_bin306_FGHMKMMP_01032;dRep_bin261_FJICAFFM_00034;dRep_bin240_LDBBGJKG_01385;dRep_bin234_ECABPBME_00209;dRep_bin181_MKGPMPIA_00707;dRep_bin077_DNNBMPMC_00629;dRep_bin066_AJACLPEE_00619;dRep_bin065_DFABHCBI_01813;dRep_bin023_HGFJFKAI_00570;dRep_bin235_EGJBMLPF_00465;dRep_bin186_HJAAFFNP_00454;dRep_bin145_KMJJJOEJ_01616;dRep_bin095_HOBNOEEF_00383	dRep_bin191_NGFJMLOL_01578;dRep_bin070_EMBHKIOF_00129	>dRep_bin191_NGFJMLOL_01578 hypothetical protein;>dRep_bin070_EMBHKIOF_00129 hypothetical protein	dRep_bin077_DNNBMPMC_00629	CDS			hypothetical protein
DNNBMPMC_00719	26.06807	27.31268	26.51929	26.12443	25.66237	25.983379999999997	25.57025	25.19858				18	1	0	dRep_bin107_EFNBPDOP_00058;dRep_bin077_DNNBMPMC_00719	dRep_bin107_EFNBPDOP_00058;dRep_bin077_DNNBMPMC_00719	>dRep_bin107_EFNBPDOP_00058 hypothetical protein;>dRep_bin077_DNNBMPMC_00719 hypothetical protein	dRep_bin077_DNNBMPMC_00719	CDS			hypothetical protein
DNNBMPMC_00720	26.67061	27.714830000000003	25.72468	26.64169	27.57391	26.2188	26.5728	26.7128				5	1	9,9409E-57	dRep_bin220_PILICLLL_00256;dRep_bin024_OLHDGABE_00081;dRep_bin240_LDBBGJKG_00290;dRep_bin154_JGOKHKLI_00318;dRep_bin107_EFNBPDOP_00057;dRep_bin077_DNNBMPMC_00720	dRep_bin220_PILICLLL_00256	>dRep_bin220_PILICLLL_00256 Xylulose kinase	dRep_bin077_DNNBMPMC_00720	CDS	xylB	2.7.1.17	Xylulose kinase
DNNBMPMC_00729				24.33912								3	1	2,475E-09	dRep_bin077_DNNBMPMC_00729;dRep_bin238_OLNFACLE_01050;dRep_bin125_FADLGGII_01115	dRep_bin077_DNNBMPMC_00729	>dRep_bin077_DNNBMPMC_00729 Glutamate synthase [NADPH] small chain	dRep_bin077_DNNBMPMC_00729	CDS	gltD	1.4.1.13	Glutamate synthase [NADPH] small chain
DNNBMPMC_00828		26.86526										5	0	1,9553E-71	dRep_bin077_DNNBMPMC_00828;dRep_bin066_AJACLPEE_00599;dRep_bin319_PBDBJGCJ_01452;dRep_bin181_MKGPMPIA_00607	dRep_bin077_DNNBMPMC_00828;dRep_bin066_AJACLPEE_00599;dRep_bin319_PBDBJGCJ_01452;dRep_bin181_MKGPMPIA_00607	>dRep_bin077_DNNBMPMC_00828 IMP cyclohydrolase-like protein;>dRep_bin066_AJACLPEE_00599 IMP cyclohydrolase-like protein;>dRep_bin319_PBDBJGCJ_01452 IMP cyclohydrolase-like protein;>dRep_bin181_MKGPMPIA_00607 IMP cyclohydrolase-like protein	dRep_bin077_DNNBMPMC_00828	CDS			IMP cyclohydrolase-like protein
DNNBMPMC_00896						24.67971		24.857000000000003				8	0	1,3699E-25	dRep_bin292_JIBLDOOH_01683;dRep_bin209_NKIHFCEN_01847;dRep_bin300_MJPPENNL_01104;dRep_bin297_EDHEEICA_01589;dRep_bin158_OGFICEAP_00645;dRep_bin145_KMJJJOEJ_01481;dRep_bin075_EPEMMOCL_01001;dRep_bin279_IAEFEPEN_00173;dRep_bin261_FJICAFFM_00231;dRep_bin203_CLFNNOCF_01942;dRep_bin180_JMFOHHIL_00474;dRep_bin344_CJJBDGAA_00237;dRep_bin115_IFKGOGCL_02756;dRep_bin248_CCDFPECI_01893;dRep_bin095_HOBNOEEF_01556;dRep_bin069_EGGEOGDC_00965;dRep_bin017_FGFLFOPJ_00592;dRep_bin016_JLGAHGOJ_00202;dRep_bin007_LNLEAAAN_00807;dRep_bin047_IFFANOMN_01298;dRep_bin306_FGHMKMMP_01230;dRep_bin308_JBPDGLPP_00751;dRep_bin160_EFKMPBOM_00970;dRep_bin349_AMCJEEEG_00332;dRep_bin260_HELEPKJL_02007;dRep_bin107_EFNBPDOP_01388;dRep_bin135_HHKACLPM_01683;dRep_bin039_IJNOFOJK_01477;dRep_bin027_OFJCHLJJ_00143;dRep_bin046_GKEJLOEK_00472;dRep_bin325_EIIGOGHN_00365;dRep_bin322_OJELOJOF_00229;dRep_bin077_DNNBMPMC_00896;dRep_bin220_PILICLLL_01164;dRep_bin282_PKAAPBFP_01479;dRep_bin081_JDPCKDNP_01848;dRep_bin249_OFIIEIDJ_01249;dRep_bin091_MAFACGAD_00528;dRep_bin319_PBDBJGCJ_00293;dRep_bin284_DEHKNOBF_00825;dRep_bin154_JGOKHKLI_01489;dRep_bin186_HJAAFFNP_01555;dRep_bin332_KAOPCDPF_00765	dRep_bin292_JIBLDOOH_01683;dRep_bin209_NKIHFCEN_01847;dRep_bin300_MJPPENNL_01104;dRep_bin297_EDHEEICA_01589	>dRep_bin292_JIBLDOOH_01683 Methionine--tRNA ligase;>dRep_bin209_NKIHFCEN_01847 Methionine--tRNA ligase;>dRep_bin300_MJPPENNL_01104 Methionine--tRNA ligase;>dRep_bin297_EDHEEICA_01589 Methionine--tRNA ligase	dRep_bin077_DNNBMPMC_00896	CDS	metG	6.1.1.10	Methionine--tRNA ligase
DNNBMPMC_00941	23.498749999999998	23.41377	23.664050000000003	25.007910000000003								4	3	8,0566E-12	dRep_bin292_JIBLDOOH_01418;dRep_bin303_DDDNDJCF_00505;dRep_bin077_DNNBMPMC_00941;dRep_bin152_LJMCIADF_01123;dRep_bin124_HIHDFGCL_00335;dRep_bin079_GAOGCKND_00643;dRep_bin068_ENOLAELK_01078;dRep_bin038_EIGFILKG_00380;dRep_bin309_BIOHLCGG_00617;dRep_bin194_MEPDOGGJ_00286;dRep_bin025_CBEJJMLE_00539;dRep_bin247_EKGBJCBM_00804;dRep_bin253_CPMOAOBJ_00601;dRep_bin169_PNICKJKO_01110;dRep_bin123_PJKBFKBB_01254;dRep_bin306_FGHMKMMP_00717;dRep_bin293_MEPKGOAN_00676;dRep_bin257_JHFDCHCB_01083;dRep_bin249_OFIIEIDJ_00213;dRep_bin157_JPNIKEKI_01818;dRep_bin085_MBHLGCDB_01586;dRep_bin319_PBDBJGCJ_01316;dRep_bin300_MJPPENNL_01694;dRep_bin282_PKAAPBFP_01497;dRep_bin220_PILICLLL_01502;dRep_bin209_NKIHFCEN_00711;dRep_bin179_HFEIPPPA_01156;dRep_bin166_DFIAJFEC_01129;dRep_bin160_EFKMPBOM_01097;dRep_bin154_JGOKHKLI_00129;dRep_bin088_DNGPPFDK_00244;dRep_bin075_EPEMMOCL_01534;dRep_bin069_EGGEOGDC_00523;dRep_bin344_CJJBDGAA_01343;dRep_bin324_IPNHOHFK_02132;dRep_bin310_IMBAFDIF_01633;dRep_bin297_EDHEEICA_00782;dRep_bin269_PNILGKPH_01786;dRep_bin248_CCDFPECI_00995;dRep_bin226_NLNLHLLD_00535;dRep_bin203_CLFNNOCF_00636;dRep_bin168_HKDILBFE_00313;dRep_bin139_KGAJINND_00724;dRep_bin133_NOBPDBPA_02650;dRep_bin099_DNDAGJEJ_01464;dRep_bin091_MAFACGAD_00915;dRep_bin007_LNLEAAAN_01209;dRep_bin260_HELEPKJL_00482;dRep_bin186_HJAAFFNP_01391;dRep_bin115_IFKGOGCL_02481;dRep_bin039_IJNOFOJK_00485;dRep_bin354_MMOALAFN_01391;dRep_bin261_FJICAFFM_01132;dRep_bin336_MPGOKPOL_01187;dRep_bin095_HOBNOEEF_00148;dRep_bin348_LCLFDNEE_00586;dRep_bin125_FADLGGII_01253;dRep_bin089_PAJFOJBN_00918;dRep_bin277_MIPNGEJE_00466	dRep_bin292_JIBLDOOH_01418;dRep_bin303_DDDNDJCF_00505	>dRep_bin292_JIBLDOOH_01418 Putative aminotransferase/MSMEI_6121;>dRep_bin303_DDDNDJCF_00505 Putative aminotransferase/MSMEI_6121	dRep_bin077_DNNBMPMC_00941	CDS			Putative aminotransferase/MSMEI_6121
DNNBMPMC_01008				25.39682								11	0	1,0719E-56	dRep_bin319_PBDBJGCJ_00583;dRep_bin066_AJACLPEE_00089;dRep_bin091_MAFACGAD_00436;dRep_bin234_ECABPBME_00010;dRep_bin282_PKAAPBFP_00287;dRep_bin088_DNGPPFDK_01225;dRep_bin077_DNNBMPMC_01008;dRep_bin024_OLHDGABE_00644;dRep_bin181_MKGPMPIA_00533;dRep_bin099_DNDAGJEJ_00128;dRep_bin211_LGJEFJIK_00732	dRep_bin319_PBDBJGCJ_00583;dRep_bin066_AJACLPEE_00089;dRep_bin091_MAFACGAD_00436;dRep_bin234_ECABPBME_00010;dRep_bin282_PKAAPBFP_00287;dRep_bin088_DNGPPFDK_01225;dRep_bin077_DNNBMPMC_01008;dRep_bin024_OLHDGABE_00644	>dRep_bin319_PBDBJGCJ_00583 DNA-directed RNA polymerase subunit beta;>dRep_bin066_AJACLPEE_00089 DNA-directed RNA polymerase subunit beta;>dRep_bin091_MAFACGAD_00436 DNA-directed RNA polymerase subunit beta;>dRep_bin234_ECABPBME_00010 DNA-directed RNA p	dRep_bin077_DNNBMPMC_01008	CDS	rpoC	2.7.7.6	DNA-directed RNA polymerase subunit beta'
DNNBMPMC_01129	29.895639999999997	30.7809	30.231350000000003	30.858900000000002	29.677760000000003	30.19049	29.354850000000006	29.610980000000005				14	2	9,6215E-110	dRep_bin133_NOBPDBPA_01525;dRep_bin069_EGGEOGDC_00770;dRep_bin095_HOBNOEEF_02261;dRep_bin279_IAEFEPEN_00690;dRep_bin240_LDBBGJKG_00170;dRep_bin324_IPNHOHFK_01232;dRep_bin168_HKDILBFE_01877;dRep_bin186_HJAAFFNP_00589;dRep_bin023_HGFJFKAI_01138;dRep_bin308_JBPDGLPP_00699;dRep_bin107_EFNBPDOP_00870;dRep_bin319_PBDBJGCJ_01310;dRep_bin107_EFNBPDOP_01430;dRep_bin089_PAJFOJBN_01445;dRep_bin077_DNNBMPMC_01129;dRep_bin066_AJACLPEE_00745;dRep_bin347_EKGCMFPD_00717;dRep_bin001_GHHJMDAL_01300;dRep_bin181_MKGPMPIA_00661	dRep_bin133_NOBPDBPA_01525;dRep_bin069_EGGEOGDC_00770;dRep_bin095_HOBNOEEF_02261;dRep_bin279_IAEFEPEN_00690;dRep_bin240_LDBBGJKG_00170;dRep_bin324_IPNHOHFK_01232;dRep_bin168_HKDILBFE_01877;dRep_bin186_HJAAFFNP_00589;dRep_bin023_HGFJFKAI_01138	>dRep_bin133_NOBPDBPA_01525 Aspartate-semialdehyde dehydrogenase 2;>dRep_bin069_EGGEOGDC_00770 Aspartate-semialdehyde dehydrogenase 2;>dRep_bin095_HOBNOEEF_02261 Aspartate-semialdehyde dehydrogenase 2;>dRep_bin279_IAEFEPEN_00690 Aspartate-semialdehyde dehy	dRep_bin077_DNNBMPMC_01129	CDS	asd2	1.2.1.11	Aspartate-semialdehyde dehydrogenase 2
DNNBMPMC_01163			21.70235									2	1	1,3269E-05	dRep_bin226_NLNLHLLD_00943;dRep_bin297_EDHEEICA_00652;dRep_bin292_JIBLDOOH_00434;dRep_bin209_NKIHFCEN_00184;dRep_bin203_CLFNNOCF_00778;dRep_bin133_NOBPDBPA_00588;dRep_bin041_OPKGAAAG_01382;dRep_bin303_DDDNDJCF_01779;dRep_bin324_IPNHOHFK_00420;dRep_bin261_FJICAFFM_00572;dRep_bin134_HIAPAODO_00275;dRep_bin104_EGLEJOLM_01650;dRep_bin062_BOFBFLDA_00901;dRep_bin047_IFFANOMN_00330;dRep_bin024_OLHDGABE_01501;dRep_bin017_FGFLFOPJ_01145;dRep_bin300_MJPPENNL_01317;dRep_bin279_IAEFEPEN_01067;dRep_bin269_PNILGKPH_00957;dRep_bin039_IJNOFOJK_01473;dRep_bin266_JFOCEDAE_01133;dRep_bin077_DNNBMPMC_01163;dRep_bin254_GJDPFAEA_01965;dRep_bin167_BLMEBMNN_01484;dRep_bin127_FIPNHBCH_01375;dRep_bin308_JBPDGLPP_00717;dRep_bin005_CNDFPKJG_01429;dRep_bin081_JDPCKDNP_01004	dRep_bin226_NLNLHLLD_00943;dRep_bin297_EDHEEICA_00652;dRep_bin292_JIBLDOOH_00434;dRep_bin209_NKIHFCEN_00184;dRep_bin203_CLFNNOCF_00778;dRep_bin133_NOBPDBPA_00588;dRep_bin041_OPKGAAAG_01382;dRep_bin303_DDDNDJCF_01779;dRep_bin324_IPNHOHFK_00420;dRep_bin261_FJICAFFM_00572;dRep_bin134_HIAPAODO_00275;dRep_bin104_EGLEJOLM_01650;dRep_bin062_BOFBFLDA_00901;dRep_bin047_IFFANOMN_00330;dRep_bin024_OLHDGABE_01501;dRep_bin017_FGFLFOPJ_01145;dRep_bin300_MJPPENNL_01317;dRep_bin279_IAEFEPEN_01067;dRep_bin269_PNILGKPH_00957;dRep_bin039_IJNOFOJK_01473;dRep_bin266_JFOCEDAE_01133;dRep_bin077_DNNBMPMC_01163;dRep_bin254_GJDPFAEA_01965;dRep_bin167_BLMEBMNN_01484;dRep_bin127_FIPNHBCH_01375;dRep_bin308_JBPDGLPP_00717;dRep_bin005_CNDFPKJG_01429;dRep_bin081_JDPCKDNP_01004	>dRep_bin226_NLNLHLLD_00943 L-threonine ammonia-lyase;>dRep_bin297_EDHEEICA_00652 L-threonine ammonia-lyase;>dRep_bin292_JIBLDOOH_00434 L-threonine ammonia-lyase;>dRep_bin209_NKIHFCEN_00184 L-threonine ammonia-lyase;>dRep_bin203_CLFNNOCF_00778 L-threonine	dRep_bin077_DNNBMPMC_01163	CDS	tdcB	4.3.1.19	L-threonine ammonia-lyase
DNNBMPMC_01169	27.552229999999998		27.93433	27.66723	27.810170000000003	27.72611	28.22311	27.209739999999996				6	3	7,2344E-18	dRep_bin139_KGAJINND_00578;dRep_bin134_HIAPAODO_00312;dRep_bin077_DNNBMPMC_01169;dRep_bin047_IFFANOMN_01071;dRep_bin266_JFOCEDAE_01520;dRep_bin019_MOJEPLJF_01643;dRep_bin287_DONBGKDH_00233;dRep_bin306_FGHMKMMP_01426	dRep_bin139_KGAJINND_00578;dRep_bin134_HIAPAODO_00312	>dRep_bin139_KGAJINND_00578 30S ribosomal protein S1;>dRep_bin134_HIAPAODO_00312 30S ribosomal protein S1	dRep_bin077_DNNBMPMC_01169	CDS	rpsA_3		30S ribosomal protein S1
DNNBMPMC_01182	25.07447	26.95892	25.45751	25.702239999999996	25.91894	25.265169999999998						9	0	1,8208E-59	dRep_bin107_EFNBPDOP_00015;dRep_bin077_DNNBMPMC_01182	dRep_bin107_EFNBPDOP_00015;dRep_bin077_DNNBMPMC_01182	>dRep_bin107_EFNBPDOP_00015 Transaldolase;>dRep_bin077_DNNBMPMC_01182 Transaldolase	dRep_bin077_DNNBMPMC_01182	CDS	tal	2.2.1.2	Transaldolase
DNNBMPMC_01246	26.617230000000003	26.796129999999998	26.954050000000002	27.017860000000006								24	2	0	dRep_bin077_DNNBMPMC_01246	dRep_bin077_DNNBMPMC_01246	>dRep_bin077_DNNBMPMC_01246 Phosphoenolpyruvate carboxykinase (ATP)	dRep_bin077_DNNBMPMC_01246	CDS	pckA	4.1.1.49	Phosphoenolpyruvate carboxykinase (ATP)
DNNBMPMC_01273	26.25001		26.94905	27.39092	27.4438	28.354770000000002	26.617510000000003	27.33833				9	2	1,1169E-70	dRep_bin041_OPKGAAAG_00731;dRep_bin077_DNNBMPMC_01273;dRep_bin179_HFEIPPPA_01368	dRep_bin041_OPKGAAAG_00731;dRep_bin077_DNNBMPMC_01273	>dRep_bin041_OPKGAAAG_00731 Aldehyde-alcohol dehydrogenase;>dRep_bin077_DNNBMPMC_01273 Aldehyde-alcohol dehydrogenase	dRep_bin077_DNNBMPMC_01273	CDS	adhE		Aldehyde-alcohol dehydrogenase
DNNBMPMC_01278				21.86884								3	1	1,3797E-13	dRep_bin021_AJDDCGJC_00051;dRep_bin252_NDAKLAGD_00826;dRep_bin317_ABPHNCOD_01131;dRep_bin216_JNJMCPHB_01076;dRep_bin272_LGBDGEIM_00618;dRep_bin097_CBBLIPAN_01579;dRep_bin053_OMGNPOOB_00833;dRep_bin337_FHKPNFDB_00090;dRep_bin052_PGOOKKFH_01594;dRep_bin168_HKDILBFE_01015;dRep_bin322_OJELOJOF_01622;dRep_bin220_PILICLLL_01543;dRep_bin055_IBMMJAEE_00610;dRep_bin061_ONFGDLGO_01234;dRep_bin168_HKDILBFE_00368;dRep_bin055_IBMMJAEE_00168;dRep_bin261_FJICAFFM_00490;dRep_bin017_FGFLFOPJ_00414;dRep_bin115_IFKGOGCL_01280;dRep_bin257_JHFDCHCB_01406;dRep_bin323_FBBLPLCG_01600;dRep_bin007_LNLEAAAN_00766;dRep_bin049_MNFBDPNO_00781;dRep_bin333_EFOKIBLA_01149;dRep_bin279_IAEFEPEN_01471;dRep_bin234_ECABPBME_01515;dRep_bin179_HFEIPPPA_02108;dRep_bin023_HGFJFKAI_01527;dRep_bin335_JIOGNAPG_00787;dRep_bin250_NMCAMJIO_00423;dRep_bin158_OGFICEAP_00549;dRep_bin100_CODMOHGB_01341;dRep_bin089_PAJFOJBN_02515;dRep_bin088_DNGPPFDK_01371;dRep_bin081_JDPCKDNP_00684;dRep_bin324_IPNHOHFK_01454;dRep_bin300_MJPPENNL_01260;dRep_bin292_JIBLDOOH_01593;dRep_bin284_DEHKNOBF_00281;dRep_bin282_PKAAPBFP_00934;dRep_bin279_IAEFEPEN_01275;dRep_bin269_PNILGKPH_00152;dRep_bin240_LDBBGJKG_01257;dRep_bin226_NLNLHLLD_00367;dRep_bin209_NKIHFCEN_01541;dRep_bin203_CLFNNOCF_01928;dRep_bin179_HFEIPPPA_00359;dRep_bin167_BLMEBMNN_00233;dRep_bin160_EFKMPBOM_02132;dRep_bin154_JGOKHKLI_02775;dRep_bin133_NOBPDBPA_00727;dRep_bin114_FJHJKHGL_00838;dRep_bin095_HOBNOEEF_00822;dRep_bin075_EPEMMOCL_00939;dRep_bin074_EHAOMODJ_00291;dRep_bin065_DFABHCBI_01203;dRep_bin347_EKGCMFPD_00625;dRep_bin325_EIIGOGHN_00612;dRep_bin310_IMBAFDIF_01359;dRep_bin308_JBPDGLPP_00545;dRep_bin306_FGHMKMMP_01018;dRep_bin297_EDHEEICA_01903;dRep_bin201_OLKDIBOK_00335;dRep_bin186_HJAAFFNP_00409;dRep_bin173_BEBNCADL_00242;dRep_bin169_PNICKJKO_00103;dRep_bin145_KMJJJOEJ_01348;dRep_bin135_HHKACLPM_00566;dRep_bin101_BNDDLDCL_00036;dRep_bin069_EGGEOGDC_01480;dRep_bin062_BOFBFLDA_00487;dRep_bin047_IFFANOMN_01271;dRep_bin042_MMFCLHOO_00308;dRep_bin041_OPKGAAAG_00762;dRep_bin024_OLHDGABE_00679;dRep_bin016_JLGAHGOJ_01831;dRep_bin001_GHHJMDAL_00660;dRep_bin349_AMCJEEEG_00131;dRep_bin312_MJFEFHMP_00833;dRep_bin264_DNFFGNEG_00100;dRep_bin246_MMFBABHK_00297;dRep_bin219_HGPEELLF_00003;dRep_bin174_LJJOKEME_01103;dRep_bin129_GADIAMAA_01409;dRep_bin127_FIPNHBCH_00703;dRep_bin077_DNNBMPMC_01278;dRep_bin030_OGPDLGOC_01790;dRep_bin004_OCHNPJPO_01519;dRep_bin218_ACMPALGF_00968;dRep_bin185_OOOLKACK_00657;dRep_bin181_MKGPMPIA_00538;dRep_bin148_NAJFKJMD_01090;dRep_bin058_GJKCICJN_01056;dRep_bin291_EILOACJB_00579;dRep_bin244_LBFMHLBI_01277;dRep_bin223_PIMCDKJI_01006;dRep_bin204_INMOGLDN_01473;dRep_bin184_MBMMJHKO_00222;dRep_bin302_AHDEPDKG_00621;dRep_bin265_LFKFBJPC_00590;dRep_bin233_BAGKKAOB_00885;dRep_bin188_EJILNMPE_01053;dRep_bin081_JDPCKDNP_01324;dRep_bin318_IEDEJOFJ_00724;dRep_bin144_NPHACCKF_00221;dRep_bin096_GNHMEKPF_00086;dRep_bin344_CJJBDGAA_01489;dRep_bin295_EJGKDKNE_00851;dRep_bin048_PABMBHAL_01507;dRep_bin303_DDDNDJCF_00663;dRep_bin283_NLJJFFAC_01754;dRep_bin201_OLKDIBOK_00523;dRep_bin139_KGAJINND_01276;dRep_bin134_HIAPAODO_01158;dRep_bin094_LBLICAAO_00942;dRep_bin062_BOFBFLDA_00417;dRep_bin336_MPGOKPOL_02385;dRep_bin082_HBEFABJN_00650;dRep_bin125_FADLGGII_00540;dRep_bin334_NAPFFNLD_01195;dRep_bin217_MJCEAEPB_00530;dRep_bin195_DDMDFNOK_00971;dRep_bin060_HNFNENOI_00088;dRep_bin328_GIGKNKPJ_00426;dRep_bin281_OGHLKMAI_01076;dRep_bin197_NHLBHFEI_00626;dRep_bin103_IGJBLKMC_00726;dRep_bin116_CLFDBMOF_00455;dRep_bin332_KAOPCDPF_00448;dRep_bin345_GLPJDLOI_00589;dRep_bin314_KCHFPLIP_00788;dRep_bin128_JPBBHEMA_00693;dRep_bin073_AKBCEHHO_01462;dRep_bin045_GJACFFBC_00428;dRep_bin329_GDOHKPBL_01522;dRep_bin316_FNLHDNEO_00349;dRep_bin307_AOCKHIKF_00400;dRep_bin294_EHJINIDK_01408;dRep_bin289_KALDCNNP_01327;dRep_bin183_FPGIOKBG_00622;dRep_bin098_DDEBHDKK_01308;dRep_bin165_HMDFFMMM_01247;dRep_bin037_GEAOEKHA_01212;dRep_bin256_KEMNAOBC_00113;dRep_bin092_OOJCPDEA_01143;dRep_bin126_PPDNCIBN_00264;dRep_bin090_IPGNHCBJ_00911;dRep_bin215_ABBFGCAF_00280;dRep_bin005_CNDFPKJG_00629;dRep_bin270_GEJAHNCN_01426;dRep_bin116_CLFDBMOF_00686;dRep_bin069_EGGEOGDC_00857;dRep_bin007_LNLEAAAN_01604;dRep_bin057_BNCFHBBO_01159;dRep_bin038_EIGFILKG_00229;dRep_bin114_FJHJKHGL_00934;dRep_bin152_LJMCIADF_00045;dRep_bin322_OJELOJOF_00826;dRep_bin266_JFOCEDAE_00030;dRep_bin194_MEPDOGGJ_01235;dRep_bin079_GAOGCKND_01437;dRep_bin068_ENOLAELK_01387;dRep_bin025_CBEJJMLE_00917;dRep_bin240_LDBBGJKG_00802;dRep_bin347_EKGCMFPD_01498;dRep_bin167_BLMEBMNN_00596;dRep_bin160_EFKMPBOM_02114;dRep_bin260_HELEPKJL_02017;dRep_bin091_MAFACGAD_00797;dRep_bin099_DNDAGJEJ_01471;dRep_bin278_BFCONKOE_01179;dRep_bin168_HKDILBFE_00397;dRep_bin284_DEHKNOBF_00737;dRep_bin001_GHHJMDAL_01209;dRep_bin236_BNONDECB_00531;dRep_bin286_OEMIJKMC_01078;dRep_bin231_CFOLMJBA_00464;dRep_bin193_GDMDPNNM_00224;dRep_bin172_ALNHGLMD_01787;dRep_bin182_EMCFODCD_00065;dRep_bin044_IPFKHAEF_00183	dRep_bin021_AJDDCGJC_00051;dRep_bin252_NDAKLAGD_00826;dRep_bin317_ABPHNCOD_01131;dRep_bin216_JNJMCPHB_01076;dRep_bin272_LGBDGEIM_00618;dRep_bin097_CBBLIPAN_01579;dRep_bin053_OMGNPOOB_00833;dRep_bin337_FHKPNFDB_00090;dRep_bin052_PGOOKKFH_01594	>dRep_bin021_AJDDCGJC_00051 ATP synthase subunit alpha;>dRep_bin252_NDAKLAGD_00826 ATP synthase subunit alpha;>dRep_bin317_ABPHNCOD_01131 ATP synthase subunit alpha;>dRep_bin216_JNJMCPHB_01076 ATP synthase subunit alpha;>dRep_bin272_LGBDGEIM_00618 ATP synt	dRep_bin077_DNNBMPMC_01278	CDS	atpA	3.6.3.14	ATP synthase subunit alpha
DNNBMPMC_01312	31.69062	31.497960000000003	31.258499999999998	30.57867	30.338729999999998	30.18754	31.41518	31.29647				16	13	0	dRep_bin225_FLBKEJIP_00638;dRep_bin193_GDMDPNNM_00391;dRep_bin104_EGLEJOLM_00429;dRep_bin267_LJCFMAFA_01104;dRep_bin128_JPBBHEMA_00063;dRep_bin322_OJELOJOF_01579;dRep_bin220_PILICLLL_00965;dRep_bin237_KJDLIPND_01288;dRep_bin273_FGAEBHNP_00090;dRep_bin350_EKOOEEGH_00878;dRep_bin341_NBEGOKEF_01245;dRep_bin230_NINMBMKB_00865;dRep_bin355_KJEFNADK_01484;dRep_bin306_FGHMKMMP_01597;dRep_bin291_EILOACJB_00178;dRep_bin276_EHNFLEBP_00863;dRep_bin107_EFNBPDOP_00094;dRep_bin077_DNNBMPMC_01312;dRep_bin324_IPNHOHFK_02120;dRep_bin308_JBPDGLPP_01844;dRep_bin089_PAJFOJBN_01453;dRep_bin031_BNHMFOII_01699;dRep_bin007_LNLEAAAN_01377;dRep_bin179_HFEIPPPA_01144;dRep_bin347_EKGCMFPD_01400;dRep_bin226_NLNLHLLD_00768;dRep_bin056_EMNHHOJA_00523;dRep_bin026_HNPIIINL_01583;dRep_bin020_JCCELPIE_01111;dRep_bin345_GLPJDLOI_00559;dRep_bin343_JCMCKBGF_01283;dRep_bin333_EFOKIBLA_00575;dRep_bin323_FBBLPLCG_00787;dRep_bin274_DBJHKLDG_00045;dRep_bin195_DDMDFNOK_00591;dRep_bin078_GKFCBAEI_00992;dRep_bin008_MNDMJLEI_01069;dRep_bin316_FNLHDNEO_00739;dRep_bin092_OOJCPDEA_01821;dRep_bin074_EHAOMODJ_00660;dRep_bin256_KEMNAOBC_00450;dRep_bin123_PJKBFKBB_01350;dRep_bin110_JGOEJECF_00180;dRep_bin101_BNDDLDCL_01841;dRep_bin071_JHMCIJPE_01380;dRep_bin040_EIFLLDOA_01745;dRep_bin032_PPNIGLME_01067;dRep_bin014_CHIHIMAN_00063;dRep_bin321_EJNAAGJG_00005;dRep_bin290_OIOJKBNK_00982;dRep_bin229_FFOBPPJI_01385;dRep_bin124_HIHDFGCL_00127;dRep_bin028_GKEJLBAM_01146;dRep_bin351_CKFFBPHM_00748;dRep_bin296_FDMPKPOH_01066;dRep_bin257_JHFDCHCB_01960;dRep_bin194_MEPDOGGJ_00157;dRep_bin191_NGFJMLOL_00394;dRep_bin136_NAIECEIF_01100;dRep_bin118_FGIOKLBC_00461;dRep_bin025_CBEJJMLE_00124;dRep_bin293_MEPKGOAN_00978;dRep_bin210_AGEDAEIA_00638;dRep_bin314_KCHFPLIP_00446;dRep_bin165_HMDFFMMM_00776;dRep_bin353_PPDHLNJB_00892;dRep_bin018_ILOONPIC_00585;dRep_bin060_HNFNENOI_01252;dRep_bin217_MJCEAEPB_01380	dRep_bin225_FLBKEJIP_00638	>dRep_bin225_FLBKEJIP_00638 Inosine-5-monophosphate dehydrogenase	dRep_bin077_DNNBMPMC_01312	CDS	guaB	1.1.1.205	Inosine-5'-monophosphate dehydrogenase
DNNBMPMC_01346	24.97285	25.00984	25.160850000000003									2	2	0,00015312	dRep_bin319_PBDBJGCJ_00537;dRep_bin077_DNNBMPMC_01346;dRep_bin066_AJACLPEE_00297;dRep_bin211_LGJEFJIK_01436;dRep_bin181_MKGPMPIA_00505;dRep_bin107_EFNBPDOP_00876	dRep_bin319_PBDBJGCJ_00537;dRep_bin077_DNNBMPMC_01346;dRep_bin066_AJACLPEE_00297;dRep_bin211_LGJEFJIK_01436;dRep_bin181_MKGPMPIA_00505;dRep_bin107_EFNBPDOP_00876	>dRep_bin319_PBDBJGCJ_00537 Glycogen phosphorylase;>dRep_bin077_DNNBMPMC_01346 Glycogen phosphorylase;>dRep_bin066_AJACLPEE_00297 Glycogen phosphorylase;>dRep_bin211_LGJEFJIK_01436 Glycogen phosphorylase;>dRep_bin181_MKGPMPIA_00505 Glycogen phosphorylase;>	dRep_bin077_DNNBMPMC_01346	CDS	glgP	2.4.1.1	Glycogen phosphorylase
DNNBMPMC_01363	24.70678	26.810290000000002	25.069599999999998	25.59337	25.467399999999998							4	1	1,7147E-17	dRep_bin039_IJNOFOJK_00918;dRep_bin209_NKIHFCEN_01034;dRep_bin077_DNNBMPMC_01363;dRep_bin297_EDHEEICA_01848	dRep_bin039_IJNOFOJK_00918	>dRep_bin039_IJNOFOJK_00918 4-hydroxy-tetrahydrodipicolinate synthase	dRep_bin077_DNNBMPMC_01363	CDS	dapA	4.3.3.7	4-hydroxy-tetrahydrodipicolinate synthase
DNNBMPMC_01388	27.8521	27.465829999999997	28.031810000000004	28.17331	27.713850000000004	26.465889999999998	27.25296	27.80538				10	3	2,5464E-57	dRep_bin181_MKGPMPIA_01260;dRep_bin077_DNNBMPMC_01388;dRep_bin352_KFNHGNFC_00242;dRep_bin335_JIOGNAPG_00211	dRep_bin181_MKGPMPIA_01260;dRep_bin077_DNNBMPMC_01388	>dRep_bin181_MKGPMPIA_01260 Xylulose-5-phosphate phosphoketolase;>dRep_bin077_DNNBMPMC_01388 Xylulose-5-phosphate phosphoketolase	dRep_bin077_DNNBMPMC_01388	CDS	xpkA	4.1.2.9	Xylulose-5-phosphate phosphoketolase
DNNBMPMC_01401				26.368709999999997								4	2	1,0849E-12	dRep_bin292_JIBLDOOH_01063;dRep_bin041_OPKGAAAG_01075;dRep_bin209_NKIHFCEN_01331;dRep_bin269_PNILGKPH_00386;dRep_bin039_IJNOFOJK_00028;dRep_bin324_IPNHOHFK_01206;dRep_bin300_MJPPENNL_00977;dRep_bin279_IAEFEPEN_01295;dRep_bin344_CJJBDGAA_00875;dRep_bin328_GIGKNKPJ_01713;dRep_bin308_JBPDGLPP_01081;dRep_bin303_DDDNDJCF_01452;dRep_bin260_HELEPKJL_01814;dRep_bin240_LDBBGJKG_01949;dRep_bin211_LGJEFJIK_01488;dRep_bin201_OLKDIBOK_00486;dRep_bin186_HJAAFFNP_00498;dRep_bin161_JMKPMHCO_00510;dRep_bin140_ACFAKGIL_00966;dRep_bin139_KGAJINND_01935;dRep_bin127_FIPNHBCH_01109;dRep_bin091_MAFACGAD_00938;dRep_bin069_EGGEOGDC_00173;dRep_bin065_DFABHCBI_01020;dRep_bin062_BOFBFLDA_00118;dRep_bin024_OLHDGABE_00006;dRep_bin016_JLGAHGOJ_01717;dRep_bin347_EKGCMFPD_00813;dRep_bin332_KAOPCDPF_00718;dRep_bin322_OJELOJOF_01104;dRep_bin310_IMBAFDIF_01100;dRep_bin306_FGHMKMMP_01495;dRep_bin282_PKAAPBFP_00123;dRep_bin266_JFOCEDAE_01441;dRep_bin249_OFIIEIDJ_00818;dRep_bin248_CCDFPECI_00304;dRep_bin234_ECABPBME_02078;dRep_bin181_MKGPMPIA_00013;dRep_bin160_EFKMPBOM_00454;dRep_bin158_OGFICEAP_01438;dRep_bin154_JGOKHKLI_00210;dRep_bin145_KMJJJOEJ_01040;dRep_bin135_HHKACLPM_01477;dRep_bin107_EFNBPDOP_01455;dRep_bin089_PAJFOJBN_01775;dRep_bin081_JDPCKDNP_00410;dRep_bin077_DNNBMPMC_01401;dRep_bin075_EPEMMOCL_00061;dRep_bin027_OFJCHLJJ_01614;dRep_bin023_HGFJFKAI_00593;dRep_bin019_MOJEPLJF_00571;dRep_bin007_LNLEAAAN_01143;dRep_bin005_CNDFPKJG_01435;dRep_bin001_GHHJMDAL_01190	dRep_bin292_JIBLDOOH_01063;dRep_bin041_OPKGAAAG_01075;dRep_bin209_NKIHFCEN_01331;dRep_bin269_PNILGKPH_00386;dRep_bin039_IJNOFOJK_00028;dRep_bin324_IPNHOHFK_01206;dRep_bin300_MJPPENNL_00977;dRep_bin279_IAEFEPEN_01295	>dRep_bin292_JIBLDOOH_01063 50S ribosomal protein L21;>dRep_bin041_OPKGAAAG_01075 50S ribosomal protein L21;>dRep_bin209_NKIHFCEN_01331 50S ribosomal protein L21;>dRep_bin269_PNILGKPH_00386 50S ribosomal protein L21;>dRep_bin039_IJNOFOJK_00028 50S ribosoma	dRep_bin077_DNNBMPMC_01401	CDS	rplU		50S ribosomal protein L21
DNNBMPMC_01412	24.465689999999995	26.260689999999997	25.31261	25.246119999999998								9	2	1,0106E-26	dRep_bin133_NOBPDBPA_01176;dRep_bin179_HFEIPPPA_00199;dRep_bin203_CLFNNOCF_00399;dRep_bin145_KMJJJOEJ_01160;dRep_bin027_OFJCHLJJ_01925;dRep_bin325_EIIGOGHN_01404;dRep_bin310_IMBAFDIF_00767;dRep_bin211_LGJEFJIK_00541;dRep_bin115_IFKGOGCL_00023;dRep_bin328_GIGKNKPJ_00117;dRep_bin017_FGFLFOPJ_00444;dRep_bin261_FJICAFFM_00065;dRep_bin282_PKAAPBFP_01129;dRep_bin005_CNDFPKJG_00647;dRep_bin332_KAOPCDPF_00563;dRep_bin249_OFIIEIDJ_00155;dRep_bin001_GHHJMDAL_01332;dRep_bin127_FIPNHBCH_01505;dRep_bin077_DNNBMPMC_01412;dRep_bin075_EPEMMOCL_00769;dRep_bin188_EJILNMPE_00165;dRep_bin096_GNHMEKPF_00442;dRep_bin055_IBMMJAEE_00646;dRep_bin094_LBLICAAO_00410;dRep_bin144_NPHACCKF_00825;dRep_bin283_NLJJFFAC_01601	dRep_bin133_NOBPDBPA_01176;dRep_bin179_HFEIPPPA_00199;dRep_bin203_CLFNNOCF_00399	>dRep_bin133_NOBPDBPA_01176 Polyribonucleotide nucleotidyltransferase;>dRep_bin179_HFEIPPPA_00199 Polyribonucleotide nucleotidyltransferase;>dRep_bin203_CLFNNOCF_00399 Polyribonucleotide nucleotidyltransferase	dRep_bin077_DNNBMPMC_01412	CDS	pnp	2.7.7.8	Polyribonucleotide nucleotidyltransferase
DNNBMPMC_01424							24.95757	24.02149				6	1	7,2707E-47	dRep_bin248_CCDFPECI_01517;dRep_bin095_HOBNOEEF_01190;dRep_bin269_PNILGKPH_01796;dRep_bin240_LDBBGJKG_00146;dRep_bin225_FLBKEJIP_00866;dRep_bin100_CODMOHGB_00292;dRep_bin044_IPFKHAEF_00946;dRep_bin325_EIIGOGHN_00062;dRep_bin091_MAFACGAD_01165;dRep_bin016_JLGAHGOJ_00453;dRep_bin211_LGJEFJIK_00348;dRep_bin135_HHKACLPM_00457;dRep_bin075_EPEMMOCL_00485;dRep_bin306_FGHMKMMP_00321;dRep_bin107_EFNBPDOP_00109;dRep_bin077_DNNBMPMC_01424;dRep_bin282_PKAAPBFP_00462;dRep_bin181_MKGPMPIA_00362;dRep_bin349_AMCJEEEG_00053;dRep_bin286_OEMIJKMC_00055;dRep_bin231_CFOLMJBA_01056;dRep_bin182_EMCFODCD_00166;dRep_bin172_ALNHGLMD_00138;dRep_bin270_GEJAHNCN_00840;dRep_bin169_PNICKJKO_00787;dRep_bin085_MBHLGCDB_00687;dRep_bin143_PFLDJMPF_00820;dRep_bin074_EHAOMODJ_01303;dRep_bin059_OOBKFNPP_00785;dRep_bin005_CNDFPKJG_00735;dRep_bin299_AKNBKJGM_01258;dRep_bin321_EJNAAGJG_00978;dRep_bin273_FGAEBHNP_00355;dRep_bin049_MNFBDPNO_01410	dRep_bin248_CCDFPECI_01517;dRep_bin095_HOBNOEEF_01190;dRep_bin269_PNILGKPH_01796;dRep_bin240_LDBBGJKG_00146	>dRep_bin248_CCDFPECI_01517 DNA-directed RNA polymerase subunit alpha;>dRep_bin095_HOBNOEEF_01190 DNA-directed RNA polymerase subunit alpha;>dRep_bin269_PNILGKPH_01796 DNA-directed RNA polymerase subunit alpha;>dRep_bin240_LDBBGJKG_00146 DNA-directed RNA p	dRep_bin077_DNNBMPMC_01424	CDS	rpoA	2.7.7.6	DNA-directed RNA polymerase subunit alpha
DNNBMPMC_01432			27.17122	28.798379999999998								2	1	2,5389E-19	dRep_bin292_JIBLDOOH_01367;dRep_bin324_IPNHOHFK_01431;dRep_bin261_FJICAFFM_01097;dRep_bin209_NKIHFCEN_01395;dRep_bin203_CLFNNOCF_01094;dRep_bin133_NOBPDBPA_02300;dRep_bin242_LKAIBGGJ_01031;dRep_bin179_HFEIPPPA_01213;dRep_bin077_DNNBMPMC_01432;dRep_bin308_JBPDGLPP_01140;dRep_bin297_EDHEEICA_00844;dRep_bin218_ACMPALGF_00453	dRep_bin292_JIBLDOOH_01367;dRep_bin324_IPNHOHFK_01431;dRep_bin261_FJICAFFM_01097;dRep_bin209_NKIHFCEN_01395;dRep_bin203_CLFNNOCF_01094;dRep_bin133_NOBPDBPA_02300;dRep_bin242_LKAIBGGJ_01031;dRep_bin179_HFEIPPPA_01213;dRep_bin077_DNNBMPMC_01432;dRep_bin308_JBPDGLPP_01140;dRep_bin297_EDHEEICA_00844;dRep_bin218_ACMPALGF_00453	>dRep_bin292_JIBLDOOH_01367 50S ribosomal protein L13;>dRep_bin324_IPNHOHFK_01431 50S ribosomal protein L13;>dRep_bin261_FJICAFFM_01097 50S ribosomal protein L13;>dRep_bin209_NKIHFCEN_01395 50S ribosomal protein L13;>dRep_bin203_CLFNNOCF_01094 50S ribosoma	dRep_bin077_DNNBMPMC_01432	CDS	rplM		50S ribosomal protein L13
DNNBMPMC_01445		25.25472										2	2	0,0015256	dRep_bin325_EIIGOGHN_00643;dRep_bin224_NFENHJGB_00524;dRep_bin107_EFNBPDOP_00730;dRep_bin077_DNNBMPMC_01445;dRep_bin282_PKAAPBFP_00946;dRep_bin293_MEPKGOAN_01040;dRep_bin066_AJACLPEE_01013;dRep_bin023_HGFJFKAI_00926;dRep_bin319_PBDBJGCJ_00614;dRep_bin041_OPKGAAAG_00710;dRep_bin106_BKDHGPBE_00334;dRep_bin335_JIOGNAPG_00933;dRep_bin089_PAJFOJBN_01195;dRep_bin008_MNDMJLEI_00243;dRep_bin177_HLHGKLFL_00188;dRep_bin250_NMCAMJIO_01007;dRep_bin140_ACFAKGIL_00119	dRep_bin325_EIIGOGHN_00643;dRep_bin224_NFENHJGB_00524;dRep_bin107_EFNBPDOP_00730;dRep_bin077_DNNBMPMC_01445;dRep_bin282_PKAAPBFP_00946;dRep_bin293_MEPKGOAN_01040;dRep_bin066_AJACLPEE_01013;dRep_bin023_HGFJFKAI_00926;dRep_bin319_PBDBJGCJ_00614;dRep_bin041_OPKGAAAG_00710;dRep_bin106_BKDHGPBE_00334;dRep_bin335_JIOGNAPG_00933;dRep_bin089_PAJFOJBN_01195;dRep_bin008_MNDMJLEI_00243;dRep_bin177_HLHGKLFL_00188;dRep_bin250_NMCAMJIO_01007;dRep_bin140_ACFAKGIL_00119	>dRep_bin325_EIIGOGHN_00643 Pantothenate synthetase;>dRep_bin224_NFENHJGB_00524 Pantothenate synthetase;>dRep_bin107_EFNBPDOP_00730 Pantothenate synthetase;>dRep_bin077_DNNBMPMC_01445 Pantothenate synthetase;>dRep_bin282_PKAAPBFP_00946 Pantothenate synthet	dRep_bin077_DNNBMPMC_01445	CDS	panC	6.3.2.1	Pantothenate synthetase
DNNBMPMC_01487						22.59601						1	1	0,0020809	dRep_bin077_DNNBMPMC_01487;dRep_bin292_JIBLDOOH_01959;dRep_bin226_NLNLHLLD_01061;dRep_bin211_LGJEFJIK_00158;dRep_bin209_NKIHFCEN_00435;dRep_bin203_CLFNNOCF_01699;dRep_bin179_HFEIPPPA_01042;dRep_bin157_JPNIKEKI_00563;dRep_bin133_NOBPDBPA_02955;dRep_bin041_OPKGAAAG_01621;dRep_bin019_MOJEPLJF_01074	dRep_bin077_DNNBMPMC_01487;dRep_bin292_JIBLDOOH_01959;dRep_bin226_NLNLHLLD_01061;dRep_bin211_LGJEFJIK_00158;dRep_bin209_NKIHFCEN_00435;dRep_bin203_CLFNNOCF_01699;dRep_bin179_HFEIPPPA_01042;dRep_bin157_JPNIKEKI_00563;dRep_bin133_NOBPDBPA_02955;dRep_bin041_OPKGAAAG_01621;dRep_bin019_MOJEPLJF_01074	>dRep_bin077_DNNBMPMC_01487 CTP synthase;>dRep_bin292_JIBLDOOH_01959 CTP synthase;>dRep_bin226_NLNLHLLD_01061 CTP synthase;>dRep_bin211_LGJEFJIK_00158 CTP synthase;>dRep_bin209_NKIHFCEN_00435 CTP synthase;>dRep_bin203_CLFNNOCF_01699 CTP synthase;>dRep_bin1	dRep_bin077_DNNBMPMC_01487	CDS	pyrG	6.3.4.2	CTP synthase
DNNBMPMC_01507				24.58709								3	1	4,9634E-12	dRep_bin179_HFEIPPPA_00499;dRep_bin211_LGJEFJIK_01157;dRep_bin077_DNNBMPMC_01507	dRep_bin179_HFEIPPPA_00499;dRep_bin211_LGJEFJIK_01157;dRep_bin077_DNNBMPMC_01507	>dRep_bin179_HFEIPPPA_00499 Succinyl-CoA:coenzyme A transferase;>dRep_bin211_LGJEFJIK_01157 Succinyl-CoA:coenzyme A transferase;>dRep_bin077_DNNBMPMC_01507 Succinyl-CoA:coenzyme A transferase	dRep_bin077_DNNBMPMC_01507	CDS	cat1	2.8.3.-	Succinyl-CoA:coenzyme A transferase
DNNBMPMC_01598	27.81201	27.62178	27.502489999999998	27.902649999999998	27.641890000000004	26.87373	27.733890000000002	27.32268				4	0	9,2841E-12	dRep_bin266_JFOCEDAE_00469;dRep_bin158_OGFICEAP_02077;dRep_bin167_BLMEBMNN_01111;dRep_bin344_CJJBDGAA_01931;dRep_bin324_IPNHOHFK_00198;dRep_bin269_PNILGKPH_01184;dRep_bin297_EDHEEICA_00055;dRep_bin145_KMJJJOEJ_01157;dRep_bin107_EFNBPDOP_01472;dRep_bin310_IMBAFDIF_01195;dRep_bin300_MJPPENNL_00128;dRep_bin115_IFKGOGCL_01978;dRep_bin308_JBPDGLPP_01709;dRep_bin075_EPEMMOCL_01920;dRep_bin047_IFFANOMN_01370;dRep_bin089_PAJFOJBN_01930;dRep_bin261_FJICAFFM_00651;dRep_bin303_DDDNDJCF_01187;dRep_bin226_NLNLHLLD_00115;dRep_bin127_FIPNHBCH_00340;dRep_bin017_FGFLFOPJ_00355;dRep_bin077_DNNBMPMC_01598;dRep_bin039_IJNOFOJK_01428;dRep_bin186_HJAAFFNP_01660;dRep_bin065_DFABHCBI_00103;dRep_bin220_PILICLLL_01833;dRep_bin134_HIAPAODO_00139;dRep_bin135_HHKACLPM_00006;dRep_bin143_PFLDJMPF_00573;dRep_bin325_EIIGOGHN_00632;dRep_bin099_DNDAGJEJ_00069;dRep_bin293_MEPKGOAN_01336;dRep_bin074_EHAOMODJ_00677;dRep_bin335_JIOGNAPG_01692;dRep_bin260_HELEPKJL_01142;dRep_bin319_PBDBJGCJ_00729;dRep_bin211_LGJEFJIK_00866;dRep_bin168_HKDILBFE_00717;dRep_bin091_MAFACGAD_00274;dRep_bin248_CCDFPECI_01081;dRep_bin240_LDBBGJKG_00905;dRep_bin095_HOBNOEEF_01654;dRep_bin306_FGHMKMMP_00881;dRep_bin282_PKAAPBFP_01110;dRep_bin249_OFIIEIDJ_01129;dRep_bin347_EKGCMFPD_00530;dRep_bin284_DEHKNOBF_01449;dRep_bin001_GHHJMDAL_00488;dRep_bin181_MKGPMPIA_00635	dRep_bin266_JFOCEDAE_00469;dRep_bin158_OGFICEAP_02077;dRep_bin167_BLMEBMNN_01111;dRep_bin344_CJJBDGAA_01931;dRep_bin324_IPNHOHFK_00198;dRep_bin269_PNILGKPH_01184;dRep_bin297_EDHEEICA_00055;dRep_bin145_KMJJJOEJ_01157;dRep_bin107_EFNBPDOP_01472;dRep_bin310_IMBAFDIF_01195;dRep_bin300_MJPPENNL_00128;dRep_bin115_IFKGOGCL_01978;dRep_bin308_JBPDGLPP_01709;dRep_bin075_EPEMMOCL_01920;dRep_bin047_IFFANOMN_01370;dRep_bin089_PAJFOJBN_01930;dRep_bin261_FJICAFFM_00651;dRep_bin303_DDDNDJCF_01187;dRep_bin226_NLNLHLLD_00115;dRep_bin127_FIPNHBCH_00340;dRep_bin017_FGFLFOPJ_00355;dRep_bin077_DNNBMPMC_01598;dRep_bin039_IJNOFOJK_01428;dRep_bin186_HJAAFFNP_01660;dRep_bin065_DFABHCBI_00103;dRep_bin220_PILICLLL_01833;dRep_bin134_HIAPAODO_00139;dRep_bin135_HHKACLPM_00006	>dRep_bin266_JFOCEDAE_00469 Phosphoribosylamine--glycine ligase;>dRep_bin158_OGFICEAP_02077 Phosphoribosylamine--glycine ligase;>dRep_bin167_BLMEBMNN_01111 Phosphoribosylamine--glycine ligase;>dRep_bin344_CJJBDGAA_01931 Phosphoribosylamine--glycine ligase;	dRep_bin077_DNNBMPMC_01598	CDS	purD	6.3.4.13	Phosphoribosylamine--glycine ligase
DNNBMPMC_01604						21.653290000000002						5	1	1,5296E-38	dRep_bin168_HKDILBFE_01364;dRep_bin099_DNDAGJEJ_01145;dRep_bin325_EIIGOGHN_00023;dRep_bin023_HGFJFKAI_00109;dRep_bin089_PAJFOJBN_00998;dRep_bin167_BLMEBMNN_01329;dRep_bin091_MAFACGAD_00623;dRep_bin077_DNNBMPMC_01604;dRep_bin194_MEPDOGGJ_00853;dRep_bin107_EFNBPDOP_00602;dRep_bin025_CBEJJMLE_01032;dRep_bin017_FGFLFOPJ_00296;dRep_bin066_AJACLPEE_00208;dRep_bin319_PBDBJGCJ_01472;dRep_bin065_DFABHCBI_00657	dRep_bin168_HKDILBFE_01364;dRep_bin099_DNDAGJEJ_01145;dRep_bin325_EIIGOGHN_00023;dRep_bin023_HGFJFKAI_00109;dRep_bin089_PAJFOJBN_00998;dRep_bin167_BLMEBMNN_01329;dRep_bin091_MAFACGAD_00623	>dRep_bin168_HKDILBFE_01364 Caffeyl-CoA reductase-Etf complex subunit CarE;>dRep_bin099_DNDAGJEJ_01145 Caffeyl-CoA reductase-Etf complex subunit CarE;>dRep_bin325_EIIGOGHN_00023 Caffeyl-CoA reductase-Etf complex subunit CarE;>dRep_bin023_HGFJFKAI_00109 Caf	dRep_bin077_DNNBMPMC_01604	CDS	carE	1.3.1.108	Caffeyl-CoA reductase-Etf complex subunit CarE
DNNBMPMC_01615	24.444239999999997		24.613300000000002									6	3	2,7432E-77	dRep_bin063_PJANDMAH_01341;dRep_bin346_JKFDGFHC_01335;dRep_bin271_NGFBCHKH_01198;dRep_bin289_KALDCNNP_00779;dRep_bin034_MEBMFDLL_01391;dRep_bin077_DNNBMPMC_01615;dRep_bin328_GIGKNKPJ_00022;dRep_bin027_OFJCHLJJ_00687	dRep_bin063_PJANDMAH_01341;dRep_bin346_JKFDGFHC_01335;dRep_bin271_NGFBCHKH_01198;dRep_bin289_KALDCNNP_00779;dRep_bin034_MEBMFDLL_01391	>dRep_bin063_PJANDMAH_01341 Intracellular exo-alpha-L-arabinofuranosidase 2;>dRep_bin346_JKFDGFHC_01335 Intracellular exo-alpha-L-arabinofuranosidase 2;>dRep_bin271_NGFBCHKH_01198 Intracellular exo-alpha-L-arabinofuranosidase 2;>dRep_bin289_KALDCNNP_00779	dRep_bin077_DNNBMPMC_01615	CDS	abf2	3.2.1.55	Intracellular exo-alpha-L-arabinofuranosidase 2
DNNBMPMC_01640	23.70599		24.10213	26.327930000000002	23.585429999999995	24.48708		25.20907				7	3	4,6458E-33	dRep_bin292_JIBLDOOH_01847;dRep_bin032_PPNIGLME_01263;dRep_bin194_MEPDOGGJ_01257;dRep_bin025_CBEJJMLE_00904;dRep_bin077_DNNBMPMC_01640	dRep_bin292_JIBLDOOH_01847	>dRep_bin292_JIBLDOOH_01847 2,3-bisphosphoglycerate-independent phosphoglycerate mutase	dRep_bin077_DNNBMPMC_01640	CDS	gpmI	5.4.2.12	2,3-bisphosphoglycerate-independent phosphoglycerate mutase
DNNBMPMC_01667					28.065529999999995	27.03831	28.724719999999998	27.587850000000003				8	3	7,546E-92	dRep_bin077_DNNBMPMC_01667;dRep_bin107_EFNBPDOP_00173;dRep_bin077_DNNBMPMC_01924	dRep_bin077_DNNBMPMC_01667;dRep_bin107_EFNBPDOP_00173;dRep_bin077_DNNBMPMC_01924	>dRep_bin077_DNNBMPMC_01667 Flagellin;>dRep_bin107_EFNBPDOP_00173 Flagellin D;>dRep_bin077_DNNBMPMC_01924 Flagellin D	dRep_bin077_DNNBMPMC_01667	CDS	hag		Flagellin
DNNBMPMC_01685	20.69829		21.25338	20.804910000000003	21.633830000000003	22.09039		20.86325				1	1	0,007496	dRep_bin077_DNNBMPMC_01685	dRep_bin077_DNNBMPMC_01685	>dRep_bin077_DNNBMPMC_01685 Hydroxylamine reductase	dRep_bin077_DNNBMPMC_01685	CDS	hcp	1.7.99.1	Hydroxylamine reductase
DNNBMPMC_01718				24.354940000000003								9	1	3,7383E-82	dRep_bin133_NOBPDBPA_02407;dRep_bin319_PBDBJGCJ_01738;dRep_bin066_AJACLPEE_00162;dRep_bin077_DNNBMPMC_01718;dRep_bin181_MKGPMPIA_01194;dRep_bin260_HELEPKJL_01076;dRep_bin107_EFNBPDOP_00499;dRep_bin240_LDBBGJKG_00163;dRep_bin328_GIGKNKPJ_00321;dRep_bin347_EKGCMFPD_00479;dRep_bin088_DNGPPFDK_00287;dRep_bin135_HHKACLPM_00514;dRep_bin145_KMJJJOEJ_01002;dRep_bin335_JIOGNAPG_00895;dRep_bin234_ECABPBME_01768;dRep_bin134_HIAPAODO_01302;dRep_bin261_FJICAFFM_00778;dRep_bin019_MOJEPLJF_00883;dRep_bin166_DFIAJFEC_01066;dRep_bin105_AAEIHAFF_00721;dRep_bin142_NDNPJBEM_00168;dRep_bin169_PNICKJKO_01185;dRep_bin007_LNLEAAAN_00243;dRep_bin325_EIIGOGHN_01426;dRep_bin027_OFJCHLJJ_00581;dRep_bin333_EFOKIBLA_00453;dRep_bin049_MNFBDPNO_01275;dRep_bin293_MEPKGOAN_01477;dRep_bin148_NAJFKJMD_01296;dRep_bin008_MNDMJLEI_00823;dRep_bin270_GEJAHNCN_00044;dRep_bin031_BNHMFOII_00682;dRep_bin006_HPJGJCAG_00004;dRep_bin048_PABMBHAL_00541;dRep_bin143_PFLDJMPF_00665	dRep_bin133_NOBPDBPA_02407;dRep_bin319_PBDBJGCJ_01738;dRep_bin066_AJACLPEE_00162;dRep_bin077_DNNBMPMC_01718	>dRep_bin133_NOBPDBPA_02407 Dihydroxy-acid dehydratase;>dRep_bin319_PBDBJGCJ_01738 Dihydroxy-acid dehydratase;>dRep_bin066_AJACLPEE_00162 Dihydroxy-acid dehydratase;>dRep_bin077_DNNBMPMC_01718 Dihydroxy-acid dehydratase	dRep_bin077_DNNBMPMC_01718	CDS	ilvD	4.2.1.9	Dihydroxy-acid dehydratase
DNNBMPMC_01745	24.909950000000002	26.008409999999998	26.43557	26.35592	26.00267	26.164360000000002	26.32337	25.978229999999996				5	3	3,5357E-11	dRep_bin133_NOBPDBPA_01431;dRep_bin179_HFEIPPPA_01728;dRep_bin297_EDHEEICA_01357;dRep_bin211_LGJEFJIK_00920;dRep_bin203_CLFNNOCF_02084;dRep_bin240_LDBBGJKG_01545;dRep_bin026_HNPIIINL_01047;dRep_bin282_PKAAPBFP_00190;dRep_bin328_GIGKNKPJ_00916;dRep_bin335_JIOGNAPG_00084;dRep_bin085_MBHLGCDB_00002;dRep_bin134_HIAPAODO_01587;dRep_bin181_MKGPMPIA_00058;dRep_bin077_DNNBMPMC_01745;dRep_bin154_JGOKHKLI_01584;dRep_bin186_HJAAFFNP_01739;dRep_bin168_HKDILBFE_01500	dRep_bin133_NOBPDBPA_01431;dRep_bin179_HFEIPPPA_01728;dRep_bin297_EDHEEICA_01357;dRep_bin211_LGJEFJIK_00920;dRep_bin203_CLFNNOCF_02084;dRep_bin240_LDBBGJKG_01545	>dRep_bin133_NOBPDBPA_01431 Lysine--tRNA ligase;>dRep_bin179_HFEIPPPA_01728 Lysine--tRNA ligase;>dRep_bin297_EDHEEICA_01357 Lysine--tRNA ligase;>dRep_bin211_LGJEFJIK_00920 Lysine--tRNA ligase;>dRep_bin203_CLFNNOCF_02084 Lysine--tRNA ligase;>dRep_bin240_LDB	dRep_bin077_DNNBMPMC_01745	CDS	lysS	6.1.1.6	Lysine--tRNA ligase
DNNBMPMC_01751	21.94492											14	0	2,5943E-162	dRep_bin077_DNNBMPMC_01751	dRep_bin077_DNNBMPMC_01751	>dRep_bin077_DNNBMPMC_01751 60 kDa chaperonin	dRep_bin077_DNNBMPMC_01751	CDS	groL		60 kDa chaperonin
DNNBMPMC_01815		22.379810000000003	21.804550000000003									2	2	0,00047119	dRep_bin066_AJACLPEE_00581;dRep_bin077_DNNBMPMC_01815	dRep_bin066_AJACLPEE_00581;dRep_bin077_DNNBMPMC_01815	>dRep_bin066_AJACLPEE_00581 Threonine synthase;>dRep_bin077_DNNBMPMC_01815 Threonine synthase	dRep_bin077_DNNBMPMC_01815	CDS	thrC	4.2.3.1	Threonine synthase
DNNBMPMC_01832		25.58075										6	0	1,3543E-87	dRep_bin108_BPNCDINP_01326;dRep_bin089_PAJFOJBN_00301;dRep_bin300_MJPPENNL_00939;dRep_bin145_KMJJJOEJ_00792;dRep_bin091_MAFACGAD_01189;dRep_bin049_MNFBDPNO_00324;dRep_bin016_JLGAHGOJ_00954;dRep_bin157_JPNIKEKI_00961;dRep_bin297_EDHEEICA_00222;dRep_bin160_EFKMPBOM_02659;dRep_bin079_GAOGCKND_00457;dRep_bin068_ENOLAELK_00441;dRep_bin101_BNDDLDCL_01290;dRep_bin330_CODAKHDJ_00875;dRep_bin133_NOBPDBPA_00602;dRep_bin299_AKNBKJGM_01294;dRep_bin250_NMCAMJIO_01057;dRep_bin123_PJKBFKBB_00547;dRep_bin272_LGBDGEIM_01628;dRep_bin179_HFEIPPPA_01660;dRep_bin216_JNJMCPHB_01272;dRep_bin201_OLKDIBOK_01356;dRep_bin062_BOFBFLDA_00952;dRep_bin107_EFNBPDOP_00212;dRep_bin077_DNNBMPMC_01832;dRep_bin306_FGHMKMMP_01672;dRep_bin095_HOBNOEEF_00755;dRep_bin159_ADJJGPBG_00425;dRep_bin222_GGCAJABB_01443;dRep_bin310_IMBAFDIF_00623;dRep_bin181_MKGPMPIA_00586;dRep_bin074_EHAOMODJ_00159;dRep_bin073_AKBCEHHO_00467;dRep_bin285_IPHKFJAN_00913;dRep_bin228_CECEDMJG_00322;dRep_bin066_AJACLPEE_00029;dRep_bin276_EHNFLEBP_00509;dRep_bin021_AJDDCGJC_01318;dRep_bin104_EGLEJOLM_00960;dRep_bin327_EPEGNBAG_00068;dRep_bin241_LMMMGDNI_00158	dRep_bin108_BPNCDINP_01326;dRep_bin089_PAJFOJBN_00301;dRep_bin300_MJPPENNL_00939;dRep_bin145_KMJJJOEJ_00792;dRep_bin091_MAFACGAD_01189;dRep_bin049_MNFBDPNO_00324;dRep_bin016_JLGAHGOJ_00954;dRep_bin157_JPNIKEKI_00961;dRep_bin297_EDHEEICA_00222;dRep_bin160_EFKMPBOM_02659;dRep_bin079_GAOGCKND_00457;dRep_bin068_ENOLAELK_00441;dRep_bin101_BNDDLDCL_01290;dRep_bin330_CODAKHDJ_00875;dRep_bin133_NOBPDBPA_00602;dRep_bin299_AKNBKJGM_01294;dRep_bin250_NMCAMJIO_01057;dRep_bin123_PJKBFKBB_00547;dRep_bin272_LGBDGEIM_01628;dRep_bin179_HFEIPPPA_01660;dRep_bin216_JNJMCPHB_01272;dRep_bin201_OLKDIBOK_01356;dRep_bin062_BOFBFLDA_00952;dRep_bin107_EFNBPDOP_00212;dRep_bin077_DNNBMPMC_01832;dRep_bin306_FGHMKMMP_01672;dRep_bin095_HOBNOEEF_00755;dRep_bin159_ADJJGPBG_00425;dRep_bin222_GGCAJABB_01443;dRep_bin310_IMBAFDIF_00623;dRep_bin181_MKGPMPIA_00586;dRep_bin074_EHAOMODJ_00159	>dRep_bin108_BPNCDINP_01326 Pyridoxal 5-phosphate synthase subunit PdxS;>dRep_bin089_PAJFOJBN_00301 Pyridoxal 5-phosphate synthase subunit PdxS;>dRep_bin300_MJPPENNL_00939 Pyridoxal 5-phosphate synthase subunit PdxS;>dRep_bin145_KMJJJOEJ_00792 Pyridoxal	dRep_bin077_DNNBMPMC_01832	CDS	pdxS	4.3.3.6	Pyridoxal 5'-phosphate synthase subunit PdxS
DNNBMPMC_01859						24.113390000000003						2	1	2,5993E-07	dRep_bin240_LDBBGJKG_01001;dRep_bin001_GHHJMDAL_01372;dRep_bin143_PFLDJMPF_00153;dRep_bin024_OLHDGABE_00846;dRep_bin181_MKGPMPIA_00709;dRep_bin077_DNNBMPMC_01859;dRep_bin005_CNDFPKJG_00656;dRep_bin150_HCDEOBMH_01568;dRep_bin135_HHKACLPM_01559;dRep_bin075_EPEMMOCL_02034;dRep_bin091_MAFACGAD_00181;dRep_bin007_LNLEAAAN_01218;dRep_bin282_PKAAPBFP_00655;dRep_bin254_GJDPFAEA_01551;dRep_bin249_OFIIEIDJ_01140;dRep_bin127_FIPNHBCH_01645;dRep_bin347_EKGCMFPD_00098;dRep_bin322_OJELOJOF_01214;dRep_bin310_IMBAFDIF_01594;dRep_bin287_DONBGKDH_00226;dRep_bin284_DEHKNOBF_00726;dRep_bin266_JFOCEDAE_00133;dRep_bin186_HJAAFFNP_01238;dRep_bin145_KMJJJOEJ_00954;dRep_bin115_IFKGOGCL_00554;dRep_bin065_DFABHCBI_01587;dRep_bin248_CCDFPECI_01609;dRep_bin095_HOBNOEEF_01791;dRep_bin160_EFKMPBOM_01116;dRep_bin154_JGOKHKLI_00150;dRep_bin081_JDPCKDNP_01583;dRep_bin336_MPGOKPOL_01589;dRep_bin306_FGHMKMMP_01590;dRep_bin056_EMNHHOJA_00230;dRep_bin309_BIOHLCGG_00694;dRep_bin302_AHDEPDKG_01234;dRep_bin257_JHFDCHCB_02163;dRep_bin147_EJLBNEBE_01266;dRep_bin124_HIHDFGCL_00964;dRep_bin194_MEPDOGGJ_01159;dRep_bin025_CBEJJMLE_01722;dRep_bin293_MEPKGOAN_00673;dRep_bin058_GJKCICJN_00893;dRep_bin074_EHAOMODJ_00750	dRep_bin240_LDBBGJKG_01001;dRep_bin001_GHHJMDAL_01372;dRep_bin143_PFLDJMPF_00153;dRep_bin024_OLHDGABE_00846;dRep_bin181_MKGPMPIA_00709;dRep_bin077_DNNBMPMC_01859;dRep_bin005_CNDFPKJG_00656;dRep_bin150_HCDEOBMH_01568;dRep_bin135_HHKACLPM_01559;dRep_bin075_EPEMMOCL_02034;dRep_bin091_MAFACGAD_00181;dRep_bin007_LNLEAAAN_01218;dRep_bin282_PKAAPBFP_00655;dRep_bin254_GJDPFAEA_01551;dRep_bin249_OFIIEIDJ_01140;dRep_bin127_FIPNHBCH_01645;dRep_bin347_EKGCMFPD_00098;dRep_bin322_OJELOJOF_01214;dRep_bin310_IMBAFDIF_01594;dRep_bin287_DONBGKDH_00226;dRep_bin284_DEHKNOBF_00726;dRep_bin266_JFOCEDAE_00133;dRep_bin186_HJAAFFNP_01238;dRep_bin145_KMJJJOEJ_00954;dRep_bin115_IFKGOGCL_00554;dRep_bin065_DFABHCBI_01587;dRep_bin248_CCDFPECI_01609;dRep_bin095_HOBNOEEF_01791;dRep_bin160_EFKMPBOM_01116;dRep_bin154_JGOKHKLI_00150;dRep_bin081_JDPCKDNP_01583;dRep_bin336_MPGOKPOL_01589;dRep_bin306_FGHMKMMP_01590;dRep_bin056_EMNHHOJA_00230;dRep_bin309_BIOHLCGG_00694;dRep_bin302_AHDEPDKG_01234;dRep_bin257_JHFDCHCB_02163;dRep_bin147_EJLBNEBE_01266;dRep_bin124_HIHDFGCL_00964;dRep_bin194_MEPDOGGJ_01159;dRep_bin025_CBEJJMLE_01722;dRep_bin293_MEPKGOAN_00673;dRep_bin058_GJKCICJN_00893;dRep_bin074_EHAOMODJ_00750	>dRep_bin240_LDBBGJKG_01001 Glutaconyl-CoA decarboxylase subunit beta;>dRep_bin001_GHHJMDAL_01372 Glutaconyl-CoA decarboxylase subunit beta;>dRep_bin143_PFLDJMPF_00153 Glutaconyl-CoA decarboxylase subunit beta;>dRep_bin024_OLHDGABE_00846 Glutaconyl-CoA dec	dRep_bin077_DNNBMPMC_01859	CDS	gcdB	4.1.1.70	Glutaconyl-CoA decarboxylase subunit beta
DNNBMPMC_01864					25.06357							5	1	3,6059E-73	dRep_bin203_CLFNNOCF_01682;dRep_bin347_EKGCMFPD_01504;dRep_bin284_DEHKNOBF_01057;dRep_bin260_HELEPKJL_00015;dRep_bin310_IMBAFDIF_00287;dRep_bin134_HIAPAODO_00846;dRep_bin062_BOFBFLDA_01435;dRep_bin300_MJPPENNL_01196;dRep_bin201_OLKDIBOK_02047;dRep_bin105_AAEIHAFF_01478;dRep_bin100_CODMOHGB_01221;dRep_bin088_DNGPPFDK_00866;dRep_bin277_MIPNGEJE_00690;dRep_bin166_DFIAJFEC_00146;dRep_bin161_JMKPMHCO_01114;dRep_bin059_OOBKFNPP_00125;dRep_bin046_GKEJLOEK_01062;dRep_bin091_MAFACGAD_00248;dRep_bin017_FGFLFOPJ_00727;dRep_bin354_MMOALAFN_00741;dRep_bin324_IPNHOHFK_00313;dRep_bin323_FBBLPLCG_01264;dRep_bin309_BIOHLCGG_01306;dRep_bin273_FGAEBHNP_00470;dRep_bin261_FJICAFFM_01100;dRep_bin148_NAJFKJMD_00795;dRep_bin115_IFKGOGCL_00123;dRep_bin069_EGGEOGDC_01056;dRep_bin344_CJJBDGAA_01161;dRep_bin249_OFIIEIDJ_00715;dRep_bin220_PILICLLL_00990;dRep_bin134_HIAPAODO_01436;dRep_bin065_DFABHCBI_00344;dRep_bin032_PPNIGLME_00203;dRep_bin270_GEJAHNCN_01587;dRep_bin065_DFABHCBI_00249;dRep_bin278_BFCONKOE_01054;dRep_bin016_JLGAHGOJ_00641;dRep_bin328_GIGKNKPJ_01462;dRep_bin308_JBPDGLPP_01172;dRep_bin303_DDDNDJCF_01320;dRep_bin254_GJDPFAEA_00870;dRep_bin234_ECABPBME_00536;dRep_bin186_HJAAFFNP_01789;dRep_bin167_BLMEBMNN_01296;dRep_bin107_EFNBPDOP_00511;dRep_bin077_DNNBMPMC_01864;dRep_bin066_AJACLPEE_01033;dRep_bin047_IFFANOMN_00697;dRep_bin135_HHKACLPM_00107;dRep_bin303_DDDNDJCF_00377;dRep_bin306_FGHMKMMP_01595;dRep_bin211_LGJEFJIK_00450;dRep_bin007_LNLEAAAN_01312;dRep_bin344_CJJBDGAA_01611;dRep_bin031_BNHMFOII_01628;dRep_bin353_PPDHLNJB_02118;dRep_bin254_GJDPFAEA_00869;dRep_bin094_LBLICAAO_00342;dRep_bin047_IFFANOMN_01357;dRep_bin120_EKLBOPNC_01832;dRep_bin168_HKDILBFE_01442;dRep_bin099_DNDAGJEJ_00392;dRep_bin215_ABBFGCAF_00798;dRep_bin029_LFMGBBEC_01628;dRep_bin240_LDBBGJKG_01094;dRep_bin279_IAEFEPEN_01491;dRep_bin130_OIFFANPF_01666;dRep_bin319_PBDBJGCJ_00268;dRep_bin017_FGFLFOPJ_00820;dRep_bin082_HBEFABJN_01328;dRep_bin245_MBCFLKOF_01762;dRep_bin027_OFJCHLJJ_00790;dRep_bin108_BPNCDINP_00911;dRep_bin308_JBPDGLPP_01750;dRep_bin193_GDMDPNNM_00480;dRep_bin344_CJJBDGAA_02078;dRep_bin049_MNFBDPNO_01413;dRep_bin096_GNHMEKPF_00097;dRep_bin104_EGLEJOLM_01934;dRep_bin339_DBNBAHDK_02499;dRep_bin321_EJNAAGJG_00755;dRep_bin273_FGAEBHNP_00835;dRep_bin250_NMCAMJIO_00087;dRep_bin247_EKGBJCBM_00317;dRep_bin148_NAJFKJMD_01189;dRep_bin337_FHKPNFDB_01633;dRep_bin320_LDBKCCKL_01786;dRep_bin304_JDNJGFKH_01982;dRep_bin286_OEMIJKMC_01141;dRep_bin231_CFOLMJBA_00953;dRep_bin162_JBGCCDIN_01636;dRep_bin126_PPDNCIBN_01067;dRep_bin109_MJABCPAK_00317;dRep_bin057_BNCFHBBO_00597;dRep_bin288_KOIAAABN_00012;dRep_bin263_OLEFOGIJ_00295;dRep_bin304_JDNJGFKH_00179;dRep_bin208_DHPGEIBC_00457;dRep_bin189_AHHEHGDL_01282;dRep_bin177_HLHGKLFL_00741;dRep_bin140_ACFAKGIL_00319;dRep_bin105_AAEIHAFF_01411;dRep_bin082_HBEFABJN_00692;dRep_bin010_MFFFGEGD_00717;dRep_bin005_CNDFPKJG_01705;dRep_bin287_DONBGKDH_01836;dRep_bin094_LBLICAAO_00388;dRep_bin058_GJKCICJN_00227;dRep_bin293_MEPKGOAN_00829;dRep_bin218_ACMPALGF_00229;dRep_bin205_LKIOOBKC_00417;dRep_bin172_ALNHGLMD_01439;dRep_bin159_ADJJGPBG_01342;dRep_bin143_PFLDJMPF_01248;dRep_bin101_BNDDLDCL_01982;dRep_bin091_MAFACGAD_01619;dRep_bin072_JOBJPCGA_00130;dRep_bin011_KOGMKLNO_01272;dRep_bin164_KHMELCCL_01402;dRep_bin305_FCIEFIHE_00371;dRep_bin222_GGCAJABB_00745;dRep_bin006_HPJGJCAG_01874;dRep_bin286_OEMIJKMC_01354;dRep_bin126_PPDNCIBN_00282;dRep_bin185_OOOLKACK_00819;dRep_bin043_KLAFNACO_00900;dRep_bin231_CFOLMJBA_01529;dRep_bin237_KJDLIPND_00869;dRep_bin147_EJLBNEBE_00138;dRep_bin186_HJAAFFNP_01790;dRep_bin081_JDPCKDNP_00172;dRep_bin069_EGGEOGDC_00890;dRep_bin282_PKAAPBFP_00016;dRep_bin206_OIIBOIAK_00984;dRep_bin161_JMKPMHCO_00782;dRep_bin278_BFCONKOE_00310;dRep_bin260_HELEPKJL_01944;dRep_bin336_MPGOKPOL_00897	dRep_bin203_CLFNNOCF_01682;dRep_bin347_EKGCMFPD_01504;dRep_bin284_DEHKNOBF_01057;dRep_bin260_HELEPKJL_00015;dRep_bin310_IMBAFDIF_00287;dRep_bin134_HIAPAODO_00846;dRep_bin062_BOFBFLDA_01435	>dRep_bin203_CLFNNOCF_01682 Glutamine synthetase;>dRep_bin347_EKGCMFPD_01504 Glutamine synthetase;>dRep_bin284_DEHKNOBF_01057 Glutamine synthetase;>dRep_bin260_HELEPKJL_00015 Glutamine synthetase;>dRep_bin310_IMBAFDIF_00287 Glutamine synthetase;>dRep_bin13	dRep_bin077_DNNBMPMC_01864	CDS	glnA_2	6.3.1.2	Glutamine synthetase
DNNBMPMC_01926								21.504800000000003				5	1	3,9803E-89	dRep_bin260_HELEPKJL_01435;dRep_bin135_HHKACLPM_00878;dRep_bin279_IAEFEPEN_00125;dRep_bin139_KGAJINND_00653;dRep_bin047_IFFANOMN_00833;dRep_bin220_PILICLLL_01353;dRep_bin062_BOFBFLDA_00870;dRep_bin027_OFJCHLJJ_01114;dRep_bin145_KMJJJOEJ_00674;dRep_bin300_MJPPENNL_01153;dRep_bin282_PKAAPBFP_00002;dRep_bin091_MAFACGAD_00478;dRep_bin116_CLFDBMOF_00810;dRep_bin347_EKGCMFPD_00673;dRep_bin322_OJELOJOF_01660;dRep_bin335_JIOGNAPG_01578;dRep_bin201_OLKDIBOK_02525;dRep_bin160_EFKMPBOM_02349;dRep_bin077_DNNBMPMC_01926;dRep_bin246_MMFBABHK_00869;dRep_bin219_HGPEELLF_00755;dRep_bin174_LJJOKEME_01393;dRep_bin312_MJFEFHMP_00102;dRep_bin129_GADIAMAA_01507;dRep_bin030_OGPDLGOC_00490;dRep_bin004_OCHNPJPO_00897;dRep_bin061_ONFGDLGO_00219;dRep_bin264_DNFFGNEG_00399;dRep_bin153_JGABJFBF_00375;dRep_bin244_LBFMHLBI_00924;dRep_bin204_INMOGLDN_00439;dRep_bin050_FBECOHCI_00117;dRep_bin202_HEPPALPH_01023;dRep_bin223_PIMCDKJI_00571;dRep_bin233_BAGKKAOB_00161;dRep_bin336_MPGOKPOL_01196;dRep_bin333_EFOKIBLA_00139;dRep_bin303_DDDNDJCF_00008;dRep_bin095_HOBNOEEF_01151;dRep_bin249_OFIIEIDJ_00631;dRep_bin007_LNLEAAAN_00381;dRep_bin328_GIGKNKPJ_00383;dRep_bin081_JDPCKDNP_00006;dRep_bin078_GKFCBAEI_00579;dRep_bin325_EIIGOGHN_00717;dRep_bin319_PBDBJGCJ_01544;dRep_bin306_FGHMKMMP_01785;dRep_bin181_MKGPMPIA_01340;dRep_bin127_FIPNHBCH_01090;dRep_bin066_AJACLPEE_01002;dRep_bin024_OLHDGABE_01294;dRep_bin220_PILICLLL_00488;dRep_bin078_GKFCBAEI_00372;dRep_bin006_HPJGJCAG_01324;dRep_bin142_NDNPJBEM_00465;dRep_bin350_EKOOEEGH_00689;dRep_bin228_CECEDMJG_00916;dRep_bin218_ACMPALGF_00396;dRep_bin164_KHMELCCL_00939;dRep_bin173_BEBNCADL_00342;dRep_bin058_GJKCICJN_00554;dRep_bin268_LKMHIMLG_00442;dRep_bin237_KJDLIPND_00262;dRep_bin251_FGNGCJDD_00443;dRep_bin192_GCMBELNN_00009	dRep_bin260_HELEPKJL_01435;dRep_bin135_HHKACLPM_00878;dRep_bin279_IAEFEPEN_00125;dRep_bin139_KGAJINND_00653;dRep_bin047_IFFANOMN_00833	>dRep_bin260_HELEPKJL_01435 Trehalose import ATP-binding protein SugC;>dRep_bin135_HHKACLPM_00878 Trehalose import ATP-binding protein SugC;>dRep_bin279_IAEFEPEN_00125 Trehalose import ATP-binding protein SugC;>dRep_bin139_KGAJINND_00653 Trehalose import A	dRep_bin077_DNNBMPMC_01926	CDS	sugC	3.6.3.-	Trehalose import ATP-binding protein SugC
DNNBMPMC_01927			19.70065									1	1	0,00094842	dRep_bin019_MOJEPLJF_01253;dRep_bin322_OJELOJOF_00998;dRep_bin266_JFOCEDAE_01255;dRep_bin203_CLFNNOCF_01667;dRep_bin179_HFEIPPPA_01487;dRep_bin062_BOFBFLDA_00482;dRep_bin335_JIOGNAPG_01394;dRep_bin325_EIIGOGHN_00716;dRep_bin300_MJPPENNL_01210;dRep_bin287_DONBGKDH_01487;dRep_bin282_PKAAPBFP_00060;dRep_bin279_IAEFEPEN_01206;dRep_bin269_PNILGKPH_01047;dRep_bin261_FJICAFFM_00341;dRep_bin249_OFIIEIDJ_00793;dRep_bin220_PILICLLL_00785;dRep_bin201_OLKDIBOK_02285;dRep_bin168_HKDILBFE_00870;dRep_bin160_EFKMPBOM_02348;dRep_bin158_OGFICEAP_00078;dRep_bin154_JGOKHKLI_02345;dRep_bin145_KMJJJOEJ_00681;dRep_bin139_KGAJINND_00935;dRep_bin135_HHKACLPM_01083;dRep_bin134_HIAPAODO_01183;dRep_bin133_NOBPDBPA_03238;dRep_bin099_DNDAGJEJ_00384;dRep_bin095_HOBNOEEF_02248;dRep_bin091_MAFACGAD_00479;dRep_bin081_JDPCKDNP_01979;dRep_bin039_IJNOFOJK_00775;dRep_bin023_HGFJFKAI_00522;dRep_bin324_IPNHOHFK_00121;dRep_bin278_BFCONKOE_01329;dRep_bin234_ECABPBME_01690;dRep_bin027_OFJCHLJJ_00792;dRep_bin024_OLHDGABE_00305;dRep_bin005_CNDFPKJG_01369;dRep_bin088_DNGPPFDK_01526;dRep_bin077_DNNBMPMC_01927;dRep_bin310_IMBAFDIF_00406	dRep_bin019_MOJEPLJF_01253;dRep_bin322_OJELOJOF_00998;dRep_bin266_JFOCEDAE_01255;dRep_bin203_CLFNNOCF_01667;dRep_bin179_HFEIPPPA_01487;dRep_bin062_BOFBFLDA_00482;dRep_bin335_JIOGNAPG_01394;dRep_bin325_EIIGOGHN_00716;dRep_bin300_MJPPENNL_01210;dRep_bin287_DONBGKDH_01487;dRep_bin282_PKAAPBFP_00060;dRep_bin279_IAEFEPEN_01206;dRep_bin269_PNILGKPH_01047;dRep_bin261_FJICAFFM_00341;dRep_bin249_OFIIEIDJ_00793;dRep_bin220_PILICLLL_00785;dRep_bin201_OLKDIBOK_02285;dRep_bin168_HKDILBFE_00870;dRep_bin160_EFKMPBOM_02348;dRep_bin158_OGFICEAP_00078;dRep_bin154_JGOKHKLI_02345;dRep_bin145_KMJJJOEJ_00681;dRep_bin139_KGAJINND_00935;dRep_bin135_HHKACLPM_01083;dRep_bin134_HIAPAODO_01183;dRep_bin133_NOBPDBPA_03238;dRep_bin099_DNDAGJEJ_00384;dRep_bin095_HOBNOEEF_02248;dRep_bin091_MAFACGAD_00479;dRep_bin081_JDPCKDNP_01979;dRep_bin039_IJNOFOJK_00775;dRep_bin023_HGFJFKAI_00522;dRep_bin324_IPNHOHFK_00121;dRep_bin278_BFCONKOE_01329;dRep_bin234_ECABPBME_01690;dRep_bin027_OFJCHLJJ_00792;dRep_bin024_OLHDGABE_00305;dRep_bin005_CNDFPKJG_01369;dRep_bin088_DNGPPFDK_01526;dRep_bin077_DNNBMPMC_01927;dRep_bin310_IMBAFDIF_00406	>dRep_bin019_MOJEPLJF_01253 Purine catabolism regulatory protein;>dRep_bin322_OJELOJOF_00998 Purine catabolism regulatory protein;>dRep_bin266_JFOCEDAE_01255 Purine catabolism regulatory protein;>dRep_bin203_CLFNNOCF_01667 Carbohydrate diacid regulator;>dR	dRep_bin077_DNNBMPMC_01927	CDS	cdaR_2		Carbohydrate diacid regulator
DNNBMPMC_01941		25.482409999999994		24.541150000000002								3	2	7,918E-07	dRep_bin181_MKGPMPIA_01251;dRep_bin107_EFNBPDOP_00554;dRep_bin077_DNNBMPMC_01941	dRep_bin181_MKGPMPIA_01251;dRep_bin107_EFNBPDOP_00554;dRep_bin077_DNNBMPMC_01941	>dRep_bin181_MKGPMPIA_01251 Putative KHG/KDPG aldolase;>dRep_bin107_EFNBPDOP_00554 Putative KHG/KDPG aldolase;>dRep_bin077_DNNBMPMC_01941 Putative KHG/KDPG aldolase	dRep_bin077_DNNBMPMC_01941	CDS	eda_2		Putative KHG/KDPG aldolase
DNNBMPMC_01957						22.306860000000004						3	1	6,3831E-08	dRep_bin041_OPKGAAAG_00367;dRep_bin284_DEHKNOBF_00254;dRep_bin319_PBDBJGCJ_00655;dRep_bin203_CLFNNOCF_01297;dRep_bin181_MKGPMPIA_00407;dRep_bin179_HFEIPPPA_00842;dRep_bin139_KGAJINND_00918;dRep_bin133_NOBPDBPA_02473;dRep_bin066_AJACLPEE_00004;dRep_bin194_MEPDOGGJ_00508;dRep_bin152_LJMCIADF_01431;dRep_bin068_ENOLAELK_01095;dRep_bin038_EIGFILKG_01028;dRep_bin025_CBEJJMLE_01384;dRep_bin324_IPNHOHFK_01934;dRep_bin023_HGFJFKAI_01643;dRep_bin209_NKIHFCEN_00957;dRep_bin157_JPNIKEKI_01504;dRep_bin297_EDHEEICA_00667;dRep_bin226_NLNLHLLD_00265;dRep_bin306_FGHMKMMP_01756;dRep_bin005_CNDFPKJG_00040;dRep_bin158_OGFICEAP_01238;dRep_bin303_DDDNDJCF_00102;dRep_bin299_AKNBKJGM_01304;dRep_bin248_CCDFPECI_01165;dRep_bin145_KMJJJOEJ_00716;dRep_bin095_HOBNOEEF_01829;dRep_bin081_JDPCKDNP_01870;dRep_bin053_OMGNPOOB_00265;dRep_bin310_IMBAFDIF_00723;dRep_bin077_DNNBMPMC_01957;dRep_bin201_OLKDIBOK_00147;dRep_bin124_HIHDFGCL_01069;dRep_bin079_GAOGCKND_00667;dRep_bin107_EFNBPDOP_00920	dRep_bin041_OPKGAAAG_00367;dRep_bin284_DEHKNOBF_00254;dRep_bin319_PBDBJGCJ_00655;dRep_bin203_CLFNNOCF_01297;dRep_bin181_MKGPMPIA_00407;dRep_bin179_HFEIPPPA_00842;dRep_bin139_KGAJINND_00918;dRep_bin133_NOBPDBPA_02473;dRep_bin066_AJACLPEE_00004;dRep_bin194_MEPDOGGJ_00508;dRep_bin152_LJMCIADF_01431;dRep_bin068_ENOLAELK_01095;dRep_bin038_EIGFILKG_01028;dRep_bin025_CBEJJMLE_01384;dRep_bin324_IPNHOHFK_01934;dRep_bin023_HGFJFKAI_01643;dRep_bin209_NKIHFCEN_00957;dRep_bin157_JPNIKEKI_01504;dRep_bin297_EDHEEICA_00667;dRep_bin226_NLNLHLLD_00265;dRep_bin306_FGHMKMMP_01756;dRep_bin005_CNDFPKJG_00040	>dRep_bin041_OPKGAAAG_00367 Nicotinate-nucleotide pyrophosphorylase [carboxylating];>dRep_bin284_DEHKNOBF_00254 Nicotinate-nucleotide pyrophosphorylase [carboxylating];>dRep_bin319_PBDBJGCJ_00655 putative nicotinate-nucleotide pyrophosphorylase [carboxylat	dRep_bin077_DNNBMPMC_01957	CDS	nadC	2.4.2.19	putative nicotinate-nucleotide pyrophosphorylase [carboxylating]
