GBprotID	LFQ intensity CtrPig1	LFQ intensity CtrPig2	LFQ intensity CtrPig3	LFQ intensity CtrPig4	LFQ intensity MannanPig1	LFQ intensity MannanPig2	LFQ intensity MannanPig3	LFQ intensity MannanPig4	Only identified by site	Reverse	Contaminant	Peptides	Unique peptides	PEP	Protein IDs	Majority protein IDs	Fasta headers	IDcomb	ftype	gene	EC_number	product
OCBADPJJ_00028						25.329439999999998						2	2	0,00025436	dRep_bin162_JBGCCDIN_01807;dRep_bin072_JOBJPCGA_00306;dRep_bin245_MBCFLKOF_00257;dRep_bin189_AHHEHGDL_01634;dRep_bin043_KLAFNACO_01182;dRep_bin020_JCCELPIE_00123;dRep_bin010_MFFFGEGD_00857;dRep_bin320_LDBKCCKL_00722;dRep_bin222_GGCAJABB_01232;dRep_bin083_OCBADPJJ_00028;dRep_bin011_KOGMKLNO_00540;dRep_bin304_JDNJGFKH_01862;dRep_bin341_NBEGOKEF_00047;dRep_bin274_DBJHKLDG_00672;dRep_bin060_HNFNENOI_00054	dRep_bin162_JBGCCDIN_01807;dRep_bin072_JOBJPCGA_00306;dRep_bin245_MBCFLKOF_00257;dRep_bin189_AHHEHGDL_01634;dRep_bin043_KLAFNACO_01182;dRep_bin020_JCCELPIE_00123;dRep_bin010_MFFFGEGD_00857;dRep_bin320_LDBKCCKL_00722;dRep_bin222_GGCAJABB_01232;dRep_bin083_OCBADPJJ_00028;dRep_bin011_KOGMKLNO_00540;dRep_bin304_JDNJGFKH_01862;dRep_bin341_NBEGOKEF_00047;dRep_bin274_DBJHKLDG_00672;dRep_bin060_HNFNENOI_00054	>dRep_bin162_JBGCCDIN_01807 Ketol-acid reductoisomerase (NADP(+));>dRep_bin072_JOBJPCGA_00306 Ketol-acid reductoisomerase (NADP(+));>dRep_bin245_MBCFLKOF_00257 Ketol-acid reductoisomerase (NADP(+));>dRep_bin189_AHHEHGDL_01634 Ketol-acid reductoisomerase (N	dRep_bin083_OCBADPJJ_00028	CDS	ilvC	1.1.1.86	Ketol-acid reductoisomerase (NADP(+))
OCBADPJJ_00126				23.514490000000002								5	1	1,1934E-18	dRep_bin083_OCBADPJJ_00126	dRep_bin083_OCBADPJJ_00126	>dRep_bin083_OCBADPJJ_00126 L-fucose isomerase	dRep_bin083_OCBADPJJ_00126	CDS	fucI	5.3.1.25	L-fucose isomerase
OCBADPJJ_00202								24.59029				1	1	0,0001222	dRep_bin120_EKLBOPNC_01628;dRep_bin083_OCBADPJJ_00202	dRep_bin120_EKLBOPNC_01628;dRep_bin083_OCBADPJJ_00202	>dRep_bin120_EKLBOPNC_01628 Isocitrate dehydrogenase [NADP];>dRep_bin083_OCBADPJJ_00202 Isocitrate dehydrogenase [NADP]	dRep_bin083_OCBADPJJ_00202	CDS	icd	1.1.1.42	Isocitrate dehydrogenase [NADP]
OCBADPJJ_00248					26.768379999999997							3	1	2,9563E-09	dRep_bin183_FPGIOKBG_01973;dRep_bin034_MEBMFDLL_01112;dRep_bin063_PJANDMAH_00033;dRep_bin104_EGLEJOLM_00236;dRep_bin331_HPKAPHAF_00401;dRep_bin037_GEAOEKHA_01236;dRep_bin276_EHNFLEBP_00896;dRep_bin159_ADJJGPBG_01036;dRep_bin083_OCBADPJJ_00248;dRep_bin120_EKLBOPNC_01937;dRep_bin210_AGEDAEIA_00563;dRep_bin296_FDMPKPOH_01992;dRep_bin002_CFBNDKDN_00667;dRep_bin110_JGOEJECF_00717;dRep_bin314_KCHFPLIP_00736;dRep_bin346_JKFDGFHC_01012;dRep_bin307_AOCKHIKF_00964;dRep_bin113_LIFKCGBF_00231;dRep_bin301_NJFJIJGA_00693;dRep_bin295_EJGKDKNE_01558;dRep_bin118_FGIOKLBC_00221;dRep_bin070_EMBHKIOF_01275;dRep_bin037_GEAOEKHA_00935;dRep_bin022_BOEAFNDE_00846;dRep_bin275_NIDIBBDA_00292;dRep_bin346_JKFDGFHC_01402;dRep_bin331_HPKAPHAF_00660;dRep_bin198_GMLJKALI_01178;dRep_bin165_HMDFFMMM_00173;dRep_bin084_CGBIKHBH_01220;dRep_bin002_CFBNDKDN_00154;dRep_bin036_DOKCEIDH_00528;dRep_bin045_GJACFFBC_00872;dRep_bin034_MEBMFDLL_01631;dRep_bin137_NABPABPB_01490;dRep_bin113_LIFKCGBF_00697;dRep_bin298_EIPJCOMF_00317;dRep_bin036_DOKCEIDH_01142;dRep_bin196_BIELHBNH_01084	dRep_bin183_FPGIOKBG_01973;dRep_bin034_MEBMFDLL_01112	>dRep_bin183_FPGIOKBG_01973 4-alpha-glucanotransferase;>dRep_bin034_MEBMFDLL_01112 4-alpha-glucanotransferase	dRep_bin083_OCBADPJJ_00248	CDS	malQ_1	2.4.1.25	4-alpha-glucanotransferase
OCBADPJJ_00279				20.381629999999998								1	1	0,00037347	dRep_bin120_EKLBOPNC_01032;dRep_bin083_OCBADPJJ_00279	dRep_bin120_EKLBOPNC_01032;dRep_bin083_OCBADPJJ_00279	>dRep_bin120_EKLBOPNC_01032 Short-chain-enoyl-CoA hydratase;>dRep_bin083_OCBADPJJ_00279 Short-chain-enoyl-CoA hydratase	dRep_bin083_OCBADPJJ_00279	CDS	crt	4.2.1.150	Short-chain-enoyl-CoA hydratase
OCBADPJJ_00280							22.93945					2	2	3,6892E-08	dRep_bin083_OCBADPJJ_00280	dRep_bin083_OCBADPJJ_00280	>dRep_bin083_OCBADPJJ_00280 3-hydroxybutyryl-CoA dehydrogenase	dRep_bin083_OCBADPJJ_00280	CDS	hbd	1.1.1.157	3-hydroxybutyryl-CoA dehydrogenase
OCBADPJJ_00332							20.139090000000003					2	1	0,00016731	dRep_bin304_JDNJGFKH_01176;dRep_bin120_EKLBOPNC_00308;dRep_bin083_OCBADPJJ_00332	dRep_bin304_JDNJGFKH_01176;dRep_bin120_EKLBOPNC_00308;dRep_bin083_OCBADPJJ_00332	>dRep_bin304_JDNJGFKH_01176 60 kDa chaperonin;>dRep_bin120_EKLBOPNC_00308 60 kDa chaperonin;>dRep_bin083_OCBADPJJ_00332 60 kDa chaperonin	dRep_bin083_OCBADPJJ_00332	CDS	groL		60 kDa chaperonin
OCBADPJJ_00377								24.27618				3	1	3,4425E-31	dRep_bin083_OCBADPJJ_00377	dRep_bin083_OCBADPJJ_00377	>dRep_bin083_OCBADPJJ_00377 Pyruvate synthase	dRep_bin083_OCBADPJJ_00377	CDS	por	1.2.7.1	Pyruvate synthase
OCBADPJJ_00441	22.84768	24.741699999999998		22.47704								4	2	4,3277E-13	dRep_bin083_OCBADPJJ_00441	dRep_bin083_OCBADPJJ_00441	>dRep_bin083_OCBADPJJ_00441 Acyl-CoA dehydrogenase, short-chain specific	dRep_bin083_OCBADPJJ_00441	CDS	bcd	1.3.8.1	Acyl-CoA dehydrogenase, short-chain specific
OCBADPJJ_00536		25.359910000000003										10	0	5,2395E-120	dRep_bin083_OCBADPJJ_00536	dRep_bin083_OCBADPJJ_00536	>dRep_bin083_OCBADPJJ_00536 GGGtGRT protein	dRep_bin083_OCBADPJJ_00536	CDS			GGGtGRT protein
OCBADPJJ_00537	25.303890000000003		24.877550000000003	24.80971	23.918429999999997	23.89467	24.55104					3	0	9,1462E-61	dRep_bin083_OCBADPJJ_00537	dRep_bin083_OCBADPJJ_00537	>dRep_bin083_OCBADPJJ_00537 hypothetical protein	dRep_bin083_OCBADPJJ_00537	CDS			hypothetical protein
OCBADPJJ_00543				24.34394								2	2	3,5561E-05	dRep_bin083_OCBADPJJ_00543;dRep_bin120_EKLBOPNC_01097	dRep_bin083_OCBADPJJ_00543;dRep_bin120_EKLBOPNC_01097	>dRep_bin083_OCBADPJJ_00543 Bacterial extracellular solute-binding protein;>dRep_bin120_EKLBOPNC_01097 Bacterial extracellular solute-binding protein	dRep_bin083_OCBADPJJ_00543	CDS			Bacterial extracellular solute-binding protein
OCBADPJJ_00750					24.24887	26.77128	24.69339	24.025629999999996				3	1	5,593E-12	dRep_bin139_KGAJINND_01577;dRep_bin344_CJJBDGAA_01807;dRep_bin300_MJPPENNL_01697;dRep_bin324_IPNHOHFK_02134;dRep_bin261_FJICAFFM_01134;dRep_bin303_DDDNDJCF_01519;dRep_bin297_EDHEEICA_00415;dRep_bin209_NKIHFCEN_00709;dRep_bin167_BLMEBMNN_00621;dRep_bin157_JPNIKEKI_01820;dRep_bin133_NOBPDBPA_02652;dRep_bin016_JLGAHGOJ_01099;dRep_bin292_JIBLDOOH_01420;dRep_bin127_FIPNHBCH_01248;dRep_bin062_BOFBFLDA_01336;dRep_bin115_IFKGOGCL_01923;dRep_bin269_PNILGKPH_02213;dRep_bin208_DHPGEIBC_01209;dRep_bin347_EKGCMFPD_00714;dRep_bin266_JFOCEDAE_00751;dRep_bin211_LGJEFJIK_00719;dRep_bin316_FNLHDNEO_01427;dRep_bin065_DFABHCBI_00784;dRep_bin319_PBDBJGCJ_00028;dRep_bin077_DNNBMPMC_00009;dRep_bin006_HPJGJCAG_01885;dRep_bin066_AJACLPEE_00266;dRep_bin279_IAEFEPEN_00114;dRep_bin254_GJDPFAEA_01714;dRep_bin035_JBNPBOKG_00265;dRep_bin092_OOJCPDEA_01135;dRep_bin173_BEBNCADL_00932;dRep_bin261_FJICAFFM_01422;dRep_bin288_KOIAAABN_01088;dRep_bin263_OLEFOGIJ_00124;dRep_bin099_DNDAGJEJ_00022;dRep_bin325_EIIGOGHN_01093;dRep_bin076_GLAOFBEC_01169;dRep_bin089_PAJFOJBN_00283;dRep_bin287_DONBGKDH_01271;dRep_bin162_JBGCCDIN_01770;dRep_bin135_HHKACLPM_00267;dRep_bin332_KAOPCDPF_00441;dRep_bin310_IMBAFDIF_00637;dRep_bin304_JDNJGFKH_01711;dRep_bin222_GGCAJABB_01248;dRep_bin159_ADJJGPBG_01860;dRep_bin043_KLAFNACO_01408;dRep_bin023_HGFJFKAI_00653;dRep_bin189_AHHEHGDL_01147;dRep_bin328_GIGKNKPJ_01484;dRep_bin282_PKAAPBFP_01012;dRep_bin229_FFOBPPJI_01006;dRep_bin203_CLFNNOCF_00634;dRep_bin102_ICFDHPGB_01107;dRep_bin072_JOBJPCGA_00187;dRep_bin029_LFMGBBEC_00768;dRep_bin017_FGFLFOPJ_00988;dRep_bin195_DDMDFNOK_00791;dRep_bin120_EKLBOPNC_01828;dRep_bin058_GJKCICJN_00813;dRep_bin046_GKEJLOEK_00003;dRep_bin186_HJAAFFNP_01596;dRep_bin349_AMCJEEEG_00676;dRep_bin200_JJGKEOHI_00578;dRep_bin027_OFJCHLJJ_00701;dRep_bin161_JMKPMHCO_01186;dRep_bin160_EFKMPBOM_00139;dRep_bin154_JGOKHKLI_00533;dRep_bin083_OCBADPJJ_00750;dRep_bin049_MNFBDPNO_00757;dRep_bin008_MNDMJLEI_00707;dRep_bin158_OGFICEAP_00389;dRep_bin334_NAPFFNLD_00463;dRep_bin339_DBNBAHDK_00481;dRep_bin241_LMMMGDNI_00312;dRep_bin179_HFEIPPPA_00773;dRep_bin245_MBCFLKOF_01292;dRep_bin010_MFFFGEGD_00549	dRep_bin139_KGAJINND_01577;dRep_bin344_CJJBDGAA_01807;dRep_bin300_MJPPENNL_01697;dRep_bin324_IPNHOHFK_02134;dRep_bin261_FJICAFFM_01134;dRep_bin303_DDDNDJCF_01519;dRep_bin297_EDHEEICA_00415;dRep_bin209_NKIHFCEN_00709;dRep_bin167_BLMEBMNN_00621;dRep_bin157_JPNIKEKI_01820;dRep_bin133_NOBPDBPA_02652;dRep_bin016_JLGAHGOJ_01099;dRep_bin292_JIBLDOOH_01420;dRep_bin127_FIPNHBCH_01248;dRep_bin062_BOFBFLDA_01336;dRep_bin115_IFKGOGCL_01923;dRep_bin269_PNILGKPH_02213	>dRep_bin139_KGAJINND_01577 Chaperone protein ClpB 1;>dRep_bin344_CJJBDGAA_01807 Chaperone protein ClpB;>dRep_bin300_MJPPENNL_01697 Chaperone protein ClpB;>dRep_bin324_IPNHOHFK_02134 Chaperone protein ClpB;>dRep_bin261_FJICAFFM_01134 Chaperone protein ClpB	dRep_bin083_OCBADPJJ_00750	CDS	clpB		Chaperone protein ClpB
OCBADPJJ_00780					24.301870000000005		25.681990000000003	24.651850000000007				7	3	1,0652E-21	dRep_bin139_KGAJINND_01153;dRep_bin120_EKLBOPNC_00101;dRep_bin083_OCBADPJJ_00780;dRep_bin159_ADJJGPBG_00139;dRep_bin011_KOGMKLNO_01053;dRep_bin234_ECABPBME_00237;dRep_bin205_LKIOOBKC_00002;dRep_bin278_BFCONKOE_00986;dRep_bin335_JIOGNAPG_00454;dRep_bin189_AHHEHGDL_00148;dRep_bin168_HKDILBFE_01166;dRep_bin099_DNDAGJEJ_01458;dRep_bin208_DHPGEIBC_00208;dRep_bin304_JDNJGFKH_00703;dRep_bin320_LDBKCCKL_00918;dRep_bin167_BLMEBMNN_01289;dRep_bin222_GGCAJABB_00547	dRep_bin139_KGAJINND_01153	>dRep_bin139_KGAJINND_01153 Glycogen phosphorylase	dRep_bin083_OCBADPJJ_00780	CDS	glgP	2.4.1.1	Glycogen phosphorylase
OCBADPJJ_00812					23.00606	23.896980000000003						2	1	8,6813E-10	dRep_bin324_IPNHOHFK_01144;dRep_bin297_EDHEEICA_00687;dRep_bin292_JIBLDOOH_02195;dRep_bin261_FJICAFFM_00057;dRep_bin226_NLNLHLLD_01357;dRep_bin209_NKIHFCEN_00791;dRep_bin203_CLFNNOCF_00406;dRep_bin179_HFEIPPPA_00190;dRep_bin157_JPNIKEKI_00583;dRep_bin133_NOBPDBPA_01168;dRep_bin041_OPKGAAAG_01275;dRep_bin168_HKDILBFE_01397;dRep_bin130_OIFFANPF_00962;dRep_bin083_OCBADPJJ_00812;dRep_bin169_PNICKJKO_00385;dRep_bin319_PBDBJGCJ_01796;dRep_bin109_MJABCPAK_00038;dRep_bin106_BKDHGPBE_00849;dRep_bin216_JNJMCPHB_01613;dRep_bin299_AKNBKJGM_00580;dRep_bin100_CODMOHGB_00911;dRep_bin317_ABPHNCOD_01390;dRep_bin272_LGBDGEIM_00788;dRep_bin249_OFIIEIDJ_00467;dRep_bin066_AJACLPEE_01038;dRep_bin335_JIOGNAPG_00681;dRep_bin234_ECABPBME_00227;dRep_bin088_DNGPPFDK_01237;dRep_bin303_DDDNDJCF_00797;dRep_bin300_MJPPENNL_00671;dRep_bin279_IAEFEPEN_01368;dRep_bin278_BFCONKOE_00336;dRep_bin269_PNILGKPH_01089;dRep_bin260_HELEPKJL_01496;dRep_bin089_PAJFOJBN_00528;dRep_bin027_OFJCHLJJ_00828;dRep_bin019_MOJEPLJF_01606;dRep_bin116_CLFDBMOF_00536;dRep_bin057_BNCFHBBO_00059;dRep_bin134_HIAPAODO_00123;dRep_bin322_OJELOJOF_01583;dRep_bin270_GEJAHNCN_00957;dRep_bin348_LCLFDNEE_00829;dRep_bin295_EJGKDKNE_00315;dRep_bin277_MIPNGEJE_01644;dRep_bin166_DFIAJFEC_00192;dRep_bin264_DNFFGNEG_00340;dRep_bin153_JGABJFBF_01236;dRep_bin114_FJHJKHGL_00133;dRep_bin111_FPJIHFKE_00195;dRep_bin252_NDAKLAGD_00473;dRep_bin247_EKGBJCBM_00710;dRep_bin035_JBNPBOKG_01025;dRep_bin026_HNPIIINL_00916;dRep_bin085_MBHLGCDB_01217;dRep_bin068_ENOLAELK_00657;dRep_bin049_MNFBDPNO_00064;dRep_bin038_EIGFILKG_00881;dRep_bin152_LJMCIADF_01515;dRep_bin079_GAOGCKND_00762;dRep_bin231_CFOLMJBA_00732;dRep_bin126_PPDNCIBN_00705;dRep_bin333_EFOKIBLA_00857;dRep_bin123_PJKBFKBB_00290;dRep_bin185_OOOLKACK_01362;dRep_bin305_FCIEFIHE_01147;dRep_bin070_EMBHKIOF_00605;dRep_bin006_HPJGJCAG_01539;dRep_bin101_BNDDLDCL_00049;dRep_bin331_HPKAPHAF_00752;dRep_bin301_NJFJIJGA_00013;dRep_bin037_GEAOEKHA_01146;dRep_bin087_FCLGAPPI_00654;dRep_bin159_ADJJGPBG_01916;dRep_bin304_JDNJGFKH_01533;dRep_bin120_EKLBOPNC_00943;dRep_bin162_JBGCCDIN_00762;dRep_bin072_JOBJPCGA_01185;dRep_bin320_LDBKCCKL_00985;dRep_bin245_MBCFLKOF_00867;dRep_bin010_MFFFGEGD_00116;dRep_bin205_LKIOOBKC_01048;dRep_bin043_KLAFNACO_01234;dRep_bin011_KOGMKLNO_01366;dRep_bin189_AHHEHGDL_01620;dRep_bin222_GGCAJABB_00316;dRep_bin208_DHPGEIBC_01479;dRep_bin130_OIFFANPF_00887	dRep_bin324_IPNHOHFK_01144;dRep_bin297_EDHEEICA_00687;dRep_bin292_JIBLDOOH_02195;dRep_bin261_FJICAFFM_00057;dRep_bin226_NLNLHLLD_01357;dRep_bin209_NKIHFCEN_00791;dRep_bin203_CLFNNOCF_00406;dRep_bin179_HFEIPPPA_00190;dRep_bin157_JPNIKEKI_00583;dRep_bin133_NOBPDBPA_01168;dRep_bin041_OPKGAAAG_01275;dRep_bin168_HKDILBFE_01397;dRep_bin130_OIFFANPF_00962;dRep_bin083_OCBADPJJ_00812;dRep_bin169_PNICKJKO_00385;dRep_bin319_PBDBJGCJ_01796;dRep_bin109_MJABCPAK_00038;dRep_bin106_BKDHGPBE_00849;dRep_bin216_JNJMCPHB_01613;dRep_bin299_AKNBKJGM_00580;dRep_bin100_CODMOHGB_00911;dRep_bin317_ABPHNCOD_01390;dRep_bin272_LGBDGEIM_00788;dRep_bin249_OFIIEIDJ_00467;dRep_bin066_AJACLPEE_01038;dRep_bin335_JIOGNAPG_00681;dRep_bin234_ECABPBME_00227;dRep_bin088_DNGPPFDK_01237;dRep_bin303_DDDNDJCF_00797;dRep_bin300_MJPPENNL_00671;dRep_bin279_IAEFEPEN_01368;dRep_bin278_BFCONKOE_00336;dRep_bin269_PNILGKPH_01089;dRep_bin260_HELEPKJL_01496;dRep_bin089_PAJFOJBN_00528;dRep_bin027_OFJCHLJJ_00828;dRep_bin019_MOJEPLJF_01606;dRep_bin116_CLFDBMOF_00536;dRep_bin057_BNCFHBBO_00059;dRep_bin134_HIAPAODO_00123;dRep_bin322_OJELOJOF_01583;dRep_bin270_GEJAHNCN_00957;dRep_bin348_LCLFDNEE_00829;dRep_bin295_EJGKDKNE_00315;dRep_bin277_MIPNGEJE_01644;dRep_bin166_DFIAJFEC_00192;dRep_bin264_DNFFGNEG_00340;dRep_bin153_JGABJFBF_01236;dRep_bin114_FJHJKHGL_00133;dRep_bin111_FPJIHFKE_00195;dRep_bin252_NDAKLAGD_00473;dRep_bin247_EKGBJCBM_00710;dRep_bin035_JBNPBOKG_01025;dRep_bin026_HNPIIINL_00916;dRep_bin085_MBHLGCDB_01217;dRep_bin068_ENOLAELK_00657;dRep_bin049_MNFBDPNO_00064;dRep_bin038_EIGFILKG_00881;dRep_bin152_LJMCIADF_01515;dRep_bin079_GAOGCKND_00762;dRep_bin231_CFOLMJBA_00732;dRep_bin126_PPDNCIBN_00705;dRep_bin333_EFOKIBLA_00857;dRep_bin123_PJKBFKBB_00290;dRep_bin185_OOOLKACK_01362;dRep_bin305_FCIEFIHE_01147;dRep_bin070_EMBHKIOF_00605;dRep_bin006_HPJGJCAG_01539;dRep_bin101_BNDDLDCL_00049;dRep_bin331_HPKAPHAF_00752;dRep_bin301_NJFJIJGA_00013;dRep_bin037_GEAOEKHA_01146;dRep_bin087_FCLGAPPI_00654;dRep_bin159_ADJJGPBG_01916;dRep_bin304_JDNJGFKH_01533;dRep_bin120_EKLBOPNC_00943;dRep_bin162_JBGCCDIN_00762;dRep_bin072_JOBJPCGA_01185;dRep_bin320_LDBKCCKL_00985;dRep_bin245_MBCFLKOF_00867;dRep_bin010_MFFFGEGD_00116;dRep_bin205_LKIOOBKC_01048;dRep_bin043_KLAFNACO_01234;dRep_bin011_KOGMKLNO_01366;dRep_bin189_AHHEHGDL_01620;dRep_bin222_GGCAJABB_00316;dRep_bin208_DHPGEIBC_01479;dRep_bin130_OIFFANPF_00887	>dRep_bin324_IPNHOHFK_01144 Glutaconyl-CoA decarboxylase subunit beta;>dRep_bin297_EDHEEICA_00687 Glutaconyl-CoA decarboxylase subunit beta;>dRep_bin292_JIBLDOOH_02195 Glutaconyl-CoA decarboxylase subunit beta;>dRep_bin261_FJICAFFM_00057 Glutaconyl-CoA dec	dRep_bin083_OCBADPJJ_00812	CDS	oadB	4.1.1.3	Oxaloacetate decarboxylase beta chain
OCBADPJJ_00857			22.460569999999997									2	1	2,4794E-10	dRep_bin135_HHKACLPM_01315;dRep_bin249_OFIIEIDJ_01934;dRep_bin284_DEHKNOBF_00489;dRep_bin001_GHHJMDAL_00077;dRep_bin300_MJPPENNL_01366;dRep_bin306_FGHMKMMP_00653;dRep_bin023_HGFJFKAI_00503;dRep_bin332_KAOPCDPF_01288;dRep_bin344_CJJBDGAA_01850;dRep_bin310_IMBAFDIF_00279;dRep_bin288_KOIAAABN_00684;dRep_bin248_CCDFPECI_01334;dRep_bin254_GJDPFAEA_02026;dRep_bin277_MIPNGEJE_00216;dRep_bin293_MEPKGOAN_00506;dRep_bin075_EPEMMOCL_01819;dRep_bin286_OEMIJKMC_00231;dRep_bin115_IFKGOGCL_01177;dRep_bin005_CNDFPKJG_01656;dRep_bin095_HOBNOEEF_00899;dRep_bin197_NHLBHFEI_00443;dRep_bin281_OGHLKMAI_00140;dRep_bin058_GJKCICJN_01024;dRep_bin263_OLEFOGIJ_00135;dRep_bin189_AHHEHGDL_00535;dRep_bin103_IGJBLKMC_00221;dRep_bin205_LKIOOBKC_01773;dRep_bin011_KOGMKLNO_00247;dRep_bin304_JDNJGFKH_00846;dRep_bin120_EKLBOPNC_01967;dRep_bin083_OCBADPJJ_00857	dRep_bin135_HHKACLPM_01315;dRep_bin249_OFIIEIDJ_01934;dRep_bin284_DEHKNOBF_00489;dRep_bin001_GHHJMDAL_00077;dRep_bin300_MJPPENNL_01366;dRep_bin306_FGHMKMMP_00653;dRep_bin023_HGFJFKAI_00503;dRep_bin332_KAOPCDPF_01288;dRep_bin344_CJJBDGAA_01850;dRep_bin310_IMBAFDIF_00279;dRep_bin288_KOIAAABN_00684;dRep_bin248_CCDFPECI_01334;dRep_bin254_GJDPFAEA_02026;dRep_bin277_MIPNGEJE_00216;dRep_bin293_MEPKGOAN_00506;dRep_bin075_EPEMMOCL_01819;dRep_bin286_OEMIJKMC_00231;dRep_bin115_IFKGOGCL_01177;dRep_bin005_CNDFPKJG_01656;dRep_bin095_HOBNOEEF_00899;dRep_bin197_NHLBHFEI_00443;dRep_bin281_OGHLKMAI_00140;dRep_bin058_GJKCICJN_01024;dRep_bin263_OLEFOGIJ_00135;dRep_bin189_AHHEHGDL_00535;dRep_bin103_IGJBLKMC_00221;dRep_bin205_LKIOOBKC_01773;dRep_bin011_KOGMKLNO_00247;dRep_bin304_JDNJGFKH_00846;dRep_bin120_EKLBOPNC_01967;dRep_bin083_OCBADPJJ_00857	>dRep_bin135_HHKACLPM_01315 Leucine--tRNA ligase;>dRep_bin249_OFIIEIDJ_01934 Leucine--tRNA ligase;>dRep_bin284_DEHKNOBF_00489 Leucine--tRNA ligase;>dRep_bin001_GHHJMDAL_00077 Leucine--tRNA ligase;>dRep_bin300_MJPPENNL_01366 Leucine--tRNA ligase;>dRep_bin30	dRep_bin083_OCBADPJJ_00857	CDS	leuS	6.1.1.4	Leucine--tRNA ligase
OCBADPJJ_00879	24.03103	24.23476	24.443229999999996									7	1	3,1058E-32	dRep_bin245_MBCFLKOF_01609;dRep_bin010_MFFFGEGD_01473;dRep_bin208_DHPGEIBC_01284;dRep_bin205_LKIOOBKC_01366;dRep_bin304_JDNJGFKH_00709;dRep_bin120_EKLBOPNC_01846;dRep_bin083_OCBADPJJ_00879	dRep_bin245_MBCFLKOF_01609;dRep_bin010_MFFFGEGD_01473;dRep_bin208_DHPGEIBC_01284;dRep_bin205_LKIOOBKC_01366	>dRep_bin245_MBCFLKOF_01609 Bifunctional PGK/TIM;>dRep_bin010_MFFFGEGD_01473 Bifunctional PGK/TIM;>dRep_bin208_DHPGEIBC_01284 Bifunctional PGK/TIM;>dRep_bin205_LKIOOBKC_01366 Bifunctional PGK/TIM	dRep_bin083_OCBADPJJ_00879	CDS			pgk/tpi_3
OCBADPJJ_01145			23.64229	23.74684				24.48296				18	3	3,8972E-149	dRep_bin220_PILICLLL_02028;dRep_bin278_BFCONKOE_00441;dRep_bin081_JDPCKDNP_00377;dRep_bin322_OJELOJOF_00804;dRep_bin248_CCDFPECI_00079;dRep_bin106_BKDHGPBE_00283;dRep_bin144_NPHACCKF_01724;dRep_bin122_JHMJFODI_00608;dRep_bin141_GMCOOECB_01066;dRep_bin213_HHHELMFN_00712;dRep_bin109_MJABCPAK_00085;dRep_bin085_MBHLGCDB_01100;dRep_bin024_OLHDGABE_00645;dRep_bin127_FIPNHBCH_00373;dRep_bin318_IEDEJOFJ_00277;dRep_bin155_CLHNKEHA_00696;dRep_bin218_ACMPALGF_01353;dRep_bin119_AKFBCGDO_01001;dRep_bin146_LCCIBLJG_00301;dRep_bin354_MMOALAFN_01658;dRep_bin347_EKGCMFPD_01037;dRep_bin227_IJODGBOI_00749;dRep_bin132_FAPBDCMG_00320;dRep_bin313_CJFGINPI_00866;dRep_bin156_GFIMJAAC_00888;dRep_bin342_BMMENEMP_00958;dRep_bin280_IMCGLKKG_00439;dRep_bin197_NHLBHFEI_00889;dRep_bin281_OGHLKMAI_00400;dRep_bin276_EHNFLEBP_02113;dRep_bin104_EGLEJOLM_01406;dRep_bin207_OHNPDPFI_01068;dRep_bin121_BHOOLFKN_00245;dRep_bin008_MNDMJLEI_00892;dRep_bin054_NNOKONMC_00872;dRep_bin011_KOGMKLNO_00879;dRep_bin142_NDNPJBEM_01584;dRep_bin333_EFOKIBLA_00720;dRep_bin223_PIMCDKJI_01633;dRep_bin120_EKLBOPNC_00731;dRep_bin177_HLHGKLFL_00449;dRep_bin140_ACFAKGIL_00447;dRep_bin304_JDNJGFKH_00598;dRep_bin245_MBCFLKOF_00047;dRep_bin208_DHPGEIBC_00902;dRep_bin010_MFFFGEGD_00183;dRep_bin083_OCBADPJJ_01145;dRep_bin222_GGCAJABB_00479;dRep_bin205_LKIOOBKC_01169;dRep_bin320_LDBKCCKL_00573;dRep_bin162_JBGCCDIN_01242;dRep_bin159_ADJJGPBG_01729;dRep_bin033_DLABHNFE_00633;dRep_bin012_KEBBILMO_00315;dRep_bin350_EKOOEEGH_01215;dRep_bin121_BHOOLFKN_01088;dRep_bin212_IEMJENOD_00205;dRep_bin161_JMKPMHCO_00073;dRep_bin353_PPDHLNJB_01811;dRep_bin195_DDMDFNOK_01689;dRep_bin327_EPEGNBAG_00663;dRep_bin241_LMMMGDNI_01611;dRep_bin334_NAPFFNLD_00132	dRep_bin220_PILICLLL_02028	>dRep_bin220_PILICLLL_02028 DNA-directed RNA polymerase subunit beta	dRep_bin083_OCBADPJJ_01145	CDS	rpoB	2.7.7.6	DNA-directed RNA polymerase subunit beta
OCBADPJJ_01164						26.56735	23.57045	24.06719				4	1	3,4803E-49	dRep_bin045_GJACFFBC_01828;dRep_bin120_EKLBOPNC_00708;dRep_bin083_OCBADPJJ_01164;dRep_bin022_BOEAFNDE_00289	dRep_bin045_GJACFFBC_01828	>dRep_bin045_GJACFFBC_01828 Rubrerythrin	dRep_bin083_OCBADPJJ_01164	CDS	rbr		Rubrerythrin
OCBADPJJ_01321	27.73357	26.1831	25.77904	26.626870000000004								6	2	2,516E-90	dRep_bin162_JBGCCDIN_00873;dRep_bin189_AHHEHGDL_01035;dRep_bin208_DHPGEIBC_01391;dRep_bin072_JOBJPCGA_00855;dRep_bin245_MBCFLKOF_01845;dRep_bin222_GGCAJABB_00207;dRep_bin208_DHPGEIBC_00919;dRep_bin072_JOBJPCGA_01584;dRep_bin043_KLAFNACO_00070;dRep_bin010_MFFFGEGD_01375;dRep_bin205_LKIOOBKC_00550;dRep_bin159_ADJJGPBG_00251;dRep_bin120_EKLBOPNC_00734;dRep_bin011_KOGMKLNO_00047;dRep_bin120_EKLBOPNC_00562;dRep_bin320_LDBKCCKL_01220;dRep_bin320_LDBKCCKL_00925;dRep_bin245_MBCFLKOF_01332;dRep_bin222_GGCAJABB_00208;dRep_bin159_ADJJGPBG_00250;dRep_bin010_MFFFGEGD_00247;dRep_bin304_JDNJGFKH_01099;dRep_bin083_OCBADPJJ_01321;dRep_bin083_OCBADPJJ_00627	dRep_bin162_JBGCCDIN_00873;dRep_bin189_AHHEHGDL_01035;dRep_bin208_DHPGEIBC_01391;dRep_bin072_JOBJPCGA_00855	>dRep_bin162_JBGCCDIN_00873 Flagellar filament 31.3 kDa core protein;>dRep_bin189_AHHEHGDL_01035 Flagellar filament 31.3 kDa core protein;>dRep_bin208_DHPGEIBC_01391 Flagellar filament 31.3 kDa core protein;>dRep_bin072_JOBJPCGA_00855 Flagellar filament 31	dRep_bin083_OCBADPJJ_01321	CDS	flaB2_2		Flagellar filament 33 kDa core protein
OCBADPJJ_01356	24.981769999999997	24.736860000000004		25.84479			26.18399	24.43619				6	4	2,1242E-22	dRep_bin083_OCBADPJJ_01356	dRep_bin083_OCBADPJJ_01356	>dRep_bin083_OCBADPJJ_01356 Flagellar filament outer layer protein	dRep_bin083_OCBADPJJ_01356	CDS	flaA		Flagellar filament outer layer protein
OCBADPJJ_01385					25.31247							2	2	5,4885E-07	dRep_bin083_OCBADPJJ_01385	dRep_bin083_OCBADPJJ_01385	>dRep_bin083_OCBADPJJ_01385 Desulfoferrodoxin	dRep_bin083_OCBADPJJ_01385	CDS	dfx	1.15.1.2	Desulfoferrodoxin
OCBADPJJ_01445					26.69259	26.46382	24.862639999999995	25.452619999999996				7	2	1,4139E-30	dRep_bin272_LGBDGEIM_01228;dRep_bin354_MMOALAFN_01246;dRep_bin166_DFIAJFEC_00700;dRep_bin309_BIOHLCGG_00463;dRep_bin277_MIPNGEJE_01155;dRep_bin286_OEMIJKMC_00557;dRep_bin126_PPDNCIBN_00953;dRep_bin131_HLFNHDGI_01712;dRep_bin059_OOBKFNPP_00024;dRep_bin085_MBHLGCDB_00444;dRep_bin349_AMCJEEEG_00683;dRep_bin049_MNFBDPNO_00397;dRep_bin231_CFOLMJBA_00446;dRep_bin304_JDNJGFKH_01037;dRep_bin120_EKLBOPNC_00637;dRep_bin115_IFKGOGCL_02607;dRep_bin083_OCBADPJJ_01445;dRep_bin205_LKIOOBKC_01850;dRep_bin090_IPGNHCBJ_01246;dRep_bin058_GJKCICJN_00624;dRep_bin247_EKGBJCBM_01564	dRep_bin272_LGBDGEIM_01228	>dRep_bin272_LGBDGEIM_01228 Inosine-5-monophosphate dehydrogenase	dRep_bin083_OCBADPJJ_01445	CDS	guaB_2	1.1.1.205	Inosine-5'-monophosphate dehydrogenase
OCBADPJJ_01499					23.285309999999996	22.74415	25.99535	23.7542				8	2	2,5438E-31	dRep_bin304_JDNJGFKH_00908;dRep_bin120_EKLBOPNC_00774;dRep_bin083_OCBADPJJ_01499	dRep_bin304_JDNJGFKH_00908;dRep_bin120_EKLBOPNC_00774;dRep_bin083_OCBADPJJ_01499	>dRep_bin304_JDNJGFKH_00908 Phosphoenolpyruvate carboxykinase [GTP];>dRep_bin120_EKLBOPNC_00774 Phosphoenolpyruvate carboxykinase [GTP];>dRep_bin083_OCBADPJJ_01499 Phosphoenolpyruvate carboxykinase [GTP]	dRep_bin083_OCBADPJJ_01499	CDS	pckG	4.1.1.32	Phosphoenolpyruvate carboxykinase [GTP]
