GBprotID	LFQ intensity CtrPig1	LFQ intensity CtrPig2	LFQ intensity CtrPig3	LFQ intensity CtrPig4	LFQ intensity MannanPig1	LFQ intensity MannanPig2	LFQ intensity MannanPig3	LFQ intensity MannanPig4	Only identified by site	Reverse	Contaminant	Peptides	Unique peptides	PEP	Protein IDs	Majority protein IDs	Fasta headers	IDcomb	ftype	gene	EC_number	product
MBHLGCDB_00001					23.534100000000002	22.225089999999998		22.685689999999997				2	1	4,4559E-06	dRep_bin238_OLNFACLE_00398;dRep_bin057_BNCFHBBO_01480;dRep_bin166_DFIAJFEC_01273;dRep_bin335_JIOGNAPG_00083;dRep_bin085_MBHLGCDB_00001;dRep_bin100_CODMOHGB_00507;dRep_bin293_MEPKGOAN_01486;dRep_bin216_JNJMCPHB_00814;dRep_bin052_PGOOKKFH_01423;dRep_bin207_OHNPDPFI_00321;dRep_bin151_AHBJLMBI_01464;dRep_bin117_PMEMANMD_00592;dRep_bin009_KMMEHEKA_00219;dRep_bin259_IFIOODLK_02073;dRep_bin102_ICFDHPGB_00079;dRep_bin003_GOBBLOGO_00201;dRep_bin021_AJDDCGJC_00106;dRep_bin247_EKGBJCBM_00561;dRep_bin049_MNFBDPNO_01629;dRep_bin213_HHHELMFN_00639;dRep_bin265_LFKFBJPC_01443;dRep_bin109_MJABCPAK_01407;dRep_bin257_JHFDCHCB_01026;dRep_bin032_PPNIGLME_00869;dRep_bin079_GAOGCKND_01412;dRep_bin068_ENOLAELK_01548;dRep_bin025_CBEJJMLE_00266;dRep_bin152_LJMCIADF_01534;dRep_bin124_HIHDFGCL_01183;dRep_bin194_MEPDOGGJ_00641;dRep_bin339_DBNBAHDK_01337;dRep_bin283_NLJJFFAC_00380	dRep_bin238_OLNFACLE_00398;dRep_bin057_BNCFHBBO_01480;dRep_bin166_DFIAJFEC_01273;dRep_bin335_JIOGNAPG_00083;dRep_bin085_MBHLGCDB_00001;dRep_bin100_CODMOHGB_00507;dRep_bin293_MEPKGOAN_01486;dRep_bin216_JNJMCPHB_00814;dRep_bin052_PGOOKKFH_01423;dRep_bin207_OHNPDPFI_00321;dRep_bin151_AHBJLMBI_01464;dRep_bin117_PMEMANMD_00592;dRep_bin009_KMMEHEKA_00219;dRep_bin259_IFIOODLK_02073;dRep_bin102_ICFDHPGB_00079;dRep_bin003_GOBBLOGO_00201;dRep_bin021_AJDDCGJC_00106;dRep_bin247_EKGBJCBM_00561;dRep_bin049_MNFBDPNO_01629;dRep_bin213_HHHELMFN_00639;dRep_bin265_LFKFBJPC_01443;dRep_bin109_MJABCPAK_01407;dRep_bin257_JHFDCHCB_01026;dRep_bin032_PPNIGLME_00869;dRep_bin079_GAOGCKND_01412;dRep_bin068_ENOLAELK_01548;dRep_bin025_CBEJJMLE_00266;dRep_bin152_LJMCIADF_01534;dRep_bin124_HIHDFGCL_01183;dRep_bin194_MEPDOGGJ_00641;dRep_bin339_DBNBAHDK_01337;dRep_bin283_NLJJFFAC_00380	>dRep_bin238_OLNFACLE_00398 Lysine--tRNA ligase;>dRep_bin057_BNCFHBBO_01480 Lysine--tRNA ligase;>dRep_bin166_DFIAJFEC_01273 Lysine--tRNA ligase;>dRep_bin335_JIOGNAPG_00083 Lysine--tRNA ligase;>dRep_bin085_MBHLGCDB_00001 Lysine--tRNA ligase;>dRep_bin100_COD	dRep_bin085_MBHLGCDB_00001	CDS	lysS_1	6.1.1.6	Lysine--tRNA ligase
MBHLGCDB_00002	24.909950000000002	26.008409999999998	26.43557	26.35592	26.00267	26.164360000000002	26.32337	25.978229999999996				5	3	3,5357E-11	dRep_bin133_NOBPDBPA_01431;dRep_bin179_HFEIPPPA_01728;dRep_bin297_EDHEEICA_01357;dRep_bin211_LGJEFJIK_00920;dRep_bin203_CLFNNOCF_02084;dRep_bin240_LDBBGJKG_01545;dRep_bin026_HNPIIINL_01047;dRep_bin282_PKAAPBFP_00190;dRep_bin328_GIGKNKPJ_00916;dRep_bin335_JIOGNAPG_00084;dRep_bin085_MBHLGCDB_00002;dRep_bin134_HIAPAODO_01587;dRep_bin181_MKGPMPIA_00058;dRep_bin077_DNNBMPMC_01745;dRep_bin154_JGOKHKLI_01584;dRep_bin186_HJAAFFNP_01739;dRep_bin168_HKDILBFE_01500	dRep_bin133_NOBPDBPA_01431;dRep_bin179_HFEIPPPA_01728;dRep_bin297_EDHEEICA_01357;dRep_bin211_LGJEFJIK_00920;dRep_bin203_CLFNNOCF_02084;dRep_bin240_LDBBGJKG_01545	>dRep_bin133_NOBPDBPA_01431 Lysine--tRNA ligase;>dRep_bin179_HFEIPPPA_01728 Lysine--tRNA ligase;>dRep_bin297_EDHEEICA_01357 Lysine--tRNA ligase;>dRep_bin211_LGJEFJIK_00920 Lysine--tRNA ligase;>dRep_bin203_CLFNNOCF_02084 Lysine--tRNA ligase;>dRep_bin240_LDB	dRep_bin085_MBHLGCDB_00002	CDS	lysS_2	6.1.1.6	Lysine--tRNA ligase
MBHLGCDB_00018	25.344960000000004	25.95431	24.99499	25.01103								1	1	3,5815E-06	dRep_bin085_MBHLGCDB_00018;dRep_bin354_MMOALAFN_00641	dRep_bin085_MBHLGCDB_00018;dRep_bin354_MMOALAFN_00641	>dRep_bin085_MBHLGCDB_00018 Succinate-semialdehyde dehydrogenase (acetylating);>dRep_bin354_MMOALAFN_00641 Aldehyde-alcohol dehydrogenase	dRep_bin085_MBHLGCDB_00018	CDS	sucD	1.2.1.76	Succinate-semialdehyde dehydrogenase (acetylating)
MBHLGCDB_00035					27.3864	25.402169999999998	25.52163	25.89929				10	8	9,6522E-24	dRep_bin243_JDMELKLC_01109;dRep_bin085_MBHLGCDB_00035;REV__dRep_bin060_HNFNENOI_01734;dRep_bin268_LKMHIMLG_01197	dRep_bin243_JDMELKLC_01109	>dRep_bin243_JDMELKLC_01109 Glutamine synthetase	dRep_bin085_MBHLGCDB_00035	CDS	glnA_1	6.3.1.2	Glutamine synthetase
MBHLGCDB_00090					23.877180000000003							2	1	6,3487E-08	dRep_bin354_MMOALAFN_00890;dRep_bin096_GNHMEKPF_00957;dRep_bin075_EPEMMOCL_01679;dRep_bin236_BNONDECB_00140;dRep_bin085_MBHLGCDB_00090;dRep_bin187_CLPDGDBG_00022;dRep_bin206_OIIBOIAK_00679;dRep_bin206_OIIBOIAK_00466;dRep_bin251_FGNGCJDD_00444;dRep_bin187_CLPDGDBG_00463;dRep_bin251_FGNGCJDD_00111;dRep_bin188_EJILNMPE_00797	dRep_bin354_MMOALAFN_00890;dRep_bin096_GNHMEKPF_00957;dRep_bin075_EPEMMOCL_01679;dRep_bin236_BNONDECB_00140;dRep_bin085_MBHLGCDB_00090;dRep_bin187_CLPDGDBG_00022;dRep_bin206_OIIBOIAK_00679;dRep_bin206_OIIBOIAK_00466;dRep_bin251_FGNGCJDD_00444;dRep_bin187_CLPDGDBG_00463;dRep_bin251_FGNGCJDD_00111;dRep_bin188_EJILNMPE_00797	>dRep_bin354_MMOALAFN_00890 Trehalose import ATP-binding protein SugC;>dRep_bin096_GNHMEKPF_00957 Trehalose import ATP-binding protein SugC;>dRep_bin075_EPEMMOCL_01679 Trehalose import ATP-binding protein SugC;>dRep_bin236_BNONDECB_00140 Trehalose import A	dRep_bin085_MBHLGCDB_00090	CDS	sugC	3.6.3.-	Trehalose import ATP-binding protein SugC
MBHLGCDB_00312						25.490759999999998						1	1	0,00096216	dRep_bin085_MBHLGCDB_00312	dRep_bin085_MBHLGCDB_00312	>dRep_bin085_MBHLGCDB_00312 2-dehydro-3-deoxygluconokinase	dRep_bin085_MBHLGCDB_00312	CDS	kdgK	2.7.1.45	2-dehydro-3-deoxygluconokinase
MBHLGCDB_00330		26.83834										2	1	1,8363E-07	dRep_bin085_MBHLGCDB_00330;dRep_bin343_JCMCKBGF_03461	dRep_bin085_MBHLGCDB_00330;dRep_bin343_JCMCKBGF_03461	>dRep_bin085_MBHLGCDB_00330 Propanediol utilization protein PduA;>dRep_bin343_JCMCKBGF_03461 Propanediol utilization protein PduA	dRep_bin085_MBHLGCDB_00330	CDS	pduA_2		Propanediol utilization protein PduA
MBHLGCDB_00331	27.68459	26.816650000000003	26.943019999999997	28.28193	28.51073	28.898509999999998	27.47057	28.298719999999996				10	6	6,2016E-45	dRep_bin303_DDDNDJCF_00631;dRep_bin134_HIAPAODO_00904;dRep_bin085_MBHLGCDB_00331;dRep_bin046_GKEJLOEK_00303;dRep_bin310_IMBAFDIF_01684	dRep_bin303_DDDNDJCF_00631	>dRep_bin303_DDDNDJCF_00631 D-arabitol-phosphate dehydrogenase	dRep_bin085_MBHLGCDB_00331	CDS	gutB	1.1.1.14	Sorbitol dehydrogenase
MBHLGCDB_00333				25.47432								2	1	4,5743E-24	dRep_bin266_JFOCEDAE_01690;dRep_bin154_JGOKHKLI_02496;dRep_bin085_MBHLGCDB_00333	dRep_bin266_JFOCEDAE_01690;dRep_bin154_JGOKHKLI_02496;dRep_bin085_MBHLGCDB_00333	>dRep_bin266_JFOCEDAE_01690 L-fuculose phosphate aldolase;>dRep_bin154_JGOKHKLI_02496 L-fuculose phosphate aldolase;>dRep_bin085_MBHLGCDB_00333 L-fuculose phosphate aldolase	dRep_bin085_MBHLGCDB_00333	CDS	fucA	4.1.2.17	L-fuculose phosphate aldolase
MBHLGCDB_00354					25.616020000000002	23.6184	23.54922					4	1	1,9799E-33	dRep_bin260_HELEPKJL_01845;dRep_bin201_OLKDIBOK_00112;dRep_bin303_DDDNDJCF_00142;dRep_bin287_DONBGKDH_01854;dRep_bin322_OJELOJOF_01184;dRep_bin257_JHFDCHCB_00967;dRep_bin169_PNICKJKO_00877;A0A287A8P8;dRep_bin051_HIEIDCID_00151;dRep_bin086_HHEJBMCP_00386;dRep_bin122_JHMJFODI_00063;dRep_bin023_HGFJFKAI_00771;dRep_bin181_MKGPMPIA_00103;dRep_bin066_AJACLPEE_00701;dRep_bin259_IFIOODLK_02454;dRep_bin180_JMFOHHIL_00810;dRep_bin176_DLEJNGKN_00496;dRep_bin102_ICFDHPGB_00705;dRep_bin054_NNOKONMC_00274;dRep_bin141_GMCOOECB_00272;dRep_bin081_JDPCKDNP_01556;dRep_bin191_NGFJMLOL_01066;dRep_bin347_EKGCMFPD_00368;dRep_bin258_DAMEHFEK_00953;dRep_bin207_OHNPDPFI_00730;dRep_bin155_CLHNKEHA_00341;dRep_bin147_EJLBNEBE_00007;dRep_bin003_GOBBLOGO_01064;dRep_bin001_GHHJMDAL_00643;dRep_bin178_FLGBGGJB_01411;dRep_bin161_JMKPMHCO_00287;dRep_bin096_GNHMEKPF_00190;dRep_bin074_EHAOMODJ_00071;dRep_bin059_OOBKFNPP_00877;dRep_bin009_KMMEHEKA_00693;dRep_bin308_JBPDGLPP_01578;dRep_bin276_EHNFLEBP_00798;dRep_bin337_FHKPNFDB_01542;dRep_bin273_FGAEBHNP_00709;dRep_bin167_BLMEBMNN_01919;dRep_bin114_FJHJKHGL_00074;dRep_bin085_MBHLGCDB_00354;dRep_bin058_GJKCICJN_00485;A0A287B9S9;dRep_bin342_BMMENEMP_00811;dRep_bin341_NBEGOKEF_00144;dRep_bin231_CFOLMJBA_00136;dRep_bin095_HOBNOEEF_01465;dRep_bin236_BNONDECB_00582;dRep_bin168_HKDILBFE_01225;dRep_bin099_DNDAGJEJ_01201;dRep_bin024_OLHDGABE_00735;dRep_bin006_HPJGJCAG_01680;I3LL84;dRep_bin332_KAOPCDPF_00242;dRep_bin336_MPGOKPOL_00237;A0A287BIW1;dRep_bin319_PBDBJGCJ_00470	dRep_bin260_HELEPKJL_01845;dRep_bin201_OLKDIBOK_00112;dRep_bin303_DDDNDJCF_00142;dRep_bin287_DONBGKDH_01854	>dRep_bin260_HELEPKJL_01845 UDP-glucose 4-epimerase;>dRep_bin201_OLKDIBOK_00112 UDP-glucose 4-epimerase;>dRep_bin303_DDDNDJCF_00142 UDP-glucose 4-epimerase;>dRep_bin287_DONBGKDH_01854 UDP-glucose 4-epimerase	dRep_bin085_MBHLGCDB_00354	CDS	lnpD	5.1.3.2	UDP-glucose 4-epimerase
MBHLGCDB_00357	26.409309999999998	26.73518	27.015850000000004	25.91205								4	2	1,2093E-20	dRep_bin336_MPGOKPOL_00896;dRep_bin147_EJLBNEBE_00136;dRep_bin085_MBHLGCDB_00357;dRep_bin238_OLNFACLE_01925;dRep_bin339_DBNBAHDK_02208;dRep_bin262_LLCGOPIE_00576;dRep_bin332_KAOPCDPF_00403;dRep_bin321_EJNAAGJG_01053;dRep_bin186_HJAAFFNP_01167;dRep_bin158_OGFICEAP_01582;dRep_bin145_KMJJJOEJ_00451;dRep_bin295_EJGKDKNE_00688;dRep_bin243_JDMELKLC_00439;dRep_bin194_MEPDOGGJ_00203;dRep_bin152_LJMCIADF_01105;dRep_bin101_BNDDLDCL_00447;dRep_bin079_GAOGCKND_00351;dRep_bin068_ENOLAELK_00629;dRep_bin026_HNPIIINL_01484;dRep_bin025_CBEJJMLE_00462;dRep_bin125_FADLGGII_01452;dRep_bin123_PJKBFKBB_00308;dRep_bin354_MMOALAFN_00213;dRep_bin248_CCDFPECI_00809;dRep_bin268_LKMHIMLG_00072;dRep_bin090_IPGNHCBJ_01072	dRep_bin336_MPGOKPOL_00896;dRep_bin147_EJLBNEBE_00136;dRep_bin085_MBHLGCDB_00357	>dRep_bin336_MPGOKPOL_00896 Serine hydroxymethyltransferase;>dRep_bin147_EJLBNEBE_00136 Serine hydroxymethyltransferase;>dRep_bin085_MBHLGCDB_00357 Serine hydroxymethyltransferase	dRep_bin085_MBHLGCDB_00357	CDS	glyA	2.1.2.1	Serine hydroxymethyltransferase
MBHLGCDB_00395	25.929329999999997	25.80334	28.56587	25.608739999999997	28.330830000000002	28.851180000000003	29.565199999999997	28.06394				23	21	2,0039E-260	dRep_bin053_OMGNPOOB_01278;dRep_bin302_AHDEPDKG_00299;dRep_bin238_OLNFACLE_00618;dRep_bin125_FADLGGII_00735;dRep_bin097_CBBLIPAN_01892;dRep_bin134_HIAPAODO_01198;dRep_bin261_FJICAFFM_00295;dRep_bin282_PKAAPBFP_01577;dRep_bin074_EHAOMODJ_00946;dRep_bin347_EKGCMFPD_01776;dRep_bin127_FIPNHBCH_01523;dRep_bin075_EPEMMOCL_00770;dRep_bin201_OLKDIBOK_02470;dRep_bin323_FBBLPLCG_00116;dRep_bin242_LKAIBGGJ_01298;dRep_bin029_LFMGBBEC_01403;dRep_bin250_NMCAMJIO_00064;dRep_bin049_MNFBDPNO_00772;dRep_bin309_BIOHLCGG_00465;dRep_bin193_GDMDPNNM_00894;dRep_bin106_BKDHGPBE_01007;dRep_bin243_JDMELKLC_00010;dRep_bin057_BNCFHBBO_00002;dRep_bin026_HNPIIINL_00319;dRep_bin085_MBHLGCDB_00395;dRep_bin140_ACFAKGIL_00161;dRep_bin150_HCDEOBMH_00480;dRep_bin177_HLHGKLFL_01057;dRep_bin260_HELEPKJL_01297;dRep_bin159_ADJJGPBG_00428	dRep_bin053_OMGNPOOB_01278	>dRep_bin053_OMGNPOOB_01278 Phosphoribosylformylglycinamidine synthase	dRep_bin085_MBHLGCDB_00395	CDS	purL	6.3.5.3	Phosphoribosylformylglycinamidine synthase
MBHLGCDB_00396	29.246509999999997	27.419729999999998	28.246219999999997	27.716070000000002	27.892439999999997	27.222419999999996	27.322339999999997	26.19843				3	2	3,2907E-188	dRep_bin085_MBHLGCDB_00396;dRep_bin049_MNFBDPNO_01632;dRep_bin321_EJNAAGJG_00716;dRep_bin323_FBBLPLCG_00115	dRep_bin085_MBHLGCDB_00396	>dRep_bin085_MBHLGCDB_00396 Formate--tetrahydrofolate ligase	dRep_bin085_MBHLGCDB_00396	CDS	fhs	6.3.4.3	Formate--tetrahydrofolate ligase
MBHLGCDB_00439					22.85123	24.6045	22.737190000000002	22.78317				2	1	2,2274E-06	dRep_bin224_NFENHJGB_01020;dRep_bin137_NABPABPB_00972;dRep_bin289_KALDCNNP_00510;dRep_bin002_CFBNDKDN_00703;dRep_bin117_PMEMANMD_00625;dRep_bin138_EJGHNBMI_01256;dRep_bin229_FFOBPPJI_00962;dRep_bin118_FGIOKLBC_00517;dRep_bin070_EMBHKIOF_00192;dRep_bin037_GEAOEKHA_00531;dRep_bin331_HPKAPHAF_00984;dRep_bin341_NBEGOKEF_01327;dRep_bin028_GKEJLBAM_01241;dRep_bin085_MBHLGCDB_00439;dRep_bin185_OOOLKACK_00621;dRep_bin215_ABBFGCAF_01378;dRep_bin210_AGEDAEIA_00164	dRep_bin224_NFENHJGB_01020;dRep_bin137_NABPABPB_00972;dRep_bin289_KALDCNNP_00510;dRep_bin002_CFBNDKDN_00703;dRep_bin117_PMEMANMD_00625;dRep_bin138_EJGHNBMI_01256;dRep_bin229_FFOBPPJI_00962;dRep_bin118_FGIOKLBC_00517;dRep_bin070_EMBHKIOF_00192;dRep_bin037_GEAOEKHA_00531;dRep_bin331_HPKAPHAF_00984;dRep_bin341_NBEGOKEF_01327;dRep_bin028_GKEJLBAM_01241;dRep_bin085_MBHLGCDB_00439;dRep_bin185_OOOLKACK_00621;dRep_bin215_ABBFGCAF_01378;dRep_bin210_AGEDAEIA_00164	>dRep_bin224_NFENHJGB_01020 Large-conductance mechanosensitive channel;>dRep_bin137_NABPABPB_00972 Large-conductance mechanosensitive channel;>dRep_bin289_KALDCNNP_00510 Large-conductance mechanosensitive channel;>dRep_bin002_CFBNDKDN_00703 Large-conductan	dRep_bin085_MBHLGCDB_00439	CDS	mscL		Large-conductance mechanosensitive channel
MBHLGCDB_00444					26.69259	26.46382	24.862639999999995	25.452619999999996				7	2	1,4139E-30	dRep_bin272_LGBDGEIM_01228;dRep_bin354_MMOALAFN_01246;dRep_bin166_DFIAJFEC_00700;dRep_bin309_BIOHLCGG_00463;dRep_bin277_MIPNGEJE_01155;dRep_bin286_OEMIJKMC_00557;dRep_bin126_PPDNCIBN_00953;dRep_bin131_HLFNHDGI_01712;dRep_bin059_OOBKFNPP_00024;dRep_bin085_MBHLGCDB_00444;dRep_bin349_AMCJEEEG_00683;dRep_bin049_MNFBDPNO_00397;dRep_bin231_CFOLMJBA_00446;dRep_bin304_JDNJGFKH_01037;dRep_bin120_EKLBOPNC_00637;dRep_bin115_IFKGOGCL_02607;dRep_bin083_OCBADPJJ_01445;dRep_bin205_LKIOOBKC_01850;dRep_bin090_IPGNHCBJ_01246;dRep_bin058_GJKCICJN_00624;dRep_bin247_EKGBJCBM_01564	dRep_bin272_LGBDGEIM_01228	>dRep_bin272_LGBDGEIM_01228 Inosine-5-monophosphate dehydrogenase	dRep_bin085_MBHLGCDB_00444	CDS	guaB	1.1.1.205	Inosine-5'-monophosphate dehydrogenase
MBHLGCDB_00653								28.63561				8	0	2,8351E-119	dRep_bin220_PILICLLL_01158;dRep_bin032_PPNIGLME_01262;dRep_bin322_OJELOJOF_00287;dRep_bin249_OFIIEIDJ_01886;dRep_bin309_BIOHLCGG_01421;dRep_bin085_MBHLGCDB_00653;dRep_bin126_PPDNCIBN_00111;dRep_bin145_KMJJJOEJ_00430;dRep_bin323_FBBLPLCG_00095;dRep_bin169_PNICKJKO_01238;dRep_bin139_KGAJINND_02193;dRep_bin152_LJMCIADF_00385;dRep_bin068_ENOLAELK_00554;dRep_bin079_GAOGCKND_01274;dRep_bin049_MNFBDPNO_01473;dRep_bin044_IPFKHAEF_00146;dRep_bin263_OLEFOGIJ_00323;dRep_bin025_CBEJJMLE_01269;dRep_bin194_MEPDOGGJ_00714;dRep_bin124_HIHDFGCL_00491;dRep_bin057_BNCFHBBO_01811	dRep_bin220_PILICLLL_01158;dRep_bin032_PPNIGLME_01262;dRep_bin322_OJELOJOF_00287;dRep_bin249_OFIIEIDJ_01886;dRep_bin309_BIOHLCGG_01421;dRep_bin085_MBHLGCDB_00653;dRep_bin126_PPDNCIBN_00111;dRep_bin145_KMJJJOEJ_00430	>dRep_bin220_PILICLLL_01158 Reverse rubrerythrin-1;>dRep_bin032_PPNIGLME_01262 Reverse rubrerythrin-1;>dRep_bin322_OJELOJOF_00287 Reverse rubrerythrin-1;>dRep_bin249_OFIIEIDJ_01886 Reverse rubrerythrin-2;>dRep_bin309_BIOHLCGG_01421 Reverse rubrerythrin-1;>	dRep_bin085_MBHLGCDB_00653	CDS	rbr3A	1.11.1.1	Reverse rubrerythrin-1
MBHLGCDB_00687							24.95757	24.02149				6	1	7,2707E-47	dRep_bin248_CCDFPECI_01517;dRep_bin095_HOBNOEEF_01190;dRep_bin269_PNILGKPH_01796;dRep_bin240_LDBBGJKG_00146;dRep_bin225_FLBKEJIP_00866;dRep_bin100_CODMOHGB_00292;dRep_bin044_IPFKHAEF_00946;dRep_bin325_EIIGOGHN_00062;dRep_bin091_MAFACGAD_01165;dRep_bin016_JLGAHGOJ_00453;dRep_bin211_LGJEFJIK_00348;dRep_bin135_HHKACLPM_00457;dRep_bin075_EPEMMOCL_00485;dRep_bin306_FGHMKMMP_00321;dRep_bin107_EFNBPDOP_00109;dRep_bin077_DNNBMPMC_01424;dRep_bin282_PKAAPBFP_00462;dRep_bin181_MKGPMPIA_00362;dRep_bin349_AMCJEEEG_00053;dRep_bin286_OEMIJKMC_00055;dRep_bin231_CFOLMJBA_01056;dRep_bin182_EMCFODCD_00166;dRep_bin172_ALNHGLMD_00138;dRep_bin270_GEJAHNCN_00840;dRep_bin169_PNICKJKO_00787;dRep_bin085_MBHLGCDB_00687;dRep_bin143_PFLDJMPF_00820;dRep_bin074_EHAOMODJ_01303;dRep_bin059_OOBKFNPP_00785;dRep_bin005_CNDFPKJG_00735;dRep_bin299_AKNBKJGM_01258;dRep_bin321_EJNAAGJG_00978;dRep_bin273_FGAEBHNP_00355;dRep_bin049_MNFBDPNO_01410	dRep_bin248_CCDFPECI_01517;dRep_bin095_HOBNOEEF_01190;dRep_bin269_PNILGKPH_01796;dRep_bin240_LDBBGJKG_00146	>dRep_bin248_CCDFPECI_01517 DNA-directed RNA polymerase subunit alpha;>dRep_bin095_HOBNOEEF_01190 DNA-directed RNA polymerase subunit alpha;>dRep_bin269_PNILGKPH_01796 DNA-directed RNA polymerase subunit alpha;>dRep_bin240_LDBBGJKG_00146 DNA-directed RNA p	dRep_bin085_MBHLGCDB_00687	CDS	rpoA	2.7.7.6	DNA-directed RNA polymerase subunit alpha
MBHLGCDB_00710							27.04145					8	0	3,6665E-54	dRep_bin135_HHKACLPM_00482;dRep_bin308_JBPDGLPP_01108;dRep_bin186_HJAAFFNP_00336;dRep_bin127_FIPNHBCH_00030;dRep_bin328_GIGKNKPJ_01343;dRep_bin065_DFABHCBI_01275;dRep_bin001_GHHJMDAL_00750;dRep_bin062_BOFBFLDA_00727;dRep_bin158_OGFICEAP_00611;dRep_bin211_LGJEFJIK_00743;dRep_bin260_HELEPKJL_01348;dRep_bin234_ECABPBME_00125;dRep_bin115_IFKGOGCL_00642;dRep_bin088_DNGPPFDK_00693;dRep_bin001_GHHJMDAL_01427;dRep_bin253_CPMOAOBJ_00213;dRep_bin150_HCDEOBMH_00592;dRep_bin057_BNCFHBBO_00183;dRep_bin299_AKNBKJGM_01127;dRep_bin216_JNJMCPHB_00024;dRep_bin085_MBHLGCDB_00710;dRep_bin286_OEMIJKMC_00079;dRep_bin231_CFOLMJBA_01079;dRep_bin172_ALNHGLMD_00777;dRep_bin182_EMCFODCD_00190;dRep_bin058_GJKCICJN_00161;dRep_bin044_IPFKHAEF_01460;dRep_bin283_NLJJFFAC_00217	dRep_bin135_HHKACLPM_00482;dRep_bin308_JBPDGLPP_01108;dRep_bin186_HJAAFFNP_00336;dRep_bin127_FIPNHBCH_00030;dRep_bin328_GIGKNKPJ_01343;dRep_bin065_DFABHCBI_01275;dRep_bin001_GHHJMDAL_00750;dRep_bin062_BOFBFLDA_00727;dRep_bin158_OGFICEAP_00611;dRep_bin211_LGJEFJIK_00743	>dRep_bin135_HHKACLPM_00482 30S ribosomal protein S19;>dRep_bin308_JBPDGLPP_01108 30S ribosomal protein S19;>dRep_bin186_HJAAFFNP_00336 30S ribosomal protein S19;>dRep_bin127_FIPNHBCH_00030 30S ribosomal protein S19;>dRep_bin328_GIGKNKPJ_01343 30S ribosoma	dRep_bin085_MBHLGCDB_00710	CDS	rpsS		30S ribosomal protein S19
MBHLGCDB_00715				23.83836								1	1	0,0049273	dRep_bin302_AHDEPDKG_00586;dRep_bin105_AAEIHAFF_01517;dRep_bin085_MBHLGCDB_00715;dRep_bin336_MPGOKPOL_02169;dRep_bin257_JHFDCHCB_00548	dRep_bin302_AHDEPDKG_00586;dRep_bin105_AAEIHAFF_01517;dRep_bin085_MBHLGCDB_00715;dRep_bin336_MPGOKPOL_02169;dRep_bin257_JHFDCHCB_00548	>dRep_bin302_AHDEPDKG_00586 30S ribosomal protein S10;>dRep_bin105_AAEIHAFF_01517 30S ribosomal protein S10;>dRep_bin085_MBHLGCDB_00715 30S ribosomal protein S10;>dRep_bin336_MPGOKPOL_02169 30S ribosomal protein S10;>dRep_bin257_JHFDCHCB_00548 30S ribosoma	dRep_bin085_MBHLGCDB_00715	CDS	rpsJ		30S ribosomal protein S10
MBHLGCDB_00878	27.878709999999998	26.945809999999998	27.80581	28.31614	27.64141	28.85377	27.47452	28.228759999999998				12	1	1,2546E-92	dRep_bin292_JIBLDOOH_01852;dRep_bin133_NOBPDBPA_03221;dRep_bin005_CNDFPKJG_00202;dRep_bin310_IMBAFDIF_01175;dRep_bin318_IEDEJOFJ_00956;dRep_bin200_JJGKEOHI_00980;dRep_bin188_EJILNMPE_00756;dRep_bin085_MBHLGCDB_00878;dRep_bin192_GCMBELNN_00610	dRep_bin292_JIBLDOOH_01852;dRep_bin133_NOBPDBPA_03221	>dRep_bin292_JIBLDOOH_01852 Glyceraldehyde-3-phosphate dehydrogenase;>dRep_bin133_NOBPDBPA_03221 Glyceraldehyde-3-phosphate dehydrogenase	dRep_bin085_MBHLGCDB_00878	CDS	gap	1.2.1.12	Glyceraldehyde-3-phosphate dehydrogenase
MBHLGCDB_01100			23.64229	23.74684				24.48296				18	3	3,8972E-149	dRep_bin220_PILICLLL_02028;dRep_bin278_BFCONKOE_00441;dRep_bin081_JDPCKDNP_00377;dRep_bin322_OJELOJOF_00804;dRep_bin248_CCDFPECI_00079;dRep_bin106_BKDHGPBE_00283;dRep_bin144_NPHACCKF_01724;dRep_bin122_JHMJFODI_00608;dRep_bin141_GMCOOECB_01066;dRep_bin213_HHHELMFN_00712;dRep_bin109_MJABCPAK_00085;dRep_bin085_MBHLGCDB_01100;dRep_bin024_OLHDGABE_00645;dRep_bin127_FIPNHBCH_00373;dRep_bin318_IEDEJOFJ_00277;dRep_bin155_CLHNKEHA_00696;dRep_bin218_ACMPALGF_01353;dRep_bin119_AKFBCGDO_01001;dRep_bin146_LCCIBLJG_00301;dRep_bin354_MMOALAFN_01658;dRep_bin347_EKGCMFPD_01037;dRep_bin227_IJODGBOI_00749;dRep_bin132_FAPBDCMG_00320;dRep_bin313_CJFGINPI_00866;dRep_bin156_GFIMJAAC_00888;dRep_bin342_BMMENEMP_00958;dRep_bin280_IMCGLKKG_00439;dRep_bin197_NHLBHFEI_00889;dRep_bin281_OGHLKMAI_00400;dRep_bin276_EHNFLEBP_02113;dRep_bin104_EGLEJOLM_01406;dRep_bin207_OHNPDPFI_01068;dRep_bin121_BHOOLFKN_00245;dRep_bin008_MNDMJLEI_00892;dRep_bin054_NNOKONMC_00872;dRep_bin011_KOGMKLNO_00879;dRep_bin142_NDNPJBEM_01584;dRep_bin333_EFOKIBLA_00720;dRep_bin223_PIMCDKJI_01633;dRep_bin120_EKLBOPNC_00731;dRep_bin177_HLHGKLFL_00449;dRep_bin140_ACFAKGIL_00447;dRep_bin304_JDNJGFKH_00598;dRep_bin245_MBCFLKOF_00047;dRep_bin208_DHPGEIBC_00902;dRep_bin010_MFFFGEGD_00183;dRep_bin083_OCBADPJJ_01145;dRep_bin222_GGCAJABB_00479;dRep_bin205_LKIOOBKC_01169;dRep_bin320_LDBKCCKL_00573;dRep_bin162_JBGCCDIN_01242;dRep_bin159_ADJJGPBG_01729;dRep_bin033_DLABHNFE_00633;dRep_bin012_KEBBILMO_00315;dRep_bin350_EKOOEEGH_01215;dRep_bin121_BHOOLFKN_01088;dRep_bin212_IEMJENOD_00205;dRep_bin161_JMKPMHCO_00073;dRep_bin353_PPDHLNJB_01811;dRep_bin195_DDMDFNOK_01689;dRep_bin327_EPEGNBAG_00663;dRep_bin241_LMMMGDNI_01611;dRep_bin334_NAPFFNLD_00132	dRep_bin220_PILICLLL_02028	>dRep_bin220_PILICLLL_02028 DNA-directed RNA polymerase subunit beta	dRep_bin085_MBHLGCDB_01100	CDS	rpoB	2.7.7.6	DNA-directed RNA polymerase subunit beta
MBHLGCDB_01101								21.643810000000002				9	0	4,6207E-36	dRep_bin143_PFLDJMPF_01162;dRep_bin074_EHAOMODJ_00197;dRep_bin152_LJMCIADF_00840;dRep_bin079_GAOGCKND_00311;dRep_bin068_ENOLAELK_00990;dRep_bin124_HIHDFGCL_00318;dRep_bin272_LGBDGEIM_00728;dRep_bin337_FHKPNFDB_00324;dRep_bin056_EMNHHOJA_01446;dRep_bin054_NNOKONMC_00657;dRep_bin102_ICFDHPGB_00342;dRep_bin259_IFIOODLK_00485;dRep_bin086_HHEJBMCP_01132;dRep_bin054_NNOKONMC_00873;dRep_bin161_JMKPMHCO_00072;dRep_bin044_IPFKHAEF_00005;dRep_bin085_MBHLGCDB_01101;dRep_bin059_OOBKFNPP_00481;dRep_bin171_FIDMCACI_00747;dRep_bin012_KEBBILMO_00314;dRep_bin212_IEMJENOD_00204;dRep_bin257_JHFDCHCB_01099;dRep_bin277_MIPNGEJE_00939;dRep_bin238_OLNFACLE_01881;dRep_bin200_JJGKEOHI_00480;dRep_bin144_NPHACCKF_01932;dRep_bin321_EJNAAGJG_00384;dRep_bin333_EFOKIBLA_00721;dRep_bin273_FGAEBHNP_01365;dRep_bin280_IMCGLKKG_00438;dRep_bin171_FIDMCACI_00165;dRep_bin051_HIEIDCID_00833;dRep_bin141_GMCOOECB_01065;dRep_bin122_JHMJFODI_00609;dRep_bin155_CLHNKEHA_00697;dRep_bin313_CJFGINPI_00865;dRep_bin213_HHHELMFN_00711;dRep_bin258_DAMEHFEK_00926;dRep_bin169_PNICKJKO_00880;dRep_bin055_IBMMJAEE_00781;dRep_bin096_GNHMEKPF_00270;dRep_bin082_HBEFABJN_01176;dRep_bin094_LBLICAAO_01798;dRep_bin052_PGOOKKFH_00001;dRep_bin178_FLGBGGJB_00429;dRep_bin123_PJKBFKBB_00530;dRep_bin046_GKEJLOEK_00533;dRep_bin270_GEJAHNCN_00559;dRep_bin087_FCLGAPPI_00749;dRep_bin317_ABPHNCOD_01524;dRep_bin354_MMOALAFN_01090;dRep_bin221_LMGNIMOJ_00256;dRep_bin005_CNDFPKJG_00513;dRep_bin144_NPHACCKF_01674;dRep_bin215_ABBFGCAF_00891;dRep_bin024_OLHDGABE_01486;dRep_bin207_OHNPDPFI_01006;dRep_bin109_MJABCPAK_00005;dRep_bin121_BHOOLFKN_00138;dRep_bin144_NPHACCKF_01593;dRep_bin236_BNONDECB_00589;dRep_bin166_DFIAJFEC_00113;dRep_bin352_KFNHGNFC_00788;dRep_bin187_CLPDGDBG_00447;dRep_bin192_GCMBELNN_00637;dRep_bin206_OIIBOIAK_00839;dRep_bin173_BEBNCADL_00299;dRep_bin080_CBEBHNNK_00392;dRep_bin237_KJDLIPND_00675	dRep_bin143_PFLDJMPF_01162;dRep_bin074_EHAOMODJ_00197;dRep_bin152_LJMCIADF_00840;dRep_bin079_GAOGCKND_00311;dRep_bin068_ENOLAELK_00990;dRep_bin124_HIHDFGCL_00318;dRep_bin272_LGBDGEIM_00728;dRep_bin337_FHKPNFDB_00324;dRep_bin056_EMNHHOJA_01446;dRep_bin054_NNOKONMC_00657;dRep_bin102_ICFDHPGB_00342;dRep_bin259_IFIOODLK_00485;dRep_bin086_HHEJBMCP_01132;dRep_bin054_NNOKONMC_00873;dRep_bin161_JMKPMHCO_00072;dRep_bin044_IPFKHAEF_00005;dRep_bin085_MBHLGCDB_01101	>dRep_bin143_PFLDJMPF_01162 DNA-directed RNA polymerase subunit beta;>dRep_bin074_EHAOMODJ_00197 DNA-directed RNA polymerase subunit beta;>dRep_bin152_LJMCIADF_00840 DNA-directed RNA polymerase subunit beta;>dRep_bin079_GAOGCKND_00311 DNA-directed RNA p	dRep_bin085_MBHLGCDB_01101	CDS	rpoC	2.7.7.6	DNA-directed RNA polymerase subunit beta'
MBHLGCDB_01116		26.53826	25.06192		26.245739999999994		24.020129999999998	25.66934				9	2	2,5858E-127	dRep_bin085_MBHLGCDB_01116	dRep_bin085_MBHLGCDB_01116	>dRep_bin085_MBHLGCDB_01116 Ketol-acid reductoisomerase (NAD(+))	dRep_bin085_MBHLGCDB_01116	CDS	ilvC	1.1.1.382	Ketol-acid reductoisomerase (NAD(+))
MBHLGCDB_01126	22.062599999999996	22.135150000000003	22.530170000000002	23.21279								9	0	4,3402E-32	dRep_bin085_MBHLGCDB_01126	dRep_bin085_MBHLGCDB_01126	>dRep_bin085_MBHLGCDB_01126 60 kDa chaperonin	dRep_bin085_MBHLGCDB_01126	CDS	groL		60 kDa chaperonin
MBHLGCDB_01174	26.92999	25.83241	25.71151	26.27161								7	2	1,3576E-62	dRep_bin085_MBHLGCDB_01174;dRep_bin321_EJNAAGJG_00881	dRep_bin085_MBHLGCDB_01174;dRep_bin321_EJNAAGJG_00881	>dRep_bin085_MBHLGCDB_01174 GGGtGRT protein;>dRep_bin321_EJNAAGJG_00881 GGGtGRT protein	dRep_bin085_MBHLGCDB_01174	CDS			GGGtGRT protein
MBHLGCDB_01175	28.550980000000003	28.01638	27.64382	28.958699999999997	28.431810000000002	28.62314	26.83942	28.26691				11	1	0	dRep_bin209_NKIHFCEN_00009;dRep_bin085_MBHLGCDB_01175	dRep_bin209_NKIHFCEN_00009	>dRep_bin209_NKIHFCEN_00009 hypothetical protein	dRep_bin085_MBHLGCDB_01175	CDS			hypothetical protein
MBHLGCDB_01216					26.47465							3	1	1,211E-11	dRep_bin299_AKNBKJGM_00770;dRep_bin085_MBHLGCDB_01216;dRep_bin169_PNICKJKO_01050;dRep_bin249_OFIIEIDJ_01139;dRep_bin199_JBCGANNF_01104;dRep_bin215_ABBFGCAF_00063;dRep_bin120_EKLBOPNC_00650;F1RUV5	dRep_bin299_AKNBKJGM_00770	>dRep_bin299_AKNBKJGM_00770 Methylmalonyl-CoA carboxyltransferase 5S subunit	dRep_bin085_MBHLGCDB_01216	CDS		2.1.3.1	Methylmalonyl-CoA carboxyltransferase 5S subunit
MBHLGCDB_01217					23.00606	23.896980000000003						2	1	8,6813E-10	dRep_bin324_IPNHOHFK_01144;dRep_bin297_EDHEEICA_00687;dRep_bin292_JIBLDOOH_02195;dRep_bin261_FJICAFFM_00057;dRep_bin226_NLNLHLLD_01357;dRep_bin209_NKIHFCEN_00791;dRep_bin203_CLFNNOCF_00406;dRep_bin179_HFEIPPPA_00190;dRep_bin157_JPNIKEKI_00583;dRep_bin133_NOBPDBPA_01168;dRep_bin041_OPKGAAAG_01275;dRep_bin168_HKDILBFE_01397;dRep_bin130_OIFFANPF_00962;dRep_bin083_OCBADPJJ_00812;dRep_bin169_PNICKJKO_00385;dRep_bin319_PBDBJGCJ_01796;dRep_bin109_MJABCPAK_00038;dRep_bin106_BKDHGPBE_00849;dRep_bin216_JNJMCPHB_01613;dRep_bin299_AKNBKJGM_00580;dRep_bin100_CODMOHGB_00911;dRep_bin317_ABPHNCOD_01390;dRep_bin272_LGBDGEIM_00788;dRep_bin249_OFIIEIDJ_00467;dRep_bin066_AJACLPEE_01038;dRep_bin335_JIOGNAPG_00681;dRep_bin234_ECABPBME_00227;dRep_bin088_DNGPPFDK_01237;dRep_bin303_DDDNDJCF_00797;dRep_bin300_MJPPENNL_00671;dRep_bin279_IAEFEPEN_01368;dRep_bin278_BFCONKOE_00336;dRep_bin269_PNILGKPH_01089;dRep_bin260_HELEPKJL_01496;dRep_bin089_PAJFOJBN_00528;dRep_bin027_OFJCHLJJ_00828;dRep_bin019_MOJEPLJF_01606;dRep_bin116_CLFDBMOF_00536;dRep_bin057_BNCFHBBO_00059;dRep_bin134_HIAPAODO_00123;dRep_bin322_OJELOJOF_01583;dRep_bin270_GEJAHNCN_00957;dRep_bin348_LCLFDNEE_00829;dRep_bin295_EJGKDKNE_00315;dRep_bin277_MIPNGEJE_01644;dRep_bin166_DFIAJFEC_00192;dRep_bin264_DNFFGNEG_00340;dRep_bin153_JGABJFBF_01236;dRep_bin114_FJHJKHGL_00133;dRep_bin111_FPJIHFKE_00195;dRep_bin252_NDAKLAGD_00473;dRep_bin247_EKGBJCBM_00710;dRep_bin035_JBNPBOKG_01025;dRep_bin026_HNPIIINL_00916;dRep_bin085_MBHLGCDB_01217;dRep_bin068_ENOLAELK_00657;dRep_bin049_MNFBDPNO_00064;dRep_bin038_EIGFILKG_00881;dRep_bin152_LJMCIADF_01515;dRep_bin079_GAOGCKND_00762;dRep_bin231_CFOLMJBA_00732;dRep_bin126_PPDNCIBN_00705;dRep_bin333_EFOKIBLA_00857;dRep_bin123_PJKBFKBB_00290;dRep_bin185_OOOLKACK_01362;dRep_bin305_FCIEFIHE_01147;dRep_bin070_EMBHKIOF_00605;dRep_bin006_HPJGJCAG_01539;dRep_bin101_BNDDLDCL_00049;dRep_bin331_HPKAPHAF_00752;dRep_bin301_NJFJIJGA_00013;dRep_bin037_GEAOEKHA_01146;dRep_bin087_FCLGAPPI_00654;dRep_bin159_ADJJGPBG_01916;dRep_bin304_JDNJGFKH_01533;dRep_bin120_EKLBOPNC_00943;dRep_bin162_JBGCCDIN_00762;dRep_bin072_JOBJPCGA_01185;dRep_bin320_LDBKCCKL_00985;dRep_bin245_MBCFLKOF_00867;dRep_bin010_MFFFGEGD_00116;dRep_bin205_LKIOOBKC_01048;dRep_bin043_KLAFNACO_01234;dRep_bin011_KOGMKLNO_01366;dRep_bin189_AHHEHGDL_01620;dRep_bin222_GGCAJABB_00316;dRep_bin208_DHPGEIBC_01479;dRep_bin130_OIFFANPF_00887	dRep_bin324_IPNHOHFK_01144;dRep_bin297_EDHEEICA_00687;dRep_bin292_JIBLDOOH_02195;dRep_bin261_FJICAFFM_00057;dRep_bin226_NLNLHLLD_01357;dRep_bin209_NKIHFCEN_00791;dRep_bin203_CLFNNOCF_00406;dRep_bin179_HFEIPPPA_00190;dRep_bin157_JPNIKEKI_00583;dRep_bin133_NOBPDBPA_01168;dRep_bin041_OPKGAAAG_01275;dRep_bin168_HKDILBFE_01397;dRep_bin130_OIFFANPF_00962;dRep_bin083_OCBADPJJ_00812;dRep_bin169_PNICKJKO_00385;dRep_bin319_PBDBJGCJ_01796;dRep_bin109_MJABCPAK_00038;dRep_bin106_BKDHGPBE_00849;dRep_bin216_JNJMCPHB_01613;dRep_bin299_AKNBKJGM_00580;dRep_bin100_CODMOHGB_00911;dRep_bin317_ABPHNCOD_01390;dRep_bin272_LGBDGEIM_00788;dRep_bin249_OFIIEIDJ_00467;dRep_bin066_AJACLPEE_01038;dRep_bin335_JIOGNAPG_00681;dRep_bin234_ECABPBME_00227;dRep_bin088_DNGPPFDK_01237;dRep_bin303_DDDNDJCF_00797;dRep_bin300_MJPPENNL_00671;dRep_bin279_IAEFEPEN_01368;dRep_bin278_BFCONKOE_00336;dRep_bin269_PNILGKPH_01089;dRep_bin260_HELEPKJL_01496;dRep_bin089_PAJFOJBN_00528;dRep_bin027_OFJCHLJJ_00828;dRep_bin019_MOJEPLJF_01606;dRep_bin116_CLFDBMOF_00536;dRep_bin057_BNCFHBBO_00059;dRep_bin134_HIAPAODO_00123;dRep_bin322_OJELOJOF_01583;dRep_bin270_GEJAHNCN_00957;dRep_bin348_LCLFDNEE_00829;dRep_bin295_EJGKDKNE_00315;dRep_bin277_MIPNGEJE_01644;dRep_bin166_DFIAJFEC_00192;dRep_bin264_DNFFGNEG_00340;dRep_bin153_JGABJFBF_01236;dRep_bin114_FJHJKHGL_00133;dRep_bin111_FPJIHFKE_00195;dRep_bin252_NDAKLAGD_00473;dRep_bin247_EKGBJCBM_00710;dRep_bin035_JBNPBOKG_01025;dRep_bin026_HNPIIINL_00916;dRep_bin085_MBHLGCDB_01217;dRep_bin068_ENOLAELK_00657;dRep_bin049_MNFBDPNO_00064;dRep_bin038_EIGFILKG_00881;dRep_bin152_LJMCIADF_01515;dRep_bin079_GAOGCKND_00762;dRep_bin231_CFOLMJBA_00732;dRep_bin126_PPDNCIBN_00705;dRep_bin333_EFOKIBLA_00857;dRep_bin123_PJKBFKBB_00290;dRep_bin185_OOOLKACK_01362;dRep_bin305_FCIEFIHE_01147;dRep_bin070_EMBHKIOF_00605;dRep_bin006_HPJGJCAG_01539;dRep_bin101_BNDDLDCL_00049;dRep_bin331_HPKAPHAF_00752;dRep_bin301_NJFJIJGA_00013;dRep_bin037_GEAOEKHA_01146;dRep_bin087_FCLGAPPI_00654;dRep_bin159_ADJJGPBG_01916;dRep_bin304_JDNJGFKH_01533;dRep_bin120_EKLBOPNC_00943;dRep_bin162_JBGCCDIN_00762;dRep_bin072_JOBJPCGA_01185;dRep_bin320_LDBKCCKL_00985;dRep_bin245_MBCFLKOF_00867;dRep_bin010_MFFFGEGD_00116;dRep_bin205_LKIOOBKC_01048;dRep_bin043_KLAFNACO_01234;dRep_bin011_KOGMKLNO_01366;dRep_bin189_AHHEHGDL_01620;dRep_bin222_GGCAJABB_00316;dRep_bin208_DHPGEIBC_01479;dRep_bin130_OIFFANPF_00887	>dRep_bin324_IPNHOHFK_01144 Glutaconyl-CoA decarboxylase subunit beta;>dRep_bin297_EDHEEICA_00687 Glutaconyl-CoA decarboxylase subunit beta;>dRep_bin292_JIBLDOOH_02195 Glutaconyl-CoA decarboxylase subunit beta;>dRep_bin261_FJICAFFM_00057 Glutaconyl-CoA dec	dRep_bin085_MBHLGCDB_01217	CDS	gcdB_1	4.1.1.70	Glutaconyl-CoA decarboxylase subunit beta
MBHLGCDB_01433	29.604490000000002	29.30069	29.2945	29.686709999999998	29.01252	29.298719999999996	29.404139999999998	29.177380000000003				18	9	1,0176E-83	dRep_bin220_PILICLLL_00641;dRep_bin037_GEAOEKHA_00921;dRep_bin343_JCMCKBGF_01952;dRep_bin079_GAOGCKND_00906;dRep_bin085_MBHLGCDB_01433	dRep_bin220_PILICLLL_00641	>dRep_bin220_PILICLLL_00641 L-fucose isomerase	dRep_bin085_MBHLGCDB_01433	CDS	fucI	5.3.1.25	L-fucose isomerase
MBHLGCDB_01454					24.827160000000003	24.766939999999998	25.354940000000003	24.93778				4	1	2,6143E-16	dRep_bin179_HFEIPPPA_01106;dRep_bin081_JDPCKDNP_00227;dRep_bin310_IMBAFDIF_00789;dRep_bin047_IFFANOMN_01496;dRep_bin269_PNILGKPH_00580;dRep_bin133_NOBPDBPA_00629;dRep_bin344_CJJBDGAA_00139;dRep_bin287_DONBGKDH_00900;dRep_bin260_HELEPKJL_01759;dRep_bin167_BLMEBMNN_02130;dRep_bin017_FGFLFOPJ_00410;dRep_bin332_KAOPCDPF_00175;dRep_bin328_GIGKNKPJ_00524;dRep_bin306_FGHMKMMP_00565;dRep_bin297_EDHEEICA_01573;dRep_bin292_JIBLDOOH_01650;dRep_bin226_NLNLHLLD_00938;dRep_bin209_NKIHFCEN_01785;dRep_bin203_CLFNNOCF_02551;dRep_bin194_MEPDOGGJ_00132;dRep_bin186_HJAAFFNP_01551;dRep_bin179_HFEIPPPA_02186;dRep_bin177_HLHGKLFL_00944;dRep_bin157_JPNIKEKI_01051;dRep_bin152_LJMCIADF_00176;dRep_bin144_NPHACCKF_01603;dRep_bin133_NOBPDBPA_02384;dRep_bin127_FIPNHBCH_00466;dRep_bin079_GAOGCKND_00600;dRep_bin068_ENOLAELK_01364;dRep_bin041_OPKGAAAG_01949;dRep_bin039_IJNOFOJK_01664;dRep_bin025_CBEJJMLE_00100;dRep_bin273_FGAEBHNP_00413;dRep_bin203_CLFNNOCF_01124;dRep_bin085_MBHLGCDB_01454;dRep_bin069_EGGEOGDC_00328;dRep_bin057_BNCFHBBO_00329;dRep_bin049_MNFBDPNO_01360;dRep_bin123_PJKBFKBB_01535;dRep_bin075_EPEMMOCL_01035;dRep_bin026_HNPIIINL_00033;dRep_bin336_MPGOKPOL_00844;dRep_bin147_EJLBNEBE_01290;dRep_bin065_DFABHCBI_00546;dRep_bin257_JHFDCHCB_01035;dRep_bin299_AKNBKJGM_00588	dRep_bin179_HFEIPPPA_01106;dRep_bin081_JDPCKDNP_00227;dRep_bin310_IMBAFDIF_00789;dRep_bin047_IFFANOMN_01496	>dRep_bin179_HFEIPPPA_01106 1-deoxy-D-xylulose-5-phosphate synthase;>dRep_bin081_JDPCKDNP_00227 1-deoxy-D-xylulose-5-phosphate synthase;>dRep_bin310_IMBAFDIF_00789 1-deoxy-D-xylulose-5-phosphate synthase;>dRep_bin047_IFFANOMN_01496 1-deoxy-D-xylulose-5-pho	dRep_bin085_MBHLGCDB_01454	CDS	dxs_2	2.2.1.7	1-deoxy-D-xylulose-5-phosphate synthase
MBHLGCDB_01455	28.72611	29.289599999999997	29.5258	28.677410000000002	28.746439999999996	28.10174	28.90693	28.88591				20	16	8,3592E-185	dRep_bin158_OGFICEAP_01428;dRep_bin254_GJDPFAEA_00108;dRep_bin326_CEEAIPKF_00144;dRep_bin122_JHMJFODI_00778;dRep_bin207_OHNPDPFI_00238;dRep_bin276_EHNFLEBP_00969;dRep_bin180_JMFOHHIL_00772;dRep_bin329_GDOHKPBL_01560;dRep_bin076_GLAOFBEC_02388;dRep_bin035_JBNPBOKG_01458;dRep_bin012_KEBBILMO_01041;dRep_bin070_EMBHKIOF_01360;dRep_bin229_FFOBPPJI_00960;dRep_bin210_AGEDAEIA_01389;dRep_bin354_MMOALAFN_00639;dRep_bin345_GLPJDLOI_00473;dRep_bin123_PJKBFKBB_01063;dRep_bin111_FPJIHFKE_00154;dRep_bin045_GJACFFBC_01941;dRep_bin040_EIFLLDOA_00889;dRep_bin333_EFOKIBLA_01013;dRep_bin131_HLFNHDGI_01012;dRep_bin022_BOEAFNDE_01446;dRep_bin301_NJFJIJGA_00142;dRep_bin275_NIDIBBDA_01350;dRep_bin149_GABCHCDI_01079;dRep_bin138_EJGHNBMI_00344;dRep_bin049_MNFBDPNO_00104;dRep_bin032_PPNIGLME_00241;dRep_bin343_JCMCKBGF_01571;dRep_bin118_FGIOKLBC_01793;dRep_bin093_PGADNPMG_00211;dRep_bin085_MBHLGCDB_01455;dRep_bin018_ILOONPIC_01183;dRep_bin323_FBBLPLCG_01525;dRep_bin265_LFKFBJPC_01879;dRep_bin121_BHOOLFKN_01093;dRep_bin122_JHMJFODI_01227	dRep_bin158_OGFICEAP_01428	>dRep_bin158_OGFICEAP_01428 Acetate kinase	dRep_bin085_MBHLGCDB_01455	CDS	ackA	2.7.2.1	Acetate kinase
MBHLGCDB_01463	29.104070000000004	27.862539999999996		28.12209	30.451990000000002	29.575319999999998	31.72114	30.92995				1	1	0,0059737	dRep_bin085_MBHLGCDB_01463	dRep_bin085_MBHLGCDB_01463	>dRep_bin085_MBHLGCDB_01463 alpha-L-rhamnosidase	dRep_bin085_MBHLGCDB_01463	CDS			alpha-L-rhamnosidase
MBHLGCDB_01491	30.93417	30.50142	30.93101	31.35542	31.25079	31.8874	30.56991	30.565019999999997				19	6	0	dRep_bin272_LGBDGEIM_00934;dRep_bin085_MBHLGCDB_01491	dRep_bin272_LGBDGEIM_00934	>dRep_bin272_LGBDGEIM_00934 Elongation factor Tu	dRep_bin085_MBHLGCDB_01491	CDS	tuf		Elongation factor Tu
MBHLGCDB_01493			25.22055	25.501880000000003								4	1	1,8831E-09	dRep_bin079_GAOGCKND_00309;dRep_bin152_LJMCIADF_00842;dRep_bin049_MNFBDPNO_01112;dRep_bin213_HHHELMFN_00434;dRep_bin085_MBHLGCDB_01493;dRep_bin354_MMOALAFN_01092;dRep_bin026_HNPIIINL_00566;dRep_bin321_EJNAAGJG_00386	dRep_bin079_GAOGCKND_00309;dRep_bin152_LJMCIADF_00842;dRep_bin049_MNFBDPNO_01112	>dRep_bin079_GAOGCKND_00309 30S ribosomal protein S7;>dRep_bin152_LJMCIADF_00842 30S ribosomal protein S7;>dRep_bin049_MNFBDPNO_01112 30S ribosomal protein S7	dRep_bin085_MBHLGCDB_01493	CDS	rpsG		30S ribosomal protein S7
MBHLGCDB_01494				24.94382								2	1	1,0091E-06	dRep_bin109_MJABCPAK_00006;dRep_bin085_MBHLGCDB_01494;dRep_bin348_LCLFDNEE_01487;dRep_bin243_JDMELKLC_00226	dRep_bin109_MJABCPAK_00006;dRep_bin085_MBHLGCDB_01494;dRep_bin348_LCLFDNEE_01487;dRep_bin243_JDMELKLC_00226	>dRep_bin109_MJABCPAK_00006 30S ribosomal protein S12;>dRep_bin085_MBHLGCDB_01494 30S ribosomal protein S12;>dRep_bin348_LCLFDNEE_01487 30S ribosomal protein S12;>dRep_bin243_JDMELKLC_00226 30S ribosomal protein S12	dRep_bin085_MBHLGCDB_01494	CDS	rpsL		30S ribosomal protein S12
MBHLGCDB_01560	23.3181	23.63267	26.03741	24.082699999999996	25.82219	25.31852	24.9061	25.766509999999997				4	3	6,119E-37	dRep_bin053_OMGNPOOB_01204;dRep_bin343_JCMCKBGF_00477;dRep_bin094_LBLICAAO_01122;dRep_bin341_NBEGOKEF_00757;dRep_bin274_DBJHKLDG_01564;dRep_bin060_HNFNENOI_01102;dRep_bin031_BNHMFOII_00957;dRep_bin049_MNFBDPNO_00940;dRep_bin085_MBHLGCDB_01560	dRep_bin053_OMGNPOOB_01204	>dRep_bin053_OMGNPOOB_01204 ATP-dependent 6-phosphofructokinase 1	dRep_bin085_MBHLGCDB_01560	CDS	pfkA	2.7.1.11	ATP-dependent 6-phosphofructokinase
MBHLGCDB_01586	23.498749999999998	23.41377	23.664050000000003	25.007910000000003								4	3	8,0566E-12	dRep_bin292_JIBLDOOH_01418;dRep_bin303_DDDNDJCF_00505;dRep_bin077_DNNBMPMC_00941;dRep_bin152_LJMCIADF_01123;dRep_bin124_HIHDFGCL_00335;dRep_bin079_GAOGCKND_00643;dRep_bin068_ENOLAELK_01078;dRep_bin038_EIGFILKG_00380;dRep_bin309_BIOHLCGG_00617;dRep_bin194_MEPDOGGJ_00286;dRep_bin025_CBEJJMLE_00539;dRep_bin247_EKGBJCBM_00804;dRep_bin253_CPMOAOBJ_00601;dRep_bin169_PNICKJKO_01110;dRep_bin123_PJKBFKBB_01254;dRep_bin306_FGHMKMMP_00717;dRep_bin293_MEPKGOAN_00676;dRep_bin257_JHFDCHCB_01083;dRep_bin249_OFIIEIDJ_00213;dRep_bin157_JPNIKEKI_01818;dRep_bin085_MBHLGCDB_01586;dRep_bin319_PBDBJGCJ_01316;dRep_bin300_MJPPENNL_01694;dRep_bin282_PKAAPBFP_01497;dRep_bin220_PILICLLL_01502;dRep_bin209_NKIHFCEN_00711;dRep_bin179_HFEIPPPA_01156;dRep_bin166_DFIAJFEC_01129;dRep_bin160_EFKMPBOM_01097;dRep_bin154_JGOKHKLI_00129;dRep_bin088_DNGPPFDK_00244;dRep_bin075_EPEMMOCL_01534;dRep_bin069_EGGEOGDC_00523;dRep_bin344_CJJBDGAA_01343;dRep_bin324_IPNHOHFK_02132;dRep_bin310_IMBAFDIF_01633;dRep_bin297_EDHEEICA_00782;dRep_bin269_PNILGKPH_01786;dRep_bin248_CCDFPECI_00995;dRep_bin226_NLNLHLLD_00535;dRep_bin203_CLFNNOCF_00636;dRep_bin168_HKDILBFE_00313;dRep_bin139_KGAJINND_00724;dRep_bin133_NOBPDBPA_02650;dRep_bin099_DNDAGJEJ_01464;dRep_bin091_MAFACGAD_00915;dRep_bin007_LNLEAAAN_01209;dRep_bin260_HELEPKJL_00482;dRep_bin186_HJAAFFNP_01391;dRep_bin115_IFKGOGCL_02481;dRep_bin039_IJNOFOJK_00485;dRep_bin354_MMOALAFN_01391;dRep_bin261_FJICAFFM_01132;dRep_bin336_MPGOKPOL_01187;dRep_bin095_HOBNOEEF_00148;dRep_bin348_LCLFDNEE_00586;dRep_bin125_FADLGGII_01253;dRep_bin089_PAJFOJBN_00918;dRep_bin277_MIPNGEJE_00466	dRep_bin292_JIBLDOOH_01418;dRep_bin303_DDDNDJCF_00505	>dRep_bin292_JIBLDOOH_01418 Putative aminotransferase/MSMEI_6121;>dRep_bin303_DDDNDJCF_00505 Putative aminotransferase/MSMEI_6121	dRep_bin085_MBHLGCDB_01586	CDS			Putative aminotransferase/MSMEI_6121
MBHLGCDB_01590					22.10063			23.287850000000002				2	2	2,6116E-07	dRep_bin243_JDMELKLC_00519;dRep_bin085_MBHLGCDB_01590	dRep_bin243_JDMELKLC_00519;dRep_bin085_MBHLGCDB_01590	>dRep_bin243_JDMELKLC_00519 Oligopeptide-binding protein OppA;>dRep_bin085_MBHLGCDB_01590 Oligopeptide-binding protein OppA	dRep_bin085_MBHLGCDB_01590	CDS	oppA		Oligopeptide-binding protein OppA
MBHLGCDB_01722	28.62954	29.354750000000003	29.992399999999996	30.023139999999998	30.21083	30.89937	29.70792	30.0531				20	3	1,2194E-156	dRep_bin191_NGFJMLOL_01259;dRep_bin296_FDMPKPOH_00205;dRep_bin210_AGEDAEIA_00766;dRep_bin195_DDMDFNOK_00108;dRep_bin334_NAPFFNLD_01038;dRep_bin211_LGJEFJIK_01419;dRep_bin295_EJGKDKNE_00091;dRep_bin341_NBEGOKEF_00239;dRep_bin020_JCCELPIE_00888;dRep_bin283_NLJJFFAC_01280;dRep_bin274_DBJHKLDG_00956;dRep_bin016_JLGAHGOJ_01458;dRep_bin108_BPNCDINP_01604;dRep_bin008_MNDMJLEI_00335;dRep_bin270_GEJAHNCN_01137;dRep_bin005_CNDFPKJG_01352;dRep_bin060_HNFNENOI_00669;dRep_bin146_LCCIBLJG_00571;dRep_bin326_CEEAIPKF_00877;dRep_bin333_EFOKIBLA_00153;dRep_bin168_HKDILBFE_01558;dRep_bin244_LBFMHLBI_01599;dRep_bin096_GNHMEKPF_00231;dRep_bin237_KJDLIPND_00220;dRep_bin188_EJILNMPE_01240;dRep_bin251_FGNGCJDD_00076;dRep_bin227_IJODGBOI_00103;dRep_bin151_AHBJLMBI_00923;dRep_bin116_CLFDBMOF_00729;dRep_bin141_GMCOOECB_00805;dRep_bin350_EKOOEEGH_00925;dRep_bin132_FAPBDCMG_00754;dRep_bin080_CBEBHNNK_00317;dRep_bin051_HIEIDCID_00971;dRep_bin228_CECEDMJG_00643;dRep_bin009_KMMEHEKA_00811;dRep_bin318_IEDEJOFJ_01292;dRep_bin207_OHNPDPFI_00717;dRep_bin345_GLPJDLOI_00471;dRep_bin144_NPHACCKF_01507;dRep_bin118_FGIOKLBC_00082;dRep_bin355_KJEFNADK_00986;dRep_bin293_MEPKGOAN_00544;dRep_bin230_NINMBMKB_00674;dRep_bin014_CHIHIMAN_00029;dRep_bin218_ACMPALGF_00178;dRep_bin165_HMDFFMMM_01108;dRep_bin094_LBLICAAO_00513;dRep_bin076_GLAOFBEC_01428;dRep_bin267_LJCFMAFA_00110;dRep_bin048_PABMBHAL_00321;dRep_bin147_EJLBNEBE_02032;dRep_bin128_JPBBHEMA_00007;dRep_bin042_MMFCLHOO_01063;dRep_bin351_CKFFBPHM_00913;dRep_bin123_PJKBFKBB_00095;dRep_bin330_CODAKHDJ_00708;dRep_bin252_NDAKLAGD_01294;dRep_bin233_BAGKKAOB_01574;dRep_bin217_MJCEAEPB_00244;dRep_bin110_JGOEJECF_00272;dRep_bin109_MJABCPAK_00670;dRep_bin101_BNDDLDCL_01055;dRep_bin092_OOJCPDEA_00344;dRep_bin074_EHAOMODJ_00824;dRep_bin336_MPGOKPOL_02107;dRep_bin290_OIOJKBNK_01058;dRep_bin264_DNFFGNEG_00269;dRep_bin256_KEMNAOBC_01330;dRep_bin246_MMFBABHK_01553;dRep_bin166_DFIAJFEC_00041;dRep_bin153_JGABJFBF_00098;dRep_bin143_PFLDJMPF_00060;dRep_bin106_BKDHGPBE_01156;dRep_bin071_JHMCIJPE_01039;dRep_bin250_NMCAMJIO_00472;dRep_bin312_MJFEFHMP_01194;dRep_bin194_MEPDOGGJ_00657;dRep_bin129_GADIAMAA_01832;dRep_bin061_ONFGDLGO_01341;dRep_bin030_OGPDLGOC_01109;dRep_bin025_CBEJJMLE_00255;dRep_bin223_PIMCDKJI_01311;dRep_bin204_INMOGLDN_00399;dRep_bin202_HEPPALPH_00661;dRep_bin105_AAEIHAFF_01590;dRep_bin056_EMNHHOJA_01586;dRep_bin174_LJJOKEME_01552;dRep_bin057_BNCFHBBO_00981;dRep_bin348_LCLFDNEE_01410;dRep_bin339_DBNBAHDK_00024;dRep_bin321_EJNAAGJG_00897;dRep_bin273_FGAEBHNP_01096;dRep_bin248_CCDFPECI_01765;dRep_bin124_HIHDFGCL_01059;dRep_bin068_ENOLAELK_01049;dRep_bin038_EIGFILKG_00020;dRep_bin276_EHNFLEBP_00417;dRep_bin152_LJMCIADF_00769;dRep_bin115_IFKGOGCL_00005;dRep_bin099_DNDAGJEJ_00435;dRep_bin085_MBHLGCDB_01722;dRep_bin079_GAOGCKND_00892;dRep_bin026_HNPIIINL_00985;dRep_bin353_PPDHLNJB_01438;dRep_bin319_PBDBJGCJ_01331;dRep_bin291_EILOACJB_00194;dRep_bin241_LMMMGDNI_00361;dRep_bin091_MAFACGAD_00751;dRep_bin303_DDDNDJCF_01255;dRep_bin216_JNJMCPHB_01481;dRep_bin184_MBMMJHKO_01167;dRep_bin161_JMKPMHCO_00103;dRep_bin021_AJDDCGJC_01597;dRep_bin095_HOBNOEEF_00033;dRep_bin059_OOBKFNPP_00633;dRep_bin018_ILOONPIC_00093;dRep_bin306_FGHMKMMP_00476;dRep_bin175_HANCENAK_00082;dRep_bin040_EIFLLDOA_01832;dRep_bin166_DFIAJFEC_00288;dRep_bin085_MBHLGCDB_01583	dRep_bin191_NGFJMLOL_01259	>dRep_bin191_NGFJMLOL_01259 Aspartate--tRNA ligase	dRep_bin085_MBHLGCDB_01722	CDS	aspS_2	6.1.1.12	Aspartate--tRNA ligase
MBHLGCDB_01782					24.71816	24.475739999999995	24.16123	24.90477				2	1	8,2916E-06	dRep_bin085_MBHLGCDB_01782;dRep_bin109_MJABCPAK_00886	dRep_bin085_MBHLGCDB_01782;dRep_bin109_MJABCPAK_00886	>dRep_bin085_MBHLGCDB_01782 Aldehyde-alcohol dehydrogenase;>dRep_bin109_MJABCPAK_00886 Aldehyde-alcohol dehydrogenase	dRep_bin085_MBHLGCDB_01782	CDS	adhE_3		Aldehyde-alcohol dehydrogenase
