GBprotID	LFQ intensity CtrPig1	LFQ intensity CtrPig2	LFQ intensity CtrPig3	LFQ intensity CtrPig4	LFQ intensity MannanPig1	LFQ intensity MannanPig2	LFQ intensity MannanPig3	LFQ intensity MannanPig4	Only identified by site	Reverse	Contaminant	Peptides	Unique peptides	PEP	Protein IDs	Majority protein IDs	Fasta headers	IDcomb	ftype	gene	EC_number	product
FCLGAPPI_00028	28.269099999999998	27.321050000000003	27.52313	27.43349	29.555850000000003	28.4649	29.5133	30.816810000000004				23	9	0	dRep_bin139_KGAJINND_01821;dRep_bin215_ABBFGCAF_00253;dRep_bin042_MMFCLHOO_00160;dRep_bin283_NLJJFFAC_00705;dRep_bin160_EFKMPBOM_00712;dRep_bin154_JGOKHKLI_01926;dRep_bin087_FCLGAPPI_00028;dRep_bin046_GKEJLOEK_00646;dRep_bin308_JBPDGLPP_01510;dRep_bin226_NLNLHLLD_01292;dRep_bin203_CLFNNOCF_00196;dRep_bin169_PNICKJKO_01458;dRep_bin167_BLMEBMNN_02003;dRep_bin144_NPHACCKF_00207;dRep_bin127_FIPNHBCH_01156;dRep_bin101_BNDDLDCL_00920;dRep_bin091_MAFACGAD_00174;dRep_bin089_PAJFOJBN_01094;dRep_bin055_IBMMJAEE_01006;dRep_bin024_OLHDGABE_00811;dRep_bin017_FGFLFOPJ_01094;dRep_bin005_CNDFPKJG_00650;dRep_bin282_PKAAPBFP_01434;dRep_bin347_EKGCMFPD_01249;dRep_bin250_NMCAMJIO_00216;dRep_bin257_JHFDCHCB_02386;dRep_bin186_HJAAFFNP_01166;dRep_bin123_PJKBFKBB_01198	dRep_bin139_KGAJINND_01821	>dRep_bin139_KGAJINND_01821 Formate--tetrahydrofolate ligase	dRep_bin087_FCLGAPPI_00028	CDS	fhs	6.3.4.3	Formate--tetrahydrofolate ligase
FCLGAPPI_00096							25.66104					3	0	2,2476E-19	dRep_bin305_FCIEFIHE_01435;dRep_bin087_FCLGAPPI_00096	dRep_bin305_FCIEFIHE_01435	>dRep_bin305_FCIEFIHE_01435 Hydroxypyruvate reductase	dRep_bin087_FCLGAPPI_00096	CDS		1.1.1.81	Hydroxypyruvate reductase
FCLGAPPI_00098							25.020129999999998					3	2	1,1044E-09	dRep_bin185_OOOLKACK_01161;dRep_bin087_FCLGAPPI_00098	dRep_bin185_OOOLKACK_01161;dRep_bin087_FCLGAPPI_00098	>dRep_bin185_OOOLKACK_01161 Phosphoserine aminotransferase;>dRep_bin087_FCLGAPPI_00098 Phosphoserine aminotransferase	dRep_bin087_FCLGAPPI_00098	CDS	serC_2	2.6.1.52	Phosphoserine aminotransferase
FCLGAPPI_00100	27.73776	26.883439999999997	27.00678	26.95082	26.56407	25.56375	25.93625	25.265559999999997				13	1	4,275E-129	dRep_bin087_FCLGAPPI_00100	dRep_bin087_FCLGAPPI_00100	>dRep_bin087_FCLGAPPI_00100 Elongation factor Tu-A	dRep_bin087_FCLGAPPI_00100	CDS	tufA		Elongation factor Tu-A
FCLGAPPI_00101					26.75723	26.372970000000002	26.64375	27.177310000000002				8	1	6,4666E-22	dRep_bin305_FCIEFIHE_01253;dRep_bin340_OFLHNGJM_00971;dRep_bin087_FCLGAPPI_00101	dRep_bin305_FCIEFIHE_01253;dRep_bin340_OFLHNGJM_00971	>dRep_bin305_FCIEFIHE_01253 Elongation factor G;>dRep_bin340_OFLHNGJM_00971 Elongation factor G	dRep_bin087_FCLGAPPI_00101	CDS	fusA		Elongation factor G
FCLGAPPI_00191					26.09184							8	1	2,4989E-18	dRep_bin058_GJKCICJN_00937;dRep_bin087_FCLGAPPI_00191	dRep_bin058_GJKCICJN_00937	>dRep_bin058_GJKCICJN_00937 Chaperone protein DnaK	dRep_bin087_FCLGAPPI_00191	CDS	dnaK		Chaperone protein DnaK
FCLGAPPI_00381					20.66084	20.19075						6	1	4,1576E-39	dRep_bin346_JKFDGFHC_00049;dRep_bin271_NGFBCHKH_01432;dRep_bin170_LICLFCFF_00076;dRep_bin113_LIFKCGBF_00665;dRep_bin036_DOKCEIDH_00273;dRep_bin034_MEBMFDLL_01305;dRep_bin285_IPHKFJAN_00808;dRep_bin298_EIPJCOMF_01620;dRep_bin289_KALDCNNP_01320;dRep_bin196_BIELHBNH_01057;dRep_bin138_EJGHNBMI_00590;dRep_bin064_CMDDCDKG_01375;dRep_bin183_FPGIOKBG_00615;dRep_bin073_AKBCEHHO_01469;dRep_bin323_FBBLPLCG_01598;dRep_bin101_BNDDLDCL_00033;dRep_bin049_MNFBDPNO_00783;dRep_bin087_FCLGAPPI_00381;dRep_bin281_OGHLKMAI_01074;dRep_bin210_AGEDAEIA_01693;dRep_bin118_FGIOKLBC_01781;dRep_bin022_BOEAFNDE_01420;dRep_bin131_HLFNHDGI_01253;dRep_bin002_CFBNDKDN_00034;dRep_bin014_CHIHIMAN_01271;dRep_bin329_GDOHKPBL_01515;dRep_bin314_KCHFPLIP_00795;dRep_bin307_AOCKHIKF_00407;dRep_bin098_DDEBHDKK_01315;dRep_bin306_FGHMKMMP_00477;dRep_bin153_JGABJFBF_01420;dRep_bin172_ALNHGLMD_01785;dRep_bin286_OEMIJKMC_01076;dRep_bin182_EMCFODCD_00063;dRep_bin126_PPDNCIBN_00262;dRep_bin044_IPFKHAEF_00185;dRep_bin283_NLJJFFAC_01756;dRep_bin203_CLFNNOCF_01930;dRep_bin179_HFEIPPPA_00361;dRep_bin218_ACMPALGF_01344;dRep_bin144_NPHACCKF_00223;dRep_bin094_LBLICAAO_00940;dRep_bin032_PPNIGLME_01008;dRep_bin027_OFJCHLJJ_00625;dRep_bin096_GNHMEKPF_00088;dRep_bin257_JHFDCHCB_01408;dRep_bin190_MOGDLGIN_00302;dRep_bin114_FJHJKHGL_00840;dRep_bin055_IBMMJAEE_00170;dRep_bin048_PABMBHAL_01509;dRep_bin318_IEDEJOFJ_00726;dRep_bin264_DNFFGNEG_00422;dRep_bin244_LBFMHLBI_01058;dRep_bin223_PIMCDKJI_01107;dRep_bin202_HEPPALPH_00196;dRep_bin242_LKAIBGGJ_00303;dRep_bin204_INMOGLDN_01542;dRep_bin174_LJJOKEME_00810;dRep_bin080_CBEBHNNK_00066;dRep_bin312_MJFEFHMP_00588;dRep_bin246_MMFBABHK_00194;dRep_bin116_CLFDBMOF_00457;dRep_bin061_ONFGDLGO_01437;dRep_bin030_OGPDLGOC_00261;dRep_bin004_OCHNPJPO_01274;dRep_bin251_FGNGCJDD_00242;dRep_bin219_HGPEELLF_01206;dRep_bin129_GADIAMAA_00806;dRep_bin076_GLAOFBEC_00429;dRep_bin188_EJILNMPE_01055;dRep_bin252_NDAKLAGD_01289;dRep_bin352_KFNHGNFC_00642;dRep_bin206_OIIBOIAK_00292;dRep_bin078_GKFCBAEI_00119;dRep_bin301_NJFJIJGA_00585;dRep_bin275_NIDIBBDA_00034;dRep_bin040_EIFLLDOA_01203;dRep_bin028_GKEJLBAM_00163;dRep_bin149_GABCHCDI_00012;dRep_bin093_PGADNPMG_00427;dRep_bin345_GLPJDLOI_00001;dRep_bin296_FDMPKPOH_01296;dRep_bin316_FNLHDNEO_00355;dRep_bin256_KEMNAOBC_01607;dRep_bin071_JHMCIJPE_01347;dRep_bin128_JPBBHEMA_00687;dRep_bin165_HMDFFMMM_01254;dRep_bin351_CKFFBPHM_01191;dRep_bin092_OOJCPDEA_01149	dRep_bin346_JKFDGFHC_00049;dRep_bin271_NGFBCHKH_01432;dRep_bin170_LICLFCFF_00076;dRep_bin113_LIFKCGBF_00665;dRep_bin036_DOKCEIDH_00273;dRep_bin034_MEBMFDLL_01305;dRep_bin285_IPHKFJAN_00808;dRep_bin298_EIPJCOMF_01620;dRep_bin289_KALDCNNP_01320;dRep_bin196_BIELHBNH_01057;dRep_bin138_EJGHNBMI_00590;dRep_bin064_CMDDCDKG_01375;dRep_bin183_FPGIOKBG_00615;dRep_bin073_AKBCEHHO_01469	>dRep_bin346_JKFDGFHC_00049 ATP synthase subunit beta, sodium ion specific;>dRep_bin271_NGFBCHKH_01432 ATP synthase subunit beta;>dRep_bin170_LICLFCFF_00076 ATP synthase subunit beta, sodium ion specific;>dRep_bin113_LIFKCGBF_00665 ATP synthase subunit bet	dRep_bin087_FCLGAPPI_00381	CDS	atpD	3.6.3.15	ATP synthase subunit beta, sodium ion specific
FCLGAPPI_00618							25.442089999999997					7	0	8,3578E-79	dRep_bin087_FCLGAPPI_00618;dRep_bin332_KAOPCDPF_00505;dRep_bin349_AMCJEEEG_00396;dRep_bin124_HIHDFGCL_00883	dRep_bin087_FCLGAPPI_00618;dRep_bin332_KAOPCDPF_00505	>dRep_bin087_FCLGAPPI_00618 Fructose-bisphosphate aldolase;>dRep_bin332_KAOPCDPF_00505 Fructose-bisphosphate aldolase	dRep_bin087_FCLGAPPI_00618	CDS	fba	4.1.2.13	Fructose-bisphosphate aldolase
FCLGAPPI_00654					23.00606	23.896980000000003						2	1	8,6813E-10	dRep_bin324_IPNHOHFK_01144;dRep_bin297_EDHEEICA_00687;dRep_bin292_JIBLDOOH_02195;dRep_bin261_FJICAFFM_00057;dRep_bin226_NLNLHLLD_01357;dRep_bin209_NKIHFCEN_00791;dRep_bin203_CLFNNOCF_00406;dRep_bin179_HFEIPPPA_00190;dRep_bin157_JPNIKEKI_00583;dRep_bin133_NOBPDBPA_01168;dRep_bin041_OPKGAAAG_01275;dRep_bin168_HKDILBFE_01397;dRep_bin130_OIFFANPF_00962;dRep_bin083_OCBADPJJ_00812;dRep_bin169_PNICKJKO_00385;dRep_bin319_PBDBJGCJ_01796;dRep_bin109_MJABCPAK_00038;dRep_bin106_BKDHGPBE_00849;dRep_bin216_JNJMCPHB_01613;dRep_bin299_AKNBKJGM_00580;dRep_bin100_CODMOHGB_00911;dRep_bin317_ABPHNCOD_01390;dRep_bin272_LGBDGEIM_00788;dRep_bin249_OFIIEIDJ_00467;dRep_bin066_AJACLPEE_01038;dRep_bin335_JIOGNAPG_00681;dRep_bin234_ECABPBME_00227;dRep_bin088_DNGPPFDK_01237;dRep_bin303_DDDNDJCF_00797;dRep_bin300_MJPPENNL_00671;dRep_bin279_IAEFEPEN_01368;dRep_bin278_BFCONKOE_00336;dRep_bin269_PNILGKPH_01089;dRep_bin260_HELEPKJL_01496;dRep_bin089_PAJFOJBN_00528;dRep_bin027_OFJCHLJJ_00828;dRep_bin019_MOJEPLJF_01606;dRep_bin116_CLFDBMOF_00536;dRep_bin057_BNCFHBBO_00059;dRep_bin134_HIAPAODO_00123;dRep_bin322_OJELOJOF_01583;dRep_bin270_GEJAHNCN_00957;dRep_bin348_LCLFDNEE_00829;dRep_bin295_EJGKDKNE_00315;dRep_bin277_MIPNGEJE_01644;dRep_bin166_DFIAJFEC_00192;dRep_bin264_DNFFGNEG_00340;dRep_bin153_JGABJFBF_01236;dRep_bin114_FJHJKHGL_00133;dRep_bin111_FPJIHFKE_00195;dRep_bin252_NDAKLAGD_00473;dRep_bin247_EKGBJCBM_00710;dRep_bin035_JBNPBOKG_01025;dRep_bin026_HNPIIINL_00916;dRep_bin085_MBHLGCDB_01217;dRep_bin068_ENOLAELK_00657;dRep_bin049_MNFBDPNO_00064;dRep_bin038_EIGFILKG_00881;dRep_bin152_LJMCIADF_01515;dRep_bin079_GAOGCKND_00762;dRep_bin231_CFOLMJBA_00732;dRep_bin126_PPDNCIBN_00705;dRep_bin333_EFOKIBLA_00857;dRep_bin123_PJKBFKBB_00290;dRep_bin185_OOOLKACK_01362;dRep_bin305_FCIEFIHE_01147;dRep_bin070_EMBHKIOF_00605;dRep_bin006_HPJGJCAG_01539;dRep_bin101_BNDDLDCL_00049;dRep_bin331_HPKAPHAF_00752;dRep_bin301_NJFJIJGA_00013;dRep_bin037_GEAOEKHA_01146;dRep_bin087_FCLGAPPI_00654;dRep_bin159_ADJJGPBG_01916;dRep_bin304_JDNJGFKH_01533;dRep_bin120_EKLBOPNC_00943;dRep_bin162_JBGCCDIN_00762;dRep_bin072_JOBJPCGA_01185;dRep_bin320_LDBKCCKL_00985;dRep_bin245_MBCFLKOF_00867;dRep_bin010_MFFFGEGD_00116;dRep_bin205_LKIOOBKC_01048;dRep_bin043_KLAFNACO_01234;dRep_bin011_KOGMKLNO_01366;dRep_bin189_AHHEHGDL_01620;dRep_bin222_GGCAJABB_00316;dRep_bin208_DHPGEIBC_01479;dRep_bin130_OIFFANPF_00887	dRep_bin324_IPNHOHFK_01144;dRep_bin297_EDHEEICA_00687;dRep_bin292_JIBLDOOH_02195;dRep_bin261_FJICAFFM_00057;dRep_bin226_NLNLHLLD_01357;dRep_bin209_NKIHFCEN_00791;dRep_bin203_CLFNNOCF_00406;dRep_bin179_HFEIPPPA_00190;dRep_bin157_JPNIKEKI_00583;dRep_bin133_NOBPDBPA_01168;dRep_bin041_OPKGAAAG_01275;dRep_bin168_HKDILBFE_01397;dRep_bin130_OIFFANPF_00962;dRep_bin083_OCBADPJJ_00812;dRep_bin169_PNICKJKO_00385;dRep_bin319_PBDBJGCJ_01796;dRep_bin109_MJABCPAK_00038;dRep_bin106_BKDHGPBE_00849;dRep_bin216_JNJMCPHB_01613;dRep_bin299_AKNBKJGM_00580;dRep_bin100_CODMOHGB_00911;dRep_bin317_ABPHNCOD_01390;dRep_bin272_LGBDGEIM_00788;dRep_bin249_OFIIEIDJ_00467;dRep_bin066_AJACLPEE_01038;dRep_bin335_JIOGNAPG_00681;dRep_bin234_ECABPBME_00227;dRep_bin088_DNGPPFDK_01237;dRep_bin303_DDDNDJCF_00797;dRep_bin300_MJPPENNL_00671;dRep_bin279_IAEFEPEN_01368;dRep_bin278_BFCONKOE_00336;dRep_bin269_PNILGKPH_01089;dRep_bin260_HELEPKJL_01496;dRep_bin089_PAJFOJBN_00528;dRep_bin027_OFJCHLJJ_00828;dRep_bin019_MOJEPLJF_01606;dRep_bin116_CLFDBMOF_00536;dRep_bin057_BNCFHBBO_00059;dRep_bin134_HIAPAODO_00123;dRep_bin322_OJELOJOF_01583;dRep_bin270_GEJAHNCN_00957;dRep_bin348_LCLFDNEE_00829;dRep_bin295_EJGKDKNE_00315;dRep_bin277_MIPNGEJE_01644;dRep_bin166_DFIAJFEC_00192;dRep_bin264_DNFFGNEG_00340;dRep_bin153_JGABJFBF_01236;dRep_bin114_FJHJKHGL_00133;dRep_bin111_FPJIHFKE_00195;dRep_bin252_NDAKLAGD_00473;dRep_bin247_EKGBJCBM_00710;dRep_bin035_JBNPBOKG_01025;dRep_bin026_HNPIIINL_00916;dRep_bin085_MBHLGCDB_01217;dRep_bin068_ENOLAELK_00657;dRep_bin049_MNFBDPNO_00064;dRep_bin038_EIGFILKG_00881;dRep_bin152_LJMCIADF_01515;dRep_bin079_GAOGCKND_00762;dRep_bin231_CFOLMJBA_00732;dRep_bin126_PPDNCIBN_00705;dRep_bin333_EFOKIBLA_00857;dRep_bin123_PJKBFKBB_00290;dRep_bin185_OOOLKACK_01362;dRep_bin305_FCIEFIHE_01147;dRep_bin070_EMBHKIOF_00605;dRep_bin006_HPJGJCAG_01539;dRep_bin101_BNDDLDCL_00049;dRep_bin331_HPKAPHAF_00752;dRep_bin301_NJFJIJGA_00013;dRep_bin037_GEAOEKHA_01146;dRep_bin087_FCLGAPPI_00654;dRep_bin159_ADJJGPBG_01916;dRep_bin304_JDNJGFKH_01533;dRep_bin120_EKLBOPNC_00943;dRep_bin162_JBGCCDIN_00762;dRep_bin072_JOBJPCGA_01185;dRep_bin320_LDBKCCKL_00985;dRep_bin245_MBCFLKOF_00867;dRep_bin010_MFFFGEGD_00116;dRep_bin205_LKIOOBKC_01048;dRep_bin043_KLAFNACO_01234;dRep_bin011_KOGMKLNO_01366;dRep_bin189_AHHEHGDL_01620;dRep_bin222_GGCAJABB_00316;dRep_bin208_DHPGEIBC_01479;dRep_bin130_OIFFANPF_00887	>dRep_bin324_IPNHOHFK_01144 Glutaconyl-CoA decarboxylase subunit beta;>dRep_bin297_EDHEEICA_00687 Glutaconyl-CoA decarboxylase subunit beta;>dRep_bin292_JIBLDOOH_02195 Glutaconyl-CoA decarboxylase subunit beta;>dRep_bin261_FJICAFFM_00057 Glutaconyl-CoA dec	dRep_bin087_FCLGAPPI_00654	CDS	gcdB	4.1.1.70	Glutaconyl-CoA decarboxylase subunit beta
FCLGAPPI_00689	23.860219999999998		23.30034	23.82881	25.270139999999998	24.87769	24.848519999999997	25.09217				7	3	5,1044E-46	dRep_bin049_MNFBDPNO_00865;dRep_bin114_FJHJKHGL_01583;dRep_bin148_NAJFKJMD_00137;dRep_bin087_FCLGAPPI_00689	dRep_bin049_MNFBDPNO_00865	>dRep_bin049_MNFBDPNO_00865 60 kDa chaperonin	dRep_bin087_FCLGAPPI_00689	CDS	groL		60 kDa chaperonin
FCLGAPPI_00696	27.22656	25.469639999999995	27.139560000000003	26.76989								3	0	2,5341E-17	dRep_bin074_EHAOMODJ_00357;dRep_bin335_JIOGNAPG_00060;dRep_bin234_ECABPBME_00543;dRep_bin185_OOOLKACK_00415;dRep_bin095_HOBNOEEF_01010;dRep_bin194_MEPDOGGJ_00068;dRep_bin025_CBEJJMLE_00034;dRep_bin282_PKAAPBFP_01136;dRep_bin260_HELEPKJL_01581;dRep_bin135_HHKACLPM_00020;dRep_bin047_IFFANOMN_01119;dRep_bin049_MNFBDPNO_00067;dRep_bin268_LKMHIMLG_00651;dRep_bin303_DDDNDJCF_00095;dRep_bin248_CCDFPECI_00722;dRep_bin243_JDMELKLC_00605;dRep_bin340_OFLHNGJM_00522;dRep_bin109_MJABCPAK_00884;dRep_bin087_FCLGAPPI_00696;dRep_bin160_EFKMPBOM_01056;dRep_bin154_JGOKHKLI_00096;dRep_bin354_MMOALAFN_01723;dRep_bin349_AMCJEEEG_01213;dRep_bin116_CLFDBMOF_00907;dRep_bin347_EKGCMFPD_01393;dRep_bin001_GHHJMDAL_01273;dRep_bin247_EKGBJCBM_00529;dRep_bin254_GJDPFAEA_00457;dRep_bin145_KMJJJOEJ_01456;dRep_bin322_OJELOJOF_01191;dRep_bin336_MPGOKPOL_00223;dRep_bin147_EJLBNEBE_01602;dRep_bin134_HIAPAODO_02129;dRep_bin062_BOFBFLDA_00221;dRep_bin332_KAOPCDPF_00824;dRep_bin253_CPMOAOBJ_01534;dRep_bin114_FJHJKHGL_01331;dRep_bin352_KFNHGNFC_00409;dRep_bin192_GCMBELNN_00663;dRep_bin187_CLPDGDBG_00783	dRep_bin074_EHAOMODJ_00357;dRep_bin335_JIOGNAPG_00060;dRep_bin234_ECABPBME_00543;dRep_bin185_OOOLKACK_00415;dRep_bin095_HOBNOEEF_01010;dRep_bin194_MEPDOGGJ_00068;dRep_bin025_CBEJJMLE_00034;dRep_bin282_PKAAPBFP_01136;dRep_bin260_HELEPKJL_01581;dRep_bin135_HHKACLPM_00020;dRep_bin047_IFFANOMN_01119;dRep_bin049_MNFBDPNO_00067;dRep_bin268_LKMHIMLG_00651;dRep_bin303_DDDNDJCF_00095;dRep_bin248_CCDFPECI_00722;dRep_bin243_JDMELKLC_00605;dRep_bin340_OFLHNGJM_00522;dRep_bin109_MJABCPAK_00884;dRep_bin087_FCLGAPPI_00696;dRep_bin160_EFKMPBOM_01056;dRep_bin154_JGOKHKLI_00096;dRep_bin354_MMOALAFN_01723	>dRep_bin074_EHAOMODJ_00357 Glutamate synthase [NADPH] small chain;>dRep_bin335_JIOGNAPG_00060 Glutamate synthase [NADPH] small chain;>dRep_bin234_ECABPBME_00543 Glutamate synthase [NADPH] small chain;>dRep_bin185_OOOLKACK_00415 Glutamate synthase [NADPH]	dRep_bin087_FCLGAPPI_00696	CDS	gltD	1.4.1.13	Glutamate synthase [NADPH] small chain
FCLGAPPI_00738					26.7366	25.45466	25.41848	25.60003				3	1	2,6269E-12	dRep_bin269_PNILGKPH_01424;dRep_bin209_NKIHFCEN_01710;dRep_bin253_CPMOAOBJ_01532;dRep_bin087_FCLGAPPI_00738	dRep_bin269_PNILGKPH_01424;dRep_bin209_NKIHFCEN_01710	>dRep_bin269_PNILGKPH_01424 Aldehyde-alcohol dehydrogenase;>dRep_bin209_NKIHFCEN_01710 Aldehyde-alcohol dehydrogenase	dRep_bin087_FCLGAPPI_00738	CDS	adhE		Aldehyde-alcohol dehydrogenase
FCLGAPPI_00749								21.643810000000002				9	0	4,6207E-36	dRep_bin143_PFLDJMPF_01162;dRep_bin074_EHAOMODJ_00197;dRep_bin152_LJMCIADF_00840;dRep_bin079_GAOGCKND_00311;dRep_bin068_ENOLAELK_00990;dRep_bin124_HIHDFGCL_00318;dRep_bin272_LGBDGEIM_00728;dRep_bin337_FHKPNFDB_00324;dRep_bin056_EMNHHOJA_01446;dRep_bin054_NNOKONMC_00657;dRep_bin102_ICFDHPGB_00342;dRep_bin259_IFIOODLK_00485;dRep_bin086_HHEJBMCP_01132;dRep_bin054_NNOKONMC_00873;dRep_bin161_JMKPMHCO_00072;dRep_bin044_IPFKHAEF_00005;dRep_bin085_MBHLGCDB_01101;dRep_bin059_OOBKFNPP_00481;dRep_bin171_FIDMCACI_00747;dRep_bin012_KEBBILMO_00314;dRep_bin212_IEMJENOD_00204;dRep_bin257_JHFDCHCB_01099;dRep_bin277_MIPNGEJE_00939;dRep_bin238_OLNFACLE_01881;dRep_bin200_JJGKEOHI_00480;dRep_bin144_NPHACCKF_01932;dRep_bin321_EJNAAGJG_00384;dRep_bin333_EFOKIBLA_00721;dRep_bin273_FGAEBHNP_01365;dRep_bin280_IMCGLKKG_00438;dRep_bin171_FIDMCACI_00165;dRep_bin051_HIEIDCID_00833;dRep_bin141_GMCOOECB_01065;dRep_bin122_JHMJFODI_00609;dRep_bin155_CLHNKEHA_00697;dRep_bin313_CJFGINPI_00865;dRep_bin213_HHHELMFN_00711;dRep_bin258_DAMEHFEK_00926;dRep_bin169_PNICKJKO_00880;dRep_bin055_IBMMJAEE_00781;dRep_bin096_GNHMEKPF_00270;dRep_bin082_HBEFABJN_01176;dRep_bin094_LBLICAAO_01798;dRep_bin052_PGOOKKFH_00001;dRep_bin178_FLGBGGJB_00429;dRep_bin123_PJKBFKBB_00530;dRep_bin046_GKEJLOEK_00533;dRep_bin270_GEJAHNCN_00559;dRep_bin087_FCLGAPPI_00749;dRep_bin317_ABPHNCOD_01524;dRep_bin354_MMOALAFN_01090;dRep_bin221_LMGNIMOJ_00256;dRep_bin005_CNDFPKJG_00513;dRep_bin144_NPHACCKF_01674;dRep_bin215_ABBFGCAF_00891;dRep_bin024_OLHDGABE_01486;dRep_bin207_OHNPDPFI_01006;dRep_bin109_MJABCPAK_00005;dRep_bin121_BHOOLFKN_00138;dRep_bin144_NPHACCKF_01593;dRep_bin236_BNONDECB_00589;dRep_bin166_DFIAJFEC_00113;dRep_bin352_KFNHGNFC_00788;dRep_bin187_CLPDGDBG_00447;dRep_bin192_GCMBELNN_00637;dRep_bin206_OIIBOIAK_00839;dRep_bin173_BEBNCADL_00299;dRep_bin080_CBEBHNNK_00392;dRep_bin237_KJDLIPND_00675	dRep_bin143_PFLDJMPF_01162;dRep_bin074_EHAOMODJ_00197;dRep_bin152_LJMCIADF_00840;dRep_bin079_GAOGCKND_00311;dRep_bin068_ENOLAELK_00990;dRep_bin124_HIHDFGCL_00318;dRep_bin272_LGBDGEIM_00728;dRep_bin337_FHKPNFDB_00324;dRep_bin056_EMNHHOJA_01446;dRep_bin054_NNOKONMC_00657;dRep_bin102_ICFDHPGB_00342;dRep_bin259_IFIOODLK_00485;dRep_bin086_HHEJBMCP_01132;dRep_bin054_NNOKONMC_00873;dRep_bin161_JMKPMHCO_00072;dRep_bin044_IPFKHAEF_00005;dRep_bin085_MBHLGCDB_01101	>dRep_bin143_PFLDJMPF_01162 DNA-directed RNA polymerase subunit beta;>dRep_bin074_EHAOMODJ_00197 DNA-directed RNA polymerase subunit beta;>dRep_bin152_LJMCIADF_00840 DNA-directed RNA polymerase subunit beta;>dRep_bin079_GAOGCKND_00311 DNA-directed RNA p	dRep_bin087_FCLGAPPI_00749	CDS	rpoC	2.7.7.6	DNA-directed RNA polymerase subunit beta'
FCLGAPPI_00820						23.42918						5	0	2,872E-11	dRep_bin087_FCLGAPPI_00820;dRep_bin305_FCIEFIHE_00007;dRep_bin058_GJKCICJN_01450	dRep_bin087_FCLGAPPI_00820;dRep_bin305_FCIEFIHE_00007;dRep_bin058_GJKCICJN_01450	>dRep_bin087_FCLGAPPI_00820 Cysteine synthase;>dRep_bin305_FCIEFIHE_00007 O-acetylserine sulfhydrylase;>dRep_bin058_GJKCICJN_01450 Cysteine synthase	dRep_bin087_FCLGAPPI_00820	CDS	cysK_2	2.5.1.47	Cysteine synthase
FCLGAPPI_00827	27.940839999999998	28.7475	27.544810000000002	27.162789999999998								5	1	2,4473E-58	dRep_bin164_KHMELCCL_00344;dRep_bin087_FCLGAPPI_00827;dRep_bin185_OOOLKACK_00038;dRep_bin354_MMOALAFN_00137	dRep_bin164_KHMELCCL_00344;dRep_bin087_FCLGAPPI_00827;dRep_bin185_OOOLKACK_00038	>dRep_bin164_KHMELCCL_00344 Phosphoglycerate kinase;>dRep_bin087_FCLGAPPI_00827 Phosphoglycerate kinase;>dRep_bin185_OOOLKACK_00038 Phosphoglycerate kinase	dRep_bin087_FCLGAPPI_00827	CDS	pgk	2.7.2.3	Phosphoglycerate kinase
FCLGAPPI_00831	25.06895	25.456699999999998										4	2	8,4308E-12	dRep_bin087_FCLGAPPI_00831;dRep_bin185_OOOLKACK_00940;dRep_bin268_LKMHIMLG_00481;dRep_bin172_ALNHGLMD_01778	dRep_bin087_FCLGAPPI_00831;dRep_bin185_OOOLKACK_00940	>dRep_bin087_FCLGAPPI_00831 Phosphate acetyltransferase;>dRep_bin185_OOOLKACK_00940 Phosphate acetyltransferase	dRep_bin087_FCLGAPPI_00831	CDS	pta	2.3.1.8	Phosphate acetyltransferase
FCLGAPPI_00884	28.311810000000005	28.87918	27.831650000000003	29.230960000000003	28.73202	29.246489999999998	27.05248	27.90948				8	1	1,9842E-126	dRep_bin292_JIBLDOOH_00099;dRep_bin179_HFEIPPPA_00339;dRep_bin300_MJPPENNL_01093;dRep_bin168_HKDILBFE_00566;dRep_bin065_DFABHCBI_02372;dRep_bin168_HKDILBFE_00902;dRep_bin087_FCLGAPPI_00884;dRep_bin215_ABBFGCAF_01228;dRep_bin160_EFKMPBOM_01464	dRep_bin292_JIBLDOOH_00099;dRep_bin179_HFEIPPPA_00339;dRep_bin300_MJPPENNL_01093;dRep_bin168_HKDILBFE_00566;dRep_bin065_DFABHCBI_02372;dRep_bin168_HKDILBFE_00902;dRep_bin087_FCLGAPPI_00884;dRep_bin215_ABBFGCAF_01228;dRep_bin160_EFKMPBOM_01464	>dRep_bin292_JIBLDOOH_00099 Reverse rubrerythrin-1;>dRep_bin179_HFEIPPPA_00339 Reverse rubrerythrin-1;>dRep_bin300_MJPPENNL_01093 Reverse rubrerythrin-1;>dRep_bin168_HKDILBFE_00566 Reverse rubrerythrin-1;>dRep_bin065_DFABHCBI_02372 Reverse rubrerythrin-1;>	dRep_bin087_FCLGAPPI_00884	CDS	rbr3B	1.11.1.1	Reverse rubrerythrin-2
FCLGAPPI_00893	26.79749	27.34951	27.24889	27.36645								6	3	9,5867E-25	dRep_bin133_NOBPDBPA_02043;dRep_bin203_CLFNNOCF_02569;dRep_bin282_PKAAPBFP_00815;dRep_bin266_JFOCEDAE_00111;dRep_bin186_HJAAFFNP_01254;dRep_bin019_MOJEPLJF_01874;dRep_bin090_IPGNHCBJ_01102;dRep_bin024_OLHDGABE_00752;dRep_bin209_NKIHFCEN_01056;dRep_bin247_EKGBJCBM_00163;dRep_bin160_EFKMPBOM_02860;dRep_bin286_OEMIJKMC_00794;dRep_bin253_CPMOAOBJ_00134;dRep_bin231_CFOLMJBA_01358;dRep_bin172_ALNHGLMD_01268;dRep_bin126_PPDNCIBN_00019;dRep_bin087_FCLGAPPI_00893;dRep_bin154_JGOKHKLI_00814;dRep_bin182_EMCFODCD_00040;dRep_bin044_IPFKHAEF_00841;dRep_bin281_OGHLKMAI_01086;dRep_bin197_NHLBHFEI_00440;dRep_bin103_IGJBLKMC_00804;dRep_bin017_FGFLFOPJ_01043;dRep_bin214_HHFOEIGG_00990;dRep_bin193_GDMDPNNM_00598;dRep_bin268_LKMHIMLG_01535;dRep_bin287_DONBGKDH_00348;dRep_bin100_CODMOHGB_00221;dRep_bin305_FCIEFIHE_01334;dRep_bin266_JFOCEDAE_01639;dRep_bin132_FAPBDCMG_00906	dRep_bin133_NOBPDBPA_02043;dRep_bin203_CLFNNOCF_02569;dRep_bin282_PKAAPBFP_00815;dRep_bin266_JFOCEDAE_00111;dRep_bin186_HJAAFFNP_01254;dRep_bin019_MOJEPLJF_01874;dRep_bin090_IPGNHCBJ_01102;dRep_bin024_OLHDGABE_00752;dRep_bin209_NKIHFCEN_01056;dRep_bin247_EKGBJCBM_00163;dRep_bin160_EFKMPBOM_02860;dRep_bin286_OEMIJKMC_00794;dRep_bin253_CPMOAOBJ_00134;dRep_bin231_CFOLMJBA_01358;dRep_bin172_ALNHGLMD_01268;dRep_bin126_PPDNCIBN_00019;dRep_bin087_FCLGAPPI_00893;dRep_bin154_JGOKHKLI_00814;dRep_bin182_EMCFODCD_00040;dRep_bin044_IPFKHAEF_00841	>dRep_bin133_NOBPDBPA_02043 Aspartate--tRNA(Asp/Asn) ligase;>dRep_bin203_CLFNNOCF_02569 Aspartate--tRNA(Asp/Asn) ligase;>dRep_bin282_PKAAPBFP_00815 Aspartate--tRNA(Asp/Asn) ligase;>dRep_bin266_JFOCEDAE_00111 Aspartate--tRNA(Asp/Asn) ligase;>dRep_bin186_HJA	dRep_bin087_FCLGAPPI_00893	CDS	aspS1	6.1.1.12	Aspartate--tRNA(Asp) ligase
FCLGAPPI_00910	23.85538											1	1	0,00089348	dRep_bin087_FCLGAPPI_00910;dRep_bin114_FJHJKHGL_01573;dRep_bin185_OOOLKACK_01310	dRep_bin087_FCLGAPPI_00910;dRep_bin114_FJHJKHGL_01573;dRep_bin185_OOOLKACK_01310	>dRep_bin087_FCLGAPPI_00910 Oligoendopeptidase F, plasmid;>dRep_bin114_FJHJKHGL_01573 Oligoendopeptidase F, plasmid;>dRep_bin185_OOOLKACK_01310 Oligoendopeptidase F, plasmid	dRep_bin087_FCLGAPPI_00910	CDS	pepF1_1	3.4.24.-	Oligoendopeptidase F, plasmid
FCLGAPPI_00927			28.77903	29.416960000000003	27.236439999999998	27.457870000000003	26.988259999999997	26.782069999999997				3	1	5,5654E-46	dRep_bin005_CNDFPKJG_00512;dRep_bin135_HHKACLPM_00996;dRep_bin007_LNLEAAAN_00555;dRep_bin303_DDDNDJCF_00538;dRep_bin328_GIGKNKPJ_00724;dRep_bin308_JBPDGLPP_01472;dRep_bin292_JIBLDOOH_00033;dRep_bin278_BFCONKOE_00439;dRep_bin269_PNILGKPH_00427;dRep_bin179_HFEIPPPA_01854;dRep_bin133_NOBPDBPA_03738;dRep_bin127_FIPNHBCH_00184;dRep_bin065_DFABHCBI_01543;dRep_bin039_IJNOFOJK_00835;dRep_bin031_BNHMFOII_01289;dRep_bin024_OLHDGABE_00632;dRep_bin001_GHHJMDAL_01042;dRep_bin027_OFJCHLJJ_01571;dRep_bin134_HIAPAODO_00757;dRep_bin339_DBNBAHDK_00274;dRep_bin268_LKMHIMLG_00767;dRep_bin215_ABBFGCAF_00889;dRep_bin142_NDNPJBEM_01236;dRep_bin347_EKGCMFPD_01033;dRep_bin325_EIIGOGHN_00650;dRep_bin310_IMBAFDIF_01183;dRep_bin293_MEPKGOAN_00730;dRep_bin282_PKAAPBFP_00286;dRep_bin100_CODMOHGB_00949;dRep_bin091_MAFACGAD_00437;dRep_bin079_GAOGCKND_00310;dRep_bin323_FBBLPLCG_01106;dRep_bin322_OJELOJOF_01654;dRep_bin273_FGAEBHNP_01366;dRep_bin266_JFOCEDAE_01192;dRep_bin231_CFOLMJBA_00878;dRep_bin194_MEPDOGGJ_01303;dRep_bin182_EMCFODCD_01258;dRep_bin169_PNICKJKO_01164;dRep_bin158_OGFICEAP_00873;dRep_bin115_IFKGOGCL_01307;dRep_bin108_BPNCDINP_01062;dRep_bin087_FCLGAPPI_00927;dRep_bin056_EMNHHOJA_01448;dRep_bin047_IFFANOMN_00919;dRep_bin044_IPFKHAEF_00004;dRep_bin026_HNPIIINL_00567;dRep_bin025_CBEJJMLE_00162;dRep_bin336_MPGOKPOL_00656;dRep_bin277_MIPNGEJE_00938;dRep_bin257_JHFDCHCB_01267;dRep_bin172_ALNHGLMD_01450;dRep_bin166_DFIAJFEC_00114;dRep_bin147_EJLBNEBE_01610;dRep_bin105_AAEIHAFF_01928	dRep_bin005_CNDFPKJG_00512;dRep_bin135_HHKACLPM_00996;dRep_bin007_LNLEAAAN_00555;dRep_bin303_DDDNDJCF_00538;dRep_bin328_GIGKNKPJ_00724;dRep_bin308_JBPDGLPP_01472;dRep_bin292_JIBLDOOH_00033;dRep_bin278_BFCONKOE_00439;dRep_bin269_PNILGKPH_00427;dRep_bin179_HFEIPPPA_01854;dRep_bin133_NOBPDBPA_03738;dRep_bin127_FIPNHBCH_00184;dRep_bin065_DFABHCBI_01543;dRep_bin039_IJNOFOJK_00835;dRep_bin031_BNHMFOII_01289;dRep_bin024_OLHDGABE_00632;dRep_bin001_GHHJMDAL_01042;dRep_bin027_OFJCHLJJ_01571	>dRep_bin005_CNDFPKJG_00512 30S ribosomal protein S12;>dRep_bin135_HHKACLPM_00996 30S ribosomal protein S12;>dRep_bin007_LNLEAAAN_00555 30S ribosomal protein S12;>dRep_bin303_DDDNDJCF_00538 30S ribosomal protein S12;>dRep_bin328_GIGKNKPJ_00724 30S ribosoma	dRep_bin087_FCLGAPPI_00927	CDS	rpsL		30S ribosomal protein S12
FCLGAPPI_01035	23.68635	23.711980000000004	23.79749	26.214950000000005								5	3	9,4978E-10	dRep_bin292_JIBLDOOH_00552;dRep_bin041_OPKGAAAG_00140;dRep_bin209_NKIHFCEN_00053;dRep_bin157_JPNIKEKI_01231;dRep_bin179_HFEIPPPA_01376;dRep_bin049_MNFBDPNO_01534;dRep_bin087_FCLGAPPI_01035	dRep_bin292_JIBLDOOH_00552;dRep_bin041_OPKGAAAG_00140;dRep_bin209_NKIHFCEN_00053;dRep_bin157_JPNIKEKI_01231	>dRep_bin292_JIBLDOOH_00552 Glucose-1-phosphate adenylyltransferase;>dRep_bin041_OPKGAAAG_00140 Glucose-1-phosphate adenylyltransferase;>dRep_bin209_NKIHFCEN_00053 Glucose-1-phosphate adenylyltransferase;>dRep_bin157_JPNIKEKI_01231 Glucose-1-phosphate aden	dRep_bin087_FCLGAPPI_01035	CDS	glgC	2.7.7.27	Glucose-1-phosphate adenylyltransferase
FCLGAPPI_01104							21.531930000000003					2	1	6,158E-09	dRep_bin087_FCLGAPPI_01104;dRep_bin309_BIOHLCGG_01395;dRep_bin044_IPFKHAEF_00694	dRep_bin087_FCLGAPPI_01104;dRep_bin309_BIOHLCGG_01395;dRep_bin044_IPFKHAEF_00694	>dRep_bin087_FCLGAPPI_01104 Chaperone protein ClpB;>dRep_bin309_BIOHLCGG_01395 Chaperone protein ClpB;>dRep_bin044_IPFKHAEF_00694 Chaperone protein ClpB	dRep_bin087_FCLGAPPI_01104	CDS	clpB		Chaperone protein ClpB
FCLGAPPI_01127	27.97836	27.60378	27.717900000000004	28.77027	28.293950000000002	27.50438	28.116150000000005	28.940189999999998				5	1	2,6861E-36	dRep_bin305_FCIEFIHE_00598;dRep_bin087_FCLGAPPI_01127	dRep_bin305_FCIEFIHE_00598	>dRep_bin305_FCIEFIHE_00598 Rubrerythrin	dRep_bin087_FCLGAPPI_01127	CDS	rbr1	1.11.1.1	Rubrerythrin-1
FCLGAPPI_01147					25.871850000000006	27.01648	25.28986	24.77455				6	5	7,0178E-18	dRep_bin048_PABMBHAL_00336;dRep_bin268_LKMHIMLG_01179;dRep_bin293_MEPKGOAN_00891;dRep_bin143_PFLDJMPF_01012;dRep_bin185_OOOLKACK_01251;dRep_bin090_IPGNHCBJ_01093;dRep_bin087_FCLGAPPI_01147;dRep_bin058_GJKCICJN_01546;dRep_bin105_AAEIHAFF_01653;dRep_bin270_GEJAHNCN_00429;dRep_bin006_HPJGJCAG_00363	dRep_bin048_PABMBHAL_00336	>dRep_bin048_PABMBHAL_00336 Chaperone protein HtpG	dRep_bin087_FCLGAPPI_01147	CDS	htpG		Chaperone protein HtpG
FCLGAPPI_01160	21.583619999999996	22.028339999999996	22.10217									1	1	0,0073873	dRep_bin087_FCLGAPPI_01160	dRep_bin087_FCLGAPPI_01160	>dRep_bin087_FCLGAPPI_01160 Glycerol kinase	dRep_bin087_FCLGAPPI_01160	CDS	glpK	2.7.1.30	Glycerol kinase
FCLGAPPI_01392				24.06357								3	0	1,7167E-14	dRep_bin006_HPJGJCAG_01778;dRep_bin185_OOOLKACK_00391;dRep_bin087_FCLGAPPI_01392	dRep_bin006_HPJGJCAG_01778;dRep_bin185_OOOLKACK_00391;dRep_bin087_FCLGAPPI_01392	>dRep_bin006_HPJGJCAG_01778 30S ribosomal protein S19;>dRep_bin185_OOOLKACK_00391 30S ribosomal protein S19;>dRep_bin087_FCLGAPPI_01392 30S ribosomal protein S19	dRep_bin087_FCLGAPPI_01392	CDS	rpsS		30S ribosomal protein S19
FCLGAPPI_01398	27.49694	27.78007	28.80169	29.14955	28.855960000000003	27.229219999999998	28.109880000000004	27.816960000000005				5	3	4,4205E-11	dRep_bin166_DFIAJFEC_00220;dRep_bin087_FCLGAPPI_01398	dRep_bin166_DFIAJFEC_00220	>dRep_bin166_DFIAJFEC_00220 50S ribosomal protein L14	dRep_bin087_FCLGAPPI_01398	CDS	rplN		50S ribosomal protein L14
