GBprotID	LFQ intensity CtrPig1	LFQ intensity CtrPig2	LFQ intensity CtrPig3	LFQ intensity CtrPig4	LFQ intensity MannanPig1	LFQ intensity MannanPig2	LFQ intensity MannanPig3	LFQ intensity MannanPig4	Only identified by site	Reverse	Contaminant	Peptides	Unique peptides	PEP	Protein IDs	Majority protein IDs	Fasta headers	IDcomb	ftype	gene	EC_number	product
AAEIHAFF_00120	26.76825	27.28736	26.800950000000004	27.75608	26.82141	27.967409999999997	26.446009999999998	26.41122				8	6	4,0815E-82	dRep_bin272_LGBDGEIM_01909;dRep_bin317_ABPHNCOD_01057;dRep_bin145_KMJJJOEJ_00177;dRep_bin091_MAFACGAD_01253;dRep_bin160_EFKMPBOM_01219;dRep_bin154_JGOKHKLI_01368;dRep_bin047_IFFANOMN_00515;dRep_bin105_AAEIHAFF_00120	dRep_bin272_LGBDGEIM_01909;dRep_bin317_ABPHNCOD_01057	>dRep_bin272_LGBDGEIM_01909 Serine hydroxymethyltransferase;>dRep_bin317_ABPHNCOD_01057 Serine hydroxymethyltransferase	dRep_bin105_AAEIHAFF_00120	CDS	glyA	2.1.2.1	Serine hydroxymethyltransferase
AAEIHAFF_00181	25.976029999999998	25.911270000000002	25.526860000000003	25.64342								5	1	4,3769E-17	dRep_bin105_AAEIHAFF_00181	dRep_bin105_AAEIHAFF_00181	>dRep_bin105_AAEIHAFF_00181 Chaperone protein DnaK	dRep_bin105_AAEIHAFF_00181	CDS	dnaK		Chaperone protein DnaK
AAEIHAFF_00294	27.020519999999998	27.03653	29.16619	26.83062	28.97905	29.462679999999995	29.480179999999997	29.336260000000003				14	14	4,171E-205	dRep_bin053_OMGNPOOB_01155;dRep_bin108_BPNCDINP_00011;dRep_bin105_AAEIHAFF_00294	dRep_bin053_OMGNPOOB_01155	>dRep_bin053_OMGNPOOB_01155 Rubredoxin-oxygen oxidoreductase	dRep_bin105_AAEIHAFF_00294	CDS	phoR_1	2.7.13.3	Alkaline phosphatase synthesis sensor protein PhoR
AAEIHAFF_00360						25.04181						2	1	1,1123E-23	dRep_bin348_LCLFDNEE_01385;dRep_bin105_AAEIHAFF_00360	dRep_bin348_LCLFDNEE_01385;dRep_bin105_AAEIHAFF_00360	>dRep_bin348_LCLFDNEE_01385 Polyribonucleotide nucleotidyltransferase;>dRep_bin105_AAEIHAFF_00360 Polyribonucleotide nucleotidyltransferase	dRep_bin105_AAEIHAFF_00360	CDS	pnp	2.7.7.8	Polyribonucleotide nucleotidyltransferase
AAEIHAFF_00458	28.62055	29.04755	27.906729999999996									7	1	2,9965E-52	dRep_bin105_AAEIHAFF_00458	dRep_bin105_AAEIHAFF_00458	>dRep_bin105_AAEIHAFF_00458 Pyruvate synthase	dRep_bin105_AAEIHAFF_00458	CDS	por	1.2.7.1	Pyruvate synthase
AAEIHAFF_00511					24.68731	24.7741						2	2	0,00047725	dRep_bin191_NGFJMLOL_01991;dRep_bin265_LFKFBJPC_00084;dRep_bin105_AAEIHAFF_00511;dRep_bin285_IPHKFJAN_00258;dRep_bin183_FPGIOKBG_00768;dRep_bin045_GJACFFBC_00439;dRep_bin111_FPJIHFKE_00404;dRep_bin138_EJGHNBMI_00735	dRep_bin191_NGFJMLOL_01991;dRep_bin265_LFKFBJPC_00084;dRep_bin105_AAEIHAFF_00511;dRep_bin285_IPHKFJAN_00258;dRep_bin183_FPGIOKBG_00768;dRep_bin045_GJACFFBC_00439;dRep_bin111_FPJIHFKE_00404;dRep_bin138_EJGHNBMI_00735	>dRep_bin191_NGFJMLOL_01991 1-deoxy-D-xylulose 5-phosphate reductoisomerase;>dRep_bin265_LFKFBJPC_00084 1-deoxy-D-xylulose 5-phosphate reductoisomerase;>dRep_bin105_AAEIHAFF_00511 1-deoxy-D-xylulose 5-phosphate reductoisomerase;>dRep_bin285_IPHKFJAN_00258	dRep_bin105_AAEIHAFF_00511	CDS	dxr	1.1.1.267	1-deoxy-D-xylulose 5-phosphate reductoisomerase
AAEIHAFF_00597						22.246529999999996						2	2	0,00013697	dRep_bin243_JDMELKLC_01144;dRep_bin105_AAEIHAFF_00597;dRep_bin302_AHDEPDKG_00328;dRep_bin238_OLNFACLE_00969;dRep_bin125_FADLGGII_00091	dRep_bin243_JDMELKLC_01144;dRep_bin105_AAEIHAFF_00597;dRep_bin302_AHDEPDKG_00328;dRep_bin238_OLNFACLE_00969;dRep_bin125_FADLGGII_00091	>dRep_bin243_JDMELKLC_01144 hypothetical protein;>dRep_bin105_AAEIHAFF_00597 hypothetical protein;>dRep_bin302_AHDEPDKG_00328 hypothetical protein;>dRep_bin238_OLNFACLE_00969 hypothetical protein;>dRep_bin125_FADLGGII_00091 hypothetical protein	dRep_bin105_AAEIHAFF_00597	CDS			hypothetical protein
AAEIHAFF_00721				24.354940000000003								9	1	3,7383E-82	dRep_bin133_NOBPDBPA_02407;dRep_bin319_PBDBJGCJ_01738;dRep_bin066_AJACLPEE_00162;dRep_bin077_DNNBMPMC_01718;dRep_bin181_MKGPMPIA_01194;dRep_bin260_HELEPKJL_01076;dRep_bin107_EFNBPDOP_00499;dRep_bin240_LDBBGJKG_00163;dRep_bin328_GIGKNKPJ_00321;dRep_bin347_EKGCMFPD_00479;dRep_bin088_DNGPPFDK_00287;dRep_bin135_HHKACLPM_00514;dRep_bin145_KMJJJOEJ_01002;dRep_bin335_JIOGNAPG_00895;dRep_bin234_ECABPBME_01768;dRep_bin134_HIAPAODO_01302;dRep_bin261_FJICAFFM_00778;dRep_bin019_MOJEPLJF_00883;dRep_bin166_DFIAJFEC_01066;dRep_bin105_AAEIHAFF_00721;dRep_bin142_NDNPJBEM_00168;dRep_bin169_PNICKJKO_01185;dRep_bin007_LNLEAAAN_00243;dRep_bin325_EIIGOGHN_01426;dRep_bin027_OFJCHLJJ_00581;dRep_bin333_EFOKIBLA_00453;dRep_bin049_MNFBDPNO_01275;dRep_bin293_MEPKGOAN_01477;dRep_bin148_NAJFKJMD_01296;dRep_bin008_MNDMJLEI_00823;dRep_bin270_GEJAHNCN_00044;dRep_bin031_BNHMFOII_00682;dRep_bin006_HPJGJCAG_00004;dRep_bin048_PABMBHAL_00541;dRep_bin143_PFLDJMPF_00665	dRep_bin133_NOBPDBPA_02407;dRep_bin319_PBDBJGCJ_01738;dRep_bin066_AJACLPEE_00162;dRep_bin077_DNNBMPMC_01718	>dRep_bin133_NOBPDBPA_02407 Dihydroxy-acid dehydratase;>dRep_bin319_PBDBJGCJ_01738 Dihydroxy-acid dehydratase;>dRep_bin066_AJACLPEE_00162 Dihydroxy-acid dehydratase;>dRep_bin077_DNNBMPMC_01718 Dihydroxy-acid dehydratase	dRep_bin105_AAEIHAFF_00721	CDS	ilvD	4.2.1.9	Dihydroxy-acid dehydratase
AAEIHAFF_00821	24.827890000000004	24.995289999999997	27.57773	24.967539999999996								2	2	5,745E-05	dRep_bin094_LBLICAAO_00035;dRep_bin029_LFMGBBEC_00468;dRep_bin351_CKFFBPHM_00106;dRep_bin115_IFKGOGCL_01618;dRep_bin105_AAEIHAFF_00821;dRep_bin118_FGIOKLBC_00146;dRep_bin348_LCLFDNEE_00839;dRep_bin057_BNCFHBBO_00956;dRep_bin328_GIGKNKPJ_00687;dRep_bin056_EMNHHOJA_00366;dRep_bin026_HNPIIINL_00089	dRep_bin094_LBLICAAO_00035;dRep_bin029_LFMGBBEC_00468;dRep_bin351_CKFFBPHM_00106;dRep_bin115_IFKGOGCL_01618;dRep_bin105_AAEIHAFF_00821;dRep_bin118_FGIOKLBC_00146;dRep_bin348_LCLFDNEE_00839;dRep_bin057_BNCFHBBO_00956;dRep_bin328_GIGKNKPJ_00687;dRep_bin056_EMNHHOJA_00366;dRep_bin026_HNPIIINL_00089	>dRep_bin094_LBLICAAO_00035 UDP-2,3-diacetamido-2,3-dideoxy-D-glucuronate 2-epimerase;>dRep_bin029_LFMGBBEC_00468 UDP-2,3-diacetamido-2,3-dideoxy-D-glucuronate 2-epimerase;>dRep_bin351_CKFFBPHM_00106 UDP-2,3-diacetamido-2,3-dideoxy-D-glucuronate 2-epimeras	dRep_bin105_AAEIHAFF_00821	CDS	wbpI	5.1.3.23	UDP-2,3-diacetamido-2,3-dideoxy-D-glucuronate 2-epimerase
AAEIHAFF_00838								24.102050000000002				3	1	1,1701E-07	dRep_bin238_OLNFACLE_01567;dRep_bin074_EHAOMODJ_01332;dRep_bin257_JHFDCHCB_00694;dRep_bin101_BNDDLDCL_01900;dRep_bin053_OMGNPOOB_00587;dRep_bin187_CLPDGDBG_00542;dRep_bin192_GCMBELNN_00448;dRep_bin152_LJMCIADF_01345;dRep_bin068_ENOLAELK_00711;dRep_bin105_AAEIHAFF_00838;dRep_bin090_IPGNHCBJ_00365	dRep_bin238_OLNFACLE_01567;dRep_bin074_EHAOMODJ_01332;dRep_bin257_JHFDCHCB_00694;dRep_bin101_BNDDLDCL_01900	>dRep_bin238_OLNFACLE_01567 Methylmalonyl-CoA carboxyltransferase 5S subunit;>dRep_bin074_EHAOMODJ_01332 Methylmalonyl-CoA carboxyltransferase 5S subunit;>dRep_bin257_JHFDCHCB_00694 Methylmalonyl-CoA carboxyltransferase 5S subunit;>dRep_bin101_BNDDLDCL_019	dRep_bin105_AAEIHAFF_00838	CDS		2.1.3.1	Methylmalonyl-CoA carboxyltransferase 5S subunit
AAEIHAFF_00953			25.22589	24.995369999999998								10	0	1,2933E-60	dRep_bin348_LCLFDNEE_01283;dRep_bin105_AAEIHAFF_00953;dRep_bin339_DBNBAHDK_00279;dRep_bin166_DFIAJFEC_00112;dRep_bin169_PNICKJKO_00881;dRep_bin124_HIHDFGCL_00317;dRep_bin194_MEPDOGGJ_01305;dRep_bin025_CBEJJMLE_01533;dRep_bin152_LJMCIADF_00839;dRep_bin079_GAOGCKND_00312;dRep_bin038_EIGFILKG_00352;dRep_bin068_ENOLAELK_00991	dRep_bin348_LCLFDNEE_01283;dRep_bin105_AAEIHAFF_00953;dRep_bin339_DBNBAHDK_00279;dRep_bin166_DFIAJFEC_00112;dRep_bin169_PNICKJKO_00881;dRep_bin124_HIHDFGCL_00317;dRep_bin194_MEPDOGGJ_01305;dRep_bin025_CBEJJMLE_01533;dRep_bin152_LJMCIADF_00839;dRep_bin079_GAOGCKND_00312;dRep_bin038_EIGFILKG_00352;dRep_bin068_ENOLAELK_00991	>dRep_bin348_LCLFDNEE_01283 DNA-directed RNA polymerase subunit beta;>dRep_bin105_AAEIHAFF_00953 DNA-directed RNA polymerase subunit beta;>dRep_bin339_DBNBAHDK_00279 DNA-directed RNA polymerase subunit beta;>dRep_bin166_DFIAJFEC_00112 DNA-directed RNA poly	dRep_bin105_AAEIHAFF_00953	CDS	rpoB	2.7.7.6	DNA-directed RNA polymerase subunit beta
AAEIHAFF_00954							22.921339999999997					8	1	7,7181E-35	dRep_bin243_JDMELKLC_00227;dRep_bin105_AAEIHAFF_00954	dRep_bin243_JDMELKLC_00227;dRep_bin105_AAEIHAFF_00954	>dRep_bin243_JDMELKLC_00227 DNA-directed RNA polymerase subunit beta;>dRep_bin105_AAEIHAFF_00954 DNA-directed RNA polymerase subunit beta	dRep_bin105_AAEIHAFF_00954	CDS	rpoC	2.7.7.6	DNA-directed RNA polymerase subunit beta'
AAEIHAFF_00969							22.610000000000003					1	1	0,007877	dRep_bin105_AAEIHAFF_00969	dRep_bin105_AAEIHAFF_00969	>dRep_bin105_AAEIHAFF_00969 UDP-glucose 4-epimerase	dRep_bin105_AAEIHAFF_00969	CDS	lnpD	5.1.3.2	UDP-glucose 4-epimerase
AAEIHAFF_01063	27.63034			27.27719	28.813810000000004	27.98625	27.674110000000002	28.24989				4	0	3,3645E-08	dRep_bin057_BNCFHBBO_00377;dRep_bin302_AHDEPDKG_00326;dRep_bin105_AAEIHAFF_01063;dRep_bin096_GNHMEKPF_00522;dRep_bin245_MBCFLKOF_01948;dRep_bin162_JBGCCDIN_01402;dRep_bin072_JOBJPCGA_00009;dRep_bin043_KLAFNACO_00632;dRep_bin010_MFFFGEGD_01264;dRep_bin320_LDBKCCKL_00449;dRep_bin242_LKAIBGGJ_00692;dRep_bin236_BNONDECB_01262;dRep_bin218_ACMPALGF_00622;dRep_bin189_AHHEHGDL_00790;dRep_bin159_ADJJGPBG_01441;dRep_bin094_LBLICAAO_01385;dRep_bin011_KOGMKLNO_01406;dRep_bin330_CODAKHDJ_01494;dRep_bin142_NDNPJBEM_01049;dRep_bin116_CLFDBMOF_00488;dRep_bin082_HBEFABJN_00310;dRep_bin283_NLJJFFAC_00119	dRep_bin057_BNCFHBBO_00377;dRep_bin302_AHDEPDKG_00326;dRep_bin105_AAEIHAFF_01063	>dRep_bin057_BNCFHBBO_00377 Inosine-5-monophosphate dehydrogenase;>dRep_bin302_AHDEPDKG_00326 Inosine-5-monophosphate dehydrogenase;>dRep_bin105_AAEIHAFF_01063 Inosine-5-monophosphate dehydrogenase	dRep_bin105_AAEIHAFF_01063	CDS	guaB	1.1.1.205	Inosine-5'-monophosphate dehydrogenase
AAEIHAFF_01096	24.940379999999998											1	1	1,7966E-05	dRep_bin105_AAEIHAFF_01096	dRep_bin105_AAEIHAFF_01096	>dRep_bin105_AAEIHAFF_01096 Formate--tetrahydrofolate ligase	dRep_bin105_AAEIHAFF_01096	CDS	fhs	6.3.4.3	Formate--tetrahydrofolate ligase
AAEIHAFF_01124								26.72949				2	1	9,0759E-07	dRep_bin293_MEPKGOAN_00097;dRep_bin047_IFFANOMN_00065;dRep_bin269_PNILGKPH_00704;dRep_bin238_OLNFACLE_01472;dRep_bin124_HIHDFGCL_00696;dRep_bin105_AAEIHAFF_01124;dRep_bin079_GAOGCKND_01577;dRep_bin056_EMNHHOJA_01381;dRep_bin321_EJNAAGJG_00783;dRep_bin257_JHFDCHCB_00230;dRep_bin143_PFLDJMPF_01136;dRep_bin340_OFLHNGJM_01032;dRep_bin277_MIPNGEJE_01470;dRep_bin231_CFOLMJBA_00061	dRep_bin293_MEPKGOAN_00097;dRep_bin047_IFFANOMN_00065;dRep_bin269_PNILGKPH_00704;dRep_bin238_OLNFACLE_01472;dRep_bin124_HIHDFGCL_00696;dRep_bin105_AAEIHAFF_01124;dRep_bin079_GAOGCKND_01577;dRep_bin056_EMNHHOJA_01381;dRep_bin321_EJNAAGJG_00783;dRep_bin257_JHFDCHCB_00230;dRep_bin143_PFLDJMPF_01136;dRep_bin340_OFLHNGJM_01032;dRep_bin277_MIPNGEJE_01470;dRep_bin231_CFOLMJBA_00061	>dRep_bin293_MEPKGOAN_00097 30S ribosomal protein S9;>dRep_bin047_IFFANOMN_00065 30S ribosomal protein S9;>dRep_bin269_PNILGKPH_00704 30S ribosomal protein S9;>dRep_bin238_OLNFACLE_01472 30S ribosomal protein S9;>dRep_bin124_HIHDFGCL_00696 30S ribosomal pr	dRep_bin105_AAEIHAFF_01124	CDS	rpsI		30S ribosomal protein S9
AAEIHAFF_01152	26.154100000000003	27.07194	27.14229	26.281539999999996	25.181810000000002		25.51078	26.047729999999998				4	4	2,8936E-17	dRep_bin336_MPGOKPOL_00950;dRep_bin293_MEPKGOAN_01096;dRep_bin109_MJABCPAK_01179;dRep_bin049_MNFBDPNO_01546;dRep_bin257_JHFDCHCB_00918;dRep_bin101_BNDDLDCL_00633;dRep_bin105_AAEIHAFF_01152;dRep_bin354_MMOALAFN_00110	dRep_bin336_MPGOKPOL_00950;dRep_bin293_MEPKGOAN_01096;dRep_bin109_MJABCPAK_01179;dRep_bin049_MNFBDPNO_01546;dRep_bin257_JHFDCHCB_00918	>dRep_bin336_MPGOKPOL_00950 50S ribosomal protein L11;>dRep_bin293_MEPKGOAN_01096 50S ribosomal protein L11;>dRep_bin109_MJABCPAK_01179 50S ribosomal protein L11;>dRep_bin049_MNFBDPNO_01546 50S ribosomal protein L11;>dRep_bin257_JHFDCHCB_00918 50S ribosoma	dRep_bin105_AAEIHAFF_01152	CDS	rplK		50S ribosomal protein L11
AAEIHAFF_01165							25.50461					1	1	0,00048432	dRep_bin125_FADLGGII_00809;dRep_bin105_AAEIHAFF_01165	dRep_bin125_FADLGGII_00809;dRep_bin105_AAEIHAFF_01165	>dRep_bin125_FADLGGII_00809 30S ribosomal protein S1;>dRep_bin105_AAEIHAFF_01165 30S ribosomal protein S1	dRep_bin105_AAEIHAFF_01165	CDS	rpsA_2		30S ribosomal protein S1
AAEIHAFF_01247			23.191380000000002									5	1	1,0891E-15	dRep_bin105_AAEIHAFF_01247	dRep_bin105_AAEIHAFF_01247	>dRep_bin105_AAEIHAFF_01247 Glucose-6-phosphate isomerase	dRep_bin105_AAEIHAFF_01247	CDS	pgi	5.3.1.9	Glucose-6-phosphate isomerase
AAEIHAFF_01274						26.150060000000003						5	1	6,0058E-93	dRep_bin302_AHDEPDKG_00272;dRep_bin348_LCLFDNEE_00630;dRep_bin105_AAEIHAFF_01274;dRep_bin339_DBNBAHDK_01619;dRep_bin277_MIPNGEJE_01440	dRep_bin302_AHDEPDKG_00272;dRep_bin348_LCLFDNEE_00630;dRep_bin105_AAEIHAFF_01274	>dRep_bin302_AHDEPDKG_00272 HPr-like protein Crh;>dRep_bin348_LCLFDNEE_00630 HPr-like protein Crh;>dRep_bin105_AAEIHAFF_01274 HPr-like protein Crh	dRep_bin105_AAEIHAFF_01274	CDS	crh		HPr-like protein Crh
AAEIHAFF_01288	29.39679	29.82083	28.888699999999996	30.023	29.064629999999998	28.535050000000002	28.569679999999998	28.7529				16	4	1,348E-126	dRep_bin292_JIBLDOOH_01787;dRep_bin181_MKGPMPIA_00606;dRep_bin127_FIPNHBCH_00771;dRep_bin105_AAEIHAFF_01288;dRep_bin347_EKGCMFPD_01599;dRep_bin001_GHHJMDAL_00086	dRep_bin292_JIBLDOOH_01787	>dRep_bin292_JIBLDOOH_01787 Bifunctional purine biosynthesis protein PurH	dRep_bin105_AAEIHAFF_01288	CDS	purH		Bifunctional purine biosynthesis protein PurH
AAEIHAFF_01289	25.19069	25.787679999999998	24.988239999999994	24.94181								3	0	1,2913E-15	dRep_bin220_PILICLLL_00966;dRep_bin115_IFKGOGCL_02016;dRep_bin105_AAEIHAFF_01289	dRep_bin220_PILICLLL_00966;dRep_bin115_IFKGOGCL_02016	>dRep_bin220_PILICLLL_00966 IMP cyclohydrolase-like protein;>dRep_bin115_IFKGOGCL_02016 IMP cyclohydrolase-like protein	dRep_bin105_AAEIHAFF_01289	CDS			IMP cyclohydrolase-like protein
AAEIHAFF_01320	27.60633	26.83714	27.391980000000004	28.00282	27.142	27.74458	26.4321	26.123170000000002				14	11	2,095E-174	dRep_bin105_AAEIHAFF_01320;dRep_bin029_LFMGBBEC_01388;dRep_bin230_NINMBMKB_00441;dRep_bin280_IMCGLKKG_00408	dRep_bin105_AAEIHAFF_01320	>dRep_bin105_AAEIHAFF_01320 60 kDa chaperonin	dRep_bin105_AAEIHAFF_01320	CDS	groL		60 kDa chaperonin
AAEIHAFF_01389	26.55665	26.783189999999998	27.99394	28.38451	27.76307	27.23936	28.511830000000003	28.292279999999998				4	2	1,0754E-10	dRep_bin057_BNCFHBBO_00193;dRep_bin105_AAEIHAFF_01389	dRep_bin057_BNCFHBBO_00193;dRep_bin105_AAEIHAFF_01389	>dRep_bin057_BNCFHBBO_00193 30S ribosomal protein S8;>dRep_bin105_AAEIHAFF_01389 30S ribosomal protein S8	dRep_bin105_AAEIHAFF_01389	CDS	rpsH		30S ribosomal protein S8
AAEIHAFF_01471	26.21356		25.671280000000003									2	2	4,7222E-07	dRep_bin006_HPJGJCAG_01240;dRep_bin182_EMCFODCD_00820;dRep_bin170_LICLFCFF_01229;dRep_bin305_FCIEFIHE_01069;dRep_bin014_CHIHIMAN_01666;dRep_bin339_DBNBAHDK_01473;dRep_bin152_LJMCIADF_00377;dRep_bin056_EMNHHOJA_01634;dRep_bin340_OFLHNGJM_00549;dRep_bin105_AAEIHAFF_01471;dRep_bin349_AMCJEEEG_01021;dRep_bin071_JHMCIJPE_00244;dRep_bin290_OIOJKBNK_00925;dRep_bin256_KEMNAOBC_00667;dRep_bin092_OOJCPDEA_00173;dRep_bin035_JBNPBOKG_00111;dRep_bin346_JKFDGFHC_01406;dRep_bin289_KALDCNNP_00852;dRep_bin224_NFENHJGB_00838;dRep_bin128_JPBBHEMA_00685;dRep_bin063_PJANDMAH_01585;dRep_bin036_DOKCEIDH_00293;dRep_bin034_MEBMFDLL_01420;dRep_bin285_IPHKFJAN_00040;dRep_bin271_NGFBCHKH_01233;dRep_bin232_JGAEDAFA_00411;dRep_bin137_NABPABPB_00329;dRep_bin113_LIFKCGBF_01779;dRep_bin064_CMDDCDKG_00556;dRep_bin002_CFBNDKDN_00103;dRep_bin045_GJACFFBC_00424;dRep_bin183_FPGIOKBG_00003;dRep_bin316_FNLHDNEO_01144;dRep_bin018_ILOONPIC_00045;dRep_bin076_GLAOFBEC_00013	dRep_bin006_HPJGJCAG_01240;dRep_bin182_EMCFODCD_00820;dRep_bin170_LICLFCFF_01229;dRep_bin305_FCIEFIHE_01069;dRep_bin014_CHIHIMAN_01666;dRep_bin339_DBNBAHDK_01473;dRep_bin152_LJMCIADF_00377;dRep_bin056_EMNHHOJA_01634;dRep_bin340_OFLHNGJM_00549;dRep_bin105_AAEIHAFF_01471;dRep_bin349_AMCJEEEG_01021;dRep_bin071_JHMCIJPE_00244;dRep_bin290_OIOJKBNK_00925;dRep_bin256_KEMNAOBC_00667;dRep_bin092_OOJCPDEA_00173;dRep_bin035_JBNPBOKG_00111;dRep_bin346_JKFDGFHC_01406;dRep_bin289_KALDCNNP_00852;dRep_bin224_NFENHJGB_00838;dRep_bin128_JPBBHEMA_00685;dRep_bin063_PJANDMAH_01585;dRep_bin036_DOKCEIDH_00293;dRep_bin034_MEBMFDLL_01420;dRep_bin285_IPHKFJAN_00040;dRep_bin271_NGFBCHKH_01233;dRep_bin232_JGAEDAFA_00411;dRep_bin137_NABPABPB_00329;dRep_bin113_LIFKCGBF_01779;dRep_bin064_CMDDCDKG_00556;dRep_bin002_CFBNDKDN_00103;dRep_bin045_GJACFFBC_00424;dRep_bin183_FPGIOKBG_00003;dRep_bin316_FNLHDNEO_01144;dRep_bin018_ILOONPIC_00045;dRep_bin076_GLAOFBEC_00013	>dRep_bin006_HPJGJCAG_01240 Putative K(+)-stimulated pyrophosphate-energized sodium pump;>dRep_bin182_EMCFODCD_00820 Putative K(+)-stimulated pyrophosphate-energized sodium pump;>dRep_bin170_LICLFCFF_01229 Putative K(+)-stimulated pyrophosphate-energized s	dRep_bin105_AAEIHAFF_01471	CDS	hppA1	3.6.1.1	Putative K(+)-stimulated pyrophosphate-energized sodium pump
AAEIHAFF_01478					25.06357							5	1	3,6059E-73	dRep_bin203_CLFNNOCF_01682;dRep_bin347_EKGCMFPD_01504;dRep_bin284_DEHKNOBF_01057;dRep_bin260_HELEPKJL_00015;dRep_bin310_IMBAFDIF_00287;dRep_bin134_HIAPAODO_00846;dRep_bin062_BOFBFLDA_01435;dRep_bin300_MJPPENNL_01196;dRep_bin201_OLKDIBOK_02047;dRep_bin105_AAEIHAFF_01478;dRep_bin100_CODMOHGB_01221;dRep_bin088_DNGPPFDK_00866;dRep_bin277_MIPNGEJE_00690;dRep_bin166_DFIAJFEC_00146;dRep_bin161_JMKPMHCO_01114;dRep_bin059_OOBKFNPP_00125;dRep_bin046_GKEJLOEK_01062;dRep_bin091_MAFACGAD_00248;dRep_bin017_FGFLFOPJ_00727;dRep_bin354_MMOALAFN_00741;dRep_bin324_IPNHOHFK_00313;dRep_bin323_FBBLPLCG_01264;dRep_bin309_BIOHLCGG_01306;dRep_bin273_FGAEBHNP_00470;dRep_bin261_FJICAFFM_01100;dRep_bin148_NAJFKJMD_00795;dRep_bin115_IFKGOGCL_00123;dRep_bin069_EGGEOGDC_01056;dRep_bin344_CJJBDGAA_01161;dRep_bin249_OFIIEIDJ_00715;dRep_bin220_PILICLLL_00990;dRep_bin134_HIAPAODO_01436;dRep_bin065_DFABHCBI_00344;dRep_bin032_PPNIGLME_00203;dRep_bin270_GEJAHNCN_01587;dRep_bin065_DFABHCBI_00249;dRep_bin278_BFCONKOE_01054;dRep_bin016_JLGAHGOJ_00641;dRep_bin328_GIGKNKPJ_01462;dRep_bin308_JBPDGLPP_01172;dRep_bin303_DDDNDJCF_01320;dRep_bin254_GJDPFAEA_00870;dRep_bin234_ECABPBME_00536;dRep_bin186_HJAAFFNP_01789;dRep_bin167_BLMEBMNN_01296;dRep_bin107_EFNBPDOP_00511;dRep_bin077_DNNBMPMC_01864;dRep_bin066_AJACLPEE_01033;dRep_bin047_IFFANOMN_00697;dRep_bin135_HHKACLPM_00107;dRep_bin303_DDDNDJCF_00377;dRep_bin306_FGHMKMMP_01595;dRep_bin211_LGJEFJIK_00450;dRep_bin007_LNLEAAAN_01312;dRep_bin344_CJJBDGAA_01611;dRep_bin031_BNHMFOII_01628;dRep_bin353_PPDHLNJB_02118;dRep_bin254_GJDPFAEA_00869;dRep_bin094_LBLICAAO_00342;dRep_bin047_IFFANOMN_01357;dRep_bin120_EKLBOPNC_01832;dRep_bin168_HKDILBFE_01442;dRep_bin099_DNDAGJEJ_00392;dRep_bin215_ABBFGCAF_00798;dRep_bin029_LFMGBBEC_01628;dRep_bin240_LDBBGJKG_01094;dRep_bin279_IAEFEPEN_01491;dRep_bin130_OIFFANPF_01666;dRep_bin319_PBDBJGCJ_00268;dRep_bin017_FGFLFOPJ_00820;dRep_bin082_HBEFABJN_01328;dRep_bin245_MBCFLKOF_01762;dRep_bin027_OFJCHLJJ_00790;dRep_bin108_BPNCDINP_00911;dRep_bin308_JBPDGLPP_01750;dRep_bin193_GDMDPNNM_00480;dRep_bin344_CJJBDGAA_02078;dRep_bin049_MNFBDPNO_01413;dRep_bin096_GNHMEKPF_00097;dRep_bin104_EGLEJOLM_01934;dRep_bin339_DBNBAHDK_02499;dRep_bin321_EJNAAGJG_00755;dRep_bin273_FGAEBHNP_00835;dRep_bin250_NMCAMJIO_00087;dRep_bin247_EKGBJCBM_00317;dRep_bin148_NAJFKJMD_01189;dRep_bin337_FHKPNFDB_01633;dRep_bin320_LDBKCCKL_01786;dRep_bin304_JDNJGFKH_01982;dRep_bin286_OEMIJKMC_01141;dRep_bin231_CFOLMJBA_00953;dRep_bin162_JBGCCDIN_01636;dRep_bin126_PPDNCIBN_01067;dRep_bin109_MJABCPAK_00317;dRep_bin057_BNCFHBBO_00597;dRep_bin288_KOIAAABN_00012;dRep_bin263_OLEFOGIJ_00295;dRep_bin304_JDNJGFKH_00179;dRep_bin208_DHPGEIBC_00457;dRep_bin189_AHHEHGDL_01282;dRep_bin177_HLHGKLFL_00741;dRep_bin140_ACFAKGIL_00319;dRep_bin105_AAEIHAFF_01411;dRep_bin082_HBEFABJN_00692;dRep_bin010_MFFFGEGD_00717;dRep_bin005_CNDFPKJG_01705;dRep_bin287_DONBGKDH_01836;dRep_bin094_LBLICAAO_00388;dRep_bin058_GJKCICJN_00227;dRep_bin293_MEPKGOAN_00829;dRep_bin218_ACMPALGF_00229;dRep_bin205_LKIOOBKC_00417;dRep_bin172_ALNHGLMD_01439;dRep_bin159_ADJJGPBG_01342;dRep_bin143_PFLDJMPF_01248;dRep_bin101_BNDDLDCL_01982;dRep_bin091_MAFACGAD_01619;dRep_bin072_JOBJPCGA_00130;dRep_bin011_KOGMKLNO_01272;dRep_bin164_KHMELCCL_01402;dRep_bin305_FCIEFIHE_00371;dRep_bin222_GGCAJABB_00745;dRep_bin006_HPJGJCAG_01874;dRep_bin286_OEMIJKMC_01354;dRep_bin126_PPDNCIBN_00282;dRep_bin185_OOOLKACK_00819;dRep_bin043_KLAFNACO_00900;dRep_bin231_CFOLMJBA_01529;dRep_bin237_KJDLIPND_00869;dRep_bin147_EJLBNEBE_00138;dRep_bin186_HJAAFFNP_01790;dRep_bin081_JDPCKDNP_00172;dRep_bin069_EGGEOGDC_00890;dRep_bin282_PKAAPBFP_00016;dRep_bin206_OIIBOIAK_00984;dRep_bin161_JMKPMHCO_00782;dRep_bin278_BFCONKOE_00310;dRep_bin260_HELEPKJL_01944;dRep_bin336_MPGOKPOL_00897	dRep_bin203_CLFNNOCF_01682;dRep_bin347_EKGCMFPD_01504;dRep_bin284_DEHKNOBF_01057;dRep_bin260_HELEPKJL_00015;dRep_bin310_IMBAFDIF_00287;dRep_bin134_HIAPAODO_00846;dRep_bin062_BOFBFLDA_01435	>dRep_bin203_CLFNNOCF_01682 Glutamine synthetase;>dRep_bin347_EKGCMFPD_01504 Glutamine synthetase;>dRep_bin284_DEHKNOBF_01057 Glutamine synthetase;>dRep_bin260_HELEPKJL_00015 Glutamine synthetase;>dRep_bin310_IMBAFDIF_00287 Glutamine synthetase;>dRep_bin13	dRep_bin105_AAEIHAFF_01478	CDS	glnA_2	6.3.1.2	Glutamine synthetase
AAEIHAFF_01497	26.89308	26.748419999999996	27.916960000000003	26.973229999999997	28.00694	28.248709999999996	27.5403	27.851210000000002				5	0	1,8554E-71	dRep_bin105_AAEIHAFF_01497	dRep_bin105_AAEIHAFF_01497	>dRep_bin105_AAEIHAFF_01497 Glyceraldehyde-3-phosphate dehydrogenase	dRep_bin105_AAEIHAFF_01497	CDS	gap	1.2.1.12	Glyceraldehyde-3-phosphate dehydrogenase
AAEIHAFF_01501	28.615830000000003	28.18546	29.82558	29.92139	30.37161	30.505309999999998	29.835990000000002	30.137000000000004				19	11	0	dRep_bin191_NGFJMLOL_01017;dRep_bin307_AOCKHIKF_00836;dRep_bin232_JGAEDAFA_01923;dRep_bin098_DDEBHDKK_00570;dRep_bin073_AKBCEHHO_00429;dRep_bin329_GDOHKPBL_00208;dRep_bin289_KALDCNNP_00441;dRep_bin219_HGPEELLF_00854;dRep_bin047_IFFANOMN_01143;dRep_bin354_MMOALAFN_00793;dRep_bin093_PGADNPMG_00569;dRep_bin327_EPEGNBAG_00694;dRep_bin123_PJKBFKBB_01119;dRep_bin325_EIIGOGHN_01520;dRep_bin335_JIOGNAPG_00036;dRep_bin082_HBEFABJN_00133;dRep_bin204_INMOGLDN_01573;dRep_bin174_LJJOKEME_01467;dRep_bin050_FBECOHCI_00562;dRep_bin264_DNFFGNEG_01376;dRep_bin252_NDAKLAGD_00172;dRep_bin246_MMFBABHK_01476;dRep_bin202_HEPPALPH_01125;dRep_bin004_OCHNPJPO_00139;dRep_bin318_IEDEJOFJ_00360;dRep_bin244_LBFMHLBI_01421;dRep_bin223_PIMCDKJI_00814;dRep_bin186_HJAAFFNP_00783;dRep_bin133_NOBPDBPA_02278;dRep_bin105_AAEIHAFF_01501;dRep_bin005_CNDFPKJG_01278;dRep_bin317_ABPHNCOD_01283;dRep_bin007_LNLEAAAN_00664;dRep_bin312_MJFEFHMP_01049;dRep_bin129_GADIAMAA_00560;dRep_bin065_DFABHCBI_00478;dRep_bin287_DONBGKDH_00800;dRep_bin238_OLNFACLE_00723;dRep_bin179_HFEIPPPA_01221;dRep_bin167_BLMEBMNN_00475;dRep_bin125_FADLGGII_00749;dRep_bin103_IGJBLKMC_00712;dRep_bin088_DNGPPFDK_00743;dRep_bin048_PABMBHAL_01780;dRep_bin348_LCLFDNEE_00919;dRep_bin278_BFCONKOE_00886;dRep_bin097_CBBLIPAN_00374;dRep_bin081_JDPCKDNP_01011;dRep_bin032_PPNIGLME_00057;dRep_bin272_LGBDGEIM_01074;dRep_bin049_MNFBDPNO_01322;dRep_bin013_IODPEDPB_01734;dRep_bin299_AKNBKJGM_01764;dRep_bin266_JFOCEDAE_00776;dRep_bin216_JNJMCPHB_01258;dRep_bin021_AJDDCGJC_00529;dRep_bin316_FNLHDNEO_00493;dRep_bin314_KCHFPLIP_01715;dRep_bin296_FDMPKPOH_01763;dRep_bin275_NIDIBBDA_00322;dRep_bin118_FGIOKLBC_00279;dRep_bin037_GEAOEKHA_00835;dRep_bin028_GKEJLBAM_01763;dRep_bin331_HPKAPHAF_00024;dRep_bin301_NJFJIJGA_01995;dRep_bin149_GABCHCDI_01177;dRep_bin057_BNCFHBBO_00918;dRep_bin040_EIFLLDOA_01272;dRep_bin265_LFKFBJPC_01505;dRep_bin022_BOEAFNDE_00753;dRep_bin210_AGEDAEIA_00448	dRep_bin191_NGFJMLOL_01017	>dRep_bin191_NGFJMLOL_01017 Aspartate aminotransferase	dRep_bin105_AAEIHAFF_01501	CDS	patA_4	2.6.1.-	Putative N-acetyl-LL-diaminopimelate aminotransferase
AAEIHAFF_01511					24.55051	25.20068						2	2	1,5218E-06	dRep_bin238_OLNFACLE_01098;dRep_bin125_FADLGGII_01236;dRep_bin105_AAEIHAFF_01511;dRep_bin057_BNCFHBBO_00376	dRep_bin238_OLNFACLE_01098;dRep_bin125_FADLGGII_01236;dRep_bin105_AAEIHAFF_01511;dRep_bin057_BNCFHBBO_00376	>dRep_bin238_OLNFACLE_01098 Uracil phosphoribosyltransferase;>dRep_bin125_FADLGGII_01236 Uracil phosphoribosyltransferase;>dRep_bin105_AAEIHAFF_01511 Uracil phosphoribosyltransferase;>dRep_bin057_BNCFHBBO_00376 Uracil phosphoribosyltransferase	dRep_bin105_AAEIHAFF_01511	CDS	upp	2.4.2.9	Uracil phosphoribosyltransferase
AAEIHAFF_01512	25.53774		25.70432	26.565419999999996								4	2	6,3671E-17	dRep_bin123_PJKBFKBB_00851;dRep_bin339_DBNBAHDK_00855;dRep_bin105_AAEIHAFF_01512;dRep_bin169_PNICKJKO_00811;dRep_bin056_EMNHHOJA_00794	dRep_bin123_PJKBFKBB_00851;dRep_bin339_DBNBAHDK_00855;dRep_bin105_AAEIHAFF_01512;dRep_bin169_PNICKJKO_00811;dRep_bin056_EMNHHOJA_00794	>dRep_bin123_PJKBFKBB_00851 30S ribosomal protein S19;>dRep_bin339_DBNBAHDK_00855 30S ribosomal protein S19;>dRep_bin105_AAEIHAFF_01512 30S ribosomal protein S19;>dRep_bin169_PNICKJKO_00811 30S ribosomal protein S19;>dRep_bin056_EMNHHOJA_00794 30S ribosoma	dRep_bin105_AAEIHAFF_01512	CDS	rpsS		30S ribosomal protein S19
AAEIHAFF_01517				23.83836								1	1	0,0049273	dRep_bin302_AHDEPDKG_00586;dRep_bin105_AAEIHAFF_01517;dRep_bin085_MBHLGCDB_00715;dRep_bin336_MPGOKPOL_02169;dRep_bin257_JHFDCHCB_00548	dRep_bin302_AHDEPDKG_00586;dRep_bin105_AAEIHAFF_01517;dRep_bin085_MBHLGCDB_00715;dRep_bin336_MPGOKPOL_02169;dRep_bin257_JHFDCHCB_00548	>dRep_bin302_AHDEPDKG_00586 30S ribosomal protein S10;>dRep_bin105_AAEIHAFF_01517 30S ribosomal protein S10;>dRep_bin085_MBHLGCDB_00715 30S ribosomal protein S10;>dRep_bin336_MPGOKPOL_02169 30S ribosomal protein S10;>dRep_bin257_JHFDCHCB_00548 30S ribosoma	dRep_bin105_AAEIHAFF_01517	CDS	rpsJ		30S ribosomal protein S10
AAEIHAFF_01590	28.62954	29.354750000000003	29.992399999999996	30.023139999999998	30.21083	30.89937	29.70792	30.0531				20	3	1,2194E-156	dRep_bin191_NGFJMLOL_01259;dRep_bin296_FDMPKPOH_00205;dRep_bin210_AGEDAEIA_00766;dRep_bin195_DDMDFNOK_00108;dRep_bin334_NAPFFNLD_01038;dRep_bin211_LGJEFJIK_01419;dRep_bin295_EJGKDKNE_00091;dRep_bin341_NBEGOKEF_00239;dRep_bin020_JCCELPIE_00888;dRep_bin283_NLJJFFAC_01280;dRep_bin274_DBJHKLDG_00956;dRep_bin016_JLGAHGOJ_01458;dRep_bin108_BPNCDINP_01604;dRep_bin008_MNDMJLEI_00335;dRep_bin270_GEJAHNCN_01137;dRep_bin005_CNDFPKJG_01352;dRep_bin060_HNFNENOI_00669;dRep_bin146_LCCIBLJG_00571;dRep_bin326_CEEAIPKF_00877;dRep_bin333_EFOKIBLA_00153;dRep_bin168_HKDILBFE_01558;dRep_bin244_LBFMHLBI_01599;dRep_bin096_GNHMEKPF_00231;dRep_bin237_KJDLIPND_00220;dRep_bin188_EJILNMPE_01240;dRep_bin251_FGNGCJDD_00076;dRep_bin227_IJODGBOI_00103;dRep_bin151_AHBJLMBI_00923;dRep_bin116_CLFDBMOF_00729;dRep_bin141_GMCOOECB_00805;dRep_bin350_EKOOEEGH_00925;dRep_bin132_FAPBDCMG_00754;dRep_bin080_CBEBHNNK_00317;dRep_bin051_HIEIDCID_00971;dRep_bin228_CECEDMJG_00643;dRep_bin009_KMMEHEKA_00811;dRep_bin318_IEDEJOFJ_01292;dRep_bin207_OHNPDPFI_00717;dRep_bin345_GLPJDLOI_00471;dRep_bin144_NPHACCKF_01507;dRep_bin118_FGIOKLBC_00082;dRep_bin355_KJEFNADK_00986;dRep_bin293_MEPKGOAN_00544;dRep_bin230_NINMBMKB_00674;dRep_bin014_CHIHIMAN_00029;dRep_bin218_ACMPALGF_00178;dRep_bin165_HMDFFMMM_01108;dRep_bin094_LBLICAAO_00513;dRep_bin076_GLAOFBEC_01428;dRep_bin267_LJCFMAFA_00110;dRep_bin048_PABMBHAL_00321;dRep_bin147_EJLBNEBE_02032;dRep_bin128_JPBBHEMA_00007;dRep_bin042_MMFCLHOO_01063;dRep_bin351_CKFFBPHM_00913;dRep_bin123_PJKBFKBB_00095;dRep_bin330_CODAKHDJ_00708;dRep_bin252_NDAKLAGD_01294;dRep_bin233_BAGKKAOB_01574;dRep_bin217_MJCEAEPB_00244;dRep_bin110_JGOEJECF_00272;dRep_bin109_MJABCPAK_00670;dRep_bin101_BNDDLDCL_01055;dRep_bin092_OOJCPDEA_00344;dRep_bin074_EHAOMODJ_00824;dRep_bin336_MPGOKPOL_02107;dRep_bin290_OIOJKBNK_01058;dRep_bin264_DNFFGNEG_00269;dRep_bin256_KEMNAOBC_01330;dRep_bin246_MMFBABHK_01553;dRep_bin166_DFIAJFEC_00041;dRep_bin153_JGABJFBF_00098;dRep_bin143_PFLDJMPF_00060;dRep_bin106_BKDHGPBE_01156;dRep_bin071_JHMCIJPE_01039;dRep_bin250_NMCAMJIO_00472;dRep_bin312_MJFEFHMP_01194;dRep_bin194_MEPDOGGJ_00657;dRep_bin129_GADIAMAA_01832;dRep_bin061_ONFGDLGO_01341;dRep_bin030_OGPDLGOC_01109;dRep_bin025_CBEJJMLE_00255;dRep_bin223_PIMCDKJI_01311;dRep_bin204_INMOGLDN_00399;dRep_bin202_HEPPALPH_00661;dRep_bin105_AAEIHAFF_01590;dRep_bin056_EMNHHOJA_01586;dRep_bin174_LJJOKEME_01552;dRep_bin057_BNCFHBBO_00981;dRep_bin348_LCLFDNEE_01410;dRep_bin339_DBNBAHDK_00024;dRep_bin321_EJNAAGJG_00897;dRep_bin273_FGAEBHNP_01096;dRep_bin248_CCDFPECI_01765;dRep_bin124_HIHDFGCL_01059;dRep_bin068_ENOLAELK_01049;dRep_bin038_EIGFILKG_00020;dRep_bin276_EHNFLEBP_00417;dRep_bin152_LJMCIADF_00769;dRep_bin115_IFKGOGCL_00005;dRep_bin099_DNDAGJEJ_00435;dRep_bin085_MBHLGCDB_01722;dRep_bin079_GAOGCKND_00892;dRep_bin026_HNPIIINL_00985;dRep_bin353_PPDHLNJB_01438;dRep_bin319_PBDBJGCJ_01331;dRep_bin291_EILOACJB_00194;dRep_bin241_LMMMGDNI_00361;dRep_bin091_MAFACGAD_00751;dRep_bin303_DDDNDJCF_01255;dRep_bin216_JNJMCPHB_01481;dRep_bin184_MBMMJHKO_01167;dRep_bin161_JMKPMHCO_00103;dRep_bin021_AJDDCGJC_01597;dRep_bin095_HOBNOEEF_00033;dRep_bin059_OOBKFNPP_00633;dRep_bin018_ILOONPIC_00093;dRep_bin306_FGHMKMMP_00476;dRep_bin175_HANCENAK_00082;dRep_bin040_EIFLLDOA_01832;dRep_bin166_DFIAJFEC_00288;dRep_bin085_MBHLGCDB_01583	dRep_bin191_NGFJMLOL_01259	>dRep_bin191_NGFJMLOL_01259 Aspartate--tRNA ligase	dRep_bin105_AAEIHAFF_01590	CDS	aspS	6.1.1.12	Aspartate--tRNA ligase
AAEIHAFF_01614			23.50942									1	1	0,00094396	dRep_bin105_AAEIHAFF_01614;dRep_bin323_FBBLPLCG_00711;dRep_bin283_NLJJFFAC_00748;dRep_bin166_DFIAJFEC_00715;dRep_bin146_LCCIBLJG_00064	dRep_bin105_AAEIHAFF_01614;dRep_bin323_FBBLPLCG_00711;dRep_bin283_NLJJFFAC_00748;dRep_bin166_DFIAJFEC_00715;dRep_bin146_LCCIBLJG_00064	>dRep_bin105_AAEIHAFF_01614 NADP-reducing hydrogenase subunit HndB;>dRep_bin323_FBBLPLCG_00711 NADP-reducing hydrogenase subunit HndB;>dRep_bin283_NLJJFFAC_00748 hypothetical protein;>dRep_bin166_DFIAJFEC_00715 NADP-reducing hydrogenase subunit HndB;>dRep_	dRep_bin105_AAEIHAFF_01614	CDS	hndB	1.12.1.3	NADP-reducing hydrogenase subunit HndB
AAEIHAFF_01653					25.871850000000006	27.01648	25.28986	24.77455				6	5	7,0178E-18	dRep_bin048_PABMBHAL_00336;dRep_bin268_LKMHIMLG_01179;dRep_bin293_MEPKGOAN_00891;dRep_bin143_PFLDJMPF_01012;dRep_bin185_OOOLKACK_01251;dRep_bin090_IPGNHCBJ_01093;dRep_bin087_FCLGAPPI_01147;dRep_bin058_GJKCICJN_01546;dRep_bin105_AAEIHAFF_01653;dRep_bin270_GEJAHNCN_00429;dRep_bin006_HPJGJCAG_00363	dRep_bin048_PABMBHAL_00336	>dRep_bin048_PABMBHAL_00336 Chaperone protein HtpG	dRep_bin105_AAEIHAFF_01653	CDS	htpG		Chaperone protein HtpG
AAEIHAFF_01659	24.158920000000002		25.063399999999998	24.11553								2	2	3,5621E-24	dRep_bin302_AHDEPDKG_00039;dRep_bin339_DBNBAHDK_01074;dRep_bin336_MPGOKPOL_02459;dRep_bin323_FBBLPLCG_00639;dRep_bin277_MIPNGEJE_00428;dRep_bin147_EJLBNEBE_00244;dRep_bin057_BNCFHBBO_00244;dRep_bin166_DFIAJFEC_00506;dRep_bin105_AAEIHAFF_01659	dRep_bin302_AHDEPDKG_00039;dRep_bin339_DBNBAHDK_01074;dRep_bin336_MPGOKPOL_02459;dRep_bin323_FBBLPLCG_00639;dRep_bin277_MIPNGEJE_00428;dRep_bin147_EJLBNEBE_00244;dRep_bin057_BNCFHBBO_00244;dRep_bin166_DFIAJFEC_00506;dRep_bin105_AAEIHAFF_01659	>dRep_bin302_AHDEPDKG_00039 putative zinc-ribbon domain protein;>dRep_bin339_DBNBAHDK_01074 putative zinc-ribbon domain protein;>dRep_bin336_MPGOKPOL_02459 putative zinc-ribbon domain protein;>dRep_bin323_FBBLPLCG_00639 putative zinc-ribbon domain protein;	dRep_bin105_AAEIHAFF_01659	CDS			putative zinc-ribbon domain protein
AAEIHAFF_01699		23.23771	23.20127									2	1	0,00017256	dRep_bin035_JBNPBOKG_01195;dRep_bin126_PPDNCIBN_01018;dRep_bin305_FCIEFIHE_00446;dRep_bin231_CFOLMJBA_01036;dRep_bin114_FJHJKHGL_01424;dRep_bin105_AAEIHAFF_01699;dRep_bin268_LKMHIMLG_01117;dRep_bin031_BNHMFOII_01346;dRep_bin321_EJNAAGJG_01026;dRep_bin324_IPNHOHFK_01645;dRep_bin236_BNONDECB_01150;dRep_bin055_IBMMJAEE_00573;dRep_bin340_OFLHNGJM_00320;dRep_bin076_GLAOFBEC_01385;dRep_bin343_JCMCKBGF_00786	dRep_bin035_JBNPBOKG_01195;dRep_bin126_PPDNCIBN_01018;dRep_bin305_FCIEFIHE_00446;dRep_bin231_CFOLMJBA_01036;dRep_bin114_FJHJKHGL_01424;dRep_bin105_AAEIHAFF_01699;dRep_bin268_LKMHIMLG_01117;dRep_bin031_BNHMFOII_01346;dRep_bin321_EJNAAGJG_01026;dRep_bin324_IPNHOHFK_01645;dRep_bin236_BNONDECB_01150;dRep_bin055_IBMMJAEE_00573;dRep_bin340_OFLHNGJM_00320;dRep_bin076_GLAOFBEC_01385;dRep_bin343_JCMCKBGF_00786	>dRep_bin035_JBNPBOKG_01195 Pseudouridine-5-phosphate glycosidase;>dRep_bin126_PPDNCIBN_01018 Pseudouridine-5-phosphate glycosidase;>dRep_bin305_FCIEFIHE_00446 Pseudouridine-5-phosphate glycosidase;>dRep_bin231_CFOLMJBA_01036 Pseudouridine-5-phosphate	dRep_bin105_AAEIHAFF_01699	CDS	psuG	4.2.1.70	Pseudouridine-5'-phosphate glycosidase
AAEIHAFF_01720								23.49826				6	1	4,9058E-104	dRep_bin095_HOBNOEEF_02007;dRep_bin297_EDHEEICA_00996;dRep_bin287_DONBGKDH_00529;dRep_bin203_CLFNNOCF_02530;dRep_bin145_KMJJJOEJ_00745;dRep_bin328_GIGKNKPJ_01323;dRep_bin308_JBPDGLPP_01130;dRep_bin306_FGHMKMMP_00318;dRep_bin282_PKAAPBFP_00465;dRep_bin211_LGJEFJIK_00345;dRep_bin139_KGAJINND_00945;dRep_bin127_FIPNHBCH_00052;dRep_bin095_HOBNOEEF_01888;dRep_bin095_HOBNOEEF_01790;dRep_bin091_MAFACGAD_01162;dRep_bin088_DNGPPFDK_00714;dRep_bin075_EPEMMOCL_00488;dRep_bin134_HIAPAODO_00290;dRep_bin160_EFKMPBOM_01967;dRep_bin154_JGOKHKLI_00778;dRep_bin016_JLGAHGOJ_00450;dRep_bin221_LMGNIMOJ_00494;dRep_bin262_LLCGOPIE_00946;dRep_bin321_EJNAAGJG_00981;dRep_bin310_IMBAFDIF_00300;dRep_bin250_NMCAMJIO_00649;dRep_bin247_EKGBJCBM_00054;dRep_bin143_PFLDJMPF_00817;dRep_bin124_HIHDFGCL_01300;dRep_bin114_FJHJKHGL_01242;dRep_bin105_AAEIHAFF_01720;dRep_bin074_EHAOMODJ_01300;dRep_bin026_HNPIIINL_00948;dRep_bin177_HLHGKLFL_00479;dRep_bin146_LCCIBLJG_00787;dRep_bin005_CNDFPKJG_00738;dRep_bin325_EIIGOGHN_00065;dRep_bin303_DDDNDJCF_01078;dRep_bin266_JFOCEDAE_00989;dRep_bin181_MKGPMPIA_00365;dRep_bin089_PAJFOJBN_02097;dRep_bin047_IFFANOMN_00393;dRep_bin024_OLHDGABE_01301;dRep_bin023_HGFJFKAI_01284;dRep_bin017_FGFLFOPJ_00125;dRep_bin081_JDPCKDNP_01256;dRep_bin065_DFABHCBI_01254;dRep_bin001_GHHJMDAL_01184	dRep_bin095_HOBNOEEF_02007;dRep_bin297_EDHEEICA_00996;dRep_bin287_DONBGKDH_00529;dRep_bin203_CLFNNOCF_02530;dRep_bin145_KMJJJOEJ_00745;dRep_bin328_GIGKNKPJ_01323;dRep_bin308_JBPDGLPP_01130;dRep_bin306_FGHMKMMP_00318;dRep_bin282_PKAAPBFP_00465;dRep_bin211_LGJEFJIK_00345;dRep_bin139_KGAJINND_00945;dRep_bin127_FIPNHBCH_00052;dRep_bin095_HOBNOEEF_01888;dRep_bin095_HOBNOEEF_01790;dRep_bin091_MAFACGAD_01162;dRep_bin088_DNGPPFDK_00714;dRep_bin075_EPEMMOCL_00488;dRep_bin134_HIAPAODO_00290;dRep_bin160_EFKMPBOM_01967;dRep_bin154_JGOKHKLI_00778;dRep_bin016_JLGAHGOJ_00450;dRep_bin221_LMGNIMOJ_00494	>dRep_bin095_HOBNOEEF_02007 30S ribosomal protein S13;>dRep_bin297_EDHEEICA_00996 30S ribosomal protein S13;>dRep_bin287_DONBGKDH_00529 30S ribosomal protein S13;>dRep_bin203_CLFNNOCF_02530 30S ribosomal protein S13;>dRep_bin145_KMJJJOEJ_00745 30S ribosoma	dRep_bin105_AAEIHAFF_01720	CDS	rpsM		30S ribosomal protein S13
AAEIHAFF_01722	27.485079999999996	26.02045	29.51452	27.37923	24.817390000000003	24.51063		26.18537				9	7	3,3244E-91	dRep_bin228_CECEDMJG_01481;dRep_bin042_MMFCLHOO_00916;dRep_bin353_PPDHLNJB_01963;dRep_bin270_GEJAHNCN_00839;dRep_bin268_LKMHIMLG_01171;dRep_bin215_ABBFGCAF_00783;dRep_bin105_AAEIHAFF_01722;dRep_bin049_MNFBDPNO_01409;dRep_bin221_LMGNIMOJ_00496;dRep_bin355_KJEFNADK_00793;dRep_bin327_EPEGNBAG_00624;dRep_bin046_GKEJLOEK_00400;dRep_bin247_EKGBJCBM_00056;dRep_bin114_FJHJKHGL_01244;dRep_bin109_MJABCPAK_00910;dRep_bin222_GGCAJABB_00434	dRep_bin228_CECEDMJG_01481;dRep_bin042_MMFCLHOO_00916	>dRep_bin228_CECEDMJG_01481 30S ribosomal protein S4;>dRep_bin042_MMFCLHOO_00916 30S ribosomal protein S4	dRep_bin105_AAEIHAFF_01722	CDS	rpsD		30S ribosomal protein S4
AAEIHAFF_01723	29.2999	29.566509999999997	30.05931	29.04828	28.991699999999998	28.57391	29.705099999999998	29.51452				9	6	1,4542E-37	dRep_bin013_IODPEDPB_00467;dRep_bin247_EKGBJCBM_00057;dRep_bin161_JMKPMHCO_00432;dRep_bin105_AAEIHAFF_01723;dRep_bin277_MIPNGEJE_00757;dRep_bin023_HGFJFKAI_00810;dRep_bin166_DFIAJFEC_00239;dRep_bin253_CPMOAOBJ_00188;dRep_bin339_DBNBAHDK_00879	dRep_bin013_IODPEDPB_00467	>dRep_bin013_IODPEDPB_00467 DNA-directed RNA polymerase subunit alpha	dRep_bin105_AAEIHAFF_01723	CDS	rpoA	2.7.7.6	DNA-directed RNA polymerase subunit alpha
AAEIHAFF_01850		25.8525										5	1	1,5091E-19	dRep_bin105_AAEIHAFF_01850;dRep_bin089_PAJFOJBN_01135	dRep_bin105_AAEIHAFF_01850;dRep_bin089_PAJFOJBN_01135	>dRep_bin105_AAEIHAFF_01850 Reverse rubrerythrin-1;>dRep_bin089_PAJFOJBN_01135 Reverse rubrerythrin-1	dRep_bin105_AAEIHAFF_01850	CDS	rbr3A	1.11.1.1	Reverse rubrerythrin-1
AAEIHAFF_01916	29.02025	29.42384	29.408129999999996	28.92326	28.603850000000005	28.35153	28.69763	28.85979				15	4	7,5298E-265	dRep_bin074_EHAOMODJ_00758;dRep_bin105_AAEIHAFF_01916	dRep_bin074_EHAOMODJ_00758	>dRep_bin074_EHAOMODJ_00758 Phosphoglycerate kinase	dRep_bin105_AAEIHAFF_01916	CDS	pgk	2.7.2.3	Phosphoglycerate kinase
AAEIHAFF_01928			28.77903	29.416960000000003	27.236439999999998	27.457870000000003	26.988259999999997	26.782069999999997				3	1	5,5654E-46	dRep_bin005_CNDFPKJG_00512;dRep_bin135_HHKACLPM_00996;dRep_bin007_LNLEAAAN_00555;dRep_bin303_DDDNDJCF_00538;dRep_bin328_GIGKNKPJ_00724;dRep_bin308_JBPDGLPP_01472;dRep_bin292_JIBLDOOH_00033;dRep_bin278_BFCONKOE_00439;dRep_bin269_PNILGKPH_00427;dRep_bin179_HFEIPPPA_01854;dRep_bin133_NOBPDBPA_03738;dRep_bin127_FIPNHBCH_00184;dRep_bin065_DFABHCBI_01543;dRep_bin039_IJNOFOJK_00835;dRep_bin031_BNHMFOII_01289;dRep_bin024_OLHDGABE_00632;dRep_bin001_GHHJMDAL_01042;dRep_bin027_OFJCHLJJ_01571;dRep_bin134_HIAPAODO_00757;dRep_bin339_DBNBAHDK_00274;dRep_bin268_LKMHIMLG_00767;dRep_bin215_ABBFGCAF_00889;dRep_bin142_NDNPJBEM_01236;dRep_bin347_EKGCMFPD_01033;dRep_bin325_EIIGOGHN_00650;dRep_bin310_IMBAFDIF_01183;dRep_bin293_MEPKGOAN_00730;dRep_bin282_PKAAPBFP_00286;dRep_bin100_CODMOHGB_00949;dRep_bin091_MAFACGAD_00437;dRep_bin079_GAOGCKND_00310;dRep_bin323_FBBLPLCG_01106;dRep_bin322_OJELOJOF_01654;dRep_bin273_FGAEBHNP_01366;dRep_bin266_JFOCEDAE_01192;dRep_bin231_CFOLMJBA_00878;dRep_bin194_MEPDOGGJ_01303;dRep_bin182_EMCFODCD_01258;dRep_bin169_PNICKJKO_01164;dRep_bin158_OGFICEAP_00873;dRep_bin115_IFKGOGCL_01307;dRep_bin108_BPNCDINP_01062;dRep_bin087_FCLGAPPI_00927;dRep_bin056_EMNHHOJA_01448;dRep_bin047_IFFANOMN_00919;dRep_bin044_IPFKHAEF_00004;dRep_bin026_HNPIIINL_00567;dRep_bin025_CBEJJMLE_00162;dRep_bin336_MPGOKPOL_00656;dRep_bin277_MIPNGEJE_00938;dRep_bin257_JHFDCHCB_01267;dRep_bin172_ALNHGLMD_01450;dRep_bin166_DFIAJFEC_00114;dRep_bin147_EJLBNEBE_01610;dRep_bin105_AAEIHAFF_01928	dRep_bin005_CNDFPKJG_00512;dRep_bin135_HHKACLPM_00996;dRep_bin007_LNLEAAAN_00555;dRep_bin303_DDDNDJCF_00538;dRep_bin328_GIGKNKPJ_00724;dRep_bin308_JBPDGLPP_01472;dRep_bin292_JIBLDOOH_00033;dRep_bin278_BFCONKOE_00439;dRep_bin269_PNILGKPH_00427;dRep_bin179_HFEIPPPA_01854;dRep_bin133_NOBPDBPA_03738;dRep_bin127_FIPNHBCH_00184;dRep_bin065_DFABHCBI_01543;dRep_bin039_IJNOFOJK_00835;dRep_bin031_BNHMFOII_01289;dRep_bin024_OLHDGABE_00632;dRep_bin001_GHHJMDAL_01042;dRep_bin027_OFJCHLJJ_01571	>dRep_bin005_CNDFPKJG_00512 30S ribosomal protein S12;>dRep_bin135_HHKACLPM_00996 30S ribosomal protein S12;>dRep_bin007_LNLEAAAN_00555 30S ribosomal protein S12;>dRep_bin303_DDDNDJCF_00538 30S ribosomal protein S12;>dRep_bin328_GIGKNKPJ_00724 30S ribosoma	dRep_bin105_AAEIHAFF_01928	CDS	rpsL		30S ribosomal protein S12
AAEIHAFF_01931	28.6421	26.31323	27.92897	28.147250000000003	28.35372	27.35741	27.82645	27.35817				10	2	5,9233E-128	dRep_bin105_AAEIHAFF_01931	dRep_bin105_AAEIHAFF_01931	>dRep_bin105_AAEIHAFF_01931 Elongation factor Tu	dRep_bin105_AAEIHAFF_01931	CDS	tuf		Elongation factor Tu
