GBprotID	LFQ intensity CtrPig1	LFQ intensity CtrPig2	LFQ intensity CtrPig3	LFQ intensity CtrPig4	LFQ intensity MannanPig1	LFQ intensity MannanPig2	LFQ intensity MannanPig3	LFQ intensity MannanPig4	Only identified by site	Reverse	Contaminant	Peptides	Unique peptides	PEP	Protein IDs	Majority protein IDs	Fasta headers	IDcomb	ftype	gene	EC_number	product
IFKGOGCL_00005	28.62954	29.354750000000003	29.992399999999996	30.023139999999998	30.21083	30.89937	29.70792	30.0531				20	3	1,2194E-156	dRep_bin191_NGFJMLOL_01259;dRep_bin296_FDMPKPOH_00205;dRep_bin210_AGEDAEIA_00766;dRep_bin195_DDMDFNOK_00108;dRep_bin334_NAPFFNLD_01038;dRep_bin211_LGJEFJIK_01419;dRep_bin295_EJGKDKNE_00091;dRep_bin341_NBEGOKEF_00239;dRep_bin020_JCCELPIE_00888;dRep_bin283_NLJJFFAC_01280;dRep_bin274_DBJHKLDG_00956;dRep_bin016_JLGAHGOJ_01458;dRep_bin108_BPNCDINP_01604;dRep_bin008_MNDMJLEI_00335;dRep_bin270_GEJAHNCN_01137;dRep_bin005_CNDFPKJG_01352;dRep_bin060_HNFNENOI_00669;dRep_bin146_LCCIBLJG_00571;dRep_bin326_CEEAIPKF_00877;dRep_bin333_EFOKIBLA_00153;dRep_bin168_HKDILBFE_01558;dRep_bin244_LBFMHLBI_01599;dRep_bin096_GNHMEKPF_00231;dRep_bin237_KJDLIPND_00220;dRep_bin188_EJILNMPE_01240;dRep_bin251_FGNGCJDD_00076;dRep_bin227_IJODGBOI_00103;dRep_bin151_AHBJLMBI_00923;dRep_bin116_CLFDBMOF_00729;dRep_bin141_GMCOOECB_00805;dRep_bin350_EKOOEEGH_00925;dRep_bin132_FAPBDCMG_00754;dRep_bin080_CBEBHNNK_00317;dRep_bin051_HIEIDCID_00971;dRep_bin228_CECEDMJG_00643;dRep_bin009_KMMEHEKA_00811;dRep_bin318_IEDEJOFJ_01292;dRep_bin207_OHNPDPFI_00717;dRep_bin345_GLPJDLOI_00471;dRep_bin144_NPHACCKF_01507;dRep_bin118_FGIOKLBC_00082;dRep_bin355_KJEFNADK_00986;dRep_bin293_MEPKGOAN_00544;dRep_bin230_NINMBMKB_00674;dRep_bin014_CHIHIMAN_00029;dRep_bin218_ACMPALGF_00178;dRep_bin165_HMDFFMMM_01108;dRep_bin094_LBLICAAO_00513;dRep_bin076_GLAOFBEC_01428;dRep_bin267_LJCFMAFA_00110;dRep_bin048_PABMBHAL_00321;dRep_bin147_EJLBNEBE_02032;dRep_bin128_JPBBHEMA_00007;dRep_bin042_MMFCLHOO_01063;dRep_bin351_CKFFBPHM_00913;dRep_bin123_PJKBFKBB_00095;dRep_bin330_CODAKHDJ_00708;dRep_bin252_NDAKLAGD_01294;dRep_bin233_BAGKKAOB_01574;dRep_bin217_MJCEAEPB_00244;dRep_bin110_JGOEJECF_00272;dRep_bin109_MJABCPAK_00670;dRep_bin101_BNDDLDCL_01055;dRep_bin092_OOJCPDEA_00344;dRep_bin074_EHAOMODJ_00824;dRep_bin336_MPGOKPOL_02107;dRep_bin290_OIOJKBNK_01058;dRep_bin264_DNFFGNEG_00269;dRep_bin256_KEMNAOBC_01330;dRep_bin246_MMFBABHK_01553;dRep_bin166_DFIAJFEC_00041;dRep_bin153_JGABJFBF_00098;dRep_bin143_PFLDJMPF_00060;dRep_bin106_BKDHGPBE_01156;dRep_bin071_JHMCIJPE_01039;dRep_bin250_NMCAMJIO_00472;dRep_bin312_MJFEFHMP_01194;dRep_bin194_MEPDOGGJ_00657;dRep_bin129_GADIAMAA_01832;dRep_bin061_ONFGDLGO_01341;dRep_bin030_OGPDLGOC_01109;dRep_bin025_CBEJJMLE_00255;dRep_bin223_PIMCDKJI_01311;dRep_bin204_INMOGLDN_00399;dRep_bin202_HEPPALPH_00661;dRep_bin105_AAEIHAFF_01590;dRep_bin056_EMNHHOJA_01586;dRep_bin174_LJJOKEME_01552;dRep_bin057_BNCFHBBO_00981;dRep_bin348_LCLFDNEE_01410;dRep_bin339_DBNBAHDK_00024;dRep_bin321_EJNAAGJG_00897;dRep_bin273_FGAEBHNP_01096;dRep_bin248_CCDFPECI_01765;dRep_bin124_HIHDFGCL_01059;dRep_bin068_ENOLAELK_01049;dRep_bin038_EIGFILKG_00020;dRep_bin276_EHNFLEBP_00417;dRep_bin152_LJMCIADF_00769;dRep_bin115_IFKGOGCL_00005;dRep_bin099_DNDAGJEJ_00435;dRep_bin085_MBHLGCDB_01722;dRep_bin079_GAOGCKND_00892;dRep_bin026_HNPIIINL_00985;dRep_bin353_PPDHLNJB_01438;dRep_bin319_PBDBJGCJ_01331;dRep_bin291_EILOACJB_00194;dRep_bin241_LMMMGDNI_00361;dRep_bin091_MAFACGAD_00751;dRep_bin303_DDDNDJCF_01255;dRep_bin216_JNJMCPHB_01481;dRep_bin184_MBMMJHKO_01167;dRep_bin161_JMKPMHCO_00103;dRep_bin021_AJDDCGJC_01597;dRep_bin095_HOBNOEEF_00033;dRep_bin059_OOBKFNPP_00633;dRep_bin018_ILOONPIC_00093;dRep_bin306_FGHMKMMP_00476;dRep_bin175_HANCENAK_00082;dRep_bin040_EIFLLDOA_01832;dRep_bin166_DFIAJFEC_00288;dRep_bin085_MBHLGCDB_01583	dRep_bin191_NGFJMLOL_01259	>dRep_bin191_NGFJMLOL_01259 Aspartate--tRNA ligase	dRep_bin115_IFKGOGCL_00005	CDS	aspS	6.1.1.12	Aspartate--tRNA ligase
IFKGOGCL_00023	24.465689999999995	26.260689999999997	25.31261	25.246119999999998								9	2	1,0106E-26	dRep_bin133_NOBPDBPA_01176;dRep_bin179_HFEIPPPA_00199;dRep_bin203_CLFNNOCF_00399;dRep_bin145_KMJJJOEJ_01160;dRep_bin027_OFJCHLJJ_01925;dRep_bin325_EIIGOGHN_01404;dRep_bin310_IMBAFDIF_00767;dRep_bin211_LGJEFJIK_00541;dRep_bin115_IFKGOGCL_00023;dRep_bin328_GIGKNKPJ_00117;dRep_bin017_FGFLFOPJ_00444;dRep_bin261_FJICAFFM_00065;dRep_bin282_PKAAPBFP_01129;dRep_bin005_CNDFPKJG_00647;dRep_bin332_KAOPCDPF_00563;dRep_bin249_OFIIEIDJ_00155;dRep_bin001_GHHJMDAL_01332;dRep_bin127_FIPNHBCH_01505;dRep_bin077_DNNBMPMC_01412;dRep_bin075_EPEMMOCL_00769;dRep_bin188_EJILNMPE_00165;dRep_bin096_GNHMEKPF_00442;dRep_bin055_IBMMJAEE_00646;dRep_bin094_LBLICAAO_00410;dRep_bin144_NPHACCKF_00825;dRep_bin283_NLJJFFAC_01601	dRep_bin133_NOBPDBPA_01176;dRep_bin179_HFEIPPPA_00199;dRep_bin203_CLFNNOCF_00399	>dRep_bin133_NOBPDBPA_01176 Polyribonucleotide nucleotidyltransferase;>dRep_bin179_HFEIPPPA_00199 Polyribonucleotide nucleotidyltransferase;>dRep_bin203_CLFNNOCF_00399 Polyribonucleotide nucleotidyltransferase	dRep_bin115_IFKGOGCL_00023	CDS	pnp	2.7.7.8	Polyribonucleotide nucleotidyltransferase
IFKGOGCL_00077							22.488069999999997					9	1	5,2032E-70	dRep_bin139_KGAJINND_01320;dRep_bin260_HELEPKJL_00563;dRep_bin115_IFKGOGCL_00077;dRep_bin005_CNDFPKJG_00237;dRep_bin048_PABMBHAL_01824;dRep_bin106_BKDHGPBE_00477	dRep_bin139_KGAJINND_01320;dRep_bin260_HELEPKJL_00563	>dRep_bin139_KGAJINND_01320 Aspartate-semialdehyde dehydrogenase 2;>dRep_bin260_HELEPKJL_00563 Aspartate-semialdehyde dehydrogenase	dRep_bin115_IFKGOGCL_00077	CDS	asd2	1.2.1.11	Aspartate-semialdehyde dehydrogenase 2
IFKGOGCL_00079				24.05383								12	1	2,3841E-172	dRep_bin115_IFKGOGCL_00079	dRep_bin115_IFKGOGCL_00079	>dRep_bin115_IFKGOGCL_00079 Ketol-acid reductoisomerase (NADP(+))	dRep_bin115_IFKGOGCL_00079	CDS	ilvC	1.1.1.86	Ketol-acid reductoisomerase (NADP(+))
IFKGOGCL_00123					25.06357							5	1	3,6059E-73	dRep_bin203_CLFNNOCF_01682;dRep_bin347_EKGCMFPD_01504;dRep_bin284_DEHKNOBF_01057;dRep_bin260_HELEPKJL_00015;dRep_bin310_IMBAFDIF_00287;dRep_bin134_HIAPAODO_00846;dRep_bin062_BOFBFLDA_01435;dRep_bin300_MJPPENNL_01196;dRep_bin201_OLKDIBOK_02047;dRep_bin105_AAEIHAFF_01478;dRep_bin100_CODMOHGB_01221;dRep_bin088_DNGPPFDK_00866;dRep_bin277_MIPNGEJE_00690;dRep_bin166_DFIAJFEC_00146;dRep_bin161_JMKPMHCO_01114;dRep_bin059_OOBKFNPP_00125;dRep_bin046_GKEJLOEK_01062;dRep_bin091_MAFACGAD_00248;dRep_bin017_FGFLFOPJ_00727;dRep_bin354_MMOALAFN_00741;dRep_bin324_IPNHOHFK_00313;dRep_bin323_FBBLPLCG_01264;dRep_bin309_BIOHLCGG_01306;dRep_bin273_FGAEBHNP_00470;dRep_bin261_FJICAFFM_01100;dRep_bin148_NAJFKJMD_00795;dRep_bin115_IFKGOGCL_00123;dRep_bin069_EGGEOGDC_01056;dRep_bin344_CJJBDGAA_01161;dRep_bin249_OFIIEIDJ_00715;dRep_bin220_PILICLLL_00990;dRep_bin134_HIAPAODO_01436;dRep_bin065_DFABHCBI_00344;dRep_bin032_PPNIGLME_00203;dRep_bin270_GEJAHNCN_01587;dRep_bin065_DFABHCBI_00249;dRep_bin278_BFCONKOE_01054;dRep_bin016_JLGAHGOJ_00641;dRep_bin328_GIGKNKPJ_01462;dRep_bin308_JBPDGLPP_01172;dRep_bin303_DDDNDJCF_01320;dRep_bin254_GJDPFAEA_00870;dRep_bin234_ECABPBME_00536;dRep_bin186_HJAAFFNP_01789;dRep_bin167_BLMEBMNN_01296;dRep_bin107_EFNBPDOP_00511;dRep_bin077_DNNBMPMC_01864;dRep_bin066_AJACLPEE_01033;dRep_bin047_IFFANOMN_00697;dRep_bin135_HHKACLPM_00107;dRep_bin303_DDDNDJCF_00377;dRep_bin306_FGHMKMMP_01595;dRep_bin211_LGJEFJIK_00450;dRep_bin007_LNLEAAAN_01312;dRep_bin344_CJJBDGAA_01611;dRep_bin031_BNHMFOII_01628;dRep_bin353_PPDHLNJB_02118;dRep_bin254_GJDPFAEA_00869;dRep_bin094_LBLICAAO_00342;dRep_bin047_IFFANOMN_01357;dRep_bin120_EKLBOPNC_01832;dRep_bin168_HKDILBFE_01442;dRep_bin099_DNDAGJEJ_00392;dRep_bin215_ABBFGCAF_00798;dRep_bin029_LFMGBBEC_01628;dRep_bin240_LDBBGJKG_01094;dRep_bin279_IAEFEPEN_01491;dRep_bin130_OIFFANPF_01666;dRep_bin319_PBDBJGCJ_00268;dRep_bin017_FGFLFOPJ_00820;dRep_bin082_HBEFABJN_01328;dRep_bin245_MBCFLKOF_01762;dRep_bin027_OFJCHLJJ_00790;dRep_bin108_BPNCDINP_00911;dRep_bin308_JBPDGLPP_01750;dRep_bin193_GDMDPNNM_00480;dRep_bin344_CJJBDGAA_02078;dRep_bin049_MNFBDPNO_01413;dRep_bin096_GNHMEKPF_00097;dRep_bin104_EGLEJOLM_01934;dRep_bin339_DBNBAHDK_02499;dRep_bin321_EJNAAGJG_00755;dRep_bin273_FGAEBHNP_00835;dRep_bin250_NMCAMJIO_00087;dRep_bin247_EKGBJCBM_00317;dRep_bin148_NAJFKJMD_01189;dRep_bin337_FHKPNFDB_01633;dRep_bin320_LDBKCCKL_01786;dRep_bin304_JDNJGFKH_01982;dRep_bin286_OEMIJKMC_01141;dRep_bin231_CFOLMJBA_00953;dRep_bin162_JBGCCDIN_01636;dRep_bin126_PPDNCIBN_01067;dRep_bin109_MJABCPAK_00317;dRep_bin057_BNCFHBBO_00597;dRep_bin288_KOIAAABN_00012;dRep_bin263_OLEFOGIJ_00295;dRep_bin304_JDNJGFKH_00179;dRep_bin208_DHPGEIBC_00457;dRep_bin189_AHHEHGDL_01282;dRep_bin177_HLHGKLFL_00741;dRep_bin140_ACFAKGIL_00319;dRep_bin105_AAEIHAFF_01411;dRep_bin082_HBEFABJN_00692;dRep_bin010_MFFFGEGD_00717;dRep_bin005_CNDFPKJG_01705;dRep_bin287_DONBGKDH_01836;dRep_bin094_LBLICAAO_00388;dRep_bin058_GJKCICJN_00227;dRep_bin293_MEPKGOAN_00829;dRep_bin218_ACMPALGF_00229;dRep_bin205_LKIOOBKC_00417;dRep_bin172_ALNHGLMD_01439;dRep_bin159_ADJJGPBG_01342;dRep_bin143_PFLDJMPF_01248;dRep_bin101_BNDDLDCL_01982;dRep_bin091_MAFACGAD_01619;dRep_bin072_JOBJPCGA_00130;dRep_bin011_KOGMKLNO_01272;dRep_bin164_KHMELCCL_01402;dRep_bin305_FCIEFIHE_00371;dRep_bin222_GGCAJABB_00745;dRep_bin006_HPJGJCAG_01874;dRep_bin286_OEMIJKMC_01354;dRep_bin126_PPDNCIBN_00282;dRep_bin185_OOOLKACK_00819;dRep_bin043_KLAFNACO_00900;dRep_bin231_CFOLMJBA_01529;dRep_bin237_KJDLIPND_00869;dRep_bin147_EJLBNEBE_00138;dRep_bin186_HJAAFFNP_01790;dRep_bin081_JDPCKDNP_00172;dRep_bin069_EGGEOGDC_00890;dRep_bin282_PKAAPBFP_00016;dRep_bin206_OIIBOIAK_00984;dRep_bin161_JMKPMHCO_00782;dRep_bin278_BFCONKOE_00310;dRep_bin260_HELEPKJL_01944;dRep_bin336_MPGOKPOL_00897	dRep_bin203_CLFNNOCF_01682;dRep_bin347_EKGCMFPD_01504;dRep_bin284_DEHKNOBF_01057;dRep_bin260_HELEPKJL_00015;dRep_bin310_IMBAFDIF_00287;dRep_bin134_HIAPAODO_00846;dRep_bin062_BOFBFLDA_01435	>dRep_bin203_CLFNNOCF_01682 Glutamine synthetase;>dRep_bin347_EKGCMFPD_01504 Glutamine synthetase;>dRep_bin284_DEHKNOBF_01057 Glutamine synthetase;>dRep_bin260_HELEPKJL_00015 Glutamine synthetase;>dRep_bin310_IMBAFDIF_00287 Glutamine synthetase;>dRep_bin13	dRep_bin115_IFKGOGCL_00123	CDS	glnA_3	6.3.1.2	Glutamine synthetase
IFKGOGCL_00132	25.303160000000002	26.31256	26.298709999999996	25.07247	25.32848	24.57762	25.480309999999996	24.628729999999997				2	2	7,4303E-08	dRep_bin115_IFKGOGCL_00132;dRep_bin065_DFABHCBI_02356;dRep_bin186_HJAAFFNP_01496;dRep_bin248_CCDFPECI_00723;dRep_bin095_HOBNOEEF_01011;dRep_bin145_KMJJJOEJ_01457	dRep_bin115_IFKGOGCL_00132;dRep_bin065_DFABHCBI_02356;dRep_bin186_HJAAFFNP_01496;dRep_bin248_CCDFPECI_00723;dRep_bin095_HOBNOEEF_01011;dRep_bin145_KMJJJOEJ_01457	>dRep_bin115_IFKGOGCL_00132 Dihydroorotate dehydrogenase B (NAD(+)), electron transfer subunit;>dRep_bin065_DFABHCBI_02356 Dihydroorotate dehydrogenase B (NAD(+)), electron transfer subunit;>dRep_bin186_HJAAFFNP_01496 Dihydroorotate dehydrogenase B (NAD(+)	dRep_bin115_IFKGOGCL_00132	CDS			Dihydroorotate dehydrogenase B (NAD(+)), electron transfer subunit
IFKGOGCL_00136		23.986419999999995	23.17342									2	1	4,4745E-32	dRep_bin135_HHKACLPM_01194;dRep_bin248_CCDFPECI_00232;dRep_bin048_PABMBHAL_01807;dRep_bin347_EKGCMFPD_00759;dRep_bin293_MEPKGOAN_01297;dRep_bin001_GHHJMDAL_00886;dRep_bin017_FGFLFOPJ_00766;dRep_bin318_IEDEJOFJ_01009;dRep_bin310_IMBAFDIF_00255;dRep_bin276_EHNFLEBP_00341;dRep_bin158_OGFICEAP_00321;dRep_bin145_KMJJJOEJ_01462;dRep_bin131_HLFNHDGI_00015;dRep_bin115_IFKGOGCL_00136;dRep_bin089_PAJFOJBN_01106;dRep_bin335_JIOGNAPG_01504;dRep_bin330_CODAKHDJ_00948;dRep_bin201_OLKDIBOK_02618;dRep_bin301_NJFJIJGA_00940;dRep_bin154_JGOKHKLI_01917;dRep_bin007_LNLEAAAN_01428	dRep_bin135_HHKACLPM_01194;dRep_bin248_CCDFPECI_00232;dRep_bin048_PABMBHAL_01807;dRep_bin347_EKGCMFPD_00759;dRep_bin293_MEPKGOAN_01297;dRep_bin001_GHHJMDAL_00886;dRep_bin017_FGFLFOPJ_00766;dRep_bin318_IEDEJOFJ_01009;dRep_bin310_IMBAFDIF_00255;dRep_bin276_EHNFLEBP_00341;dRep_bin158_OGFICEAP_00321;dRep_bin145_KMJJJOEJ_01462;dRep_bin131_HLFNHDGI_00015;dRep_bin115_IFKGOGCL_00136;dRep_bin089_PAJFOJBN_01106;dRep_bin335_JIOGNAPG_01504;dRep_bin330_CODAKHDJ_00948;dRep_bin201_OLKDIBOK_02618;dRep_bin301_NJFJIJGA_00940;dRep_bin154_JGOKHKLI_01917;dRep_bin007_LNLEAAAN_01428	>dRep_bin135_HHKACLPM_01194 L-methionine gamma-lyase;>dRep_bin248_CCDFPECI_00232 L-methionine gamma-lyase;>dRep_bin048_PABMBHAL_01807 L-methionine gamma-lyase;>dRep_bin347_EKGCMFPD_00759 L-methionine gamma-lyase;>dRep_bin293_MEPKGOAN_01297 L-methionine gam	dRep_bin115_IFKGOGCL_00136	CDS	mgl_1	4.4.1.11	L-methionine gamma-lyase
IFKGOGCL_00164					24.40756		25.03972	23.804990000000004				4	0	9,6383E-44	dRep_bin248_CCDFPECI_00825;dRep_bin145_KMJJJOEJ_00266;dRep_bin095_HOBNOEEF_00405;dRep_bin115_IFKGOGCL_00164	dRep_bin248_CCDFPECI_00825;dRep_bin145_KMJJJOEJ_00266;dRep_bin095_HOBNOEEF_00405;dRep_bin115_IFKGOGCL_00164	>dRep_bin248_CCDFPECI_00825 hypothetical protein;>dRep_bin145_KMJJJOEJ_00266 hypothetical protein;>dRep_bin095_HOBNOEEF_00405 hypothetical protein;>dRep_bin115_IFKGOGCL_00164 hypothetical protein	dRep_bin115_IFKGOGCL_00164	CDS			hypothetical protein
IFKGOGCL_00343		25.60958										6	2	4,7679E-49	dRep_bin134_HIAPAODO_01952;dRep_bin115_IFKGOGCL_00343;dRep_bin029_LFMGBBEC_00432	dRep_bin134_HIAPAODO_01952;dRep_bin115_IFKGOGCL_00343;dRep_bin029_LFMGBBEC_00432	>dRep_bin134_HIAPAODO_01952 Phosphoglucomutase;>dRep_bin115_IFKGOGCL_00343 Phosphoglucomutase;>dRep_bin029_LFMGBBEC_00432 Phosphoglucomutase	dRep_bin115_IFKGOGCL_00343	CDS	pgcA	5.4.2.2	Phosphoglucomutase
IFKGOGCL_00348					22.619480000000003							4	1	7,653E-62	dRep_bin115_IFKGOGCL_00348	dRep_bin115_IFKGOGCL_00348	>dRep_bin115_IFKGOGCL_00348 Glucose-6-phosphate isomerase	dRep_bin115_IFKGOGCL_00348	CDS	pgi	5.3.1.9	Glucose-6-phosphate isomerase
IFKGOGCL_00369	28.81124	29.09154	28.21979	28.14448	27.631870000000006	27.592209999999998	26.560789999999997	26.40939				26	0	0	dRep_bin115_IFKGOGCL_00369	dRep_bin115_IFKGOGCL_00369	>dRep_bin115_IFKGOGCL_00369 Phosphoenolpyruvate carboxykinase (ATP)	dRep_bin115_IFKGOGCL_00369	CDS	pckA	4.1.1.49	Phosphoenolpyruvate carboxykinase (ATP)
IFKGOGCL_00477				23.59742								1	1	4,4015E-05	dRep_bin115_IFKGOGCL_00477	dRep_bin115_IFKGOGCL_00477	>dRep_bin115_IFKGOGCL_00477 Putative septation protein SpoVG	dRep_bin115_IFKGOGCL_00477	CDS	spoVG		Putative septation protein SpoVG
IFKGOGCL_00554						24.113390000000003						2	1	2,5993E-07	dRep_bin240_LDBBGJKG_01001;dRep_bin001_GHHJMDAL_01372;dRep_bin143_PFLDJMPF_00153;dRep_bin024_OLHDGABE_00846;dRep_bin181_MKGPMPIA_00709;dRep_bin077_DNNBMPMC_01859;dRep_bin005_CNDFPKJG_00656;dRep_bin150_HCDEOBMH_01568;dRep_bin135_HHKACLPM_01559;dRep_bin075_EPEMMOCL_02034;dRep_bin091_MAFACGAD_00181;dRep_bin007_LNLEAAAN_01218;dRep_bin282_PKAAPBFP_00655;dRep_bin254_GJDPFAEA_01551;dRep_bin249_OFIIEIDJ_01140;dRep_bin127_FIPNHBCH_01645;dRep_bin347_EKGCMFPD_00098;dRep_bin322_OJELOJOF_01214;dRep_bin310_IMBAFDIF_01594;dRep_bin287_DONBGKDH_00226;dRep_bin284_DEHKNOBF_00726;dRep_bin266_JFOCEDAE_00133;dRep_bin186_HJAAFFNP_01238;dRep_bin145_KMJJJOEJ_00954;dRep_bin115_IFKGOGCL_00554;dRep_bin065_DFABHCBI_01587;dRep_bin248_CCDFPECI_01609;dRep_bin095_HOBNOEEF_01791;dRep_bin160_EFKMPBOM_01116;dRep_bin154_JGOKHKLI_00150;dRep_bin081_JDPCKDNP_01583;dRep_bin336_MPGOKPOL_01589;dRep_bin306_FGHMKMMP_01590;dRep_bin056_EMNHHOJA_00230;dRep_bin309_BIOHLCGG_00694;dRep_bin302_AHDEPDKG_01234;dRep_bin257_JHFDCHCB_02163;dRep_bin147_EJLBNEBE_01266;dRep_bin124_HIHDFGCL_00964;dRep_bin194_MEPDOGGJ_01159;dRep_bin025_CBEJJMLE_01722;dRep_bin293_MEPKGOAN_00673;dRep_bin058_GJKCICJN_00893;dRep_bin074_EHAOMODJ_00750	dRep_bin240_LDBBGJKG_01001;dRep_bin001_GHHJMDAL_01372;dRep_bin143_PFLDJMPF_00153;dRep_bin024_OLHDGABE_00846;dRep_bin181_MKGPMPIA_00709;dRep_bin077_DNNBMPMC_01859;dRep_bin005_CNDFPKJG_00656;dRep_bin150_HCDEOBMH_01568;dRep_bin135_HHKACLPM_01559;dRep_bin075_EPEMMOCL_02034;dRep_bin091_MAFACGAD_00181;dRep_bin007_LNLEAAAN_01218;dRep_bin282_PKAAPBFP_00655;dRep_bin254_GJDPFAEA_01551;dRep_bin249_OFIIEIDJ_01140;dRep_bin127_FIPNHBCH_01645;dRep_bin347_EKGCMFPD_00098;dRep_bin322_OJELOJOF_01214;dRep_bin310_IMBAFDIF_01594;dRep_bin287_DONBGKDH_00226;dRep_bin284_DEHKNOBF_00726;dRep_bin266_JFOCEDAE_00133;dRep_bin186_HJAAFFNP_01238;dRep_bin145_KMJJJOEJ_00954;dRep_bin115_IFKGOGCL_00554;dRep_bin065_DFABHCBI_01587;dRep_bin248_CCDFPECI_01609;dRep_bin095_HOBNOEEF_01791;dRep_bin160_EFKMPBOM_01116;dRep_bin154_JGOKHKLI_00150;dRep_bin081_JDPCKDNP_01583;dRep_bin336_MPGOKPOL_01589;dRep_bin306_FGHMKMMP_01590;dRep_bin056_EMNHHOJA_00230;dRep_bin309_BIOHLCGG_00694;dRep_bin302_AHDEPDKG_01234;dRep_bin257_JHFDCHCB_02163;dRep_bin147_EJLBNEBE_01266;dRep_bin124_HIHDFGCL_00964;dRep_bin194_MEPDOGGJ_01159;dRep_bin025_CBEJJMLE_01722;dRep_bin293_MEPKGOAN_00673;dRep_bin058_GJKCICJN_00893;dRep_bin074_EHAOMODJ_00750	>dRep_bin240_LDBBGJKG_01001 Glutaconyl-CoA decarboxylase subunit beta;>dRep_bin001_GHHJMDAL_01372 Glutaconyl-CoA decarboxylase subunit beta;>dRep_bin143_PFLDJMPF_00153 Glutaconyl-CoA decarboxylase subunit beta;>dRep_bin024_OLHDGABE_00846 Glutaconyl-CoA dec	dRep_bin115_IFKGOGCL_00554	CDS	gcdB	4.1.1.70	Glutaconyl-CoA decarboxylase subunit beta
IFKGOGCL_00555						26.7618						1	1	6,3895E-11	dRep_bin095_HOBNOEEF_02030;dRep_bin203_CLFNNOCF_00407;dRep_bin135_HHKACLPM_01560;dRep_bin005_CNDFPKJG_00657;dRep_bin322_OJELOJOF_01582;dRep_bin310_IMBAFDIF_01593;dRep_bin269_PNILGKPH_01090;dRep_bin134_HIAPAODO_00124;dRep_bin075_EPEMMOCL_02033;dRep_bin248_CCDFPECI_01608;dRep_bin158_OGFICEAP_01624;dRep_bin115_IFKGOGCL_00555;dRep_bin324_IPNHOHFK_01145;dRep_bin297_EDHEEICA_00686;dRep_bin282_PKAAPBFP_00656;dRep_bin179_HFEIPPPA_00189;dRep_bin168_HKDILBFE_01398;dRep_bin041_OPKGAAAG_01276;dRep_bin292_JIBLDOOH_02196;dRep_bin261_FJICAFFM_00056;dRep_bin226_NLNLHLLD_01358;dRep_bin209_NKIHFCEN_00790;dRep_bin157_JPNIKEKI_00582	dRep_bin095_HOBNOEEF_02030;dRep_bin203_CLFNNOCF_00407;dRep_bin135_HHKACLPM_01560;dRep_bin005_CNDFPKJG_00657;dRep_bin322_OJELOJOF_01582;dRep_bin310_IMBAFDIF_01593;dRep_bin269_PNILGKPH_01090;dRep_bin134_HIAPAODO_00124;dRep_bin075_EPEMMOCL_02033;dRep_bin248_CCDFPECI_01608;dRep_bin158_OGFICEAP_01624;dRep_bin115_IFKGOGCL_00555;dRep_bin324_IPNHOHFK_01145;dRep_bin297_EDHEEICA_00686;dRep_bin282_PKAAPBFP_00656;dRep_bin179_HFEIPPPA_00189;dRep_bin168_HKDILBFE_01398;dRep_bin041_OPKGAAAG_01276;dRep_bin292_JIBLDOOH_02196;dRep_bin261_FJICAFFM_00056;dRep_bin226_NLNLHLLD_01358;dRep_bin209_NKIHFCEN_00790;dRep_bin157_JPNIKEKI_00582	>dRep_bin095_HOBNOEEF_02030 Methylmalonyl-CoA carboxyltransferase 5S subunit;>dRep_bin203_CLFNNOCF_00407 Methylmalonyl-CoA carboxyltransferase 5S subunit;>dRep_bin135_HHKACLPM_01560 Methylmalonyl-CoA carboxyltransferase 5S subunit;>dRep_bin005_CNDFPKJG_006	dRep_bin115_IFKGOGCL_00555	CDS		2.1.3.1	Methylmalonyl-CoA carboxyltransferase 5S subunit
IFKGOGCL_00616					25.68008	27.02411	25.38281	25.32165				3	3	7,9156E-15	dRep_bin226_NLNLHLLD_00501;dRep_bin041_OPKGAAAG_00618;dRep_bin297_EDHEEICA_00183;dRep_bin269_PNILGKPH_01725;dRep_bin179_HFEIPPPA_00805;dRep_bin157_JPNIKEKI_00808;dRep_bin209_NKIHFCEN_00924;dRep_bin039_IJNOFOJK_00290;dRep_bin344_CJJBDGAA_00560;dRep_bin324_IPNHOHFK_01905;dRep_bin310_IMBAFDIF_00509;dRep_bin303_DDDNDJCF_00255;dRep_bin292_JIBLDOOH_00721;dRep_bin248_CCDFPECI_01503;dRep_bin220_PILICLLL_01871;dRep_bin203_CLFNNOCF_01497;dRep_bin201_OLKDIBOK_01842;dRep_bin158_OGFICEAP_00351;dRep_bin145_KMJJJOEJ_00076;dRep_bin133_NOBPDBPA_03150;dRep_bin115_IFKGOGCL_00616;dRep_bin095_HOBNOEEF_01083;dRep_bin279_IAEFEPEN_01129;dRep_bin306_FGHMKMMP_00759;dRep_bin282_PKAAPBFP_00753;dRep_bin016_JLGAHGOJ_01160;dRep_bin261_FJICAFFM_00017;dRep_bin031_BNHMFOII_01497;dRep_bin325_EIIGOGHN_00625;dRep_bin168_HKDILBFE_01177;dRep_bin099_DNDAGJEJ_00278;dRep_bin335_JIOGNAPG_00120;dRep_bin308_JBPDGLPP_00959;dRep_bin234_ECABPBME_01000;dRep_bin240_LDBBGJKG_01894;dRep_bin167_BLMEBMNN_00117	dRep_bin226_NLNLHLLD_00501;dRep_bin041_OPKGAAAG_00618;dRep_bin297_EDHEEICA_00183;dRep_bin269_PNILGKPH_01725;dRep_bin179_HFEIPPPA_00805;dRep_bin157_JPNIKEKI_00808	>dRep_bin226_NLNLHLLD_00501 ATP-dependent Clp protease proteolytic subunit;>dRep_bin041_OPKGAAAG_00618 ATP-dependent Clp protease proteolytic subunit;>dRep_bin297_EDHEEICA_00183 ATP-dependent Clp protease proteolytic subunit;>dRep_bin269_PNILGKPH_01725 ATP	dRep_bin115_IFKGOGCL_00616	CDS	clpP	3.4.21.92	ATP-dependent Clp protease proteolytic subunit
IFKGOGCL_00625	25.634390000000003											2	2	0,00068717	dRep_bin330_CODAKHDJ_00365;dRep_bin024_OLHDGABE_01305;dRep_bin145_KMJJJOEJ_00741;dRep_bin139_KGAJINND_00950;dRep_bin115_IFKGOGCL_00625;dRep_bin343_JCMCKBGF_03648;dRep_bin146_LCCIBLJG_00783;A0A287AH85	dRep_bin330_CODAKHDJ_00365;dRep_bin024_OLHDGABE_01305;dRep_bin145_KMJJJOEJ_00741;dRep_bin139_KGAJINND_00950;dRep_bin115_IFKGOGCL_00625;dRep_bin343_JCMCKBGF_03648;dRep_bin146_LCCIBLJG_00783;A0A287AH85	>dRep_bin330_CODAKHDJ_00365 Adenylate kinase;>dRep_bin024_OLHDGABE_01305 Adenylate kinase;>dRep_bin145_KMJJJOEJ_00741 Adenylate kinase;>dRep_bin139_KGAJINND_00950 Adenylate kinase;>dRep_bin115_IFKGOGCL_00625 Adenylate kinase;>dRep_bin343_JCMCKBGF_03648 Ade	dRep_bin115_IFKGOGCL_00625	CDS	adk	2.7.4.3	Adenylate kinase
IFKGOGCL_00629	23.26026	24.0385	24.520729999999997	24.11633								4	1	2,4395E-14	dRep_bin134_HIAPAODO_01005;dRep_bin016_JLGAHGOJ_00442;dRep_bin139_KGAJINND_00954;dRep_bin115_IFKGOGCL_00629;dRep_bin062_BOFBFLDA_01155;dRep_bin089_PAJFOJBN_02089;dRep_bin303_DDDNDJCF_01217;dRep_bin095_HOBNOEEF_02098;dRep_bin308_JBPDGLPP_01121;dRep_bin300_MJPPENNL_01860;dRep_bin279_IAEFEPEN_01296;dRep_bin260_HELEPKJL_01361;dRep_bin240_LDBBGJKG_00583;dRep_bin127_FIPNHBCH_00043;dRep_bin107_EFNBPDOP_00043;dRep_bin077_DNNBMPMC_00192;dRep_bin066_AJACLPEE_00667;dRep_bin047_IFFANOMN_00232	dRep_bin134_HIAPAODO_01005;dRep_bin016_JLGAHGOJ_00442;dRep_bin139_KGAJINND_00954;dRep_bin115_IFKGOGCL_00629;dRep_bin062_BOFBFLDA_01155;dRep_bin089_PAJFOJBN_02089;dRep_bin303_DDDNDJCF_01217;dRep_bin095_HOBNOEEF_02098	>dRep_bin134_HIAPAODO_01005 30S ribosomal protein S5;>dRep_bin016_JLGAHGOJ_00442 30S ribosomal protein S5;>dRep_bin139_KGAJINND_00954 30S ribosomal protein S5;>dRep_bin115_IFKGOGCL_00629 30S ribosomal protein S5;>dRep_bin062_BOFBFLDA_01155 30S ribosomal pr	dRep_bin115_IFKGOGCL_00629	CDS	rpsE		30S ribosomal protein S5
IFKGOGCL_00632	25.15734	25.458229999999997	27.75767	27.86762								4	1	1,3126E-12	dRep_bin303_DDDNDJCF_01214;dRep_bin095_HOBNOEEF_02095;dRep_bin211_LGJEFJIK_01530;dRep_bin186_HJAAFFNP_00346;dRep_bin115_IFKGOGCL_00632;dRep_bin065_DFABHCBI_01265;dRep_bin328_GIGKNKPJ_01333;dRep_bin135_HHKACLPM_00472;dRep_bin211_LGJEFJIK_01303;dRep_bin282_PKAAPBFP_00477	dRep_bin303_DDDNDJCF_01214;dRep_bin095_HOBNOEEF_02095;dRep_bin211_LGJEFJIK_01530;dRep_bin186_HJAAFFNP_00346;dRep_bin115_IFKGOGCL_00632;dRep_bin065_DFABHCBI_01265	>dRep_bin303_DDDNDJCF_01214 30S ribosomal protein S8;>dRep_bin095_HOBNOEEF_02095 30S ribosomal protein S8;>dRep_bin211_LGJEFJIK_01530 30S ribosomal protein S8;>dRep_bin186_HJAAFFNP_00346 30S ribosomal protein S8;>dRep_bin115_IFKGOGCL_00632 30S ribosomal pr	dRep_bin115_IFKGOGCL_00632	CDS	rpsH		30S ribosomal protein S8
IFKGOGCL_00636	25.08416	24.93656	26.538800000000002	26.86915	25.985119999999995	24.62037	24.93517	24.65649				3	0	2,2235E-28	dRep_bin282_PKAAPBFP_00481;dRep_bin160_EFKMPBOM_01980;dRep_bin154_JGOKHKLI_00793;dRep_bin139_KGAJINND_01524;dRep_bin127_FIPNHBCH_00036;dRep_bin089_PAJFOJBN_02082;dRep_bin047_IFFANOMN_01724;dRep_bin347_EKGCMFPD_01107;dRep_bin308_JBPDGLPP_01114;dRep_bin266_JFOCEDAE_01005;dRep_bin328_GIGKNKPJ_01841;dRep_bin260_HELEPKJL_01354;dRep_bin216_JNJMCPHB_00018;dRep_bin186_HJAAFFNP_00342;dRep_bin167_BLMEBMNN_01083;dRep_bin115_IFKGOGCL_00636;dRep_bin065_DFABHCBI_01269;dRep_bin047_IFFANOMN_00239;dRep_bin290_OIOJKBNK_00632;dRep_bin256_KEMNAOBC_00187;dRep_bin128_JPBBHEMA_00218;dRep_bin110_JGOEJECF_00549;dRep_bin093_PGADNPMG_00791;dRep_bin355_KJEFNADK_00780;dRep_bin350_EKOOEEGH_00173;dRep_bin345_GLPJDLOI_00878;dRep_bin320_LDBKCCKL_00884;dRep_bin318_IEDEJOFJ_00796;dRep_bin315_AGEMOMDG_01119;dRep_bin306_FGHMKMMP_01710;dRep_bin304_JDNJGFKH_00632;dRep_bin283_NLJJFFAC_00211;dRep_bin267_LJCFMAFA_00484;dRep_bin265_LFKFBJPC_00850;dRep_bin258_DAMEHFEK_00123;dRep_bin247_EKGBJCBM_00038;dRep_bin230_NINMBMKB_00063;dRep_bin217_MJCEAEPB_00583;dRep_bin211_LGJEFJIK_01307;dRep_bin205_LKIOOBKC_00363;dRep_bin195_DDMDFNOK_01673;dRep_bin189_AHHEHGDL_00011;dRep_bin162_JBGCCDIN_01258;dRep_bin159_ADJJGPBG_01745;dRep_bin156_GFIMJAAC_00195;dRep_bin150_HCDEOBMH_00586;dRep_bin144_NPHACCKF_00096;dRep_bin135_HHKACLPM_00476;dRep_bin121_BHOOLFKN_00529;dRep_bin120_EKLBOPNC_00238;dRep_bin114_FJHJKHGL_00201;dRep_bin078_GKFCBAEI_00311;dRep_bin060_HNFNENOI_00556;dRep_bin027_OFJCHLJJ_00124;dRep_bin020_JCCELPIE_00086;dRep_bin014_CHIHIMAN_01506;dRep_bin006_HPJGJCAG_00037;dRep_bin001_GHHJMDAL_00906;dRep_bin049_MNFBDPNO_01392;dRep_bin330_CODAKHDJ_00376;dRep_bin242_LKAIBGGJ_00214;dRep_bin218_ACMPALGF_00060;dRep_bin106_BKDHGPBE_00670	dRep_bin282_PKAAPBFP_00481;dRep_bin160_EFKMPBOM_01980;dRep_bin154_JGOKHKLI_00793;dRep_bin139_KGAJINND_01524;dRep_bin127_FIPNHBCH_00036;dRep_bin089_PAJFOJBN_02082;dRep_bin047_IFFANOMN_01724;dRep_bin347_EKGCMFPD_01107;dRep_bin308_JBPDGLPP_01114;dRep_bin266_JFOCEDAE_01005;dRep_bin328_GIGKNKPJ_01841;dRep_bin260_HELEPKJL_01354;dRep_bin216_JNJMCPHB_00018;dRep_bin186_HJAAFFNP_00342;dRep_bin167_BLMEBMNN_01083;dRep_bin115_IFKGOGCL_00636;dRep_bin065_DFABHCBI_01269;dRep_bin047_IFFANOMN_00239	>dRep_bin282_PKAAPBFP_00481 50S ribosomal protein L14;>dRep_bin160_EFKMPBOM_01980 50S ribosomal protein L14;>dRep_bin154_JGOKHKLI_00793 50S ribosomal protein L14;>dRep_bin139_KGAJINND_01524 50S ribosomal protein L14;>dRep_bin127_FIPNHBCH_00036 50S ribosoma	dRep_bin115_IFKGOGCL_00636	CDS	rplN		50S ribosomal protein L14
IFKGOGCL_00638		22.40091										2	2	4,8015E-09	dRep_bin260_HELEPKJL_01352;dRep_bin347_EKGCMFPD_01105;dRep_bin115_IFKGOGCL_00638;dRep_bin047_IFFANOMN_00241;dRep_bin328_GIGKNKPJ_01559;dRep_bin282_PKAAPBFP_00483;dRep_bin135_HHKACLPM_00478;dRep_bin089_PAJFOJBN_02080;dRep_bin027_OFJCHLJJ_00122;dRep_bin234_ECABPBME_00121;dRep_bin167_BLMEBMNN_01081;dRep_bin160_EFKMPBOM_01982;dRep_bin154_JGOKHKLI_00795;dRep_bin139_KGAJINND_01526;dRep_bin088_DNGPPFDK_00697;dRep_bin016_JLGAHGOJ_00433	dRep_bin260_HELEPKJL_01352;dRep_bin347_EKGCMFPD_01105;dRep_bin115_IFKGOGCL_00638;dRep_bin047_IFFANOMN_00241;dRep_bin328_GIGKNKPJ_01559;dRep_bin282_PKAAPBFP_00483;dRep_bin135_HHKACLPM_00478;dRep_bin089_PAJFOJBN_02080;dRep_bin027_OFJCHLJJ_00122;dRep_bin234_ECABPBME_00121;dRep_bin167_BLMEBMNN_01081;dRep_bin160_EFKMPBOM_01982;dRep_bin154_JGOKHKLI_00795;dRep_bin139_KGAJINND_01526;dRep_bin088_DNGPPFDK_00697;dRep_bin016_JLGAHGOJ_00433	>dRep_bin260_HELEPKJL_01352 50S ribosomal protein L29;>dRep_bin347_EKGCMFPD_01105 50S ribosomal protein L29;>dRep_bin115_IFKGOGCL_00638 50S ribosomal protein L29;>dRep_bin047_IFFANOMN_00241 50S ribosomal protein L29;>dRep_bin328_GIGKNKPJ_01559 50S ribosoma	dRep_bin115_IFKGOGCL_00638	CDS	rpmC		50S ribosomal protein L29
IFKGOGCL_00639	26.627290000000002	26.448759999999996	26.68325	26.600450000000002								2	2	3,9693E-06	dRep_bin261_FJICAFFM_00373;dRep_bin047_IFFANOMN_01727;dRep_bin186_HJAAFFNP_00339;dRep_bin328_GIGKNKPJ_01340;dRep_bin260_HELEPKJL_01351;dRep_bin234_ECABPBME_00122;dRep_bin203_CLFNNOCF_02128;dRep_bin167_BLMEBMNN_01080;dRep_bin127_FIPNHBCH_00033;dRep_bin115_IFKGOGCL_00639;dRep_bin089_PAJFOJBN_02079;dRep_bin088_DNGPPFDK_00696;dRep_bin081_JDPCKDNP_01237;dRep_bin047_IFFANOMN_00242;dRep_bin266_JFOCEDAE_01008	dRep_bin261_FJICAFFM_00373;dRep_bin047_IFFANOMN_01727;dRep_bin186_HJAAFFNP_00339;dRep_bin328_GIGKNKPJ_01340;dRep_bin260_HELEPKJL_01351;dRep_bin234_ECABPBME_00122;dRep_bin203_CLFNNOCF_02128;dRep_bin167_BLMEBMNN_01080;dRep_bin127_FIPNHBCH_00033;dRep_bin115_IFKGOGCL_00639;dRep_bin089_PAJFOJBN_02079;dRep_bin088_DNGPPFDK_00696;dRep_bin081_JDPCKDNP_01237;dRep_bin047_IFFANOMN_00242;dRep_bin266_JFOCEDAE_01008	>dRep_bin261_FJICAFFM_00373 50S ribosomal protein L16;>dRep_bin047_IFFANOMN_01727 50S ribosomal protein L16;>dRep_bin186_HJAAFFNP_00339 50S ribosomal protein L16;>dRep_bin328_GIGKNKPJ_01340 50S ribosomal protein L16;>dRep_bin260_HELEPKJL_01351 50S ribosoma	dRep_bin115_IFKGOGCL_00639	CDS	rplP		50S ribosomal protein L16
IFKGOGCL_00640					25.32505	24.71879		24.59167				3	0	5,5494E-25	dRep_bin308_JBPDGLPP_01110;dRep_bin260_HELEPKJL_01350;dRep_bin167_BLMEBMNN_01079;dRep_bin115_IFKGOGCL_00640;dRep_bin186_HJAAFFNP_00338	dRep_bin308_JBPDGLPP_01110;dRep_bin260_HELEPKJL_01350;dRep_bin167_BLMEBMNN_01079;dRep_bin115_IFKGOGCL_00640;dRep_bin186_HJAAFFNP_00338	>dRep_bin308_JBPDGLPP_01110 30S ribosomal protein S3;>dRep_bin260_HELEPKJL_01350 30S ribosomal protein S3;>dRep_bin167_BLMEBMNN_01079 30S ribosomal protein S3;>dRep_bin115_IFKGOGCL_00640 30S ribosomal protein S3;>dRep_bin186_HJAAFFNP_00338 30S ribosomal pr	dRep_bin115_IFKGOGCL_00640	CDS	rpsC		30S ribosomal protein S3
IFKGOGCL_00642							27.04145					8	0	3,6665E-54	dRep_bin135_HHKACLPM_00482;dRep_bin308_JBPDGLPP_01108;dRep_bin186_HJAAFFNP_00336;dRep_bin127_FIPNHBCH_00030;dRep_bin328_GIGKNKPJ_01343;dRep_bin065_DFABHCBI_01275;dRep_bin001_GHHJMDAL_00750;dRep_bin062_BOFBFLDA_00727;dRep_bin158_OGFICEAP_00611;dRep_bin211_LGJEFJIK_00743;dRep_bin260_HELEPKJL_01348;dRep_bin234_ECABPBME_00125;dRep_bin115_IFKGOGCL_00642;dRep_bin088_DNGPPFDK_00693;dRep_bin001_GHHJMDAL_01427;dRep_bin253_CPMOAOBJ_00213;dRep_bin150_HCDEOBMH_00592;dRep_bin057_BNCFHBBO_00183;dRep_bin299_AKNBKJGM_01127;dRep_bin216_JNJMCPHB_00024;dRep_bin085_MBHLGCDB_00710;dRep_bin286_OEMIJKMC_00079;dRep_bin231_CFOLMJBA_01079;dRep_bin172_ALNHGLMD_00777;dRep_bin182_EMCFODCD_00190;dRep_bin058_GJKCICJN_00161;dRep_bin044_IPFKHAEF_01460;dRep_bin283_NLJJFFAC_00217	dRep_bin135_HHKACLPM_00482;dRep_bin308_JBPDGLPP_01108;dRep_bin186_HJAAFFNP_00336;dRep_bin127_FIPNHBCH_00030;dRep_bin328_GIGKNKPJ_01343;dRep_bin065_DFABHCBI_01275;dRep_bin001_GHHJMDAL_00750;dRep_bin062_BOFBFLDA_00727;dRep_bin158_OGFICEAP_00611;dRep_bin211_LGJEFJIK_00743	>dRep_bin135_HHKACLPM_00482 30S ribosomal protein S19;>dRep_bin308_JBPDGLPP_01108 30S ribosomal protein S19;>dRep_bin186_HJAAFFNP_00336 30S ribosomal protein S19;>dRep_bin127_FIPNHBCH_00030 30S ribosomal protein S19;>dRep_bin328_GIGKNKPJ_01343 30S ribosoma	dRep_bin115_IFKGOGCL_00642	CDS	rpsS		30S ribosomal protein S19
IFKGOGCL_00643	26.57164	25.91969	27.637550000000005	29.130380000000002	28.06389	28.498569999999997	25.66744	28.67933				6	2	1,1862E-17	dRep_bin292_JIBLDOOH_00002;dRep_bin308_JBPDGLPP_01107;dRep_bin115_IFKGOGCL_00643;dRep_bin211_LGJEFJIK_01522;dRep_bin186_HJAAFFNP_00335;dRep_bin127_FIPNHBCH_00029	dRep_bin292_JIBLDOOH_00002	>dRep_bin292_JIBLDOOH_00002 50S ribosomal protein L2	dRep_bin115_IFKGOGCL_00643	CDS	rplB		50S ribosomal protein L2
IFKGOGCL_00644				23.638650000000002								2	1	2,0194E-07	dRep_bin016_JLGAHGOJ_00427;dRep_bin115_IFKGOGCL_00644	dRep_bin016_JLGAHGOJ_00427;dRep_bin115_IFKGOGCL_00644	>dRep_bin016_JLGAHGOJ_00427 50S ribosomal protein L23;>dRep_bin115_IFKGOGCL_00644 50S ribosomal protein L23	dRep_bin115_IFKGOGCL_00644	CDS	rplW		50S ribosomal protein L23
IFKGOGCL_00646			26.2095									2	0	4,5145E-09	dRep_bin115_IFKGOGCL_00646;dRep_bin186_HJAAFFNP_00332;dRep_bin001_GHHJMDAL_00746;dRep_bin308_JBPDGLPP_01104;dRep_bin211_LGJEFJIK_01519;dRep_bin127_FIPNHBCH_00026;dRep_bin017_FGFLFOPJ_01008	dRep_bin115_IFKGOGCL_00646;dRep_bin186_HJAAFFNP_00332;dRep_bin001_GHHJMDAL_00746;dRep_bin308_JBPDGLPP_01104;dRep_bin211_LGJEFJIK_01519;dRep_bin127_FIPNHBCH_00026;dRep_bin017_FGFLFOPJ_01008	>dRep_bin115_IFKGOGCL_00646 50S ribosomal protein L3;>dRep_bin186_HJAAFFNP_00332 50S ribosomal protein L3;>dRep_bin001_GHHJMDAL_00746 50S ribosomal protein L3;>dRep_bin308_JBPDGLPP_01104 50S ribosomal protein L3;>dRep_bin211_LGJEFJIK_01519 50S ribosomal pr	dRep_bin115_IFKGOGCL_00646	CDS	rplC		50S ribosomal protein L3
IFKGOGCL_00685			23.286019999999997	23.610880000000005								4	1	5,7789E-14	dRep_bin133_NOBPDBPA_01467;dRep_bin209_NKIHFCEN_01581;dRep_bin179_HFEIPPPA_02264;dRep_bin226_NLNLHLLD_01531;dRep_bin324_IPNHOHFK_01023;dRep_bin335_JIOGNAPG_00849;dRep_bin297_EDHEEICA_01086;dRep_bin308_JBPDGLPP_01561;dRep_bin249_OFIIEIDJ_01347;dRep_bin024_OLHDGABE_00861;dRep_bin248_CCDFPECI_00398;dRep_bin095_HOBNOEEF_00461;dRep_bin168_HKDILBFE_01532;dRep_bin099_DNDAGJEJ_00152;dRep_bin091_MAFACGAD_01498;dRep_bin053_OMGNPOOB_00496;dRep_bin347_EKGCMFPD_00942;dRep_bin017_FGFLFOPJ_00104;dRep_bin001_GHHJMDAL_00099;dRep_bin260_HELEPKJL_01156;dRep_bin139_KGAJINND_00655;dRep_bin284_DEHKNOBF_00340;dRep_bin158_OGFICEAP_00774;dRep_bin115_IFKGOGCL_00685;dRep_bin023_HGFJFKAI_00316;dRep_bin127_FIPNHBCH_00146;dRep_bin254_GJDPFAEA_01402;dRep_bin167_BLMEBMNN_01288;dRep_bin328_GIGKNKPJ_00098;dRep_bin065_DFABHCBI_00298	dRep_bin133_NOBPDBPA_01467;dRep_bin209_NKIHFCEN_01581;dRep_bin179_HFEIPPPA_02264;dRep_bin226_NLNLHLLD_01531;dRep_bin324_IPNHOHFK_01023;dRep_bin335_JIOGNAPG_00849;dRep_bin297_EDHEEICA_01086	>dRep_bin133_NOBPDBPA_01467 2,3-dimethylmalate dehydratase large subunit;>dRep_bin209_NKIHFCEN_01581 2,3-dimethylmalate dehydratase large subunit;>dRep_bin179_HFEIPPPA_02264 2,3-dimethylmalate dehydratase large subunit;>dRep_bin226_NLNLHLLD_01531 Homoaconi	dRep_bin115_IFKGOGCL_00685	CDS	dmdA_1	4.2.1.85	2,3-dimethylmalate dehydratase large subunit
IFKGOGCL_00786								23.62778				4	1	3,6641E-10	dRep_bin139_KGAJINND_00546;dRep_bin344_CJJBDGAA_00504;dRep_bin269_PNILGKPH_01782;dRep_bin186_HJAAFFNP_01230;dRep_bin160_EFKMPBOM_02028;dRep_bin154_JGOKHKLI_01570;dRep_bin027_OFJCHLJJ_01704;dRep_bin019_MOJEPLJF_00393;dRep_bin095_HOBNOEEF_01900;dRep_bin007_LNLEAAAN_01664;dRep_bin134_HIAPAODO_02032;dRep_bin220_PILICLLL_00626;dRep_bin201_OLKDIBOK_01146;dRep_bin158_OGFICEAP_00831;dRep_bin261_FJICAFFM_00403;dRep_bin347_EKGCMFPD_01461;dRep_bin328_GIGKNKPJ_00617;dRep_bin308_JBPDGLPP_01735;dRep_bin284_DEHKNOBF_00839;dRep_bin254_GJDPFAEA_01844;dRep_bin127_FIPNHBCH_00020;dRep_bin081_JDPCKDNP_00351;dRep_bin065_DFABHCBI_01741;dRep_bin001_GHHJMDAL_00049;dRep_bin335_JIOGNAPG_00092;dRep_bin282_PKAAPBFP_00201;dRep_bin260_HELEPKJL_01120;dRep_bin039_IJNOFOJK_00928;dRep_bin088_DNGPPFDK_00468;dRep_bin248_CCDFPECI_00111;dRep_bin107_EFNBPDOP_01463;dRep_bin077_DNNBMPMC_00533;dRep_bin300_MJPPENNL_00852;dRep_bin279_IAEFEPEN_01391;dRep_bin145_KMJJJOEJ_01298;dRep_bin062_BOFBFLDA_00998;dRep_bin016_JLGAHGOJ_00540;dRep_bin310_IMBAFDIF_00139;dRep_bin115_IFKGOGCL_00786;dRep_bin158_OGFICEAP_00832;dRep_bin066_AJACLPEE_00773;dRep_bin249_OFIIEIDJ_01720;dRep_bin324_IPNHOHFK_00378;dRep_bin287_DONBGKDH_00056;dRep_bin186_HJAAFFNP_01363;dRep_bin181_MKGPMPIA_00052;dRep_bin319_PBDBJGCJ_00396;dRep_bin278_BFCONKOE_00395;dRep_bin024_OLHDGABE_00254;dRep_bin135_HHKACLPM_01039	dRep_bin139_KGAJINND_00546;dRep_bin344_CJJBDGAA_00504;dRep_bin269_PNILGKPH_01782;dRep_bin186_HJAAFFNP_01230;dRep_bin160_EFKMPBOM_02028;dRep_bin154_JGOKHKLI_01570;dRep_bin027_OFJCHLJJ_01704;dRep_bin019_MOJEPLJF_00393;dRep_bin095_HOBNOEEF_01900;dRep_bin007_LNLEAAAN_01664;dRep_bin134_HIAPAODO_02032;dRep_bin220_PILICLLL_00626;dRep_bin201_OLKDIBOK_01146;dRep_bin158_OGFICEAP_00831;dRep_bin261_FJICAFFM_00403;dRep_bin347_EKGCMFPD_01461;dRep_bin328_GIGKNKPJ_00617;dRep_bin308_JBPDGLPP_01735;dRep_bin284_DEHKNOBF_00839;dRep_bin254_GJDPFAEA_01844;dRep_bin127_FIPNHBCH_00020;dRep_bin081_JDPCKDNP_00351;dRep_bin065_DFABHCBI_01741;dRep_bin001_GHHJMDAL_00049;dRep_bin335_JIOGNAPG_00092;dRep_bin282_PKAAPBFP_00201;dRep_bin260_HELEPKJL_01120;dRep_bin039_IJNOFOJK_00928;dRep_bin088_DNGPPFDK_00468;dRep_bin248_CCDFPECI_00111;dRep_bin107_EFNBPDOP_01463;dRep_bin077_DNNBMPMC_00533;dRep_bin300_MJPPENNL_00852;dRep_bin279_IAEFEPEN_01391;dRep_bin145_KMJJJOEJ_01298;dRep_bin062_BOFBFLDA_00998;dRep_bin016_JLGAHGOJ_00540;dRep_bin310_IMBAFDIF_00139	>dRep_bin139_KGAJINND_00546 ATP-dependent 6-phosphofructokinase;>dRep_bin344_CJJBDGAA_00504 ATP-dependent 6-phosphofructokinase;>dRep_bin269_PNILGKPH_01782 ATP-dependent 6-phosphofructokinase;>dRep_bin186_HJAAFFNP_01230 ATP-dependent 6-phosphofructokinase;	dRep_bin115_IFKGOGCL_00786	CDS	pfkA	2.7.1.11	ATP-dependent 6-phosphofructokinase
IFKGOGCL_00794	28.442529999999994	28.11267	28.962209999999995	28.931060000000002	26.58477	25.619360000000004	27.633190000000003	27.46381				4	4	2,667E-152	dRep_bin115_IFKGOGCL_00794	dRep_bin115_IFKGOGCL_00794	>dRep_bin115_IFKGOGCL_00794 (R)-specific enoyl-CoA hydratase	dRep_bin115_IFKGOGCL_00794	CDS	phaJ	4.2.1.119	(R)-specific enoyl-CoA hydratase
IFKGOGCL_00875	28.89836	30.31214	29.03247	30.41649	27.785499999999995							13	3	1,2157E-153	dRep_bin133_NOBPDBPA_01398;dRep_bin115_IFKGOGCL_00875	dRep_bin133_NOBPDBPA_01398;dRep_bin115_IFKGOGCL_00875	>dRep_bin133_NOBPDBPA_01398 Transaldolase;>dRep_bin115_IFKGOGCL_00875 Transaldolase	dRep_bin115_IFKGOGCL_00875	CDS	tal_2	2.2.1.2	Transaldolase
IFKGOGCL_00876	28.275199999999998	28.35817	26.62547	27.318810000000003	27.58413	24.6659		25.03141				17	0	8,906E-196	dRep_bin115_IFKGOGCL_00876	dRep_bin115_IFKGOGCL_00876	>dRep_bin115_IFKGOGCL_00876 hypothetical protein	dRep_bin115_IFKGOGCL_00876	CDS			hypothetical protein
IFKGOGCL_00997	26.450129999999998	27.69132	27.74599	26.20708	26.64141	26.472569999999997	27.757860000000004	27.547970000000003				6	6	1,0025E-46	dRep_bin158_OGFICEAP_00460;dRep_bin248_CCDFPECI_01679;dRep_bin254_GJDPFAEA_00600;dRep_bin249_OFIIEIDJ_00626;dRep_bin115_IFKGOGCL_00997	dRep_bin158_OGFICEAP_00460	>dRep_bin158_OGFICEAP_00460 Glycine/sarcosine/betaine reductase complex component C subunit alpha	dRep_bin115_IFKGOGCL_00997	CDS	grdD	1.21.4.2	Glycine/sarcosine/betaine reductase complex component C subunit alpha
IFKGOGCL_00998	26.493429999999996	25.216970000000003	26.060339999999997	25.654910000000005								4	4	6,5605E-67	dRep_bin115_IFKGOGCL_00998	dRep_bin115_IFKGOGCL_00998	>dRep_bin115_IFKGOGCL_00998 Glycine/sarcosine/betaine reductase complex component C subunit beta	dRep_bin115_IFKGOGCL_00998	CDS	grdC	1.21.4.2	Glycine/sarcosine/betaine reductase complex component C subunit beta
IFKGOGCL_01001	26.449599999999997		25.84045	25.463729999999995								3	2	7,1118E-08	dRep_bin115_IFKGOGCL_01001	dRep_bin115_IFKGOGCL_01001	>dRep_bin115_IFKGOGCL_01001 Thioredoxin	dRep_bin115_IFKGOGCL_01001	CDS	trxA_2		Thioredoxin
IFKGOGCL_01002	25.75149	25.16925		24.66557								4	3	4,8991E-18	dRep_bin115_IFKGOGCL_01002	dRep_bin115_IFKGOGCL_01002	>dRep_bin115_IFKGOGCL_01002 Thioredoxin reductase	dRep_bin115_IFKGOGCL_01002	CDS	trxB_3	1.8.1.9	Thioredoxin reductase
IFKGOGCL_01003	26.97946	27.34147	27.28198	26.745089999999998	27.12928	24.68945	27.55939	27.382279999999998				3	3	2,5131E-50	dRep_bin158_OGFICEAP_00454;dRep_bin115_IFKGOGCL_01003	dRep_bin158_OGFICEAP_00454	>dRep_bin158_OGFICEAP_00454 Glycine reductase complex component B subunit gamma	dRep_bin115_IFKGOGCL_01003	CDS	grdB_3	1.21.4.2	Glycine reductase complex component B subunit gamma
IFKGOGCL_01004	27.22288	26.76699	28.074800000000003	26.66112	27.08699	26.922299999999996	28.580289999999998	27.60293				7	6	2,8725E-28	dRep_bin158_OGFICEAP_00453;dRep_bin115_IFKGOGCL_01004	dRep_bin158_OGFICEAP_00453	>dRep_bin158_OGFICEAP_00453 Glycine reductase complex component B subunit gamma	dRep_bin115_IFKGOGCL_01004	CDS	grdB_4	1.21.4.2	Glycine reductase complex component B subunit gamma
IFKGOGCL_01005			26.07075									3	3	4,4057E-26	dRep_bin145_KMJJJOEJ_01230;dRep_bin158_OGFICEAP_00452;dRep_bin248_CCDFPECI_01350;dRep_bin115_IFKGOGCL_01005;dRep_bin095_HOBNOEEF_00954;dRep_bin339_DBNBAHDK_00532;dRep_bin242_LKAIBGGJ_00171	dRep_bin145_KMJJJOEJ_01230;dRep_bin158_OGFICEAP_00452;dRep_bin248_CCDFPECI_01350;dRep_bin115_IFKGOGCL_01005;dRep_bin095_HOBNOEEF_00954;dRep_bin339_DBNBAHDK_00532;dRep_bin242_LKAIBGGJ_00171	>dRep_bin145_KMJJJOEJ_01230 Glycine reductase complex component B subunits alpha and beta;>dRep_bin158_OGFICEAP_00452 Glycine reductase complex component B subunits alpha and beta;>dRep_bin248_CCDFPECI_01350 Glycine reductase complex component B subunits a	dRep_bin115_IFKGOGCL_01005	CDS	grdE_2	1.21.4.2	Glycine reductase complex component B subunits alpha and beta
IFKGOGCL_01117	26.37744	25.97399	26.81323	26.86124	27.34866	27.342399999999998	27.334750000000003	27.569499999999998				5	1	5,0378E-27	dRep_bin143_PFLDJMPF_00290;dRep_bin293_MEPKGOAN_01524;dRep_bin347_EKGCMFPD_01183;dRep_bin201_OLKDIBOK_00232;dRep_bin031_BNHMFOII_00394;dRep_bin344_CJJBDGAA_02115;dRep_bin303_DDDNDJCF_01571;dRep_bin027_OFJCHLJJ_00404;dRep_bin339_DBNBAHDK_00300;dRep_bin049_MNFBDPNO_01583;dRep_bin350_EKOOEEGH_01042;dRep_bin277_MIPNGEJE_00279;dRep_bin309_BIOHLCGG_01215;dRep_bin247_EKGBJCBM_01321;dRep_bin115_IFKGOGCL_01117;dRep_bin056_EMNHHOJA_00506;dRep_bin048_PABMBHAL_01302;dRep_bin253_CPMOAOBJ_00269;dRep_bin335_JIOGNAPG_01506;dRep_bin310_IMBAFDIF_00163;dRep_bin139_KGAJINND_00868;dRep_bin019_MOJEPLJF_01034;dRep_bin005_CNDFPKJG_00855;dRep_bin144_NPHACCKF_00198;dRep_bin094_LBLICAAO_01300;dRep_bin278_BFCONKOE_00967	dRep_bin143_PFLDJMPF_00290;dRep_bin293_MEPKGOAN_01524;dRep_bin347_EKGCMFPD_01183;dRep_bin201_OLKDIBOK_00232;dRep_bin031_BNHMFOII_00394;dRep_bin344_CJJBDGAA_02115;dRep_bin303_DDDNDJCF_01571;dRep_bin027_OFJCHLJJ_00404;dRep_bin339_DBNBAHDK_00300;dRep_bin049_MNFBDPNO_01583	>dRep_bin143_PFLDJMPF_00290 Serine--tRNA ligase;>dRep_bin293_MEPKGOAN_01524 Serine--tRNA ligase;>dRep_bin347_EKGCMFPD_01183 Serine--tRNA ligase;>dRep_bin201_OLKDIBOK_00232 Serine--tRNA ligase;>dRep_bin031_BNHMFOII_00394 Serine--tRNA ligase;>dRep_bin344_CJJ	dRep_bin115_IFKGOGCL_01117	CDS	serS	6.1.1.11	Serine--tRNA ligase
IFKGOGCL_01177			22.460569999999997									2	1	2,4794E-10	dRep_bin135_HHKACLPM_01315;dRep_bin249_OFIIEIDJ_01934;dRep_bin284_DEHKNOBF_00489;dRep_bin001_GHHJMDAL_00077;dRep_bin300_MJPPENNL_01366;dRep_bin306_FGHMKMMP_00653;dRep_bin023_HGFJFKAI_00503;dRep_bin332_KAOPCDPF_01288;dRep_bin344_CJJBDGAA_01850;dRep_bin310_IMBAFDIF_00279;dRep_bin288_KOIAAABN_00684;dRep_bin248_CCDFPECI_01334;dRep_bin254_GJDPFAEA_02026;dRep_bin277_MIPNGEJE_00216;dRep_bin293_MEPKGOAN_00506;dRep_bin075_EPEMMOCL_01819;dRep_bin286_OEMIJKMC_00231;dRep_bin115_IFKGOGCL_01177;dRep_bin005_CNDFPKJG_01656;dRep_bin095_HOBNOEEF_00899;dRep_bin197_NHLBHFEI_00443;dRep_bin281_OGHLKMAI_00140;dRep_bin058_GJKCICJN_01024;dRep_bin263_OLEFOGIJ_00135;dRep_bin189_AHHEHGDL_00535;dRep_bin103_IGJBLKMC_00221;dRep_bin205_LKIOOBKC_01773;dRep_bin011_KOGMKLNO_00247;dRep_bin304_JDNJGFKH_00846;dRep_bin120_EKLBOPNC_01967;dRep_bin083_OCBADPJJ_00857	dRep_bin135_HHKACLPM_01315;dRep_bin249_OFIIEIDJ_01934;dRep_bin284_DEHKNOBF_00489;dRep_bin001_GHHJMDAL_00077;dRep_bin300_MJPPENNL_01366;dRep_bin306_FGHMKMMP_00653;dRep_bin023_HGFJFKAI_00503;dRep_bin332_KAOPCDPF_01288;dRep_bin344_CJJBDGAA_01850;dRep_bin310_IMBAFDIF_00279;dRep_bin288_KOIAAABN_00684;dRep_bin248_CCDFPECI_01334;dRep_bin254_GJDPFAEA_02026;dRep_bin277_MIPNGEJE_00216;dRep_bin293_MEPKGOAN_00506;dRep_bin075_EPEMMOCL_01819;dRep_bin286_OEMIJKMC_00231;dRep_bin115_IFKGOGCL_01177;dRep_bin005_CNDFPKJG_01656;dRep_bin095_HOBNOEEF_00899;dRep_bin197_NHLBHFEI_00443;dRep_bin281_OGHLKMAI_00140;dRep_bin058_GJKCICJN_01024;dRep_bin263_OLEFOGIJ_00135;dRep_bin189_AHHEHGDL_00535;dRep_bin103_IGJBLKMC_00221;dRep_bin205_LKIOOBKC_01773;dRep_bin011_KOGMKLNO_00247;dRep_bin304_JDNJGFKH_00846;dRep_bin120_EKLBOPNC_01967;dRep_bin083_OCBADPJJ_00857	>dRep_bin135_HHKACLPM_01315 Leucine--tRNA ligase;>dRep_bin249_OFIIEIDJ_01934 Leucine--tRNA ligase;>dRep_bin284_DEHKNOBF_00489 Leucine--tRNA ligase;>dRep_bin001_GHHJMDAL_00077 Leucine--tRNA ligase;>dRep_bin300_MJPPENNL_01366 Leucine--tRNA ligase;>dRep_bin30	dRep_bin115_IFKGOGCL_01177	CDS	leuS	6.1.1.4	Leucine--tRNA ligase
IFKGOGCL_01262								22.391840000000002				2	2	0,0012784	dRep_bin292_JIBLDOOH_01455;dRep_bin297_EDHEEICA_00460;dRep_bin260_HELEPKJL_01994;dRep_bin134_HIAPAODO_01228;dRep_bin115_IFKGOGCL_01262;dRep_bin062_BOFBFLDA_00625;dRep_bin269_PNILGKPH_00784;dRep_bin145_KMJJJOEJ_00869;dRep_bin310_IMBAFDIF_00687;dRep_bin226_NLNLHLLD_01228;dRep_bin209_NKIHFCEN_00359;dRep_bin158_OGFICEAP_01380;dRep_bin157_JPNIKEKI_00889;dRep_bin127_FIPNHBCH_01213;dRep_bin186_HJAAFFNP_00787;dRep_bin167_BLMEBMNN_01301;dRep_bin069_EGGEOGDC_00481;dRep_bin016_JLGAHGOJ_01259;dRep_bin065_DFABHCBI_00254;dRep_bin039_IJNOFOJK_01684;dRep_bin322_OJELOJOF_00527;dRep_bin261_FJICAFFM_00492;dRep_bin220_PILICLLL_01235;dRep_bin201_OLKDIBOK_02013;dRep_bin303_DDDNDJCF_00579	dRep_bin292_JIBLDOOH_01455;dRep_bin297_EDHEEICA_00460;dRep_bin260_HELEPKJL_01994;dRep_bin134_HIAPAODO_01228;dRep_bin115_IFKGOGCL_01262;dRep_bin062_BOFBFLDA_00625;dRep_bin269_PNILGKPH_00784;dRep_bin145_KMJJJOEJ_00869;dRep_bin310_IMBAFDIF_00687;dRep_bin226_NLNLHLLD_01228;dRep_bin209_NKIHFCEN_00359;dRep_bin158_OGFICEAP_01380;dRep_bin157_JPNIKEKI_00889;dRep_bin127_FIPNHBCH_01213;dRep_bin186_HJAAFFNP_00787;dRep_bin167_BLMEBMNN_01301;dRep_bin069_EGGEOGDC_00481;dRep_bin016_JLGAHGOJ_01259;dRep_bin065_DFABHCBI_00254;dRep_bin039_IJNOFOJK_01684;dRep_bin322_OJELOJOF_00527;dRep_bin261_FJICAFFM_00492;dRep_bin220_PILICLLL_01235;dRep_bin201_OLKDIBOK_02013;dRep_bin303_DDDNDJCF_00579	>dRep_bin292_JIBLDOOH_01455 Ribonuclease J1;>dRep_bin297_EDHEEICA_00460 Ribonuclease J1;>dRep_bin260_HELEPKJL_01994 Ribonuclease J1;>dRep_bin134_HIAPAODO_01228 Ribonuclease J1;>dRep_bin115_IFKGOGCL_01262 Ribonuclease J1;>dRep_bin062_BOFBFLDA_00625 Ribonucl	dRep_bin115_IFKGOGCL_01262	CDS	rnjA_1	3.1.-.-	Ribonuclease J1
IFKGOGCL_01280				21.86884								3	1	1,3797E-13	dRep_bin021_AJDDCGJC_00051;dRep_bin252_NDAKLAGD_00826;dRep_bin317_ABPHNCOD_01131;dRep_bin216_JNJMCPHB_01076;dRep_bin272_LGBDGEIM_00618;dRep_bin097_CBBLIPAN_01579;dRep_bin053_OMGNPOOB_00833;dRep_bin337_FHKPNFDB_00090;dRep_bin052_PGOOKKFH_01594;dRep_bin168_HKDILBFE_01015;dRep_bin322_OJELOJOF_01622;dRep_bin220_PILICLLL_01543;dRep_bin055_IBMMJAEE_00610;dRep_bin061_ONFGDLGO_01234;dRep_bin168_HKDILBFE_00368;dRep_bin055_IBMMJAEE_00168;dRep_bin261_FJICAFFM_00490;dRep_bin017_FGFLFOPJ_00414;dRep_bin115_IFKGOGCL_01280;dRep_bin257_JHFDCHCB_01406;dRep_bin323_FBBLPLCG_01600;dRep_bin007_LNLEAAAN_00766;dRep_bin049_MNFBDPNO_00781;dRep_bin333_EFOKIBLA_01149;dRep_bin279_IAEFEPEN_01471;dRep_bin234_ECABPBME_01515;dRep_bin179_HFEIPPPA_02108;dRep_bin023_HGFJFKAI_01527;dRep_bin335_JIOGNAPG_00787;dRep_bin250_NMCAMJIO_00423;dRep_bin158_OGFICEAP_00549;dRep_bin100_CODMOHGB_01341;dRep_bin089_PAJFOJBN_02515;dRep_bin088_DNGPPFDK_01371;dRep_bin081_JDPCKDNP_00684;dRep_bin324_IPNHOHFK_01454;dRep_bin300_MJPPENNL_01260;dRep_bin292_JIBLDOOH_01593;dRep_bin284_DEHKNOBF_00281;dRep_bin282_PKAAPBFP_00934;dRep_bin279_IAEFEPEN_01275;dRep_bin269_PNILGKPH_00152;dRep_bin240_LDBBGJKG_01257;dRep_bin226_NLNLHLLD_00367;dRep_bin209_NKIHFCEN_01541;dRep_bin203_CLFNNOCF_01928;dRep_bin179_HFEIPPPA_00359;dRep_bin167_BLMEBMNN_00233;dRep_bin160_EFKMPBOM_02132;dRep_bin154_JGOKHKLI_02775;dRep_bin133_NOBPDBPA_00727;dRep_bin114_FJHJKHGL_00838;dRep_bin095_HOBNOEEF_00822;dRep_bin075_EPEMMOCL_00939;dRep_bin074_EHAOMODJ_00291;dRep_bin065_DFABHCBI_01203;dRep_bin347_EKGCMFPD_00625;dRep_bin325_EIIGOGHN_00612;dRep_bin310_IMBAFDIF_01359;dRep_bin308_JBPDGLPP_00545;dRep_bin306_FGHMKMMP_01018;dRep_bin297_EDHEEICA_01903;dRep_bin201_OLKDIBOK_00335;dRep_bin186_HJAAFFNP_00409;dRep_bin173_BEBNCADL_00242;dRep_bin169_PNICKJKO_00103;dRep_bin145_KMJJJOEJ_01348;dRep_bin135_HHKACLPM_00566;dRep_bin101_BNDDLDCL_00036;dRep_bin069_EGGEOGDC_01480;dRep_bin062_BOFBFLDA_00487;dRep_bin047_IFFANOMN_01271;dRep_bin042_MMFCLHOO_00308;dRep_bin041_OPKGAAAG_00762;dRep_bin024_OLHDGABE_00679;dRep_bin016_JLGAHGOJ_01831;dRep_bin001_GHHJMDAL_00660;dRep_bin349_AMCJEEEG_00131;dRep_bin312_MJFEFHMP_00833;dRep_bin264_DNFFGNEG_00100;dRep_bin246_MMFBABHK_00297;dRep_bin219_HGPEELLF_00003;dRep_bin174_LJJOKEME_01103;dRep_bin129_GADIAMAA_01409;dRep_bin127_FIPNHBCH_00703;dRep_bin077_DNNBMPMC_01278;dRep_bin030_OGPDLGOC_01790;dRep_bin004_OCHNPJPO_01519;dRep_bin218_ACMPALGF_00968;dRep_bin185_OOOLKACK_00657;dRep_bin181_MKGPMPIA_00538;dRep_bin148_NAJFKJMD_01090;dRep_bin058_GJKCICJN_01056;dRep_bin291_EILOACJB_00579;dRep_bin244_LBFMHLBI_01277;dRep_bin223_PIMCDKJI_01006;dRep_bin204_INMOGLDN_01473;dRep_bin184_MBMMJHKO_00222;dRep_bin302_AHDEPDKG_00621;dRep_bin265_LFKFBJPC_00590;dRep_bin233_BAGKKAOB_00885;dRep_bin188_EJILNMPE_01053;dRep_bin081_JDPCKDNP_01324;dRep_bin318_IEDEJOFJ_00724;dRep_bin144_NPHACCKF_00221;dRep_bin096_GNHMEKPF_00086;dRep_bin344_CJJBDGAA_01489;dRep_bin295_EJGKDKNE_00851;dRep_bin048_PABMBHAL_01507;dRep_bin303_DDDNDJCF_00663;dRep_bin283_NLJJFFAC_01754;dRep_bin201_OLKDIBOK_00523;dRep_bin139_KGAJINND_01276;dRep_bin134_HIAPAODO_01158;dRep_bin094_LBLICAAO_00942;dRep_bin062_BOFBFLDA_00417;dRep_bin336_MPGOKPOL_02385;dRep_bin082_HBEFABJN_00650;dRep_bin125_FADLGGII_00540;dRep_bin334_NAPFFNLD_01195;dRep_bin217_MJCEAEPB_00530;dRep_bin195_DDMDFNOK_00971;dRep_bin060_HNFNENOI_00088;dRep_bin328_GIGKNKPJ_00426;dRep_bin281_OGHLKMAI_01076;dRep_bin197_NHLBHFEI_00626;dRep_bin103_IGJBLKMC_00726;dRep_bin116_CLFDBMOF_00455;dRep_bin332_KAOPCDPF_00448;dRep_bin345_GLPJDLOI_00589;dRep_bin314_KCHFPLIP_00788;dRep_bin128_JPBBHEMA_00693;dRep_bin073_AKBCEHHO_01462;dRep_bin045_GJACFFBC_00428;dRep_bin329_GDOHKPBL_01522;dRep_bin316_FNLHDNEO_00349;dRep_bin307_AOCKHIKF_00400;dRep_bin294_EHJINIDK_01408;dRep_bin289_KALDCNNP_01327;dRep_bin183_FPGIOKBG_00622;dRep_bin098_DDEBHDKK_01308;dRep_bin165_HMDFFMMM_01247;dRep_bin037_GEAOEKHA_01212;dRep_bin256_KEMNAOBC_00113;dRep_bin092_OOJCPDEA_01143;dRep_bin126_PPDNCIBN_00264;dRep_bin090_IPGNHCBJ_00911;dRep_bin215_ABBFGCAF_00280;dRep_bin005_CNDFPKJG_00629;dRep_bin270_GEJAHNCN_01426;dRep_bin116_CLFDBMOF_00686;dRep_bin069_EGGEOGDC_00857;dRep_bin007_LNLEAAAN_01604;dRep_bin057_BNCFHBBO_01159;dRep_bin038_EIGFILKG_00229;dRep_bin114_FJHJKHGL_00934;dRep_bin152_LJMCIADF_00045;dRep_bin322_OJELOJOF_00826;dRep_bin266_JFOCEDAE_00030;dRep_bin194_MEPDOGGJ_01235;dRep_bin079_GAOGCKND_01437;dRep_bin068_ENOLAELK_01387;dRep_bin025_CBEJJMLE_00917;dRep_bin240_LDBBGJKG_00802;dRep_bin347_EKGCMFPD_01498;dRep_bin167_BLMEBMNN_00596;dRep_bin160_EFKMPBOM_02114;dRep_bin260_HELEPKJL_02017;dRep_bin091_MAFACGAD_00797;dRep_bin099_DNDAGJEJ_01471;dRep_bin278_BFCONKOE_01179;dRep_bin168_HKDILBFE_00397;dRep_bin284_DEHKNOBF_00737;dRep_bin001_GHHJMDAL_01209;dRep_bin236_BNONDECB_00531;dRep_bin286_OEMIJKMC_01078;dRep_bin231_CFOLMJBA_00464;dRep_bin193_GDMDPNNM_00224;dRep_bin172_ALNHGLMD_01787;dRep_bin182_EMCFODCD_00065;dRep_bin044_IPFKHAEF_00183	dRep_bin021_AJDDCGJC_00051;dRep_bin252_NDAKLAGD_00826;dRep_bin317_ABPHNCOD_01131;dRep_bin216_JNJMCPHB_01076;dRep_bin272_LGBDGEIM_00618;dRep_bin097_CBBLIPAN_01579;dRep_bin053_OMGNPOOB_00833;dRep_bin337_FHKPNFDB_00090;dRep_bin052_PGOOKKFH_01594	>dRep_bin021_AJDDCGJC_00051 ATP synthase subunit alpha;>dRep_bin252_NDAKLAGD_00826 ATP synthase subunit alpha;>dRep_bin317_ABPHNCOD_01131 ATP synthase subunit alpha;>dRep_bin216_JNJMCPHB_01076 ATP synthase subunit alpha;>dRep_bin272_LGBDGEIM_00618 ATP synt	dRep_bin115_IFKGOGCL_01280	CDS	atpA	3.6.3.14	ATP synthase subunit alpha
IFKGOGCL_01305	27.99723	27.76699	28.0167	27.68358	28.686890000000002	28.328129999999998	29.485999999999997	28.783409999999996				22	0	1,4861E-147	dRep_bin115_IFKGOGCL_01305	dRep_bin115_IFKGOGCL_01305	>dRep_bin115_IFKGOGCL_01305 Elongation factor G	dRep_bin115_IFKGOGCL_01305	CDS	fusA_2		Elongation factor G
IFKGOGCL_01307			28.77903	29.416960000000003	27.236439999999998	27.457870000000003	26.988259999999997	26.782069999999997				3	1	5,5654E-46	dRep_bin005_CNDFPKJG_00512;dRep_bin135_HHKACLPM_00996;dRep_bin007_LNLEAAAN_00555;dRep_bin303_DDDNDJCF_00538;dRep_bin328_GIGKNKPJ_00724;dRep_bin308_JBPDGLPP_01472;dRep_bin292_JIBLDOOH_00033;dRep_bin278_BFCONKOE_00439;dRep_bin269_PNILGKPH_00427;dRep_bin179_HFEIPPPA_01854;dRep_bin133_NOBPDBPA_03738;dRep_bin127_FIPNHBCH_00184;dRep_bin065_DFABHCBI_01543;dRep_bin039_IJNOFOJK_00835;dRep_bin031_BNHMFOII_01289;dRep_bin024_OLHDGABE_00632;dRep_bin001_GHHJMDAL_01042;dRep_bin027_OFJCHLJJ_01571;dRep_bin134_HIAPAODO_00757;dRep_bin339_DBNBAHDK_00274;dRep_bin268_LKMHIMLG_00767;dRep_bin215_ABBFGCAF_00889;dRep_bin142_NDNPJBEM_01236;dRep_bin347_EKGCMFPD_01033;dRep_bin325_EIIGOGHN_00650;dRep_bin310_IMBAFDIF_01183;dRep_bin293_MEPKGOAN_00730;dRep_bin282_PKAAPBFP_00286;dRep_bin100_CODMOHGB_00949;dRep_bin091_MAFACGAD_00437;dRep_bin079_GAOGCKND_00310;dRep_bin323_FBBLPLCG_01106;dRep_bin322_OJELOJOF_01654;dRep_bin273_FGAEBHNP_01366;dRep_bin266_JFOCEDAE_01192;dRep_bin231_CFOLMJBA_00878;dRep_bin194_MEPDOGGJ_01303;dRep_bin182_EMCFODCD_01258;dRep_bin169_PNICKJKO_01164;dRep_bin158_OGFICEAP_00873;dRep_bin115_IFKGOGCL_01307;dRep_bin108_BPNCDINP_01062;dRep_bin087_FCLGAPPI_00927;dRep_bin056_EMNHHOJA_01448;dRep_bin047_IFFANOMN_00919;dRep_bin044_IPFKHAEF_00004;dRep_bin026_HNPIIINL_00567;dRep_bin025_CBEJJMLE_00162;dRep_bin336_MPGOKPOL_00656;dRep_bin277_MIPNGEJE_00938;dRep_bin257_JHFDCHCB_01267;dRep_bin172_ALNHGLMD_01450;dRep_bin166_DFIAJFEC_00114;dRep_bin147_EJLBNEBE_01610;dRep_bin105_AAEIHAFF_01928	dRep_bin005_CNDFPKJG_00512;dRep_bin135_HHKACLPM_00996;dRep_bin007_LNLEAAAN_00555;dRep_bin303_DDDNDJCF_00538;dRep_bin328_GIGKNKPJ_00724;dRep_bin308_JBPDGLPP_01472;dRep_bin292_JIBLDOOH_00033;dRep_bin278_BFCONKOE_00439;dRep_bin269_PNILGKPH_00427;dRep_bin179_HFEIPPPA_01854;dRep_bin133_NOBPDBPA_03738;dRep_bin127_FIPNHBCH_00184;dRep_bin065_DFABHCBI_01543;dRep_bin039_IJNOFOJK_00835;dRep_bin031_BNHMFOII_01289;dRep_bin024_OLHDGABE_00632;dRep_bin001_GHHJMDAL_01042;dRep_bin027_OFJCHLJJ_01571	>dRep_bin005_CNDFPKJG_00512 30S ribosomal protein S12;>dRep_bin135_HHKACLPM_00996 30S ribosomal protein S12;>dRep_bin007_LNLEAAAN_00555 30S ribosomal protein S12;>dRep_bin303_DDDNDJCF_00538 30S ribosomal protein S12;>dRep_bin328_GIGKNKPJ_00724 30S ribosoma	dRep_bin115_IFKGOGCL_01307	CDS	rpsL		30S ribosomal protein S12
IFKGOGCL_01394				22.68825								1	1	0,0058078	dRep_bin344_CJJBDGAA_00877;dRep_bin248_CCDFPECI_01095;dRep_bin145_KMJJJOEJ_01042;dRep_bin075_EPEMMOCL_00063;dRep_bin322_OJELOJOF_01105;dRep_bin310_IMBAFDIF_01102;dRep_bin308_JBPDGLPP_01083;dRep_bin158_OGFICEAP_01436;dRep_bin115_IFKGOGCL_01394;dRep_bin266_JFOCEDAE_01440;dRep_bin211_LGJEFJIK_01486;dRep_bin081_JDPCKDNP_00412	dRep_bin344_CJJBDGAA_00877;dRep_bin248_CCDFPECI_01095;dRep_bin145_KMJJJOEJ_01042;dRep_bin075_EPEMMOCL_00063;dRep_bin322_OJELOJOF_01105;dRep_bin310_IMBAFDIF_01102;dRep_bin308_JBPDGLPP_01083;dRep_bin158_OGFICEAP_01436;dRep_bin115_IFKGOGCL_01394;dRep_bin266_JFOCEDAE_01440;dRep_bin211_LGJEFJIK_01486;dRep_bin081_JDPCKDNP_00412	>dRep_bin344_CJJBDGAA_00877 50S ribosomal protein L27;>dRep_bin248_CCDFPECI_01095 50S ribosomal protein L27;>dRep_bin145_KMJJJOEJ_01042 50S ribosomal protein L27;>dRep_bin075_EPEMMOCL_00063 50S ribosomal protein L27;>dRep_bin322_OJELOJOF_01105 50S ribosoma	dRep_bin115_IFKGOGCL_01394	CDS	rpmA		50S ribosomal protein L27
IFKGOGCL_01465					25.405189999999997							2	2	7,4204E-09	dRep_bin047_IFFANOMN_01382;dRep_bin019_MOJEPLJF_01837;dRep_bin260_HELEPKJL_00817;dRep_bin158_OGFICEAP_01465;dRep_bin115_IFKGOGCL_01465;dRep_bin016_JLGAHGOJ_01175;dRep_bin203_CLFNNOCF_01539;dRep_bin179_HFEIPPPA_01127;dRep_bin157_JPNIKEKI_00677;dRep_bin041_OPKGAAAG_01323;dRep_bin209_NKIHFCEN_01038	dRep_bin047_IFFANOMN_01382;dRep_bin019_MOJEPLJF_01837;dRep_bin260_HELEPKJL_00817;dRep_bin158_OGFICEAP_01465;dRep_bin115_IFKGOGCL_01465;dRep_bin016_JLGAHGOJ_01175;dRep_bin203_CLFNNOCF_01539;dRep_bin179_HFEIPPPA_01127;dRep_bin157_JPNIKEKI_00677;dRep_bin041_OPKGAAAG_01323;dRep_bin209_NKIHFCEN_01038	>dRep_bin047_IFFANOMN_01382 Orotidine 5-phosphate decarboxylase;>dRep_bin019_MOJEPLJF_01837 Orotidine 5-phosphate decarboxylase;>dRep_bin260_HELEPKJL_00817 Orotidine 5-phosphate decarboxylase;>dRep_bin158_OGFICEAP_01465 Orotidine 5-phosphate decarboxyl	dRep_bin115_IFKGOGCL_01465	CDS	pyrF	4.1.1.23	Orotidine 5'-phosphate decarboxylase
IFKGOGCL_01537						27.786749999999998	25.11259					5	2	5,3146E-28	dRep_bin115_IFKGOGCL_01537	dRep_bin115_IFKGOGCL_01537	>dRep_bin115_IFKGOGCL_01537 60 kDa chaperonin	dRep_bin115_IFKGOGCL_01537	CDS	groL_2		60 kDa chaperonin
IFKGOGCL_01570												1	1	0,0036574	dRep_bin115_IFKGOGCL_01570	dRep_bin115_IFKGOGCL_01570	>dRep_bin115_IFKGOGCL_01570 GMP synthase [glutamine-hydrolyzing]	dRep_bin115_IFKGOGCL_01570	CDS	guaA	6.3.5.2	GMP synthase [glutamine-hydrolyzing]
IFKGOGCL_01618	24.827890000000004	24.995289999999997	27.57773	24.967539999999996								2	2	5,745E-05	dRep_bin094_LBLICAAO_00035;dRep_bin029_LFMGBBEC_00468;dRep_bin351_CKFFBPHM_00106;dRep_bin115_IFKGOGCL_01618;dRep_bin105_AAEIHAFF_00821;dRep_bin118_FGIOKLBC_00146;dRep_bin348_LCLFDNEE_00839;dRep_bin057_BNCFHBBO_00956;dRep_bin328_GIGKNKPJ_00687;dRep_bin056_EMNHHOJA_00366;dRep_bin026_HNPIIINL_00089	dRep_bin094_LBLICAAO_00035;dRep_bin029_LFMGBBEC_00468;dRep_bin351_CKFFBPHM_00106;dRep_bin115_IFKGOGCL_01618;dRep_bin105_AAEIHAFF_00821;dRep_bin118_FGIOKLBC_00146;dRep_bin348_LCLFDNEE_00839;dRep_bin057_BNCFHBBO_00956;dRep_bin328_GIGKNKPJ_00687;dRep_bin056_EMNHHOJA_00366;dRep_bin026_HNPIIINL_00089	>dRep_bin094_LBLICAAO_00035 UDP-2,3-diacetamido-2,3-dideoxy-D-glucuronate 2-epimerase;>dRep_bin029_LFMGBBEC_00468 UDP-2,3-diacetamido-2,3-dideoxy-D-glucuronate 2-epimerase;>dRep_bin351_CKFFBPHM_00106 UDP-2,3-diacetamido-2,3-dideoxy-D-glucuronate 2-epimeras	dRep_bin115_IFKGOGCL_01618	CDS	wbpI	5.1.3.23	UDP-2,3-diacetamido-2,3-dideoxy-D-glucuronate 2-epimerase
IFKGOGCL_01673	24.565639999999995											1	1	0,0004997	dRep_bin115_IFKGOGCL_01673;dRep_bin024_OLHDGABE_00315	dRep_bin115_IFKGOGCL_01673;dRep_bin024_OLHDGABE_00315	>dRep_bin115_IFKGOGCL_01673 hypothetical protein;>dRep_bin024_OLHDGABE_00315 hypothetical protein	dRep_bin115_IFKGOGCL_01673	CDS			hypothetical protein
IFKGOGCL_01688	33.160180000000004	31.47899	31.890050000000002	32.69946	31.77002	30.58082	32.3945	32.5541				27	17	0	dRep_bin209_NKIHFCEN_02075;dRep_bin347_EKGCMFPD_01585;dRep_bin001_GHHJMDAL_01379;dRep_bin115_IFKGOGCL_01688;dRep_bin347_EKGCMFPD_00796;dRep_bin324_IPNHOHFK_00839;dRep_bin154_JGOKHKLI_00894	dRep_bin209_NKIHFCEN_02075	>dRep_bin209_NKIHFCEN_02075 Flagellin	dRep_bin115_IFKGOGCL_01688	CDS	hag		Flagellin
IFKGOGCL_01718		27.263739999999995										8	0	2,0977E-117	dRep_bin158_OGFICEAP_00263;dRep_bin181_MKGPMPIA_00080;dRep_bin135_HHKACLPM_00070;dRep_bin115_IFKGOGCL_01718;dRep_bin254_GJDPFAEA_00329;dRep_bin240_LDBBGJKG_00023	dRep_bin158_OGFICEAP_00263;dRep_bin181_MKGPMPIA_00080;dRep_bin135_HHKACLPM_00070;dRep_bin115_IFKGOGCL_01718;dRep_bin254_GJDPFAEA_00329;dRep_bin240_LDBBGJKG_00023	>dRep_bin158_OGFICEAP_00263 Reverse rubrerythrin-1;>dRep_bin181_MKGPMPIA_00080 Reverse rubrerythrin-1;>dRep_bin135_HHKACLPM_00070 Reverse rubrerythrin-1;>dRep_bin115_IFKGOGCL_01718 Reverse rubrerythrin-1;>dRep_bin254_GJDPFAEA_00329 Reverse rubrerythrin-1;>	dRep_bin115_IFKGOGCL_01718	CDS	rbr3A	1.11.1.1	Reverse rubrerythrin-1
IFKGOGCL_01900	25.1812	25.697820000000004	25.225089999999998	26.84266								22	4	2,6678E-131	dRep_bin292_JIBLDOOH_01311;dRep_bin115_IFKGOGCL_01900;dRep_bin167_BLMEBMNN_02102	dRep_bin292_JIBLDOOH_01311	>dRep_bin292_JIBLDOOH_01311 Glycogen phosphorylase	dRep_bin115_IFKGOGCL_01900	CDS	glgP_2	2.4.1.1	Glycogen phosphorylase
IFKGOGCL_01921		25.748829999999998										4	0	8,0699E-06	dRep_bin337_FHKPNFDB_01408;dRep_bin152_LJMCIADF_00667;dRep_bin068_ENOLAELK_01178;dRep_bin245_MBCFLKOF_01649;dRep_bin010_MFFFGEGD_00454;dRep_bin319_PBDBJGCJ_00942;dRep_bin194_MEPDOGGJ_01294;dRep_bin123_PJKBFKBB_00399;dRep_bin109_MJABCPAK_00221;dRep_bin025_CBEJJMLE_00844;dRep_bin025_CBEJJMLE_00391;dRep_bin299_AKNBKJGM_01456;dRep_bin284_DEHKNOBF_00375;dRep_bin106_BKDHGPBE_00581;dRep_bin038_EIGFILKG_00540;dRep_bin241_LMMMGDNI_00900;dRep_bin143_PFLDJMPF_00231;dRep_bin304_JDNJGFKH_01113;dRep_bin220_PILICLLL_00136;dRep_bin115_IFKGOGCL_01921;dRep_bin032_PPNIGLME_01078	dRep_bin337_FHKPNFDB_01408;dRep_bin152_LJMCIADF_00667;dRep_bin068_ENOLAELK_01178;dRep_bin245_MBCFLKOF_01649;dRep_bin010_MFFFGEGD_00454	>dRep_bin337_FHKPNFDB_01408 O-acetylserine sulfhydrylase;>dRep_bin152_LJMCIADF_00667 Cysteine synthase;>dRep_bin068_ENOLAELK_01178 Cysteine synthase;>dRep_bin245_MBCFLKOF_01649 O-acetylserine sulfhydrylase;>dRep_bin010_MFFFGEGD_00454 O-acetylserine sulfhyd	dRep_bin115_IFKGOGCL_01921	CDS	cysK1	2.5.1.47	O-acetylserine sulfhydrylase
IFKGOGCL_01923					24.24887	26.77128	24.69339	24.025629999999996				3	1	5,593E-12	dRep_bin139_KGAJINND_01577;dRep_bin344_CJJBDGAA_01807;dRep_bin300_MJPPENNL_01697;dRep_bin324_IPNHOHFK_02134;dRep_bin261_FJICAFFM_01134;dRep_bin303_DDDNDJCF_01519;dRep_bin297_EDHEEICA_00415;dRep_bin209_NKIHFCEN_00709;dRep_bin167_BLMEBMNN_00621;dRep_bin157_JPNIKEKI_01820;dRep_bin133_NOBPDBPA_02652;dRep_bin016_JLGAHGOJ_01099;dRep_bin292_JIBLDOOH_01420;dRep_bin127_FIPNHBCH_01248;dRep_bin062_BOFBFLDA_01336;dRep_bin115_IFKGOGCL_01923;dRep_bin269_PNILGKPH_02213;dRep_bin208_DHPGEIBC_01209;dRep_bin347_EKGCMFPD_00714;dRep_bin266_JFOCEDAE_00751;dRep_bin211_LGJEFJIK_00719;dRep_bin316_FNLHDNEO_01427;dRep_bin065_DFABHCBI_00784;dRep_bin319_PBDBJGCJ_00028;dRep_bin077_DNNBMPMC_00009;dRep_bin006_HPJGJCAG_01885;dRep_bin066_AJACLPEE_00266;dRep_bin279_IAEFEPEN_00114;dRep_bin254_GJDPFAEA_01714;dRep_bin035_JBNPBOKG_00265;dRep_bin092_OOJCPDEA_01135;dRep_bin173_BEBNCADL_00932;dRep_bin261_FJICAFFM_01422;dRep_bin288_KOIAAABN_01088;dRep_bin263_OLEFOGIJ_00124;dRep_bin099_DNDAGJEJ_00022;dRep_bin325_EIIGOGHN_01093;dRep_bin076_GLAOFBEC_01169;dRep_bin089_PAJFOJBN_00283;dRep_bin287_DONBGKDH_01271;dRep_bin162_JBGCCDIN_01770;dRep_bin135_HHKACLPM_00267;dRep_bin332_KAOPCDPF_00441;dRep_bin310_IMBAFDIF_00637;dRep_bin304_JDNJGFKH_01711;dRep_bin222_GGCAJABB_01248;dRep_bin159_ADJJGPBG_01860;dRep_bin043_KLAFNACO_01408;dRep_bin023_HGFJFKAI_00653;dRep_bin189_AHHEHGDL_01147;dRep_bin328_GIGKNKPJ_01484;dRep_bin282_PKAAPBFP_01012;dRep_bin229_FFOBPPJI_01006;dRep_bin203_CLFNNOCF_00634;dRep_bin102_ICFDHPGB_01107;dRep_bin072_JOBJPCGA_00187;dRep_bin029_LFMGBBEC_00768;dRep_bin017_FGFLFOPJ_00988;dRep_bin195_DDMDFNOK_00791;dRep_bin120_EKLBOPNC_01828;dRep_bin058_GJKCICJN_00813;dRep_bin046_GKEJLOEK_00003;dRep_bin186_HJAAFFNP_01596;dRep_bin349_AMCJEEEG_00676;dRep_bin200_JJGKEOHI_00578;dRep_bin027_OFJCHLJJ_00701;dRep_bin161_JMKPMHCO_01186;dRep_bin160_EFKMPBOM_00139;dRep_bin154_JGOKHKLI_00533;dRep_bin083_OCBADPJJ_00750;dRep_bin049_MNFBDPNO_00757;dRep_bin008_MNDMJLEI_00707;dRep_bin158_OGFICEAP_00389;dRep_bin334_NAPFFNLD_00463;dRep_bin339_DBNBAHDK_00481;dRep_bin241_LMMMGDNI_00312;dRep_bin179_HFEIPPPA_00773;dRep_bin245_MBCFLKOF_01292;dRep_bin010_MFFFGEGD_00549	dRep_bin139_KGAJINND_01577;dRep_bin344_CJJBDGAA_01807;dRep_bin300_MJPPENNL_01697;dRep_bin324_IPNHOHFK_02134;dRep_bin261_FJICAFFM_01134;dRep_bin303_DDDNDJCF_01519;dRep_bin297_EDHEEICA_00415;dRep_bin209_NKIHFCEN_00709;dRep_bin167_BLMEBMNN_00621;dRep_bin157_JPNIKEKI_01820;dRep_bin133_NOBPDBPA_02652;dRep_bin016_JLGAHGOJ_01099;dRep_bin292_JIBLDOOH_01420;dRep_bin127_FIPNHBCH_01248;dRep_bin062_BOFBFLDA_01336;dRep_bin115_IFKGOGCL_01923;dRep_bin269_PNILGKPH_02213	>dRep_bin139_KGAJINND_01577 Chaperone protein ClpB 1;>dRep_bin344_CJJBDGAA_01807 Chaperone protein ClpB;>dRep_bin300_MJPPENNL_01697 Chaperone protein ClpB;>dRep_bin324_IPNHOHFK_02134 Chaperone protein ClpB;>dRep_bin261_FJICAFFM_01134 Chaperone protein ClpB	dRep_bin115_IFKGOGCL_01923	CDS	clpB		Chaperone protein ClpB
IFKGOGCL_01952	24.57421	23.36132										7	2	1,6126E-44	dRep_bin115_IFKGOGCL_01952	dRep_bin115_IFKGOGCL_01952	>dRep_bin115_IFKGOGCL_01952 Pyruvate synthase	dRep_bin115_IFKGOGCL_01952	CDS	por_1	1.2.7.1	Pyruvate synthase
IFKGOGCL_01978	27.81201	27.62178	27.502489999999998	27.902649999999998	27.641890000000004	26.87373	27.733890000000002	27.32268				4	0	9,2841E-12	dRep_bin266_JFOCEDAE_00469;dRep_bin158_OGFICEAP_02077;dRep_bin167_BLMEBMNN_01111;dRep_bin344_CJJBDGAA_01931;dRep_bin324_IPNHOHFK_00198;dRep_bin269_PNILGKPH_01184;dRep_bin297_EDHEEICA_00055;dRep_bin145_KMJJJOEJ_01157;dRep_bin107_EFNBPDOP_01472;dRep_bin310_IMBAFDIF_01195;dRep_bin300_MJPPENNL_00128;dRep_bin115_IFKGOGCL_01978;dRep_bin308_JBPDGLPP_01709;dRep_bin075_EPEMMOCL_01920;dRep_bin047_IFFANOMN_01370;dRep_bin089_PAJFOJBN_01930;dRep_bin261_FJICAFFM_00651;dRep_bin303_DDDNDJCF_01187;dRep_bin226_NLNLHLLD_00115;dRep_bin127_FIPNHBCH_00340;dRep_bin017_FGFLFOPJ_00355;dRep_bin077_DNNBMPMC_01598;dRep_bin039_IJNOFOJK_01428;dRep_bin186_HJAAFFNP_01660;dRep_bin065_DFABHCBI_00103;dRep_bin220_PILICLLL_01833;dRep_bin134_HIAPAODO_00139;dRep_bin135_HHKACLPM_00006;dRep_bin143_PFLDJMPF_00573;dRep_bin325_EIIGOGHN_00632;dRep_bin099_DNDAGJEJ_00069;dRep_bin293_MEPKGOAN_01336;dRep_bin074_EHAOMODJ_00677;dRep_bin335_JIOGNAPG_01692;dRep_bin260_HELEPKJL_01142;dRep_bin319_PBDBJGCJ_00729;dRep_bin211_LGJEFJIK_00866;dRep_bin168_HKDILBFE_00717;dRep_bin091_MAFACGAD_00274;dRep_bin248_CCDFPECI_01081;dRep_bin240_LDBBGJKG_00905;dRep_bin095_HOBNOEEF_01654;dRep_bin306_FGHMKMMP_00881;dRep_bin282_PKAAPBFP_01110;dRep_bin249_OFIIEIDJ_01129;dRep_bin347_EKGCMFPD_00530;dRep_bin284_DEHKNOBF_01449;dRep_bin001_GHHJMDAL_00488;dRep_bin181_MKGPMPIA_00635	dRep_bin266_JFOCEDAE_00469;dRep_bin158_OGFICEAP_02077;dRep_bin167_BLMEBMNN_01111;dRep_bin344_CJJBDGAA_01931;dRep_bin324_IPNHOHFK_00198;dRep_bin269_PNILGKPH_01184;dRep_bin297_EDHEEICA_00055;dRep_bin145_KMJJJOEJ_01157;dRep_bin107_EFNBPDOP_01472;dRep_bin310_IMBAFDIF_01195;dRep_bin300_MJPPENNL_00128;dRep_bin115_IFKGOGCL_01978;dRep_bin308_JBPDGLPP_01709;dRep_bin075_EPEMMOCL_01920;dRep_bin047_IFFANOMN_01370;dRep_bin089_PAJFOJBN_01930;dRep_bin261_FJICAFFM_00651;dRep_bin303_DDDNDJCF_01187;dRep_bin226_NLNLHLLD_00115;dRep_bin127_FIPNHBCH_00340;dRep_bin017_FGFLFOPJ_00355;dRep_bin077_DNNBMPMC_01598;dRep_bin039_IJNOFOJK_01428;dRep_bin186_HJAAFFNP_01660;dRep_bin065_DFABHCBI_00103;dRep_bin220_PILICLLL_01833;dRep_bin134_HIAPAODO_00139;dRep_bin135_HHKACLPM_00006	>dRep_bin266_JFOCEDAE_00469 Phosphoribosylamine--glycine ligase;>dRep_bin158_OGFICEAP_02077 Phosphoribosylamine--glycine ligase;>dRep_bin167_BLMEBMNN_01111 Phosphoribosylamine--glycine ligase;>dRep_bin344_CJJBDGAA_01931 Phosphoribosylamine--glycine ligase;	dRep_bin115_IFKGOGCL_01978	CDS	purD_2	6.3.4.13	Phosphoribosylamine--glycine ligase
IFKGOGCL_02016	25.19069	25.787679999999998	24.988239999999994	24.94181								3	0	1,2913E-15	dRep_bin220_PILICLLL_00966;dRep_bin115_IFKGOGCL_02016;dRep_bin105_AAEIHAFF_01289	dRep_bin220_PILICLLL_00966;dRep_bin115_IFKGOGCL_02016	>dRep_bin220_PILICLLL_00966 IMP cyclohydrolase-like protein;>dRep_bin115_IFKGOGCL_02016 IMP cyclohydrolase-like protein	dRep_bin115_IFKGOGCL_02016	CDS			IMP cyclohydrolase-like protein
IFKGOGCL_02045	24.848619999999997	25.36856	25.00209	24.57421	24.772129999999997			24.807250000000003				20	2	1,6691E-113	dRep_bin158_OGFICEAP_00218;dRep_bin115_IFKGOGCL_02045	dRep_bin158_OGFICEAP_00218;dRep_bin115_IFKGOGCL_02045	>dRep_bin158_OGFICEAP_00218 NADP-specific glutamate dehydrogenase;>dRep_bin115_IFKGOGCL_02045 NADP-specific glutamate dehydrogenase	dRep_bin115_IFKGOGCL_02045	CDS	gdh	1.4.1.4	NADP-specific glutamate dehydrogenase
IFKGOGCL_02150						24.19152						1	1	0,0013803	dRep_bin158_OGFICEAP_01071;dRep_bin139_KGAJINND_00701;dRep_bin134_HIAPAODO_01164;dRep_bin115_IFKGOGCL_02150;dRep_bin095_HOBNOEEF_01583;dRep_bin031_BNHMFOII_01069;dRep_bin027_OFJCHLJJ_00667;dRep_bin024_OLHDGABE_01413;dRep_bin268_LKMHIMLG_01344;dRep_bin282_PKAAPBFP_00455	dRep_bin158_OGFICEAP_01071;dRep_bin139_KGAJINND_00701;dRep_bin134_HIAPAODO_01164;dRep_bin115_IFKGOGCL_02150;dRep_bin095_HOBNOEEF_01583;dRep_bin031_BNHMFOII_01069;dRep_bin027_OFJCHLJJ_00667;dRep_bin024_OLHDGABE_01413;dRep_bin268_LKMHIMLG_01344;dRep_bin282_PKAAPBFP_00455	>dRep_bin158_OGFICEAP_01071 30S ribosomal protein S9;>dRep_bin139_KGAJINND_00701 30S ribosomal protein S9;>dRep_bin134_HIAPAODO_01164 30S ribosomal protein S9;>dRep_bin115_IFKGOGCL_02150 30S ribosomal protein S9;>dRep_bin095_HOBNOEEF_01583 30S ribosomal pr	dRep_bin115_IFKGOGCL_02150	CDS	rpsI		30S ribosomal protein S9
IFKGOGCL_02287								25.629260000000002				3	1	3,401E-10	dRep_bin115_IFKGOGCL_02287;dRep_bin139_KGAJINND_01183	dRep_bin115_IFKGOGCL_02287	>dRep_bin115_IFKGOGCL_02287 Phosphoserine aminotransferase	dRep_bin115_IFKGOGCL_02287	CDS	serC	2.6.1.52	Phosphoserine aminotransferase
IFKGOGCL_02339							25.961199999999998					2	2	0,00015786	dRep_bin160_EFKMPBOM_01728;dRep_bin154_JGOKHKLI_02759;dRep_bin016_JLGAHGOJ_00947;dRep_bin300_MJPPENNL_00320;dRep_bin279_IAEFEPEN_00556;dRep_bin240_LDBBGJKG_00232;dRep_bin114_FJHJKHGL_00711;dRep_bin319_PBDBJGCJ_01578;dRep_bin303_DDDNDJCF_01052;dRep_bin266_JFOCEDAE_00913;dRep_bin249_OFIIEIDJ_00119;dRep_bin248_CCDFPECI_00592;dRep_bin234_ECABPBME_02379;dRep_bin220_PILICLLL_00845;dRep_bin186_HJAAFFNP_01196;dRep_bin185_OOOLKACK_00335;dRep_bin168_HKDILBFE_00607;dRep_bin166_DFIAJFEC_00186;dRep_bin158_OGFICEAP_00280;dRep_bin148_NAJFKJMD_00336;dRep_bin145_KMJJJOEJ_00820;dRep_bin139_KGAJINND_00662;dRep_bin134_HIAPAODO_02113;dRep_bin115_IFKGOGCL_02339;dRep_bin107_EFNBPDOP_00642;dRep_bin099_DNDAGJEJ_00407;dRep_bin095_HOBNOEEF_01490;dRep_bin077_DNNBMPMC_00028;dRep_bin069_EGGEOGDC_00544;dRep_bin047_IFFANOMN_01760;dRep_bin007_LNLEAAAN_01008;dRep_bin328_GIGKNKPJ_01593;dRep_bin058_GJKCICJN_01440;dRep_bin081_JDPCKDNP_01744;dRep_bin066_AJACLPEE_00558	dRep_bin160_EFKMPBOM_01728;dRep_bin154_JGOKHKLI_02759;dRep_bin016_JLGAHGOJ_00947;dRep_bin300_MJPPENNL_00320;dRep_bin279_IAEFEPEN_00556;dRep_bin240_LDBBGJKG_00232;dRep_bin114_FJHJKHGL_00711;dRep_bin319_PBDBJGCJ_01578;dRep_bin303_DDDNDJCF_01052;dRep_bin266_JFOCEDAE_00913;dRep_bin249_OFIIEIDJ_00119;dRep_bin248_CCDFPECI_00592;dRep_bin234_ECABPBME_02379;dRep_bin220_PILICLLL_00845;dRep_bin186_HJAAFFNP_01196;dRep_bin185_OOOLKACK_00335;dRep_bin168_HKDILBFE_00607;dRep_bin166_DFIAJFEC_00186;dRep_bin158_OGFICEAP_00280;dRep_bin148_NAJFKJMD_00336;dRep_bin145_KMJJJOEJ_00820;dRep_bin139_KGAJINND_00662;dRep_bin134_HIAPAODO_02113;dRep_bin115_IFKGOGCL_02339;dRep_bin107_EFNBPDOP_00642;dRep_bin099_DNDAGJEJ_00407;dRep_bin095_HOBNOEEF_01490;dRep_bin077_DNNBMPMC_00028;dRep_bin069_EGGEOGDC_00544;dRep_bin047_IFFANOMN_01760;dRep_bin007_LNLEAAAN_01008;dRep_bin328_GIGKNKPJ_01593;dRep_bin058_GJKCICJN_01440;dRep_bin081_JDPCKDNP_01744;dRep_bin066_AJACLPEE_00558	>dRep_bin160_EFKMPBOM_01728 Asparagine--tRNA ligase;>dRep_bin154_JGOKHKLI_02759 Asparagine--tRNA ligase;>dRep_bin016_JLGAHGOJ_00947 Asparagine--tRNA ligase;>dRep_bin300_MJPPENNL_00320 Asparagine--tRNA ligase;>dRep_bin279_IAEFEPEN_00556 Asparagine--tRNA lig	dRep_bin115_IFKGOGCL_02339	CDS	asnS	6.1.1.22	Asparagine--tRNA ligase
IFKGOGCL_02347				24.52409								3	1	3,0363E-62	dRep_bin157_JPNIKEKI_01307;dRep_bin039_IJNOFOJK_01899;dRep_bin186_HJAAFFNP_00774;dRep_bin318_IEDEJOFJ_01639;dRep_bin164_KHMELCCL_00132;dRep_bin328_GIGKNKPJ_01195;dRep_bin260_HELEPKJL_01523;dRep_bin287_DONBGKDH_01508;dRep_bin158_OGFICEAP_02168;dRep_bin127_FIPNHBCH_00569;dRep_bin115_IFKGOGCL_02347;dRep_bin099_DNDAGJEJ_00641;dRep_bin308_JBPDGLPP_01860;dRep_bin333_EFOKIBLA_01083;dRep_bin321_EJNAAGJG_00266;dRep_bin273_FGAEBHNP_00052;dRep_bin299_AKNBKJGM_00308;dRep_bin216_JNJMCPHB_01326;dRep_bin094_LBLICAAO_00532;dRep_bin295_EJGKDKNE_01389;dRep_bin021_AJDDCGJC_00388;dRep_bin336_MPGOKPOL_01887;dRep_bin147_EJLBNEBE_01158;dRep_bin091_MAFACGAD_00923;dRep_bin261_FJICAFFM_00349;dRep_bin203_CLFNNOCF_01032;dRep_bin292_JIBLDOOH_00170;dRep_bin324_IPNHOHFK_01855;dRep_bin133_NOBPDBPA_02057;dRep_bin179_HFEIPPPA_01406;dRep_bin297_EDHEEICA_01152;dRep_bin005_CNDFPKJG_00713	dRep_bin157_JPNIKEKI_01307;dRep_bin039_IJNOFOJK_01899;dRep_bin186_HJAAFFNP_00774;dRep_bin318_IEDEJOFJ_01639;dRep_bin164_KHMELCCL_00132;dRep_bin328_GIGKNKPJ_01195;dRep_bin260_HELEPKJL_01523;dRep_bin287_DONBGKDH_01508;dRep_bin158_OGFICEAP_02168;dRep_bin127_FIPNHBCH_00569;dRep_bin115_IFKGOGCL_02347;dRep_bin099_DNDAGJEJ_00641;dRep_bin308_JBPDGLPP_01860;dRep_bin333_EFOKIBLA_01083;dRep_bin321_EJNAAGJG_00266;dRep_bin273_FGAEBHNP_00052;dRep_bin299_AKNBKJGM_00308;dRep_bin216_JNJMCPHB_01326;dRep_bin094_LBLICAAO_00532;dRep_bin295_EJGKDKNE_01389;dRep_bin021_AJDDCGJC_00388;dRep_bin336_MPGOKPOL_01887;dRep_bin147_EJLBNEBE_01158;dRep_bin091_MAFACGAD_00923;dRep_bin261_FJICAFFM_00349;dRep_bin203_CLFNNOCF_01032;dRep_bin292_JIBLDOOH_00170;dRep_bin324_IPNHOHFK_01855;dRep_bin133_NOBPDBPA_02057;dRep_bin179_HFEIPPPA_01406;dRep_bin297_EDHEEICA_01152;dRep_bin005_CNDFPKJG_00713	>dRep_bin157_JPNIKEKI_01307 Galactose-1-phosphate uridylyltransferase;>dRep_bin039_IJNOFOJK_01899 Galactose-1-phosphate uridylyltransferase;>dRep_bin186_HJAAFFNP_00774 Galactose-1-phosphate uridylyltransferase;>dRep_bin318_IEDEJOFJ_01639 Galactose-1-phosph	dRep_bin115_IFKGOGCL_02347	CDS	galT	2.7.7.12	Galactose-1-phosphate uridylyltransferase
IFKGOGCL_02473					25.158							3	3	1,2414E-07	dRep_bin201_OLKDIBOK_00577;dRep_bin115_IFKGOGCL_02473;dRep_bin247_EKGBJCBM_01258;dRep_bin161_JMKPMHCO_00071;dRep_bin250_NMCAMJIO_00285;dRep_bin124_HIHDFGCL_01631;dRep_bin154_JGOKHKLI_01454;dRep_bin146_LCCIBLJG_00619;dRep_bin106_BKDHGPBE_00808;dRep_bin106_BKDHGPBE_00753;dRep_bin344_CJJBDGAA_01388;dRep_bin325_EIIGOGHN_00333;dRep_bin260_HELEPKJL_00743;dRep_bin220_PILICLLL_01598;dRep_bin145_KMJJJOEJ_00848;dRep_bin139_KGAJINND_00377;dRep_bin115_IFKGOGCL_01096;dRep_bin095_HOBNOEEF_01156;dRep_bin081_JDPCKDNP_01298;dRep_bin047_IFFANOMN_00086;dRep_bin016_JLGAHGOJ_00176;dRep_bin322_OJELOJOF_00203;dRep_bin234_ECABPBME_02273;dRep_bin075_EPEMMOCL_00967;dRep_bin005_CNDFPKJG_01245;dRep_bin310_IMBAFDIF_01047;dRep_bin287_DONBGKDH_00172;dRep_bin089_PAJFOJBN_01160;dRep_bin158_OGFICEAP_00810	dRep_bin201_OLKDIBOK_00577	>dRep_bin201_OLKDIBOK_00577 S-adenosylmethionine synthase	dRep_bin115_IFKGOGCL_02473	CDS	metK_2	2.5.1.6	S-adenosylmethionine synthase
IFKGOGCL_02481	23.498749999999998	23.41377	23.664050000000003	25.007910000000003								4	3	8,0566E-12	dRep_bin292_JIBLDOOH_01418;dRep_bin303_DDDNDJCF_00505;dRep_bin077_DNNBMPMC_00941;dRep_bin152_LJMCIADF_01123;dRep_bin124_HIHDFGCL_00335;dRep_bin079_GAOGCKND_00643;dRep_bin068_ENOLAELK_01078;dRep_bin038_EIGFILKG_00380;dRep_bin309_BIOHLCGG_00617;dRep_bin194_MEPDOGGJ_00286;dRep_bin025_CBEJJMLE_00539;dRep_bin247_EKGBJCBM_00804;dRep_bin253_CPMOAOBJ_00601;dRep_bin169_PNICKJKO_01110;dRep_bin123_PJKBFKBB_01254;dRep_bin306_FGHMKMMP_00717;dRep_bin293_MEPKGOAN_00676;dRep_bin257_JHFDCHCB_01083;dRep_bin249_OFIIEIDJ_00213;dRep_bin157_JPNIKEKI_01818;dRep_bin085_MBHLGCDB_01586;dRep_bin319_PBDBJGCJ_01316;dRep_bin300_MJPPENNL_01694;dRep_bin282_PKAAPBFP_01497;dRep_bin220_PILICLLL_01502;dRep_bin209_NKIHFCEN_00711;dRep_bin179_HFEIPPPA_01156;dRep_bin166_DFIAJFEC_01129;dRep_bin160_EFKMPBOM_01097;dRep_bin154_JGOKHKLI_00129;dRep_bin088_DNGPPFDK_00244;dRep_bin075_EPEMMOCL_01534;dRep_bin069_EGGEOGDC_00523;dRep_bin344_CJJBDGAA_01343;dRep_bin324_IPNHOHFK_02132;dRep_bin310_IMBAFDIF_01633;dRep_bin297_EDHEEICA_00782;dRep_bin269_PNILGKPH_01786;dRep_bin248_CCDFPECI_00995;dRep_bin226_NLNLHLLD_00535;dRep_bin203_CLFNNOCF_00636;dRep_bin168_HKDILBFE_00313;dRep_bin139_KGAJINND_00724;dRep_bin133_NOBPDBPA_02650;dRep_bin099_DNDAGJEJ_01464;dRep_bin091_MAFACGAD_00915;dRep_bin007_LNLEAAAN_01209;dRep_bin260_HELEPKJL_00482;dRep_bin186_HJAAFFNP_01391;dRep_bin115_IFKGOGCL_02481;dRep_bin039_IJNOFOJK_00485;dRep_bin354_MMOALAFN_01391;dRep_bin261_FJICAFFM_01132;dRep_bin336_MPGOKPOL_01187;dRep_bin095_HOBNOEEF_00148;dRep_bin348_LCLFDNEE_00586;dRep_bin125_FADLGGII_01253;dRep_bin089_PAJFOJBN_00918;dRep_bin277_MIPNGEJE_00466	dRep_bin292_JIBLDOOH_01418;dRep_bin303_DDDNDJCF_00505	>dRep_bin292_JIBLDOOH_01418 Putative aminotransferase/MSMEI_6121;>dRep_bin303_DDDNDJCF_00505 Putative aminotransferase/MSMEI_6121	dRep_bin115_IFKGOGCL_02481	CDS			Putative aminotransferase/MSMEI_6121
IFKGOGCL_02485			22.09941									2	1	6,714E-06	dRep_bin179_HFEIPPPA_02337;dRep_bin324_IPNHOHFK_00622;dRep_bin116_CLFDBMOF_00799;dRep_bin006_HPJGJCAG_01804;dRep_bin302_AHDEPDKG_00994;dRep_bin306_FGHMKMMP_00469;dRep_bin292_JIBLDOOH_01500;dRep_bin226_NLNLHLLD_00785;dRep_bin209_NKIHFCEN_02132;dRep_bin269_PNILGKPH_00882;dRep_bin238_OLNFACLE_00688;dRep_bin025_CBEJJMLE_00614;dRep_bin347_EKGCMFPD_00065;dRep_bin001_GHHJMDAL_01148;dRep_bin322_OJELOJOF_00643;dRep_bin284_DEHKNOBF_00598;dRep_bin266_JFOCEDAE_00905;dRep_bin023_HGFJFKAI_01708;dRep_bin115_IFKGOGCL_02485;dRep_bin158_OGFICEAP_00573;dRep_bin234_ECABPBME_00814;dRep_bin027_OFJCHLJJ_01525	dRep_bin179_HFEIPPPA_02337;dRep_bin324_IPNHOHFK_00622;dRep_bin116_CLFDBMOF_00799;dRep_bin006_HPJGJCAG_01804;dRep_bin302_AHDEPDKG_00994;dRep_bin306_FGHMKMMP_00469;dRep_bin292_JIBLDOOH_01500;dRep_bin226_NLNLHLLD_00785;dRep_bin209_NKIHFCEN_02132;dRep_bin269_PNILGKPH_00882;dRep_bin238_OLNFACLE_00688;dRep_bin025_CBEJJMLE_00614;dRep_bin347_EKGCMFPD_00065;dRep_bin001_GHHJMDAL_01148;dRep_bin322_OJELOJOF_00643;dRep_bin284_DEHKNOBF_00598;dRep_bin266_JFOCEDAE_00905;dRep_bin023_HGFJFKAI_01708;dRep_bin115_IFKGOGCL_02485;dRep_bin158_OGFICEAP_00573;dRep_bin234_ECABPBME_00814;dRep_bin027_OFJCHLJJ_01525	>dRep_bin179_HFEIPPPA_02337 Diaminopimelate decarboxylase;>dRep_bin324_IPNHOHFK_00622 Diaminopimelate decarboxylase;>dRep_bin116_CLFDBMOF_00799 Diaminopimelate decarboxylase;>dRep_bin006_HPJGJCAG_01804 Diaminopimelate decarboxylase;>dRep_bin302_AHDEPDKG_00	dRep_bin115_IFKGOGCL_02485	CDS	lysA_2	4.1.1.20	Diaminopimelate decarboxylase
IFKGOGCL_02494	23.6937	22.55319	22.817590000000003	22.79658								6	2	3,7467E-65	dRep_bin115_IFKGOGCL_02494;dRep_bin328_GIGKNKPJ_01111;dRep_bin181_MKGPMPIA_00465;dRep_bin319_PBDBJGCJ_01232;dRep_bin091_MAFACGAD_00725;dRep_bin077_DNNBMPMC_00037;dRep_bin007_LNLEAAAN_00658;dRep_bin066_AJACLPEE_01254;dRep_bin218_ACMPALGF_00107;dRep_bin168_HKDILBFE_00926;dRep_bin099_DNDAGJEJ_00999;dRep_bin089_PAJFOJBN_00512;dRep_bin306_FGHMKMMP_00549;dRep_bin267_LJCFMAFA_00570	dRep_bin115_IFKGOGCL_02494;dRep_bin328_GIGKNKPJ_01111	>dRep_bin115_IFKGOGCL_02494 Acetate kinase;>dRep_bin328_GIGKNKPJ_01111 Acetate kinase	dRep_bin115_IFKGOGCL_02494	CDS	ackA_2	2.7.2.1	Acetate kinase
IFKGOGCL_02532			24.09676									2	1	2,0863E-09	dRep_bin081_JDPCKDNP_01365;dRep_bin172_ALNHGLMD_00728;dRep_bin158_OGFICEAP_00839;dRep_bin115_IFKGOGCL_02532;dRep_bin160_EFKMPBOM_02561;dRep_bin099_DNDAGJEJ_01292;dRep_bin335_JIOGNAPG_00064;dRep_bin164_KHMELCCL_00756	dRep_bin081_JDPCKDNP_01365;dRep_bin172_ALNHGLMD_00728;dRep_bin158_OGFICEAP_00839;dRep_bin115_IFKGOGCL_02532;dRep_bin160_EFKMPBOM_02561;dRep_bin099_DNDAGJEJ_01292;dRep_bin335_JIOGNAPG_00064;dRep_bin164_KHMELCCL_00756	>dRep_bin081_JDPCKDNP_01365 Putative bifunctional phosphatase/peptidyl-prolyl cis-trans isomerase;>dRep_bin172_ALNHGLMD_00728 Putative bifunctional phosphatase/peptidyl-prolyl cis-trans isomerase;>dRep_bin158_OGFICEAP_00839 Peptidyl-prolyl cis-trans isomer	dRep_bin115_IFKGOGCL_02532	CDS	ppiB_2	5.2.1.8	Peptidyl-prolyl cis-trans isomerase B
IFKGOGCL_02533						25.756970000000003						1	1	0,007356	dRep_bin158_OGFICEAP_00836;dRep_bin115_IFKGOGCL_02533;dRep_bin062_BOFBFLDA_00357;dRep_bin292_JIBLDOOH_00157;dRep_bin203_CLFNNOCF_00943;dRep_bin157_JPNIKEKI_00928;dRep_bin041_OPKGAAAG_00529;dRep_bin047_IFFANOMN_01141	dRep_bin158_OGFICEAP_00836;dRep_bin115_IFKGOGCL_02533;dRep_bin062_BOFBFLDA_00357;dRep_bin292_JIBLDOOH_00157;dRep_bin203_CLFNNOCF_00943;dRep_bin157_JPNIKEKI_00928;dRep_bin041_OPKGAAAG_00529;dRep_bin047_IFFANOMN_01141	>dRep_bin158_OGFICEAP_00836 Pyrroline-5-carboxylate reductase;>dRep_bin115_IFKGOGCL_02533 Pyrroline-5-carboxylate reductase;>dRep_bin062_BOFBFLDA_00357 Pyrroline-5-carboxylate reductase;>dRep_bin292_JIBLDOOH_00157 Pyrroline-5-carboxylate reductase;>dRep_bi	dRep_bin115_IFKGOGCL_02533	CDS	proC	1.5.1.2	Pyrroline-5-carboxylate reductase
IFKGOGCL_02607					26.69259	26.46382	24.862639999999995	25.452619999999996				7	2	1,4139E-30	dRep_bin272_LGBDGEIM_01228;dRep_bin354_MMOALAFN_01246;dRep_bin166_DFIAJFEC_00700;dRep_bin309_BIOHLCGG_00463;dRep_bin277_MIPNGEJE_01155;dRep_bin286_OEMIJKMC_00557;dRep_bin126_PPDNCIBN_00953;dRep_bin131_HLFNHDGI_01712;dRep_bin059_OOBKFNPP_00024;dRep_bin085_MBHLGCDB_00444;dRep_bin349_AMCJEEEG_00683;dRep_bin049_MNFBDPNO_00397;dRep_bin231_CFOLMJBA_00446;dRep_bin304_JDNJGFKH_01037;dRep_bin120_EKLBOPNC_00637;dRep_bin115_IFKGOGCL_02607;dRep_bin083_OCBADPJJ_01445;dRep_bin205_LKIOOBKC_01850;dRep_bin090_IPGNHCBJ_01246;dRep_bin058_GJKCICJN_00624;dRep_bin247_EKGBJCBM_01564	dRep_bin272_LGBDGEIM_01228	>dRep_bin272_LGBDGEIM_01228 Inosine-5-monophosphate dehydrogenase	dRep_bin115_IFKGOGCL_02607	CDS	guaB	1.1.1.205	Inosine-5'-monophosphate dehydrogenase
IFKGOGCL_02723					24.09933	23.314370000000004	23.46799	23.321550000000002				2	2	5,5078E-05	dRep_bin115_IFKGOGCL_02723;dRep_bin243_JDMELKLC_00869;dRep_bin263_OLEFOGIJ_01185;dRep_bin148_NAJFKJMD_00304;dRep_bin288_KOIAAABN_00547;dRep_bin302_AHDEPDKG_01130;dRep_bin173_BEBNCADL_00566;dRep_bin125_FADLGGII_00700;dRep_bin238_OLNFACLE_01748	dRep_bin115_IFKGOGCL_02723;dRep_bin243_JDMELKLC_00869;dRep_bin263_OLEFOGIJ_01185;dRep_bin148_NAJFKJMD_00304;dRep_bin288_KOIAAABN_00547;dRep_bin302_AHDEPDKG_01130;dRep_bin173_BEBNCADL_00566;dRep_bin125_FADLGGII_00700;dRep_bin238_OLNFACLE_01748	>dRep_bin115_IFKGOGCL_02723 Mannonate dehydratase;>dRep_bin243_JDMELKLC_00869 Mannonate dehydratase;>dRep_bin263_OLEFOGIJ_01185 Mannonate dehydratase;>dRep_bin148_NAJFKJMD_00304 Mannonate dehydratase;>dRep_bin288_KOIAAABN_00547 Mannonate dehydratase;>dRep_	dRep_bin115_IFKGOGCL_02723	CDS	uxuA	4.2.1.8	Mannonate dehydratase
IFKGOGCL_02756						24.67971		24.857000000000003				8	0	1,3699E-25	dRep_bin292_JIBLDOOH_01683;dRep_bin209_NKIHFCEN_01847;dRep_bin300_MJPPENNL_01104;dRep_bin297_EDHEEICA_01589;dRep_bin158_OGFICEAP_00645;dRep_bin145_KMJJJOEJ_01481;dRep_bin075_EPEMMOCL_01001;dRep_bin279_IAEFEPEN_00173;dRep_bin261_FJICAFFM_00231;dRep_bin203_CLFNNOCF_01942;dRep_bin180_JMFOHHIL_00474;dRep_bin344_CJJBDGAA_00237;dRep_bin115_IFKGOGCL_02756;dRep_bin248_CCDFPECI_01893;dRep_bin095_HOBNOEEF_01556;dRep_bin069_EGGEOGDC_00965;dRep_bin017_FGFLFOPJ_00592;dRep_bin016_JLGAHGOJ_00202;dRep_bin007_LNLEAAAN_00807;dRep_bin047_IFFANOMN_01298;dRep_bin306_FGHMKMMP_01230;dRep_bin308_JBPDGLPP_00751;dRep_bin160_EFKMPBOM_00970;dRep_bin349_AMCJEEEG_00332;dRep_bin260_HELEPKJL_02007;dRep_bin107_EFNBPDOP_01388;dRep_bin135_HHKACLPM_01683;dRep_bin039_IJNOFOJK_01477;dRep_bin027_OFJCHLJJ_00143;dRep_bin046_GKEJLOEK_00472;dRep_bin325_EIIGOGHN_00365;dRep_bin322_OJELOJOF_00229;dRep_bin077_DNNBMPMC_00896;dRep_bin220_PILICLLL_01164;dRep_bin282_PKAAPBFP_01479;dRep_bin081_JDPCKDNP_01848;dRep_bin249_OFIIEIDJ_01249;dRep_bin091_MAFACGAD_00528;dRep_bin319_PBDBJGCJ_00293;dRep_bin284_DEHKNOBF_00825;dRep_bin154_JGOKHKLI_01489;dRep_bin186_HJAAFFNP_01555;dRep_bin332_KAOPCDPF_00765	dRep_bin292_JIBLDOOH_01683;dRep_bin209_NKIHFCEN_01847;dRep_bin300_MJPPENNL_01104;dRep_bin297_EDHEEICA_01589	>dRep_bin292_JIBLDOOH_01683 Methionine--tRNA ligase;>dRep_bin209_NKIHFCEN_01847 Methionine--tRNA ligase;>dRep_bin300_MJPPENNL_01104 Methionine--tRNA ligase;>dRep_bin297_EDHEEICA_01589 Methionine--tRNA ligase	dRep_bin115_IFKGOGCL_02756	CDS	metG	6.1.1.10	Methionine--tRNA ligase
IFKGOGCL_02762	24.753529999999998	25.156840000000003	25.41329	25.456850000000003	25.471629999999998	24.512860000000003	26.69962	25.67831				1	1	5,9398E-07	dRep_bin158_OGFICEAP_01345;dRep_bin115_IFKGOGCL_02762	dRep_bin158_OGFICEAP_01345;dRep_bin115_IFKGOGCL_02762	>dRep_bin158_OGFICEAP_01345 50S ribosomal protein L11;>dRep_bin115_IFKGOGCL_02762 50S ribosomal protein L11	dRep_bin115_IFKGOGCL_02762	CDS	rplK		50S ribosomal protein L11
IFKGOGCL_02771	26.93157	28.541999999999998	26.81934	28.29693								5	4	7,792E-15	dRep_bin133_NOBPDBPA_01933;dRep_bin300_MJPPENNL_00038;dRep_bin115_IFKGOGCL_02771;dRep_bin143_PFLDJMPF_01319;dRep_bin066_AJACLPEE_00419;dRep_bin179_HFEIPPPA_00744;dRep_bin168_HKDILBFE_01479;dRep_bin016_JLGAHGOJ_00889;dRep_bin145_KMJJJOEJ_00382;dRep_bin079_GAOGCKND_00993;dRep_bin284_DEHKNOBF_01193;dRep_bin123_PJKBFKBB_00231	dRep_bin133_NOBPDBPA_01933;dRep_bin300_MJPPENNL_00038	>dRep_bin133_NOBPDBPA_01933 dTDP-4-dehydrorhamnose 3,5-epimerase;>dRep_bin300_MJPPENNL_00038 dTDP-4-dehydrorhamnose 3,5-epimerase	dRep_bin115_IFKGOGCL_02771	CDS	rmlC	5.1.3.13	dTDP-4-dehydrorhamnose 3,5-epimerase
