GBprotID	LFQ intensity CtrPig1	LFQ intensity CtrPig2	LFQ intensity CtrPig3	LFQ intensity CtrPig4	LFQ intensity MannanPig1	LFQ intensity MannanPig2	LFQ intensity MannanPig3	LFQ intensity MannanPig4	Only identified by site	Reverse	Contaminant	Peptides	Unique peptides	PEP	Protein IDs	Majority protein IDs	Fasta headers	IDcomb	ftype	gene	EC_number	product
FGIOKLBC_00081	30.60143	30.443419999999996	30.89309	32.03318	31.982199999999995	32.064130000000006	31.759900000000002	31.66276				26	6	0	dRep_bin113_LIFKCGBF_00164;dRep_bin073_AKBCEHHO_01251;dRep_bin232_JGAEDAFA_01299;dRep_bin022_BOEAFNDE_00071;dRep_bin002_CFBNDKDN_00571;dRep_bin118_FGIOKLBC_00081;dRep_bin210_AGEDAEIA_00904;dRep_bin307_AOCKHIKF_00462;dRep_bin098_DDEBHDKK_00798;dRep_bin149_GABCHCDI_00668;dRep_bin037_GEAOEKHA_01107;dRep_bin229_FFOBPPJI_00185;dRep_bin040_EIFLLDOA_00453;dRep_bin092_OOJCPDEA_01611;dRep_bin136_NAIECEIF_00398;dRep_bin256_KEMNAOBC_00652;dRep_bin301_NJFJIJGA_00993;dRep_bin071_JHMCIJPE_01709;dRep_bin331_HPKAPHAF_00551;dRep_bin002_CFBNDKDN_00991;dRep_bin018_ILOONPIC_00361;dRep_bin351_CKFFBPHM_01335;dRep_bin316_FNLHDNEO_01449;dRep_bin020_JCCELPIE_00772;dRep_bin130_OIFFANPF_01695;dRep_bin298_EIPJCOMF_01103;dRep_bin346_JKFDGFHC_00396;dRep_bin301_NJFJIJGA_01061;dRep_bin289_KALDCNNP_01031;dRep_bin271_NGFBCHKH_00336;dRep_bin138_EJGHNBMI_01314;dRep_bin063_PJANDMAH_00202;dRep_bin036_DOKCEIDH_01987;dRep_bin034_MEBMFDLL_00863;dRep_bin343_JCMCKBGF_00754;dRep_bin137_NABPABPB_01723;dRep_bin037_GEAOEKHA_01156;dRep_bin296_FDMPKPOH_01780;dRep_bin341_NBEGOKEF_00571;dRep_bin334_NAPFFNLD_01049;dRep_bin274_DBJHKLDG_01583;dRep_bin060_HNFNENOI_00249;dRep_bin217_MJCEAEPB_00911;dRep_bin291_EILOACJB_01199;dRep_bin329_GDOHKPBL_00752;dRep_bin104_EGLEJOLM_00885;dRep_bin276_EHNFLEBP_00929;F1SSS0	dRep_bin113_LIFKCGBF_00164	>dRep_bin113_LIFKCGBF_00164 Carbamoyl-phosphate synthase large chain	dRep_bin118_FGIOKLBC_00081	CDS	carB	6.3.5.5	Carbamoyl-phosphate synthase large chain
FGIOKLBC_00082	28.62954	29.354750000000003	29.992399999999996	30.023139999999998	30.21083	30.89937	29.70792	30.0531				20	3	1,2194E-156	dRep_bin191_NGFJMLOL_01259;dRep_bin296_FDMPKPOH_00205;dRep_bin210_AGEDAEIA_00766;dRep_bin195_DDMDFNOK_00108;dRep_bin334_NAPFFNLD_01038;dRep_bin211_LGJEFJIK_01419;dRep_bin295_EJGKDKNE_00091;dRep_bin341_NBEGOKEF_00239;dRep_bin020_JCCELPIE_00888;dRep_bin283_NLJJFFAC_01280;dRep_bin274_DBJHKLDG_00956;dRep_bin016_JLGAHGOJ_01458;dRep_bin108_BPNCDINP_01604;dRep_bin008_MNDMJLEI_00335;dRep_bin270_GEJAHNCN_01137;dRep_bin005_CNDFPKJG_01352;dRep_bin060_HNFNENOI_00669;dRep_bin146_LCCIBLJG_00571;dRep_bin326_CEEAIPKF_00877;dRep_bin333_EFOKIBLA_00153;dRep_bin168_HKDILBFE_01558;dRep_bin244_LBFMHLBI_01599;dRep_bin096_GNHMEKPF_00231;dRep_bin237_KJDLIPND_00220;dRep_bin188_EJILNMPE_01240;dRep_bin251_FGNGCJDD_00076;dRep_bin227_IJODGBOI_00103;dRep_bin151_AHBJLMBI_00923;dRep_bin116_CLFDBMOF_00729;dRep_bin141_GMCOOECB_00805;dRep_bin350_EKOOEEGH_00925;dRep_bin132_FAPBDCMG_00754;dRep_bin080_CBEBHNNK_00317;dRep_bin051_HIEIDCID_00971;dRep_bin228_CECEDMJG_00643;dRep_bin009_KMMEHEKA_00811;dRep_bin318_IEDEJOFJ_01292;dRep_bin207_OHNPDPFI_00717;dRep_bin345_GLPJDLOI_00471;dRep_bin144_NPHACCKF_01507;dRep_bin118_FGIOKLBC_00082;dRep_bin355_KJEFNADK_00986;dRep_bin293_MEPKGOAN_00544;dRep_bin230_NINMBMKB_00674;dRep_bin014_CHIHIMAN_00029;dRep_bin218_ACMPALGF_00178;dRep_bin165_HMDFFMMM_01108;dRep_bin094_LBLICAAO_00513;dRep_bin076_GLAOFBEC_01428;dRep_bin267_LJCFMAFA_00110;dRep_bin048_PABMBHAL_00321;dRep_bin147_EJLBNEBE_02032;dRep_bin128_JPBBHEMA_00007;dRep_bin042_MMFCLHOO_01063;dRep_bin351_CKFFBPHM_00913;dRep_bin123_PJKBFKBB_00095;dRep_bin330_CODAKHDJ_00708;dRep_bin252_NDAKLAGD_01294;dRep_bin233_BAGKKAOB_01574;dRep_bin217_MJCEAEPB_00244;dRep_bin110_JGOEJECF_00272;dRep_bin109_MJABCPAK_00670;dRep_bin101_BNDDLDCL_01055;dRep_bin092_OOJCPDEA_00344;dRep_bin074_EHAOMODJ_00824;dRep_bin336_MPGOKPOL_02107;dRep_bin290_OIOJKBNK_01058;dRep_bin264_DNFFGNEG_00269;dRep_bin256_KEMNAOBC_01330;dRep_bin246_MMFBABHK_01553;dRep_bin166_DFIAJFEC_00041;dRep_bin153_JGABJFBF_00098;dRep_bin143_PFLDJMPF_00060;dRep_bin106_BKDHGPBE_01156;dRep_bin071_JHMCIJPE_01039;dRep_bin250_NMCAMJIO_00472;dRep_bin312_MJFEFHMP_01194;dRep_bin194_MEPDOGGJ_00657;dRep_bin129_GADIAMAA_01832;dRep_bin061_ONFGDLGO_01341;dRep_bin030_OGPDLGOC_01109;dRep_bin025_CBEJJMLE_00255;dRep_bin223_PIMCDKJI_01311;dRep_bin204_INMOGLDN_00399;dRep_bin202_HEPPALPH_00661;dRep_bin105_AAEIHAFF_01590;dRep_bin056_EMNHHOJA_01586;dRep_bin174_LJJOKEME_01552;dRep_bin057_BNCFHBBO_00981;dRep_bin348_LCLFDNEE_01410;dRep_bin339_DBNBAHDK_00024;dRep_bin321_EJNAAGJG_00897;dRep_bin273_FGAEBHNP_01096;dRep_bin248_CCDFPECI_01765;dRep_bin124_HIHDFGCL_01059;dRep_bin068_ENOLAELK_01049;dRep_bin038_EIGFILKG_00020;dRep_bin276_EHNFLEBP_00417;dRep_bin152_LJMCIADF_00769;dRep_bin115_IFKGOGCL_00005;dRep_bin099_DNDAGJEJ_00435;dRep_bin085_MBHLGCDB_01722;dRep_bin079_GAOGCKND_00892;dRep_bin026_HNPIIINL_00985;dRep_bin353_PPDHLNJB_01438;dRep_bin319_PBDBJGCJ_01331;dRep_bin291_EILOACJB_00194;dRep_bin241_LMMMGDNI_00361;dRep_bin091_MAFACGAD_00751;dRep_bin303_DDDNDJCF_01255;dRep_bin216_JNJMCPHB_01481;dRep_bin184_MBMMJHKO_01167;dRep_bin161_JMKPMHCO_00103;dRep_bin021_AJDDCGJC_01597;dRep_bin095_HOBNOEEF_00033;dRep_bin059_OOBKFNPP_00633;dRep_bin018_ILOONPIC_00093;dRep_bin306_FGHMKMMP_00476;dRep_bin175_HANCENAK_00082;dRep_bin040_EIFLLDOA_01832;dRep_bin166_DFIAJFEC_00288;dRep_bin085_MBHLGCDB_01583	dRep_bin191_NGFJMLOL_01259	>dRep_bin191_NGFJMLOL_01259 Aspartate--tRNA ligase	dRep_bin118_FGIOKLBC_00082	CDS	aspS	6.1.1.12	Aspartate--tRNA ligase
FGIOKLBC_00122						23.528029999999998						5	1	2,2381E-37	dRep_bin118_FGIOKLBC_00122	dRep_bin118_FGIOKLBC_00122	>dRep_bin118_FGIOKLBC_00122 Ketol-acid reductoisomerase (NAD(+))	dRep_bin118_FGIOKLBC_00122	CDS		1.1.1.382	Ketol-acid reductoisomerase (NAD(+))
FGIOKLBC_00145						24.043599999999998						1	1	0,0029283	dRep_bin118_FGIOKLBC_00145	dRep_bin118_FGIOKLBC_00145	>dRep_bin118_FGIOKLBC_00145 UDP-2-acetamido-2,6-beta-L-arabino-hexul-4-ose reductase	dRep_bin118_FGIOKLBC_00145	CDS	wbjC	1.1.1.367	UDP-2-acetamido-2,6-beta-L-arabino-hexul-4-ose reductase
FGIOKLBC_00146	24.827890000000004	24.995289999999997	27.57773	24.967539999999996								2	2	5,745E-05	dRep_bin094_LBLICAAO_00035;dRep_bin029_LFMGBBEC_00468;dRep_bin351_CKFFBPHM_00106;dRep_bin115_IFKGOGCL_01618;dRep_bin105_AAEIHAFF_00821;dRep_bin118_FGIOKLBC_00146;dRep_bin348_LCLFDNEE_00839;dRep_bin057_BNCFHBBO_00956;dRep_bin328_GIGKNKPJ_00687;dRep_bin056_EMNHHOJA_00366;dRep_bin026_HNPIIINL_00089	dRep_bin094_LBLICAAO_00035;dRep_bin029_LFMGBBEC_00468;dRep_bin351_CKFFBPHM_00106;dRep_bin115_IFKGOGCL_01618;dRep_bin105_AAEIHAFF_00821;dRep_bin118_FGIOKLBC_00146;dRep_bin348_LCLFDNEE_00839;dRep_bin057_BNCFHBBO_00956;dRep_bin328_GIGKNKPJ_00687;dRep_bin056_EMNHHOJA_00366;dRep_bin026_HNPIIINL_00089	>dRep_bin094_LBLICAAO_00035 UDP-2,3-diacetamido-2,3-dideoxy-D-glucuronate 2-epimerase;>dRep_bin029_LFMGBBEC_00468 UDP-2,3-diacetamido-2,3-dideoxy-D-glucuronate 2-epimerase;>dRep_bin351_CKFFBPHM_00106 UDP-2,3-diacetamido-2,3-dideoxy-D-glucuronate 2-epimeras	dRep_bin118_FGIOKLBC_00146	CDS	wbpI	5.1.3.23	UDP-2,3-diacetamido-2,3-dideoxy-D-glucuronate 2-epimerase
FGIOKLBC_00156			22.4938									2	1	1,6523E-12	dRep_bin118_FGIOKLBC_00156;dRep_bin070_EMBHKIOF_01632	dRep_bin118_FGIOKLBC_00156;dRep_bin070_EMBHKIOF_01632	>dRep_bin118_FGIOKLBC_00156 2,3-bisphosphoglycerate-independent phosphoglycerate mutase;>dRep_bin070_EMBHKIOF_01632 2,3-bisphosphoglycerate-independent phosphoglycerate mutase	dRep_bin118_FGIOKLBC_00156	CDS	gpmI	5.4.2.12	2,3-bisphosphoglycerate-independent phosphoglycerate mutase
FGIOKLBC_00159	27.03612		27.08335		27.92128	28.50684	26.835810000000002	27.86667				4	3	3,6073E-16	dRep_bin137_NABPABPB_00600;dRep_bin112_NDMGAKCH_01343;dRep_bin285_IPHKFJAN_01350;dRep_bin294_EHJINIDK_00848;dRep_bin002_CFBNDKDN_00366;dRep_bin229_FFOBPPJI_00505;dRep_bin314_KCHFPLIP_00960;dRep_bin196_BIELHBNH_00748;dRep_bin149_GABCHCDI_01076;dRep_bin084_CGBIKHBH_01143;dRep_bin232_JGAEDAFA_01057;dRep_bin111_FPJIHFKE_00361;dRep_bin118_FGIOKLBC_00159;dRep_bin301_NJFJIJGA_00146;dRep_bin296_FDMPKPOH_00698;dRep_bin198_GMLJKALI_00381;dRep_bin093_PGADNPMG_01219;dRep_bin131_HLFNHDGI_00129;dRep_bin165_HMDFFMMM_00670;dRep_bin138_EJGHNBMI_00753;dRep_bin035_JBNPBOKG_01000;dRep_bin307_AOCKHIKF_01322;dRep_bin098_DDEBHDKK_00252;dRep_bin064_CMDDCDKG_00072;dRep_bin210_AGEDAEIA_01699;dRep_bin028_GKEJLBAM_01652;dRep_bin040_EIFLLDOA_00629;dRep_bin045_GJACFFBC_00472;dRep_bin022_BOEAFNDE_00176;dRep_bin275_NIDIBBDA_01502;dRep_bin183_FPGIOKBG_01873	dRep_bin137_NABPABPB_00600;dRep_bin112_NDMGAKCH_01343;dRep_bin285_IPHKFJAN_01350;dRep_bin294_EHJINIDK_00848;dRep_bin002_CFBNDKDN_00366;dRep_bin229_FFOBPPJI_00505;dRep_bin314_KCHFPLIP_00960;dRep_bin196_BIELHBNH_00748	>dRep_bin137_NABPABPB_00600 30S ribosomal protein S2;>dRep_bin112_NDMGAKCH_01343 30S ribosomal protein S2;>dRep_bin285_IPHKFJAN_01350 30S ribosomal protein S2;>dRep_bin294_EHJINIDK_00848 30S ribosomal protein S2;>dRep_bin002_CFBNDKDN_00366 30S ribosomal pr	dRep_bin118_FGIOKLBC_00159	CDS	rpsB		30S ribosomal protein S2
FGIOKLBC_00184	19.76007											5	1	1,1584E-13	dRep_bin118_FGIOKLBC_00184;dRep_bin229_FFOBPPJI_01310;dRep_bin028_GKEJLBAM_01552;dRep_bin040_EIFLLDOA_00149;dRep_bin022_BOEAFNDE_00554;dRep_bin037_GEAOEKHA_01143;dRep_bin018_ILOONPIC_00816;dRep_bin128_JPBBHEMA_00202;dRep_bin247_EKGBJCBM_01673;dRep_bin232_JGAEDAFA_00095;dRep_bin351_CKFFBPHM_00677;dRep_bin290_OIOJKBNK_00415;dRep_bin256_KEMNAOBC_01107;dRep_bin136_NAIECEIF_00972;dRep_bin071_JHMCIJPE_00736	dRep_bin118_FGIOKLBC_00184;dRep_bin229_FFOBPPJI_01310;dRep_bin028_GKEJLBAM_01552;dRep_bin040_EIFLLDOA_00149;dRep_bin022_BOEAFNDE_00554	>dRep_bin118_FGIOKLBC_00184 Propionyl-CoA carboxylase beta chain;>dRep_bin229_FFOBPPJI_01310 Propionyl-CoA carboxylase beta chain;>dRep_bin028_GKEJLBAM_01552 Propionyl-CoA carboxylase beta chain;>dRep_bin040_EIFLLDOA_00149 Propionyl-CoA carboxylase beta ch	dRep_bin118_FGIOKLBC_00184	CDS	pccB	6.4.1.3	Propionyl-CoA carboxylase beta chain
FGIOKLBC_00221					26.768379999999997							3	1	2,9563E-09	dRep_bin183_FPGIOKBG_01973;dRep_bin034_MEBMFDLL_01112;dRep_bin063_PJANDMAH_00033;dRep_bin104_EGLEJOLM_00236;dRep_bin331_HPKAPHAF_00401;dRep_bin037_GEAOEKHA_01236;dRep_bin276_EHNFLEBP_00896;dRep_bin159_ADJJGPBG_01036;dRep_bin083_OCBADPJJ_00248;dRep_bin120_EKLBOPNC_01937;dRep_bin210_AGEDAEIA_00563;dRep_bin296_FDMPKPOH_01992;dRep_bin002_CFBNDKDN_00667;dRep_bin110_JGOEJECF_00717;dRep_bin314_KCHFPLIP_00736;dRep_bin346_JKFDGFHC_01012;dRep_bin307_AOCKHIKF_00964;dRep_bin113_LIFKCGBF_00231;dRep_bin301_NJFJIJGA_00693;dRep_bin295_EJGKDKNE_01558;dRep_bin118_FGIOKLBC_00221;dRep_bin070_EMBHKIOF_01275;dRep_bin037_GEAOEKHA_00935;dRep_bin022_BOEAFNDE_00846;dRep_bin275_NIDIBBDA_00292;dRep_bin346_JKFDGFHC_01402;dRep_bin331_HPKAPHAF_00660;dRep_bin198_GMLJKALI_01178;dRep_bin165_HMDFFMMM_00173;dRep_bin084_CGBIKHBH_01220;dRep_bin002_CFBNDKDN_00154;dRep_bin036_DOKCEIDH_00528;dRep_bin045_GJACFFBC_00872;dRep_bin034_MEBMFDLL_01631;dRep_bin137_NABPABPB_01490;dRep_bin113_LIFKCGBF_00697;dRep_bin298_EIPJCOMF_00317;dRep_bin036_DOKCEIDH_01142;dRep_bin196_BIELHBNH_01084	dRep_bin183_FPGIOKBG_01973;dRep_bin034_MEBMFDLL_01112	>dRep_bin183_FPGIOKBG_01973 4-alpha-glucanotransferase;>dRep_bin034_MEBMFDLL_01112 4-alpha-glucanotransferase	dRep_bin118_FGIOKLBC_00221	CDS	malQ	2.4.1.25	4-alpha-glucanotransferase
FGIOKLBC_00261						24.889339999999997						1	1	2,502E-05	dRep_bin137_NABPABPB_01552;dRep_bin170_LICLFCFF_00971;dRep_bin002_CFBNDKDN_01261;dRep_bin296_FDMPKPOH_00834;dRep_bin329_GDOHKPBL_00447;dRep_bin294_EHJINIDK_00092;dRep_bin198_GMLJKALI_00198;dRep_bin113_LIFKCGBF_00076;dRep_bin224_NFENHJGB_00379;dRep_bin022_BOEAFNDE_00946;dRep_bin118_FGIOKLBC_00261;dRep_bin232_JGAEDAFA_01824;dRep_bin084_CGBIKHBH_01075;dRep_bin073_AKBCEHHO_00006;dRep_bin307_AOCKHIKF_00325;dRep_bin098_DDEBHDKK_01375;dRep_bin045_GJACFFBC_01020;dRep_bin165_HMDFFMMM_00908;dRep_bin210_AGEDAEIA_01259;dRep_bin183_FPGIOKBG_02142	dRep_bin137_NABPABPB_01552;dRep_bin170_LICLFCFF_00971;dRep_bin002_CFBNDKDN_01261;dRep_bin296_FDMPKPOH_00834;dRep_bin329_GDOHKPBL_00447;dRep_bin294_EHJINIDK_00092;dRep_bin198_GMLJKALI_00198;dRep_bin113_LIFKCGBF_00076;dRep_bin224_NFENHJGB_00379;dRep_bin022_BOEAFNDE_00946;dRep_bin118_FGIOKLBC_00261;dRep_bin232_JGAEDAFA_01824;dRep_bin084_CGBIKHBH_01075;dRep_bin073_AKBCEHHO_00006;dRep_bin307_AOCKHIKF_00325;dRep_bin098_DDEBHDKK_01375;dRep_bin045_GJACFFBC_01020;dRep_bin165_HMDFFMMM_00908;dRep_bin210_AGEDAEIA_01259;dRep_bin183_FPGIOKBG_02142	>dRep_bin137_NABPABPB_01552 putative glycine dehydrogenase (decarboxylating) subunit 2;>dRep_bin170_LICLFCFF_00971 putative glycine dehydrogenase (decarboxylating) subunit 2;>dRep_bin002_CFBNDKDN_01261 putative glycine dehydrogenase (decarboxylating) subun	dRep_bin118_FGIOKLBC_00261	CDS	gcvPB	1.4.4.2	putative glycine dehydrogenase (decarboxylating) subunit 2
FGIOKLBC_00265	24.5528	24.37059	25.156880000000005	26.174680000000002	25.900599999999997	26.449689999999997	25.960759999999997	25.985979999999998				4	3	2,1444E-17	dRep_bin191_NGFJMLOL_00179;dRep_bin329_GDOHKPBL_00046;dRep_bin118_FGIOKLBC_00265;dRep_bin113_LIFKCGBF_01446;dRep_bin111_FPJIHFKE_00389;dRep_bin331_HPKAPHAF_01581;dRep_bin298_EIPJCOMF_00209;dRep_bin285_IPHKFJAN_00616;dRep_bin138_EJGHNBMI_00845;dRep_bin084_CGBIKHBH_00950;dRep_bin036_DOKCEIDH_00573;dRep_bin301_NJFJIJGA_00502;dRep_bin165_HMDFFMMM_00562;dRep_bin137_NABPABPB_00883;dRep_bin112_NDMGAKCH_00607;dRep_bin098_DDEBHDKK_00267;dRep_bin271_NGFBCHKH_00374;dRep_bin196_BIELHBNH_01128;dRep_bin170_LICLFCFF_00847;dRep_bin307_AOCKHIKF_00787;dRep_bin289_KALDCNNP_01315;dRep_bin037_GEAOEKHA_01064;dRep_bin149_GABCHCDI_01295;dRep_bin314_KCHFPLIP_00921;dRep_bin070_EMBHKIOF_01566;dRep_bin064_CMDDCDKG_00459;dRep_bin073_AKBCEHHO_01315;dRep_bin232_JGAEDAFA_00694;dRep_bin002_CFBNDKDN_01690	dRep_bin191_NGFJMLOL_00179;dRep_bin329_GDOHKPBL_00046;dRep_bin118_FGIOKLBC_00265	>dRep_bin191_NGFJMLOL_00179 LL-diaminopimelate aminotransferase;>dRep_bin329_GDOHKPBL_00046 LL-diaminopimelate aminotransferase;>dRep_bin118_FGIOKLBC_00265 LL-diaminopimelate aminotransferase	dRep_bin118_FGIOKLBC_00265	CDS	dapL	2.6.1.83	LL-diaminopimelate aminotransferase
FGIOKLBC_00279	28.615830000000003	28.18546	29.82558	29.92139	30.37161	30.505309999999998	29.835990000000002	30.137000000000004				19	11	0	dRep_bin191_NGFJMLOL_01017;dRep_bin307_AOCKHIKF_00836;dRep_bin232_JGAEDAFA_01923;dRep_bin098_DDEBHDKK_00570;dRep_bin073_AKBCEHHO_00429;dRep_bin329_GDOHKPBL_00208;dRep_bin289_KALDCNNP_00441;dRep_bin219_HGPEELLF_00854;dRep_bin047_IFFANOMN_01143;dRep_bin354_MMOALAFN_00793;dRep_bin093_PGADNPMG_00569;dRep_bin327_EPEGNBAG_00694;dRep_bin123_PJKBFKBB_01119;dRep_bin325_EIIGOGHN_01520;dRep_bin335_JIOGNAPG_00036;dRep_bin082_HBEFABJN_00133;dRep_bin204_INMOGLDN_01573;dRep_bin174_LJJOKEME_01467;dRep_bin050_FBECOHCI_00562;dRep_bin264_DNFFGNEG_01376;dRep_bin252_NDAKLAGD_00172;dRep_bin246_MMFBABHK_01476;dRep_bin202_HEPPALPH_01125;dRep_bin004_OCHNPJPO_00139;dRep_bin318_IEDEJOFJ_00360;dRep_bin244_LBFMHLBI_01421;dRep_bin223_PIMCDKJI_00814;dRep_bin186_HJAAFFNP_00783;dRep_bin133_NOBPDBPA_02278;dRep_bin105_AAEIHAFF_01501;dRep_bin005_CNDFPKJG_01278;dRep_bin317_ABPHNCOD_01283;dRep_bin007_LNLEAAAN_00664;dRep_bin312_MJFEFHMP_01049;dRep_bin129_GADIAMAA_00560;dRep_bin065_DFABHCBI_00478;dRep_bin287_DONBGKDH_00800;dRep_bin238_OLNFACLE_00723;dRep_bin179_HFEIPPPA_01221;dRep_bin167_BLMEBMNN_00475;dRep_bin125_FADLGGII_00749;dRep_bin103_IGJBLKMC_00712;dRep_bin088_DNGPPFDK_00743;dRep_bin048_PABMBHAL_01780;dRep_bin348_LCLFDNEE_00919;dRep_bin278_BFCONKOE_00886;dRep_bin097_CBBLIPAN_00374;dRep_bin081_JDPCKDNP_01011;dRep_bin032_PPNIGLME_00057;dRep_bin272_LGBDGEIM_01074;dRep_bin049_MNFBDPNO_01322;dRep_bin013_IODPEDPB_01734;dRep_bin299_AKNBKJGM_01764;dRep_bin266_JFOCEDAE_00776;dRep_bin216_JNJMCPHB_01258;dRep_bin021_AJDDCGJC_00529;dRep_bin316_FNLHDNEO_00493;dRep_bin314_KCHFPLIP_01715;dRep_bin296_FDMPKPOH_01763;dRep_bin275_NIDIBBDA_00322;dRep_bin118_FGIOKLBC_00279;dRep_bin037_GEAOEKHA_00835;dRep_bin028_GKEJLBAM_01763;dRep_bin331_HPKAPHAF_00024;dRep_bin301_NJFJIJGA_01995;dRep_bin149_GABCHCDI_01177;dRep_bin057_BNCFHBBO_00918;dRep_bin040_EIFLLDOA_01272;dRep_bin265_LFKFBJPC_01505;dRep_bin022_BOEAFNDE_00753;dRep_bin210_AGEDAEIA_00448	dRep_bin191_NGFJMLOL_01017	>dRep_bin191_NGFJMLOL_01017 Aspartate aminotransferase	dRep_bin118_FGIOKLBC_00279	CDS		2.6.1.1	Aspartate aminotransferase
FGIOKLBC_00295	24.62204	27.0502	24.411450000000002	24.13579								9	4	1,748E-53	dRep_bin329_GDOHKPBL_01232;dRep_bin131_HLFNHDGI_00754;dRep_bin331_HPKAPHAF_00629;dRep_bin229_FFOBPPJI_01139;dRep_bin118_FGIOKLBC_00295;dRep_bin314_KCHFPLIP_01144;dRep_bin301_NJFJIJGA_01193;dRep_bin149_GABCHCDI_00521;dRep_bin070_EMBHKIOF_00666;dRep_bin022_BOEAFNDE_01194;dRep_bin210_AGEDAEIA_00398;dRep_bin275_NIDIBBDA_01660;dRep_bin128_JPBBHEMA_00659;dRep_bin018_ILOONPIC_01318;dRep_bin136_NAIECEIF_00973;dRep_bin290_OIOJKBNK_00409;dRep_bin316_FNLHDNEO_01155;dRep_bin071_JHMCIJPE_01263;dRep_bin256_KEMNAOBC_00999;dRep_bin110_JGOEJECF_01178;dRep_bin345_GLPJDLOI_00146;dRep_bin351_CKFFBPHM_01156	dRep_bin329_GDOHKPBL_01232	>dRep_bin329_GDOHKPBL_01232 hypothetical protein	dRep_bin118_FGIOKLBC_00295	CDS			hypothetical protein
FGIOKLBC_00311						22.12133						5	1	3,3368E-12	dRep_bin045_GJACFFBC_01247;dRep_bin331_HPKAPHAF_00027;dRep_bin037_GEAOEKHA_00174;dRep_bin014_CHIHIMAN_00074;dRep_bin345_GLPJDLOI_01333;dRep_bin131_HLFNHDGI_00087;dRep_bin040_EIFLLDOA_00096;dRep_bin301_NJFJIJGA_00754;dRep_bin229_FFOBPPJI_00315;dRep_bin149_GABCHCDI_00178;dRep_bin022_BOEAFNDE_01263;dRep_bin210_AGEDAEIA_00584;dRep_bin118_FGIOKLBC_00311;dRep_bin110_JGOEJECF_00092;dRep_bin275_NIDIBBDA_01070	dRep_bin045_GJACFFBC_01247	>dRep_bin045_GJACFFBC_01247 Bifunctional purine biosynthesis protein PurH	dRep_bin118_FGIOKLBC_00311	CDS	purH		Bifunctional purine biosynthesis protein PurH
FGIOKLBC_00334						25.210820000000002						13	1	1,6287E-90	dRep_bin314_KCHFPLIP_00873;dRep_bin118_FGIOKLBC_00334	dRep_bin314_KCHFPLIP_00873	>dRep_bin314_KCHFPLIP_00873 Pyruvate synthase	dRep_bin118_FGIOKLBC_00334	CDS	por	1.2.7.1	Pyruvate synthase
FGIOKLBC_00339					24.604160000000004	26.07936	24.68635	25.928359999999998				5	5	1,7183E-13	dRep_bin191_NGFJMLOL_01112;dRep_bin112_NDMGAKCH_00659;dRep_bin170_LICLFCFF_00593;dRep_bin137_NABPABPB_00710;dRep_bin113_LIFKCGBF_00660;dRep_bin084_CGBIKHBH_01151;dRep_bin138_EJGHNBMI_01114;dRep_bin224_NFENHJGB_00372;dRep_bin289_KALDCNNP_00187;dRep_bin063_PJANDMAH_00387;dRep_bin036_DOKCEIDH_01537;dRep_bin002_CFBNDKDN_01934;dRep_bin285_IPHKFJAN_01401;dRep_bin034_MEBMFDLL_00310;dRep_bin271_NGFBCHKH_00933;dRep_bin110_JGOEJECF_00456;dRep_bin301_NJFJIJGA_01039;dRep_bin275_NIDIBBDA_01542;dRep_bin149_GABCHCDI_01137;dRep_bin165_HMDFFMMM_01354;dRep_bin040_EIFLLDOA_00227;dRep_bin118_FGIOKLBC_00339;dRep_bin093_PGADNPMG_01233;dRep_bin196_BIELHBNH_01098;dRep_bin296_FDMPKPOH_01862;dRep_bin298_EIPJCOMF_01495;dRep_bin346_JKFDGFHC_00784;dRep_bin329_GDOHKPBL_00990;dRep_bin198_GMLJKALI_01301;dRep_bin314_KCHFPLIP_00150;dRep_bin183_FPGIOKBG_01741;dRep_bin331_HPKAPHAF_00653	dRep_bin191_NGFJMLOL_01112;dRep_bin112_NDMGAKCH_00659;dRep_bin170_LICLFCFF_00593	>dRep_bin191_NGFJMLOL_01112 Aspartate carbamoyltransferase catalytic subunit;>dRep_bin112_NDMGAKCH_00659 Aspartate carbamoyltransferase catalytic subunit;>dRep_bin170_LICLFCFF_00593 Aspartate carbamoyltransferase catalytic subunit	dRep_bin118_FGIOKLBC_00339	CDS	pyrB	2.1.3.2	Aspartate carbamoyltransferase catalytic subunit
FGIOKLBC_00349						23.646250000000002						2	1	1,308E-28	dRep_bin118_FGIOKLBC_00349;dRep_bin022_BOEAFNDE_00261;dRep_bin294_EHJINIDK_01090;dRep_bin289_KALDCNNP_01187;dRep_bin198_GMLJKALI_00831;dRep_bin170_LICLFCFF_00547;dRep_bin138_EJGHNBMI_00660;dRep_bin137_NABPABPB_01251;dRep_bin113_LIFKCGBF_01213;dRep_bin112_NDMGAKCH_00045;dRep_bin064_CMDDCDKG_01351;dRep_bin063_PJANDMAH_01126;dRep_bin045_GJACFFBC_01452;dRep_bin034_MEBMFDLL_02071;dRep_bin028_GKEJLBAM_00513;dRep_bin298_EIPJCOMF_00311;dRep_bin314_KCHFPLIP_00375;dRep_bin307_AOCKHIKF_01531;dRep_bin165_HMDFFMMM_00795;dRep_bin098_DDEBHDKK_00102;dRep_bin084_CGBIKHBH_01429;dRep_bin301_NJFJIJGA_00065;dRep_bin149_GABCHCDI_01162;dRep_bin285_IPHKFJAN_01824;dRep_bin183_FPGIOKBG_00202;dRep_bin131_HLFNHDGI_00637	dRep_bin118_FGIOKLBC_00349;dRep_bin022_BOEAFNDE_00261;dRep_bin294_EHJINIDK_01090;dRep_bin289_KALDCNNP_01187;dRep_bin198_GMLJKALI_00831;dRep_bin170_LICLFCFF_00547;dRep_bin138_EJGHNBMI_00660;dRep_bin137_NABPABPB_01251;dRep_bin113_LIFKCGBF_01213;dRep_bin112_NDMGAKCH_00045;dRep_bin064_CMDDCDKG_01351;dRep_bin063_PJANDMAH_01126;dRep_bin045_GJACFFBC_01452;dRep_bin034_MEBMFDLL_02071;dRep_bin028_GKEJLBAM_00513;dRep_bin298_EIPJCOMF_00311;dRep_bin314_KCHFPLIP_00375;dRep_bin307_AOCKHIKF_01531;dRep_bin165_HMDFFMMM_00795;dRep_bin098_DDEBHDKK_00102;dRep_bin084_CGBIKHBH_01429;dRep_bin301_NJFJIJGA_00065;dRep_bin149_GABCHCDI_01162;dRep_bin285_IPHKFJAN_01824;dRep_bin183_FPGIOKBG_00202;dRep_bin131_HLFNHDGI_00637	>dRep_bin118_FGIOKLBC_00349 Caffeyl-CoA reductase-Etf complex subunit CarD;>dRep_bin022_BOEAFNDE_00261 Acryloyl-CoA reductase electron transfer subunit gamma;>dRep_bin294_EHJINIDK_01090 Caffeyl-CoA reductase-Etf complex subunit CarD;>dRep_bin289_KALDCNNP_0	dRep_bin118_FGIOKLBC_00349	CDS	carD	1.3.1.108	Caffeyl-CoA reductase-Etf complex subunit CarD
FGIOKLBC_00351	25.79392	25.75287	26.592209999999998	27.15827	27.53919	28.05227	26.330450000000003	27.487379999999998				2	1	1,7513E-13	dRep_bin331_HPKAPHAF_00202;dRep_bin131_HLFNHDGI_00639;dRep_bin346_JKFDGFHC_00925;dRep_bin289_KALDCNNP_01185;dRep_bin307_AOCKHIKF_01533;dRep_bin296_FDMPKPOH_01400;dRep_bin165_HMDFFMMM_00797;dRep_bin098_DDEBHDKK_00100;dRep_bin084_CGBIKHBH_01431;dRep_bin298_EIPJCOMF_00313;dRep_bin070_EMBHKIOF_00062;dRep_bin037_GEAOEKHA_01272;dRep_bin198_GMLJKALI_00829;dRep_bin064_CMDDCDKG_01001;dRep_bin170_LICLFCFF_00550;dRep_bin314_KCHFPLIP_00377;dRep_bin028_GKEJLBAM_00511;dRep_bin118_FGIOKLBC_00351;dRep_bin045_GJACFFBC_01454;dRep_bin316_FNLHDNEO_00383;dRep_bin294_EHJINIDK_01092;dRep_bin232_JGAEDAFA_00204;dRep_bin073_AKBCEHHO_00756;dRep_bin224_NFENHJGB_00484;dRep_bin112_NDMGAKCH_00047;dRep_bin022_BOEAFNDE_00263;dRep_bin210_AGEDAEIA_01597;dRep_bin002_CFBNDKDN_00791	dRep_bin331_HPKAPHAF_00202;dRep_bin131_HLFNHDGI_00639;dRep_bin346_JKFDGFHC_00925;dRep_bin289_KALDCNNP_01185;dRep_bin307_AOCKHIKF_01533;dRep_bin296_FDMPKPOH_01400;dRep_bin165_HMDFFMMM_00797;dRep_bin098_DDEBHDKK_00100;dRep_bin084_CGBIKHBH_01431;dRep_bin298_EIPJCOMF_00313;dRep_bin070_EMBHKIOF_00062;dRep_bin037_GEAOEKHA_01272;dRep_bin198_GMLJKALI_00829;dRep_bin064_CMDDCDKG_01001;dRep_bin170_LICLFCFF_00550;dRep_bin314_KCHFPLIP_00377;dRep_bin028_GKEJLBAM_00511;dRep_bin118_FGIOKLBC_00351;dRep_bin045_GJACFFBC_01454;dRep_bin316_FNLHDNEO_00383;dRep_bin294_EHJINIDK_01092;dRep_bin232_JGAEDAFA_00204;dRep_bin073_AKBCEHHO_00756;dRep_bin224_NFENHJGB_00484;dRep_bin112_NDMGAKCH_00047;dRep_bin022_BOEAFNDE_00263;dRep_bin210_AGEDAEIA_01597;dRep_bin002_CFBNDKDN_00791	>dRep_bin331_HPKAPHAF_00202 3-methylmercaptopropionyl-CoA dehydrogenase;>dRep_bin131_HLFNHDGI_00639 3-methylmercaptopropionyl-CoA dehydrogenase;>dRep_bin346_JKFDGFHC_00925 3-methylmercaptopropionyl-CoA dehydrogenase;>dRep_bin289_KALDCNNP_01185 3-methylmerc	dRep_bin118_FGIOKLBC_00351	CDS	dmdC	1.3.8.-	3-methylmercaptopropionyl-CoA dehydrogenase
FGIOKLBC_00444			22.351380000000002									1	1	0,0059824	dRep_bin118_FGIOKLBC_00444	dRep_bin118_FGIOKLBC_00444	>dRep_bin118_FGIOKLBC_00444 Phosphoserine aminotransferase	dRep_bin118_FGIOKLBC_00444	CDS	serC	2.6.1.52	Phosphoserine aminotransferase
FGIOKLBC_00461	31.69062	31.497960000000003	31.258499999999998	30.57867	30.338729999999998	30.18754	31.41518	31.29647				16	13	0	dRep_bin225_FLBKEJIP_00638;dRep_bin193_GDMDPNNM_00391;dRep_bin104_EGLEJOLM_00429;dRep_bin267_LJCFMAFA_01104;dRep_bin128_JPBBHEMA_00063;dRep_bin322_OJELOJOF_01579;dRep_bin220_PILICLLL_00965;dRep_bin237_KJDLIPND_01288;dRep_bin273_FGAEBHNP_00090;dRep_bin350_EKOOEEGH_00878;dRep_bin341_NBEGOKEF_01245;dRep_bin230_NINMBMKB_00865;dRep_bin355_KJEFNADK_01484;dRep_bin306_FGHMKMMP_01597;dRep_bin291_EILOACJB_00178;dRep_bin276_EHNFLEBP_00863;dRep_bin107_EFNBPDOP_00094;dRep_bin077_DNNBMPMC_01312;dRep_bin324_IPNHOHFK_02120;dRep_bin308_JBPDGLPP_01844;dRep_bin089_PAJFOJBN_01453;dRep_bin031_BNHMFOII_01699;dRep_bin007_LNLEAAAN_01377;dRep_bin179_HFEIPPPA_01144;dRep_bin347_EKGCMFPD_01400;dRep_bin226_NLNLHLLD_00768;dRep_bin056_EMNHHOJA_00523;dRep_bin026_HNPIIINL_01583;dRep_bin020_JCCELPIE_01111;dRep_bin345_GLPJDLOI_00559;dRep_bin343_JCMCKBGF_01283;dRep_bin333_EFOKIBLA_00575;dRep_bin323_FBBLPLCG_00787;dRep_bin274_DBJHKLDG_00045;dRep_bin195_DDMDFNOK_00591;dRep_bin078_GKFCBAEI_00992;dRep_bin008_MNDMJLEI_01069;dRep_bin316_FNLHDNEO_00739;dRep_bin092_OOJCPDEA_01821;dRep_bin074_EHAOMODJ_00660;dRep_bin256_KEMNAOBC_00450;dRep_bin123_PJKBFKBB_01350;dRep_bin110_JGOEJECF_00180;dRep_bin101_BNDDLDCL_01841;dRep_bin071_JHMCIJPE_01380;dRep_bin040_EIFLLDOA_01745;dRep_bin032_PPNIGLME_01067;dRep_bin014_CHIHIMAN_00063;dRep_bin321_EJNAAGJG_00005;dRep_bin290_OIOJKBNK_00982;dRep_bin229_FFOBPPJI_01385;dRep_bin124_HIHDFGCL_00127;dRep_bin028_GKEJLBAM_01146;dRep_bin351_CKFFBPHM_00748;dRep_bin296_FDMPKPOH_01066;dRep_bin257_JHFDCHCB_01960;dRep_bin194_MEPDOGGJ_00157;dRep_bin191_NGFJMLOL_00394;dRep_bin136_NAIECEIF_01100;dRep_bin118_FGIOKLBC_00461;dRep_bin025_CBEJJMLE_00124;dRep_bin293_MEPKGOAN_00978;dRep_bin210_AGEDAEIA_00638;dRep_bin314_KCHFPLIP_00446;dRep_bin165_HMDFFMMM_00776;dRep_bin353_PPDHLNJB_00892;dRep_bin018_ILOONPIC_00585;dRep_bin060_HNFNENOI_01252;dRep_bin217_MJCEAEPB_01380	dRep_bin225_FLBKEJIP_00638	>dRep_bin225_FLBKEJIP_00638 Inosine-5-monophosphate dehydrogenase	dRep_bin118_FGIOKLBC_00461	CDS	guaB	1.1.1.205	Inosine-5'-monophosphate dehydrogenase
FGIOKLBC_00515								23.2594				3	0	7,6846E-15	dRep_bin118_FGIOKLBC_00515;dRep_bin210_AGEDAEIA_01608;dRep_bin022_BOEAFNDE_01406	dRep_bin118_FGIOKLBC_00515	>dRep_bin118_FGIOKLBC_00515 Arginine--tRNA ligase	dRep_bin118_FGIOKLBC_00515	CDS	argS	6.1.1.19	Arginine--tRNA ligase
FGIOKLBC_00517					22.85123	24.6045	22.737190000000002	22.78317				2	1	2,2274E-06	dRep_bin224_NFENHJGB_01020;dRep_bin137_NABPABPB_00972;dRep_bin289_KALDCNNP_00510;dRep_bin002_CFBNDKDN_00703;dRep_bin117_PMEMANMD_00625;dRep_bin138_EJGHNBMI_01256;dRep_bin229_FFOBPPJI_00962;dRep_bin118_FGIOKLBC_00517;dRep_bin070_EMBHKIOF_00192;dRep_bin037_GEAOEKHA_00531;dRep_bin331_HPKAPHAF_00984;dRep_bin341_NBEGOKEF_01327;dRep_bin028_GKEJLBAM_01241;dRep_bin085_MBHLGCDB_00439;dRep_bin185_OOOLKACK_00621;dRep_bin215_ABBFGCAF_01378;dRep_bin210_AGEDAEIA_00164	dRep_bin224_NFENHJGB_01020;dRep_bin137_NABPABPB_00972;dRep_bin289_KALDCNNP_00510;dRep_bin002_CFBNDKDN_00703;dRep_bin117_PMEMANMD_00625;dRep_bin138_EJGHNBMI_01256;dRep_bin229_FFOBPPJI_00962;dRep_bin118_FGIOKLBC_00517;dRep_bin070_EMBHKIOF_00192;dRep_bin037_GEAOEKHA_00531;dRep_bin331_HPKAPHAF_00984;dRep_bin341_NBEGOKEF_01327;dRep_bin028_GKEJLBAM_01241;dRep_bin085_MBHLGCDB_00439;dRep_bin185_OOOLKACK_00621;dRep_bin215_ABBFGCAF_01378;dRep_bin210_AGEDAEIA_00164	>dRep_bin224_NFENHJGB_01020 Large-conductance mechanosensitive channel;>dRep_bin137_NABPABPB_00972 Large-conductance mechanosensitive channel;>dRep_bin289_KALDCNNP_00510 Large-conductance mechanosensitive channel;>dRep_bin002_CFBNDKDN_00703 Large-conductan	dRep_bin118_FGIOKLBC_00517	CDS	mscL		Large-conductance mechanosensitive channel
FGIOKLBC_00531						25.28736						18	0	0	dRep_bin170_LICLFCFF_00939;dRep_bin290_OIOJKBNK_01049;dRep_bin118_FGIOKLBC_00531	dRep_bin170_LICLFCFF_00939	>dRep_bin170_LICLFCFF_00939 Fumarate hydratase class I, anaerobic	dRep_bin118_FGIOKLBC_00531	CDS	fumB	4.2.1.2	Fumarate hydratase class I, anaerobic
FGIOKLBC_00537	28.57618	28.73908	28.601940000000003	29.525329999999997	29.361539999999998	29.35947	29.47117	28.94081				13	7	2,1177E-64	dRep_bin191_NGFJMLOL_01183;dRep_bin170_LICLFCFF_01189;dRep_bin198_GMLJKALI_01270;dRep_bin064_CMDDCDKG_00041;dRep_bin137_NABPABPB_00428;dRep_bin289_KALDCNNP_00317;dRep_bin183_FPGIOKBG_00493;dRep_bin224_NFENHJGB_01634;dRep_bin314_KCHFPLIP_00994;dRep_bin285_IPHKFJAN_01105;dRep_bin294_EHJINIDK_00253;dRep_bin002_CFBNDKDN_01884;dRep_bin229_FFOBPPJI_00639;dRep_bin318_IEDEJOFJ_01051;dRep_bin355_KJEFNADK_00398;dRep_bin267_LJCFMAFA_00932;dRep_bin230_NINMBMKB_00343;dRep_bin249_OFIIEIDJ_01003;dRep_bin007_LNLEAAAN_00258;dRep_bin037_GEAOEKHA_00979;dRep_bin346_JKFDGFHC_00518;dRep_bin196_BIELHBNH_00928;dRep_bin063_PJANDMAH_01542;dRep_bin045_GJACFFBC_02082;dRep_bin036_DOKCEIDH_00964;dRep_bin034_MEBMFDLL_02139;dRep_bin329_GDOHKPBL_01390;dRep_bin345_GLPJDLOI_00615;dRep_bin307_AOCKHIKF_00674;dRep_bin098_DDEBHDKK_00690;dRep_bin301_NJFJIJGA_01580;dRep_bin275_NIDIBBDA_00434;dRep_bin149_GABCHCDI_00617;dRep_bin093_PGADNPMG_01618;dRep_bin014_CHIHIMAN_00183;dRep_bin073_AKBCEHHO_01560;dRep_bin210_AGEDAEIA_00697;dRep_bin084_CGBIKHBH_01547;dRep_bin070_EMBHKIOF_00966;dRep_bin022_BOEAFNDE_00824;dRep_bin256_KEMNAOBC_01139;dRep_bin071_JHMCIJPE_00028;dRep_bin165_HMDFFMMM_00871;dRep_bin118_FGIOKLBC_00537;dRep_bin110_JGOEJECF_01108;dRep_bin316_FNLHDNEO_00330;dRep_bin296_FDMPKPOH_01624;dRep_bin232_JGAEDAFA_01628;dRep_bin290_OIOJKBNK_00304	dRep_bin191_NGFJMLOL_01183	>dRep_bin191_NGFJMLOL_01183 S-adenosylmethionine synthase	dRep_bin118_FGIOKLBC_00537	CDS	metK	2.5.1.6	S-adenosylmethionine synthase
FGIOKLBC_00579	23.590239999999998		22.463829999999998									10	0	1,9406E-55	dRep_bin118_FGIOKLBC_00579	dRep_bin118_FGIOKLBC_00579	>dRep_bin118_FGIOKLBC_00579 Myo-inositol-1-phosphate synthase	dRep_bin118_FGIOKLBC_00579	CDS			Myo-inositol-1-phosphate synthase
FGIOKLBC_00580						25.295339999999996		24.978759999999998				2	2	3,0349E-05	dRep_bin289_KALDCNNP_00379;dRep_bin034_MEBMFDLL_01028;dRep_bin138_EJGHNBMI_00928;dRep_bin113_LIFKCGBF_01228;dRep_bin329_GDOHKPBL_01128;dRep_bin198_GMLJKALI_00350;dRep_bin137_NABPABPB_01480;dRep_bin112_NDMGAKCH_01784;dRep_bin191_NGFJMLOL_02003;dRep_bin093_PGADNPMG_00675;dRep_bin111_FPJIHFKE_00732;dRep_bin196_BIELHBNH_01289;dRep_bin002_CFBNDKDN_01802;dRep_bin165_HMDFFMMM_00686;dRep_bin084_CGBIKHBH_01722;dRep_bin298_EIPJCOMF_01223;dRep_bin063_PJANDMAH_00009;dRep_bin170_LICLFCFF_01165;dRep_bin207_OHNPDPFI_00218;dRep_bin070_EMBHKIOF_01253;dRep_bin009_KMMEHEKA_00354;dRep_bin180_JMFOHHIL_00750;dRep_bin331_HPKAPHAF_00965;dRep_bin151_AHBJLMBI_00824;dRep_bin131_HLFNHDGI_01465;dRep_bin301_NJFJIJGA_01429;dRep_bin296_FDMPKPOH_01533;dRep_bin118_FGIOKLBC_00580	dRep_bin289_KALDCNNP_00379;dRep_bin034_MEBMFDLL_01028;dRep_bin138_EJGHNBMI_00928;dRep_bin113_LIFKCGBF_01228;dRep_bin329_GDOHKPBL_01128;dRep_bin198_GMLJKALI_00350;dRep_bin137_NABPABPB_01480;dRep_bin112_NDMGAKCH_01784;dRep_bin191_NGFJMLOL_02003;dRep_bin093_PGADNPMG_00675;dRep_bin111_FPJIHFKE_00732;dRep_bin196_BIELHBNH_01289;dRep_bin002_CFBNDKDN_01802;dRep_bin165_HMDFFMMM_00686;dRep_bin084_CGBIKHBH_01722;dRep_bin298_EIPJCOMF_01223;dRep_bin063_PJANDMAH_00009;dRep_bin170_LICLFCFF_01165;dRep_bin207_OHNPDPFI_00218;dRep_bin070_EMBHKIOF_01253;dRep_bin009_KMMEHEKA_00354;dRep_bin180_JMFOHHIL_00750;dRep_bin331_HPKAPHAF_00965;dRep_bin151_AHBJLMBI_00824;dRep_bin131_HLFNHDGI_01465;dRep_bin301_NJFJIJGA_01429;dRep_bin296_FDMPKPOH_01533;dRep_bin118_FGIOKLBC_00580	>dRep_bin289_KALDCNNP_00379 Protein RecA;>dRep_bin034_MEBMFDLL_01028 Protein RecA;>dRep_bin138_EJGHNBMI_00928 Protein RecA;>dRep_bin113_LIFKCGBF_01228 Protein RecA;>dRep_bin329_GDOHKPBL_01128 Protein RecA;>dRep_bin198_GMLJKALI_00350 Protein RecA;>dRep_bin1	dRep_bin118_FGIOKLBC_00580	CDS	recA		Protein RecA
FGIOKLBC_00645		25.30744	27.366950000000003	26.114240000000002	28.8031	29.84742	27.367950000000004	28.02099				20	2	1,04E-100	dRep_bin191_NGFJMLOL_01299;dRep_bin138_EJGHNBMI_00239;dRep_bin346_JKFDGFHC_01257;dRep_bin036_DOKCEIDH_00826;dRep_bin183_FPGIOKBG_00488;dRep_bin331_HPKAPHAF_00454;dRep_bin232_JGAEDAFA_01447;dRep_bin196_BIELHBNH_01253;dRep_bin296_FDMPKPOH_01263;dRep_bin131_HLFNHDGI_00252;dRep_bin098_DDEBHDKK_00888;dRep_bin070_EMBHKIOF_01302;dRep_bin073_AKBCEHHO_00450;dRep_bin084_CGBIKHBH_01137;dRep_bin329_GDOHKPBL_01294;dRep_bin040_EIFLLDOA_01849;dRep_bin210_AGEDAEIA_00524;dRep_bin307_AOCKHIKF_00203;dRep_bin165_HMDFFMMM_01534;dRep_bin093_PGADNPMG_01180;dRep_bin022_BOEAFNDE_00338;dRep_bin035_JBNPBOKG_01124;dRep_bin229_FFOBPPJI_00119;dRep_bin118_FGIOKLBC_00645;dRep_bin028_GKEJLBAM_01034;dRep_bin128_JPBBHEMA_00126;dRep_bin290_OIOJKBNK_00154;dRep_bin092_OOJCPDEA_00297;dRep_bin351_CKFFBPHM_00653;dRep_bin110_JGOEJECF_00871;dRep_bin256_KEMNAOBC_00992;dRep_bin071_JHMCIJPE_00892;dRep_bin316_FNLHDNEO_00335	dRep_bin191_NGFJMLOL_01299	>dRep_bin191_NGFJMLOL_01299 Methionine--tRNA ligase	dRep_bin118_FGIOKLBC_00645	CDS	metG	6.1.1.10	Methionine--tRNA ligase
FGIOKLBC_00691						21.133580000000002						4	1	2,0533E-13	dRep_bin064_CMDDCDKG_00303;dRep_bin198_GMLJKALI_00990;dRep_bin112_NDMGAKCH_00125;dRep_bin275_NIDIBBDA_01840;dRep_bin037_GEAOEKHA_00262;dRep_bin210_AGEDAEIA_00793;dRep_bin229_FFOBPPJI_01208;dRep_bin149_GABCHCDI_00843;dRep_bin118_FGIOKLBC_00691;dRep_bin093_PGADNPMG_00184;dRep_bin040_EIFLLDOA_01790;dRep_bin022_BOEAFNDE_00318;dRep_bin314_KCHFPLIP_01749;dRep_bin070_EMBHKIOF_00653	dRep_bin064_CMDDCDKG_00303;dRep_bin198_GMLJKALI_00990;dRep_bin112_NDMGAKCH_00125	>dRep_bin064_CMDDCDKG_00303 Peptidase T;>dRep_bin198_GMLJKALI_00990 Peptidase T;>dRep_bin112_NDMGAKCH_00125 Peptidase T	dRep_bin118_FGIOKLBC_00691	CDS	pepT	3.4.11.4	Peptidase T
FGIOKLBC_00743	26.24999	26.34379	27.166150000000002	27.415789999999998	27.87068	28.467779999999998	27.36152	27.501050000000003				3	3	3,2505E-23	dRep_bin022_BOEAFNDE_01478;dRep_bin351_CKFFBPHM_00484;dRep_bin229_FFOBPPJI_00949;dRep_bin136_NAIECEIF_00523;dRep_bin118_FGIOKLBC_00743;dRep_bin040_EIFLLDOA_01348;dRep_bin018_ILOONPIC_00352	dRep_bin022_BOEAFNDE_01478	>dRep_bin022_BOEAFNDE_01478 CTP synthase	dRep_bin118_FGIOKLBC_00743	CDS	pyrG	6.3.4.2	CTP synthase
FGIOKLBC_00788	26.68325	27.44285	26.219150000000003	26.73518	26.615970000000004	26.76711						7	5	3,8489E-41	dRep_bin063_PJANDMAH_01240;dRep_bin034_MEBMFDLL_02102;dRep_bin275_NIDIBBDA_01857;dRep_bin298_EIPJCOMF_00666;dRep_bin183_FPGIOKBG_02116;dRep_bin271_NGFBCHKH_01395;dRep_bin346_JKFDGFHC_00412;dRep_bin198_GMLJKALI_01728;dRep_bin036_DOKCEIDH_00469;dRep_bin118_FGIOKLBC_00788;dRep_bin028_GKEJLBAM_00772	dRep_bin063_PJANDMAH_01240;dRep_bin034_MEBMFDLL_02102	>dRep_bin063_PJANDMAH_01240 Glucokinase;>dRep_bin034_MEBMFDLL_02102 Glucokinase	dRep_bin118_FGIOKLBC_00788	CDS	glcK	2.7.1.2	Glucokinase
FGIOKLBC_00801	27.39934	27.20284	27.51367	28.789179999999998	28.795199999999998	29.042629999999996	28.76645	28.513820000000003				24	2	2,383E-158	dRep_bin289_KALDCNNP_01529;dRep_bin314_KCHFPLIP_00420;dRep_bin040_EIFLLDOA_00982;dRep_bin084_CGBIKHBH_01617;dRep_bin093_PGADNPMG_00321;dRep_bin022_BOEAFNDE_00260;dRep_bin070_EMBHKIOF_00644;dRep_bin118_FGIOKLBC_00801;dRep_bin014_CHIHIMAN_00866;dRep_bin275_NIDIBBDA_01919;dRep_bin110_JGOEJECF_01180	dRep_bin289_KALDCNNP_01529	>dRep_bin289_KALDCNNP_01529 Phosphoribosylformylglycinamidine synthase	dRep_bin118_FGIOKLBC_00801	CDS	purL	6.3.5.3	Phosphoribosylformylglycinamidine synthase
FGIOKLBC_00802		25.39401										12	0	2,4601E-36	dRep_bin036_DOKCEIDH_00290;dRep_bin137_NABPABPB_00389;dRep_bin331_HPKAPHAF_00960;dRep_bin093_PGADNPMG_01160;dRep_bin229_FFOBPPJI_00084;dRep_bin301_NJFJIJGA_01882;dRep_bin037_GEAOEKHA_00309;dRep_bin118_FGIOKLBC_00802;dRep_bin210_AGEDAEIA_00891;dRep_bin022_BOEAFNDE_00534;dRep_bin314_KCHFPLIP_01077;dRep_bin110_JGOEJECF_00604	dRep_bin036_DOKCEIDH_00290;dRep_bin137_NABPABPB_00389;dRep_bin331_HPKAPHAF_00960;dRep_bin093_PGADNPMG_01160	>dRep_bin036_DOKCEIDH_00290 Phosphoribosylaminoimidazole-succinocarboxamide synthase;>dRep_bin137_NABPABPB_00389 Phosphoribosylaminoimidazole-succinocarboxamide synthase;>dRep_bin331_HPKAPHAF_00960 Phosphoribosylaminoimidazole-succinocarboxamide synthase;>	dRep_bin118_FGIOKLBC_00802	CDS	purC	6.3.2.6	Phosphoribosylaminoimidazole-succinocarboxamide synthase
FGIOKLBC_00827					26.991619999999998	27.819460000000003	27.02506	26.770519999999998				2	2	0,00032284	dRep_bin002_CFBNDKDN_01991;dRep_bin191_NGFJMLOL_00337;dRep_bin138_EJGHNBMI_00078;dRep_bin289_KALDCNNP_00742;dRep_bin036_DOKCEIDH_01783;dRep_bin035_JBNPBOKG_00098;dRep_bin118_FGIOKLBC_00827;dRep_bin131_HLFNHDGI_00018;dRep_bin229_FFOBPPJI_01526;dRep_bin301_NJFJIJGA_01587;dRep_bin149_GABCHCDI_00630	dRep_bin002_CFBNDKDN_01991;dRep_bin191_NGFJMLOL_00337;dRep_bin138_EJGHNBMI_00078;dRep_bin289_KALDCNNP_00742;dRep_bin036_DOKCEIDH_01783;dRep_bin035_JBNPBOKG_00098;dRep_bin118_FGIOKLBC_00827;dRep_bin131_HLFNHDGI_00018;dRep_bin229_FFOBPPJI_01526;dRep_bin301_NJFJIJGA_01587;dRep_bin149_GABCHCDI_00630	>dRep_bin002_CFBNDKDN_01991 8-amino-3,8-dideoxy-manno-octulosonate cytidylyltransferase;>dRep_bin191_NGFJMLOL_00337 3-deoxy-manno-octulosonate cytidylyltransferase;>dRep_bin138_EJGHNBMI_00078 8-amino-3,8-dideoxy-manno-octulosonate cytidylyltransferase;>dRe	dRep_bin118_FGIOKLBC_00827	CDS	kpsU	2.7.7.38	3-deoxy-manno-octulosonate cytidylyltransferase
FGIOKLBC_00832						22.87841						2	1	5,7043E-85	dRep_bin118_FGIOKLBC_00832	dRep_bin118_FGIOKLBC_00832	>dRep_bin118_FGIOKLBC_00832 Glycogen phosphorylase	dRep_bin118_FGIOKLBC_00832	CDS	glgP	2.4.1.1	Glycogen phosphorylase
FGIOKLBC_00883								26.04743				2	1	4,8217E-05	dRep_bin028_GKEJLBAM_01643;dRep_bin128_JPBBHEMA_01073;dRep_bin118_FGIOKLBC_00883;dRep_bin071_JHMCIJPE_01696;dRep_bin037_GEAOEKHA_00348;dRep_bin035_JBNPBOKG_00973;dRep_bin345_GLPJDLOI_00032;dRep_bin138_EJGHNBMI_00982;dRep_bin331_HPKAPHAF_01081;dRep_bin196_BIELHBNH_00149;dRep_bin131_HLFNHDGI_00011;dRep_bin346_JKFDGFHC_00817;dRep_bin307_AOCKHIKF_01413;dRep_bin301_NJFJIJGA_00837;dRep_bin289_KALDCNNP_01573;dRep_bin232_JGAEDAFA_00772;dRep_bin229_FFOBPPJI_00082;dRep_bin137_NABPABPB_00505;dRep_bin098_DDEBHDKK_01005;dRep_bin040_EIFLLDOA_01981;dRep_bin002_CFBNDKDN_00501;dRep_bin329_GDOHKPBL_00262;dRep_bin294_EHJINIDK_00096;dRep_bin285_IPHKFJAN_01572;dRep_bin224_NFENHJGB_00105;dRep_bin183_FPGIOKBG_00084;dRep_bin170_LICLFCFF_01487;dRep_bin136_NAIECEIF_00942;dRep_bin210_AGEDAEIA_01305;dRep_bin198_GMLJKALI_00447;dRep_bin070_EMBHKIOF_00743;dRep_bin063_PJANDMAH_01551;dRep_bin034_MEBMFDLL_00116;dRep_bin045_GJACFFBC_00808;dRep_bin036_DOKCEIDH_00110;A0A287A876;dRep_bin314_KCHFPLIP_01194;dRep_bin014_CHIHIMAN_00691;dRep_bin256_KEMNAOBC_01441;dRep_bin092_OOJCPDEA_00764;dRep_bin022_BOEAFNDE_01392;dRep_bin351_CKFFBPHM_00409;dRep_bin316_FNLHDNEO_00929;dRep_bin271_NGFBCHKH_00981;F1RGD8;F1RGD9	dRep_bin028_GKEJLBAM_01643;dRep_bin128_JPBBHEMA_01073;dRep_bin118_FGIOKLBC_00883;dRep_bin071_JHMCIJPE_01696;dRep_bin037_GEAOEKHA_00348;dRep_bin035_JBNPBOKG_00973;dRep_bin345_GLPJDLOI_00032;dRep_bin138_EJGHNBMI_00982;dRep_bin331_HPKAPHAF_01081;dRep_bin196_BIELHBNH_00149;dRep_bin131_HLFNHDGI_00011;dRep_bin346_JKFDGFHC_00817;dRep_bin307_AOCKHIKF_01413;dRep_bin301_NJFJIJGA_00837;dRep_bin289_KALDCNNP_01573;dRep_bin232_JGAEDAFA_00772;dRep_bin229_FFOBPPJI_00082;dRep_bin137_NABPABPB_00505;dRep_bin098_DDEBHDKK_01005;dRep_bin040_EIFLLDOA_01981;dRep_bin002_CFBNDKDN_00501;dRep_bin329_GDOHKPBL_00262;dRep_bin294_EHJINIDK_00096;dRep_bin285_IPHKFJAN_01572;dRep_bin224_NFENHJGB_00105;dRep_bin183_FPGIOKBG_00084;dRep_bin170_LICLFCFF_01487;dRep_bin136_NAIECEIF_00942;dRep_bin210_AGEDAEIA_01305;dRep_bin198_GMLJKALI_00447;dRep_bin070_EMBHKIOF_00743;dRep_bin063_PJANDMAH_01551;dRep_bin034_MEBMFDLL_00116;dRep_bin045_GJACFFBC_00808;dRep_bin036_DOKCEIDH_00110;A0A287A876;dRep_bin314_KCHFPLIP_01194;dRep_bin014_CHIHIMAN_00691;dRep_bin256_KEMNAOBC_01441;dRep_bin092_OOJCPDEA_00764;dRep_bin022_BOEAFNDE_01392;dRep_bin351_CKFFBPHM_00409;dRep_bin316_FNLHDNEO_00929;dRep_bin271_NGFBCHKH_00981;F1RGD8;F1RGD9	>dRep_bin028_GKEJLBAM_01643 Histidine--tRNA ligase;>dRep_bin128_JPBBHEMA_01073 Histidine--tRNA ligase;>dRep_bin118_FGIOKLBC_00883 Histidine--tRNA ligase;>dRep_bin071_JHMCIJPE_01696 Histidine--tRNA ligase;>dRep_bin037_GEAOEKHA_00348 Histidine--tRNA ligase;>	dRep_bin118_FGIOKLBC_00883	CDS	hisS	6.1.1.21	Histidine--tRNA ligase
FGIOKLBC_00922					28.68465	26.883319999999998		27.97585				13	0	6,364E-130	dRep_bin170_LICLFCFF_01486;dRep_bin131_HLFNHDGI_00110;dRep_bin118_FGIOKLBC_00922;dRep_bin210_AGEDAEIA_00351;dRep_bin290_OIOJKBNK_00599;dRep_bin264_DNFFGNEG_00559;dRep_bin174_LJJOKEME_01164;dRep_bin030_OGPDLGOC_01583;dRep_bin252_NDAKLAGD_00740;dRep_bin246_MMFBABHK_01095;dRep_bin312_MJFEFHMP_01137;dRep_bin219_HGPEELLF_01025;dRep_bin153_JGABJFBF_00263;dRep_bin061_ONFGDLGO_01740;dRep_bin004_OCHNPJPO_01456;dRep_bin129_GADIAMAA_00644;dRep_bin233_BAGKKAOB_01648	dRep_bin170_LICLFCFF_01486	>dRep_bin170_LICLFCFF_01486 Adenylosuccinate synthetase	dRep_bin118_FGIOKLBC_00922	CDS	purA	6.3.4.4	Adenylosuccinate synthetase
FGIOKLBC_00953	26.13275	25.59594	26.750339999999998	27.379060000000003	27.74926	29.51672	27.90191	27.78382				14	7	1,4072E-98	dRep_bin191_NGFJMLOL_00360;dRep_bin149_GABCHCDI_01133;dRep_bin057_BNCFHBBO_00744;dRep_bin262_LLCGOPIE_00862;dRep_bin118_FGIOKLBC_00953;dRep_bin220_PILICLLL_01651;dRep_bin023_HGFJFKAI_00542	dRep_bin191_NGFJMLOL_00360	>dRep_bin191_NGFJMLOL_00360 Glucose-6-phosphate isomerase	dRep_bin118_FGIOKLBC_00953	CDS	pgiB	5.3.1.9	Glucose-6-phosphate isomerase B
FGIOKLBC_00954					25.40882	26.47308	26.490299999999998	25.88292				4	3	4,4491E-09	dRep_bin138_EJGHNBMI_01639;dRep_bin307_AOCKHIKF_01086;dRep_bin098_DDEBHDKK_00713;dRep_bin329_GDOHKPBL_00419;dRep_bin191_NGFJMLOL_00847;dRep_bin170_LICLFCFF_00965;dRep_bin165_HMDFFMMM_00927;dRep_bin113_LIFKCGBF_01112;dRep_bin224_NFENHJGB_00298;dRep_bin314_KCHFPLIP_00004;dRep_bin331_HPKAPHAF_00061;dRep_bin232_JGAEDAFA_00713;dRep_bin183_FPGIOKBG_01695;dRep_bin112_NDMGAKCH_01187;dRep_bin002_CFBNDKDN_01131;dRep_bin084_CGBIKHBH_00935;dRep_bin346_JKFDGFHC_01179;dRep_bin289_KALDCNNP_00795;dRep_bin285_IPHKFJAN_01930;dRep_bin196_BIELHBNH_00336;dRep_bin137_NABPABPB_01184;dRep_bin036_DOKCEIDH_00725;dRep_bin131_HLFNHDGI_00904;dRep_bin064_CMDDCDKG_01223;dRep_bin045_GJACFFBC_00259;dRep_bin301_NJFJIJGA_00332;dRep_bin022_BOEAFNDE_00400;dRep_bin298_EIPJCOMF_00358;dRep_bin073_AKBCEHHO_00354;dRep_bin070_EMBHKIOF_00023;dRep_bin271_NGFBCHKH_00636;dRep_bin035_JBNPBOKG_01003;dRep_bin296_FDMPKPOH_01310;dRep_bin294_EHJINIDK_01251;dRep_bin028_GKEJLBAM_01831;dRep_bin229_FFOBPPJI_00533;dRep_bin210_AGEDAEIA_01547;dRep_bin118_FGIOKLBC_00954;dRep_bin037_GEAOEKHA_01502;dRep_bin034_MEBMFDLL_00160	dRep_bin138_EJGHNBMI_01639;dRep_bin307_AOCKHIKF_01086;dRep_bin098_DDEBHDKK_00713;dRep_bin329_GDOHKPBL_00419;dRep_bin191_NGFJMLOL_00847;dRep_bin170_LICLFCFF_00965;dRep_bin165_HMDFFMMM_00927;dRep_bin113_LIFKCGBF_01112;dRep_bin224_NFENHJGB_00298;dRep_bin314_KCHFPLIP_00004;dRep_bin331_HPKAPHAF_00061;dRep_bin232_JGAEDAFA_00713;dRep_bin183_FPGIOKBG_01695;dRep_bin112_NDMGAKCH_01187;dRep_bin002_CFBNDKDN_01131;dRep_bin084_CGBIKHBH_00935;dRep_bin346_JKFDGFHC_01179;dRep_bin289_KALDCNNP_00795;dRep_bin285_IPHKFJAN_01930;dRep_bin196_BIELHBNH_00336;dRep_bin137_NABPABPB_01184;dRep_bin036_DOKCEIDH_00725;dRep_bin131_HLFNHDGI_00904;dRep_bin064_CMDDCDKG_01223;dRep_bin045_GJACFFBC_00259;dRep_bin301_NJFJIJGA_00332;dRep_bin022_BOEAFNDE_00400;dRep_bin298_EIPJCOMF_00358;dRep_bin073_AKBCEHHO_00354;dRep_bin070_EMBHKIOF_00023;dRep_bin271_NGFBCHKH_00636;dRep_bin035_JBNPBOKG_01003	>dRep_bin138_EJGHNBMI_01639 Glutamate--tRNA ligase;>dRep_bin307_AOCKHIKF_01086 Glutamate--tRNA ligase;>dRep_bin098_DDEBHDKK_00713 Glutamate--tRNA ligase;>dRep_bin329_GDOHKPBL_00419 Glutamate--tRNA ligase;>dRep_bin191_NGFJMLOL_00847 Glutamate--tRNA ligase;>	dRep_bin118_FGIOKLBC_00954	CDS	gltX	6.1.1.17	Glutamate--tRNA ligase
FGIOKLBC_00994							25.381890000000002					2	1	4,3166E-05	dRep_bin334_NAPFFNLD_00035;dRep_bin274_DBJHKLDG_01032;dRep_bin008_MNDMJLEI_00090;dRep_bin101_BNDDLDCL_01207;dRep_bin213_HHHELMFN_00597;dRep_bin126_PPDNCIBN_01035;dRep_bin231_CFOLMJBA_00960;dRep_bin286_OEMIJKMC_00392;dRep_bin172_ALNHGLMD_01600;dRep_bin108_BPNCDINP_00887;dRep_bin217_MJCEAEPB_00017;dRep_bin060_HNFNENOI_00909;dRep_bin059_OOBKFNPP_00477;dRep_bin111_FPJIHFKE_00906;dRep_bin267_LJCFMAFA_01025;dRep_bin161_JMKPMHCO_00371;dRep_bin184_MBMMJHKO_00057;dRep_bin355_KJEFNADK_01062;dRep_bin351_CKFFBPHM_00990;dRep_bin195_DDMDFNOK_01354;dRep_bin118_FGIOKLBC_00994;dRep_bin210_AGEDAEIA_00037;dRep_bin028_GKEJLBAM_01078;dRep_bin022_BOEAFNDE_00877;dRep_bin241_LMMMGDNI_00858	dRep_bin334_NAPFFNLD_00035;dRep_bin274_DBJHKLDG_01032;dRep_bin008_MNDMJLEI_00090;dRep_bin101_BNDDLDCL_01207;dRep_bin213_HHHELMFN_00597;dRep_bin126_PPDNCIBN_01035;dRep_bin231_CFOLMJBA_00960;dRep_bin286_OEMIJKMC_00392;dRep_bin172_ALNHGLMD_01600;dRep_bin108_BPNCDINP_00887;dRep_bin217_MJCEAEPB_00017;dRep_bin060_HNFNENOI_00909;dRep_bin059_OOBKFNPP_00477;dRep_bin111_FPJIHFKE_00906;dRep_bin267_LJCFMAFA_01025;dRep_bin161_JMKPMHCO_00371;dRep_bin184_MBMMJHKO_00057;dRep_bin355_KJEFNADK_01062;dRep_bin351_CKFFBPHM_00990;dRep_bin195_DDMDFNOK_01354;dRep_bin118_FGIOKLBC_00994;dRep_bin210_AGEDAEIA_00037;dRep_bin028_GKEJLBAM_01078;dRep_bin022_BOEAFNDE_00877;dRep_bin241_LMMMGDNI_00858	>dRep_bin334_NAPFFNLD_00035 Translation initiation factor IF-2;>dRep_bin274_DBJHKLDG_01032 Translation initiation factor IF-2;>dRep_bin008_MNDMJLEI_00090 Translation initiation factor IF-2;>dRep_bin101_BNDDLDCL_01207 Translation initiation factor IF-2;>dRe	dRep_bin118_FGIOKLBC_00994	CDS	infB		Translation initiation factor IF-2
FGIOKLBC_01064					27.68866	28.85067	26.93146	27.22683				5	1	2,0271E-61	dRep_bin071_JHMCIJPE_00774;dRep_bin271_NGFBCHKH_00710;dRep_bin063_PJANDMAH_00185;dRep_bin034_MEBMFDLL_00247;dRep_bin084_CGBIKHBH_01287;dRep_bin307_AOCKHIKF_01139;dRep_bin098_DDEBHDKK_01407;dRep_bin290_OIOJKBNK_01581;dRep_bin165_HMDFFMMM_00576;dRep_bin351_CKFFBPHM_00569;dRep_bin229_FFOBPPJI_00495;dRep_bin070_EMBHKIOF_00542;dRep_bin136_NAIECEIF_01032;dRep_bin073_AKBCEHHO_01226;dRep_bin014_CHIHIMAN_00024;dRep_bin289_KALDCNNP_00248;dRep_bin199_JBCGANNF_00237;dRep_bin244_LBFMHLBI_01073;dRep_bin036_DOKCEIDH_00668;dRep_bin004_OCHNPJPO_00478;dRep_bin329_GDOHKPBL_00723;dRep_bin316_FNLHDNEO_01012;dRep_bin256_KEMNAOBC_01521;dRep_bin198_GMLJKALI_00058;dRep_bin092_OOJCPDEA_01022;dRep_bin318_IEDEJOFJ_00455;dRep_bin301_NJFJIJGA_00149;dRep_bin183_FPGIOKBG_00223;dRep_bin149_GABCHCDI_01562;dRep_bin022_BOEAFNDE_00838;dRep_bin345_GLPJDLOI_00727;dRep_bin275_NIDIBBDA_00580;dRep_bin096_GNHMEKPF_01251;dRep_bin314_KCHFPLIP_01102;dRep_bin272_LGBDGEIM_00187;dRep_bin118_FGIOKLBC_01064;dRep_bin055_IBMMJAEE_00565;dRep_bin331_HPKAPHAF_01667;dRep_bin028_GKEJLBAM_00501;dRep_bin012_KEBBILMO_00805	dRep_bin071_JHMCIJPE_00774	>dRep_bin071_JHMCIJPE_00774 Glucose-1-phosphate thymidylyltransferase 2	dRep_bin118_FGIOKLBC_01064	CDS	rffH_2	2.7.7.24	Glucose-1-phosphate thymidylyltransferase 2
FGIOKLBC_01121			24.785259999999997									2	1	1,1413E-05	dRep_bin154_JGOKHKLI_01168;dRep_bin160_EFKMPBOM_01807;dRep_bin194_MEPDOGGJ_00951;dRep_bin025_CBEJJMLE_00687;dRep_bin323_FBBLPLCG_01251;dRep_bin068_ENOLAELK_00339;dRep_bin038_EIGFILKG_00563;dRep_bin192_GCMBELNN_00036;dRep_bin107_EFNBPDOP_00338;dRep_bin352_KFNHGNFC_00077;dRep_bin076_GLAOFBEC_00319;dRep_bin234_ECABPBME_01372;dRep_bin167_BLMEBMNN_00672;dRep_bin229_FFOBPPJI_00893;dRep_bin210_AGEDAEIA_01097;dRep_bin118_FGIOKLBC_01121;dRep_bin093_PGADNPMG_01764;dRep_bin040_EIFLLDOA_01233;dRep_bin028_GKEJLBAM_01056;dRep_bin260_HELEPKJL_01992	dRep_bin154_JGOKHKLI_01168;dRep_bin160_EFKMPBOM_01807;dRep_bin194_MEPDOGGJ_00951;dRep_bin025_CBEJJMLE_00687;dRep_bin323_FBBLPLCG_01251;dRep_bin068_ENOLAELK_00339;dRep_bin038_EIGFILKG_00563;dRep_bin192_GCMBELNN_00036;dRep_bin107_EFNBPDOP_00338;dRep_bin352_KFNHGNFC_00077;dRep_bin076_GLAOFBEC_00319;dRep_bin234_ECABPBME_01372;dRep_bin167_BLMEBMNN_00672;dRep_bin229_FFOBPPJI_00893;dRep_bin210_AGEDAEIA_01097;dRep_bin118_FGIOKLBC_01121;dRep_bin093_PGADNPMG_01764;dRep_bin040_EIFLLDOA_01233;dRep_bin028_GKEJLBAM_01056;dRep_bin260_HELEPKJL_01992	>dRep_bin154_JGOKHKLI_01168 Phosphoglucomutase;>dRep_bin160_EFKMPBOM_01807 Phosphoglucomutase;>dRep_bin194_MEPDOGGJ_00951 Phosphoglucomutase;>dRep_bin025_CBEJJMLE_00687 Phosphoglucomutase;>dRep_bin323_FBBLPLCG_01251 Phosphoglucomutase;>dRep_bin068_ENOLAELK	dRep_bin118_FGIOKLBC_01121	CDS	pgcA	5.4.2.2	Phosphoglucomutase
FGIOKLBC_01226				23.859180000000002								3	1	1,3317E-21	dRep_bin040_EIFLLDOA_01754;dRep_bin118_FGIOKLBC_01226;dRep_bin210_AGEDAEIA_01503;dRep_bin022_BOEAFNDE_00256	dRep_bin040_EIFLLDOA_01754;dRep_bin118_FGIOKLBC_01226;dRep_bin210_AGEDAEIA_01503;dRep_bin022_BOEAFNDE_00256	>dRep_bin040_EIFLLDOA_01754 Enolase;>dRep_bin118_FGIOKLBC_01226 Enolase;>dRep_bin210_AGEDAEIA_01503 Enolase;>dRep_bin022_BOEAFNDE_00256 Enolase	dRep_bin118_FGIOKLBC_01226	CDS	eno	4.2.1.11	Enolase
FGIOKLBC_01231						24.158080000000002						2	1	5,7933E-07	dRep_bin296_FDMPKPOH_02054;dRep_bin232_JGAEDAFA_01022;dRep_bin229_FFOBPPJI_00286;dRep_bin210_AGEDAEIA_01413;dRep_bin165_HMDFFMMM_00233;dRep_bin118_FGIOKLBC_01231;dRep_bin098_DDEBHDKK_00895;dRep_bin093_PGADNPMG_00777;dRep_bin028_GKEJLBAM_00668	dRep_bin296_FDMPKPOH_02054;dRep_bin232_JGAEDAFA_01022;dRep_bin229_FFOBPPJI_00286;dRep_bin210_AGEDAEIA_01413;dRep_bin165_HMDFFMMM_00233;dRep_bin118_FGIOKLBC_01231;dRep_bin098_DDEBHDKK_00895;dRep_bin093_PGADNPMG_00777;dRep_bin028_GKEJLBAM_00668	>dRep_bin296_FDMPKPOH_02054 30S ribosomal protein S13;>dRep_bin232_JGAEDAFA_01022 30S ribosomal protein S13;>dRep_bin229_FFOBPPJI_00286 30S ribosomal protein S13;>dRep_bin210_AGEDAEIA_01413 30S ribosomal protein S13;>dRep_bin165_HMDFFMMM_00233 30S ribosoma	dRep_bin118_FGIOKLBC_01231	CDS	rpsM		30S ribosomal protein S13
FGIOKLBC_01251	27.52835	26.94737	29.002039999999997	29.48597	28.257820000000002	28.287539999999996	26.99281	27.77875				2	1	9,9879E-31	dRep_bin331_HPKAPHAF_00123;dRep_bin307_AOCKHIKF_00178;dRep_bin165_HMDFFMMM_00253;dRep_bin098_DDEBHDKK_00915;dRep_bin110_JGOEJECF_00651;dRep_bin314_KCHFPLIP_01281;dRep_bin229_FFOBPPJI_00306;dRep_bin210_AGEDAEIA_01435;dRep_bin118_FGIOKLBC_01251;dRep_bin093_PGADNPMG_00797;dRep_bin084_CGBIKHBH_00448;dRep_bin040_EIFLLDOA_00829;dRep_bin035_JBNPBOKG_01419;dRep_bin028_GKEJLBAM_00445;dRep_bin022_BOEAFNDE_00148;dRep_bin256_KEMNAOBC_00170;dRep_bin014_CHIHIMAN_01500;dRep_bin353_PPDHLNJB_00491	dRep_bin331_HPKAPHAF_00123;dRep_bin307_AOCKHIKF_00178;dRep_bin165_HMDFFMMM_00253;dRep_bin098_DDEBHDKK_00915;dRep_bin110_JGOEJECF_00651;dRep_bin314_KCHFPLIP_01281;dRep_bin229_FFOBPPJI_00306;dRep_bin210_AGEDAEIA_01435;dRep_bin118_FGIOKLBC_01251;dRep_bin093_PGADNPMG_00797;dRep_bin084_CGBIKHBH_00448;dRep_bin040_EIFLLDOA_00829;dRep_bin035_JBNPBOKG_01419;dRep_bin028_GKEJLBAM_00445;dRep_bin022_BOEAFNDE_00148;dRep_bin256_KEMNAOBC_00170;dRep_bin014_CHIHIMAN_01500;dRep_bin353_PPDHLNJB_00491	>dRep_bin331_HPKAPHAF_00123 30S ribosomal protein S19;>dRep_bin307_AOCKHIKF_00178 30S ribosomal protein S19;>dRep_bin165_HMDFFMMM_00253 30S ribosomal protein S19;>dRep_bin098_DDEBHDKK_00915 30S ribosomal protein S19;>dRep_bin110_JGOEJECF_00651 30S ribosoma	dRep_bin118_FGIOKLBC_01251	CDS	rpsS		30S ribosomal protein S19
FGIOKLBC_01255	27.91525	27.84536	30.1121	31.2382	30.15521	30.23226	28.43607	29.630200000000002				6	4	5,3402E-17	dRep_bin002_CFBNDKDN_02033;dRep_bin232_JGAEDAFA_01042;dRep_bin331_HPKAPHAF_00119;dRep_bin149_GABCHCDI_00368;dRep_bin118_FGIOKLBC_01255;dRep_bin093_PGADNPMG_00801;dRep_bin084_CGBIKHBH_00444;dRep_bin028_GKEJLBAM_00449;dRep_bin022_BOEAFNDE_00152;dRep_bin316_FNLHDNEO_00227	dRep_bin002_CFBNDKDN_02033	>dRep_bin002_CFBNDKDN_02033 50S ribosomal protein L3	dRep_bin118_FGIOKLBC_01255	CDS	rplC		50S ribosomal protein L3
FGIOKLBC_01258				26.19963								5	1	1,0498E-43	dRep_bin112_NDMGAKCH_01045;dRep_bin002_CFBNDKDN_02029;dRep_bin113_LIFKCGBF_00318;dRep_bin183_FPGIOKBG_02443;dRep_bin028_GKEJLBAM_00452;dRep_bin301_NJFJIJGA_01273;dRep_bin296_FDMPKPOH_00653;dRep_bin149_GABCHCDI_00371;dRep_bin035_JBNPBOKG_01412;dRep_bin275_NIDIBBDA_00658;dRep_bin229_FFOBPPJI_01260;dRep_bin210_AGEDAEIA_01442;dRep_bin131_HLFNHDGI_00539;dRep_bin118_FGIOKLBC_01258;dRep_bin093_PGADNPMG_00804;dRep_bin022_BOEAFNDE_00155	dRep_bin112_NDMGAKCH_01045;dRep_bin002_CFBNDKDN_02029;dRep_bin113_LIFKCGBF_00318;dRep_bin183_FPGIOKBG_02443	>dRep_bin112_NDMGAKCH_01045 30S ribosomal protein S7;>dRep_bin002_CFBNDKDN_02029 30S ribosomal protein S7;>dRep_bin113_LIFKCGBF_00318 30S ribosomal protein S7;>dRep_bin183_FPGIOKBG_02443 30S ribosomal protein S7	dRep_bin118_FGIOKLBC_01258	CDS	rpsG		30S ribosomal protein S7
FGIOKLBC_01259	27.465209999999995	26.617510000000003	28.678150000000002	28.989749999999997	28.991509999999998	29.52083	26.64733	26.935399999999998				3	1	3,1897E-56	dRep_bin314_KCHFPLIP_01289;dRep_bin232_JGAEDAFA_00471;dRep_bin036_DOKCEIDH_01120;dRep_bin331_HPKAPHAF_00114;dRep_bin307_AOCKHIKF_00040;dRep_bin165_HMDFFMMM_00264;dRep_bin098_DDEBHDKK_01390;dRep_bin070_EMBHKIOF_01571;dRep_bin037_GEAOEKHA_01075;dRep_bin112_NDMGAKCH_01044;dRep_bin084_CGBIKHBH_01665;dRep_bin035_JBNPBOKG_01411;dRep_bin296_FDMPKPOH_00654;dRep_bin198_GMLJKALI_01470;dRep_bin036_DOKCEIDH_02019;dRep_bin002_CFBNDKDN_02028;dRep_bin196_BIELHBNH_01569;dRep_bin138_EJGHNBMI_01663;dRep_bin113_LIFKCGBF_00319;dRep_bin210_AGEDAEIA_01443;dRep_bin118_FGIOKLBC_01259;dRep_bin022_BOEAFNDE_00156;dRep_bin131_HLFNHDGI_00538;dRep_bin136_NAIECEIF_00794;dRep_bin161_JMKPMHCO_00063;dRep_bin301_NJFJIJGA_01272;dRep_bin149_GABCHCDI_00372;dRep_bin128_JPBBHEMA_01131;dRep_bin111_FPJIHFKE_01180;dRep_bin204_INMOGLDN_01390;dRep_bin202_HEPPALPH_01173;dRep_bin050_FBECOHCI_00340;dRep_bin351_CKFFBPHM_01226;dRep_bin276_EHNFLEBP_02115;dRep_bin256_KEMNAOBC_01381;dRep_bin104_EGLEJOLM_01403;dRep_bin294_EHJINIDK_01819;dRep_bin264_DNFFGNEG_00661;dRep_bin092_OOJCPDEA_01313;dRep_bin312_MJFEFHMP_01095;dRep_bin246_MMFBABHK_00569;dRep_bin174_LJJOKEME_01423;dRep_bin129_GADIAMAA_00400;dRep_bin061_ONFGDLGO_00654;dRep_bin030_OGPDLGOC_01307;dRep_bin093_PGADNPMG_00805;dRep_bin047_IFFANOMN_01577	dRep_bin314_KCHFPLIP_01289;dRep_bin232_JGAEDAFA_00471;dRep_bin036_DOKCEIDH_01120;dRep_bin331_HPKAPHAF_00114;dRep_bin307_AOCKHIKF_00040;dRep_bin165_HMDFFMMM_00264;dRep_bin098_DDEBHDKK_01390;dRep_bin070_EMBHKIOF_01571;dRep_bin037_GEAOEKHA_01075;dRep_bin112_NDMGAKCH_01044;dRep_bin084_CGBIKHBH_01665;dRep_bin035_JBNPBOKG_01411;dRep_bin296_FDMPKPOH_00654;dRep_bin198_GMLJKALI_01470;dRep_bin036_DOKCEIDH_02019;dRep_bin002_CFBNDKDN_02028;dRep_bin196_BIELHBNH_01569;dRep_bin138_EJGHNBMI_01663;dRep_bin113_LIFKCGBF_00319;dRep_bin210_AGEDAEIA_01443;dRep_bin118_FGIOKLBC_01259;dRep_bin022_BOEAFNDE_00156;dRep_bin131_HLFNHDGI_00538	>dRep_bin314_KCHFPLIP_01289 30S ribosomal protein S12;>dRep_bin232_JGAEDAFA_00471 30S ribosomal protein S12;>dRep_bin036_DOKCEIDH_01120 30S ribosomal protein S12;>dRep_bin331_HPKAPHAF_00114 30S ribosomal protein S12;>dRep_bin307_AOCKHIKF_00040 30S ribosoma	dRep_bin118_FGIOKLBC_01259	CDS	rpsL		30S ribosomal protein S12
FGIOKLBC_01282	24.993389999999998	24.40295	26.9249	28.057650000000002	27.14277	27.080099999999998		26.059060000000002				1	1	9,4958E-06	dRep_bin345_GLPJDLOI_00186;dRep_bin232_JGAEDAFA_01764;dRep_bin210_AGEDAEIA_01537;dRep_bin118_FGIOKLBC_01282;dRep_bin093_PGADNPMG_01353;dRep_bin073_AKBCEHHO_00768;dRep_bin040_EIFLLDOA_00447;dRep_bin028_GKEJLBAM_00187;dRep_bin022_BOEAFNDE_00928;dRep_bin002_CFBNDKDN_02000	dRep_bin345_GLPJDLOI_00186;dRep_bin232_JGAEDAFA_01764;dRep_bin210_AGEDAEIA_01537;dRep_bin118_FGIOKLBC_01282;dRep_bin093_PGADNPMG_01353;dRep_bin073_AKBCEHHO_00768;dRep_bin040_EIFLLDOA_00447;dRep_bin028_GKEJLBAM_00187;dRep_bin022_BOEAFNDE_00928;dRep_bin002_CFBNDKDN_02000	>dRep_bin345_GLPJDLOI_00186 50S ribosomal protein L33 2;>dRep_bin232_JGAEDAFA_01764 50S ribosomal protein L33 2;>dRep_bin210_AGEDAEIA_01537 50S ribosomal protein L33 2;>dRep_bin118_FGIOKLBC_01282 50S ribosomal protein L33 2;>dRep_bin093_PGADNPMG_01353 50S	dRep_bin118_FGIOKLBC_01282	CDS	rpmG2		50S ribosomal protein L33 2
FGIOKLBC_01299					26.138250000000003		26.50118	25.82379				3	1	3,9211E-13	dRep_bin196_BIELHBNH_00173;dRep_bin191_NGFJMLOL_00016;dRep_bin113_LIFKCGBF_00426;dRep_bin183_FPGIOKBG_01964;dRep_bin045_GJACFFBC_01161;dRep_bin036_DOKCEIDH_00128;dRep_bin138_EJGHNBMI_00869;dRep_bin289_KALDCNNP_00768;dRep_bin137_NABPABPB_00386;dRep_bin301_NJFJIJGA_00903;dRep_bin307_AOCKHIKF_01369;dRep_bin232_JGAEDAFA_01196;dRep_bin198_GMLJKALI_00654;dRep_bin112_NDMGAKCH_00435;dRep_bin098_DDEBHDKK_01101;dRep_bin073_AKBCEHHO_00727;dRep_bin063_PJANDMAH_00085;dRep_bin034_MEBMFDLL_00429;dRep_bin064_CMDDCDKG_00924;dRep_bin296_FDMPKPOH_02041;dRep_bin070_EMBHKIOF_00446;dRep_bin294_EHJINIDK_00220;dRep_bin170_LICLFCFF_00114;dRep_bin002_CFBNDKDN_00923;dRep_bin331_HPKAPHAF_00956;dRep_bin298_EIPJCOMF_00504;dRep_bin275_NIDIBBDA_01822;dRep_bin229_FFOBPPJI_01199;dRep_bin224_NFENHJGB_00678;dRep_bin131_HLFNHDGI_00746;dRep_bin118_FGIOKLBC_01299;dRep_bin314_KCHFPLIP_00579;dRep_bin040_EIFLLDOA_01380	dRep_bin196_BIELHBNH_00173;dRep_bin191_NGFJMLOL_00016;dRep_bin113_LIFKCGBF_00426;dRep_bin183_FPGIOKBG_01964;dRep_bin045_GJACFFBC_01161;dRep_bin036_DOKCEIDH_00128;dRep_bin138_EJGHNBMI_00869;dRep_bin289_KALDCNNP_00768;dRep_bin137_NABPABPB_00386;dRep_bin301_NJFJIJGA_00903;dRep_bin307_AOCKHIKF_01369;dRep_bin232_JGAEDAFA_01196;dRep_bin198_GMLJKALI_00654;dRep_bin112_NDMGAKCH_00435;dRep_bin098_DDEBHDKK_01101;dRep_bin073_AKBCEHHO_00727;dRep_bin063_PJANDMAH_00085;dRep_bin034_MEBMFDLL_00429;dRep_bin064_CMDDCDKG_00924;dRep_bin296_FDMPKPOH_02041	>dRep_bin196_BIELHBNH_00173 Phosphoribosylformylglycinamidine cyclo-ligase;>dRep_bin191_NGFJMLOL_00016 Phosphoribosylformylglycinamidine cyclo-ligase;>dRep_bin113_LIFKCGBF_00426 Phosphoribosylformylglycinamidine cyclo-ligase;>dRep_bin183_FPGIOKBG_01964 Pho	dRep_bin118_FGIOKLBC_01299	CDS	purM	6.3.3.1	Phosphoribosylformylglycinamidine cyclo-ligase
FGIOKLBC_01317					25.900119999999998	27.46987	26.849950000000003	26.325139999999998				4	0	3,2743E-28	dRep_bin307_AOCKHIKF_00160;dRep_bin098_DDEBHDKK_00652;dRep_bin183_FPGIOKBG_00590;dRep_bin128_JPBBHEMA_00391;dRep_bin137_NABPABPB_01015;dRep_bin198_GMLJKALI_00983;dRep_bin112_NDMGAKCH_00558;dRep_bin073_AKBCEHHO_00630;dRep_bin111_FPJIHFKE_01146;dRep_bin064_CMDDCDKG_00952;dRep_bin070_EMBHKIOF_00143;dRep_bin037_GEAOEKHA_00627;dRep_bin314_KCHFPLIP_01340;dRep_bin232_JGAEDAFA_00436;dRep_bin290_OIOJKBNK_01502;dRep_bin136_NAIECEIF_00125;dRep_bin018_ILOONPIC_00511;dRep_bin110_JGOEJECF_00059;dRep_bin092_OOJCPDEA_01586;dRep_bin271_NGFBCHKH_00234;dRep_bin224_NFENHJGB_01651;dRep_bin084_CGBIKHBH_01000;dRep_bin346_JKFDGFHC_00749;dRep_bin036_DOKCEIDH_01514;dRep_bin002_CFBNDKDN_00078;dRep_bin351_CKFFBPHM_00883;dRep_bin289_KALDCNNP_01019;dRep_bin298_EIPJCOMF_00289;dRep_bin229_FFOBPPJI_00563;dRep_bin275_NIDIBBDA_01303;dRep_bin210_AGEDAEIA_00620;dRep_bin104_EGLEJOLM_00781;dRep_bin257_JHFDCHCB_01689;dRep_bin097_CBBLIPAN_01153;dRep_bin337_FHKPNFDB_01364;dRep_bin335_JIOGNAPG_00046;dRep_bin282_PKAAPBFP_01042;dRep_bin234_ECABPBME_00099;dRep_bin135_HHKACLPM_00078;dRep_bin089_PAJFOJBN_00724;dRep_bin088_DNGPPFDK_00540;dRep_bin075_EPEMMOCL_00011;dRep_bin035_JBNPBOKG_00075;dRep_bin093_PGADNPMG_00660;dRep_bin169_PNICKJKO_01447;dRep_bin230_NINMBMKB_00368;dRep_bin294_EHJINIDK_00696;dRep_bin028_GKEJLBAM_00575;dRep_bin014_CHIHIMAN_01200;dRep_bin355_KJEFNADK_00480;dRep_bin063_PJANDMAH_00595;dRep_bin034_MEBMFDLL_01871;dRep_bin320_LDBKCCKL_00526;dRep_bin301_NJFJIJGA_01347;dRep_bin149_GABCHCDI_01402;dRep_bin310_IMBAFDIF_01474;dRep_bin242_LKAIBGGJ_00169;dRep_bin181_MKGPMPIA_00142;dRep_bin267_LJCFMAFA_00611;dRep_bin306_FGHMKMMP_00339;dRep_bin150_HCDEOBMH_01051;dRep_bin091_MAFACGAD_01386;dRep_bin040_EIFLLDOA_01982;dRep_bin005_CNDFPKJG_00382;dRep_bin333_EFOKIBLA_01313;dRep_bin317_ABPHNCOD_01616;dRep_bin081_JDPCKDNP_00758;dRep_bin138_EJGHNBMI_00536;dRep_bin162_JBGCCDIN_00612;dRep_bin272_LGBDGEIM_00307;dRep_bin168_HKDILBFE_01242;dRep_bin118_FGIOKLBC_01317	dRep_bin307_AOCKHIKF_00160;dRep_bin098_DDEBHDKK_00652;dRep_bin183_FPGIOKBG_00590;dRep_bin128_JPBBHEMA_00391;dRep_bin137_NABPABPB_01015;dRep_bin198_GMLJKALI_00983;dRep_bin112_NDMGAKCH_00558;dRep_bin073_AKBCEHHO_00630;dRep_bin111_FPJIHFKE_01146;dRep_bin064_CMDDCDKG_00952;dRep_bin070_EMBHKIOF_00143;dRep_bin037_GEAOEKHA_00627;dRep_bin314_KCHFPLIP_01340;dRep_bin232_JGAEDAFA_00436;dRep_bin290_OIOJKBNK_01502;dRep_bin136_NAIECEIF_00125;dRep_bin018_ILOONPIC_00511;dRep_bin110_JGOEJECF_00059;dRep_bin092_OOJCPDEA_01586;dRep_bin271_NGFBCHKH_00234;dRep_bin224_NFENHJGB_01651;dRep_bin084_CGBIKHBH_01000;dRep_bin346_JKFDGFHC_00749;dRep_bin036_DOKCEIDH_01514;dRep_bin002_CFBNDKDN_00078;dRep_bin351_CKFFBPHM_00883;dRep_bin289_KALDCNNP_01019;dRep_bin298_EIPJCOMF_00289;dRep_bin229_FFOBPPJI_00563;dRep_bin275_NIDIBBDA_01303;dRep_bin210_AGEDAEIA_00620;dRep_bin104_EGLEJOLM_00781;dRep_bin257_JHFDCHCB_01689;dRep_bin097_CBBLIPAN_01153;dRep_bin337_FHKPNFDB_01364;dRep_bin335_JIOGNAPG_00046;dRep_bin282_PKAAPBFP_01042;dRep_bin234_ECABPBME_00099;dRep_bin135_HHKACLPM_00078;dRep_bin089_PAJFOJBN_00724;dRep_bin088_DNGPPFDK_00540;dRep_bin075_EPEMMOCL_00011;dRep_bin035_JBNPBOKG_00075;dRep_bin093_PGADNPMG_00660	>dRep_bin307_AOCKHIKF_00160 NADPH-dependent 7-cyano-7-deazaguanine reductase;>dRep_bin098_DDEBHDKK_00652 NADPH-dependent 7-cyano-7-deazaguanine reductase;>dRep_bin183_FPGIOKBG_00590 NADPH-dependent 7-cyano-7-deazaguanine reductase;>dRep_bin128_JPBBHEMA_003	dRep_bin118_FGIOKLBC_01317	CDS	queF	1.7.1.13	NADPH-dependent 7-cyano-7-deazaguanine reductase
FGIOKLBC_01336					25.218709999999998	24.568599999999996	28.34448	25.45689				15	2	3,9962E-238	dRep_bin118_FGIOKLBC_01336;dRep_bin022_BOEAFNDE_01029;dRep_bin343_JCMCKBGF_02149	dRep_bin118_FGIOKLBC_01336;dRep_bin022_BOEAFNDE_01029	>dRep_bin118_FGIOKLBC_01336 Methylmalonyl-CoA mutase large subunit;>dRep_bin022_BOEAFNDE_01029 Methylmalonyl-CoA mutase large subunit	dRep_bin118_FGIOKLBC_01336	CDS	mutB	5.4.99.2	Methylmalonyl-CoA mutase large subunit
FGIOKLBC_01360						25.440689999999996						2	2	4,1296E-05	dRep_bin064_CMDDCDKG_01330;dRep_bin331_HPKAPHAF_01854;dRep_bin018_ILOONPIC_00848;dRep_bin345_GLPJDLOI_00724;dRep_bin035_JBNPBOKG_00289;dRep_bin210_AGEDAEIA_00655;dRep_bin040_EIFLLDOA_01402;dRep_bin118_FGIOKLBC_01360;dRep_bin028_GKEJLBAM_00709;dRep_bin022_BOEAFNDE_01282;dRep_bin329_GDOHKPBL_01606;dRep_bin298_EIPJCOMF_00432;dRep_bin289_KALDCNNP_01273;dRep_bin285_IPHKFJAN_00943;dRep_bin224_NFENHJGB_01604;dRep_bin196_BIELHBNH_00776;dRep_bin112_NDMGAKCH_01277;dRep_bin063_PJANDMAH_00973;dRep_bin036_DOKCEIDH_01516;dRep_bin034_MEBMFDLL_00231;dRep_bin307_AOCKHIKF_01110;dRep_bin294_EHJINIDK_00507;dRep_bin198_GMLJKALI_01032;dRep_bin183_FPGIOKBG_02003;dRep_bin170_LICLFCFF_00138;dRep_bin138_EJGHNBMI_01137;dRep_bin137_NABPABPB_01486;dRep_bin113_LIFKCGBF_00538;dRep_bin098_DDEBHDKK_00164;dRep_bin045_GJACFFBC_00127;dRep_bin165_HMDFFMMM_01102;dRep_bin002_CFBNDKDN_00484;dRep_bin073_AKBCEHHO_01701;dRep_bin232_JGAEDAFA_00348;dRep_bin111_FPJIHFKE_01011;dRep_bin346_JKFDGFHC_01226	dRep_bin064_CMDDCDKG_01330;dRep_bin331_HPKAPHAF_01854;dRep_bin018_ILOONPIC_00848;dRep_bin345_GLPJDLOI_00724;dRep_bin035_JBNPBOKG_00289;dRep_bin210_AGEDAEIA_00655;dRep_bin040_EIFLLDOA_01402;dRep_bin118_FGIOKLBC_01360;dRep_bin028_GKEJLBAM_00709;dRep_bin022_BOEAFNDE_01282;dRep_bin329_GDOHKPBL_01606;dRep_bin298_EIPJCOMF_00432;dRep_bin289_KALDCNNP_01273;dRep_bin285_IPHKFJAN_00943;dRep_bin224_NFENHJGB_01604;dRep_bin196_BIELHBNH_00776;dRep_bin112_NDMGAKCH_01277;dRep_bin063_PJANDMAH_00973;dRep_bin036_DOKCEIDH_01516;dRep_bin034_MEBMFDLL_00231;dRep_bin307_AOCKHIKF_01110;dRep_bin294_EHJINIDK_00507;dRep_bin198_GMLJKALI_01032;dRep_bin183_FPGIOKBG_02003;dRep_bin170_LICLFCFF_00138;dRep_bin138_EJGHNBMI_01137;dRep_bin137_NABPABPB_01486;dRep_bin113_LIFKCGBF_00538;dRep_bin098_DDEBHDKK_00164;dRep_bin045_GJACFFBC_00127;dRep_bin165_HMDFFMMM_01102;dRep_bin002_CFBNDKDN_00484;dRep_bin073_AKBCEHHO_01701;dRep_bin232_JGAEDAFA_00348;dRep_bin111_FPJIHFKE_01011;dRep_bin346_JKFDGFHC_01226	>dRep_bin064_CMDDCDKG_01330 Chaperone protein HtpG;>dRep_bin331_HPKAPHAF_01854 Chaperone protein HtpG;>dRep_bin018_ILOONPIC_00848 Chaperone protein HtpG;>dRep_bin345_GLPJDLOI_00724 Chaperone protein HtpG;>dRep_bin035_JBNPBOKG_00289 Chaperone protein HtpG;>	dRep_bin118_FGIOKLBC_01360	CDS	htpG		Chaperone protein HtpG
FGIOKLBC_01426					26.097860000000004	26.81531	25.77651	26.07731				7	2	1,7304E-42	dRep_bin034_MEBMFDLL_00454;dRep_bin045_GJACFFBC_00091;dRep_bin346_JKFDGFHC_00532;dRep_bin329_GDOHKPBL_00125;dRep_bin298_EIPJCOMF_00459;dRep_bin110_JGOEJECF_00445;dRep_bin118_FGIOKLBC_01426;dRep_bin210_AGEDAEIA_00608;dRep_bin040_EIFLLDOA_00388;dRep_bin022_BOEAFNDE_00953;dRep_bin301_NJFJIJGA_01868;dRep_bin275_NIDIBBDA_01330;dRep_bin028_GKEJLBAM_01454	dRep_bin034_MEBMFDLL_00454;dRep_bin045_GJACFFBC_00091	>dRep_bin034_MEBMFDLL_00454 Glutamine--tRNA ligase;>dRep_bin045_GJACFFBC_00091 Glutamine--tRNA ligase	dRep_bin118_FGIOKLBC_01426	CDS	glnS	6.1.1.18	Glutamine--tRNA ligase
FGIOKLBC_01430	26.914900000000003	26.70583	26.33923	26.14733	26.548709999999996	27.662960000000002	26.51743	26.586629999999996				6	0	4,3394E-50	dRep_bin170_LICLFCFF_00521;dRep_bin137_NABPABPB_00264;dRep_bin224_NFENHJGB_00612;dRep_bin285_IPHKFJAN_00017;dRep_bin183_FPGIOKBG_02174;dRep_bin346_JKFDGFHC_00227;dRep_bin289_KALDCNNP_01461;dRep_bin198_GMLJKALI_01601;dRep_bin064_CMDDCDKG_00870;dRep_bin294_EHJINIDK_01111;dRep_bin045_GJACFFBC_00642;dRep_bin329_GDOHKPBL_00237;dRep_bin036_DOKCEIDH_00777;dRep_bin307_AOCKHIKF_00029;dRep_bin165_HMDFFMMM_01533;dRep_bin098_DDEBHDKK_00488;dRep_bin298_EIPJCOMF_01417;dRep_bin196_BIELHBNH_01167;dRep_bin084_CGBIKHBH_01135;dRep_bin070_EMBHKIOF_00551;dRep_bin037_GEAOEKHA_00397;dRep_bin210_AGEDAEIA_01306;dRep_bin022_BOEAFNDE_01158;dRep_bin093_PGADNPMG_00863;dRep_bin118_FGIOKLBC_01430;dRep_bin111_FPJIHFKE_00537;dRep_bin229_FFOBPPJI_00530	dRep_bin170_LICLFCFF_00521;dRep_bin137_NABPABPB_00264;dRep_bin224_NFENHJGB_00612;dRep_bin285_IPHKFJAN_00017;dRep_bin183_FPGIOKBG_02174;dRep_bin346_JKFDGFHC_00227;dRep_bin289_KALDCNNP_01461;dRep_bin198_GMLJKALI_01601;dRep_bin064_CMDDCDKG_00870;dRep_bin294_EHJINIDK_01111;dRep_bin045_GJACFFBC_00642;dRep_bin329_GDOHKPBL_00237;dRep_bin036_DOKCEIDH_00777;dRep_bin307_AOCKHIKF_00029;dRep_bin165_HMDFFMMM_01533;dRep_bin098_DDEBHDKK_00488;dRep_bin298_EIPJCOMF_01417;dRep_bin196_BIELHBNH_01167;dRep_bin084_CGBIKHBH_01135;dRep_bin070_EMBHKIOF_00551;dRep_bin037_GEAOEKHA_00397	>dRep_bin170_LICLFCFF_00521 GTP-binding protein TypA/BipA;>dRep_bin137_NABPABPB_00264 GTP-binding protein TypA/BipA;>dRep_bin224_NFENHJGB_00612 GTP-binding protein TypA/BipA;>dRep_bin285_IPHKFJAN_00017 GTP-binding protein TypA/BipA;>dRep_bin183_FPGIOKBG_02	dRep_bin118_FGIOKLBC_01430	CDS	typA		GTP-binding protein TypA/BipA
FGIOKLBC_01478	26.72442	26.89977	27.237810000000003	26.77931	28.453329999999998	27.25467	27.560339999999997	27.462399999999995				8	0	1,4503E-56	dRep_bin064_CMDDCDKG_01484;dRep_bin040_EIFLLDOA_01404;dRep_bin118_FGIOKLBC_01478;dRep_bin035_JBNPBOKG_01263	dRep_bin064_CMDDCDKG_01484	>dRep_bin064_CMDDCDKG_01484 Elongation factor G	dRep_bin118_FGIOKLBC_01478	CDS	fusA_2		Elongation factor G
FGIOKLBC_01481	24.30723	24.773439999999997	25.198990000000002	28.097980000000003	30.56438	30.94719	26.746499999999997	28.065329999999996				9	1	8,2665E-151	dRep_bin289_KALDCNNP_00029;dRep_bin028_GKEJLBAM_00096;dRep_bin301_NJFJIJGA_00158;dRep_bin210_AGEDAEIA_00151;dRep_bin118_FGIOKLBC_01481	dRep_bin289_KALDCNNP_00029	>dRep_bin289_KALDCNNP_00029 Glutamine synthetase	dRep_bin118_FGIOKLBC_01481	CDS	glnA_2	6.3.1.2	Glutamine synthetase
FGIOKLBC_01512	28.875609999999998	27.956539999999997	28.75168	28.34566	28.25282	28.562929999999998	26.36965	27.68036				17	1	2,0354E-236	dRep_bin063_PJANDMAH_00174;dRep_bin034_MEBMFDLL_00962;dRep_bin118_FGIOKLBC_01512;dRep_bin170_LICLFCFF_01230	dRep_bin063_PJANDMAH_00174;dRep_bin034_MEBMFDLL_00962	>dRep_bin063_PJANDMAH_00174 Fumarate reductase flavoprotein subunit;>dRep_bin034_MEBMFDLL_00962 Fumarate reductase flavoprotein subunit	dRep_bin118_FGIOKLBC_01512	CDS	frdA_2	1.3.5.4	Fumarate reductase flavoprotein subunit
FGIOKLBC_01572	27.23535	27.43611	26.905639999999995	26.85875	27.66919	27.785559999999997	26.618350000000003	27.42422				4	0	7,1403E-93	dRep_bin113_LIFKCGBF_01800;dRep_bin064_CMDDCDKG_00950;dRep_bin346_JKFDGFHC_00571;dRep_bin329_GDOHKPBL_01709;dRep_bin112_NDMGAKCH_00532;dRep_bin198_GMLJKALI_00352;dRep_bin138_EJGHNBMI_00939;dRep_bin196_BIELHBNH_00920;dRep_bin271_NGFBCHKH_00865;dRep_bin063_PJANDMAH_01307;dRep_bin229_FFOBPPJI_01015;dRep_bin036_DOKCEIDH_01527;dRep_bin070_EMBHKIOF_00069;dRep_bin298_EIPJCOMF_01210;dRep_bin118_FGIOKLBC_01572;dRep_bin224_NFENHJGB_01642	dRep_bin113_LIFKCGBF_01800;dRep_bin064_CMDDCDKG_00950;dRep_bin346_JKFDGFHC_00571;dRep_bin329_GDOHKPBL_01709;dRep_bin112_NDMGAKCH_00532;dRep_bin198_GMLJKALI_00352;dRep_bin138_EJGHNBMI_00939;dRep_bin196_BIELHBNH_00920	>dRep_bin113_LIFKCGBF_01800 Alanine--tRNA ligase;>dRep_bin064_CMDDCDKG_00950 Alanine--tRNA ligase;>dRep_bin346_JKFDGFHC_00571 Alanine--tRNA ligase;>dRep_bin329_GDOHKPBL_01709 Alanine--tRNA ligase;>dRep_bin112_NDMGAKCH_00532 Alanine--tRNA ligase;>dRep_bin19	dRep_bin118_FGIOKLBC_01572	CDS	alaS	6.1.1.7	Alanine--tRNA ligase
FGIOKLBC_01582					28.1029	29.47493		27.697570000000002				1	1	7,3274E-14	dRep_bin093_PGADNPMG_00988;dRep_bin229_FFOBPPJI_00110;dRep_bin314_KCHFPLIP_00304;dRep_bin118_FGIOKLBC_01582	dRep_bin093_PGADNPMG_00988;dRep_bin229_FFOBPPJI_00110;dRep_bin314_KCHFPLIP_00304;dRep_bin118_FGIOKLBC_01582	>dRep_bin093_PGADNPMG_00988 Dihydroxy-acid dehydratase;>dRep_bin229_FFOBPPJI_00110 Dihydroxy-acid dehydratase;>dRep_bin314_KCHFPLIP_00304 Dihydroxy-acid dehydratase;>dRep_bin118_FGIOKLBC_01582 Dihydroxy-acid dehydratase	dRep_bin118_FGIOKLBC_01582	CDS	ilvD	4.2.1.9	Dihydroxy-acid dehydratase
FGIOKLBC_01611	23.702609999999996											6	2	1,3333E-36	dRep_bin118_FGIOKLBC_01611;dRep_bin210_AGEDAEIA_00533;dRep_bin028_GKEJLBAM_01900;dRep_bin093_PGADNPMG_00088	dRep_bin118_FGIOKLBC_01611;dRep_bin210_AGEDAEIA_00533;dRep_bin028_GKEJLBAM_01900;dRep_bin093_PGADNPMG_00088	>dRep_bin118_FGIOKLBC_01611 Pyruvate, phosphate dikinase;>dRep_bin210_AGEDAEIA_00533 Pyruvate, phosphate dikinase;>dRep_bin028_GKEJLBAM_01900 Pyruvate, phosphate dikinase;>dRep_bin093_PGADNPMG_00088 Pyruvate, phosphate dikinase	dRep_bin118_FGIOKLBC_01611	CDS	ppdK	2.7.9.1	Pyruvate, phosphate dikinase
FGIOKLBC_01615		24.614310000000003	27.88885		28.70757	28.35132	28.171930000000003	28.87804				19	12	2,2441E-86	dRep_bin191_NGFJMLOL_00358;dRep_bin113_LIFKCGBF_00829;dRep_bin329_GDOHKPBL_01071;dRep_bin196_BIELHBNH_00577;dRep_bin170_LICLFCFF_00911;dRep_bin137_NABPABPB_01569;dRep_bin271_NGFBCHKH_00604;dRep_bin138_EJGHNBMI_00187;dRep_bin298_EIPJCOMF_00668;dRep_bin112_NDMGAKCH_01400;dRep_bin294_EHJINIDK_01508;dRep_bin289_KALDCNNP_01396;dRep_bin036_DOKCEIDH_01336;dRep_bin034_MEBMFDLL_00299;dRep_bin224_NFENHJGB_00174;dRep_bin198_GMLJKALI_01279;dRep_bin275_NIDIBBDA_01228;dRep_bin149_GABCHCDI_00916;dRep_bin064_CMDDCDKG_00631;dRep_bin063_PJANDMAH_01637;dRep_bin118_FGIOKLBC_01615;dRep_bin331_HPKAPHAF_01876;dRep_bin002_CFBNDKDN_00097;dRep_bin232_JGAEDAFA_00433;dRep_bin073_AKBCEHHO_00632	dRep_bin191_NGFJMLOL_00358;dRep_bin113_LIFKCGBF_00829	>dRep_bin191_NGFJMLOL_00358 Lysine--tRNA ligase;>dRep_bin113_LIFKCGBF_00829 Lysine--tRNA ligase	dRep_bin118_FGIOKLBC_01615	CDS	lysS	6.1.1.6	Lysine--tRNA ligase
FGIOKLBC_01714								24.27455				4	1	1,5069E-23	dRep_bin113_LIFKCGBF_00705;dRep_bin198_GMLJKALI_00746;dRep_bin112_NDMGAKCH_00709;dRep_bin063_PJANDMAH_00869;dRep_bin034_MEBMFDLL_01259;dRep_bin289_KALDCNNP_00923;dRep_bin045_GJACFFBC_00982;dRep_bin224_NFENHJGB_01119;dRep_bin271_NGFBCHKH_00654;dRep_bin064_CMDDCDKG_01482;dRep_bin036_DOKCEIDH_01380;dRep_bin183_FPGIOKBG_01057;dRep_bin298_EIPJCOMF_01261;dRep_bin329_GDOHKPBL_01344;dRep_bin196_BIELHBNH_00405;dRep_bin138_EJGHNBMI_01765;dRep_bin170_LICLFCFF_00571;dRep_bin028_GKEJLBAM_01853;dRep_bin210_AGEDAEIA_01636;dRep_bin040_EIFLLDOA_00472;dRep_bin118_FGIOKLBC_01714;dRep_bin131_HLFNHDGI_00113	dRep_bin113_LIFKCGBF_00705;dRep_bin198_GMLJKALI_00746;dRep_bin112_NDMGAKCH_00709;dRep_bin063_PJANDMAH_00869;dRep_bin034_MEBMFDLL_01259;dRep_bin289_KALDCNNP_00923;dRep_bin045_GJACFFBC_00982;dRep_bin224_NFENHJGB_01119;dRep_bin271_NGFBCHKH_00654;dRep_bin064_CMDDCDKG_01482;dRep_bin036_DOKCEIDH_01380;dRep_bin183_FPGIOKBG_01057;dRep_bin298_EIPJCOMF_01261;dRep_bin329_GDOHKPBL_01344;dRep_bin196_BIELHBNH_00405;dRep_bin138_EJGHNBMI_01765;dRep_bin170_LICLFCFF_00571;dRep_bin028_GKEJLBAM_01853;dRep_bin210_AGEDAEIA_01636;dRep_bin040_EIFLLDOA_00472	>dRep_bin113_LIFKCGBF_00705 Transcriptional regulatory protein WalR;>dRep_bin198_GMLJKALI_00746 Transcriptional regulatory protein WalR;>dRep_bin112_NDMGAKCH_00709 Transcriptional regulatory protein WalR;>dRep_bin063_PJANDMAH_00869 Transcriptional regulato	dRep_bin118_FGIOKLBC_01714	CDS	copR		Transcriptional activator protein CopR
FGIOKLBC_01748					26.75506	29.22988	29.300950000000004	26.29721				5	3	1,5544E-19	dRep_bin191_NGFJMLOL_01700;dRep_bin045_GJACFFBC_00821;dRep_bin183_FPGIOKBG_00543;dRep_bin331_HPKAPHAF_00886;dRep_bin296_FDMPKPOH_01698;dRep_bin224_NFENHJGB_00422;dRep_bin198_GMLJKALI_01354;dRep_bin138_EJGHNBMI_01690;dRep_bin137_NABPABPB_00614;dRep_bin131_HLFNHDGI_00270;dRep_bin063_PJANDMAH_00151;dRep_bin271_NGFBCHKH_01003;dRep_bin229_FFOBPPJI_01505;dRep_bin170_LICLFCFF_01730;dRep_bin070_EMBHKIOF_00879;dRep_bin037_GEAOEKHA_00386;dRep_bin036_DOKCEIDH_01926;dRep_bin118_FGIOKLBC_01748	dRep_bin191_NGFJMLOL_01700	>dRep_bin191_NGFJMLOL_01700 Adenylate kinase	dRep_bin118_FGIOKLBC_01748	CDS	adk	2.7.4.3	Adenylate kinase
FGIOKLBC_01778						26.3986						2	2	0,00017701	dRep_bin307_AOCKHIKF_00403;dRep_bin098_DDEBHDKK_01311;dRep_bin040_EIFLLDOA_01200;dRep_bin118_FGIOKLBC_01778	dRep_bin307_AOCKHIKF_00403;dRep_bin098_DDEBHDKK_01311;dRep_bin040_EIFLLDOA_01200;dRep_bin118_FGIOKLBC_01778	>dRep_bin307_AOCKHIKF_00403 ATP synthase subunit c;>dRep_bin098_DDEBHDKK_01311 ATP synthase subunit c;>dRep_bin040_EIFLLDOA_01200 ATP synthase subunit c;>dRep_bin118_FGIOKLBC_01778 ATP synthase subunit c	dRep_bin118_FGIOKLBC_01778	CDS	atpE		ATP synthase subunit c
FGIOKLBC_01781					20.66084	20.19075						6	1	4,1576E-39	dRep_bin346_JKFDGFHC_00049;dRep_bin271_NGFBCHKH_01432;dRep_bin170_LICLFCFF_00076;dRep_bin113_LIFKCGBF_00665;dRep_bin036_DOKCEIDH_00273;dRep_bin034_MEBMFDLL_01305;dRep_bin285_IPHKFJAN_00808;dRep_bin298_EIPJCOMF_01620;dRep_bin289_KALDCNNP_01320;dRep_bin196_BIELHBNH_01057;dRep_bin138_EJGHNBMI_00590;dRep_bin064_CMDDCDKG_01375;dRep_bin183_FPGIOKBG_00615;dRep_bin073_AKBCEHHO_01469;dRep_bin323_FBBLPLCG_01598;dRep_bin101_BNDDLDCL_00033;dRep_bin049_MNFBDPNO_00783;dRep_bin087_FCLGAPPI_00381;dRep_bin281_OGHLKMAI_01074;dRep_bin210_AGEDAEIA_01693;dRep_bin118_FGIOKLBC_01781;dRep_bin022_BOEAFNDE_01420;dRep_bin131_HLFNHDGI_01253;dRep_bin002_CFBNDKDN_00034;dRep_bin014_CHIHIMAN_01271;dRep_bin329_GDOHKPBL_01515;dRep_bin314_KCHFPLIP_00795;dRep_bin307_AOCKHIKF_00407;dRep_bin098_DDEBHDKK_01315;dRep_bin306_FGHMKMMP_00477;dRep_bin153_JGABJFBF_01420;dRep_bin172_ALNHGLMD_01785;dRep_bin286_OEMIJKMC_01076;dRep_bin182_EMCFODCD_00063;dRep_bin126_PPDNCIBN_00262;dRep_bin044_IPFKHAEF_00185;dRep_bin283_NLJJFFAC_01756;dRep_bin203_CLFNNOCF_01930;dRep_bin179_HFEIPPPA_00361;dRep_bin218_ACMPALGF_01344;dRep_bin144_NPHACCKF_00223;dRep_bin094_LBLICAAO_00940;dRep_bin032_PPNIGLME_01008;dRep_bin027_OFJCHLJJ_00625;dRep_bin096_GNHMEKPF_00088;dRep_bin257_JHFDCHCB_01408;dRep_bin190_MOGDLGIN_00302;dRep_bin114_FJHJKHGL_00840;dRep_bin055_IBMMJAEE_00170;dRep_bin048_PABMBHAL_01509;dRep_bin318_IEDEJOFJ_00726;dRep_bin264_DNFFGNEG_00422;dRep_bin244_LBFMHLBI_01058;dRep_bin223_PIMCDKJI_01107;dRep_bin202_HEPPALPH_00196;dRep_bin242_LKAIBGGJ_00303;dRep_bin204_INMOGLDN_01542;dRep_bin174_LJJOKEME_00810;dRep_bin080_CBEBHNNK_00066;dRep_bin312_MJFEFHMP_00588;dRep_bin246_MMFBABHK_00194;dRep_bin116_CLFDBMOF_00457;dRep_bin061_ONFGDLGO_01437;dRep_bin030_OGPDLGOC_00261;dRep_bin004_OCHNPJPO_01274;dRep_bin251_FGNGCJDD_00242;dRep_bin219_HGPEELLF_01206;dRep_bin129_GADIAMAA_00806;dRep_bin076_GLAOFBEC_00429;dRep_bin188_EJILNMPE_01055;dRep_bin252_NDAKLAGD_01289;dRep_bin352_KFNHGNFC_00642;dRep_bin206_OIIBOIAK_00292;dRep_bin078_GKFCBAEI_00119;dRep_bin301_NJFJIJGA_00585;dRep_bin275_NIDIBBDA_00034;dRep_bin040_EIFLLDOA_01203;dRep_bin028_GKEJLBAM_00163;dRep_bin149_GABCHCDI_00012;dRep_bin093_PGADNPMG_00427;dRep_bin345_GLPJDLOI_00001;dRep_bin296_FDMPKPOH_01296;dRep_bin316_FNLHDNEO_00355;dRep_bin256_KEMNAOBC_01607;dRep_bin071_JHMCIJPE_01347;dRep_bin128_JPBBHEMA_00687;dRep_bin165_HMDFFMMM_01254;dRep_bin351_CKFFBPHM_01191;dRep_bin092_OOJCPDEA_01149	dRep_bin346_JKFDGFHC_00049;dRep_bin271_NGFBCHKH_01432;dRep_bin170_LICLFCFF_00076;dRep_bin113_LIFKCGBF_00665;dRep_bin036_DOKCEIDH_00273;dRep_bin034_MEBMFDLL_01305;dRep_bin285_IPHKFJAN_00808;dRep_bin298_EIPJCOMF_01620;dRep_bin289_KALDCNNP_01320;dRep_bin196_BIELHBNH_01057;dRep_bin138_EJGHNBMI_00590;dRep_bin064_CMDDCDKG_01375;dRep_bin183_FPGIOKBG_00615;dRep_bin073_AKBCEHHO_01469	>dRep_bin346_JKFDGFHC_00049 ATP synthase subunit beta, sodium ion specific;>dRep_bin271_NGFBCHKH_01432 ATP synthase subunit beta;>dRep_bin170_LICLFCFF_00076 ATP synthase subunit beta, sodium ion specific;>dRep_bin113_LIFKCGBF_00665 ATP synthase subunit bet	dRep_bin118_FGIOKLBC_01781	CDS	atpD	3.6.3.14	ATP synthase subunit beta
FGIOKLBC_01793	28.72611	29.289599999999997	29.5258	28.677410000000002	28.746439999999996	28.10174	28.90693	28.88591				20	16	8,3592E-185	dRep_bin158_OGFICEAP_01428;dRep_bin254_GJDPFAEA_00108;dRep_bin326_CEEAIPKF_00144;dRep_bin122_JHMJFODI_00778;dRep_bin207_OHNPDPFI_00238;dRep_bin276_EHNFLEBP_00969;dRep_bin180_JMFOHHIL_00772;dRep_bin329_GDOHKPBL_01560;dRep_bin076_GLAOFBEC_02388;dRep_bin035_JBNPBOKG_01458;dRep_bin012_KEBBILMO_01041;dRep_bin070_EMBHKIOF_01360;dRep_bin229_FFOBPPJI_00960;dRep_bin210_AGEDAEIA_01389;dRep_bin354_MMOALAFN_00639;dRep_bin345_GLPJDLOI_00473;dRep_bin123_PJKBFKBB_01063;dRep_bin111_FPJIHFKE_00154;dRep_bin045_GJACFFBC_01941;dRep_bin040_EIFLLDOA_00889;dRep_bin333_EFOKIBLA_01013;dRep_bin131_HLFNHDGI_01012;dRep_bin022_BOEAFNDE_01446;dRep_bin301_NJFJIJGA_00142;dRep_bin275_NIDIBBDA_01350;dRep_bin149_GABCHCDI_01079;dRep_bin138_EJGHNBMI_00344;dRep_bin049_MNFBDPNO_00104;dRep_bin032_PPNIGLME_00241;dRep_bin343_JCMCKBGF_01571;dRep_bin118_FGIOKLBC_01793;dRep_bin093_PGADNPMG_00211;dRep_bin085_MBHLGCDB_01455;dRep_bin018_ILOONPIC_01183;dRep_bin323_FBBLPLCG_01525;dRep_bin265_LFKFBJPC_01879;dRep_bin121_BHOOLFKN_01093;dRep_bin122_JHMJFODI_01227	dRep_bin158_OGFICEAP_01428	>dRep_bin158_OGFICEAP_01428 Acetate kinase	dRep_bin118_FGIOKLBC_01793	CDS	ackA	2.7.2.1	Acetate kinase
FGIOKLBC_01843					25.57508	26.73776	25.131480000000003	25.210739999999998				3	3	2,6068E-10	dRep_bin191_NGFJMLOL_00154;dRep_bin045_GJACFFBC_00079;dRep_bin111_FPJIHFKE_00406;dRep_bin138_EJGHNBMI_01064;dRep_bin285_IPHKFJAN_00515;dRep_bin196_BIELHBNH_01025;dRep_bin224_NFENHJGB_01269;dRep_bin296_FDMPKPOH_01413;dRep_bin128_JPBBHEMA_00518;dRep_bin073_AKBCEHHO_01705;dRep_bin232_JGAEDAFA_01214;dRep_bin110_JGOEJECF_00385;dRep_bin307_AOCKHIKF_01479;dRep_bin098_DDEBHDKK_01514;dRep_bin018_ILOONPIC_00305;dRep_bin170_LICLFCFF_00331;dRep_bin035_JBNPBOKG_00057;dRep_bin034_MEBMFDLL_01539;dRep_bin346_JKFDGFHC_00885;dRep_bin298_EIPJCOMF_00371;dRep_bin165_HMDFFMMM_00204;dRep_bin028_GKEJLBAM_01477;dRep_bin229_FFOBPPJI_00453;dRep_bin275_NIDIBBDA_00691;dRep_bin118_FGIOKLBC_01843;dRep_bin113_LIFKCGBF_00471;dRep_bin084_CGBIKHBH_01308;dRep_bin329_GDOHKPBL_00694;dRep_bin131_HLFNHDGI_00779;dRep_bin036_DOKCEIDH_00191;dRep_bin137_NABPABPB_00552;dRep_bin210_AGEDAEIA_00804;dRep_bin022_BOEAFNDE_00719;dRep_bin294_EHJINIDK_00312;dRep_bin093_PGADNPMG_01602;dRep_bin289_KALDCNNP_00932;dRep_bin040_EIFLLDOA_00160;dRep_bin183_FPGIOKBG_00710	dRep_bin191_NGFJMLOL_00154;dRep_bin045_GJACFFBC_00079;dRep_bin111_FPJIHFKE_00406;dRep_bin138_EJGHNBMI_01064;dRep_bin285_IPHKFJAN_00515;dRep_bin196_BIELHBNH_01025;dRep_bin224_NFENHJGB_01269	>dRep_bin191_NGFJMLOL_00154 Protein translocase subunit SecA;>dRep_bin045_GJACFFBC_00079 Protein translocase subunit SecA;>dRep_bin111_FPJIHFKE_00406 Protein translocase subunit SecA;>dRep_bin138_EJGHNBMI_01064 Protein translocase subunit SecA;>dRep_bin285	dRep_bin118_FGIOKLBC_01843	CDS	secA		Protein translocase subunit SecA
