GBprotID	LFQ intensity CtrPig1	LFQ intensity CtrPig2	LFQ intensity CtrPig3	LFQ intensity CtrPig4	LFQ intensity MannanPig1	LFQ intensity MannanPig2	LFQ intensity MannanPig3	LFQ intensity MannanPig4	Only identified by site	Reverse	Contaminant	Peptides	Unique peptides	PEP	Protein IDs	Majority protein IDs	Fasta headers	IDcomb	ftype	gene	EC_number	product
HIHDFGCL_00006						22.201050000000002						3	0	1,9093E-08	dRep_bin124_HIHDFGCL_00006	dRep_bin124_HIHDFGCL_00006	>dRep_bin124_HIHDFGCL_00006 Chaperone protein DnaK	dRep_bin124_HIHDFGCL_00006	CDS	dnaK		Chaperone protein DnaK
HIHDFGCL_00127	31.69062	31.497960000000003	31.258499999999998	30.57867	30.338729999999998	30.18754	31.41518	31.29647				16	13	0	dRep_bin225_FLBKEJIP_00638;dRep_bin193_GDMDPNNM_00391;dRep_bin104_EGLEJOLM_00429;dRep_bin267_LJCFMAFA_01104;dRep_bin128_JPBBHEMA_00063;dRep_bin322_OJELOJOF_01579;dRep_bin220_PILICLLL_00965;dRep_bin237_KJDLIPND_01288;dRep_bin273_FGAEBHNP_00090;dRep_bin350_EKOOEEGH_00878;dRep_bin341_NBEGOKEF_01245;dRep_bin230_NINMBMKB_00865;dRep_bin355_KJEFNADK_01484;dRep_bin306_FGHMKMMP_01597;dRep_bin291_EILOACJB_00178;dRep_bin276_EHNFLEBP_00863;dRep_bin107_EFNBPDOP_00094;dRep_bin077_DNNBMPMC_01312;dRep_bin324_IPNHOHFK_02120;dRep_bin308_JBPDGLPP_01844;dRep_bin089_PAJFOJBN_01453;dRep_bin031_BNHMFOII_01699;dRep_bin007_LNLEAAAN_01377;dRep_bin179_HFEIPPPA_01144;dRep_bin347_EKGCMFPD_01400;dRep_bin226_NLNLHLLD_00768;dRep_bin056_EMNHHOJA_00523;dRep_bin026_HNPIIINL_01583;dRep_bin020_JCCELPIE_01111;dRep_bin345_GLPJDLOI_00559;dRep_bin343_JCMCKBGF_01283;dRep_bin333_EFOKIBLA_00575;dRep_bin323_FBBLPLCG_00787;dRep_bin274_DBJHKLDG_00045;dRep_bin195_DDMDFNOK_00591;dRep_bin078_GKFCBAEI_00992;dRep_bin008_MNDMJLEI_01069;dRep_bin316_FNLHDNEO_00739;dRep_bin092_OOJCPDEA_01821;dRep_bin074_EHAOMODJ_00660;dRep_bin256_KEMNAOBC_00450;dRep_bin123_PJKBFKBB_01350;dRep_bin110_JGOEJECF_00180;dRep_bin101_BNDDLDCL_01841;dRep_bin071_JHMCIJPE_01380;dRep_bin040_EIFLLDOA_01745;dRep_bin032_PPNIGLME_01067;dRep_bin014_CHIHIMAN_00063;dRep_bin321_EJNAAGJG_00005;dRep_bin290_OIOJKBNK_00982;dRep_bin229_FFOBPPJI_01385;dRep_bin124_HIHDFGCL_00127;dRep_bin028_GKEJLBAM_01146;dRep_bin351_CKFFBPHM_00748;dRep_bin296_FDMPKPOH_01066;dRep_bin257_JHFDCHCB_01960;dRep_bin194_MEPDOGGJ_00157;dRep_bin191_NGFJMLOL_00394;dRep_bin136_NAIECEIF_01100;dRep_bin118_FGIOKLBC_00461;dRep_bin025_CBEJJMLE_00124;dRep_bin293_MEPKGOAN_00978;dRep_bin210_AGEDAEIA_00638;dRep_bin314_KCHFPLIP_00446;dRep_bin165_HMDFFMMM_00776;dRep_bin353_PPDHLNJB_00892;dRep_bin018_ILOONPIC_00585;dRep_bin060_HNFNENOI_01252;dRep_bin217_MJCEAEPB_01380	dRep_bin225_FLBKEJIP_00638	>dRep_bin225_FLBKEJIP_00638 Inosine-5-monophosphate dehydrogenase	dRep_bin124_HIHDFGCL_00127	CDS	guaB	1.1.1.205	Inosine-5'-monophosphate dehydrogenase
HIHDFGCL_00141	25.74116	27.00228	26.89227	25.65652								8	6	2,367E-43	dRep_bin336_MPGOKPOL_02004;dRep_bin147_EJLBNEBE_01087;dRep_bin333_EFOKIBLA_00080;dRep_bin257_JHFDCHCB_01127;dRep_bin142_NDNPJBEM_01275;dRep_bin169_PNICKJKO_01476;dRep_bin032_PPNIGLME_00804;dRep_bin354_MMOALAFN_01389;dRep_bin123_PJKBFKBB_00735;dRep_bin044_IPFKHAEF_00433;dRep_bin058_GJKCICJN_01155;dRep_bin079_GAOGCKND_01421;dRep_bin124_HIHDFGCL_00141;dRep_bin194_MEPDOGGJ_00831;dRep_bin025_CBEJJMLE_01012;dRep_bin236_BNONDECB_01011	dRep_bin336_MPGOKPOL_02004;dRep_bin147_EJLBNEBE_01087	>dRep_bin336_MPGOKPOL_02004 Polyribonucleotide nucleotidyltransferase;>dRep_bin147_EJLBNEBE_01087 Polyribonucleotide nucleotidyltransferase	dRep_bin124_HIHDFGCL_00141	CDS	pnp	2.7.7.8	Polyribonucleotide nucleotidyltransferase
HIHDFGCL_00172	27.45325		27.60633	27.34875	27.55311	26.292109999999997	27.99129	27.414820000000002				3	3	2,7731E-35	dRep_bin013_IODPEDPB_00129;dRep_bin152_LJMCIADF_00561;dRep_bin026_HNPIIINL_00624;dRep_bin194_MEPDOGGJ_00252;dRep_bin124_HIHDFGCL_00172;dRep_bin038_EIGFILKG_00845;dRep_bin025_CBEJJMLE_00504;dRep_bin353_PPDHLNJB_01721;dRep_bin079_GAOGCKND_01237;dRep_bin068_ENOLAELK_00465;dRep_bin006_HPJGJCAG_01285;dRep_bin175_HANCENAK_01299;dRep_bin337_FHKPNFDB_01083;dRep_bin318_IEDEJOFJ_00698;dRep_bin225_FLBKEJIP_00557;dRep_bin140_ACFAKGIL_00191	dRep_bin013_IODPEDPB_00129	>dRep_bin013_IODPEDPB_00129 Uridylate kinase	dRep_bin124_HIHDFGCL_00172	CDS	pyrH	2.7.4.22	Uridylate kinase
HIHDFGCL_00177		21.25603			22.842589999999998			22.8121				2	1	4,0939E-88	dRep_bin240_LDBBGJKG_00098;dRep_bin031_BNHMFOII_01241;dRep_bin142_NDNPJBEM_01312;dRep_bin248_CCDFPECI_01700;dRep_bin169_PNICKJKO_01291;dRep_bin257_JHFDCHCB_00613;dRep_bin322_OJELOJOF_00807;dRep_bin193_GDMDPNNM_00140;dRep_bin124_HIHDFGCL_00177;dRep_bin079_GAOGCKND_00330;dRep_bin068_ENOLAELK_00170;dRep_bin266_JFOCEDAE_01509;dRep_bin160_EFKMPBOM_01717;dRep_bin154_JGOKHKLI_02113;dRep_bin019_MOJEPLJF_00503;dRep_bin253_CPMOAOBJ_01331;dRep_bin056_EMNHHOJA_00831;dRep_bin335_JIOGNAPG_01465;dRep_bin152_LJMCIADF_01179;dRep_bin148_NAJFKJMD_01045;dRep_bin095_HOBNOEEF_01511;dRep_bin038_EIGFILKG_00469;dRep_bin243_JDMELKLC_00643;dRep_bin029_LFMGBBEC_01605;dRep_bin300_MJPPENNL_00271;dRep_bin279_IAEFEPEN_00816;dRep_bin159_ADJJGPBG_00093;dRep_bin143_PFLDJMPF_00341;dRep_bin205_LKIOOBKC_01861;dRep_bin135_HHKACLPM_01695	dRep_bin240_LDBBGJKG_00098;dRep_bin031_BNHMFOII_01241;dRep_bin142_NDNPJBEM_01312;dRep_bin248_CCDFPECI_01700;dRep_bin169_PNICKJKO_01291;dRep_bin257_JHFDCHCB_00613;dRep_bin322_OJELOJOF_00807;dRep_bin193_GDMDPNNM_00140;dRep_bin124_HIHDFGCL_00177;dRep_bin079_GAOGCKND_00330;dRep_bin068_ENOLAELK_00170;dRep_bin266_JFOCEDAE_01509;dRep_bin160_EFKMPBOM_01717;dRep_bin154_JGOKHKLI_02113;dRep_bin019_MOJEPLJF_00503;dRep_bin253_CPMOAOBJ_01331;dRep_bin056_EMNHHOJA_00831;dRep_bin335_JIOGNAPG_01465;dRep_bin152_LJMCIADF_01179;dRep_bin148_NAJFKJMD_01045;dRep_bin095_HOBNOEEF_01511;dRep_bin038_EIGFILKG_00469;dRep_bin243_JDMELKLC_00643;dRep_bin029_LFMGBBEC_01605;dRep_bin300_MJPPENNL_00271;dRep_bin279_IAEFEPEN_00816;dRep_bin159_ADJJGPBG_00093;dRep_bin143_PFLDJMPF_00341;dRep_bin205_LKIOOBKC_01861;dRep_bin135_HHKACLPM_01695	>dRep_bin240_LDBBGJKG_00098 Galactose-1-phosphate uridylyltransferase;>dRep_bin031_BNHMFOII_01241 Galactose-1-phosphate uridylyltransferase;>dRep_bin142_NDNPJBEM_01312 Galactose-1-phosphate uridylyltransferase;>dRep_bin248_CCDFPECI_01700 Galactose-1-phosph	dRep_bin124_HIHDFGCL_00177	CDS	galT	2.7.7.12	Galactose-1-phosphate uridylyltransferase
HIHDFGCL_00201					25.43377							4	0	1,7728E-12	dRep_bin124_HIHDFGCL_00201;dRep_bin021_AJDDCGJC_00470;dRep_bin263_OLEFOGIJ_00549;dRep_bin242_LKAIBGGJ_01311	dRep_bin124_HIHDFGCL_00201;dRep_bin021_AJDDCGJC_00470;dRep_bin263_OLEFOGIJ_00549	>dRep_bin124_HIHDFGCL_00201 Cysteine synthase;>dRep_bin021_AJDDCGJC_00470 Cysteine synthase;>dRep_bin263_OLEFOGIJ_00549 Cysteine synthase	dRep_bin124_HIHDFGCL_00201	CDS	cysK	2.5.1.47	Cysteine synthase
HIHDFGCL_00314	27.598329999999997	25.482719999999993	26.17653									11	1	1,5954E-65	dRep_bin284_DEHKNOBF_00300;dRep_bin347_EKGCMFPD_01790;dRep_bin124_HIHDFGCL_00314;dRep_bin236_BNONDECB_00048	dRep_bin284_DEHKNOBF_00300	>dRep_bin284_DEHKNOBF_00300 60 kDa chaperonin	dRep_bin124_HIHDFGCL_00314	CDS	groL		60 kDa chaperonin
HIHDFGCL_00317			25.22589	24.995369999999998								10	0	1,2933E-60	dRep_bin348_LCLFDNEE_01283;dRep_bin105_AAEIHAFF_00953;dRep_bin339_DBNBAHDK_00279;dRep_bin166_DFIAJFEC_00112;dRep_bin169_PNICKJKO_00881;dRep_bin124_HIHDFGCL_00317;dRep_bin194_MEPDOGGJ_01305;dRep_bin025_CBEJJMLE_01533;dRep_bin152_LJMCIADF_00839;dRep_bin079_GAOGCKND_00312;dRep_bin038_EIGFILKG_00352;dRep_bin068_ENOLAELK_00991	dRep_bin348_LCLFDNEE_01283;dRep_bin105_AAEIHAFF_00953;dRep_bin339_DBNBAHDK_00279;dRep_bin166_DFIAJFEC_00112;dRep_bin169_PNICKJKO_00881;dRep_bin124_HIHDFGCL_00317;dRep_bin194_MEPDOGGJ_01305;dRep_bin025_CBEJJMLE_01533;dRep_bin152_LJMCIADF_00839;dRep_bin079_GAOGCKND_00312;dRep_bin038_EIGFILKG_00352;dRep_bin068_ENOLAELK_00991	>dRep_bin348_LCLFDNEE_01283 DNA-directed RNA polymerase subunit beta;>dRep_bin105_AAEIHAFF_00953 DNA-directed RNA polymerase subunit beta;>dRep_bin339_DBNBAHDK_00279 DNA-directed RNA polymerase subunit beta;>dRep_bin166_DFIAJFEC_00112 DNA-directed RNA poly	dRep_bin124_HIHDFGCL_00317	CDS	rpoB	2.7.7.6	DNA-directed RNA polymerase subunit beta
HIHDFGCL_00318								21.643810000000002				9	0	4,6207E-36	dRep_bin143_PFLDJMPF_01162;dRep_bin074_EHAOMODJ_00197;dRep_bin152_LJMCIADF_00840;dRep_bin079_GAOGCKND_00311;dRep_bin068_ENOLAELK_00990;dRep_bin124_HIHDFGCL_00318;dRep_bin272_LGBDGEIM_00728;dRep_bin337_FHKPNFDB_00324;dRep_bin056_EMNHHOJA_01446;dRep_bin054_NNOKONMC_00657;dRep_bin102_ICFDHPGB_00342;dRep_bin259_IFIOODLK_00485;dRep_bin086_HHEJBMCP_01132;dRep_bin054_NNOKONMC_00873;dRep_bin161_JMKPMHCO_00072;dRep_bin044_IPFKHAEF_00005;dRep_bin085_MBHLGCDB_01101;dRep_bin059_OOBKFNPP_00481;dRep_bin171_FIDMCACI_00747;dRep_bin012_KEBBILMO_00314;dRep_bin212_IEMJENOD_00204;dRep_bin257_JHFDCHCB_01099;dRep_bin277_MIPNGEJE_00939;dRep_bin238_OLNFACLE_01881;dRep_bin200_JJGKEOHI_00480;dRep_bin144_NPHACCKF_01932;dRep_bin321_EJNAAGJG_00384;dRep_bin333_EFOKIBLA_00721;dRep_bin273_FGAEBHNP_01365;dRep_bin280_IMCGLKKG_00438;dRep_bin171_FIDMCACI_00165;dRep_bin051_HIEIDCID_00833;dRep_bin141_GMCOOECB_01065;dRep_bin122_JHMJFODI_00609;dRep_bin155_CLHNKEHA_00697;dRep_bin313_CJFGINPI_00865;dRep_bin213_HHHELMFN_00711;dRep_bin258_DAMEHFEK_00926;dRep_bin169_PNICKJKO_00880;dRep_bin055_IBMMJAEE_00781;dRep_bin096_GNHMEKPF_00270;dRep_bin082_HBEFABJN_01176;dRep_bin094_LBLICAAO_01798;dRep_bin052_PGOOKKFH_00001;dRep_bin178_FLGBGGJB_00429;dRep_bin123_PJKBFKBB_00530;dRep_bin046_GKEJLOEK_00533;dRep_bin270_GEJAHNCN_00559;dRep_bin087_FCLGAPPI_00749;dRep_bin317_ABPHNCOD_01524;dRep_bin354_MMOALAFN_01090;dRep_bin221_LMGNIMOJ_00256;dRep_bin005_CNDFPKJG_00513;dRep_bin144_NPHACCKF_01674;dRep_bin215_ABBFGCAF_00891;dRep_bin024_OLHDGABE_01486;dRep_bin207_OHNPDPFI_01006;dRep_bin109_MJABCPAK_00005;dRep_bin121_BHOOLFKN_00138;dRep_bin144_NPHACCKF_01593;dRep_bin236_BNONDECB_00589;dRep_bin166_DFIAJFEC_00113;dRep_bin352_KFNHGNFC_00788;dRep_bin187_CLPDGDBG_00447;dRep_bin192_GCMBELNN_00637;dRep_bin206_OIIBOIAK_00839;dRep_bin173_BEBNCADL_00299;dRep_bin080_CBEBHNNK_00392;dRep_bin237_KJDLIPND_00675	dRep_bin143_PFLDJMPF_01162;dRep_bin074_EHAOMODJ_00197;dRep_bin152_LJMCIADF_00840;dRep_bin079_GAOGCKND_00311;dRep_bin068_ENOLAELK_00990;dRep_bin124_HIHDFGCL_00318;dRep_bin272_LGBDGEIM_00728;dRep_bin337_FHKPNFDB_00324;dRep_bin056_EMNHHOJA_01446;dRep_bin054_NNOKONMC_00657;dRep_bin102_ICFDHPGB_00342;dRep_bin259_IFIOODLK_00485;dRep_bin086_HHEJBMCP_01132;dRep_bin054_NNOKONMC_00873;dRep_bin161_JMKPMHCO_00072;dRep_bin044_IPFKHAEF_00005;dRep_bin085_MBHLGCDB_01101	>dRep_bin143_PFLDJMPF_01162 DNA-directed RNA polymerase subunit beta;>dRep_bin074_EHAOMODJ_00197 DNA-directed RNA polymerase subunit beta;>dRep_bin152_LJMCIADF_00840 DNA-directed RNA polymerase subunit beta;>dRep_bin079_GAOGCKND_00311 DNA-directed RNA p	dRep_bin124_HIHDFGCL_00318	CDS	rpoC	2.7.7.6	DNA-directed RNA polymerase subunit beta'
HIHDFGCL_00335	23.498749999999998	23.41377	23.664050000000003	25.007910000000003								4	3	8,0566E-12	dRep_bin292_JIBLDOOH_01418;dRep_bin303_DDDNDJCF_00505;dRep_bin077_DNNBMPMC_00941;dRep_bin152_LJMCIADF_01123;dRep_bin124_HIHDFGCL_00335;dRep_bin079_GAOGCKND_00643;dRep_bin068_ENOLAELK_01078;dRep_bin038_EIGFILKG_00380;dRep_bin309_BIOHLCGG_00617;dRep_bin194_MEPDOGGJ_00286;dRep_bin025_CBEJJMLE_00539;dRep_bin247_EKGBJCBM_00804;dRep_bin253_CPMOAOBJ_00601;dRep_bin169_PNICKJKO_01110;dRep_bin123_PJKBFKBB_01254;dRep_bin306_FGHMKMMP_00717;dRep_bin293_MEPKGOAN_00676;dRep_bin257_JHFDCHCB_01083;dRep_bin249_OFIIEIDJ_00213;dRep_bin157_JPNIKEKI_01818;dRep_bin085_MBHLGCDB_01586;dRep_bin319_PBDBJGCJ_01316;dRep_bin300_MJPPENNL_01694;dRep_bin282_PKAAPBFP_01497;dRep_bin220_PILICLLL_01502;dRep_bin209_NKIHFCEN_00711;dRep_bin179_HFEIPPPA_01156;dRep_bin166_DFIAJFEC_01129;dRep_bin160_EFKMPBOM_01097;dRep_bin154_JGOKHKLI_00129;dRep_bin088_DNGPPFDK_00244;dRep_bin075_EPEMMOCL_01534;dRep_bin069_EGGEOGDC_00523;dRep_bin344_CJJBDGAA_01343;dRep_bin324_IPNHOHFK_02132;dRep_bin310_IMBAFDIF_01633;dRep_bin297_EDHEEICA_00782;dRep_bin269_PNILGKPH_01786;dRep_bin248_CCDFPECI_00995;dRep_bin226_NLNLHLLD_00535;dRep_bin203_CLFNNOCF_00636;dRep_bin168_HKDILBFE_00313;dRep_bin139_KGAJINND_00724;dRep_bin133_NOBPDBPA_02650;dRep_bin099_DNDAGJEJ_01464;dRep_bin091_MAFACGAD_00915;dRep_bin007_LNLEAAAN_01209;dRep_bin260_HELEPKJL_00482;dRep_bin186_HJAAFFNP_01391;dRep_bin115_IFKGOGCL_02481;dRep_bin039_IJNOFOJK_00485;dRep_bin354_MMOALAFN_01391;dRep_bin261_FJICAFFM_01132;dRep_bin336_MPGOKPOL_01187;dRep_bin095_HOBNOEEF_00148;dRep_bin348_LCLFDNEE_00586;dRep_bin125_FADLGGII_01253;dRep_bin089_PAJFOJBN_00918;dRep_bin277_MIPNGEJE_00466	dRep_bin292_JIBLDOOH_01418;dRep_bin303_DDDNDJCF_00505	>dRep_bin292_JIBLDOOH_01418 Putative aminotransferase/MSMEI_6121;>dRep_bin303_DDDNDJCF_00505 Putative aminotransferase/MSMEI_6121	dRep_bin124_HIHDFGCL_00335	CDS			Putative aminotransferase/MSMEI_6121
HIHDFGCL_00351		21.798399999999997										2	1	1,1356E-10	dRep_bin108_BPNCDINP_00037;dRep_bin124_HIHDFGCL_00351	dRep_bin108_BPNCDINP_00037;dRep_bin124_HIHDFGCL_00351	>dRep_bin108_BPNCDINP_00037 Aspartate-semialdehyde dehydrogenase;>dRep_bin124_HIHDFGCL_00351 Aspartate-semialdehyde dehydrogenase	dRep_bin124_HIHDFGCL_00351	CDS	asd	1.2.1.11	Aspartate-semialdehyde dehydrogenase
HIHDFGCL_00412					24.697900000000004	24.0874	25.028509999999997	25.66161				6	3	2,3145E-90	dRep_bin243_JDMELKLC_00728;dRep_bin287_DONBGKDH_00680;dRep_bin266_JFOCEDAE_00356;dRep_bin323_FBBLPLCG_01790;dRep_bin124_HIHDFGCL_00412	dRep_bin243_JDMELKLC_00728	>dRep_bin243_JDMELKLC_00728 Trehalose import ATP-binding protein SugC	dRep_bin124_HIHDFGCL_00412	CDS	sugC	3.6.3.-	Trehalose import ATP-binding protein SugC
HIHDFGCL_00491								28.63561				8	0	2,8351E-119	dRep_bin220_PILICLLL_01158;dRep_bin032_PPNIGLME_01262;dRep_bin322_OJELOJOF_00287;dRep_bin249_OFIIEIDJ_01886;dRep_bin309_BIOHLCGG_01421;dRep_bin085_MBHLGCDB_00653;dRep_bin126_PPDNCIBN_00111;dRep_bin145_KMJJJOEJ_00430;dRep_bin323_FBBLPLCG_00095;dRep_bin169_PNICKJKO_01238;dRep_bin139_KGAJINND_02193;dRep_bin152_LJMCIADF_00385;dRep_bin068_ENOLAELK_00554;dRep_bin079_GAOGCKND_01274;dRep_bin049_MNFBDPNO_01473;dRep_bin044_IPFKHAEF_00146;dRep_bin263_OLEFOGIJ_00323;dRep_bin025_CBEJJMLE_01269;dRep_bin194_MEPDOGGJ_00714;dRep_bin124_HIHDFGCL_00491;dRep_bin057_BNCFHBBO_01811	dRep_bin220_PILICLLL_01158;dRep_bin032_PPNIGLME_01262;dRep_bin322_OJELOJOF_00287;dRep_bin249_OFIIEIDJ_01886;dRep_bin309_BIOHLCGG_01421;dRep_bin085_MBHLGCDB_00653;dRep_bin126_PPDNCIBN_00111;dRep_bin145_KMJJJOEJ_00430	>dRep_bin220_PILICLLL_01158 Reverse rubrerythrin-1;>dRep_bin032_PPNIGLME_01262 Reverse rubrerythrin-1;>dRep_bin322_OJELOJOF_00287 Reverse rubrerythrin-1;>dRep_bin249_OFIIEIDJ_01886 Reverse rubrerythrin-2;>dRep_bin309_BIOHLCGG_01421 Reverse rubrerythrin-1;>	dRep_bin124_HIHDFGCL_00491	CDS	rbr3B	1.11.1.1	Reverse rubrerythrin-2
HIHDFGCL_00511					25.673900000000003	24.3694	25.3694	25.2009				6	3	5,9788E-13	dRep_bin095_HOBNOEEF_01194;dRep_bin124_HIHDFGCL_00511;dRep_bin173_BEBNCADL_00260;dRep_bin086_HHEJBMCP_01023;dRep_bin339_DBNBAHDK_00989;dRep_bin350_EKOOEEGH_00442;dRep_bin049_MNFBDPNO_00697	dRep_bin095_HOBNOEEF_01194	>dRep_bin095_HOBNOEEF_01194 Aldehyde-alcohol dehydrogenase	dRep_bin124_HIHDFGCL_00511	CDS	adhE		Aldehyde-alcohol dehydrogenase
HIHDFGCL_00558	21.90683	23.317410000000002	22.40958	22.11044								5	2	5,6504E-18	dRep_bin066_AJACLPEE_00786;dRep_bin181_MKGPMPIA_01099;dRep_bin254_GJDPFAEA_02005;dRep_bin124_HIHDFGCL_00558;dRep_bin032_PPNIGLME_00835;dRep_bin194_MEPDOGGJ_00849;dRep_bin104_EGLEJOLM_00185;dRep_bin079_GAOGCKND_00647;dRep_bin025_CBEJJMLE_01029;dRep_bin152_LJMCIADF_00832;dRep_bin038_EIGFILKG_00145;dRep_bin301_NJFJIJGA_01481;dRep_bin149_GABCHCDI_00803;dRep_bin296_FDMPKPOH_01579;dRep_bin128_JPBBHEMA_01047;dRep_bin018_ILOONPIC_00800	dRep_bin066_AJACLPEE_00786;dRep_bin181_MKGPMPIA_01099	>dRep_bin066_AJACLPEE_00786 Flavo-diiron protein FprA1;>dRep_bin181_MKGPMPIA_01099 Flavo-diiron protein FprA1	dRep_bin124_HIHDFGCL_00558	CDS	fprA1	1.6.3.4	Flavo-diiron protein FprA1
HIHDFGCL_00655	23.339190000000002			25.50018	26.857210000000002	25.17154	25.03069	24.31576				4	4	2,4798E-16	dRep_bin201_OLKDIBOK_00002;dRep_bin260_HELEPKJL_01692;dRep_bin194_MEPDOGGJ_00071;dRep_bin124_HIHDFGCL_00655;dRep_bin025_CBEJJMLE_00037;dRep_bin181_MKGPMPIA_01164;dRep_bin127_FIPNHBCH_01402;dRep_bin056_EMNHHOJA_01420;dRep_bin026_HNPIIINL_00980;dRep_bin253_CPMOAOBJ_00446;dRep_bin248_CCDFPECI_00832;dRep_bin016_JLGAHGOJ_01875	dRep_bin201_OLKDIBOK_00002;dRep_bin260_HELEPKJL_01692	>dRep_bin201_OLKDIBOK_00002 Intracellular exo-alpha-(1->5)-L-arabinofuranosidase;>dRep_bin260_HELEPKJL_01692 Intracellular exo-alpha-(1->5)-L-arabinofuranosidase	dRep_bin124_HIHDFGCL_00655	CDS	abfA	3.2.1.55	Intracellular exo-alpha-(1->5)-L-arabinofuranosidase
HIHDFGCL_00696								26.72949				2	1	9,0759E-07	dRep_bin293_MEPKGOAN_00097;dRep_bin047_IFFANOMN_00065;dRep_bin269_PNILGKPH_00704;dRep_bin238_OLNFACLE_01472;dRep_bin124_HIHDFGCL_00696;dRep_bin105_AAEIHAFF_01124;dRep_bin079_GAOGCKND_01577;dRep_bin056_EMNHHOJA_01381;dRep_bin321_EJNAAGJG_00783;dRep_bin257_JHFDCHCB_00230;dRep_bin143_PFLDJMPF_01136;dRep_bin340_OFLHNGJM_01032;dRep_bin277_MIPNGEJE_01470;dRep_bin231_CFOLMJBA_00061	dRep_bin293_MEPKGOAN_00097;dRep_bin047_IFFANOMN_00065;dRep_bin269_PNILGKPH_00704;dRep_bin238_OLNFACLE_01472;dRep_bin124_HIHDFGCL_00696;dRep_bin105_AAEIHAFF_01124;dRep_bin079_GAOGCKND_01577;dRep_bin056_EMNHHOJA_01381;dRep_bin321_EJNAAGJG_00783;dRep_bin257_JHFDCHCB_00230;dRep_bin143_PFLDJMPF_01136;dRep_bin340_OFLHNGJM_01032;dRep_bin277_MIPNGEJE_01470;dRep_bin231_CFOLMJBA_00061	>dRep_bin293_MEPKGOAN_00097 30S ribosomal protein S9;>dRep_bin047_IFFANOMN_00065 30S ribosomal protein S9;>dRep_bin269_PNILGKPH_00704 30S ribosomal protein S9;>dRep_bin238_OLNFACLE_01472 30S ribosomal protein S9;>dRep_bin124_HIHDFGCL_00696 30S ribosomal pr	dRep_bin124_HIHDFGCL_00696	CDS	rpsI		30S ribosomal protein S9
HIHDFGCL_00732	23.4279	25.70237	23.973419999999997		25.801370000000002	23.910860000000003	24.2322	24.656820000000003				8	0	7,1323E-23	dRep_bin039_IJNOFOJK_00359;dRep_bin257_JHFDCHCB_02272;dRep_bin024_OLHDGABE_00804;dRep_bin006_HPJGJCAG_00183;dRep_bin323_FBBLPLCG_01753;dRep_bin124_HIHDFGCL_00732;dRep_bin318_IEDEJOFJ_01269	dRep_bin039_IJNOFOJK_00359	>dRep_bin039_IJNOFOJK_00359 Phosphoserine aminotransferase	dRep_bin124_HIHDFGCL_00732	CDS	serC	2.6.1.52	Phosphoserine aminotransferase
HIHDFGCL_00737						25.46488	22.31833					2	1	1,6457E-05	dRep_bin124_HIHDFGCL_00737;dRep_bin152_LJMCIADF_00126;dRep_bin169_PNICKJKO_00346;dRep_bin194_MEPDOGGJ_00957;dRep_bin025_CBEJJMLE_00693;dRep_bin032_PPNIGLME_01057	dRep_bin124_HIHDFGCL_00737;dRep_bin152_LJMCIADF_00126;dRep_bin169_PNICKJKO_00346;dRep_bin194_MEPDOGGJ_00957;dRep_bin025_CBEJJMLE_00693;dRep_bin032_PPNIGLME_01057	>dRep_bin124_HIHDFGCL_00737 Chaperone protein HtpG;>dRep_bin152_LJMCIADF_00126 Chaperone protein HtpG;>dRep_bin169_PNICKJKO_00346 Chaperone protein HtpG;>dRep_bin194_MEPDOGGJ_00957 Chaperone protein HtpG;>dRep_bin025_CBEJJMLE_00693 Chaperone protein HtpG;>	dRep_bin124_HIHDFGCL_00737	CDS	htpG		Chaperone protein HtpG
HIHDFGCL_00867		20.78045										1	1	2,0478E-07	dRep_bin124_HIHDFGCL_00867	dRep_bin124_HIHDFGCL_00867	>dRep_bin124_HIHDFGCL_00867 putative M18 family aminopeptidase 1	dRep_bin124_HIHDFGCL_00867	CDS	apeA	3.4.11.-	putative M18 family aminopeptidase 1
HIHDFGCL_00883							25.442089999999997					7	0	8,3578E-79	dRep_bin087_FCLGAPPI_00618;dRep_bin332_KAOPCDPF_00505;dRep_bin349_AMCJEEEG_00396;dRep_bin124_HIHDFGCL_00883	dRep_bin087_FCLGAPPI_00618;dRep_bin332_KAOPCDPF_00505	>dRep_bin087_FCLGAPPI_00618 Fructose-bisphosphate aldolase;>dRep_bin332_KAOPCDPF_00505 Fructose-bisphosphate aldolase	dRep_bin124_HIHDFGCL_00883	CDS	fba_1	4.1.2.13	Fructose-bisphosphate aldolase
HIHDFGCL_00964						24.113390000000003						2	1	2,5993E-07	dRep_bin240_LDBBGJKG_01001;dRep_bin001_GHHJMDAL_01372;dRep_bin143_PFLDJMPF_00153;dRep_bin024_OLHDGABE_00846;dRep_bin181_MKGPMPIA_00709;dRep_bin077_DNNBMPMC_01859;dRep_bin005_CNDFPKJG_00656;dRep_bin150_HCDEOBMH_01568;dRep_bin135_HHKACLPM_01559;dRep_bin075_EPEMMOCL_02034;dRep_bin091_MAFACGAD_00181;dRep_bin007_LNLEAAAN_01218;dRep_bin282_PKAAPBFP_00655;dRep_bin254_GJDPFAEA_01551;dRep_bin249_OFIIEIDJ_01140;dRep_bin127_FIPNHBCH_01645;dRep_bin347_EKGCMFPD_00098;dRep_bin322_OJELOJOF_01214;dRep_bin310_IMBAFDIF_01594;dRep_bin287_DONBGKDH_00226;dRep_bin284_DEHKNOBF_00726;dRep_bin266_JFOCEDAE_00133;dRep_bin186_HJAAFFNP_01238;dRep_bin145_KMJJJOEJ_00954;dRep_bin115_IFKGOGCL_00554;dRep_bin065_DFABHCBI_01587;dRep_bin248_CCDFPECI_01609;dRep_bin095_HOBNOEEF_01791;dRep_bin160_EFKMPBOM_01116;dRep_bin154_JGOKHKLI_00150;dRep_bin081_JDPCKDNP_01583;dRep_bin336_MPGOKPOL_01589;dRep_bin306_FGHMKMMP_01590;dRep_bin056_EMNHHOJA_00230;dRep_bin309_BIOHLCGG_00694;dRep_bin302_AHDEPDKG_01234;dRep_bin257_JHFDCHCB_02163;dRep_bin147_EJLBNEBE_01266;dRep_bin124_HIHDFGCL_00964;dRep_bin194_MEPDOGGJ_01159;dRep_bin025_CBEJJMLE_01722;dRep_bin293_MEPKGOAN_00673;dRep_bin058_GJKCICJN_00893;dRep_bin074_EHAOMODJ_00750	dRep_bin240_LDBBGJKG_01001;dRep_bin001_GHHJMDAL_01372;dRep_bin143_PFLDJMPF_00153;dRep_bin024_OLHDGABE_00846;dRep_bin181_MKGPMPIA_00709;dRep_bin077_DNNBMPMC_01859;dRep_bin005_CNDFPKJG_00656;dRep_bin150_HCDEOBMH_01568;dRep_bin135_HHKACLPM_01559;dRep_bin075_EPEMMOCL_02034;dRep_bin091_MAFACGAD_00181;dRep_bin007_LNLEAAAN_01218;dRep_bin282_PKAAPBFP_00655;dRep_bin254_GJDPFAEA_01551;dRep_bin249_OFIIEIDJ_01140;dRep_bin127_FIPNHBCH_01645;dRep_bin347_EKGCMFPD_00098;dRep_bin322_OJELOJOF_01214;dRep_bin310_IMBAFDIF_01594;dRep_bin287_DONBGKDH_00226;dRep_bin284_DEHKNOBF_00726;dRep_bin266_JFOCEDAE_00133;dRep_bin186_HJAAFFNP_01238;dRep_bin145_KMJJJOEJ_00954;dRep_bin115_IFKGOGCL_00554;dRep_bin065_DFABHCBI_01587;dRep_bin248_CCDFPECI_01609;dRep_bin095_HOBNOEEF_01791;dRep_bin160_EFKMPBOM_01116;dRep_bin154_JGOKHKLI_00150;dRep_bin081_JDPCKDNP_01583;dRep_bin336_MPGOKPOL_01589;dRep_bin306_FGHMKMMP_01590;dRep_bin056_EMNHHOJA_00230;dRep_bin309_BIOHLCGG_00694;dRep_bin302_AHDEPDKG_01234;dRep_bin257_JHFDCHCB_02163;dRep_bin147_EJLBNEBE_01266;dRep_bin124_HIHDFGCL_00964;dRep_bin194_MEPDOGGJ_01159;dRep_bin025_CBEJJMLE_01722;dRep_bin293_MEPKGOAN_00673;dRep_bin058_GJKCICJN_00893;dRep_bin074_EHAOMODJ_00750	>dRep_bin240_LDBBGJKG_01001 Glutaconyl-CoA decarboxylase subunit beta;>dRep_bin001_GHHJMDAL_01372 Glutaconyl-CoA decarboxylase subunit beta;>dRep_bin143_PFLDJMPF_00153 Glutaconyl-CoA decarboxylase subunit beta;>dRep_bin024_OLHDGABE_00846 Glutaconyl-CoA dec	dRep_bin124_HIHDFGCL_00964	CDS	gcdB_2	4.1.1.70	Glutaconyl-CoA decarboxylase subunit beta
HIHDFGCL_01029			22.586419999999997									9	1	1,3947E-90	dRep_bin094_LBLICAAO_00900;dRep_bin124_HIHDFGCL_01029	dRep_bin094_LBLICAAO_00900	>dRep_bin094_LBLICAAO_00900 Formate acetyltransferase	dRep_bin124_HIHDFGCL_01029	CDS	pflB	2.3.1.54	Formate acetyltransferase
HIHDFGCL_01059	28.62954	29.354750000000003	29.992399999999996	30.023139999999998	30.21083	30.89937	29.70792	30.0531				20	3	1,2194E-156	dRep_bin191_NGFJMLOL_01259;dRep_bin296_FDMPKPOH_00205;dRep_bin210_AGEDAEIA_00766;dRep_bin195_DDMDFNOK_00108;dRep_bin334_NAPFFNLD_01038;dRep_bin211_LGJEFJIK_01419;dRep_bin295_EJGKDKNE_00091;dRep_bin341_NBEGOKEF_00239;dRep_bin020_JCCELPIE_00888;dRep_bin283_NLJJFFAC_01280;dRep_bin274_DBJHKLDG_00956;dRep_bin016_JLGAHGOJ_01458;dRep_bin108_BPNCDINP_01604;dRep_bin008_MNDMJLEI_00335;dRep_bin270_GEJAHNCN_01137;dRep_bin005_CNDFPKJG_01352;dRep_bin060_HNFNENOI_00669;dRep_bin146_LCCIBLJG_00571;dRep_bin326_CEEAIPKF_00877;dRep_bin333_EFOKIBLA_00153;dRep_bin168_HKDILBFE_01558;dRep_bin244_LBFMHLBI_01599;dRep_bin096_GNHMEKPF_00231;dRep_bin237_KJDLIPND_00220;dRep_bin188_EJILNMPE_01240;dRep_bin251_FGNGCJDD_00076;dRep_bin227_IJODGBOI_00103;dRep_bin151_AHBJLMBI_00923;dRep_bin116_CLFDBMOF_00729;dRep_bin141_GMCOOECB_00805;dRep_bin350_EKOOEEGH_00925;dRep_bin132_FAPBDCMG_00754;dRep_bin080_CBEBHNNK_00317;dRep_bin051_HIEIDCID_00971;dRep_bin228_CECEDMJG_00643;dRep_bin009_KMMEHEKA_00811;dRep_bin318_IEDEJOFJ_01292;dRep_bin207_OHNPDPFI_00717;dRep_bin345_GLPJDLOI_00471;dRep_bin144_NPHACCKF_01507;dRep_bin118_FGIOKLBC_00082;dRep_bin355_KJEFNADK_00986;dRep_bin293_MEPKGOAN_00544;dRep_bin230_NINMBMKB_00674;dRep_bin014_CHIHIMAN_00029;dRep_bin218_ACMPALGF_00178;dRep_bin165_HMDFFMMM_01108;dRep_bin094_LBLICAAO_00513;dRep_bin076_GLAOFBEC_01428;dRep_bin267_LJCFMAFA_00110;dRep_bin048_PABMBHAL_00321;dRep_bin147_EJLBNEBE_02032;dRep_bin128_JPBBHEMA_00007;dRep_bin042_MMFCLHOO_01063;dRep_bin351_CKFFBPHM_00913;dRep_bin123_PJKBFKBB_00095;dRep_bin330_CODAKHDJ_00708;dRep_bin252_NDAKLAGD_01294;dRep_bin233_BAGKKAOB_01574;dRep_bin217_MJCEAEPB_00244;dRep_bin110_JGOEJECF_00272;dRep_bin109_MJABCPAK_00670;dRep_bin101_BNDDLDCL_01055;dRep_bin092_OOJCPDEA_00344;dRep_bin074_EHAOMODJ_00824;dRep_bin336_MPGOKPOL_02107;dRep_bin290_OIOJKBNK_01058;dRep_bin264_DNFFGNEG_00269;dRep_bin256_KEMNAOBC_01330;dRep_bin246_MMFBABHK_01553;dRep_bin166_DFIAJFEC_00041;dRep_bin153_JGABJFBF_00098;dRep_bin143_PFLDJMPF_00060;dRep_bin106_BKDHGPBE_01156;dRep_bin071_JHMCIJPE_01039;dRep_bin250_NMCAMJIO_00472;dRep_bin312_MJFEFHMP_01194;dRep_bin194_MEPDOGGJ_00657;dRep_bin129_GADIAMAA_01832;dRep_bin061_ONFGDLGO_01341;dRep_bin030_OGPDLGOC_01109;dRep_bin025_CBEJJMLE_00255;dRep_bin223_PIMCDKJI_01311;dRep_bin204_INMOGLDN_00399;dRep_bin202_HEPPALPH_00661;dRep_bin105_AAEIHAFF_01590;dRep_bin056_EMNHHOJA_01586;dRep_bin174_LJJOKEME_01552;dRep_bin057_BNCFHBBO_00981;dRep_bin348_LCLFDNEE_01410;dRep_bin339_DBNBAHDK_00024;dRep_bin321_EJNAAGJG_00897;dRep_bin273_FGAEBHNP_01096;dRep_bin248_CCDFPECI_01765;dRep_bin124_HIHDFGCL_01059;dRep_bin068_ENOLAELK_01049;dRep_bin038_EIGFILKG_00020;dRep_bin276_EHNFLEBP_00417;dRep_bin152_LJMCIADF_00769;dRep_bin115_IFKGOGCL_00005;dRep_bin099_DNDAGJEJ_00435;dRep_bin085_MBHLGCDB_01722;dRep_bin079_GAOGCKND_00892;dRep_bin026_HNPIIINL_00985;dRep_bin353_PPDHLNJB_01438;dRep_bin319_PBDBJGCJ_01331;dRep_bin291_EILOACJB_00194;dRep_bin241_LMMMGDNI_00361;dRep_bin091_MAFACGAD_00751;dRep_bin303_DDDNDJCF_01255;dRep_bin216_JNJMCPHB_01481;dRep_bin184_MBMMJHKO_01167;dRep_bin161_JMKPMHCO_00103;dRep_bin021_AJDDCGJC_01597;dRep_bin095_HOBNOEEF_00033;dRep_bin059_OOBKFNPP_00633;dRep_bin018_ILOONPIC_00093;dRep_bin306_FGHMKMMP_00476;dRep_bin175_HANCENAK_00082;dRep_bin040_EIFLLDOA_01832;dRep_bin166_DFIAJFEC_00288;dRep_bin085_MBHLGCDB_01583	dRep_bin191_NGFJMLOL_01259	>dRep_bin191_NGFJMLOL_01259 Aspartate--tRNA ligase	dRep_bin124_HIHDFGCL_01059	CDS	aspS_1	6.1.1.12	Aspartate--tRNA ligase
HIHDFGCL_01069						22.306860000000004						3	1	6,3831E-08	dRep_bin041_OPKGAAAG_00367;dRep_bin284_DEHKNOBF_00254;dRep_bin319_PBDBJGCJ_00655;dRep_bin203_CLFNNOCF_01297;dRep_bin181_MKGPMPIA_00407;dRep_bin179_HFEIPPPA_00842;dRep_bin139_KGAJINND_00918;dRep_bin133_NOBPDBPA_02473;dRep_bin066_AJACLPEE_00004;dRep_bin194_MEPDOGGJ_00508;dRep_bin152_LJMCIADF_01431;dRep_bin068_ENOLAELK_01095;dRep_bin038_EIGFILKG_01028;dRep_bin025_CBEJJMLE_01384;dRep_bin324_IPNHOHFK_01934;dRep_bin023_HGFJFKAI_01643;dRep_bin209_NKIHFCEN_00957;dRep_bin157_JPNIKEKI_01504;dRep_bin297_EDHEEICA_00667;dRep_bin226_NLNLHLLD_00265;dRep_bin306_FGHMKMMP_01756;dRep_bin005_CNDFPKJG_00040;dRep_bin158_OGFICEAP_01238;dRep_bin303_DDDNDJCF_00102;dRep_bin299_AKNBKJGM_01304;dRep_bin248_CCDFPECI_01165;dRep_bin145_KMJJJOEJ_00716;dRep_bin095_HOBNOEEF_01829;dRep_bin081_JDPCKDNP_01870;dRep_bin053_OMGNPOOB_00265;dRep_bin310_IMBAFDIF_00723;dRep_bin077_DNNBMPMC_01957;dRep_bin201_OLKDIBOK_00147;dRep_bin124_HIHDFGCL_01069;dRep_bin079_GAOGCKND_00667;dRep_bin107_EFNBPDOP_00920	dRep_bin041_OPKGAAAG_00367;dRep_bin284_DEHKNOBF_00254;dRep_bin319_PBDBJGCJ_00655;dRep_bin203_CLFNNOCF_01297;dRep_bin181_MKGPMPIA_00407;dRep_bin179_HFEIPPPA_00842;dRep_bin139_KGAJINND_00918;dRep_bin133_NOBPDBPA_02473;dRep_bin066_AJACLPEE_00004;dRep_bin194_MEPDOGGJ_00508;dRep_bin152_LJMCIADF_01431;dRep_bin068_ENOLAELK_01095;dRep_bin038_EIGFILKG_01028;dRep_bin025_CBEJJMLE_01384;dRep_bin324_IPNHOHFK_01934;dRep_bin023_HGFJFKAI_01643;dRep_bin209_NKIHFCEN_00957;dRep_bin157_JPNIKEKI_01504;dRep_bin297_EDHEEICA_00667;dRep_bin226_NLNLHLLD_00265;dRep_bin306_FGHMKMMP_01756;dRep_bin005_CNDFPKJG_00040	>dRep_bin041_OPKGAAAG_00367 Nicotinate-nucleotide pyrophosphorylase [carboxylating];>dRep_bin284_DEHKNOBF_00254 Nicotinate-nucleotide pyrophosphorylase [carboxylating];>dRep_bin319_PBDBJGCJ_00655 putative nicotinate-nucleotide pyrophosphorylase [carboxylat	dRep_bin124_HIHDFGCL_01069	CDS	nadC	2.4.2.19	putative nicotinate-nucleotide pyrophosphorylase [carboxylating]
HIHDFGCL_01104	26.716990000000003											6	2	3,2469E-36	dRep_bin124_HIHDFGCL_01104;dRep_bin056_EMNHHOJA_00185	dRep_bin124_HIHDFGCL_01104;dRep_bin056_EMNHHOJA_00185	>dRep_bin124_HIHDFGCL_01104 NAD-specific glutamate dehydrogenase;>dRep_bin056_EMNHHOJA_00185 NAD-specific glutamate dehydrogenase	dRep_bin124_HIHDFGCL_01104	CDS	gdh_1	1.4.1.2	NAD-specific glutamate dehydrogenase
HIHDFGCL_01183					23.534100000000002	22.225089999999998		22.685689999999997				2	1	4,4559E-06	dRep_bin238_OLNFACLE_00398;dRep_bin057_BNCFHBBO_01480;dRep_bin166_DFIAJFEC_01273;dRep_bin335_JIOGNAPG_00083;dRep_bin085_MBHLGCDB_00001;dRep_bin100_CODMOHGB_00507;dRep_bin293_MEPKGOAN_01486;dRep_bin216_JNJMCPHB_00814;dRep_bin052_PGOOKKFH_01423;dRep_bin207_OHNPDPFI_00321;dRep_bin151_AHBJLMBI_01464;dRep_bin117_PMEMANMD_00592;dRep_bin009_KMMEHEKA_00219;dRep_bin259_IFIOODLK_02073;dRep_bin102_ICFDHPGB_00079;dRep_bin003_GOBBLOGO_00201;dRep_bin021_AJDDCGJC_00106;dRep_bin247_EKGBJCBM_00561;dRep_bin049_MNFBDPNO_01629;dRep_bin213_HHHELMFN_00639;dRep_bin265_LFKFBJPC_01443;dRep_bin109_MJABCPAK_01407;dRep_bin257_JHFDCHCB_01026;dRep_bin032_PPNIGLME_00869;dRep_bin079_GAOGCKND_01412;dRep_bin068_ENOLAELK_01548;dRep_bin025_CBEJJMLE_00266;dRep_bin152_LJMCIADF_01534;dRep_bin124_HIHDFGCL_01183;dRep_bin194_MEPDOGGJ_00641;dRep_bin339_DBNBAHDK_01337;dRep_bin283_NLJJFFAC_00380	dRep_bin238_OLNFACLE_00398;dRep_bin057_BNCFHBBO_01480;dRep_bin166_DFIAJFEC_01273;dRep_bin335_JIOGNAPG_00083;dRep_bin085_MBHLGCDB_00001;dRep_bin100_CODMOHGB_00507;dRep_bin293_MEPKGOAN_01486;dRep_bin216_JNJMCPHB_00814;dRep_bin052_PGOOKKFH_01423;dRep_bin207_OHNPDPFI_00321;dRep_bin151_AHBJLMBI_01464;dRep_bin117_PMEMANMD_00592;dRep_bin009_KMMEHEKA_00219;dRep_bin259_IFIOODLK_02073;dRep_bin102_ICFDHPGB_00079;dRep_bin003_GOBBLOGO_00201;dRep_bin021_AJDDCGJC_00106;dRep_bin247_EKGBJCBM_00561;dRep_bin049_MNFBDPNO_01629;dRep_bin213_HHHELMFN_00639;dRep_bin265_LFKFBJPC_01443;dRep_bin109_MJABCPAK_01407;dRep_bin257_JHFDCHCB_01026;dRep_bin032_PPNIGLME_00869;dRep_bin079_GAOGCKND_01412;dRep_bin068_ENOLAELK_01548;dRep_bin025_CBEJJMLE_00266;dRep_bin152_LJMCIADF_01534;dRep_bin124_HIHDFGCL_01183;dRep_bin194_MEPDOGGJ_00641;dRep_bin339_DBNBAHDK_01337;dRep_bin283_NLJJFFAC_00380	>dRep_bin238_OLNFACLE_00398 Lysine--tRNA ligase;>dRep_bin057_BNCFHBBO_01480 Lysine--tRNA ligase;>dRep_bin166_DFIAJFEC_01273 Lysine--tRNA ligase;>dRep_bin335_JIOGNAPG_00083 Lysine--tRNA ligase;>dRep_bin085_MBHLGCDB_00001 Lysine--tRNA ligase;>dRep_bin100_COD	dRep_bin124_HIHDFGCL_01183	CDS	lysS	6.1.1.6	Lysine--tRNA ligase
HIHDFGCL_01196					22.57907		22.697060000000004	23.4742				1	1	0,00017219	dRep_bin124_HIHDFGCL_01196	dRep_bin124_HIHDFGCL_01196	>dRep_bin124_HIHDFGCL_01196 Oleate hydratase	dRep_bin124_HIHDFGCL_01196	CDS	sph	4.2.1.53	Oleate hydratase
HIHDFGCL_01205	25.41429	26.21804	25.321820000000002	26.78992	25.7932	26.41227	24.62762	25.451860000000003				6	4	2,3896E-89	dRep_bin272_LGBDGEIM_00183;dRep_bin124_HIHDFGCL_01205;dRep_bin336_MPGOKPOL_02304;dRep_bin194_MEPDOGGJ_00982;dRep_bin147_EJLBNEBE_00222;dRep_bin025_CBEJJMLE_00718;dRep_bin079_GAOGCKND_01339;dRep_bin068_ENOLAELK_00487;dRep_bin038_EIGFILKG_01086;dRep_bin032_PPNIGLME_00387;dRep_bin026_HNPIIINL_01435;dRep_bin100_CODMOHGB_01146;dRep_bin056_EMNHHOJA_00876;dRep_bin317_ABPHNCOD_00566;dRep_bin097_CBBLIPAN_00610	dRep_bin272_LGBDGEIM_00183	>dRep_bin272_LGBDGEIM_00183 Ornithine carbamoyltransferase	dRep_bin124_HIHDFGCL_01205	CDS	argF	2.1.3.3	Ornithine carbamoyltransferase
HIHDFGCL_01237					26.025489999999998	25.30952	24.82939	26.34147				6	6	7,7787E-62	dRep_bin048_PABMBHAL_01893;dRep_bin124_HIHDFGCL_01237;dRep_bin303_DDDNDJCF_00569;dRep_bin292_JIBLDOOH_02065;dRep_bin260_HELEPKJL_02000;dRep_bin160_EFKMPBOM_00903;dRep_bin007_LNLEAAAN_00317;dRep_bin325_EIIGOGHN_00731;dRep_bin201_OLKDIBOK_00331;dRep_bin167_BLMEBMNN_01052;dRep_bin268_LKMHIMLG_00660;dRep_bin069_EGGEOGDC_01019;dRep_bin344_CJJBDGAA_00578	dRep_bin048_PABMBHAL_01893	>dRep_bin048_PABMBHAL_01893 Choloylglycine hydrolase	dRep_bin124_HIHDFGCL_01237	CDS	cbh	3.5.1.24	Choloylglycine hydrolase
HIHDFGCL_01240		24.53629	25.0059									2	1	0,00019779	dRep_bin023_HGFJFKAI_01250;dRep_bin099_DNDAGJEJ_01283;dRep_bin248_CCDFPECI_01188;dRep_bin145_KMJJJOEJ_01627;dRep_bin220_PILICLLL_00379;dRep_bin303_DDDNDJCF_01527;dRep_bin254_GJDPFAEA_00295;dRep_bin211_LGJEFJIK_00752;dRep_bin124_HIHDFGCL_01240;dRep_bin091_MAFACGAD_00828;dRep_bin168_HKDILBFE_00712;dRep_bin088_DNGPPFDK_00057;dRep_bin300_MJPPENNL_00870;dRep_bin203_CLFNNOCF_01251;dRep_bin069_EGGEOGDC_00393;dRep_bin344_CJJBDGAA_01938;dRep_bin328_GIGKNKPJ_00733;dRep_bin249_OFIIEIDJ_00615;dRep_bin127_FIPNHBCH_01426;dRep_bin065_DFABHCBI_01328;dRep_bin056_EMNHHOJA_00171;dRep_bin016_JLGAHGOJ_00622;dRep_bin152_LJMCIADF_01306;dRep_bin095_HOBNOEEF_00399;dRep_bin079_GAOGCKND_00062;dRep_bin068_ENOLAELK_00735;dRep_bin026_HNPIIINL_00729;dRep_bin081_JDPCKDNP_00247;dRep_bin201_OLKDIBOK_01233;dRep_bin297_EDHEEICA_00257;dRep_bin308_JBPDGLPP_00521	dRep_bin023_HGFJFKAI_01250;dRep_bin099_DNDAGJEJ_01283;dRep_bin248_CCDFPECI_01188;dRep_bin145_KMJJJOEJ_01627;dRep_bin220_PILICLLL_00379;dRep_bin303_DDDNDJCF_01527;dRep_bin254_GJDPFAEA_00295;dRep_bin211_LGJEFJIK_00752;dRep_bin124_HIHDFGCL_01240;dRep_bin091_MAFACGAD_00828;dRep_bin168_HKDILBFE_00712;dRep_bin088_DNGPPFDK_00057;dRep_bin300_MJPPENNL_00870;dRep_bin203_CLFNNOCF_01251;dRep_bin069_EGGEOGDC_00393;dRep_bin344_CJJBDGAA_01938;dRep_bin328_GIGKNKPJ_00733;dRep_bin249_OFIIEIDJ_00615;dRep_bin127_FIPNHBCH_01426;dRep_bin065_DFABHCBI_01328;dRep_bin056_EMNHHOJA_00171;dRep_bin016_JLGAHGOJ_00622;dRep_bin152_LJMCIADF_01306;dRep_bin095_HOBNOEEF_00399;dRep_bin079_GAOGCKND_00062;dRep_bin068_ENOLAELK_00735;dRep_bin026_HNPIIINL_00729;dRep_bin081_JDPCKDNP_00247;dRep_bin201_OLKDIBOK_01233;dRep_bin297_EDHEEICA_00257;dRep_bin308_JBPDGLPP_00521	>dRep_bin023_HGFJFKAI_01250 Diaminopimelate decarboxylase;>dRep_bin099_DNDAGJEJ_01283 Diaminopimelate decarboxylase;>dRep_bin248_CCDFPECI_01188 Diaminopimelate decarboxylase;>dRep_bin145_KMJJJOEJ_01627 Diaminopimelate decarboxylase;>dRep_bin220_PILICLLL_00	dRep_bin124_HIHDFGCL_01240	CDS	lysA	4.1.1.20	Diaminopimelate decarboxylase
HIHDFGCL_01271	25.80075	25.68779	26.6702	26.31724	24.611270000000005	24.348950000000002	25.425789999999996	24.824450000000002				6	1	3,3881E-44	dRep_bin081_JDPCKDNP_02240;dRep_bin023_HGFJFKAI_01254;dRep_bin154_JGOKHKLI_02183;dRep_bin024_OLHDGABE_00597;dRep_bin124_HIHDFGCL_01271;dRep_bin006_HPJGJCAG_01436;dRep_bin333_EFOKIBLA_01177	dRep_bin081_JDPCKDNP_02240;dRep_bin023_HGFJFKAI_01254;dRep_bin154_JGOKHKLI_02183	>dRep_bin081_JDPCKDNP_02240 IMP cyclohydrolase-like protein;>dRep_bin023_HGFJFKAI_01254 IMP cyclohydrolase-like protein;>dRep_bin154_JGOKHKLI_02183 IMP cyclohydrolase-like protein	dRep_bin124_HIHDFGCL_01271	CDS			IMP cyclohydrolase-like protein
HIHDFGCL_01283								24.445939999999997				3	1	1,2536E-20	dRep_bin193_GDMDPNNM_01335;dRep_bin194_MEPDOGGJ_00909;dRep_bin152_LJMCIADF_01136;dRep_bin124_HIHDFGCL_01283;dRep_bin101_BNDDLDCL_01786;dRep_bin079_GAOGCKND_00249;dRep_bin068_ENOLAELK_01480;dRep_bin038_EIGFILKG_00281;dRep_bin025_CBEJJMLE_00745;dRep_bin286_OEMIJKMC_00443;dRep_bin231_CFOLMJBA_00984;dRep_bin172_ALNHGLMD_00252;dRep_bin142_NDNPJBEM_00885;dRep_bin126_PPDNCIBN_01642;dRep_bin090_IPGNHCBJ_00359;dRep_bin321_EJNAAGJG_00108;dRep_bin273_FGAEBHNP_01040;dRep_bin323_FBBLPLCG_00442;dRep_bin309_BIOHLCGG_00720;dRep_bin268_LKMHIMLG_00991;dRep_bin166_DFIAJFEC_01338;dRep_bin143_PFLDJMPF_01113;dRep_bin108_BPNCDINP_00985;dRep_bin056_EMNHHOJA_01394;dRep_bin026_HNPIIINL_00248;dRep_bin006_HPJGJCAG_00021;dRep_bin340_OFLHNGJM_01045;dRep_bin270_GEJAHNCN_00054;dRep_bin182_EMCFODCD_00202;dRep_bin044_IPFKHAEF_00804;dRep_bin354_MMOALAFN_00312;dRep_bin253_CPMOAOBJ_00594;dRep_bin074_EHAOMODJ_00802;dRep_bin049_MNFBDPNO_00646;dRep_bin257_JHFDCHCB_00163;dRep_bin336_MPGOKPOL_00030;dRep_bin169_PNICKJKO_01093;dRep_bin147_EJLBNEBE_00336;dRep_bin123_PJKBFKBB_00356;dRep_bin032_PPNIGLME_01273;dRep_bin293_MEPKGOAN_00625	dRep_bin193_GDMDPNNM_01335;dRep_bin194_MEPDOGGJ_00909;dRep_bin152_LJMCIADF_01136;dRep_bin124_HIHDFGCL_01283;dRep_bin101_BNDDLDCL_01786;dRep_bin079_GAOGCKND_00249;dRep_bin068_ENOLAELK_01480;dRep_bin038_EIGFILKG_00281;dRep_bin025_CBEJJMLE_00745;dRep_bin286_OEMIJKMC_00443;dRep_bin231_CFOLMJBA_00984;dRep_bin172_ALNHGLMD_00252;dRep_bin142_NDNPJBEM_00885;dRep_bin126_PPDNCIBN_01642;dRep_bin090_IPGNHCBJ_00359	>dRep_bin193_GDMDPNNM_01335 HPr-like protein Crh;>dRep_bin194_MEPDOGGJ_00909 HPr-like protein Crh;>dRep_bin152_LJMCIADF_01136 HPr-like protein Crh;>dRep_bin124_HIHDFGCL_01283 HPr-like protein Crh;>dRep_bin101_BNDDLDCL_01786 HPr-like protein Crh;>dRep_bin07	dRep_bin124_HIHDFGCL_01283	CDS	crh		HPr-like protein Crh
HIHDFGCL_01294						21.895039999999998						4	1	1,8977E-17	dRep_bin124_HIHDFGCL_01294	dRep_bin124_HIHDFGCL_01294	>dRep_bin124_HIHDFGCL_01294 Ketol-acid reductoisomerase (NADP(+))	dRep_bin124_HIHDFGCL_01294	CDS	ilvC	1.1.1.86	Ketol-acid reductoisomerase (NADP(+))
HIHDFGCL_01297	25.782789999999995	25.67543	26.564519999999998	25.965609999999995	26.32351	26.15524	25.40526	26.350920000000002				7	4	1,1794E-42	dRep_bin125_FADLGGII_00938;dRep_bin238_OLNFACLE_00468;dRep_bin348_LCLFDNEE_00739;dRep_bin057_BNCFHBBO_00208;dRep_bin302_AHDEPDKG_00144;dRep_bin336_MPGOKPOL_02198;dRep_bin194_MEPDOGGJ_00405;dRep_bin152_LJMCIADF_00185;dRep_bin124_HIHDFGCL_01297;dRep_bin079_GAOGCKND_00592;dRep_bin068_ENOLAELK_01460;dRep_bin025_CBEJJMLE_00779;dRep_bin032_PPNIGLME_00124;dRep_bin257_JHFDCHCB_00867;dRep_bin123_PJKBFKBB_00827	dRep_bin125_FADLGGII_00938;dRep_bin238_OLNFACLE_00468;dRep_bin348_LCLFDNEE_00739;dRep_bin057_BNCFHBBO_00208	>dRep_bin125_FADLGGII_00938 DNA-directed RNA polymerase subunit alpha;>dRep_bin238_OLNFACLE_00468 DNA-directed RNA polymerase subunit alpha;>dRep_bin348_LCLFDNEE_00739 DNA-directed RNA polymerase subunit alpha;>dRep_bin057_BNCFHBBO_00208 DNA-directed RNA p	dRep_bin124_HIHDFGCL_01297	CDS	rpoA	2.7.7.6	DNA-directed RNA polymerase subunit alpha
HIHDFGCL_01300								23.49826				6	1	4,9058E-104	dRep_bin095_HOBNOEEF_02007;dRep_bin297_EDHEEICA_00996;dRep_bin287_DONBGKDH_00529;dRep_bin203_CLFNNOCF_02530;dRep_bin145_KMJJJOEJ_00745;dRep_bin328_GIGKNKPJ_01323;dRep_bin308_JBPDGLPP_01130;dRep_bin306_FGHMKMMP_00318;dRep_bin282_PKAAPBFP_00465;dRep_bin211_LGJEFJIK_00345;dRep_bin139_KGAJINND_00945;dRep_bin127_FIPNHBCH_00052;dRep_bin095_HOBNOEEF_01888;dRep_bin095_HOBNOEEF_01790;dRep_bin091_MAFACGAD_01162;dRep_bin088_DNGPPFDK_00714;dRep_bin075_EPEMMOCL_00488;dRep_bin134_HIAPAODO_00290;dRep_bin160_EFKMPBOM_01967;dRep_bin154_JGOKHKLI_00778;dRep_bin016_JLGAHGOJ_00450;dRep_bin221_LMGNIMOJ_00494;dRep_bin262_LLCGOPIE_00946;dRep_bin321_EJNAAGJG_00981;dRep_bin310_IMBAFDIF_00300;dRep_bin250_NMCAMJIO_00649;dRep_bin247_EKGBJCBM_00054;dRep_bin143_PFLDJMPF_00817;dRep_bin124_HIHDFGCL_01300;dRep_bin114_FJHJKHGL_01242;dRep_bin105_AAEIHAFF_01720;dRep_bin074_EHAOMODJ_01300;dRep_bin026_HNPIIINL_00948;dRep_bin177_HLHGKLFL_00479;dRep_bin146_LCCIBLJG_00787;dRep_bin005_CNDFPKJG_00738;dRep_bin325_EIIGOGHN_00065;dRep_bin303_DDDNDJCF_01078;dRep_bin266_JFOCEDAE_00989;dRep_bin181_MKGPMPIA_00365;dRep_bin089_PAJFOJBN_02097;dRep_bin047_IFFANOMN_00393;dRep_bin024_OLHDGABE_01301;dRep_bin023_HGFJFKAI_01284;dRep_bin017_FGFLFOPJ_00125;dRep_bin081_JDPCKDNP_01256;dRep_bin065_DFABHCBI_01254;dRep_bin001_GHHJMDAL_01184	dRep_bin095_HOBNOEEF_02007;dRep_bin297_EDHEEICA_00996;dRep_bin287_DONBGKDH_00529;dRep_bin203_CLFNNOCF_02530;dRep_bin145_KMJJJOEJ_00745;dRep_bin328_GIGKNKPJ_01323;dRep_bin308_JBPDGLPP_01130;dRep_bin306_FGHMKMMP_00318;dRep_bin282_PKAAPBFP_00465;dRep_bin211_LGJEFJIK_00345;dRep_bin139_KGAJINND_00945;dRep_bin127_FIPNHBCH_00052;dRep_bin095_HOBNOEEF_01888;dRep_bin095_HOBNOEEF_01790;dRep_bin091_MAFACGAD_01162;dRep_bin088_DNGPPFDK_00714;dRep_bin075_EPEMMOCL_00488;dRep_bin134_HIAPAODO_00290;dRep_bin160_EFKMPBOM_01967;dRep_bin154_JGOKHKLI_00778;dRep_bin016_JLGAHGOJ_00450;dRep_bin221_LMGNIMOJ_00494	>dRep_bin095_HOBNOEEF_02007 30S ribosomal protein S13;>dRep_bin297_EDHEEICA_00996 30S ribosomal protein S13;>dRep_bin287_DONBGKDH_00529 30S ribosomal protein S13;>dRep_bin203_CLFNNOCF_02530 30S ribosomal protein S13;>dRep_bin145_KMJJJOEJ_00745 30S ribosoma	dRep_bin124_HIHDFGCL_01300	CDS	rpsM		30S ribosomal protein S13
HIHDFGCL_01375	27.25007	27.676000000000002	27.39926	26.66479								12	1	4,4194E-208	dRep_bin124_HIHDFGCL_01375;dRep_bin079_GAOGCKND_01271	dRep_bin124_HIHDFGCL_01375;dRep_bin079_GAOGCKND_01271	>dRep_bin124_HIHDFGCL_01375 GGGtGRT protein;>dRep_bin079_GAOGCKND_01271 GGGtGRT protein	dRep_bin124_HIHDFGCL_01375	CDS			GGGtGRT protein
HIHDFGCL_01376	25.59069	24.491729999999997		24.667850000000005								3	1	1,3204E-63	dRep_bin124_HIHDFGCL_01376	dRep_bin124_HIHDFGCL_01376	>dRep_bin124_HIHDFGCL_01376 hypothetical protein	dRep_bin124_HIHDFGCL_01376	CDS			hypothetical protein
HIHDFGCL_01631					25.158							3	3	1,2414E-07	dRep_bin201_OLKDIBOK_00577;dRep_bin115_IFKGOGCL_02473;dRep_bin247_EKGBJCBM_01258;dRep_bin161_JMKPMHCO_00071;dRep_bin250_NMCAMJIO_00285;dRep_bin124_HIHDFGCL_01631;dRep_bin154_JGOKHKLI_01454;dRep_bin146_LCCIBLJG_00619;dRep_bin106_BKDHGPBE_00808;dRep_bin106_BKDHGPBE_00753;dRep_bin344_CJJBDGAA_01388;dRep_bin325_EIIGOGHN_00333;dRep_bin260_HELEPKJL_00743;dRep_bin220_PILICLLL_01598;dRep_bin145_KMJJJOEJ_00848;dRep_bin139_KGAJINND_00377;dRep_bin115_IFKGOGCL_01096;dRep_bin095_HOBNOEEF_01156;dRep_bin081_JDPCKDNP_01298;dRep_bin047_IFFANOMN_00086;dRep_bin016_JLGAHGOJ_00176;dRep_bin322_OJELOJOF_00203;dRep_bin234_ECABPBME_02273;dRep_bin075_EPEMMOCL_00967;dRep_bin005_CNDFPKJG_01245;dRep_bin310_IMBAFDIF_01047;dRep_bin287_DONBGKDH_00172;dRep_bin089_PAJFOJBN_01160;dRep_bin158_OGFICEAP_00810	dRep_bin201_OLKDIBOK_00577	>dRep_bin201_OLKDIBOK_00577 S-adenosylmethionine synthase	dRep_bin124_HIHDFGCL_01631	CDS	metK	2.5.1.6	S-adenosylmethionine synthase
HIHDFGCL_01646	26.43138	25.78905	25.7543	25.566709999999997								9	0	5,0511E-151	dRep_bin232_JGAEDAFA_01543;dRep_bin035_JBNPBOKG_00969;dRep_bin124_HIHDFGCL_01646;dRep_bin302_AHDEPDKG_00813	dRep_bin232_JGAEDAFA_01543	>dRep_bin232_JGAEDAFA_01543 Triosephosphate isomerase	dRep_bin124_HIHDFGCL_01646	CDS	tpiA	5.3.1.1	Triosephosphate isomerase
HIHDFGCL_01652					28.771970000000003	28.90423	28.8059	29.3735				6	6	1,2673E-12	dRep_bin124_HIHDFGCL_01652	dRep_bin124_HIHDFGCL_01652	>dRep_bin124_HIHDFGCL_01652 hypothetical protein	dRep_bin124_HIHDFGCL_01652	CDS			hypothetical protein
