GBprotID	LFQ intensity CtrPig1	LFQ intensity CtrPig2	LFQ intensity CtrPig3	LFQ intensity CtrPig4	LFQ intensity MannanPig1	LFQ intensity MannanPig2	LFQ intensity MannanPig3	LFQ intensity MannanPig4	Only identified by site	Reverse	Contaminant	Peptides	Unique peptides	PEP	Protein IDs	Majority protein IDs	Fasta headers	IDcomb	ftype	gene	EC_number	product
ACFAKGIL_00018	26.77881	26.55891	25.36001	24.81602								4	0	2,2233E-23	dRep_bin140_ACFAKGIL_00018	dRep_bin140_ACFAKGIL_00018	>dRep_bin140_ACFAKGIL_00018 NADP-specific glutamate dehydrogenase	dRep_bin140_ACFAKGIL_00018	CDS	gdh	1.4.1.4	NADP-specific glutamate dehydrogenase
ACFAKGIL_00086	24.79793	26.83846	25.03217									4	0	1,5719E-13	dRep_bin318_IEDEJOFJ_01240;dRep_bin101_BNDDLDCL_00756;dRep_bin303_DDDNDJCF_01356;dRep_bin140_ACFAKGIL_00086;dRep_bin169_PNICKJKO_00153	dRep_bin318_IEDEJOFJ_01240;dRep_bin101_BNDDLDCL_00756;dRep_bin303_DDDNDJCF_01356	>dRep_bin318_IEDEJOFJ_01240 Putative diflavin flavoprotein A 3;>dRep_bin101_BNDDLDCL_00756 Flavo-diiron protein FprA1;>dRep_bin303_DDDNDJCF_01356 Nitric oxide reductase	dRep_bin140_ACFAKGIL_00086	CDS			Flavodoxin domain protein
ACFAKGIL_00119		25.25472										2	2	0,0015256	dRep_bin325_EIIGOGHN_00643;dRep_bin224_NFENHJGB_00524;dRep_bin107_EFNBPDOP_00730;dRep_bin077_DNNBMPMC_01445;dRep_bin282_PKAAPBFP_00946;dRep_bin293_MEPKGOAN_01040;dRep_bin066_AJACLPEE_01013;dRep_bin023_HGFJFKAI_00926;dRep_bin319_PBDBJGCJ_00614;dRep_bin041_OPKGAAAG_00710;dRep_bin106_BKDHGPBE_00334;dRep_bin335_JIOGNAPG_00933;dRep_bin089_PAJFOJBN_01195;dRep_bin008_MNDMJLEI_00243;dRep_bin177_HLHGKLFL_00188;dRep_bin250_NMCAMJIO_01007;dRep_bin140_ACFAKGIL_00119	dRep_bin325_EIIGOGHN_00643;dRep_bin224_NFENHJGB_00524;dRep_bin107_EFNBPDOP_00730;dRep_bin077_DNNBMPMC_01445;dRep_bin282_PKAAPBFP_00946;dRep_bin293_MEPKGOAN_01040;dRep_bin066_AJACLPEE_01013;dRep_bin023_HGFJFKAI_00926;dRep_bin319_PBDBJGCJ_00614;dRep_bin041_OPKGAAAG_00710;dRep_bin106_BKDHGPBE_00334;dRep_bin335_JIOGNAPG_00933;dRep_bin089_PAJFOJBN_01195;dRep_bin008_MNDMJLEI_00243;dRep_bin177_HLHGKLFL_00188;dRep_bin250_NMCAMJIO_01007;dRep_bin140_ACFAKGIL_00119	>dRep_bin325_EIIGOGHN_00643 Pantothenate synthetase;>dRep_bin224_NFENHJGB_00524 Pantothenate synthetase;>dRep_bin107_EFNBPDOP_00730 Pantothenate synthetase;>dRep_bin077_DNNBMPMC_01445 Pantothenate synthetase;>dRep_bin282_PKAAPBFP_00946 Pantothenate synthet	dRep_bin140_ACFAKGIL_00119	CDS	panC	6.3.2.1	Pantothenate synthetase
ACFAKGIL_00158	30.806860000000004	28.64227	31.13369	28.375880000000002	27.5932	30.17343	28.278039999999997	28.29728				27	12	0	dRep_bin228_CECEDMJG_00958;dRep_bin258_DAMEHFEK_00510;dRep_bin311_NPLECLAD_00160;dRep_bin163_EBDOGNGI_00465;dRep_bin213_HHHELMFN_00873;dRep_bin155_CLHNKEHA_00585;dRep_bin009_KMMEHEKA_00837;dRep_bin096_GNHMEKPF_00461;dRep_bin229_FFOBPPJI_01697;dRep_bin326_CEEAIPKF_00109;dRep_bin033_DLABHNFE_00658;dRep_bin012_KEBBILMO_01023;dRep_bin080_CBEBHNNK_00581;dRep_bin188_EJILNMPE_00518;dRep_bin251_FGNGCJDD_01001;dRep_bin237_KJDLIPND_00177;dRep_bin177_HLHGKLFL_01362;dRep_bin140_ACFAKGIL_00158;dRep_bin040_EIFLLDOA_00777	dRep_bin228_CECEDMJG_00958	>dRep_bin228_CECEDMJG_00958 Chaperone protein DnaK	dRep_bin140_ACFAKGIL_00158	CDS	dnaK2		Chaperone protein dnaK2
ACFAKGIL_00161	25.929329999999997	25.80334	28.56587	25.608739999999997	28.330830000000002	28.851180000000003	29.565199999999997	28.06394				23	21	2,0039E-260	dRep_bin053_OMGNPOOB_01278;dRep_bin302_AHDEPDKG_00299;dRep_bin238_OLNFACLE_00618;dRep_bin125_FADLGGII_00735;dRep_bin097_CBBLIPAN_01892;dRep_bin134_HIAPAODO_01198;dRep_bin261_FJICAFFM_00295;dRep_bin282_PKAAPBFP_01577;dRep_bin074_EHAOMODJ_00946;dRep_bin347_EKGCMFPD_01776;dRep_bin127_FIPNHBCH_01523;dRep_bin075_EPEMMOCL_00770;dRep_bin201_OLKDIBOK_02470;dRep_bin323_FBBLPLCG_00116;dRep_bin242_LKAIBGGJ_01298;dRep_bin029_LFMGBBEC_01403;dRep_bin250_NMCAMJIO_00064;dRep_bin049_MNFBDPNO_00772;dRep_bin309_BIOHLCGG_00465;dRep_bin193_GDMDPNNM_00894;dRep_bin106_BKDHGPBE_01007;dRep_bin243_JDMELKLC_00010;dRep_bin057_BNCFHBBO_00002;dRep_bin026_HNPIIINL_00319;dRep_bin085_MBHLGCDB_00395;dRep_bin140_ACFAKGIL_00161;dRep_bin150_HCDEOBMH_00480;dRep_bin177_HLHGKLFL_01057;dRep_bin260_HELEPKJL_01297;dRep_bin159_ADJJGPBG_00428	dRep_bin053_OMGNPOOB_01278	>dRep_bin053_OMGNPOOB_01278 Phosphoribosylformylglycinamidine synthase	dRep_bin140_ACFAKGIL_00161	CDS	purL	6.3.5.3	Phosphoribosylformylglycinamidine synthase
ACFAKGIL_00187						28.59651						1	1	0,0030389	dRep_bin140_ACFAKGIL_00187	dRep_bin140_ACFAKGIL_00187	>dRep_bin140_ACFAKGIL_00187 HPr-like protein Crh	dRep_bin140_ACFAKGIL_00187	CDS	crh		HPr-like protein Crh
ACFAKGIL_00191	27.45325		27.60633	27.34875	27.55311	26.292109999999997	27.99129	27.414820000000002				3	3	2,7731E-35	dRep_bin013_IODPEDPB_00129;dRep_bin152_LJMCIADF_00561;dRep_bin026_HNPIIINL_00624;dRep_bin194_MEPDOGGJ_00252;dRep_bin124_HIHDFGCL_00172;dRep_bin038_EIGFILKG_00845;dRep_bin025_CBEJJMLE_00504;dRep_bin353_PPDHLNJB_01721;dRep_bin079_GAOGCKND_01237;dRep_bin068_ENOLAELK_00465;dRep_bin006_HPJGJCAG_01285;dRep_bin175_HANCENAK_01299;dRep_bin337_FHKPNFDB_01083;dRep_bin318_IEDEJOFJ_00698;dRep_bin225_FLBKEJIP_00557;dRep_bin140_ACFAKGIL_00191	dRep_bin013_IODPEDPB_00129	>dRep_bin013_IODPEDPB_00129 Uridylate kinase	dRep_bin140_ACFAKGIL_00191	CDS	pyrH	2.7.4.22	Uridylate kinase
ACFAKGIL_00316					23.357830000000003		25.00539	23.828229999999998				2	2	9,2014E-06	dRep_bin177_HLHGKLFL_00017;dRep_bin140_ACFAKGIL_00316	dRep_bin177_HLHGKLFL_00017;dRep_bin140_ACFAKGIL_00316	>dRep_bin177_HLHGKLFL_00017 30S ribosomal protein S1;>dRep_bin140_ACFAKGIL_00316 30S ribosomal protein S1	dRep_bin140_ACFAKGIL_00316	CDS	rpsA_1		30S ribosomal protein S1
ACFAKGIL_00319					25.06357							5	1	3,6059E-73	dRep_bin203_CLFNNOCF_01682;dRep_bin347_EKGCMFPD_01504;dRep_bin284_DEHKNOBF_01057;dRep_bin260_HELEPKJL_00015;dRep_bin310_IMBAFDIF_00287;dRep_bin134_HIAPAODO_00846;dRep_bin062_BOFBFLDA_01435;dRep_bin300_MJPPENNL_01196;dRep_bin201_OLKDIBOK_02047;dRep_bin105_AAEIHAFF_01478;dRep_bin100_CODMOHGB_01221;dRep_bin088_DNGPPFDK_00866;dRep_bin277_MIPNGEJE_00690;dRep_bin166_DFIAJFEC_00146;dRep_bin161_JMKPMHCO_01114;dRep_bin059_OOBKFNPP_00125;dRep_bin046_GKEJLOEK_01062;dRep_bin091_MAFACGAD_00248;dRep_bin017_FGFLFOPJ_00727;dRep_bin354_MMOALAFN_00741;dRep_bin324_IPNHOHFK_00313;dRep_bin323_FBBLPLCG_01264;dRep_bin309_BIOHLCGG_01306;dRep_bin273_FGAEBHNP_00470;dRep_bin261_FJICAFFM_01100;dRep_bin148_NAJFKJMD_00795;dRep_bin115_IFKGOGCL_00123;dRep_bin069_EGGEOGDC_01056;dRep_bin344_CJJBDGAA_01161;dRep_bin249_OFIIEIDJ_00715;dRep_bin220_PILICLLL_00990;dRep_bin134_HIAPAODO_01436;dRep_bin065_DFABHCBI_00344;dRep_bin032_PPNIGLME_00203;dRep_bin270_GEJAHNCN_01587;dRep_bin065_DFABHCBI_00249;dRep_bin278_BFCONKOE_01054;dRep_bin016_JLGAHGOJ_00641;dRep_bin328_GIGKNKPJ_01462;dRep_bin308_JBPDGLPP_01172;dRep_bin303_DDDNDJCF_01320;dRep_bin254_GJDPFAEA_00870;dRep_bin234_ECABPBME_00536;dRep_bin186_HJAAFFNP_01789;dRep_bin167_BLMEBMNN_01296;dRep_bin107_EFNBPDOP_00511;dRep_bin077_DNNBMPMC_01864;dRep_bin066_AJACLPEE_01033;dRep_bin047_IFFANOMN_00697;dRep_bin135_HHKACLPM_00107;dRep_bin303_DDDNDJCF_00377;dRep_bin306_FGHMKMMP_01595;dRep_bin211_LGJEFJIK_00450;dRep_bin007_LNLEAAAN_01312;dRep_bin344_CJJBDGAA_01611;dRep_bin031_BNHMFOII_01628;dRep_bin353_PPDHLNJB_02118;dRep_bin254_GJDPFAEA_00869;dRep_bin094_LBLICAAO_00342;dRep_bin047_IFFANOMN_01357;dRep_bin120_EKLBOPNC_01832;dRep_bin168_HKDILBFE_01442;dRep_bin099_DNDAGJEJ_00392;dRep_bin215_ABBFGCAF_00798;dRep_bin029_LFMGBBEC_01628;dRep_bin240_LDBBGJKG_01094;dRep_bin279_IAEFEPEN_01491;dRep_bin130_OIFFANPF_01666;dRep_bin319_PBDBJGCJ_00268;dRep_bin017_FGFLFOPJ_00820;dRep_bin082_HBEFABJN_01328;dRep_bin245_MBCFLKOF_01762;dRep_bin027_OFJCHLJJ_00790;dRep_bin108_BPNCDINP_00911;dRep_bin308_JBPDGLPP_01750;dRep_bin193_GDMDPNNM_00480;dRep_bin344_CJJBDGAA_02078;dRep_bin049_MNFBDPNO_01413;dRep_bin096_GNHMEKPF_00097;dRep_bin104_EGLEJOLM_01934;dRep_bin339_DBNBAHDK_02499;dRep_bin321_EJNAAGJG_00755;dRep_bin273_FGAEBHNP_00835;dRep_bin250_NMCAMJIO_00087;dRep_bin247_EKGBJCBM_00317;dRep_bin148_NAJFKJMD_01189;dRep_bin337_FHKPNFDB_01633;dRep_bin320_LDBKCCKL_01786;dRep_bin304_JDNJGFKH_01982;dRep_bin286_OEMIJKMC_01141;dRep_bin231_CFOLMJBA_00953;dRep_bin162_JBGCCDIN_01636;dRep_bin126_PPDNCIBN_01067;dRep_bin109_MJABCPAK_00317;dRep_bin057_BNCFHBBO_00597;dRep_bin288_KOIAAABN_00012;dRep_bin263_OLEFOGIJ_00295;dRep_bin304_JDNJGFKH_00179;dRep_bin208_DHPGEIBC_00457;dRep_bin189_AHHEHGDL_01282;dRep_bin177_HLHGKLFL_00741;dRep_bin140_ACFAKGIL_00319;dRep_bin105_AAEIHAFF_01411;dRep_bin082_HBEFABJN_00692;dRep_bin010_MFFFGEGD_00717;dRep_bin005_CNDFPKJG_01705;dRep_bin287_DONBGKDH_01836;dRep_bin094_LBLICAAO_00388;dRep_bin058_GJKCICJN_00227;dRep_bin293_MEPKGOAN_00829;dRep_bin218_ACMPALGF_00229;dRep_bin205_LKIOOBKC_00417;dRep_bin172_ALNHGLMD_01439;dRep_bin159_ADJJGPBG_01342;dRep_bin143_PFLDJMPF_01248;dRep_bin101_BNDDLDCL_01982;dRep_bin091_MAFACGAD_01619;dRep_bin072_JOBJPCGA_00130;dRep_bin011_KOGMKLNO_01272;dRep_bin164_KHMELCCL_01402;dRep_bin305_FCIEFIHE_00371;dRep_bin222_GGCAJABB_00745;dRep_bin006_HPJGJCAG_01874;dRep_bin286_OEMIJKMC_01354;dRep_bin126_PPDNCIBN_00282;dRep_bin185_OOOLKACK_00819;dRep_bin043_KLAFNACO_00900;dRep_bin231_CFOLMJBA_01529;dRep_bin237_KJDLIPND_00869;dRep_bin147_EJLBNEBE_00138;dRep_bin186_HJAAFFNP_01790;dRep_bin081_JDPCKDNP_00172;dRep_bin069_EGGEOGDC_00890;dRep_bin282_PKAAPBFP_00016;dRep_bin206_OIIBOIAK_00984;dRep_bin161_JMKPMHCO_00782;dRep_bin278_BFCONKOE_00310;dRep_bin260_HELEPKJL_01944;dRep_bin336_MPGOKPOL_00897	dRep_bin203_CLFNNOCF_01682;dRep_bin347_EKGCMFPD_01504;dRep_bin284_DEHKNOBF_01057;dRep_bin260_HELEPKJL_00015;dRep_bin310_IMBAFDIF_00287;dRep_bin134_HIAPAODO_00846;dRep_bin062_BOFBFLDA_01435	>dRep_bin203_CLFNNOCF_01682 Glutamine synthetase;>dRep_bin347_EKGCMFPD_01504 Glutamine synthetase;>dRep_bin284_DEHKNOBF_01057 Glutamine synthetase;>dRep_bin260_HELEPKJL_00015 Glutamine synthetase;>dRep_bin310_IMBAFDIF_00287 Glutamine synthetase;>dRep_bin13	dRep_bin140_ACFAKGIL_00319	CDS	glnA	6.3.1.2	Glutamine synthetase
ACFAKGIL_00447			23.64229	23.74684				24.48296				18	3	3,8972E-149	dRep_bin220_PILICLLL_02028;dRep_bin278_BFCONKOE_00441;dRep_bin081_JDPCKDNP_00377;dRep_bin322_OJELOJOF_00804;dRep_bin248_CCDFPECI_00079;dRep_bin106_BKDHGPBE_00283;dRep_bin144_NPHACCKF_01724;dRep_bin122_JHMJFODI_00608;dRep_bin141_GMCOOECB_01066;dRep_bin213_HHHELMFN_00712;dRep_bin109_MJABCPAK_00085;dRep_bin085_MBHLGCDB_01100;dRep_bin024_OLHDGABE_00645;dRep_bin127_FIPNHBCH_00373;dRep_bin318_IEDEJOFJ_00277;dRep_bin155_CLHNKEHA_00696;dRep_bin218_ACMPALGF_01353;dRep_bin119_AKFBCGDO_01001;dRep_bin146_LCCIBLJG_00301;dRep_bin354_MMOALAFN_01658;dRep_bin347_EKGCMFPD_01037;dRep_bin227_IJODGBOI_00749;dRep_bin132_FAPBDCMG_00320;dRep_bin313_CJFGINPI_00866;dRep_bin156_GFIMJAAC_00888;dRep_bin342_BMMENEMP_00958;dRep_bin280_IMCGLKKG_00439;dRep_bin197_NHLBHFEI_00889;dRep_bin281_OGHLKMAI_00400;dRep_bin276_EHNFLEBP_02113;dRep_bin104_EGLEJOLM_01406;dRep_bin207_OHNPDPFI_01068;dRep_bin121_BHOOLFKN_00245;dRep_bin008_MNDMJLEI_00892;dRep_bin054_NNOKONMC_00872;dRep_bin011_KOGMKLNO_00879;dRep_bin142_NDNPJBEM_01584;dRep_bin333_EFOKIBLA_00720;dRep_bin223_PIMCDKJI_01633;dRep_bin120_EKLBOPNC_00731;dRep_bin177_HLHGKLFL_00449;dRep_bin140_ACFAKGIL_00447;dRep_bin304_JDNJGFKH_00598;dRep_bin245_MBCFLKOF_00047;dRep_bin208_DHPGEIBC_00902;dRep_bin010_MFFFGEGD_00183;dRep_bin083_OCBADPJJ_01145;dRep_bin222_GGCAJABB_00479;dRep_bin205_LKIOOBKC_01169;dRep_bin320_LDBKCCKL_00573;dRep_bin162_JBGCCDIN_01242;dRep_bin159_ADJJGPBG_01729;dRep_bin033_DLABHNFE_00633;dRep_bin012_KEBBILMO_00315;dRep_bin350_EKOOEEGH_01215;dRep_bin121_BHOOLFKN_01088;dRep_bin212_IEMJENOD_00205;dRep_bin161_JMKPMHCO_00073;dRep_bin353_PPDHLNJB_01811;dRep_bin195_DDMDFNOK_01689;dRep_bin327_EPEGNBAG_00663;dRep_bin241_LMMMGDNI_01611;dRep_bin334_NAPFFNLD_00132	dRep_bin220_PILICLLL_02028	>dRep_bin220_PILICLLL_02028 DNA-directed RNA polymerase subunit beta	dRep_bin140_ACFAKGIL_00447	CDS	rpoB	2.7.7.6	DNA-directed RNA polymerase subunit beta
ACFAKGIL_00492					27.315880000000003							4	0	2,925E-14	dRep_bin216_JNJMCPHB_00670;dRep_bin005_CNDFPKJG_01588;dRep_bin140_ACFAKGIL_00492;dRep_bin177_HLHGKLFL_01416	dRep_bin216_JNJMCPHB_00670;dRep_bin005_CNDFPKJG_01588;dRep_bin140_ACFAKGIL_00492;dRep_bin177_HLHGKLFL_01416	>dRep_bin216_JNJMCPHB_00670 Inosine-5-monophosphate dehydrogenase;>dRep_bin005_CNDFPKJG_01588 Inosine-5-monophosphate dehydrogenase;>dRep_bin140_ACFAKGIL_00492 Inosine-5-monophosphate dehydrogenase;>dRep_bin177_HLHGKLFL_01416 Inosine-5-monophosphate de	dRep_bin140_ACFAKGIL_00492	CDS	guaB	1.1.1.205	Inosine-5'-monophosphate dehydrogenase
ACFAKGIL_00541	22.00724	21.80467	23.19277	23.707150000000002	23.463389999999997	22.301450000000003		22.98287				3	2	0,00024016	dRep_bin125_FADLGGII_00739;dRep_bin278_BFCONKOE_01375;dRep_bin094_LBLICAAO_01898;dRep_bin177_HLHGKLFL_01330;dRep_bin140_ACFAKGIL_00541	dRep_bin125_FADLGGII_00739;dRep_bin278_BFCONKOE_01375;dRep_bin094_LBLICAAO_01898;dRep_bin177_HLHGKLFL_01330;dRep_bin140_ACFAKGIL_00541	>dRep_bin125_FADLGGII_00739 PTS system N-acetylglucosamine-specific EIICBA component;>dRep_bin278_BFCONKOE_01375 PTS system N-acetylglucosamine-specific EIICBA component;>dRep_bin094_LBLICAAO_01898 PTS system N-acetylglucosamine-specific EIICBA component;>	dRep_bin140_ACFAKGIL_00541	CDS	nagE		PTS system N-acetylglucosamine-specific EIICBA component
ACFAKGIL_00572	24.70446	24.047850000000004	23.270709999999998	23.97675								4	1	3,3164E-09	dRep_bin299_AKNBKJGM_01731;dRep_bin140_ACFAKGIL_00572	dRep_bin299_AKNBKJGM_01731;dRep_bin140_ACFAKGIL_00572	>dRep_bin299_AKNBKJGM_01731 Aspartate--tRNA ligase;>dRep_bin140_ACFAKGIL_00572 Aspartate--tRNA ligase	dRep_bin140_ACFAKGIL_00572	CDS	aspS	6.1.1.12	Aspartate--tRNA ligase
ACFAKGIL_00721				23.579								2	2	0,0033533	dRep_bin203_CLFNNOCF_01125;dRep_bin133_NOBPDBPA_02383;dRep_bin268_LKMHIMLG_00107;dRep_bin090_IPGNHCBJ_00833;dRep_bin177_HLHGKLFL_00943;dRep_bin273_FGAEBHNP_00412;dRep_bin140_ACFAKGIL_00721;dRep_bin310_IMBAFDIF_00790;dRep_bin091_MAFACGAD_01194;dRep_bin039_IJNOFOJK_01665;dRep_bin292_JIBLDOOH_00461;dRep_bin179_HFEIPPPA_01107;dRep_bin139_KGAJINND_00813;dRep_bin279_IAEFEPEN_00359;dRep_bin075_EPEMMOCL_01036;dRep_bin074_EHAOMODJ_01415;dRep_bin127_FIPNHBCH_00465;dRep_bin101_BNDDLDCL_00202;dRep_bin299_AKNBKJGM_00587	dRep_bin203_CLFNNOCF_01125;dRep_bin133_NOBPDBPA_02383;dRep_bin268_LKMHIMLG_00107;dRep_bin090_IPGNHCBJ_00833;dRep_bin177_HLHGKLFL_00943;dRep_bin273_FGAEBHNP_00412;dRep_bin140_ACFAKGIL_00721;dRep_bin310_IMBAFDIF_00790;dRep_bin091_MAFACGAD_01194;dRep_bin039_IJNOFOJK_01665;dRep_bin292_JIBLDOOH_00461;dRep_bin179_HFEIPPPA_01107;dRep_bin139_KGAJINND_00813;dRep_bin279_IAEFEPEN_00359;dRep_bin075_EPEMMOCL_01036;dRep_bin074_EHAOMODJ_01415;dRep_bin127_FIPNHBCH_00465;dRep_bin101_BNDDLDCL_00202;dRep_bin299_AKNBKJGM_00587	>dRep_bin203_CLFNNOCF_01125 Transketolase;>dRep_bin133_NOBPDBPA_02383 Transketolase;>dRep_bin268_LKMHIMLG_00107 Transketolase;>dRep_bin090_IPGNHCBJ_00833 Transketolase;>dRep_bin177_HLHGKLFL_00943 Transketolase;>dRep_bin273_FGAEBHNP_00412 Transketolase 1;>d	dRep_bin140_ACFAKGIL_00721	CDS	tktA	2.2.1.1	Transketolase 1
ACFAKGIL_00751					26.001960000000004	25.315830000000002	25.66636	25.79308				7	3	2,931E-22	dRep_bin140_ACFAKGIL_00751;dRep_bin177_HLHGKLFL_00709	dRep_bin140_ACFAKGIL_00751;dRep_bin177_HLHGKLFL_00709	>dRep_bin140_ACFAKGIL_00751 GGGtGRT protein;>dRep_bin177_HLHGKLFL_00709 GGGtGRT protein	dRep_bin140_ACFAKGIL_00751	CDS			GGGtGRT protein
ACFAKGIL_00826		19.53247										1	1	0,0012054	dRep_bin140_ACFAKGIL_00826	dRep_bin140_ACFAKGIL_00826	>dRep_bin140_ACFAKGIL_00826 2-dehydro-3-deoxy-6-phosphogalactonate aldolase	dRep_bin140_ACFAKGIL_00826	CDS	dgoA	4.1.2.21	2-dehydro-3-deoxy-6-phosphogalactonate aldolase
ACFAKGIL_00910	29.566519999999997	29.568679999999997	28.55943	28.435239999999997	27.85976	27.72358	27.95382	27.70114				15	0	0	dRep_bin287_DONBGKDH_01482;dRep_bin107_EFNBPDOP_01392;dRep_bin278_BFCONKOE_01030;dRep_bin168_HKDILBFE_01198;dRep_bin140_ACFAKGIL_00910;dRep_bin099_DNDAGJEJ_00420;dRep_bin349_AMCJEEEG_01505;dRep_bin279_IAEFEPEN_00072;dRep_bin249_OFIIEIDJ_01057;dRep_bin135_HHKACLPM_00365;dRep_bin096_GNHMEKPF_00596;dRep_bin075_EPEMMOCL_00452;dRep_bin026_HNPIIINL_00211;dRep_bin019_MOJEPLJF_01655	dRep_bin287_DONBGKDH_01482	>dRep_bin287_DONBGKDH_01482 Formate--tetrahydrofolate ligase	dRep_bin140_ACFAKGIL_00910	CDS	fhs	6.3.4.3	Formate--tetrahydrofolate ligase
ACFAKGIL_00966				26.368709999999997								4	2	1,0849E-12	dRep_bin292_JIBLDOOH_01063;dRep_bin041_OPKGAAAG_01075;dRep_bin209_NKIHFCEN_01331;dRep_bin269_PNILGKPH_00386;dRep_bin039_IJNOFOJK_00028;dRep_bin324_IPNHOHFK_01206;dRep_bin300_MJPPENNL_00977;dRep_bin279_IAEFEPEN_01295;dRep_bin344_CJJBDGAA_00875;dRep_bin328_GIGKNKPJ_01713;dRep_bin308_JBPDGLPP_01081;dRep_bin303_DDDNDJCF_01452;dRep_bin260_HELEPKJL_01814;dRep_bin240_LDBBGJKG_01949;dRep_bin211_LGJEFJIK_01488;dRep_bin201_OLKDIBOK_00486;dRep_bin186_HJAAFFNP_00498;dRep_bin161_JMKPMHCO_00510;dRep_bin140_ACFAKGIL_00966;dRep_bin139_KGAJINND_01935;dRep_bin127_FIPNHBCH_01109;dRep_bin091_MAFACGAD_00938;dRep_bin069_EGGEOGDC_00173;dRep_bin065_DFABHCBI_01020;dRep_bin062_BOFBFLDA_00118;dRep_bin024_OLHDGABE_00006;dRep_bin016_JLGAHGOJ_01717;dRep_bin347_EKGCMFPD_00813;dRep_bin332_KAOPCDPF_00718;dRep_bin322_OJELOJOF_01104;dRep_bin310_IMBAFDIF_01100;dRep_bin306_FGHMKMMP_01495;dRep_bin282_PKAAPBFP_00123;dRep_bin266_JFOCEDAE_01441;dRep_bin249_OFIIEIDJ_00818;dRep_bin248_CCDFPECI_00304;dRep_bin234_ECABPBME_02078;dRep_bin181_MKGPMPIA_00013;dRep_bin160_EFKMPBOM_00454;dRep_bin158_OGFICEAP_01438;dRep_bin154_JGOKHKLI_00210;dRep_bin145_KMJJJOEJ_01040;dRep_bin135_HHKACLPM_01477;dRep_bin107_EFNBPDOP_01455;dRep_bin089_PAJFOJBN_01775;dRep_bin081_JDPCKDNP_00410;dRep_bin077_DNNBMPMC_01401;dRep_bin075_EPEMMOCL_00061;dRep_bin027_OFJCHLJJ_01614;dRep_bin023_HGFJFKAI_00593;dRep_bin019_MOJEPLJF_00571;dRep_bin007_LNLEAAAN_01143;dRep_bin005_CNDFPKJG_01435;dRep_bin001_GHHJMDAL_01190	dRep_bin292_JIBLDOOH_01063;dRep_bin041_OPKGAAAG_01075;dRep_bin209_NKIHFCEN_01331;dRep_bin269_PNILGKPH_00386;dRep_bin039_IJNOFOJK_00028;dRep_bin324_IPNHOHFK_01206;dRep_bin300_MJPPENNL_00977;dRep_bin279_IAEFEPEN_01295	>dRep_bin292_JIBLDOOH_01063 50S ribosomal protein L21;>dRep_bin041_OPKGAAAG_01075 50S ribosomal protein L21;>dRep_bin209_NKIHFCEN_01331 50S ribosomal protein L21;>dRep_bin269_PNILGKPH_00386 50S ribosomal protein L21;>dRep_bin039_IJNOFOJK_00028 50S ribosoma	dRep_bin140_ACFAKGIL_00966	CDS	rplU		50S ribosomal protein L21
ACFAKGIL_01122				23.93112								5	1	2,6605E-19	dRep_bin034_MEBMFDLL_01056;dRep_bin279_IAEFEPEN_01416;dRep_bin177_HLHGKLFL_00481;dRep_bin169_PNICKJKO_00788;dRep_bin140_ACFAKGIL_01122;dRep_bin003_GOBBLOGO_00647;dRep_bin299_AKNBKJGM_01257;dRep_bin257_JHFDCHCB_00866;dRep_bin018_ILOONPIC_00165;dRep_bin238_OLNFACLE_00469;dRep_bin125_FADLGGII_00937;dRep_bin035_JBNPBOKG_01441;dRep_bin348_LCLFDNEE_00738;dRep_bin331_HPKAPHAF_00145;dRep_bin172_ALNHGLMD_00137;dRep_bin106_BKDHGPBE_00653;dRep_bin304_JDNJGFKH_00619;dRep_bin205_LKIOOBKC_00377	dRep_bin034_MEBMFDLL_01056	>dRep_bin034_MEBMFDLL_01056 30S ribosomal protein S4	dRep_bin140_ACFAKGIL_01122	CDS	rpsD		30S ribosomal protein S4
ACFAKGIL_01170		27.104200000000002	25.118660000000002	25.01201								1	1	0,0022316	dRep_bin140_ACFAKGIL_01170	dRep_bin140_ACFAKGIL_01170	>dRep_bin140_ACFAKGIL_01170 Purine nucleoside phosphoramidase	dRep_bin140_ACFAKGIL_01170	CDS	hinT	3.9.1.-	Purine nucleoside phosphoramidase
