GBprotID	LFQ intensity CtrPig1	LFQ intensity CtrPig2	LFQ intensity CtrPig3	LFQ intensity CtrPig4	LFQ intensity MannanPig1	LFQ intensity MannanPig2	LFQ intensity MannanPig3	LFQ intensity MannanPig4	Only identified by site	Reverse	Contaminant	Peptides	Unique peptides	PEP	Protein IDs	Majority protein IDs	Fasta headers	IDcomb	ftype	gene	EC_number	product
JPNIKEKI_00013	25.82119	26.011070000000004	25.52438	27.02665								8	2	4,0718E-21	dRep_bin292_JIBLDOOH_01785;dRep_bin024_OLHDGABE_00429;dRep_bin324_IPNHOHFK_00664;dRep_bin226_NLNLHLLD_00804;dRep_bin157_JPNIKEKI_00013;dRep_bin209_NKIHFCEN_01760;dRep_bin133_NOBPDBPA_03481	dRep_bin292_JIBLDOOH_01785;dRep_bin024_OLHDGABE_00429	>dRep_bin292_JIBLDOOH_01785 hypothetical protein;>dRep_bin024_OLHDGABE_00429 hypothetical protein	dRep_bin157_JPNIKEKI_00013	CDS			hypothetical protein
JPNIKEKI_00016	24.2488	25.41555	23.67584	24.28996	23.28447	23.92778						14	0	1,7518E-114	dRep_bin133_NOBPDBPA_00675;dRep_bin157_JPNIKEKI_00016	dRep_bin133_NOBPDBPA_00675;dRep_bin157_JPNIKEKI_00016	>dRep_bin133_NOBPDBPA_00675 Bifunctional purine biosynthesis protein PurH;>dRep_bin157_JPNIKEKI_00016 Bifunctional purine biosynthesis protein PurH	dRep_bin157_JPNIKEKI_00016	CDS	purH		Bifunctional purine biosynthesis protein PurH
JPNIKEKI_00049					27.69551	26.73647	28.803539999999998	26.756719999999998				13	8	7,5848E-36	dRep_bin095_HOBNOEEF_02146;dRep_bin344_CJJBDGAA_00010;dRep_bin257_JHFDCHCB_01336;dRep_bin284_DEHKNOBF_00528;dRep_bin347_EKGCMFPD_01713;dRep_bin300_MJPPENNL_01266;dRep_bin078_GKFCBAEI_00853;dRep_bin277_MIPNGEJE_00107;dRep_bin282_PKAAPBFP_00957;dRep_bin328_GIGKNKPJ_01683;dRep_bin324_IPNHOHFK_00096;dRep_bin157_JPNIKEKI_00049;dRep_bin133_NOBPDBPA_03446;dRep_bin019_MOJEPLJF_00699;dRep_bin046_GKEJLOEK_00562;dRep_bin024_OLHDGABE_00401;dRep_bin203_CLFNNOCF_00605;dRep_bin179_HFEIPPPA_01869;dRep_bin005_CNDFPKJG_00925;dRep_bin088_DNGPPFDK_00832	dRep_bin095_HOBNOEEF_02146	>dRep_bin095_HOBNOEEF_02146 Phosphoglucomutase	dRep_bin157_JPNIKEKI_00049	CDS	pgcA_1	5.4.2.2	Phosphoglucomutase
JPNIKEKI_00107				24.10773								4	1	1,8649E-28	dRep_bin292_JIBLDOOH_01382;dRep_bin209_NKIHFCEN_01279;dRep_bin133_NOBPDBPA_01285;dRep_bin088_DNGPPFDK_00097;dRep_bin179_HFEIPPPA_00221;dRep_bin157_JPNIKEKI_00107	dRep_bin292_JIBLDOOH_01382;dRep_bin209_NKIHFCEN_01279;dRep_bin133_NOBPDBPA_01285;dRep_bin088_DNGPPFDK_00097;dRep_bin179_HFEIPPPA_00221;dRep_bin157_JPNIKEKI_00107	>dRep_bin292_JIBLDOOH_01382 Formate--tetrahydrofolate ligase;>dRep_bin209_NKIHFCEN_01279 Formate--tetrahydrofolate ligase;>dRep_bin133_NOBPDBPA_01285 Formate--tetrahydrofolate ligase;>dRep_bin088_DNGPPFDK_00097 Formate--tetrahydrofolate ligase;>dRep_bin179	dRep_bin157_JPNIKEKI_00107	CDS	fhs	6.3.4.3	Formate--tetrahydrofolate ligase
JPNIKEKI_00133	21.21673											1	1	0,00092802	dRep_bin157_JPNIKEKI_00133	dRep_bin157_JPNIKEKI_00133	>dRep_bin157_JPNIKEKI_00133 4-alpha-glucanotransferase	dRep_bin157_JPNIKEKI_00133	CDS	malQ_1	2.4.1.25	4-alpha-glucanotransferase
JPNIKEKI_00149				24.73598								2	1	9,6582E-14	dRep_bin292_JIBLDOOH_02180;dRep_bin157_JPNIKEKI_00149	dRep_bin292_JIBLDOOH_02180;dRep_bin157_JPNIKEKI_00149	>dRep_bin292_JIBLDOOH_02180 Elongation factor P;>dRep_bin157_JPNIKEKI_00149 Elongation factor P	dRep_bin157_JPNIKEKI_00149	CDS	efp		Elongation factor P
JPNIKEKI_00157	28.297890000000002	28.43102	27.664990000000003	27.095769999999998								21	4	0	dRep_bin157_JPNIKEKI_00157;dRep_bin065_DFABHCBI_00654	dRep_bin157_JPNIKEKI_00157	>dRep_bin157_JPNIKEKI_00157 3-hydroxybutyryl-CoA dehydrogenase	dRep_bin157_JPNIKEKI_00157	CDS	hbd	1.1.1.157	3-hydroxybutyryl-CoA dehydrogenase
JPNIKEKI_00158	32.398030000000006	32.62231000000001	32.36252	33.19503000000001	32.384429999999995	33.195260000000005	31.634870000000006	32.1648				23	0	0	dRep_bin157_JPNIKEKI_00158	dRep_bin157_JPNIKEKI_00158	>dRep_bin157_JPNIKEKI_00158 Acetyl-CoA acetyltransferase	dRep_bin157_JPNIKEKI_00158	CDS	thlA	2.3.1.9	Acetyl-CoA acetyltransferase
JPNIKEKI_00169	22.908779999999997		23.40315	24.986719999999995	24.202099999999998	24.35642	24.495759999999997	24.43339				6	1	1,086E-29	dRep_bin292_JIBLDOOH_01263;dRep_bin297_EDHEEICA_00993;dRep_bin287_DONBGKDH_00526;dRep_bin209_NKIHFCEN_01480;dRep_bin335_JIOGNAPG_01222;dRep_bin266_JFOCEDAE_00986;dRep_bin303_DDDNDJCF_01081;dRep_bin088_DNGPPFDK_00717;dRep_bin234_ECABPBME_00102;dRep_bin091_MAFACGAD_01388;dRep_bin160_EFKMPBOM_01964;dRep_bin154_JGOKHKLI_00775;dRep_bin001_GHHJMDAL_01181;dRep_bin081_JDPCKDNP_01259;dRep_bin127_FIPNHBCH_00055;dRep_bin157_JPNIKEKI_00169	dRep_bin292_JIBLDOOH_01263;dRep_bin297_EDHEEICA_00993;dRep_bin287_DONBGKDH_00526;dRep_bin209_NKIHFCEN_01480;dRep_bin335_JIOGNAPG_01222;dRep_bin266_JFOCEDAE_00986;dRep_bin303_DDDNDJCF_01081;dRep_bin088_DNGPPFDK_00717;dRep_bin234_ECABPBME_00102;dRep_bin091_MAFACGAD_01388;dRep_bin160_EFKMPBOM_01964;dRep_bin154_JGOKHKLI_00775;dRep_bin001_GHHJMDAL_01181	>dRep_bin292_JIBLDOOH_01263 DNA-directed RNA polymerase subunit alpha;>dRep_bin297_EDHEEICA_00993 DNA-directed RNA polymerase subunit alpha;>dRep_bin287_DONBGKDH_00526 DNA-directed RNA polymerase subunit alpha;>dRep_bin209_NKIHFCEN_01480 DNA-directed RNA p	dRep_bin157_JPNIKEKI_00169	CDS	rpoA	2.7.7.6	DNA-directed RNA polymerase subunit alpha
JPNIKEKI_00175						22.313180000000003						2	1	2,0345E-05	dRep_bin041_OPKGAAAG_01980;dRep_bin292_JIBLDOOH_01252;dRep_bin226_NLNLHLLD_00453;dRep_bin209_NKIHFCEN_01474;dRep_bin157_JPNIKEKI_00175;dRep_bin261_FJICAFFM_00978	dRep_bin041_OPKGAAAG_01980;dRep_bin292_JIBLDOOH_01252;dRep_bin226_NLNLHLLD_00453;dRep_bin209_NKIHFCEN_01474;dRep_bin157_JPNIKEKI_00175;dRep_bin261_FJICAFFM_00978	>dRep_bin041_OPKGAAAG_01980 Ribose-phosphate pyrophosphokinase;>dRep_bin292_JIBLDOOH_01252 Ribose-phosphate pyrophosphokinase;>dRep_bin226_NLNLHLLD_00453 Ribose-phosphate pyrophosphokinase;>dRep_bin209_NKIHFCEN_01474 Ribose-phosphate pyrophosphokinase;>dRe	dRep_bin157_JPNIKEKI_00175	CDS	prs	2.7.6.1	Ribose-phosphate pyrophosphokinase
JPNIKEKI_00205				23.942349999999998								2	2	2,7879E-08	dRep_bin292_JIBLDOOH_01122;dRep_bin203_CLFNNOCF_00722;dRep_bin226_NLNLHLLD_01344;dRep_bin179_HFEIPPPA_01251;dRep_bin324_IPNHOHFK_02066;dRep_bin209_NKIHFCEN_00300;dRep_bin157_JPNIKEKI_00205;dRep_bin133_NOBPDBPA_00611;dRep_bin261_FJICAFFM_00251;dRep_bin041_OPKGAAAG_00795	dRep_bin292_JIBLDOOH_01122;dRep_bin203_CLFNNOCF_00722;dRep_bin226_NLNLHLLD_01344;dRep_bin179_HFEIPPPA_01251;dRep_bin324_IPNHOHFK_02066;dRep_bin209_NKIHFCEN_00300;dRep_bin157_JPNIKEKI_00205;dRep_bin133_NOBPDBPA_00611;dRep_bin261_FJICAFFM_00251;dRep_bin041_OPKGAAAG_00795	>dRep_bin292_JIBLDOOH_01122 NAD-dependent malic enzyme;>dRep_bin203_CLFNNOCF_00722 NAD-dependent malic enzyme;>dRep_bin226_NLNLHLLD_01344 NAD-dependent malic enzyme;>dRep_bin179_HFEIPPPA_01251 NAD-dependent malic enzyme;>dRep_bin324_IPNHOHFK_02066 NAD-depe	dRep_bin157_JPNIKEKI_00205	CDS		1.1.1.38	NAD-dependent malic enzyme
JPNIKEKI_00217				23.42586								6	0	4,8981E-17	dRep_bin292_JIBLDOOH_01371;dRep_bin157_JPNIKEKI_00217	dRep_bin292_JIBLDOOH_01371;dRep_bin157_JPNIKEKI_00217	>dRep_bin292_JIBLDOOH_01371 Isocitrate dehydrogenase [NADP];>dRep_bin157_JPNIKEKI_00217 Isocitrate dehydrogenase [NADP]	dRep_bin157_JPNIKEKI_00217	CDS	icd	1.1.1.42	Isocitrate dehydrogenase [NADP]
JPNIKEKI_00257				24.295019999999997								2	2	1,78E-08	dRep_bin133_NOBPDBPA_01270;dRep_bin209_NKIHFCEN_01262;dRep_bin157_JPNIKEKI_00257	dRep_bin133_NOBPDBPA_01270;dRep_bin209_NKIHFCEN_01262;dRep_bin157_JPNIKEKI_00257	>dRep_bin133_NOBPDBPA_01270 Elongation factor G;>dRep_bin209_NKIHFCEN_01262 Elongation factor G;>dRep_bin157_JPNIKEKI_00257 Elongation factor G	dRep_bin157_JPNIKEKI_00257	CDS	fusA		Elongation factor G
JPNIKEKI_00262	26.60541	26.75226	26.44782	27.39722								3	2	2,5159E-09	dRep_bin133_NOBPDBPA_01267;dRep_bin209_NKIHFCEN_01258;dRep_bin157_JPNIKEKI_00262	dRep_bin133_NOBPDBPA_01267	>dRep_bin133_NOBPDBPA_01267 PilZ domain protein	dRep_bin157_JPNIKEKI_00262	CDS			PilZ domain protein
JPNIKEKI_00300	26.60724	27.313800000000004	27.106890000000003	27.943579999999997	27.91131	28.55921	27.10639	27.953709999999997				10	4	3,1128E-127	dRep_bin041_OPKGAAAG_00350;dRep_bin157_JPNIKEKI_00300	dRep_bin041_OPKGAAAG_00350;dRep_bin157_JPNIKEKI_00300	>dRep_bin041_OPKGAAAG_00350 ATP-dependent 6-phosphofructokinase;>dRep_bin157_JPNIKEKI_00300 ATP-dependent 6-phosphofructokinase	dRep_bin157_JPNIKEKI_00300	CDS	pfkA	2.7.1.11	ATP-dependent 6-phosphofructokinase
JPNIKEKI_00307	28.52178	28.94587	28.334500000000002	29.172880000000003	28.83659	29.388739999999995	27.858990000000002	29.347060000000003				11	3	2,6945E-69	dRep_bin041_OPKGAAAG_01299;dRep_bin157_JPNIKEKI_00307;dRep_bin186_HJAAFFNP_01337;dRep_bin107_EFNBPDOP_00810	dRep_bin041_OPKGAAAG_01299	>dRep_bin041_OPKGAAAG_01299 Succinyl-CoA:coenzyme A transferase	dRep_bin157_JPNIKEKI_00307	CDS	cat1	2.8.3.-	Succinyl-CoA:coenzyme A transferase
JPNIKEKI_00313				27.00517								6	0	1,378E-29	dRep_bin157_JPNIKEKI_00313;dRep_bin297_EDHEEICA_00070;dRep_bin139_KGAJINND_00603;dRep_bin220_PILICLLL_00054;dRep_bin181_MKGPMPIA_00787;dRep_bin181_MKGPMPIA_01430;dRep_bin091_MAFACGAD_00979;dRep_bin335_JIOGNAPG_01270;dRep_bin089_PAJFOJBN_01146;dRep_bin319_PBDBJGCJ_00825;dRep_bin306_FGHMKMMP_00269	dRep_bin157_JPNIKEKI_00313;dRep_bin297_EDHEEICA_00070;dRep_bin139_KGAJINND_00603;dRep_bin220_PILICLLL_00054;dRep_bin181_MKGPMPIA_00787	>dRep_bin157_JPNIKEKI_00313 Phosphoglucomutase;>dRep_bin297_EDHEEICA_00070 Phosphoglucomutase;>dRep_bin139_KGAJINND_00603 Phosphoglucomutase;>dRep_bin220_PILICLLL_00054 Phosphoglucomutase;>dRep_bin181_MKGPMPIA_00787 Phosphoglucomutase	dRep_bin157_JPNIKEKI_00313	CDS	pgcA_2	5.4.2.2	Phosphoglucomutase
JPNIKEKI_00318	26.427699999999998	26.00734										3	3	7,0496E-34	dRep_bin157_JPNIKEKI_00318	dRep_bin157_JPNIKEKI_00318	>dRep_bin157_JPNIKEKI_00318 Multiple sugar-binding protein	dRep_bin157_JPNIKEKI_00318	CDS	msmE		Multiple sugar-binding protein
JPNIKEKI_00323				24.680729999999997								10	1	1,1509E-107	dRep_bin157_JPNIKEKI_00323;dRep_bin039_IJNOFOJK_01155;dRep_bin325_EIIGOGHN_00914	dRep_bin157_JPNIKEKI_00323	>dRep_bin157_JPNIKEKI_00323 4-O-beta-D-mannosyl-D-glucose phosphorylase	dRep_bin157_JPNIKEKI_00323	CDS		2.4.1.281	4-O-beta-D-mannosyl-D-glucose phosphorylase
JPNIKEKI_00324	25.86535	25.56119		25.776529999999998								6	1	1,6864E-14	dRep_bin157_JPNIKEKI_00324	dRep_bin157_JPNIKEKI_00324	>dRep_bin157_JPNIKEKI_00324 Beta-1,4-mannooligosaccharide phosphorylase	dRep_bin157_JPNIKEKI_00324	CDS		2.4.1.319	Beta-1,4-mannooligosaccharide phosphorylase
JPNIKEKI_00350						19.45732						2	1	7,2265E-14	dRep_bin157_JPNIKEKI_00350	dRep_bin157_JPNIKEKI_00350	>dRep_bin157_JPNIKEKI_00350 6,7-dimethyl-8-ribityllumazine synthase	dRep_bin157_JPNIKEKI_00350	CDS	ribH	2.5.1.78	6,7-dimethyl-8-ribityllumazine synthase
JPNIKEKI_00395	29.5521	29.961129999999997	28.49736	29.50216	29.678739999999998	30.739250000000002	29.140800000000002	28.491519999999998				9	2	2,1566E-120	dRep_bin041_OPKGAAAG_02116;dRep_bin157_JPNIKEKI_00395;dRep_bin325_EIIGOGHN_00189;dRep_bin234_ECABPBME_01056;dRep_bin088_DNGPPFDK_01570	dRep_bin041_OPKGAAAG_02116;dRep_bin157_JPNIKEKI_00395;dRep_bin325_EIIGOGHN_00189;dRep_bin234_ECABPBME_01056	>dRep_bin041_OPKGAAAG_02116 Reverse rubrerythrin-1;>dRep_bin157_JPNIKEKI_00395 Reverse rubrerythrin-1;>dRep_bin325_EIIGOGHN_00189 Reverse rubrerythrin-1;>dRep_bin234_ECABPBME_01056 Reverse rubrerythrin-1	dRep_bin157_JPNIKEKI_00395	CDS	rbr3A	1.11.1.1	Reverse rubrerythrin-1
JPNIKEKI_00418				21.519750000000002								1	1	1,0433E-05	dRep_bin179_HFEIPPPA_00381;dRep_bin041_OPKGAAAG_01123;dRep_bin292_JIBLDOOH_00465;dRep_bin157_JPNIKEKI_00418	dRep_bin179_HFEIPPPA_00381;dRep_bin041_OPKGAAAG_01123;dRep_bin292_JIBLDOOH_00465;dRep_bin157_JPNIKEKI_00418	>dRep_bin179_HFEIPPPA_00381 ABC transporter substrate binding protein;>dRep_bin041_OPKGAAAG_01123 ABC transporter substrate binding protein;>dRep_bin292_JIBLDOOH_00465 ABC transporter substrate binding protein;>dRep_bin157_JPNIKEKI_00418 ABC transporter su	dRep_bin157_JPNIKEKI_00418	CDS			ABC transporter substrate binding protein
JPNIKEKI_00475				24.54375								3	2	7,1864E-12	dRep_bin292_JIBLDOOH_00369;dRep_bin157_JPNIKEKI_00475;dRep_bin328_GIGKNKPJ_01767	dRep_bin292_JIBLDOOH_00369	>dRep_bin292_JIBLDOOH_00369 Phosphate-binding protein PstS 1	dRep_bin157_JPNIKEKI_00475	CDS	pstS1		Phosphate-binding protein PstS 1
JPNIKEKI_00478	26.470539999999996	26.902189999999997	25.33531	26.01342								2	1	0,00034061	dRep_bin209_NKIHFCEN_01992;dRep_bin203_CLFNNOCF_01024;dRep_bin157_JPNIKEKI_00478	dRep_bin209_NKIHFCEN_01992;dRep_bin203_CLFNNOCF_01024;dRep_bin157_JPNIKEKI_00478	>dRep_bin209_NKIHFCEN_01992 hypothetical protein;>dRep_bin203_CLFNNOCF_01024 hypothetical protein;>dRep_bin157_JPNIKEKI_00478 hypothetical protein	dRep_bin157_JPNIKEKI_00478	CDS			hypothetical protein
JPNIKEKI_00542	31.64345	31.55714	31.52655	32.47073	31.64453	32.202920000000006	31.492619999999995	31.7771				21	6	0	dRep_bin272_LGBDGEIM_01496;dRep_bin053_OMGNPOOB_00766;dRep_bin097_CBBLIPAN_01039;dRep_bin097_CBBLIPAN_01038;dRep_bin024_OLHDGABE_00367;dRep_bin300_MJPPENNL_01218;dRep_bin279_IAEFEPEN_01199;dRep_bin157_JPNIKEKI_00542;dRep_bin215_ABBFGCAF_00661;dRep_bin350_EKOOEEGH_00321	dRep_bin272_LGBDGEIM_01496	>dRep_bin272_LGBDGEIM_01496 Glycerol kinase	dRep_bin157_JPNIKEKI_00542	CDS	glpK	2.7.1.30	Glycerol kinase
JPNIKEKI_00549						20.43583						12	0	2,6816E-101	dRep_bin157_JPNIKEKI_00549	dRep_bin157_JPNIKEKI_00549	>dRep_bin157_JPNIKEKI_00549 Aspartate-semialdehyde dehydrogenase 2	dRep_bin157_JPNIKEKI_00549	CDS	asd2	1.2.1.11	Aspartate-semialdehyde dehydrogenase 2
JPNIKEKI_00563						22.59601						1	1	0,0020809	dRep_bin077_DNNBMPMC_01487;dRep_bin292_JIBLDOOH_01959;dRep_bin226_NLNLHLLD_01061;dRep_bin211_LGJEFJIK_00158;dRep_bin209_NKIHFCEN_00435;dRep_bin203_CLFNNOCF_01699;dRep_bin179_HFEIPPPA_01042;dRep_bin157_JPNIKEKI_00563;dRep_bin133_NOBPDBPA_02955;dRep_bin041_OPKGAAAG_01621;dRep_bin019_MOJEPLJF_01074	dRep_bin077_DNNBMPMC_01487;dRep_bin292_JIBLDOOH_01959;dRep_bin226_NLNLHLLD_01061;dRep_bin211_LGJEFJIK_00158;dRep_bin209_NKIHFCEN_00435;dRep_bin203_CLFNNOCF_01699;dRep_bin179_HFEIPPPA_01042;dRep_bin157_JPNIKEKI_00563;dRep_bin133_NOBPDBPA_02955;dRep_bin041_OPKGAAAG_01621;dRep_bin019_MOJEPLJF_01074	>dRep_bin077_DNNBMPMC_01487 CTP synthase;>dRep_bin292_JIBLDOOH_01959 CTP synthase;>dRep_bin226_NLNLHLLD_01061 CTP synthase;>dRep_bin211_LGJEFJIK_00158 CTP synthase;>dRep_bin209_NKIHFCEN_00435 CTP synthase;>dRep_bin203_CLFNNOCF_01699 CTP synthase;>dRep_bin1	dRep_bin157_JPNIKEKI_00563	CDS	pyrG	6.3.4.2	CTP synthase
JPNIKEKI_00566	26.06739	26.95138	25.7744	27.166339999999998	27.017120000000002	26.53912	27.01744	27.44419				7	1	4,9636E-55	dRep_bin209_NKIHFCEN_00145;dRep_bin300_MJPPENNL_01356;dRep_bin279_IAEFEPEN_00777;dRep_bin069_EGGEOGDC_01214;dRep_bin065_DFABHCBI_01689;dRep_bin292_JIBLDOOH_00391;dRep_bin226_NLNLHLLD_00910;dRep_bin095_HOBNOEEF_01500;dRep_bin041_OPKGAAAG_01855;dRep_bin324_IPNHOHFK_00257;dRep_bin047_IFFANOMN_01252;dRep_bin023_HGFJFKAI_00865;dRep_bin234_ECABPBME_01126;dRep_bin016_JLGAHGOJ_01180;dRep_bin310_IMBAFDIF_01344;dRep_bin297_EDHEEICA_00623;dRep_bin201_OLKDIBOK_01309;dRep_bin248_CCDFPECI_00260;dRep_bin157_JPNIKEKI_00566;dRep_bin240_LDBBGJKG_01099;dRep_bin308_JBPDGLPP_00042;dRep_bin319_PBDBJGCJ_00310;dRep_bin066_AJACLPEE_00006;dRep_bin344_CJJBDGAA_00764;dRep_bin075_EPEMMOCL_01885	dRep_bin209_NKIHFCEN_00145;dRep_bin300_MJPPENNL_01356;dRep_bin279_IAEFEPEN_00777;dRep_bin069_EGGEOGDC_01214;dRep_bin065_DFABHCBI_01689;dRep_bin292_JIBLDOOH_00391;dRep_bin226_NLNLHLLD_00910;dRep_bin095_HOBNOEEF_01500;dRep_bin041_OPKGAAAG_01855;dRep_bin324_IPNHOHFK_00257;dRep_bin047_IFFANOMN_01252;dRep_bin023_HGFJFKAI_00865	>dRep_bin209_NKIHFCEN_00145 Adenylosuccinate synthetase;>dRep_bin300_MJPPENNL_01356 Adenylosuccinate synthetase;>dRep_bin279_IAEFEPEN_00777 Adenylosuccinate synthetase;>dRep_bin069_EGGEOGDC_01214 Adenylosuccinate synthetase;>dRep_bin065_DFABHCBI_01689 Aden	dRep_bin157_JPNIKEKI_00566	CDS	purA	6.3.4.4	Adenylosuccinate synthetase
JPNIKEKI_00567					28.3232	28.806860000000004	29.56127	28.602050000000002				6	1	3,2616E-32	dRep_bin157_JPNIKEKI_00567;dRep_bin041_OPKGAAAG_01772	dRep_bin157_JPNIKEKI_00567	>dRep_bin157_JPNIKEKI_00567 30S ribosomal protein S1	dRep_bin157_JPNIKEKI_00567	CDS	rps1		30S ribosomal protein S1
JPNIKEKI_00582						26.7618						1	1	6,3895E-11	dRep_bin095_HOBNOEEF_02030;dRep_bin203_CLFNNOCF_00407;dRep_bin135_HHKACLPM_01560;dRep_bin005_CNDFPKJG_00657;dRep_bin322_OJELOJOF_01582;dRep_bin310_IMBAFDIF_01593;dRep_bin269_PNILGKPH_01090;dRep_bin134_HIAPAODO_00124;dRep_bin075_EPEMMOCL_02033;dRep_bin248_CCDFPECI_01608;dRep_bin158_OGFICEAP_01624;dRep_bin115_IFKGOGCL_00555;dRep_bin324_IPNHOHFK_01145;dRep_bin297_EDHEEICA_00686;dRep_bin282_PKAAPBFP_00656;dRep_bin179_HFEIPPPA_00189;dRep_bin168_HKDILBFE_01398;dRep_bin041_OPKGAAAG_01276;dRep_bin292_JIBLDOOH_02196;dRep_bin261_FJICAFFM_00056;dRep_bin226_NLNLHLLD_01358;dRep_bin209_NKIHFCEN_00790;dRep_bin157_JPNIKEKI_00582	dRep_bin095_HOBNOEEF_02030;dRep_bin203_CLFNNOCF_00407;dRep_bin135_HHKACLPM_01560;dRep_bin005_CNDFPKJG_00657;dRep_bin322_OJELOJOF_01582;dRep_bin310_IMBAFDIF_01593;dRep_bin269_PNILGKPH_01090;dRep_bin134_HIAPAODO_00124;dRep_bin075_EPEMMOCL_02033;dRep_bin248_CCDFPECI_01608;dRep_bin158_OGFICEAP_01624;dRep_bin115_IFKGOGCL_00555;dRep_bin324_IPNHOHFK_01145;dRep_bin297_EDHEEICA_00686;dRep_bin282_PKAAPBFP_00656;dRep_bin179_HFEIPPPA_00189;dRep_bin168_HKDILBFE_01398;dRep_bin041_OPKGAAAG_01276;dRep_bin292_JIBLDOOH_02196;dRep_bin261_FJICAFFM_00056;dRep_bin226_NLNLHLLD_01358;dRep_bin209_NKIHFCEN_00790;dRep_bin157_JPNIKEKI_00582	>dRep_bin095_HOBNOEEF_02030 Methylmalonyl-CoA carboxyltransferase 5S subunit;>dRep_bin203_CLFNNOCF_00407 Methylmalonyl-CoA carboxyltransferase 5S subunit;>dRep_bin135_HHKACLPM_01560 Methylmalonyl-CoA carboxyltransferase 5S subunit;>dRep_bin005_CNDFPKJG_006	dRep_bin157_JPNIKEKI_00582	CDS		2.1.3.1	Methylmalonyl-CoA carboxyltransferase 5S subunit
JPNIKEKI_00583					23.00606	23.896980000000003						2	1	8,6813E-10	dRep_bin324_IPNHOHFK_01144;dRep_bin297_EDHEEICA_00687;dRep_bin292_JIBLDOOH_02195;dRep_bin261_FJICAFFM_00057;dRep_bin226_NLNLHLLD_01357;dRep_bin209_NKIHFCEN_00791;dRep_bin203_CLFNNOCF_00406;dRep_bin179_HFEIPPPA_00190;dRep_bin157_JPNIKEKI_00583;dRep_bin133_NOBPDBPA_01168;dRep_bin041_OPKGAAAG_01275;dRep_bin168_HKDILBFE_01397;dRep_bin130_OIFFANPF_00962;dRep_bin083_OCBADPJJ_00812;dRep_bin169_PNICKJKO_00385;dRep_bin319_PBDBJGCJ_01796;dRep_bin109_MJABCPAK_00038;dRep_bin106_BKDHGPBE_00849;dRep_bin216_JNJMCPHB_01613;dRep_bin299_AKNBKJGM_00580;dRep_bin100_CODMOHGB_00911;dRep_bin317_ABPHNCOD_01390;dRep_bin272_LGBDGEIM_00788;dRep_bin249_OFIIEIDJ_00467;dRep_bin066_AJACLPEE_01038;dRep_bin335_JIOGNAPG_00681;dRep_bin234_ECABPBME_00227;dRep_bin088_DNGPPFDK_01237;dRep_bin303_DDDNDJCF_00797;dRep_bin300_MJPPENNL_00671;dRep_bin279_IAEFEPEN_01368;dRep_bin278_BFCONKOE_00336;dRep_bin269_PNILGKPH_01089;dRep_bin260_HELEPKJL_01496;dRep_bin089_PAJFOJBN_00528;dRep_bin027_OFJCHLJJ_00828;dRep_bin019_MOJEPLJF_01606;dRep_bin116_CLFDBMOF_00536;dRep_bin057_BNCFHBBO_00059;dRep_bin134_HIAPAODO_00123;dRep_bin322_OJELOJOF_01583;dRep_bin270_GEJAHNCN_00957;dRep_bin348_LCLFDNEE_00829;dRep_bin295_EJGKDKNE_00315;dRep_bin277_MIPNGEJE_01644;dRep_bin166_DFIAJFEC_00192;dRep_bin264_DNFFGNEG_00340;dRep_bin153_JGABJFBF_01236;dRep_bin114_FJHJKHGL_00133;dRep_bin111_FPJIHFKE_00195;dRep_bin252_NDAKLAGD_00473;dRep_bin247_EKGBJCBM_00710;dRep_bin035_JBNPBOKG_01025;dRep_bin026_HNPIIINL_00916;dRep_bin085_MBHLGCDB_01217;dRep_bin068_ENOLAELK_00657;dRep_bin049_MNFBDPNO_00064;dRep_bin038_EIGFILKG_00881;dRep_bin152_LJMCIADF_01515;dRep_bin079_GAOGCKND_00762;dRep_bin231_CFOLMJBA_00732;dRep_bin126_PPDNCIBN_00705;dRep_bin333_EFOKIBLA_00857;dRep_bin123_PJKBFKBB_00290;dRep_bin185_OOOLKACK_01362;dRep_bin305_FCIEFIHE_01147;dRep_bin070_EMBHKIOF_00605;dRep_bin006_HPJGJCAG_01539;dRep_bin101_BNDDLDCL_00049;dRep_bin331_HPKAPHAF_00752;dRep_bin301_NJFJIJGA_00013;dRep_bin037_GEAOEKHA_01146;dRep_bin087_FCLGAPPI_00654;dRep_bin159_ADJJGPBG_01916;dRep_bin304_JDNJGFKH_01533;dRep_bin120_EKLBOPNC_00943;dRep_bin162_JBGCCDIN_00762;dRep_bin072_JOBJPCGA_01185;dRep_bin320_LDBKCCKL_00985;dRep_bin245_MBCFLKOF_00867;dRep_bin010_MFFFGEGD_00116;dRep_bin205_LKIOOBKC_01048;dRep_bin043_KLAFNACO_01234;dRep_bin011_KOGMKLNO_01366;dRep_bin189_AHHEHGDL_01620;dRep_bin222_GGCAJABB_00316;dRep_bin208_DHPGEIBC_01479;dRep_bin130_OIFFANPF_00887	dRep_bin324_IPNHOHFK_01144;dRep_bin297_EDHEEICA_00687;dRep_bin292_JIBLDOOH_02195;dRep_bin261_FJICAFFM_00057;dRep_bin226_NLNLHLLD_01357;dRep_bin209_NKIHFCEN_00791;dRep_bin203_CLFNNOCF_00406;dRep_bin179_HFEIPPPA_00190;dRep_bin157_JPNIKEKI_00583;dRep_bin133_NOBPDBPA_01168;dRep_bin041_OPKGAAAG_01275;dRep_bin168_HKDILBFE_01397;dRep_bin130_OIFFANPF_00962;dRep_bin083_OCBADPJJ_00812;dRep_bin169_PNICKJKO_00385;dRep_bin319_PBDBJGCJ_01796;dRep_bin109_MJABCPAK_00038;dRep_bin106_BKDHGPBE_00849;dRep_bin216_JNJMCPHB_01613;dRep_bin299_AKNBKJGM_00580;dRep_bin100_CODMOHGB_00911;dRep_bin317_ABPHNCOD_01390;dRep_bin272_LGBDGEIM_00788;dRep_bin249_OFIIEIDJ_00467;dRep_bin066_AJACLPEE_01038;dRep_bin335_JIOGNAPG_00681;dRep_bin234_ECABPBME_00227;dRep_bin088_DNGPPFDK_01237;dRep_bin303_DDDNDJCF_00797;dRep_bin300_MJPPENNL_00671;dRep_bin279_IAEFEPEN_01368;dRep_bin278_BFCONKOE_00336;dRep_bin269_PNILGKPH_01089;dRep_bin260_HELEPKJL_01496;dRep_bin089_PAJFOJBN_00528;dRep_bin027_OFJCHLJJ_00828;dRep_bin019_MOJEPLJF_01606;dRep_bin116_CLFDBMOF_00536;dRep_bin057_BNCFHBBO_00059;dRep_bin134_HIAPAODO_00123;dRep_bin322_OJELOJOF_01583;dRep_bin270_GEJAHNCN_00957;dRep_bin348_LCLFDNEE_00829;dRep_bin295_EJGKDKNE_00315;dRep_bin277_MIPNGEJE_01644;dRep_bin166_DFIAJFEC_00192;dRep_bin264_DNFFGNEG_00340;dRep_bin153_JGABJFBF_01236;dRep_bin114_FJHJKHGL_00133;dRep_bin111_FPJIHFKE_00195;dRep_bin252_NDAKLAGD_00473;dRep_bin247_EKGBJCBM_00710;dRep_bin035_JBNPBOKG_01025;dRep_bin026_HNPIIINL_00916;dRep_bin085_MBHLGCDB_01217;dRep_bin068_ENOLAELK_00657;dRep_bin049_MNFBDPNO_00064;dRep_bin038_EIGFILKG_00881;dRep_bin152_LJMCIADF_01515;dRep_bin079_GAOGCKND_00762;dRep_bin231_CFOLMJBA_00732;dRep_bin126_PPDNCIBN_00705;dRep_bin333_EFOKIBLA_00857;dRep_bin123_PJKBFKBB_00290;dRep_bin185_OOOLKACK_01362;dRep_bin305_FCIEFIHE_01147;dRep_bin070_EMBHKIOF_00605;dRep_bin006_HPJGJCAG_01539;dRep_bin101_BNDDLDCL_00049;dRep_bin331_HPKAPHAF_00752;dRep_bin301_NJFJIJGA_00013;dRep_bin037_GEAOEKHA_01146;dRep_bin087_FCLGAPPI_00654;dRep_bin159_ADJJGPBG_01916;dRep_bin304_JDNJGFKH_01533;dRep_bin120_EKLBOPNC_00943;dRep_bin162_JBGCCDIN_00762;dRep_bin072_JOBJPCGA_01185;dRep_bin320_LDBKCCKL_00985;dRep_bin245_MBCFLKOF_00867;dRep_bin010_MFFFGEGD_00116;dRep_bin205_LKIOOBKC_01048;dRep_bin043_KLAFNACO_01234;dRep_bin011_KOGMKLNO_01366;dRep_bin189_AHHEHGDL_01620;dRep_bin222_GGCAJABB_00316;dRep_bin208_DHPGEIBC_01479;dRep_bin130_OIFFANPF_00887	>dRep_bin324_IPNHOHFK_01144 Glutaconyl-CoA decarboxylase subunit beta;>dRep_bin297_EDHEEICA_00687 Glutaconyl-CoA decarboxylase subunit beta;>dRep_bin292_JIBLDOOH_02195 Glutaconyl-CoA decarboxylase subunit beta;>dRep_bin261_FJICAFFM_00057 Glutaconyl-CoA dec	dRep_bin157_JPNIKEKI_00583	CDS	gcdB	4.1.1.70	Glutaconyl-CoA decarboxylase subunit beta
JPNIKEKI_00599			23.51473									1	1	0,0011456	dRep_bin203_CLFNNOCF_00368;dRep_bin157_JPNIKEKI_00599	dRep_bin203_CLFNNOCF_00368;dRep_bin157_JPNIKEKI_00599	>dRep_bin203_CLFNNOCF_00368 Polymer-forming cytoskeletal;>dRep_bin157_JPNIKEKI_00599 Polymer-forming cytoskeletal	dRep_bin157_JPNIKEKI_00599	CDS			Polymer-forming cytoskeletal
JPNIKEKI_00600						26.219800000000003						7	2	1,8776E-74	dRep_bin041_OPKGAAAG_01707;dRep_bin157_JPNIKEKI_00600	dRep_bin041_OPKGAAAG_01707	>dRep_bin041_OPKGAAAG_01707 Uridylate kinase	dRep_bin157_JPNIKEKI_00600	CDS	pyrH	2.7.4.22	Uridylate kinase
JPNIKEKI_00608	20.299950000000003											6	0	3,8118E-42	dRep_bin157_JPNIKEKI_00608	dRep_bin157_JPNIKEKI_00608	>dRep_bin157_JPNIKEKI_00608 N,N-diacetylchitobiose phosphorylase	dRep_bin157_JPNIKEKI_00608	CDS	chbP	2.4.1.280	N,N'-diacetylchitobiose phosphorylase
JPNIKEKI_00609		25.098439999999997										4	1	8,4088E-12	dRep_bin157_JPNIKEKI_00609;dRep_bin324_IPNHOHFK_00332	dRep_bin157_JPNIKEKI_00609	>dRep_bin157_JPNIKEKI_00609 Cellobiose phosphorylase	dRep_bin157_JPNIKEKI_00609	CDS	cbpA_1	2.4.1.20	Cellobiose phosphorylase
JPNIKEKI_00615	26.14112											10	1	3,103E-161	dRep_bin209_NKIHFCEN_00160;dRep_bin157_JPNIKEKI_00615;dRep_bin226_NLNLHLLD_00396	dRep_bin209_NKIHFCEN_00160;dRep_bin157_JPNIKEKI_00615;dRep_bin226_NLNLHLLD_00396	>dRep_bin209_NKIHFCEN_00160 Trehalose import ATP-binding protein SugC;>dRep_bin157_JPNIKEKI_00615 Trehalose import ATP-binding protein SugC;>dRep_bin226_NLNLHLLD_00396 Trehalose import ATP-binding protein SugC	dRep_bin157_JPNIKEKI_00615	CDS	sugC	3.6.3.-	Trehalose import ATP-binding protein SugC
JPNIKEKI_00663	27.571810000000003	27.280209999999997	25.286659999999998	24.71931								22	2	6,5469E-201	dRep_bin157_JPNIKEKI_00663	dRep_bin157_JPNIKEKI_00663	>dRep_bin157_JPNIKEKI_00663 Glycogen phosphorylase	dRep_bin157_JPNIKEKI_00663	CDS	glgP_1	2.4.1.1	Glycogen phosphorylase
JPNIKEKI_00669						24.10069	22.45886	23.12539				2	2	8,2805E-06	dRep_bin209_NKIHFCEN_01031;dRep_bin292_JIBLDOOH_00689;dRep_bin157_JPNIKEKI_00669;dRep_bin041_OPKGAAAG_01316	dRep_bin209_NKIHFCEN_01031;dRep_bin292_JIBLDOOH_00689;dRep_bin157_JPNIKEKI_00669;dRep_bin041_OPKGAAAG_01316	>dRep_bin209_NKIHFCEN_01031 GTP-binding protein TypA/BipA;>dRep_bin292_JIBLDOOH_00689 GTP-binding protein TypA/BipA;>dRep_bin157_JPNIKEKI_00669 GTP-binding protein TypA/BipA;>dRep_bin041_OPKGAAAG_01316 GTP-binding protein TypA/BipA	dRep_bin157_JPNIKEKI_00669	CDS	typA		GTP-binding protein TypA/BipA
JPNIKEKI_00670	26.006539999999998	26.268279999999997	26.69219	26.088589999999996	24.97412	24.5981	24.64014	24.882689999999997				3	3	1,2232E-06	dRep_bin179_HFEIPPPA_01138;dRep_bin133_NOBPDBPA_03606;dRep_bin209_NKIHFCEN_01032;dRep_bin157_JPNIKEKI_00670;dRep_bin041_OPKGAAAG_01317;dRep_bin292_JIBLDOOH_00688;dRep_bin261_FJICAFFM_00138;dRep_bin226_NLNLHLLD_01388;dRep_bin328_GIGKNKPJ_00242;dRep_bin344_CJJBDGAA_00969;dRep_bin220_PILICLLL_00069;dRep_bin249_OFIIEIDJ_00359;dRep_bin324_IPNHOHFK_00446;dRep_bin303_DDDNDJCF_00610;dRep_bin269_PNILGKPH_01850;dRep_bin260_HELEPKJL_00807;dRep_bin211_LGJEFJIK_01183;dRep_bin139_KGAJINND_01384;dRep_bin039_IJNOFOJK_00920;dRep_bin310_IMBAFDIF_00714;dRep_bin254_GJDPFAEA_00378;dRep_bin019_MOJEPLJF_01144;dRep_bin186_HJAAFFNP_00163;dRep_bin300_MJPPENNL_00484;dRep_bin279_IAEFEPEN_00580;dRep_bin069_EGGEOGDC_01257;dRep_bin127_FIPNHBCH_00608;dRep_bin065_DFABHCBI_02316;dRep_bin240_LDBBGJKG_01460;dRep_bin134_HIAPAODO_01900;dRep_bin186_HJAAFFNP_01258;dRep_bin203_CLFNNOCF_01535	dRep_bin179_HFEIPPPA_01138;dRep_bin133_NOBPDBPA_03606;dRep_bin209_NKIHFCEN_01032;dRep_bin157_JPNIKEKI_00670;dRep_bin041_OPKGAAAG_01317;dRep_bin292_JIBLDOOH_00688;dRep_bin261_FJICAFFM_00138;dRep_bin226_NLNLHLLD_01388	>dRep_bin179_HFEIPPPA_01138 Single-stranded DNA-binding protein B;>dRep_bin133_NOBPDBPA_03606 Single-stranded DNA-binding protein A;>dRep_bin209_NKIHFCEN_01032 Single-stranded DNA-binding protein B;>dRep_bin157_JPNIKEKI_00670 Single-stranded DNA-binding pr	dRep_bin157_JPNIKEKI_00670	CDS	ssbA		Single-stranded DNA-binding protein A
JPNIKEKI_00673					24.865329999999997	24.908339999999995		23.611890000000006				4	3	4,0786E-16	dRep_bin041_OPKGAAAG_01319;dRep_bin157_JPNIKEKI_00673	dRep_bin041_OPKGAAAG_01319;dRep_bin157_JPNIKEKI_00673	>dRep_bin041_OPKGAAAG_01319 4-hydroxy-tetrahydrodipicolinate synthase;>dRep_bin157_JPNIKEKI_00673 4-hydroxy-tetrahydrodipicolinate synthase	dRep_bin157_JPNIKEKI_00673	CDS	dapA_2	4.3.3.7	4-hydroxy-tetrahydrodipicolinate synthase
JPNIKEKI_00674	25.70176				25.55172	26.551050000000004		25.39316				5	5	8,1212E-17	dRep_bin041_OPKGAAAG_01320;dRep_bin157_JPNIKEKI_00674;dRep_bin203_CLFNNOCF_01538;dRep_bin292_JIBLDOOH_00685;dRep_bin226_NLNLHLLD_00131;dRep_bin209_NKIHFCEN_01035;dRep_bin179_HFEIPPPA_01135;dRep_bin324_IPNHOHFK_00443;dRep_bin133_NOBPDBPA_03609	dRep_bin041_OPKGAAAG_01320;dRep_bin157_JPNIKEKI_00674	>dRep_bin041_OPKGAAAG_01320 4-hydroxy-tetrahydrodipicolinate reductase;>dRep_bin157_JPNIKEKI_00674 4-hydroxy-tetrahydrodipicolinate reductase	dRep_bin157_JPNIKEKI_00674	CDS	dapB	1.17.1.8	4-hydroxy-tetrahydrodipicolinate reductase
JPNIKEKI_00677					25.405189999999997							2	2	7,4204E-09	dRep_bin047_IFFANOMN_01382;dRep_bin019_MOJEPLJF_01837;dRep_bin260_HELEPKJL_00817;dRep_bin158_OGFICEAP_01465;dRep_bin115_IFKGOGCL_01465;dRep_bin016_JLGAHGOJ_01175;dRep_bin203_CLFNNOCF_01539;dRep_bin179_HFEIPPPA_01127;dRep_bin157_JPNIKEKI_00677;dRep_bin041_OPKGAAAG_01323;dRep_bin209_NKIHFCEN_01038	dRep_bin047_IFFANOMN_01382;dRep_bin019_MOJEPLJF_01837;dRep_bin260_HELEPKJL_00817;dRep_bin158_OGFICEAP_01465;dRep_bin115_IFKGOGCL_01465;dRep_bin016_JLGAHGOJ_01175;dRep_bin203_CLFNNOCF_01539;dRep_bin179_HFEIPPPA_01127;dRep_bin157_JPNIKEKI_00677;dRep_bin041_OPKGAAAG_01323;dRep_bin209_NKIHFCEN_01038	>dRep_bin047_IFFANOMN_01382 Orotidine 5-phosphate decarboxylase;>dRep_bin019_MOJEPLJF_01837 Orotidine 5-phosphate decarboxylase;>dRep_bin260_HELEPKJL_00817 Orotidine 5-phosphate decarboxylase;>dRep_bin158_OGFICEAP_01465 Orotidine 5-phosphate decarboxyl	dRep_bin157_JPNIKEKI_00677	CDS	pyrF	4.1.1.23	Orotidine 5'-phosphate decarboxylase
JPNIKEKI_00686		25.59346										2	2	3,2981E-11	dRep_bin039_IJNOFOJK_01429;dRep_bin179_HFEIPPPA_01750;dRep_bin261_FJICAFFM_00652;dRep_bin091_MAFACGAD_00273;dRep_bin240_LDBBGJKG_00904;dRep_bin328_GIGKNKPJ_00458;dRep_bin254_GJDPFAEA_01539;dRep_bin157_JPNIKEKI_00686;dRep_bin145_KMJJJOEJ_00143;dRep_bin135_HHKACLPM_00007;dRep_bin127_FIPNHBCH_00339;dRep_bin324_IPNHOHFK_00197;dRep_bin269_PNILGKPH_01185;dRep_bin300_MJPPENNL_00127;dRep_bin292_JIBLDOOH_00667;dRep_bin279_IAEFEPEN_01212;dRep_bin209_NKIHFCEN_00751;dRep_bin139_KGAJINND_00495;dRep_bin041_OPKGAAAG_00838;dRep_bin344_CJJBDGAA_01932;dRep_bin226_NLNLHLLD_00116;dRep_bin133_NOBPDBPA_02511;dRep_bin203_CLFNNOCF_01554	dRep_bin039_IJNOFOJK_01429;dRep_bin179_HFEIPPPA_01750;dRep_bin261_FJICAFFM_00652;dRep_bin091_MAFACGAD_00273;dRep_bin240_LDBBGJKG_00904;dRep_bin328_GIGKNKPJ_00458;dRep_bin254_GJDPFAEA_01539;dRep_bin157_JPNIKEKI_00686;dRep_bin145_KMJJJOEJ_00143;dRep_bin135_HHKACLPM_00007;dRep_bin127_FIPNHBCH_00339;dRep_bin324_IPNHOHFK_00197;dRep_bin269_PNILGKPH_01185;dRep_bin300_MJPPENNL_00127;dRep_bin292_JIBLDOOH_00667;dRep_bin279_IAEFEPEN_01212;dRep_bin209_NKIHFCEN_00751;dRep_bin139_KGAJINND_00495;dRep_bin041_OPKGAAAG_00838;dRep_bin344_CJJBDGAA_01932;dRep_bin226_NLNLHLLD_00116;dRep_bin133_NOBPDBPA_02511;dRep_bin203_CLFNNOCF_01554	>dRep_bin039_IJNOFOJK_01429 Phosphoribosylglycinamide formyltransferase;>dRep_bin179_HFEIPPPA_01750 Phosphoribosylglycinamide formyltransferase;>dRep_bin261_FJICAFFM_00652 Phosphoribosylglycinamide formyltransferase;>dRep_bin091_MAFACGAD_00273 Phosphoribos	dRep_bin157_JPNIKEKI_00686	CDS	purN	2.1.2.2	Phosphoribosylglycinamide formyltransferase
JPNIKEKI_00687								21.54076				4	1	5,4014E-11	dRep_bin157_JPNIKEKI_00687;dRep_bin041_OPKGAAAG_00839;dRep_bin209_NKIHFCEN_00752;dRep_bin201_OLKDIBOK_01060	dRep_bin157_JPNIKEKI_00687;dRep_bin041_OPKGAAAG_00839;dRep_bin209_NKIHFCEN_00752;dRep_bin201_OLKDIBOK_01060	>dRep_bin157_JPNIKEKI_00687 Phosphoribosylamine--glycine ligase;>dRep_bin041_OPKGAAAG_00839 Phosphoribosylamine--glycine ligase;>dRep_bin209_NKIHFCEN_00752 Phosphoribosylamine--glycine ligase;>dRep_bin201_OLKDIBOK_01060 Phosphoribosylamine--glycine ligase	dRep_bin157_JPNIKEKI_00687	CDS	purD	6.3.4.13	Phosphoribosylamine--glycine ligase
JPNIKEKI_00690					23.002699999999997	22.697870000000005		23.99697				3	1	7,4177E-09	dRep_bin324_IPNHOHFK_00791;dRep_bin209_NKIHFCEN_02039;dRep_bin157_JPNIKEKI_00690;dRep_bin013_IODPEDPB_00309	dRep_bin324_IPNHOHFK_00791;dRep_bin209_NKIHFCEN_02039;dRep_bin157_JPNIKEKI_00690	>dRep_bin324_IPNHOHFK_00791 DNA gyrase subunit A;>dRep_bin209_NKIHFCEN_02039 DNA gyrase subunit A;>dRep_bin157_JPNIKEKI_00690 DNA gyrase subunit A	dRep_bin157_JPNIKEKI_00690	CDS	gyrA_2	5.99.1.3	DNA gyrase subunit A
JPNIKEKI_00707				24.47327								4	2	5,0764E-16	dRep_bin292_JIBLDOOH_01147;dRep_bin209_NKIHFCEN_00320;dRep_bin157_JPNIKEKI_00707;dRep_bin179_HFEIPPPA_00531	dRep_bin292_JIBLDOOH_01147	>dRep_bin292_JIBLDOOH_01147 Acetylornithine aminotransferase	dRep_bin157_JPNIKEKI_00707	CDS	argD_1	2.6.1.11	Acetylornithine aminotransferase
JPNIKEKI_00708					23.21232	23.59742		22.883699999999997				2	2	5,8061E-07	dRep_bin041_OPKGAAAG_02192;dRep_bin261_FJICAFFM_01217;dRep_bin179_HFEIPPPA_00530;dRep_bin157_JPNIKEKI_00708;dRep_bin226_NLNLHLLD_00886	dRep_bin041_OPKGAAAG_02192;dRep_bin261_FJICAFFM_01217;dRep_bin179_HFEIPPPA_00530;dRep_bin157_JPNIKEKI_00708;dRep_bin226_NLNLHLLD_00886	>dRep_bin041_OPKGAAAG_02192 Acetylglutamate kinase;>dRep_bin261_FJICAFFM_01217 Acetylglutamate kinase;>dRep_bin179_HFEIPPPA_00530 Acetylglutamate kinase;>dRep_bin157_JPNIKEKI_00708 Acetylglutamate kinase;>dRep_bin226_NLNLHLLD_00886 Acetylglutamate kinase	dRep_bin157_JPNIKEKI_00708	CDS	argB	2.7.2.8	Acetylglutamate kinase
JPNIKEKI_00710				24.25609								5	1	1,5418E-13	dRep_bin209_NKIHFCEN_00317;dRep_bin324_IPNHOHFK_01678;dRep_bin157_JPNIKEKI_00710;dRep_bin074_EHAOMODJ_01437;dRep_bin062_BOFBFLDA_00093;dRep_bin145_KMJJJOEJ_01378;dRep_bin024_OLHDGABE_00204;dRep_bin308_JBPDGLPP_00141;dRep_bin203_CLFNNOCF_01622;dRep_bin226_NLNLHLLD_00884;dRep_bin269_PNILGKPH_01346;dRep_bin179_HFEIPPPA_00528;dRep_bin279_IAEFEPEN_00315;dRep_bin254_GJDPFAEA_01649;dRep_bin158_OGFICEAP_01163;dRep_bin167_BLMEBMNN_00405;dRep_bin065_DFABHCBI_00157	dRep_bin209_NKIHFCEN_00317	>dRep_bin209_NKIHFCEN_00317 N-acetyl-gamma-glutamyl-phosphate reductase	dRep_bin157_JPNIKEKI_00710	CDS	argC	1.2.1.38	N-acetyl-gamma-glutamyl-phosphate reductase
JPNIKEKI_00739	27.628950000000003	27.57463	26.29246	26.29637								7	5	5,618E-50	dRep_bin157_JPNIKEKI_00739	dRep_bin157_JPNIKEKI_00739	>dRep_bin157_JPNIKEKI_00739 Bacterial extracellular solute-binding protein	dRep_bin157_JPNIKEKI_00739	CDS			Bacterial extracellular solute-binding protein
JPNIKEKI_00808					25.68008	27.02411	25.38281	25.32165				3	3	7,9156E-15	dRep_bin226_NLNLHLLD_00501;dRep_bin041_OPKGAAAG_00618;dRep_bin297_EDHEEICA_00183;dRep_bin269_PNILGKPH_01725;dRep_bin179_HFEIPPPA_00805;dRep_bin157_JPNIKEKI_00808;dRep_bin209_NKIHFCEN_00924;dRep_bin039_IJNOFOJK_00290;dRep_bin344_CJJBDGAA_00560;dRep_bin324_IPNHOHFK_01905;dRep_bin310_IMBAFDIF_00509;dRep_bin303_DDDNDJCF_00255;dRep_bin292_JIBLDOOH_00721;dRep_bin248_CCDFPECI_01503;dRep_bin220_PILICLLL_01871;dRep_bin203_CLFNNOCF_01497;dRep_bin201_OLKDIBOK_01842;dRep_bin158_OGFICEAP_00351;dRep_bin145_KMJJJOEJ_00076;dRep_bin133_NOBPDBPA_03150;dRep_bin115_IFKGOGCL_00616;dRep_bin095_HOBNOEEF_01083;dRep_bin279_IAEFEPEN_01129;dRep_bin306_FGHMKMMP_00759;dRep_bin282_PKAAPBFP_00753;dRep_bin016_JLGAHGOJ_01160;dRep_bin261_FJICAFFM_00017;dRep_bin031_BNHMFOII_01497;dRep_bin325_EIIGOGHN_00625;dRep_bin168_HKDILBFE_01177;dRep_bin099_DNDAGJEJ_00278;dRep_bin335_JIOGNAPG_00120;dRep_bin308_JBPDGLPP_00959;dRep_bin234_ECABPBME_01000;dRep_bin240_LDBBGJKG_01894;dRep_bin167_BLMEBMNN_00117	dRep_bin226_NLNLHLLD_00501;dRep_bin041_OPKGAAAG_00618;dRep_bin297_EDHEEICA_00183;dRep_bin269_PNILGKPH_01725;dRep_bin179_HFEIPPPA_00805;dRep_bin157_JPNIKEKI_00808	>dRep_bin226_NLNLHLLD_00501 ATP-dependent Clp protease proteolytic subunit;>dRep_bin041_OPKGAAAG_00618 ATP-dependent Clp protease proteolytic subunit;>dRep_bin297_EDHEEICA_00183 ATP-dependent Clp protease proteolytic subunit;>dRep_bin269_PNILGKPH_01725 ATP	dRep_bin157_JPNIKEKI_00808	CDS	clpP	3.4.21.92	ATP-dependent Clp protease proteolytic subunit
JPNIKEKI_00822						24.352050000000002						1	1	0,00014216	dRep_bin182_EMCFODCD_01381;dRep_bin157_JPNIKEKI_00822;dRep_bin044_IPFKHAEF_01309;dRep_bin089_PAJFOJBN_02060;dRep_bin166_DFIAJFEC_01371;dRep_bin175_HANCENAK_00962;dRep_bin048_PABMBHAL_02288	dRep_bin182_EMCFODCD_01381;dRep_bin157_JPNIKEKI_00822;dRep_bin044_IPFKHAEF_01309;dRep_bin089_PAJFOJBN_02060;dRep_bin166_DFIAJFEC_01371;dRep_bin175_HANCENAK_00962;dRep_bin048_PABMBHAL_02288	>dRep_bin182_EMCFODCD_01381 Glycerol-3-phosphate cytidylyltransferase;>dRep_bin157_JPNIKEKI_00822 Glycerol-3-phosphate cytidylyltransferase;>dRep_bin044_IPFKHAEF_01309 Glycerol-3-phosphate cytidylyltransferase;>dRep_bin089_PAJFOJBN_02060 Glycerol-3-phospha	dRep_bin157_JPNIKEKI_00822	CDS	tagD	2.7.7.39	Glycerol-3-phosphate cytidylyltransferase
JPNIKEKI_00863	27.282679999999996	28.32298	27.32294	27.672629999999998								6	0	1,3105E-30	dRep_bin303_DDDNDJCF_00593;dRep_bin157_JPNIKEKI_00863	dRep_bin303_DDDNDJCF_00593	>dRep_bin303_DDDNDJCF_00593 Rubrerythrin-1	dRep_bin157_JPNIKEKI_00863	CDS	rbr		Rubrerythrin
JPNIKEKI_00870				21.153070000000003								5	0	2,1735E-43	dRep_bin209_NKIHFCEN_01902;dRep_bin261_FJICAFFM_00542;dRep_bin157_JPNIKEKI_00870;dRep_bin297_EDHEEICA_01824;dRep_bin100_CODMOHGB_00455;dRep_bin309_BIOHLCGG_00473	dRep_bin209_NKIHFCEN_01902;dRep_bin261_FJICAFFM_00542;dRep_bin157_JPNIKEKI_00870;dRep_bin297_EDHEEICA_01824	>dRep_bin209_NKIHFCEN_01902 Aspartate carbamoyltransferase catalytic subunit;>dRep_bin261_FJICAFFM_00542 Aspartate carbamoyltransferase;>dRep_bin157_JPNIKEKI_00870 Aspartate carbamoyltransferase catalytic subunit;>dRep_bin297_EDHEEICA_01824 Aspartate carba	dRep_bin157_JPNIKEKI_00870	CDS	pyrB	2.1.3.2	Aspartate carbamoyltransferase catalytic subunit
JPNIKEKI_00889								22.391840000000002				2	2	0,0012784	dRep_bin292_JIBLDOOH_01455;dRep_bin297_EDHEEICA_00460;dRep_bin260_HELEPKJL_01994;dRep_bin134_HIAPAODO_01228;dRep_bin115_IFKGOGCL_01262;dRep_bin062_BOFBFLDA_00625;dRep_bin269_PNILGKPH_00784;dRep_bin145_KMJJJOEJ_00869;dRep_bin310_IMBAFDIF_00687;dRep_bin226_NLNLHLLD_01228;dRep_bin209_NKIHFCEN_00359;dRep_bin158_OGFICEAP_01380;dRep_bin157_JPNIKEKI_00889;dRep_bin127_FIPNHBCH_01213;dRep_bin186_HJAAFFNP_00787;dRep_bin167_BLMEBMNN_01301;dRep_bin069_EGGEOGDC_00481;dRep_bin016_JLGAHGOJ_01259;dRep_bin065_DFABHCBI_00254;dRep_bin039_IJNOFOJK_01684;dRep_bin322_OJELOJOF_00527;dRep_bin261_FJICAFFM_00492;dRep_bin220_PILICLLL_01235;dRep_bin201_OLKDIBOK_02013;dRep_bin303_DDDNDJCF_00579	dRep_bin292_JIBLDOOH_01455;dRep_bin297_EDHEEICA_00460;dRep_bin260_HELEPKJL_01994;dRep_bin134_HIAPAODO_01228;dRep_bin115_IFKGOGCL_01262;dRep_bin062_BOFBFLDA_00625;dRep_bin269_PNILGKPH_00784;dRep_bin145_KMJJJOEJ_00869;dRep_bin310_IMBAFDIF_00687;dRep_bin226_NLNLHLLD_01228;dRep_bin209_NKIHFCEN_00359;dRep_bin158_OGFICEAP_01380;dRep_bin157_JPNIKEKI_00889;dRep_bin127_FIPNHBCH_01213;dRep_bin186_HJAAFFNP_00787;dRep_bin167_BLMEBMNN_01301;dRep_bin069_EGGEOGDC_00481;dRep_bin016_JLGAHGOJ_01259;dRep_bin065_DFABHCBI_00254;dRep_bin039_IJNOFOJK_01684;dRep_bin322_OJELOJOF_00527;dRep_bin261_FJICAFFM_00492;dRep_bin220_PILICLLL_01235;dRep_bin201_OLKDIBOK_02013;dRep_bin303_DDDNDJCF_00579	>dRep_bin292_JIBLDOOH_01455 Ribonuclease J1;>dRep_bin297_EDHEEICA_00460 Ribonuclease J1;>dRep_bin260_HELEPKJL_01994 Ribonuclease J1;>dRep_bin134_HIAPAODO_01228 Ribonuclease J1;>dRep_bin115_IFKGOGCL_01262 Ribonuclease J1;>dRep_bin062_BOFBFLDA_00625 Ribonucl	dRep_bin157_JPNIKEKI_00889	CDS	rnjA	3.1.-.-	Ribonuclease J1
JPNIKEKI_00900	25.986659999999997		25.93132	27.004850000000005	26.49207	26.162789999999998		25.75626				2	2	0,00021927	dRep_bin041_OPKGAAAG_00705;dRep_bin209_NKIHFCEN_01520;dRep_bin157_JPNIKEKI_00900;dRep_bin133_NOBPDBPA_00703	dRep_bin041_OPKGAAAG_00705;dRep_bin209_NKIHFCEN_01520;dRep_bin157_JPNIKEKI_00900;dRep_bin133_NOBPDBPA_00703	>dRep_bin041_OPKGAAAG_00705 30S ribosomal protein S18;>dRep_bin209_NKIHFCEN_01520 30S ribosomal protein S18;>dRep_bin157_JPNIKEKI_00900 30S ribosomal protein S18;>dRep_bin133_NOBPDBPA_00703 30S ribosomal protein S18	dRep_bin157_JPNIKEKI_00900	CDS	rpsR		30S ribosomal protein S18
JPNIKEKI_00928						25.756970000000003						1	1	0,007356	dRep_bin158_OGFICEAP_00836;dRep_bin115_IFKGOGCL_02533;dRep_bin062_BOFBFLDA_00357;dRep_bin292_JIBLDOOH_00157;dRep_bin203_CLFNNOCF_00943;dRep_bin157_JPNIKEKI_00928;dRep_bin041_OPKGAAAG_00529;dRep_bin047_IFFANOMN_01141	dRep_bin158_OGFICEAP_00836;dRep_bin115_IFKGOGCL_02533;dRep_bin062_BOFBFLDA_00357;dRep_bin292_JIBLDOOH_00157;dRep_bin203_CLFNNOCF_00943;dRep_bin157_JPNIKEKI_00928;dRep_bin041_OPKGAAAG_00529;dRep_bin047_IFFANOMN_01141	>dRep_bin158_OGFICEAP_00836 Pyrroline-5-carboxylate reductase;>dRep_bin115_IFKGOGCL_02533 Pyrroline-5-carboxylate reductase;>dRep_bin062_BOFBFLDA_00357 Pyrroline-5-carboxylate reductase;>dRep_bin292_JIBLDOOH_00157 Pyrroline-5-carboxylate reductase;>dRep_bi	dRep_bin157_JPNIKEKI_00928	CDS	proC	1.5.1.2	Pyrroline-5-carboxylate reductase
JPNIKEKI_00942						25.37859						4	2	2,2689E-13	dRep_bin157_JPNIKEKI_00942;dRep_bin065_DFABHCBI_01945;dRep_bin282_PKAAPBFP_01707;dRep_bin075_EPEMMOCL_01191;dRep_bin089_PAJFOJBN_02054;dRep_bin269_PNILGKPH_01091;dRep_bin039_IJNOFOJK_01301;dRep_bin023_HGFJFKAI_00483;dRep_bin167_BLMEBMNN_01800;dRep_bin074_EHAOMODJ_01079;dRep_bin005_CNDFPKJG_00576;dRep_bin277_MIPNGEJE_00824;dRep_bin143_PFLDJMPF_00484;dRep_bin091_MAFACGAD_00708;dRep_bin335_JIOGNAPG_01712;dRep_bin308_JBPDGLPP_01394;dRep_bin306_FGHMKMMP_00157;dRep_bin200_JJGKEOHI_00644;dRep_bin160_EFKMPBOM_01770;dRep_bin154_JGOKHKLI_01254;dRep_bin088_DNGPPFDK_00607;dRep_bin081_JDPCKDNP_00472;dRep_bin234_ECABPBME_00056;dRep_bin101_BNDDLDCL_01417;dRep_bin250_NMCAMJIO_00706;dRep_bin041_OPKGAAAG_01876;dRep_bin240_LDBBGJKG_00488;dRep_bin001_GHHJMDAL_00373;dRep_bin315_AGEMOMDG_00838;dRep_bin239_JIMDAIOF_00250;dRep_bin313_CJFGINPI_01381;dRep_bin163_EBDOGNGI_00300;dRep_bin280_IMCGLKKG_00217;dRep_bin012_KEBBILMO_00361;dRep_bin347_EKGCMFPD_00218;dRep_bin102_ICFDHPGB_00448;dRep_bin178_FLGBGGJB_00789;dRep_bin156_GFIMJAAC_00472	dRep_bin157_JPNIKEKI_00942;dRep_bin065_DFABHCBI_01945;dRep_bin282_PKAAPBFP_01707;dRep_bin075_EPEMMOCL_01191;dRep_bin089_PAJFOJBN_02054;dRep_bin269_PNILGKPH_01091;dRep_bin039_IJNOFOJK_01301;dRep_bin023_HGFJFKAI_00483;dRep_bin167_BLMEBMNN_01800;dRep_bin074_EHAOMODJ_01079;dRep_bin005_CNDFPKJG_00576;dRep_bin277_MIPNGEJE_00824;dRep_bin143_PFLDJMPF_00484;dRep_bin091_MAFACGAD_00708;dRep_bin335_JIOGNAPG_01712;dRep_bin308_JBPDGLPP_01394;dRep_bin306_FGHMKMMP_00157;dRep_bin200_JJGKEOHI_00644;dRep_bin160_EFKMPBOM_01770;dRep_bin154_JGOKHKLI_01254;dRep_bin088_DNGPPFDK_00607;dRep_bin081_JDPCKDNP_00472;dRep_bin234_ECABPBME_00056;dRep_bin101_BNDDLDCL_01417;dRep_bin250_NMCAMJIO_00706	>dRep_bin157_JPNIKEKI_00942 Aspartate--tRNA ligase;>dRep_bin065_DFABHCBI_01945 Aspartate--tRNA ligase;>dRep_bin282_PKAAPBFP_01707 Aspartate--tRNA ligase;>dRep_bin075_EPEMMOCL_01191 Aspartate--tRNA ligase;>dRep_bin089_PAJFOJBN_02054 Aspartate--tRNA ligase;>	dRep_bin157_JPNIKEKI_00942	CDS	aspS_1	6.1.1.12	Aspartate--tRNA ligase
JPNIKEKI_00961		25.58075										6	0	1,3543E-87	dRep_bin108_BPNCDINP_01326;dRep_bin089_PAJFOJBN_00301;dRep_bin300_MJPPENNL_00939;dRep_bin145_KMJJJOEJ_00792;dRep_bin091_MAFACGAD_01189;dRep_bin049_MNFBDPNO_00324;dRep_bin016_JLGAHGOJ_00954;dRep_bin157_JPNIKEKI_00961;dRep_bin297_EDHEEICA_00222;dRep_bin160_EFKMPBOM_02659;dRep_bin079_GAOGCKND_00457;dRep_bin068_ENOLAELK_00441;dRep_bin101_BNDDLDCL_01290;dRep_bin330_CODAKHDJ_00875;dRep_bin133_NOBPDBPA_00602;dRep_bin299_AKNBKJGM_01294;dRep_bin250_NMCAMJIO_01057;dRep_bin123_PJKBFKBB_00547;dRep_bin272_LGBDGEIM_01628;dRep_bin179_HFEIPPPA_01660;dRep_bin216_JNJMCPHB_01272;dRep_bin201_OLKDIBOK_01356;dRep_bin062_BOFBFLDA_00952;dRep_bin107_EFNBPDOP_00212;dRep_bin077_DNNBMPMC_01832;dRep_bin306_FGHMKMMP_01672;dRep_bin095_HOBNOEEF_00755;dRep_bin159_ADJJGPBG_00425;dRep_bin222_GGCAJABB_01443;dRep_bin310_IMBAFDIF_00623;dRep_bin181_MKGPMPIA_00586;dRep_bin074_EHAOMODJ_00159;dRep_bin073_AKBCEHHO_00467;dRep_bin285_IPHKFJAN_00913;dRep_bin228_CECEDMJG_00322;dRep_bin066_AJACLPEE_00029;dRep_bin276_EHNFLEBP_00509;dRep_bin021_AJDDCGJC_01318;dRep_bin104_EGLEJOLM_00960;dRep_bin327_EPEGNBAG_00068;dRep_bin241_LMMMGDNI_00158	dRep_bin108_BPNCDINP_01326;dRep_bin089_PAJFOJBN_00301;dRep_bin300_MJPPENNL_00939;dRep_bin145_KMJJJOEJ_00792;dRep_bin091_MAFACGAD_01189;dRep_bin049_MNFBDPNO_00324;dRep_bin016_JLGAHGOJ_00954;dRep_bin157_JPNIKEKI_00961;dRep_bin297_EDHEEICA_00222;dRep_bin160_EFKMPBOM_02659;dRep_bin079_GAOGCKND_00457;dRep_bin068_ENOLAELK_00441;dRep_bin101_BNDDLDCL_01290;dRep_bin330_CODAKHDJ_00875;dRep_bin133_NOBPDBPA_00602;dRep_bin299_AKNBKJGM_01294;dRep_bin250_NMCAMJIO_01057;dRep_bin123_PJKBFKBB_00547;dRep_bin272_LGBDGEIM_01628;dRep_bin179_HFEIPPPA_01660;dRep_bin216_JNJMCPHB_01272;dRep_bin201_OLKDIBOK_01356;dRep_bin062_BOFBFLDA_00952;dRep_bin107_EFNBPDOP_00212;dRep_bin077_DNNBMPMC_01832;dRep_bin306_FGHMKMMP_01672;dRep_bin095_HOBNOEEF_00755;dRep_bin159_ADJJGPBG_00425;dRep_bin222_GGCAJABB_01443;dRep_bin310_IMBAFDIF_00623;dRep_bin181_MKGPMPIA_00586;dRep_bin074_EHAOMODJ_00159	>dRep_bin108_BPNCDINP_01326 Pyridoxal 5-phosphate synthase subunit PdxS;>dRep_bin089_PAJFOJBN_00301 Pyridoxal 5-phosphate synthase subunit PdxS;>dRep_bin300_MJPPENNL_00939 Pyridoxal 5-phosphate synthase subunit PdxS;>dRep_bin145_KMJJJOEJ_00792 Pyridoxal	dRep_bin157_JPNIKEKI_00961	CDS	pdxS	4.3.3.6	Pyridoxal 5'-phosphate synthase subunit PdxS
JPNIKEKI_01008		24.47116										2	1	4,5567E-20	dRep_bin133_NOBPDBPA_03093;dRep_bin297_EDHEEICA_00196;dRep_bin226_NLNLHLLD_00142;dRep_bin209_NKIHFCEN_01147;dRep_bin157_JPNIKEKI_01008;dRep_bin324_IPNHOHFK_01345	dRep_bin133_NOBPDBPA_03093;dRep_bin297_EDHEEICA_00196;dRep_bin226_NLNLHLLD_00142;dRep_bin209_NKIHFCEN_01147;dRep_bin157_JPNIKEKI_01008;dRep_bin324_IPNHOHFK_01345	>dRep_bin133_NOBPDBPA_03093 Shikimate dehydrogenase (NADP(+));>dRep_bin297_EDHEEICA_00196 Shikimate dehydrogenase (NADP(+));>dRep_bin226_NLNLHLLD_00142 Shikimate dehydrogenase (NADP(+));>dRep_bin209_NKIHFCEN_01147 Shikimate dehydrogenase (NADP(+));>dRep_bi	dRep_bin157_JPNIKEKI_01008	CDS	aroE	1.1.1.25	Shikimate dehydrogenase (NADP(+))
JPNIKEKI_01011				24.745559999999998								7	1	3,8694E-23	dRep_bin157_JPNIKEKI_01011;dRep_bin226_NLNLHLLD_00145;dRep_bin209_NKIHFCEN_01150;dRep_bin005_CNDFPKJG_00105	dRep_bin157_JPNIKEKI_01011;dRep_bin226_NLNLHLLD_00145;dRep_bin209_NKIHFCEN_01150	>dRep_bin157_JPNIKEKI_01011 Flavo-diiron protein FprA1;>dRep_bin226_NLNLHLLD_00145 Flavo-diiron protein FprA1;>dRep_bin209_NKIHFCEN_01150 Flavo-diiron protein FprA1	dRep_bin157_JPNIKEKI_01011	CDS	fprA1	1.6.3.4	Flavo-diiron protein FprA1
JPNIKEKI_01021				27.87226								2	1	4,8064E-08	dRep_bin209_NKIHFCEN_01164;dRep_bin284_DEHKNOBF_00125;dRep_bin186_HJAAFFNP_00318;dRep_bin179_HFEIPPPA_00432;dRep_bin322_OJELOJOF_00068;dRep_bin292_JIBLDOOH_02071;dRep_bin287_DONBGKDH_00018;dRep_bin266_JFOCEDAE_00763;dRep_bin157_JPNIKEKI_01021;dRep_bin134_HIAPAODO_00354;dRep_bin335_JIOGNAPG_00565	dRep_bin209_NKIHFCEN_01164;dRep_bin284_DEHKNOBF_00125;dRep_bin186_HJAAFFNP_00318;dRep_bin179_HFEIPPPA_00432;dRep_bin322_OJELOJOF_00068;dRep_bin292_JIBLDOOH_02071;dRep_bin287_DONBGKDH_00018;dRep_bin266_JFOCEDAE_00763;dRep_bin157_JPNIKEKI_01021;dRep_bin134_HIAPAODO_00354;dRep_bin335_JIOGNAPG_00565	>dRep_bin209_NKIHFCEN_01164 3-oxoacyl-[acyl-carrier-protein] synthase 2;>dRep_bin284_DEHKNOBF_00125 3-oxoacyl-[acyl-carrier-protein] synthase 2;>dRep_bin186_HJAAFFNP_00318 3-oxoacyl-[acyl-carrier-protein] synthase 2;>dRep_bin179_HFEIPPPA_00432 3-oxoacyl-[a	dRep_bin157_JPNIKEKI_01021	CDS	fabF	2.3.1.179	3-oxoacyl-[acyl-carrier-protein] synthase 2
JPNIKEKI_01051					24.827160000000003	24.766939999999998	25.354940000000003	24.93778				4	1	2,6143E-16	dRep_bin179_HFEIPPPA_01106;dRep_bin081_JDPCKDNP_00227;dRep_bin310_IMBAFDIF_00789;dRep_bin047_IFFANOMN_01496;dRep_bin269_PNILGKPH_00580;dRep_bin133_NOBPDBPA_00629;dRep_bin344_CJJBDGAA_00139;dRep_bin287_DONBGKDH_00900;dRep_bin260_HELEPKJL_01759;dRep_bin167_BLMEBMNN_02130;dRep_bin017_FGFLFOPJ_00410;dRep_bin332_KAOPCDPF_00175;dRep_bin328_GIGKNKPJ_00524;dRep_bin306_FGHMKMMP_00565;dRep_bin297_EDHEEICA_01573;dRep_bin292_JIBLDOOH_01650;dRep_bin226_NLNLHLLD_00938;dRep_bin209_NKIHFCEN_01785;dRep_bin203_CLFNNOCF_02551;dRep_bin194_MEPDOGGJ_00132;dRep_bin186_HJAAFFNP_01551;dRep_bin179_HFEIPPPA_02186;dRep_bin177_HLHGKLFL_00944;dRep_bin157_JPNIKEKI_01051;dRep_bin152_LJMCIADF_00176;dRep_bin144_NPHACCKF_01603;dRep_bin133_NOBPDBPA_02384;dRep_bin127_FIPNHBCH_00466;dRep_bin079_GAOGCKND_00600;dRep_bin068_ENOLAELK_01364;dRep_bin041_OPKGAAAG_01949;dRep_bin039_IJNOFOJK_01664;dRep_bin025_CBEJJMLE_00100;dRep_bin273_FGAEBHNP_00413;dRep_bin203_CLFNNOCF_01124;dRep_bin085_MBHLGCDB_01454;dRep_bin069_EGGEOGDC_00328;dRep_bin057_BNCFHBBO_00329;dRep_bin049_MNFBDPNO_01360;dRep_bin123_PJKBFKBB_01535;dRep_bin075_EPEMMOCL_01035;dRep_bin026_HNPIIINL_00033;dRep_bin336_MPGOKPOL_00844;dRep_bin147_EJLBNEBE_01290;dRep_bin065_DFABHCBI_00546;dRep_bin257_JHFDCHCB_01035;dRep_bin299_AKNBKJGM_00588	dRep_bin179_HFEIPPPA_01106;dRep_bin081_JDPCKDNP_00227;dRep_bin310_IMBAFDIF_00789;dRep_bin047_IFFANOMN_01496	>dRep_bin179_HFEIPPPA_01106 1-deoxy-D-xylulose-5-phosphate synthase;>dRep_bin081_JDPCKDNP_00227 1-deoxy-D-xylulose-5-phosphate synthase;>dRep_bin310_IMBAFDIF_00789 1-deoxy-D-xylulose-5-phosphate synthase;>dRep_bin047_IFFANOMN_01496 1-deoxy-D-xylulose-5-pho	dRep_bin157_JPNIKEKI_01051	CDS	dxs_1	2.2.1.7	1-deoxy-D-xylulose-5-phosphate synthase
JPNIKEKI_01059				25.57877								9	0	2,8848E-75	dRep_bin292_JIBLDOOH_00809;dRep_bin209_NKIHFCEN_01945;dRep_bin157_JPNIKEKI_01059	dRep_bin292_JIBLDOOH_00809;dRep_bin209_NKIHFCEN_01945;dRep_bin157_JPNIKEKI_01059	>dRep_bin292_JIBLDOOH_00809 Glutamine synthetase;>dRep_bin209_NKIHFCEN_01945 Glutamine synthetase;>dRep_bin157_JPNIKEKI_01059 Glutamine synthetase	dRep_bin157_JPNIKEKI_01059	CDS	glnA_2	6.3.1.2	Glutamine synthetase
JPNIKEKI_01101	21.75169											4	0	1,5251E-13	dRep_bin157_JPNIKEKI_01101	dRep_bin157_JPNIKEKI_01101	>dRep_bin157_JPNIKEKI_01101 2,3-dimethylmalate dehydratase large subunit	dRep_bin157_JPNIKEKI_01101	CDS	dmdA	4.2.1.85	2,3-dimethylmalate dehydratase large subunit
JPNIKEKI_01149	26.91239	28.196250000000003	27.786559999999998	28.490099999999998	27.391080000000002	28.5773	27.34308	27.464739999999995				12	1	5,762E-42	dRep_bin157_JPNIKEKI_01149;dRep_bin226_NLNLHLLD_00248	dRep_bin157_JPNIKEKI_01149;dRep_bin226_NLNLHLLD_00248	>dRep_bin157_JPNIKEKI_01149 Polyribonucleotide nucleotidyltransferase;>dRep_bin226_NLNLHLLD_00248 Polyribonucleotide nucleotidyltransferase	dRep_bin157_JPNIKEKI_01149	CDS	pnp	2.7.7.8	Polyribonucleotide nucleotidyltransferase
JPNIKEKI_01150				24.058870000000002								2	1	4,2741E-05	dRep_bin209_NKIHFCEN_00801;dRep_bin328_GIGKNKPJ_00118;dRep_bin322_OJELOJOF_01073;dRep_bin300_MJPPENNL_00661;dRep_bin287_DONBGKDH_01832;dRep_bin279_IAEFEPEN_00045;dRep_bin240_LDBBGJKG_00206;dRep_bin157_JPNIKEKI_01150;dRep_bin134_HIAPAODO_00457;dRep_bin127_FIPNHBCH_01686;dRep_bin065_DFABHCBI_00858;dRep_bin062_BOFBFLDA_00887;dRep_bin047_IFFANOMN_01658;dRep_bin041_OPKGAAAG_01265	dRep_bin209_NKIHFCEN_00801;dRep_bin328_GIGKNKPJ_00118;dRep_bin322_OJELOJOF_01073;dRep_bin300_MJPPENNL_00661;dRep_bin287_DONBGKDH_01832;dRep_bin279_IAEFEPEN_00045;dRep_bin240_LDBBGJKG_00206;dRep_bin157_JPNIKEKI_01150;dRep_bin134_HIAPAODO_00457;dRep_bin127_FIPNHBCH_01686;dRep_bin065_DFABHCBI_00858;dRep_bin062_BOFBFLDA_00887;dRep_bin047_IFFANOMN_01658;dRep_bin041_OPKGAAAG_01265	>dRep_bin209_NKIHFCEN_00801 30S ribosomal protein S15;>dRep_bin328_GIGKNKPJ_00118 30S ribosomal protein S15;>dRep_bin322_OJELOJOF_01073 30S ribosomal protein S15;>dRep_bin300_MJPPENNL_00661 30S ribosomal protein S15;>dRep_bin287_DONBGKDH_01832 30S ribosoma	dRep_bin157_JPNIKEKI_01150	CDS	rpsO		30S ribosomal protein S15
JPNIKEKI_01194				25.937910000000002								12	0	2,5417E-127	dRep_bin157_JPNIKEKI_01194	dRep_bin157_JPNIKEKI_01194	>dRep_bin157_JPNIKEKI_01194 Acetate kinase	dRep_bin157_JPNIKEKI_01194	CDS	ackA	2.7.2.1	Acetate kinase
JPNIKEKI_01204	27.743039999999997	28.21632	27.53222	28.394280000000002	29.662729999999996	30.01664	29.23162	30.007980000000003				6	2	4,8284E-21	dRep_bin045_GJACFFBC_00923;dRep_bin224_NFENHJGB_00795;dRep_bin037_GEAOEKHA_00376;dRep_bin128_JPBBHEMA_00573;dRep_bin131_HLFNHDGI_00798;dRep_bin070_EMBHKIOF_01210;dRep_bin157_JPNIKEKI_01204;dRep_bin041_OPKGAAAG_01717	dRep_bin045_GJACFFBC_00923	>dRep_bin045_GJACFFBC_00923 Putative KHG/KDPG aldolase	dRep_bin157_JPNIKEKI_01204	CDS	gppA	3.6.1.40	Guanosine-5'-triphosphate,3'-diphosphate pyrophosphatase
JPNIKEKI_01209				26.630200000000002								2	1	5,2733E-05	dRep_bin292_JIBLDOOH_02167;dRep_bin226_NLNLHLLD_00324;dRep_bin157_JPNIKEKI_01209;dRep_bin324_IPNHOHFK_00450;dRep_bin209_NKIHFCEN_00821;dRep_bin179_HFEIPPPA_00214	dRep_bin292_JIBLDOOH_02167;dRep_bin226_NLNLHLLD_00324;dRep_bin157_JPNIKEKI_01209;dRep_bin324_IPNHOHFK_00450;dRep_bin209_NKIHFCEN_00821;dRep_bin179_HFEIPPPA_00214	>dRep_bin292_JIBLDOOH_02167 50S ribosomal protein L20;>dRep_bin226_NLNLHLLD_00324 50S ribosomal protein L20;>dRep_bin157_JPNIKEKI_01209 50S ribosomal protein L20;>dRep_bin324_IPNHOHFK_00450 50S ribosomal protein L20;>dRep_bin209_NKIHFCEN_00821 50S ribosoma	dRep_bin157_JPNIKEKI_01209	CDS	rplT		50S ribosomal protein L20
JPNIKEKI_01231	23.68635	23.711980000000004	23.79749	26.214950000000005								5	3	9,4978E-10	dRep_bin292_JIBLDOOH_00552;dRep_bin041_OPKGAAAG_00140;dRep_bin209_NKIHFCEN_00053;dRep_bin157_JPNIKEKI_01231;dRep_bin179_HFEIPPPA_01376;dRep_bin049_MNFBDPNO_01534;dRep_bin087_FCLGAPPI_01035	dRep_bin292_JIBLDOOH_00552;dRep_bin041_OPKGAAAG_00140;dRep_bin209_NKIHFCEN_00053;dRep_bin157_JPNIKEKI_01231	>dRep_bin292_JIBLDOOH_00552 Glucose-1-phosphate adenylyltransferase;>dRep_bin041_OPKGAAAG_00140 Glucose-1-phosphate adenylyltransferase;>dRep_bin209_NKIHFCEN_00053 Glucose-1-phosphate adenylyltransferase;>dRep_bin157_JPNIKEKI_01231 Glucose-1-phosphate aden	dRep_bin157_JPNIKEKI_01231	CDS	glgC_1	2.7.7.27	Glucose-1-phosphate adenylyltransferase
JPNIKEKI_01282	24.88725											9	1	5,5215E-25	dRep_bin157_JPNIKEKI_01282	dRep_bin157_JPNIKEKI_01282	>dRep_bin157_JPNIKEKI_01282 Caffeyl-CoA reductase-Etf complex subunit CarE	dRep_bin157_JPNIKEKI_01282	CDS	carE	1.3.1.108	Caffeyl-CoA reductase-Etf complex subunit CarE
JPNIKEKI_01295				24.889850000000003								2	1	1,7697E-06	dRep_bin292_JIBLDOOH_00181;dRep_bin157_JPNIKEKI_01295;dRep_bin324_IPNHOHFK_00413;dRep_bin261_FJICAFFM_00655;dRep_bin041_OPKGAAAG_01604;dRep_bin209_NKIHFCEN_01650;dRep_bin203_CLFNNOCF_01349	dRep_bin292_JIBLDOOH_00181;dRep_bin157_JPNIKEKI_01295;dRep_bin324_IPNHOHFK_00413;dRep_bin261_FJICAFFM_00655;dRep_bin041_OPKGAAAG_01604;dRep_bin209_NKIHFCEN_01650;dRep_bin203_CLFNNOCF_01349	>dRep_bin292_JIBLDOOH_00181 Anaerobic ribonucleoside-triphosphate reductase;>dRep_bin157_JPNIKEKI_01295 Anaerobic ribonucleoside-triphosphate reductase;>dRep_bin324_IPNHOHFK_00413 Anaerobic ribonucleoside-triphosphate reductase;>dRep_bin261_FJICAFFM_00655	dRep_bin157_JPNIKEKI_01295	CDS	nrdD	1.17.4.2	Anaerobic ribonucleoside-triphosphate reductase
JPNIKEKI_01307				24.52409								3	1	3,0363E-62	dRep_bin157_JPNIKEKI_01307;dRep_bin039_IJNOFOJK_01899;dRep_bin186_HJAAFFNP_00774;dRep_bin318_IEDEJOFJ_01639;dRep_bin164_KHMELCCL_00132;dRep_bin328_GIGKNKPJ_01195;dRep_bin260_HELEPKJL_01523;dRep_bin287_DONBGKDH_01508;dRep_bin158_OGFICEAP_02168;dRep_bin127_FIPNHBCH_00569;dRep_bin115_IFKGOGCL_02347;dRep_bin099_DNDAGJEJ_00641;dRep_bin308_JBPDGLPP_01860;dRep_bin333_EFOKIBLA_01083;dRep_bin321_EJNAAGJG_00266;dRep_bin273_FGAEBHNP_00052;dRep_bin299_AKNBKJGM_00308;dRep_bin216_JNJMCPHB_01326;dRep_bin094_LBLICAAO_00532;dRep_bin295_EJGKDKNE_01389;dRep_bin021_AJDDCGJC_00388;dRep_bin336_MPGOKPOL_01887;dRep_bin147_EJLBNEBE_01158;dRep_bin091_MAFACGAD_00923;dRep_bin261_FJICAFFM_00349;dRep_bin203_CLFNNOCF_01032;dRep_bin292_JIBLDOOH_00170;dRep_bin324_IPNHOHFK_01855;dRep_bin133_NOBPDBPA_02057;dRep_bin179_HFEIPPPA_01406;dRep_bin297_EDHEEICA_01152;dRep_bin005_CNDFPKJG_00713	dRep_bin157_JPNIKEKI_01307;dRep_bin039_IJNOFOJK_01899;dRep_bin186_HJAAFFNP_00774;dRep_bin318_IEDEJOFJ_01639;dRep_bin164_KHMELCCL_00132;dRep_bin328_GIGKNKPJ_01195;dRep_bin260_HELEPKJL_01523;dRep_bin287_DONBGKDH_01508;dRep_bin158_OGFICEAP_02168;dRep_bin127_FIPNHBCH_00569;dRep_bin115_IFKGOGCL_02347;dRep_bin099_DNDAGJEJ_00641;dRep_bin308_JBPDGLPP_01860;dRep_bin333_EFOKIBLA_01083;dRep_bin321_EJNAAGJG_00266;dRep_bin273_FGAEBHNP_00052;dRep_bin299_AKNBKJGM_00308;dRep_bin216_JNJMCPHB_01326;dRep_bin094_LBLICAAO_00532;dRep_bin295_EJGKDKNE_01389;dRep_bin021_AJDDCGJC_00388;dRep_bin336_MPGOKPOL_01887;dRep_bin147_EJLBNEBE_01158;dRep_bin091_MAFACGAD_00923;dRep_bin261_FJICAFFM_00349;dRep_bin203_CLFNNOCF_01032;dRep_bin292_JIBLDOOH_00170;dRep_bin324_IPNHOHFK_01855;dRep_bin133_NOBPDBPA_02057;dRep_bin179_HFEIPPPA_01406;dRep_bin297_EDHEEICA_01152;dRep_bin005_CNDFPKJG_00713	>dRep_bin157_JPNIKEKI_01307 Galactose-1-phosphate uridylyltransferase;>dRep_bin039_IJNOFOJK_01899 Galactose-1-phosphate uridylyltransferase;>dRep_bin186_HJAAFFNP_00774 Galactose-1-phosphate uridylyltransferase;>dRep_bin318_IEDEJOFJ_01639 Galactose-1-phosph	dRep_bin157_JPNIKEKI_01307	CDS	galT	2.7.7.12	Galactose-1-phosphate uridylyltransferase
JPNIKEKI_01309	25.8986	25.973339999999997	26.19903	26.281	26.514310000000002	26.59049	25.7571	26.25906				4	1	4,6283E-12	dRep_bin145_KMJJJOEJ_01258;dRep_bin242_LKAIBGGJ_00691;dRep_bin081_JDPCKDNP_01525;dRep_bin317_ABPHNCOD_01232;dRep_bin347_EKGCMFPD_00789;dRep_bin282_PKAAPBFP_00053;dRep_bin039_IJNOFOJK_00980;dRep_bin001_GHHJMDAL_00862;dRep_bin272_LGBDGEIM_01970;dRep_bin186_HJAAFFNP_02184;dRep_bin005_CNDFPKJG_01374;dRep_bin332_KAOPCDPF_00412;dRep_bin167_BLMEBMNN_01248;dRep_bin260_HELEPKJL_00916;dRep_bin160_EFKMPBOM_00919;dRep_bin209_NKIHFCEN_00567;dRep_bin158_OGFICEAP_02130;dRep_bin283_NLJJFFAC_01508;dRep_bin278_BFCONKOE_00571;dRep_bin325_EIIGOGHN_00662;dRep_bin218_ACMPALGF_01369;dRep_bin094_LBLICAAO_00052;dRep_bin299_AKNBKJGM_01021;dRep_bin157_JPNIKEKI_01309;dRep_bin075_EPEMMOCL_02359;dRep_bin055_IBMMJAEE_00109;dRep_bin306_FGHMKMMP_00327;dRep_bin216_JNJMCPHB_00254;dRep_bin292_JIBLDOOH_01625;dRep_bin179_HFEIPPPA_02175;dRep_bin133_NOBPDBPA_01803;dRep_bin088_DNGPPFDK_01392;dRep_bin024_OLHDGABE_00503;dRep_bin324_IPNHOHFK_01870;dRep_bin203_CLFNNOCF_00851;dRep_bin017_FGFLFOPJ_00925;dRep_bin065_DFABHCBI_01998;dRep_bin192_GCMBELNN_00043;dRep_bin310_IMBAFDIF_01495;dRep_bin218_ACMPALGF_00670	dRep_bin145_KMJJJOEJ_01258;dRep_bin242_LKAIBGGJ_00691;dRep_bin081_JDPCKDNP_01525;dRep_bin317_ABPHNCOD_01232;dRep_bin347_EKGCMFPD_00789;dRep_bin282_PKAAPBFP_00053;dRep_bin039_IJNOFOJK_00980;dRep_bin001_GHHJMDAL_00862;dRep_bin272_LGBDGEIM_01970;dRep_bin186_HJAAFFNP_02184;dRep_bin005_CNDFPKJG_01374;dRep_bin332_KAOPCDPF_00412;dRep_bin167_BLMEBMNN_01248;dRep_bin260_HELEPKJL_00916;dRep_bin160_EFKMPBOM_00919;dRep_bin209_NKIHFCEN_00567;dRep_bin158_OGFICEAP_02130;dRep_bin283_NLJJFFAC_01508;dRep_bin278_BFCONKOE_00571;dRep_bin325_EIIGOGHN_00662;dRep_bin218_ACMPALGF_01369;dRep_bin094_LBLICAAO_00052;dRep_bin299_AKNBKJGM_01021;dRep_bin157_JPNIKEKI_01309;dRep_bin075_EPEMMOCL_02359;dRep_bin055_IBMMJAEE_00109;dRep_bin306_FGHMKMMP_00327;dRep_bin216_JNJMCPHB_00254;dRep_bin292_JIBLDOOH_01625;dRep_bin179_HFEIPPPA_02175;dRep_bin133_NOBPDBPA_01803;dRep_bin088_DNGPPFDK_01392;dRep_bin024_OLHDGABE_00503;dRep_bin324_IPNHOHFK_01870;dRep_bin203_CLFNNOCF_00851;dRep_bin017_FGFLFOPJ_00925;dRep_bin065_DFABHCBI_01998	>dRep_bin145_KMJJJOEJ_01258 GMP synthase [glutamine-hydrolyzing];>dRep_bin242_LKAIBGGJ_00691 GMP synthase [glutamine-hydrolyzing];>dRep_bin081_JDPCKDNP_01525 GMP synthase [glutamine-hydrolyzing];>dRep_bin317_ABPHNCOD_01232 GMP synthase [glutamine-hydrolyzi	dRep_bin157_JPNIKEKI_01309	CDS	guaA	6.3.5.2	GMP synthase [glutamine-hydrolyzing]
JPNIKEKI_01354				28.50635								2	0	0,025352	dRep_bin344_CJJBDGAA_01515;dRep_bin211_LGJEFJIK_00737;dRep_bin226_NLNLHLLD_00459;dRep_bin117_PMEMANMD_00232;dRep_bin266_JFOCEDAE_01199;dRep_bin261_FJICAFFM_00864;dRep_bin220_PILICLLL_01139;dRep_bin209_NKIHFCEN_01468;dRep_bin324_IPNHOHFK_01744;dRep_bin297_EDHEEICA_00326;dRep_bin203_CLFNNOCF_02519;dRep_bin157_JPNIKEKI_01354;dRep_bin133_NOBPDBPA_04374;dRep_bin041_OPKGAAAG_01974;dRep_bin091_MAFACGAD_01060;dRep_bin027_OFJCHLJJ_01238;dRep_bin322_OJELOJOF_00186;dRep_bin287_DONBGKDH_00550;dRep_bin081_JDPCKDNP_01704;dRep_bin249_OFIIEIDJ_00125;dRep_bin168_HKDILBFE_00610;dRep_bin135_HHKACLPM_01538;dRep_bin099_DNDAGJEJ_00403;dRep_bin089_PAJFOJBN_01181;dRep_bin005_CNDFPKJG_00525;dRep_bin260_HELEPKJL_01304;dRep_bin220_PILICLLL_01333;dRep_bin201_OLKDIBOK_00115;dRep_bin151_AHBJLMBI_00748;dRep_bin139_KGAJINND_00205;dRep_bin075_EPEMMOCL_00657;dRep_bin088_DNGPPFDK_00476;dRep_bin134_HIAPAODO_01442;dRep_bin310_IMBAFDIF_00699	dRep_bin344_CJJBDGAA_01515;dRep_bin211_LGJEFJIK_00737;dRep_bin226_NLNLHLLD_00459;dRep_bin117_PMEMANMD_00232;dRep_bin266_JFOCEDAE_01199;dRep_bin261_FJICAFFM_00864;dRep_bin220_PILICLLL_01139;dRep_bin209_NKIHFCEN_01468;dRep_bin324_IPNHOHFK_01744;dRep_bin297_EDHEEICA_00326;dRep_bin203_CLFNNOCF_02519;dRep_bin157_JPNIKEKI_01354;dRep_bin133_NOBPDBPA_04374;dRep_bin041_OPKGAAAG_01974;dRep_bin091_MAFACGAD_01060;dRep_bin027_OFJCHLJJ_01238;dRep_bin322_OJELOJOF_00186;dRep_bin287_DONBGKDH_00550;dRep_bin081_JDPCKDNP_01704;dRep_bin249_OFIIEIDJ_00125;dRep_bin168_HKDILBFE_00610;dRep_bin135_HHKACLPM_01538;dRep_bin099_DNDAGJEJ_00403;dRep_bin089_PAJFOJBN_01181;dRep_bin005_CNDFPKJG_00525;dRep_bin260_HELEPKJL_01304;dRep_bin220_PILICLLL_01333;dRep_bin201_OLKDIBOK_00115;dRep_bin151_AHBJLMBI_00748;dRep_bin139_KGAJINND_00205;dRep_bin075_EPEMMOCL_00657;dRep_bin088_DNGPPFDK_00476;dRep_bin134_HIAPAODO_01442;dRep_bin310_IMBAFDIF_00699	>dRep_bin344_CJJBDGAA_01515 Putative septation protein SpoVG;>dRep_bin211_LGJEFJIK_00737 Putative septation protein SpoVG;>dRep_bin226_NLNLHLLD_00459 Putative septation protein SpoVG;>dRep_bin117_PMEMANMD_00232 Putative septation protein SpoVG;>dRep_bin266	dRep_bin157_JPNIKEKI_01354	CDS	spoVG		Putative septation protein SpoVG
JPNIKEKI_01364	19.29129											7	1	3,4525E-54	dRep_bin157_JPNIKEKI_01364;dRep_bin055_IBMMJAEE_00371;dRep_bin185_OOOLKACK_00412	dRep_bin157_JPNIKEKI_01364	>dRep_bin157_JPNIKEKI_01364 Aldehyde-alcohol dehydrogenase	dRep_bin157_JPNIKEKI_01364	CDS	adhE		Aldehyde-alcohol dehydrogenase
JPNIKEKI_01367												1	1	0,0060882	dRep_bin243_JDMELKLC_00758;dRep_bin069_EGGEOGDC_01504;dRep_bin238_OLNFACLE_01605;dRep_bin266_JFOCEDAE_01251;dRep_bin157_JPNIKEKI_01367;dRep_bin039_IJNOFOJK_00098	dRep_bin243_JDMELKLC_00758;dRep_bin069_EGGEOGDC_01504;dRep_bin238_OLNFACLE_01605;dRep_bin266_JFOCEDAE_01251;dRep_bin157_JPNIKEKI_01367;dRep_bin039_IJNOFOJK_00098	>dRep_bin243_JDMELKLC_00758 Dipeptidase;>dRep_bin069_EGGEOGDC_01504 Dipeptidase;>dRep_bin238_OLNFACLE_01605 Dipeptidase;>dRep_bin266_JFOCEDAE_01251 Dipeptidase;>dRep_bin157_JPNIKEKI_01367 Dipeptidase;>dRep_bin039_IJNOFOJK_00098 Dipeptidase	dRep_bin157_JPNIKEKI_01367	CDS	pepD_2	3.4.-.-	Dipeptidase
JPNIKEKI_01376	24.07218	23.716800000000003	23.95118	26.763439999999996	25.16549	24.475189999999998	24.676160000000003	26.104560000000003				15	4	9,6629E-89	dRep_bin292_JIBLDOOH_00231;dRep_bin297_EDHEEICA_01717;dRep_bin211_LGJEFJIK_01294;dRep_bin157_JPNIKEKI_01376;dRep_bin019_MOJEPLJF_01906;dRep_bin005_CNDFPKJG_01248;dRep_bin159_ADJJGPBG_00225;dRep_bin168_HKDILBFE_01106;dRep_bin099_DNDAGJEJ_00713;dRep_bin205_LKIOOBKC_01411;dRep_bin043_KLAFNACO_02125;dRep_bin245_MBCFLKOF_01021;dRep_bin023_HGFJFKAI_01546;dRep_bin101_BNDDLDCL_00015;dRep_bin010_MFFFGEGD_02440	dRep_bin292_JIBLDOOH_00231;dRep_bin297_EDHEEICA_01717;dRep_bin211_LGJEFJIK_01294	>dRep_bin292_JIBLDOOH_00231 Cellobiose phosphorylase;>dRep_bin297_EDHEEICA_01717 Cellobiose phosphorylase;>dRep_bin211_LGJEFJIK_01294 Cellobiose phosphorylase	dRep_bin157_JPNIKEKI_01376	CDS	cbpA_2	2.4.1.20	Cellobiose phosphorylase
JPNIKEKI_01377						23.257960000000004		23.1197				3	2	1,6284E-06	dRep_bin292_JIBLDOOH_02222;dRep_bin226_NLNLHLLD_00581;dRep_bin209_NKIHFCEN_00901;dRep_bin157_JPNIKEKI_01377;dRep_bin179_HFEIPPPA_00094	dRep_bin292_JIBLDOOH_02222;dRep_bin226_NLNLHLLD_00581;dRep_bin209_NKIHFCEN_00901;dRep_bin157_JPNIKEKI_01377	>dRep_bin292_JIBLDOOH_02222 Dihydroorotate dehydrogenase B (NAD(+)), electron transfer subunit;>dRep_bin226_NLNLHLLD_00581 Dihydroorotate dehydrogenase B (NAD(+)), electron transfer subunit;>dRep_bin209_NKIHFCEN_00901 Dihydroorotate dehydrogenase B (NAD(+)	dRep_bin157_JPNIKEKI_01377	CDS			Dihydroorotate dehydrogenase B (NAD(+)), electron transfer subunit
JPNIKEKI_01409					24.706719999999997	25.73624	23.72088	24.445439999999994				3	3	1,6176E-20	dRep_bin041_OPKGAAAG_00274;dRep_bin226_NLNLHLLD_00281;dRep_bin292_JIBLDOOH_01096;dRep_bin157_JPNIKEKI_01409	dRep_bin041_OPKGAAAG_00274;dRep_bin226_NLNLHLLD_00281;dRep_bin292_JIBLDOOH_01096;dRep_bin157_JPNIKEKI_01409	>dRep_bin041_OPKGAAAG_00274 Flagellar hook protein FlgE;>dRep_bin226_NLNLHLLD_00281 Flagellar hook protein FlgE;>dRep_bin292_JIBLDOOH_01096 Flagellar hook protein FlgE;>dRep_bin157_JPNIKEKI_01409 Flagellar hook protein FlgE	dRep_bin157_JPNIKEKI_01409	CDS	flgE		Flagellar hook protein FlgE
JPNIKEKI_01420	25.0535	26.14377	26.66003	27.448689999999996	25.92888	27.25917	25.165729999999996	26.488789999999995				10	2	1,3273E-27	dRep_bin292_JIBLDOOH_00347;dRep_bin157_JPNIKEKI_01420;dRep_bin324_IPNHOHFK_01732	dRep_bin292_JIBLDOOH_00347;dRep_bin157_JPNIKEKI_01420;dRep_bin324_IPNHOHFK_01732	>dRep_bin292_JIBLDOOH_00347 Aspartate--tRNA ligase;>dRep_bin157_JPNIKEKI_01420 Aspartate--tRNA ligase;>dRep_bin324_IPNHOHFK_01732 Aspartate--tRNA ligase	dRep_bin157_JPNIKEKI_01420	CDS	aspS_2	6.1.1.12	Aspartate--tRNA ligase
JPNIKEKI_01428	28.193850000000005	28.14768	27.303910000000002	27.76768	28.068509999999996	26.66166	28.189519999999998	26.82953				6	2	4,91E-21	dRep_bin201_OLKDIBOK_00096;dRep_bin226_NLNLHLLD_00643;dRep_bin157_JPNIKEKI_01428;dRep_bin220_PILICLLL_00420;dRep_bin209_NKIHFCEN_01063;dRep_bin139_KGAJINND_00432;dRep_bin344_CJJBDGAA_01155;dRep_bin260_HELEPKJL_00811;dRep_bin075_EPEMMOCL_01973;dRep_bin303_DDDNDJCF_01370;dRep_bin206_OIIBOIAK_00890;dRep_bin282_PKAAPBFP_00013;dRep_bin027_OFJCHLJJ_00660;dRep_bin248_CCDFPECI_00213;dRep_bin231_CFOLMJBA_00669;dRep_bin134_HIAPAODO_01486	dRep_bin201_OLKDIBOK_00096;dRep_bin226_NLNLHLLD_00643;dRep_bin157_JPNIKEKI_01428;dRep_bin220_PILICLLL_00420;dRep_bin209_NKIHFCEN_01063;dRep_bin139_KGAJINND_00432;dRep_bin344_CJJBDGAA_01155;dRep_bin260_HELEPKJL_00811;dRep_bin075_EPEMMOCL_01973;dRep_bin303_DDDNDJCF_01370	>dRep_bin201_OLKDIBOK_00096 Peptidyl-prolyl cis-trans isomerase B;>dRep_bin226_NLNLHLLD_00643 putative peptidyl-prolyl cis-trans isomerase;>dRep_bin157_JPNIKEKI_01428 Putative peptidyl-prolyl cis-trans isomerase;>dRep_bin220_PILICLLL_00420 Peptidyl-prolyl	dRep_bin157_JPNIKEKI_01428	CDS		5.2.1.8	Putative peptidyl-prolyl cis-trans isomerase
JPNIKEKI_01443	24.241619999999998											3	1	4,2691E-06	dRep_bin226_NLNLHLLD_00269;dRep_bin041_OPKGAAAG_02003;dRep_bin157_JPNIKEKI_01443;dRep_bin297_EDHEEICA_01638;dRep_bin133_NOBPDBPA_04691;dRep_bin209_NKIHFCEN_00952;dRep_bin300_MJPPENNL_01091;dRep_bin261_FJICAFFM_00911;dRep_bin179_HFEIPPPA_00830;dRep_bin328_GIGKNKPJ_00889;dRep_bin057_BNCFHBBO_01681;dRep_bin282_PKAAPBFP_01161;dRep_bin168_HKDILBFE_01014;dRep_bin100_CODMOHGB_01404;dRep_bin167_BLMEBMNN_01981;dRep_bin099_DNDAGJEJ_00066;dRep_bin186_HJAAFFNP_01989;dRep_bin160_EFKMPBOM_01929;dRep_bin154_JGOKHKLI_01404;dRep_bin101_BNDDLDCL_01035;dRep_bin065_DFABHCBI_02141;dRep_bin203_CLFNNOCF_01292;dRep_bin127_FIPNHBCH_01399;dRep_bin005_CNDFPKJG_01259;dRep_bin147_EJLBNEBE_00612;dRep_bin336_MPGOKPOL_01981	dRep_bin226_NLNLHLLD_00269;dRep_bin041_OPKGAAAG_02003;dRep_bin157_JPNIKEKI_01443;dRep_bin297_EDHEEICA_01638;dRep_bin133_NOBPDBPA_04691;dRep_bin209_NKIHFCEN_00952	>dRep_bin226_NLNLHLLD_00269 Cyclomaltodextrinase;>dRep_bin041_OPKGAAAG_02003 Cyclomaltodextrinase;>dRep_bin157_JPNIKEKI_01443 Cyclomaltodextrinase;>dRep_bin297_EDHEEICA_01638 Cyclomaltodextrinase;>dRep_bin133_NOBPDBPA_04691 Cyclomaltodextrinase;>dRep_bin20	dRep_bin157_JPNIKEKI_01443	CDS		3.2.1.54	Cyclomaltodextrinase
JPNIKEKI_01444		25.32079										8	1	4,6343E-114	dRep_bin157_JPNIKEKI_01444	dRep_bin157_JPNIKEKI_01444	>dRep_bin157_JPNIKEKI_01444 Short-chain-enoyl-CoA hydratase	dRep_bin157_JPNIKEKI_01444	CDS	crt	4.2.1.150	Short-chain-enoyl-CoA hydratase
JPNIKEKI_01467					23.49399	25.371920000000003		23.47976				5	2	1,3355E-19	dRep_bin041_OPKGAAAG_01610;dRep_bin157_JPNIKEKI_01467	dRep_bin041_OPKGAAAG_01610;dRep_bin157_JPNIKEKI_01467	>dRep_bin041_OPKGAAAG_01610 4-hydroxy-2-oxovalerate aldolase;>dRep_bin157_JPNIKEKI_01467 4-hydroxy-2-oxovalerate aldolase	dRep_bin157_JPNIKEKI_01467	CDS		4.1.3.39	4-hydroxy-2-oxovalerate aldolase
JPNIKEKI_01504						22.306860000000004						3	1	6,3831E-08	dRep_bin041_OPKGAAAG_00367;dRep_bin284_DEHKNOBF_00254;dRep_bin319_PBDBJGCJ_00655;dRep_bin203_CLFNNOCF_01297;dRep_bin181_MKGPMPIA_00407;dRep_bin179_HFEIPPPA_00842;dRep_bin139_KGAJINND_00918;dRep_bin133_NOBPDBPA_02473;dRep_bin066_AJACLPEE_00004;dRep_bin194_MEPDOGGJ_00508;dRep_bin152_LJMCIADF_01431;dRep_bin068_ENOLAELK_01095;dRep_bin038_EIGFILKG_01028;dRep_bin025_CBEJJMLE_01384;dRep_bin324_IPNHOHFK_01934;dRep_bin023_HGFJFKAI_01643;dRep_bin209_NKIHFCEN_00957;dRep_bin157_JPNIKEKI_01504;dRep_bin297_EDHEEICA_00667;dRep_bin226_NLNLHLLD_00265;dRep_bin306_FGHMKMMP_01756;dRep_bin005_CNDFPKJG_00040;dRep_bin158_OGFICEAP_01238;dRep_bin303_DDDNDJCF_00102;dRep_bin299_AKNBKJGM_01304;dRep_bin248_CCDFPECI_01165;dRep_bin145_KMJJJOEJ_00716;dRep_bin095_HOBNOEEF_01829;dRep_bin081_JDPCKDNP_01870;dRep_bin053_OMGNPOOB_00265;dRep_bin310_IMBAFDIF_00723;dRep_bin077_DNNBMPMC_01957;dRep_bin201_OLKDIBOK_00147;dRep_bin124_HIHDFGCL_01069;dRep_bin079_GAOGCKND_00667;dRep_bin107_EFNBPDOP_00920	dRep_bin041_OPKGAAAG_00367;dRep_bin284_DEHKNOBF_00254;dRep_bin319_PBDBJGCJ_00655;dRep_bin203_CLFNNOCF_01297;dRep_bin181_MKGPMPIA_00407;dRep_bin179_HFEIPPPA_00842;dRep_bin139_KGAJINND_00918;dRep_bin133_NOBPDBPA_02473;dRep_bin066_AJACLPEE_00004;dRep_bin194_MEPDOGGJ_00508;dRep_bin152_LJMCIADF_01431;dRep_bin068_ENOLAELK_01095;dRep_bin038_EIGFILKG_01028;dRep_bin025_CBEJJMLE_01384;dRep_bin324_IPNHOHFK_01934;dRep_bin023_HGFJFKAI_01643;dRep_bin209_NKIHFCEN_00957;dRep_bin157_JPNIKEKI_01504;dRep_bin297_EDHEEICA_00667;dRep_bin226_NLNLHLLD_00265;dRep_bin306_FGHMKMMP_01756;dRep_bin005_CNDFPKJG_00040	>dRep_bin041_OPKGAAAG_00367 Nicotinate-nucleotide pyrophosphorylase [carboxylating];>dRep_bin284_DEHKNOBF_00254 Nicotinate-nucleotide pyrophosphorylase [carboxylating];>dRep_bin319_PBDBJGCJ_00655 putative nicotinate-nucleotide pyrophosphorylase [carboxylat	dRep_bin157_JPNIKEKI_01504	CDS	nadC	2.4.2.19	Nicotinate-nucleotide pyrophosphorylase [carboxylating]
JPNIKEKI_01542						25.08966						1	1	0,0048212	dRep_bin209_NKIHFCEN_00188;dRep_bin157_JPNIKEKI_01542;dRep_bin226_NLNLHLLD_00947	dRep_bin209_NKIHFCEN_00188;dRep_bin157_JPNIKEKI_01542;dRep_bin226_NLNLHLLD_00947	>dRep_bin209_NKIHFCEN_00188 Acyl carrier protein;>dRep_bin157_JPNIKEKI_01542 Acyl carrier protein;>dRep_bin226_NLNLHLLD_00947 Acyl carrier protein	dRep_bin157_JPNIKEKI_01542	CDS	acpP_3		Acyl carrier protein
JPNIKEKI_01549					23.47482	26.06316	23.80469					5	5	4,9368E-13	dRep_bin041_OPKGAAAG_01786;dRep_bin297_EDHEEICA_00819;dRep_bin226_NLNLHLLD_00014;dRep_bin133_NOBPDBPA_02404;dRep_bin292_JIBLDOOH_01469;dRep_bin157_JPNIKEKI_01549;dRep_bin284_DEHKNOBF_01775;dRep_bin168_HKDILBFE_01874;dRep_bin099_DNDAGJEJ_00210;dRep_bin081_JDPCKDNP_00860;dRep_bin347_EKGCMFPD_00476;dRep_bin335_JIOGNAPG_00892;dRep_bin325_EIIGOGHN_01423;dRep_bin310_IMBAFDIF_01601;dRep_bin308_JBPDGLPP_00710;dRep_bin300_MJPPENNL_00786;dRep_bin282_PKAAPBFP_01049;dRep_bin269_PNILGKPH_00370;dRep_bin254_GJDPFAEA_00787;dRep_bin240_LDBBGJKG_00829;dRep_bin234_ECABPBME_01771;dRep_bin218_ACMPALGF_00712;dRep_bin209_NKIHFCEN_00384;dRep_bin186_HJAAFFNP_00308;dRep_bin179_HFEIPPPA_00593;dRep_bin127_FIPNHBCH_00962;dRep_bin091_MAFACGAD_00732;dRep_bin089_PAJFOJBN_01716;dRep_bin088_DNGPPFDK_00290;dRep_bin069_EGGEOGDC_00822;dRep_bin039_IJNOFOJK_00358;dRep_bin306_FGHMKMMP_00408;dRep_bin077_DNNBMPMC_00123;dRep_bin057_BNCFHBBO_01103	dRep_bin041_OPKGAAAG_01786;dRep_bin297_EDHEEICA_00819;dRep_bin226_NLNLHLLD_00014;dRep_bin133_NOBPDBPA_02404	>dRep_bin041_OPKGAAAG_01786 Hydroxypyruvate reductase;>dRep_bin297_EDHEEICA_00819 Hydroxypyruvate reductase;>dRep_bin226_NLNLHLLD_00014 D-3-phosphoglycerate dehydrogenase;>dRep_bin133_NOBPDBPA_02404 Hydroxypyruvate reductase	dRep_bin157_JPNIKEKI_01549	CDS		1.1.1.81	Hydroxypyruvate reductase
JPNIKEKI_01552	29.13244	29.408419999999996	28.97156	29.752639999999996	29.12206	29.19444	28.177690000000002	29.03223				13	0	6,3651E-118	dRep_bin292_JIBLDOOH_01466;dRep_bin157_JPNIKEKI_01552;dRep_bin186_HJAAFFNP_00290	dRep_bin292_JIBLDOOH_01466;dRep_bin157_JPNIKEKI_01552;dRep_bin186_HJAAFFNP_00290	>dRep_bin292_JIBLDOOH_01466 Dihydroxy-acid dehydratase;>dRep_bin157_JPNIKEKI_01552 Dihydroxy-acid dehydratase;>dRep_bin186_HJAAFFNP_00290 Dihydroxy-acid dehydratase	dRep_bin157_JPNIKEKI_01552	CDS	ilvD	4.2.1.9	Dihydroxy-acid dehydratase
JPNIKEKI_01583			20.188699999999997									2	0	0,013699	dRep_bin284_DEHKNOBF_01566;dRep_bin335_JIOGNAPG_01357;dRep_bin186_HJAAFFNP_01603;dRep_bin347_EKGCMFPD_00174;dRep_bin325_EIIGOGHN_00933;dRep_bin226_NLNLHLLD_01138;dRep_bin211_LGJEFJIK_01575;dRep_bin168_HKDILBFE_00526;dRep_bin157_JPNIKEKI_01583;dRep_bin133_NOBPDBPA_02120;dRep_bin099_DNDAGJEJ_00490;dRep_bin023_HGFJFKAI_00001;dRep_bin181_MKGPMPIA_00811;dRep_bin344_CJJBDGAA_00826;dRep_bin154_JGOKHKLI_00807;dRep_bin209_NKIHFCEN_01867;dRep_bin160_EFKMPBOM_01681;dRep_bin324_IPNHOHFK_00236	dRep_bin284_DEHKNOBF_01566;dRep_bin335_JIOGNAPG_01357;dRep_bin186_HJAAFFNP_01603;dRep_bin347_EKGCMFPD_00174;dRep_bin325_EIIGOGHN_00933;dRep_bin226_NLNLHLLD_01138;dRep_bin211_LGJEFJIK_01575;dRep_bin168_HKDILBFE_00526;dRep_bin157_JPNIKEKI_01583;dRep_bin133_NOBPDBPA_02120;dRep_bin099_DNDAGJEJ_00490;dRep_bin023_HGFJFKAI_00001;dRep_bin181_MKGPMPIA_00811;dRep_bin344_CJJBDGAA_00826;dRep_bin154_JGOKHKLI_00807;dRep_bin209_NKIHFCEN_01867;dRep_bin160_EFKMPBOM_01681;dRep_bin324_IPNHOHFK_00236	>dRep_bin284_DEHKNOBF_01566 L-methionine gamma-lyase;>dRep_bin335_JIOGNAPG_01357 L-methionine gamma-lyase;>dRep_bin186_HJAAFFNP_01603 L-methionine gamma-lyase;>dRep_bin347_EKGCMFPD_00174 L-methionine gamma-lyase;>dRep_bin325_EIIGOGHN_00933 L-methionine gam	dRep_bin157_JPNIKEKI_01583	CDS	mgl_3	4.4.1.11	L-methionine gamma-lyase
JPNIKEKI_01592						22.186950000000003						2	2	9,4417E-08	dRep_bin041_OPKGAAAG_01429;dRep_bin157_JPNIKEKI_01592	dRep_bin041_OPKGAAAG_01429;dRep_bin157_JPNIKEKI_01592	>dRep_bin041_OPKGAAAG_01429 CheY-P phosphatase CheC;>dRep_bin157_JPNIKEKI_01592 CheY-P phosphatase CheC	dRep_bin157_JPNIKEKI_01592	CDS	cheC	3.-.-.-	CheY-P phosphatase CheC
JPNIKEKI_01609					24.1321	26.18916	23.77153	24.113860000000006				3	3	5,9941E-12	dRep_bin041_OPKGAAAG_01624;dRep_bin226_NLNLHLLD_01058;dRep_bin203_CLFNNOCF_01696;dRep_bin157_JPNIKEKI_01609;dRep_bin279_IAEFEPEN_00382;dRep_bin075_EPEMMOCL_02379;dRep_bin324_IPNHOHFK_00140;dRep_bin292_JIBLDOOH_01962;dRep_bin209_NKIHFCEN_00432;dRep_bin179_HFEIPPPA_01039;dRep_bin133_NOBPDBPA_02951;dRep_bin039_IJNOFOJK_01861;dRep_bin269_PNILGKPH_01145;dRep_bin261_FJICAFFM_00974;dRep_bin283_NLJJFFAC_01146	dRep_bin041_OPKGAAAG_01624;dRep_bin226_NLNLHLLD_01058;dRep_bin203_CLFNNOCF_01696;dRep_bin157_JPNIKEKI_01609	>dRep_bin041_OPKGAAAG_01624 HPr kinase/phosphorylase;>dRep_bin226_NLNLHLLD_01058 HPr kinase/phosphorylase;>dRep_bin203_CLFNNOCF_01696 HPr kinase/phosphorylase;>dRep_bin157_JPNIKEKI_01609 HPr kinase/phosphorylase	dRep_bin157_JPNIKEKI_01609	CDS	hprK	2.7.11.-	HPr kinase/phosphorylase
JPNIKEKI_01676	22.869629999999997			23.985459999999996								4	2	4,2394E-05	dRep_bin292_JIBLDOOH_01949;dRep_bin226_NLNLHLLD_01520;dRep_bin041_OPKGAAAG_00234;dRep_bin209_NKIHFCEN_01525;dRep_bin157_JPNIKEKI_01676	dRep_bin292_JIBLDOOH_01949;dRep_bin226_NLNLHLLD_01520;dRep_bin041_OPKGAAAG_00234;dRep_bin209_NKIHFCEN_01525;dRep_bin157_JPNIKEKI_01676	>dRep_bin292_JIBLDOOH_01949 Modulator of FtsH protease HflK;>dRep_bin226_NLNLHLLD_01520 Modulator of FtsH protease HflK;>dRep_bin041_OPKGAAAG_00234 Modulator of FtsH protease HflK;>dRep_bin209_NKIHFCEN_01525 Modulator of FtsH protease HflK;>dRep_bin157_JPN	dRep_bin157_JPNIKEKI_01676	CDS	hflK		Modulator of FtsH protease HflK
JPNIKEKI_01695	24.67863		22.089779999999998									26	0	0	dRep_bin157_JPNIKEKI_01695	dRep_bin157_JPNIKEKI_01695	>dRep_bin157_JPNIKEKI_01695 60 kDa chaperonin	dRep_bin157_JPNIKEKI_01695	CDS	groL		60 kDa chaperonin
JPNIKEKI_01700					25.49625							2	2	1,1538E-06	dRep_bin226_NLNLHLLD_00532;dRep_bin209_NKIHFCEN_00151;dRep_bin157_JPNIKEKI_01700;dRep_bin041_OPKGAAAG_00804;dRep_bin347_EKGCMFPD_01151;dRep_bin234_ECABPBME_02204;dRep_bin335_JIOGNAPG_00452;dRep_bin344_CJJBDGAA_01159;dRep_bin248_CCDFPECI_01755;dRep_bin243_JDMELKLC_00417;dRep_bin145_KMJJJOEJ_01171;dRep_bin139_KGAJINND_01314;dRep_bin016_JLGAHGOJ_00639;dRep_bin143_PFLDJMPF_01247;dRep_bin160_EFKMPBOM_02408;dRep_bin293_MEPKGOAN_00830;dRep_bin154_JGOKHKLI_00581;dRep_bin325_EIIGOGHN_00042;dRep_bin292_JIBLDOOH_01154;dRep_bin203_CLFNNOCF_00015;dRep_bin179_HFEIPPPA_01953;dRep_bin133_NOBPDBPA_02967;dRep_bin319_PBDBJGCJ_00929;dRep_bin260_HELEPKJL_00646;dRep_bin282_PKAAPBFP_00876	dRep_bin226_NLNLHLLD_00532;dRep_bin209_NKIHFCEN_00151;dRep_bin157_JPNIKEKI_01700;dRep_bin041_OPKGAAAG_00804;dRep_bin347_EKGCMFPD_01151;dRep_bin234_ECABPBME_02204;dRep_bin335_JIOGNAPG_00452;dRep_bin344_CJJBDGAA_01159;dRep_bin248_CCDFPECI_01755;dRep_bin243_JDMELKLC_00417;dRep_bin145_KMJJJOEJ_01171;dRep_bin139_KGAJINND_01314;dRep_bin016_JLGAHGOJ_00639;dRep_bin143_PFLDJMPF_01247;dRep_bin160_EFKMPBOM_02408;dRep_bin293_MEPKGOAN_00830;dRep_bin154_JGOKHKLI_00581;dRep_bin325_EIIGOGHN_00042;dRep_bin292_JIBLDOOH_01154;dRep_bin203_CLFNNOCF_00015;dRep_bin179_HFEIPPPA_01953;dRep_bin133_NOBPDBPA_02967;dRep_bin319_PBDBJGCJ_00929;dRep_bin260_HELEPKJL_00646;dRep_bin282_PKAAPBFP_00876	>dRep_bin226_NLNLHLLD_00532 Ferredoxin-dependent glutamate synthase 1;>dRep_bin209_NKIHFCEN_00151 Ferredoxin-dependent glutamate synthase 1;>dRep_bin157_JPNIKEKI_01700 Ferredoxin-dependent glutamate synthase 1;>dRep_bin041_OPKGAAAG_00804 Ferredoxin-depende	dRep_bin157_JPNIKEKI_01700	CDS	gltB_2	1.4.7.1	Ferredoxin-dependent glutamate synthase 1
JPNIKEKI_01761			19.765909999999998									4	1	1,5284E-14	dRep_bin157_JPNIKEKI_01761	dRep_bin157_JPNIKEKI_01761	>dRep_bin157_JPNIKEKI_01761 Serine hydroxymethyltransferase	dRep_bin157_JPNIKEKI_01761	CDS	glyA	2.1.2.1	Serine hydroxymethyltransferase
JPNIKEKI_01765								24.67471				2	1	3,5941E-06	dRep_bin139_KGAJINND_01299;dRep_bin249_OFIIEIDJ_00342;dRep_bin201_OLKDIBOK_02433;dRep_bin016_JLGAHGOJ_01891;dRep_bin248_CCDFPECI_00660;dRep_bin135_HHKACLPM_00948;dRep_bin075_EPEMMOCL_02434;dRep_bin031_BNHMFOII_01531;dRep_bin347_EKGCMFPD_00881;dRep_bin335_JIOGNAPG_00537;dRep_bin324_IPNHOHFK_01798;dRep_bin306_FGHMKMMP_00897;dRep_bin292_JIBLDOOH_02185;dRep_bin284_DEHKNOBF_01656;dRep_bin282_PKAAPBFP_00606;dRep_bin234_ECABPBME_00660;dRep_bin160_EFKMPBOM_02159;dRep_bin157_JPNIKEKI_01765;dRep_bin154_JGOKHKLI_01946;dRep_bin089_PAJFOJBN_02017;dRep_bin066_AJACLPEE_01205;dRep_bin019_MOJEPLJF_01345;dRep_bin017_FGFLFOPJ_00396;dRep_bin007_LNLEAAAN_00779;dRep_bin303_DDDNDJCF_00484;dRep_bin134_HIAPAODO_02040;dRep_bin027_OFJCHLJJ_00472;dRep_bin319_PBDBJGCJ_00498;dRep_bin300_MJPPENNL_00779;dRep_bin297_EDHEEICA_01479;dRep_bin287_DONBGKDH_00568;dRep_bin269_PNILGKPH_00378;dRep_bin266_JFOCEDAE_00242;dRep_bin226_NLNLHLLD_00006;dRep_bin220_PILICLLL_01253;dRep_bin209_NKIHFCEN_00393;dRep_bin179_HFEIPPPA_00599;dRep_bin133_NOBPDBPA_02395;dRep_bin127_FIPNHBCH_00410;dRep_bin088_DNGPPFDK_00575;dRep_bin081_JDPCKDNP_00771;dRep_bin041_OPKGAAAG_02154;dRep_bin308_JBPDGLPP_00851;dRep_bin167_BLMEBMNN_01783;dRep_bin095_HOBNOEEF_00951;dRep_bin024_OLHDGABE_01396;dRep_bin310_IMBAFDIF_00588;dRep_bin001_GHHJMDAL_01280	dRep_bin139_KGAJINND_01299;dRep_bin249_OFIIEIDJ_00342;dRep_bin201_OLKDIBOK_02433;dRep_bin016_JLGAHGOJ_01891;dRep_bin248_CCDFPECI_00660;dRep_bin135_HHKACLPM_00948;dRep_bin075_EPEMMOCL_02434;dRep_bin031_BNHMFOII_01531;dRep_bin347_EKGCMFPD_00881;dRep_bin335_JIOGNAPG_00537;dRep_bin324_IPNHOHFK_01798;dRep_bin306_FGHMKMMP_00897;dRep_bin292_JIBLDOOH_02185;dRep_bin284_DEHKNOBF_01656;dRep_bin282_PKAAPBFP_00606;dRep_bin234_ECABPBME_00660;dRep_bin160_EFKMPBOM_02159;dRep_bin157_JPNIKEKI_01765;dRep_bin154_JGOKHKLI_01946;dRep_bin089_PAJFOJBN_02017;dRep_bin066_AJACLPEE_01205;dRep_bin019_MOJEPLJF_01345;dRep_bin017_FGFLFOPJ_00396;dRep_bin007_LNLEAAAN_00779;dRep_bin303_DDDNDJCF_00484;dRep_bin134_HIAPAODO_02040;dRep_bin027_OFJCHLJJ_00472;dRep_bin319_PBDBJGCJ_00498;dRep_bin300_MJPPENNL_00779;dRep_bin297_EDHEEICA_01479;dRep_bin287_DONBGKDH_00568;dRep_bin269_PNILGKPH_00378;dRep_bin266_JFOCEDAE_00242;dRep_bin226_NLNLHLLD_00006;dRep_bin220_PILICLLL_01253;dRep_bin209_NKIHFCEN_00393;dRep_bin179_HFEIPPPA_00599;dRep_bin133_NOBPDBPA_02395;dRep_bin127_FIPNHBCH_00410;dRep_bin088_DNGPPFDK_00575;dRep_bin081_JDPCKDNP_00771;dRep_bin041_OPKGAAAG_02154;dRep_bin308_JBPDGLPP_00851;dRep_bin167_BLMEBMNN_01783;dRep_bin095_HOBNOEEF_00951;dRep_bin024_OLHDGABE_01396;dRep_bin310_IMBAFDIF_00588;dRep_bin001_GHHJMDAL_01280	>dRep_bin139_KGAJINND_01299 Glycine--tRNA ligase;>dRep_bin249_OFIIEIDJ_00342 Glycine--tRNA ligase;>dRep_bin201_OLKDIBOK_02433 Glycine--tRNA ligase;>dRep_bin016_JLGAHGOJ_01891 Glycine--tRNA ligase;>dRep_bin248_CCDFPECI_00660 Glycine--tRNA ligase;>dRep_bin13	dRep_bin157_JPNIKEKI_01765	CDS	glyQS	6.1.1.14	Glycine--tRNA ligase
JPNIKEKI_01805	25.5077	24.881619999999998	24.86103	25.17969		26.654030000000002	24.772029999999997	25.67339				5	2	1,094E-19	dRep_bin292_JIBLDOOH_01406;dRep_bin209_NKIHFCEN_00724;dRep_bin269_PNILGKPH_02287;dRep_bin133_NOBPDBPA_02637;dRep_bin297_EDHEEICA_01805;dRep_bin310_IMBAFDIF_00676;dRep_bin282_PKAAPBFP_00614;dRep_bin249_OFIIEIDJ_00232;dRep_bin160_EFKMPBOM_02166;dRep_bin154_JGOKHKLI_01955;dRep_bin319_PBDBJGCJ_01734;dRep_bin066_AJACLPEE_00591;dRep_bin279_IAEFEPEN_01113;dRep_bin027_OFJCHLJJ_01205;dRep_bin157_JPNIKEKI_01805	dRep_bin292_JIBLDOOH_01406;dRep_bin209_NKIHFCEN_00724;dRep_bin269_PNILGKPH_02287	>dRep_bin292_JIBLDOOH_01406 Inosine-5-monophosphate dehydrogenase;>dRep_bin209_NKIHFCEN_00724 Inosine-5-monophosphate dehydrogenase;>dRep_bin269_PNILGKPH_02287 Inosine-5-monophosphate dehydrogenase	dRep_bin157_JPNIKEKI_01805	CDS	guaB	1.1.1.205	Inosine-5'-monophosphate dehydrogenase
JPNIKEKI_01818	23.498749999999998	23.41377	23.664050000000003	25.007910000000003								4	3	8,0566E-12	dRep_bin292_JIBLDOOH_01418;dRep_bin303_DDDNDJCF_00505;dRep_bin077_DNNBMPMC_00941;dRep_bin152_LJMCIADF_01123;dRep_bin124_HIHDFGCL_00335;dRep_bin079_GAOGCKND_00643;dRep_bin068_ENOLAELK_01078;dRep_bin038_EIGFILKG_00380;dRep_bin309_BIOHLCGG_00617;dRep_bin194_MEPDOGGJ_00286;dRep_bin025_CBEJJMLE_00539;dRep_bin247_EKGBJCBM_00804;dRep_bin253_CPMOAOBJ_00601;dRep_bin169_PNICKJKO_01110;dRep_bin123_PJKBFKBB_01254;dRep_bin306_FGHMKMMP_00717;dRep_bin293_MEPKGOAN_00676;dRep_bin257_JHFDCHCB_01083;dRep_bin249_OFIIEIDJ_00213;dRep_bin157_JPNIKEKI_01818;dRep_bin085_MBHLGCDB_01586;dRep_bin319_PBDBJGCJ_01316;dRep_bin300_MJPPENNL_01694;dRep_bin282_PKAAPBFP_01497;dRep_bin220_PILICLLL_01502;dRep_bin209_NKIHFCEN_00711;dRep_bin179_HFEIPPPA_01156;dRep_bin166_DFIAJFEC_01129;dRep_bin160_EFKMPBOM_01097;dRep_bin154_JGOKHKLI_00129;dRep_bin088_DNGPPFDK_00244;dRep_bin075_EPEMMOCL_01534;dRep_bin069_EGGEOGDC_00523;dRep_bin344_CJJBDGAA_01343;dRep_bin324_IPNHOHFK_02132;dRep_bin310_IMBAFDIF_01633;dRep_bin297_EDHEEICA_00782;dRep_bin269_PNILGKPH_01786;dRep_bin248_CCDFPECI_00995;dRep_bin226_NLNLHLLD_00535;dRep_bin203_CLFNNOCF_00636;dRep_bin168_HKDILBFE_00313;dRep_bin139_KGAJINND_00724;dRep_bin133_NOBPDBPA_02650;dRep_bin099_DNDAGJEJ_01464;dRep_bin091_MAFACGAD_00915;dRep_bin007_LNLEAAAN_01209;dRep_bin260_HELEPKJL_00482;dRep_bin186_HJAAFFNP_01391;dRep_bin115_IFKGOGCL_02481;dRep_bin039_IJNOFOJK_00485;dRep_bin354_MMOALAFN_01391;dRep_bin261_FJICAFFM_01132;dRep_bin336_MPGOKPOL_01187;dRep_bin095_HOBNOEEF_00148;dRep_bin348_LCLFDNEE_00586;dRep_bin125_FADLGGII_01253;dRep_bin089_PAJFOJBN_00918;dRep_bin277_MIPNGEJE_00466	dRep_bin292_JIBLDOOH_01418;dRep_bin303_DDDNDJCF_00505	>dRep_bin292_JIBLDOOH_01418 Putative aminotransferase/MSMEI_6121;>dRep_bin303_DDDNDJCF_00505 Putative aminotransferase/MSMEI_6121	dRep_bin157_JPNIKEKI_01818	CDS			Putative aminotransferase/MSMEI_6121
JPNIKEKI_01820					24.24887	26.77128	24.69339	24.025629999999996				3	1	5,593E-12	dRep_bin139_KGAJINND_01577;dRep_bin344_CJJBDGAA_01807;dRep_bin300_MJPPENNL_01697;dRep_bin324_IPNHOHFK_02134;dRep_bin261_FJICAFFM_01134;dRep_bin303_DDDNDJCF_01519;dRep_bin297_EDHEEICA_00415;dRep_bin209_NKIHFCEN_00709;dRep_bin167_BLMEBMNN_00621;dRep_bin157_JPNIKEKI_01820;dRep_bin133_NOBPDBPA_02652;dRep_bin016_JLGAHGOJ_01099;dRep_bin292_JIBLDOOH_01420;dRep_bin127_FIPNHBCH_01248;dRep_bin062_BOFBFLDA_01336;dRep_bin115_IFKGOGCL_01923;dRep_bin269_PNILGKPH_02213;dRep_bin208_DHPGEIBC_01209;dRep_bin347_EKGCMFPD_00714;dRep_bin266_JFOCEDAE_00751;dRep_bin211_LGJEFJIK_00719;dRep_bin316_FNLHDNEO_01427;dRep_bin065_DFABHCBI_00784;dRep_bin319_PBDBJGCJ_00028;dRep_bin077_DNNBMPMC_00009;dRep_bin006_HPJGJCAG_01885;dRep_bin066_AJACLPEE_00266;dRep_bin279_IAEFEPEN_00114;dRep_bin254_GJDPFAEA_01714;dRep_bin035_JBNPBOKG_00265;dRep_bin092_OOJCPDEA_01135;dRep_bin173_BEBNCADL_00932;dRep_bin261_FJICAFFM_01422;dRep_bin288_KOIAAABN_01088;dRep_bin263_OLEFOGIJ_00124;dRep_bin099_DNDAGJEJ_00022;dRep_bin325_EIIGOGHN_01093;dRep_bin076_GLAOFBEC_01169;dRep_bin089_PAJFOJBN_00283;dRep_bin287_DONBGKDH_01271;dRep_bin162_JBGCCDIN_01770;dRep_bin135_HHKACLPM_00267;dRep_bin332_KAOPCDPF_00441;dRep_bin310_IMBAFDIF_00637;dRep_bin304_JDNJGFKH_01711;dRep_bin222_GGCAJABB_01248;dRep_bin159_ADJJGPBG_01860;dRep_bin043_KLAFNACO_01408;dRep_bin023_HGFJFKAI_00653;dRep_bin189_AHHEHGDL_01147;dRep_bin328_GIGKNKPJ_01484;dRep_bin282_PKAAPBFP_01012;dRep_bin229_FFOBPPJI_01006;dRep_bin203_CLFNNOCF_00634;dRep_bin102_ICFDHPGB_01107;dRep_bin072_JOBJPCGA_00187;dRep_bin029_LFMGBBEC_00768;dRep_bin017_FGFLFOPJ_00988;dRep_bin195_DDMDFNOK_00791;dRep_bin120_EKLBOPNC_01828;dRep_bin058_GJKCICJN_00813;dRep_bin046_GKEJLOEK_00003;dRep_bin186_HJAAFFNP_01596;dRep_bin349_AMCJEEEG_00676;dRep_bin200_JJGKEOHI_00578;dRep_bin027_OFJCHLJJ_00701;dRep_bin161_JMKPMHCO_01186;dRep_bin160_EFKMPBOM_00139;dRep_bin154_JGOKHKLI_00533;dRep_bin083_OCBADPJJ_00750;dRep_bin049_MNFBDPNO_00757;dRep_bin008_MNDMJLEI_00707;dRep_bin158_OGFICEAP_00389;dRep_bin334_NAPFFNLD_00463;dRep_bin339_DBNBAHDK_00481;dRep_bin241_LMMMGDNI_00312;dRep_bin179_HFEIPPPA_00773;dRep_bin245_MBCFLKOF_01292;dRep_bin010_MFFFGEGD_00549	dRep_bin139_KGAJINND_01577;dRep_bin344_CJJBDGAA_01807;dRep_bin300_MJPPENNL_01697;dRep_bin324_IPNHOHFK_02134;dRep_bin261_FJICAFFM_01134;dRep_bin303_DDDNDJCF_01519;dRep_bin297_EDHEEICA_00415;dRep_bin209_NKIHFCEN_00709;dRep_bin167_BLMEBMNN_00621;dRep_bin157_JPNIKEKI_01820;dRep_bin133_NOBPDBPA_02652;dRep_bin016_JLGAHGOJ_01099;dRep_bin292_JIBLDOOH_01420;dRep_bin127_FIPNHBCH_01248;dRep_bin062_BOFBFLDA_01336;dRep_bin115_IFKGOGCL_01923;dRep_bin269_PNILGKPH_02213	>dRep_bin139_KGAJINND_01577 Chaperone protein ClpB 1;>dRep_bin344_CJJBDGAA_01807 Chaperone protein ClpB;>dRep_bin300_MJPPENNL_01697 Chaperone protein ClpB;>dRep_bin324_IPNHOHFK_02134 Chaperone protein ClpB;>dRep_bin261_FJICAFFM_01134 Chaperone protein ClpB	dRep_bin157_JPNIKEKI_01820	CDS	clpB1		Chaperone protein ClpB 1
JPNIKEKI_01833			23.262129999999996									1	1	1,124E-05	dRep_bin325_EIIGOGHN_00455;dRep_bin287_DONBGKDH_01891;dRep_bin260_HELEPKJL_00793;dRep_bin095_HOBNOEEF_02183;dRep_bin023_HGFJFKAI_00898;dRep_bin226_NLNLHLLD_01485;dRep_bin041_OPKGAAAG_02051;dRep_bin062_BOFBFLDA_01385;dRep_bin181_MKGPMPIA_01332;dRep_bin269_PNILGKPH_01447;dRep_bin282_PKAAPBFP_01100;dRep_bin261_FJICAFFM_01242;dRep_bin203_CLFNNOCF_00622;dRep_bin234_ECABPBME_01964;dRep_bin007_LNLEAAAN_01741;dRep_bin335_JIOGNAPG_00799;dRep_bin309_BIOHLCGG_01161;dRep_bin160_EFKMPBOM_00129;dRep_bin154_JGOKHKLI_00545;dRep_bin133_NOBPDBPA_03678;dRep_bin089_PAJFOJBN_00292;dRep_bin019_MOJEPLJF_01283;dRep_bin134_HIAPAODO_00643;dRep_bin024_OLHDGABE_01143;dRep_bin005_CNDFPKJG_01361;dRep_bin209_NKIHFCEN_00699;dRep_bin179_HFEIPPPA_01887;dRep_bin157_JPNIKEKI_01833;dRep_bin107_EFNBPDOP_00671;dRep_bin077_DNNBMPMC_00160;dRep_bin039_IJNOFOJK_00262;dRep_bin016_JLGAHGOJ_00401;dRep_bin344_CJJBDGAA_00564;dRep_bin324_IPNHOHFK_02103;dRep_bin249_OFIIEIDJ_01493;dRep_bin139_KGAJINND_00448;dRep_bin081_JDPCKDNP_01186;dRep_bin319_PBDBJGCJ_01293;dRep_bin279_IAEFEPEN_01252;dRep_bin220_PILICLLL_00969;dRep_bin201_OLKDIBOK_00798;dRep_bin293_MEPKGOAN_01317;dRep_bin292_JIBLDOOH_01431;dRep_bin027_OFJCHLJJ_01511;dRep_bin347_EKGCMFPD_00408;dRep_bin211_LGJEFJIK_00568	dRep_bin325_EIIGOGHN_00455;dRep_bin287_DONBGKDH_01891;dRep_bin260_HELEPKJL_00793;dRep_bin095_HOBNOEEF_02183;dRep_bin023_HGFJFKAI_00898;dRep_bin226_NLNLHLLD_01485;dRep_bin041_OPKGAAAG_02051;dRep_bin062_BOFBFLDA_01385;dRep_bin181_MKGPMPIA_01332;dRep_bin269_PNILGKPH_01447;dRep_bin282_PKAAPBFP_01100;dRep_bin261_FJICAFFM_01242;dRep_bin203_CLFNNOCF_00622;dRep_bin234_ECABPBME_01964;dRep_bin007_LNLEAAAN_01741;dRep_bin335_JIOGNAPG_00799;dRep_bin309_BIOHLCGG_01161;dRep_bin160_EFKMPBOM_00129;dRep_bin154_JGOKHKLI_00545;dRep_bin133_NOBPDBPA_03678;dRep_bin089_PAJFOJBN_00292;dRep_bin019_MOJEPLJF_01283;dRep_bin134_HIAPAODO_00643;dRep_bin024_OLHDGABE_01143;dRep_bin005_CNDFPKJG_01361;dRep_bin209_NKIHFCEN_00699;dRep_bin179_HFEIPPPA_01887;dRep_bin157_JPNIKEKI_01833;dRep_bin107_EFNBPDOP_00671;dRep_bin077_DNNBMPMC_00160;dRep_bin039_IJNOFOJK_00262;dRep_bin016_JLGAHGOJ_00401;dRep_bin344_CJJBDGAA_00564;dRep_bin324_IPNHOHFK_02103;dRep_bin249_OFIIEIDJ_01493;dRep_bin139_KGAJINND_00448;dRep_bin081_JDPCKDNP_01186;dRep_bin319_PBDBJGCJ_01293;dRep_bin279_IAEFEPEN_01252;dRep_bin220_PILICLLL_00969;dRep_bin201_OLKDIBOK_00798;dRep_bin293_MEPKGOAN_01317;dRep_bin292_JIBLDOOH_01431;dRep_bin027_OFJCHLJJ_01511;dRep_bin347_EKGCMFPD_00408;dRep_bin211_LGJEFJIK_00568	>dRep_bin325_EIIGOGHN_00455 Valine--tRNA ligase;>dRep_bin287_DONBGKDH_01891 Valine--tRNA ligase;>dRep_bin260_HELEPKJL_00793 Valine--tRNA ligase;>dRep_bin095_HOBNOEEF_02183 Valine--tRNA ligase;>dRep_bin023_HGFJFKAI_00898 Valine--tRNA ligase;>dRep_bin226_NLN	dRep_bin157_JPNIKEKI_01833	CDS	valS	6.1.1.9	Valine--tRNA ligase
JPNIKEKI_01842						23.31202						2	2	1,6059E-07	dRep_bin041_OPKGAAAG_00968;dRep_bin157_JPNIKEKI_01842;dRep_bin269_PNILGKPH_00625;dRep_bin039_IJNOFOJK_00614;dRep_bin287_DONBGKDH_00196;dRep_bin226_NLNLHLLD_00341;dRep_bin292_JIBLDOOH_01894;dRep_bin261_FJICAFFM_00533;dRep_bin209_NKIHFCEN_01892;dRep_bin324_IPNHOHFK_01704	dRep_bin041_OPKGAAAG_00968;dRep_bin157_JPNIKEKI_01842;dRep_bin269_PNILGKPH_00625;dRep_bin039_IJNOFOJK_00614;dRep_bin287_DONBGKDH_00196;dRep_bin226_NLNLHLLD_00341;dRep_bin292_JIBLDOOH_01894;dRep_bin261_FJICAFFM_00533;dRep_bin209_NKIHFCEN_01892;dRep_bin324_IPNHOHFK_01704	>dRep_bin041_OPKGAAAG_00968 Serine/threonine-protein kinase PrkC;>dRep_bin157_JPNIKEKI_01842 Serine/threonine-protein kinase PrkC;>dRep_bin269_PNILGKPH_00625 Serine/threonine-protein kinase PrkC;>dRep_bin039_IJNOFOJK_00614 Serine/threonine-protein kinase P	dRep_bin157_JPNIKEKI_01842	CDS	prkC_2	2.7.11.1	Serine/threonine-protein kinase PrkC
JPNIKEKI_01860	25.163729999999997	26.71293	25.91784	27.05009								9	5	2,8741E-34	dRep_bin041_OPKGAAAG_02036;dRep_bin226_NLNLHLLD_00918;dRep_bin157_JPNIKEKI_01860;dRep_bin179_HFEIPPPA_01722;dRep_bin209_NKIHFCEN_01548	dRep_bin041_OPKGAAAG_02036;dRep_bin226_NLNLHLLD_00918;dRep_bin157_JPNIKEKI_01860;dRep_bin179_HFEIPPPA_01722	>dRep_bin041_OPKGAAAG_02036 Ornithine carbamoyltransferase;>dRep_bin226_NLNLHLLD_00918 Ornithine carbamoyltransferase;>dRep_bin157_JPNIKEKI_01860 Ornithine carbamoyltransferase;>dRep_bin179_HFEIPPPA_01722 Ornithine carbamoyltransferase	dRep_bin157_JPNIKEKI_01860	CDS	argF	2.1.3.3	Ornithine carbamoyltransferase
JPNIKEKI_01908			25.293409999999998									29	0	0	dRep_bin157_JPNIKEKI_01908	dRep_bin157_JPNIKEKI_01908	>dRep_bin157_JPNIKEKI_01908 Phosphoenolpyruvate carboxykinase (ATP)	dRep_bin157_JPNIKEKI_01908	CDS	pckA	4.1.1.49	Phosphoenolpyruvate carboxykinase (ATP)
JPNIKEKI_01941				24.368199999999998								7	0	3,6015E-32	dRep_bin157_JPNIKEKI_01941;dRep_bin150_HCDEOBMH_01167	dRep_bin157_JPNIKEKI_01941	>dRep_bin157_JPNIKEKI_01941 Phosphoribosylaminoimidazole-succinocarboxamide synthase	dRep_bin157_JPNIKEKI_01941	CDS	purC	6.3.2.6	Phosphoribosylaminoimidazole-succinocarboxamide synthase
JPNIKEKI_01942						24.55368						6	0	3,7555E-31	dRep_bin226_NLNLHLLD_01108;dRep_bin157_JPNIKEKI_01942;dRep_bin324_IPNHOHFK_00737;dRep_bin154_JGOKHKLI_00999	dRep_bin226_NLNLHLLD_01108;dRep_bin157_JPNIKEKI_01942;dRep_bin324_IPNHOHFK_00737;dRep_bin154_JGOKHKLI_00999	>dRep_bin226_NLNLHLLD_01108 2,3-bisphosphoglycerate-independent phosphoglycerate mutase;>dRep_bin157_JPNIKEKI_01942 2,3-bisphosphoglycerate-independent phosphoglycerate mutase;>dRep_bin324_IPNHOHFK_00737 2,3-bisphosphoglycerate-independent phosphoglycerate	dRep_bin157_JPNIKEKI_01942	CDS	gpmI	5.4.2.12	2,3-bisphosphoglycerate-independent phosphoglycerate mutase
JPNIKEKI_01944	30.858980000000003	30.89208	30.884890000000002	31.59103	31.281129999999997	31.72976	30.253719999999998	31.013050000000003				19	5	0	dRep_bin292_JIBLDOOH_01851;dRep_bin157_JPNIKEKI_01944;dRep_bin338_LIGGOPOO_00655	dRep_bin292_JIBLDOOH_01851	>dRep_bin292_JIBLDOOH_01851 Phosphoglycerate kinase	dRep_bin157_JPNIKEKI_01944	CDS	pgk	2.7.2.3	Phosphoglycerate kinase
JPNIKEKI_01977	28.066709999999997	27.865019999999998	27.66587	30.01358	28.62669	29.0671	28.01366	29.1504				16	4	1,1067E-128	dRep_bin292_JIBLDOOH_00648;dRep_bin157_JPNIKEKI_01977;dRep_bin129_GADIAMAA_00245	dRep_bin292_JIBLDOOH_00648	>dRep_bin292_JIBLDOOH_00648 Branched-chain-amino-acid aminotransferase	dRep_bin157_JPNIKEKI_01977	CDS	ilvE	2.6.1.42	Branched-chain-amino-acid aminotransferase
