GBprotID	LFQ intensity CtrPig1	LFQ intensity CtrPig2	LFQ intensity CtrPig3	LFQ intensity CtrPig4	LFQ intensity MannanPig1	LFQ intensity MannanPig2	LFQ intensity MannanPig3	LFQ intensity MannanPig4	Only identified by site	Reverse	Contaminant	Peptides	Unique peptides	PEP	Protein IDs	Majority protein IDs	Fasta headers	IDcomb	ftype	gene	EC_number	product
OGFICEAP_00004						23.19969						4	0	2,4012E-12	dRep_bin112_NDMGAKCH_00731;dRep_bin289_KALDCNNP_00011;dRep_bin113_LIFKCGBF_00608;dRep_bin137_NABPABPB_00033;dRep_bin002_CFBNDKDN_00319;dRep_bin329_GDOHKPBL_01539;dRep_bin063_PJANDMAH_01116;dRep_bin136_NAIECEIF_00598;dRep_bin071_JHMCIJPE_00513;dRep_bin275_NIDIBBDA_01478;dRep_bin283_NLJJFFAC_00658;dRep_bin316_FNLHDNEO_00538;dRep_bin016_JLGAHGOJ_01021;dRep_bin093_PGADNPMG_00614;dRep_bin128_JPBBHEMA_01235;dRep_bin196_BIELHBNH_00516;dRep_bin018_ILOONPIC_00864;dRep_bin298_EIPJCOMF_01408;dRep_bin290_OIOJKBNK_00725;dRep_bin256_KEMNAOBC_00377;dRep_bin345_GLPJDLOI_01426;dRep_bin089_PAJFOJBN_01916;dRep_bin027_OFJCHLJJ_01931;dRep_bin328_GIGKNKPJ_01061;dRep_bin091_MAFACGAD_00821;dRep_bin352_KFNHGNFC_00965;dRep_bin096_GNHMEKPF_00111;dRep_bin065_DFABHCBI_02359;dRep_bin048_PABMBHAL_00218;dRep_bin240_LDBBGJKG_00200;dRep_bin094_LBLICAAO_01774;dRep_bin186_HJAAFFNP_01716;dRep_bin160_EFKMPBOM_00295;dRep_bin344_CJJBDGAA_01885;dRep_bin081_JDPCKDNP_02127;dRep_bin062_BOFBFLDA_01458;dRep_bin279_IAEFEPEN_00039;dRep_bin088_DNGPPFDK_00119;dRep_bin335_JIOGNAPG_01546;dRep_bin287_DONBGKDH_00294;dRep_bin150_HCDEOBMH_01332;dRep_bin310_IMBAFDIF_00761;dRep_bin300_MJPPENNL_00654;dRep_bin041_OPKGAAAG_01259;dRep_bin024_OLHDGABE_00962;dRep_bin322_OJELOJOF_01437;dRep_bin017_FGFLFOPJ_00437;dRep_bin158_OGFICEAP_00004;dRep_bin303_DDDNDJCF_01152;dRep_bin310_IMBAFDIF_00173;dRep_bin248_CCDFPECI_00143;dRep_bin131_HLFNHDGI_00101;dRep_bin301_NJFJIJGA_00544;dRep_bin167_BLMEBMNN_01000;dRep_bin134_HIAPAODO_00464;dRep_bin260_HELEPKJL_00441;dRep_bin220_PILICLLL_00077;dRep_bin007_LNLEAAAN_01436;dRep_bin127_FIPNHBCH_00505;dRep_bin014_CHIHIMAN_00797	dRep_bin112_NDMGAKCH_00731;dRep_bin289_KALDCNNP_00011;dRep_bin113_LIFKCGBF_00608;dRep_bin137_NABPABPB_00033;dRep_bin002_CFBNDKDN_00319;dRep_bin329_GDOHKPBL_01539;dRep_bin063_PJANDMAH_01116;dRep_bin136_NAIECEIF_00598;dRep_bin071_JHMCIJPE_00513;dRep_bin275_NIDIBBDA_01478;dRep_bin283_NLJJFFAC_00658;dRep_bin316_FNLHDNEO_00538;dRep_bin016_JLGAHGOJ_01021;dRep_bin093_PGADNPMG_00614;dRep_bin128_JPBBHEMA_01235;dRep_bin196_BIELHBNH_00516;dRep_bin018_ILOONPIC_00864;dRep_bin298_EIPJCOMF_01408;dRep_bin290_OIOJKBNK_00725;dRep_bin256_KEMNAOBC_00377;dRep_bin345_GLPJDLOI_01426	>dRep_bin112_NDMGAKCH_00731 Translation initiation factor IF-2;>dRep_bin289_KALDCNNP_00011 Translation initiation factor IF-2;>dRep_bin113_LIFKCGBF_00608 Translation initiation factor IF-2;>dRep_bin137_NABPABPB_00033 Translation initiation factor IF-2;>dRe	dRep_bin158_OGFICEAP_00004	CDS	infB		Translation initiation factor IF-2
OGFICEAP_00011	26.04908	26.444629999999997	26.6006	26.81262	26.286619999999996	26.926709999999996	26.49905	25.951539999999998				7	2	1,1708E-54	dRep_bin269_PNILGKPH_01363;dRep_bin158_OGFICEAP_00011;dRep_bin319_PBDBJGCJ_00937;dRep_bin306_FGHMKMMP_00276	dRep_bin269_PNILGKPH_01363	>dRep_bin269_PNILGKPH_01363 Polyribonucleotide nucleotidyltransferase	dRep_bin158_OGFICEAP_00011	CDS	pnp	2.7.7.8	Polyribonucleotide nucleotidyltransferase
OGFICEAP_00078			19.70065									1	1	0,00094842	dRep_bin019_MOJEPLJF_01253;dRep_bin322_OJELOJOF_00998;dRep_bin266_JFOCEDAE_01255;dRep_bin203_CLFNNOCF_01667;dRep_bin179_HFEIPPPA_01487;dRep_bin062_BOFBFLDA_00482;dRep_bin335_JIOGNAPG_01394;dRep_bin325_EIIGOGHN_00716;dRep_bin300_MJPPENNL_01210;dRep_bin287_DONBGKDH_01487;dRep_bin282_PKAAPBFP_00060;dRep_bin279_IAEFEPEN_01206;dRep_bin269_PNILGKPH_01047;dRep_bin261_FJICAFFM_00341;dRep_bin249_OFIIEIDJ_00793;dRep_bin220_PILICLLL_00785;dRep_bin201_OLKDIBOK_02285;dRep_bin168_HKDILBFE_00870;dRep_bin160_EFKMPBOM_02348;dRep_bin158_OGFICEAP_00078;dRep_bin154_JGOKHKLI_02345;dRep_bin145_KMJJJOEJ_00681;dRep_bin139_KGAJINND_00935;dRep_bin135_HHKACLPM_01083;dRep_bin134_HIAPAODO_01183;dRep_bin133_NOBPDBPA_03238;dRep_bin099_DNDAGJEJ_00384;dRep_bin095_HOBNOEEF_02248;dRep_bin091_MAFACGAD_00479;dRep_bin081_JDPCKDNP_01979;dRep_bin039_IJNOFOJK_00775;dRep_bin023_HGFJFKAI_00522;dRep_bin324_IPNHOHFK_00121;dRep_bin278_BFCONKOE_01329;dRep_bin234_ECABPBME_01690;dRep_bin027_OFJCHLJJ_00792;dRep_bin024_OLHDGABE_00305;dRep_bin005_CNDFPKJG_01369;dRep_bin088_DNGPPFDK_01526;dRep_bin077_DNNBMPMC_01927;dRep_bin310_IMBAFDIF_00406	dRep_bin019_MOJEPLJF_01253;dRep_bin322_OJELOJOF_00998;dRep_bin266_JFOCEDAE_01255;dRep_bin203_CLFNNOCF_01667;dRep_bin179_HFEIPPPA_01487;dRep_bin062_BOFBFLDA_00482;dRep_bin335_JIOGNAPG_01394;dRep_bin325_EIIGOGHN_00716;dRep_bin300_MJPPENNL_01210;dRep_bin287_DONBGKDH_01487;dRep_bin282_PKAAPBFP_00060;dRep_bin279_IAEFEPEN_01206;dRep_bin269_PNILGKPH_01047;dRep_bin261_FJICAFFM_00341;dRep_bin249_OFIIEIDJ_00793;dRep_bin220_PILICLLL_00785;dRep_bin201_OLKDIBOK_02285;dRep_bin168_HKDILBFE_00870;dRep_bin160_EFKMPBOM_02348;dRep_bin158_OGFICEAP_00078;dRep_bin154_JGOKHKLI_02345;dRep_bin145_KMJJJOEJ_00681;dRep_bin139_KGAJINND_00935;dRep_bin135_HHKACLPM_01083;dRep_bin134_HIAPAODO_01183;dRep_bin133_NOBPDBPA_03238;dRep_bin099_DNDAGJEJ_00384;dRep_bin095_HOBNOEEF_02248;dRep_bin091_MAFACGAD_00479;dRep_bin081_JDPCKDNP_01979;dRep_bin039_IJNOFOJK_00775;dRep_bin023_HGFJFKAI_00522;dRep_bin324_IPNHOHFK_00121;dRep_bin278_BFCONKOE_01329;dRep_bin234_ECABPBME_01690;dRep_bin027_OFJCHLJJ_00792;dRep_bin024_OLHDGABE_00305;dRep_bin005_CNDFPKJG_01369;dRep_bin088_DNGPPFDK_01526;dRep_bin077_DNNBMPMC_01927;dRep_bin310_IMBAFDIF_00406	>dRep_bin019_MOJEPLJF_01253 Purine catabolism regulatory protein;>dRep_bin322_OJELOJOF_00998 Purine catabolism regulatory protein;>dRep_bin266_JFOCEDAE_01255 Purine catabolism regulatory protein;>dRep_bin203_CLFNNOCF_01667 Carbohydrate diacid regulator;>dR	dRep_bin158_OGFICEAP_00078	CDS	cdaR_2		Carbohydrate diacid regulator
OGFICEAP_00108	22.442129999999995		23.827260000000003	22.52984	24.373910000000002	23.1697	24.233810000000002	23.283759999999997				3	2	1,2032E-19	dRep_bin201_OLKDIBOK_02152;dRep_bin303_DDDNDJCF_00821;dRep_bin134_HIAPAODO_01657;dRep_bin287_DONBGKDH_00415;dRep_bin158_OGFICEAP_00108;dRep_bin257_JHFDCHCB_00470;dRep_bin323_FBBLPLCG_00211;dRep_bin169_PNICKJKO_00577;dRep_bin056_EMNHHOJA_00890;dRep_bin024_OLHDGABE_01284;dRep_bin066_AJACLPEE_00551;dRep_bin254_GJDPFAEA_01693;dRep_bin207_OHNPDPFI_01049;dRep_bin151_AHBJLMBI_00266;dRep_bin119_AKFBCGDO_00602;dRep_bin081_JDPCKDNP_00442;dRep_bin027_OFJCHLJJ_00341;dRep_bin009_KMMEHEKA_00446;dRep_bin322_OJELOJOF_01023;dRep_bin321_EJNAAGJG_00651;dRep_bin282_PKAAPBFP_01369;dRep_bin273_FGAEBHNP_01231;dRep_bin016_JLGAHGOJ_00303;dRep_bin147_EJLBNEBE_01876;dRep_bin026_HNPIIINL_01011;dRep_bin309_BIOHLCGG_00817;dRep_bin253_CPMOAOBJ_01191;dRep_bin278_BFCONKOE_00460;dRep_bin227_IJODGBOI_00814;dRep_bin220_PILICLLL_00789	dRep_bin201_OLKDIBOK_02152;dRep_bin303_DDDNDJCF_00821;dRep_bin134_HIAPAODO_01657;dRep_bin287_DONBGKDH_00415;dRep_bin158_OGFICEAP_00108;dRep_bin257_JHFDCHCB_00470;dRep_bin323_FBBLPLCG_00211;dRep_bin169_PNICKJKO_00577;dRep_bin056_EMNHHOJA_00890;dRep_bin024_OLHDGABE_01284	>dRep_bin201_OLKDIBOK_02152 Leucine--tRNA ligase;>dRep_bin303_DDDNDJCF_00821 Leucine--tRNA ligase;>dRep_bin134_HIAPAODO_01657 Leucine--tRNA ligase;>dRep_bin287_DONBGKDH_00415 Leucine--tRNA ligase;>dRep_bin158_OGFICEAP_00108 Leucine--tRNA ligase;>dRep_bin25	dRep_bin158_OGFICEAP_00108	CDS	leuS	6.1.1.4	Leucine--tRNA ligase
OGFICEAP_00163	24.61633	24.588519999999995	24.53813	25.336100000000002								5	1	9,0008E-16	dRep_bin179_HFEIPPPA_00250;dRep_bin016_JLGAHGOJ_00291;dRep_bin167_BLMEBMNN_00269;dRep_bin158_OGFICEAP_00163	dRep_bin179_HFEIPPPA_00250	>dRep_bin179_HFEIPPPA_00250 Threonine synthase	dRep_bin158_OGFICEAP_00163	CDS	thrC	4.2.3.1	Threonine synthase
OGFICEAP_00179	27.59776	27.54377	27.07429	26.442999999999998	26.99701	26.93157	26.380319999999998	26.259719999999998				24	2	0	dRep_bin209_NKIHFCEN_01991;dRep_bin158_OGFICEAP_00179	dRep_bin209_NKIHFCEN_01991	>dRep_bin209_NKIHFCEN_01991 hypothetical protein	dRep_bin158_OGFICEAP_00179	CDS			hypothetical protein
OGFICEAP_00196		23.13859										5	1	1,5864E-31	dRep_bin016_JLGAHGOJ_02011;dRep_bin310_IMBAFDIF_01725;dRep_bin303_DDDNDJCF_01033;dRep_bin145_KMJJJOEJ_01079;dRep_bin248_CCDFPECI_00322;dRep_bin158_OGFICEAP_00196;dRep_bin266_JFOCEDAE_01508	dRep_bin016_JLGAHGOJ_02011;dRep_bin310_IMBAFDIF_01725;dRep_bin303_DDDNDJCF_01033;dRep_bin145_KMJJJOEJ_01079;dRep_bin248_CCDFPECI_00322;dRep_bin158_OGFICEAP_00196	>dRep_bin016_JLGAHGOJ_02011 IMP cyclohydrolase-like protein;>dRep_bin310_IMBAFDIF_01725 IMP cyclohydrolase-like protein;>dRep_bin303_DDDNDJCF_01033 IMP cyclohydrolase-like protein;>dRep_bin145_KMJJJOEJ_01079 IMP cyclohydrolase-like protein;>dRep_bin248_CCD	dRep_bin158_OGFICEAP_00196	CDS			IMP cyclohydrolase-like protein
OGFICEAP_00218	24.848619999999997	25.36856	25.00209	24.57421	24.772129999999997			24.807250000000003				20	2	1,6691E-113	dRep_bin158_OGFICEAP_00218;dRep_bin115_IFKGOGCL_02045	dRep_bin158_OGFICEAP_00218;dRep_bin115_IFKGOGCL_02045	>dRep_bin158_OGFICEAP_00218 NADP-specific glutamate dehydrogenase;>dRep_bin115_IFKGOGCL_02045 NADP-specific glutamate dehydrogenase	dRep_bin158_OGFICEAP_00218	CDS	gdh	1.4.1.4	NADP-specific glutamate dehydrogenase
OGFICEAP_00236				22.191170000000003								3	1	5,8989E-09	dRep_bin158_OGFICEAP_00236	dRep_bin158_OGFICEAP_00236	>dRep_bin158_OGFICEAP_00236 Adenylosuccinate synthetase	dRep_bin158_OGFICEAP_00236	CDS	purA	6.3.4.4	Adenylosuccinate synthetase
OGFICEAP_00263		27.263739999999995										8	0	2,0977E-117	dRep_bin158_OGFICEAP_00263;dRep_bin181_MKGPMPIA_00080;dRep_bin135_HHKACLPM_00070;dRep_bin115_IFKGOGCL_01718;dRep_bin254_GJDPFAEA_00329;dRep_bin240_LDBBGJKG_00023	dRep_bin158_OGFICEAP_00263;dRep_bin181_MKGPMPIA_00080;dRep_bin135_HHKACLPM_00070;dRep_bin115_IFKGOGCL_01718;dRep_bin254_GJDPFAEA_00329;dRep_bin240_LDBBGJKG_00023	>dRep_bin158_OGFICEAP_00263 Reverse rubrerythrin-1;>dRep_bin181_MKGPMPIA_00080 Reverse rubrerythrin-1;>dRep_bin135_HHKACLPM_00070 Reverse rubrerythrin-1;>dRep_bin115_IFKGOGCL_01718 Reverse rubrerythrin-1;>dRep_bin254_GJDPFAEA_00329 Reverse rubrerythrin-1;>	dRep_bin158_OGFICEAP_00263	CDS	rbr3A	1.11.1.1	Reverse rubrerythrin-1
OGFICEAP_00264					28.026970000000002	28.50393	27.067739999999997	28.05636				4	1	4,6858E-13	dRep_bin158_OGFICEAP_00264	dRep_bin158_OGFICEAP_00264	>dRep_bin158_OGFICEAP_00264 Rubrerythrin	dRep_bin158_OGFICEAP_00264	CDS	rbr		Rubrerythrin
OGFICEAP_00269				21.97994								5	0	1,3949E-17	dRep_bin254_GJDPFAEA_01325;dRep_bin158_OGFICEAP_00269	dRep_bin254_GJDPFAEA_01325;dRep_bin158_OGFICEAP_00269	>dRep_bin254_GJDPFAEA_01325 Glycogen phosphorylase;>dRep_bin158_OGFICEAP_00269 Glycogen phosphorylase	dRep_bin158_OGFICEAP_00269	CDS	glgP_1	2.4.1.1	Glycogen phosphorylase
OGFICEAP_00280							25.961199999999998					2	2	0,00015786	dRep_bin160_EFKMPBOM_01728;dRep_bin154_JGOKHKLI_02759;dRep_bin016_JLGAHGOJ_00947;dRep_bin300_MJPPENNL_00320;dRep_bin279_IAEFEPEN_00556;dRep_bin240_LDBBGJKG_00232;dRep_bin114_FJHJKHGL_00711;dRep_bin319_PBDBJGCJ_01578;dRep_bin303_DDDNDJCF_01052;dRep_bin266_JFOCEDAE_00913;dRep_bin249_OFIIEIDJ_00119;dRep_bin248_CCDFPECI_00592;dRep_bin234_ECABPBME_02379;dRep_bin220_PILICLLL_00845;dRep_bin186_HJAAFFNP_01196;dRep_bin185_OOOLKACK_00335;dRep_bin168_HKDILBFE_00607;dRep_bin166_DFIAJFEC_00186;dRep_bin158_OGFICEAP_00280;dRep_bin148_NAJFKJMD_00336;dRep_bin145_KMJJJOEJ_00820;dRep_bin139_KGAJINND_00662;dRep_bin134_HIAPAODO_02113;dRep_bin115_IFKGOGCL_02339;dRep_bin107_EFNBPDOP_00642;dRep_bin099_DNDAGJEJ_00407;dRep_bin095_HOBNOEEF_01490;dRep_bin077_DNNBMPMC_00028;dRep_bin069_EGGEOGDC_00544;dRep_bin047_IFFANOMN_01760;dRep_bin007_LNLEAAAN_01008;dRep_bin328_GIGKNKPJ_01593;dRep_bin058_GJKCICJN_01440;dRep_bin081_JDPCKDNP_01744;dRep_bin066_AJACLPEE_00558	dRep_bin160_EFKMPBOM_01728;dRep_bin154_JGOKHKLI_02759;dRep_bin016_JLGAHGOJ_00947;dRep_bin300_MJPPENNL_00320;dRep_bin279_IAEFEPEN_00556;dRep_bin240_LDBBGJKG_00232;dRep_bin114_FJHJKHGL_00711;dRep_bin319_PBDBJGCJ_01578;dRep_bin303_DDDNDJCF_01052;dRep_bin266_JFOCEDAE_00913;dRep_bin249_OFIIEIDJ_00119;dRep_bin248_CCDFPECI_00592;dRep_bin234_ECABPBME_02379;dRep_bin220_PILICLLL_00845;dRep_bin186_HJAAFFNP_01196;dRep_bin185_OOOLKACK_00335;dRep_bin168_HKDILBFE_00607;dRep_bin166_DFIAJFEC_00186;dRep_bin158_OGFICEAP_00280;dRep_bin148_NAJFKJMD_00336;dRep_bin145_KMJJJOEJ_00820;dRep_bin139_KGAJINND_00662;dRep_bin134_HIAPAODO_02113;dRep_bin115_IFKGOGCL_02339;dRep_bin107_EFNBPDOP_00642;dRep_bin099_DNDAGJEJ_00407;dRep_bin095_HOBNOEEF_01490;dRep_bin077_DNNBMPMC_00028;dRep_bin069_EGGEOGDC_00544;dRep_bin047_IFFANOMN_01760;dRep_bin007_LNLEAAAN_01008;dRep_bin328_GIGKNKPJ_01593;dRep_bin058_GJKCICJN_01440;dRep_bin081_JDPCKDNP_01744;dRep_bin066_AJACLPEE_00558	>dRep_bin160_EFKMPBOM_01728 Asparagine--tRNA ligase;>dRep_bin154_JGOKHKLI_02759 Asparagine--tRNA ligase;>dRep_bin016_JLGAHGOJ_00947 Asparagine--tRNA ligase;>dRep_bin300_MJPPENNL_00320 Asparagine--tRNA ligase;>dRep_bin279_IAEFEPEN_00556 Asparagine--tRNA lig	dRep_bin158_OGFICEAP_00280	CDS	asnS	6.1.1.22	Asparagine--tRNA ligase
OGFICEAP_00289								22.71578				1	1	0,0044387	dRep_bin249_OFIIEIDJ_00122;dRep_bin041_OPKGAAAG_01976;dRep_bin269_PNILGKPH_00694;dRep_bin324_IPNHOHFK_01746;dRep_bin139_KGAJINND_00203;dRep_bin134_HIAPAODO_01440;dRep_bin310_IMBAFDIF_01190;dRep_bin297_EDHEEICA_00324;dRep_bin292_JIBLDOOH_01248;dRep_bin287_DONBGKDH_00552;dRep_bin284_DEHKNOBF_01431;dRep_bin282_PKAAPBFP_01594;dRep_bin248_CCDFPECI_00349;dRep_bin226_NLNLHLLD_00457;dRep_bin209_NKIHFCEN_01470;dRep_bin201_OLKDIBOK_00113;dRep_bin158_OGFICEAP_00289;dRep_bin154_JGOKHKLI_02118;dRep_bin145_KMJJJOEJ_01273;dRep_bin133_NOBPDBPA_04372;dRep_bin095_HOBNOEEF_01401;dRep_bin039_IJNOFOJK_00110;dRep_bin220_PILICLLL_01331;dRep_bin027_OFJCHLJJ_01236;dRep_bin266_JFOCEDAE_00675;dRep_bin001_GHHJMDAL_01115;dRep_bin160_EFKMPBOM_01722;dRep_bin261_FJICAFFM_00866;dRep_bin203_CLFNNOCF_02521;dRep_bin322_OJELOJOF_00188	dRep_bin249_OFIIEIDJ_00122;dRep_bin041_OPKGAAAG_01976;dRep_bin269_PNILGKPH_00694;dRep_bin324_IPNHOHFK_01746;dRep_bin139_KGAJINND_00203;dRep_bin134_HIAPAODO_01440;dRep_bin310_IMBAFDIF_01190;dRep_bin297_EDHEEICA_00324;dRep_bin292_JIBLDOOH_01248;dRep_bin287_DONBGKDH_00552;dRep_bin284_DEHKNOBF_01431;dRep_bin282_PKAAPBFP_01594;dRep_bin248_CCDFPECI_00349;dRep_bin226_NLNLHLLD_00457;dRep_bin209_NKIHFCEN_01470;dRep_bin201_OLKDIBOK_00113;dRep_bin158_OGFICEAP_00289;dRep_bin154_JGOKHKLI_02118;dRep_bin145_KMJJJOEJ_01273;dRep_bin133_NOBPDBPA_04372;dRep_bin095_HOBNOEEF_01401;dRep_bin039_IJNOFOJK_00110;dRep_bin220_PILICLLL_01331;dRep_bin027_OFJCHLJJ_01236;dRep_bin266_JFOCEDAE_00675;dRep_bin001_GHHJMDAL_01115;dRep_bin160_EFKMPBOM_01722;dRep_bin261_FJICAFFM_00866;dRep_bin203_CLFNNOCF_02521;dRep_bin322_OJELOJOF_00188	>dRep_bin249_OFIIEIDJ_00122 Glucose-1-phosphate adenylyltransferase;>dRep_bin041_OPKGAAAG_01976 Glucose-1-phosphate adenylyltransferase;>dRep_bin269_PNILGKPH_00694 Glucose-1-phosphate adenylyltransferase;>dRep_bin324_IPNHOHFK_01746 Glucose-1-phosphate aden	dRep_bin158_OGFICEAP_00289	CDS	glgC_1	2.7.7.27	Glucose-1-phosphate adenylyltransferase
OGFICEAP_00321		23.986419999999995	23.17342									2	1	4,4745E-32	dRep_bin135_HHKACLPM_01194;dRep_bin248_CCDFPECI_00232;dRep_bin048_PABMBHAL_01807;dRep_bin347_EKGCMFPD_00759;dRep_bin293_MEPKGOAN_01297;dRep_bin001_GHHJMDAL_00886;dRep_bin017_FGFLFOPJ_00766;dRep_bin318_IEDEJOFJ_01009;dRep_bin310_IMBAFDIF_00255;dRep_bin276_EHNFLEBP_00341;dRep_bin158_OGFICEAP_00321;dRep_bin145_KMJJJOEJ_01462;dRep_bin131_HLFNHDGI_00015;dRep_bin115_IFKGOGCL_00136;dRep_bin089_PAJFOJBN_01106;dRep_bin335_JIOGNAPG_01504;dRep_bin330_CODAKHDJ_00948;dRep_bin201_OLKDIBOK_02618;dRep_bin301_NJFJIJGA_00940;dRep_bin154_JGOKHKLI_01917;dRep_bin007_LNLEAAAN_01428	dRep_bin135_HHKACLPM_01194;dRep_bin248_CCDFPECI_00232;dRep_bin048_PABMBHAL_01807;dRep_bin347_EKGCMFPD_00759;dRep_bin293_MEPKGOAN_01297;dRep_bin001_GHHJMDAL_00886;dRep_bin017_FGFLFOPJ_00766;dRep_bin318_IEDEJOFJ_01009;dRep_bin310_IMBAFDIF_00255;dRep_bin276_EHNFLEBP_00341;dRep_bin158_OGFICEAP_00321;dRep_bin145_KMJJJOEJ_01462;dRep_bin131_HLFNHDGI_00015;dRep_bin115_IFKGOGCL_00136;dRep_bin089_PAJFOJBN_01106;dRep_bin335_JIOGNAPG_01504;dRep_bin330_CODAKHDJ_00948;dRep_bin201_OLKDIBOK_02618;dRep_bin301_NJFJIJGA_00940;dRep_bin154_JGOKHKLI_01917;dRep_bin007_LNLEAAAN_01428	>dRep_bin135_HHKACLPM_01194 L-methionine gamma-lyase;>dRep_bin248_CCDFPECI_00232 L-methionine gamma-lyase;>dRep_bin048_PABMBHAL_01807 L-methionine gamma-lyase;>dRep_bin347_EKGCMFPD_00759 L-methionine gamma-lyase;>dRep_bin293_MEPKGOAN_01297 L-methionine gam	dRep_bin158_OGFICEAP_00321	CDS	mgl_1	4.4.1.11	L-methionine gamma-lyase
OGFICEAP_00342	28.02247	28.09144	27.62673	27.988479999999996	29.024060000000002	28.016060000000003	28.697670000000002	28.00341				18	1	0	dRep_bin158_OGFICEAP_00342	dRep_bin158_OGFICEAP_00342	>dRep_bin158_OGFICEAP_00342 Formate--tetrahydrofolate ligase	dRep_bin158_OGFICEAP_00342	CDS	fhs	6.3.4.3	Formate--tetrahydrofolate ligase
OGFICEAP_00351					25.68008	27.02411	25.38281	25.32165				3	3	7,9156E-15	dRep_bin226_NLNLHLLD_00501;dRep_bin041_OPKGAAAG_00618;dRep_bin297_EDHEEICA_00183;dRep_bin269_PNILGKPH_01725;dRep_bin179_HFEIPPPA_00805;dRep_bin157_JPNIKEKI_00808;dRep_bin209_NKIHFCEN_00924;dRep_bin039_IJNOFOJK_00290;dRep_bin344_CJJBDGAA_00560;dRep_bin324_IPNHOHFK_01905;dRep_bin310_IMBAFDIF_00509;dRep_bin303_DDDNDJCF_00255;dRep_bin292_JIBLDOOH_00721;dRep_bin248_CCDFPECI_01503;dRep_bin220_PILICLLL_01871;dRep_bin203_CLFNNOCF_01497;dRep_bin201_OLKDIBOK_01842;dRep_bin158_OGFICEAP_00351;dRep_bin145_KMJJJOEJ_00076;dRep_bin133_NOBPDBPA_03150;dRep_bin115_IFKGOGCL_00616;dRep_bin095_HOBNOEEF_01083;dRep_bin279_IAEFEPEN_01129;dRep_bin306_FGHMKMMP_00759;dRep_bin282_PKAAPBFP_00753;dRep_bin016_JLGAHGOJ_01160;dRep_bin261_FJICAFFM_00017;dRep_bin031_BNHMFOII_01497;dRep_bin325_EIIGOGHN_00625;dRep_bin168_HKDILBFE_01177;dRep_bin099_DNDAGJEJ_00278;dRep_bin335_JIOGNAPG_00120;dRep_bin308_JBPDGLPP_00959;dRep_bin234_ECABPBME_01000;dRep_bin240_LDBBGJKG_01894;dRep_bin167_BLMEBMNN_00117	dRep_bin226_NLNLHLLD_00501;dRep_bin041_OPKGAAAG_00618;dRep_bin297_EDHEEICA_00183;dRep_bin269_PNILGKPH_01725;dRep_bin179_HFEIPPPA_00805;dRep_bin157_JPNIKEKI_00808	>dRep_bin226_NLNLHLLD_00501 ATP-dependent Clp protease proteolytic subunit;>dRep_bin041_OPKGAAAG_00618 ATP-dependent Clp protease proteolytic subunit;>dRep_bin297_EDHEEICA_00183 ATP-dependent Clp protease proteolytic subunit;>dRep_bin269_PNILGKPH_01725 ATP	dRep_bin158_OGFICEAP_00351	CDS	clpP	3.4.21.92	ATP-dependent Clp protease proteolytic subunit
OGFICEAP_00352			21.907529999999998									1	1	0,00021097	dRep_bin158_OGFICEAP_00352	dRep_bin158_OGFICEAP_00352	>dRep_bin158_OGFICEAP_00352 Trigger factor	dRep_bin158_OGFICEAP_00352	CDS	tig_1	5.2.1.8	Trigger factor
OGFICEAP_00368	23.8642											1	1	0,00015799	dRep_bin158_OGFICEAP_00368	dRep_bin158_OGFICEAP_00368	>dRep_bin158_OGFICEAP_00368 4-hydroxy-tetrahydrodipicolinate synthase	dRep_bin158_OGFICEAP_00368	CDS	dapA	4.3.3.7	4-hydroxy-tetrahydrodipicolinate synthase
OGFICEAP_00389					24.24887	26.77128	24.69339	24.025629999999996				3	1	5,593E-12	dRep_bin139_KGAJINND_01577;dRep_bin344_CJJBDGAA_01807;dRep_bin300_MJPPENNL_01697;dRep_bin324_IPNHOHFK_02134;dRep_bin261_FJICAFFM_01134;dRep_bin303_DDDNDJCF_01519;dRep_bin297_EDHEEICA_00415;dRep_bin209_NKIHFCEN_00709;dRep_bin167_BLMEBMNN_00621;dRep_bin157_JPNIKEKI_01820;dRep_bin133_NOBPDBPA_02652;dRep_bin016_JLGAHGOJ_01099;dRep_bin292_JIBLDOOH_01420;dRep_bin127_FIPNHBCH_01248;dRep_bin062_BOFBFLDA_01336;dRep_bin115_IFKGOGCL_01923;dRep_bin269_PNILGKPH_02213;dRep_bin208_DHPGEIBC_01209;dRep_bin347_EKGCMFPD_00714;dRep_bin266_JFOCEDAE_00751;dRep_bin211_LGJEFJIK_00719;dRep_bin316_FNLHDNEO_01427;dRep_bin065_DFABHCBI_00784;dRep_bin319_PBDBJGCJ_00028;dRep_bin077_DNNBMPMC_00009;dRep_bin006_HPJGJCAG_01885;dRep_bin066_AJACLPEE_00266;dRep_bin279_IAEFEPEN_00114;dRep_bin254_GJDPFAEA_01714;dRep_bin035_JBNPBOKG_00265;dRep_bin092_OOJCPDEA_01135;dRep_bin173_BEBNCADL_00932;dRep_bin261_FJICAFFM_01422;dRep_bin288_KOIAAABN_01088;dRep_bin263_OLEFOGIJ_00124;dRep_bin099_DNDAGJEJ_00022;dRep_bin325_EIIGOGHN_01093;dRep_bin076_GLAOFBEC_01169;dRep_bin089_PAJFOJBN_00283;dRep_bin287_DONBGKDH_01271;dRep_bin162_JBGCCDIN_01770;dRep_bin135_HHKACLPM_00267;dRep_bin332_KAOPCDPF_00441;dRep_bin310_IMBAFDIF_00637;dRep_bin304_JDNJGFKH_01711;dRep_bin222_GGCAJABB_01248;dRep_bin159_ADJJGPBG_01860;dRep_bin043_KLAFNACO_01408;dRep_bin023_HGFJFKAI_00653;dRep_bin189_AHHEHGDL_01147;dRep_bin328_GIGKNKPJ_01484;dRep_bin282_PKAAPBFP_01012;dRep_bin229_FFOBPPJI_01006;dRep_bin203_CLFNNOCF_00634;dRep_bin102_ICFDHPGB_01107;dRep_bin072_JOBJPCGA_00187;dRep_bin029_LFMGBBEC_00768;dRep_bin017_FGFLFOPJ_00988;dRep_bin195_DDMDFNOK_00791;dRep_bin120_EKLBOPNC_01828;dRep_bin058_GJKCICJN_00813;dRep_bin046_GKEJLOEK_00003;dRep_bin186_HJAAFFNP_01596;dRep_bin349_AMCJEEEG_00676;dRep_bin200_JJGKEOHI_00578;dRep_bin027_OFJCHLJJ_00701;dRep_bin161_JMKPMHCO_01186;dRep_bin160_EFKMPBOM_00139;dRep_bin154_JGOKHKLI_00533;dRep_bin083_OCBADPJJ_00750;dRep_bin049_MNFBDPNO_00757;dRep_bin008_MNDMJLEI_00707;dRep_bin158_OGFICEAP_00389;dRep_bin334_NAPFFNLD_00463;dRep_bin339_DBNBAHDK_00481;dRep_bin241_LMMMGDNI_00312;dRep_bin179_HFEIPPPA_00773;dRep_bin245_MBCFLKOF_01292;dRep_bin010_MFFFGEGD_00549	dRep_bin139_KGAJINND_01577;dRep_bin344_CJJBDGAA_01807;dRep_bin300_MJPPENNL_01697;dRep_bin324_IPNHOHFK_02134;dRep_bin261_FJICAFFM_01134;dRep_bin303_DDDNDJCF_01519;dRep_bin297_EDHEEICA_00415;dRep_bin209_NKIHFCEN_00709;dRep_bin167_BLMEBMNN_00621;dRep_bin157_JPNIKEKI_01820;dRep_bin133_NOBPDBPA_02652;dRep_bin016_JLGAHGOJ_01099;dRep_bin292_JIBLDOOH_01420;dRep_bin127_FIPNHBCH_01248;dRep_bin062_BOFBFLDA_01336;dRep_bin115_IFKGOGCL_01923;dRep_bin269_PNILGKPH_02213	>dRep_bin139_KGAJINND_01577 Chaperone protein ClpB 1;>dRep_bin344_CJJBDGAA_01807 Chaperone protein ClpB;>dRep_bin300_MJPPENNL_01697 Chaperone protein ClpB;>dRep_bin324_IPNHOHFK_02134 Chaperone protein ClpB;>dRep_bin261_FJICAFFM_01134 Chaperone protein ClpB	dRep_bin158_OGFICEAP_00389	CDS	clpB		Chaperone protein ClpB
OGFICEAP_00426	25.05556	25.61532	26.92694	28.13021	28.02295	28.31924	26.19712	26.54137				14	4	1,4527E-99	dRep_bin041_OPKGAAAG_02298;dRep_bin133_NOBPDBPA_02940;dRep_bin297_EDHEEICA_00524;dRep_bin248_CCDFPECI_01398;dRep_bin269_PNILGKPH_01152;dRep_bin095_HOBNOEEF_00617;dRep_bin158_OGFICEAP_00426;dRep_bin016_JLGAHGOJ_00457;dRep_bin279_IAEFEPEN_00390;dRep_bin261_FJICAFFM_01473;dRep_bin133_NOBPDBPA_02941;dRep_bin354_MMOALAFN_00040	dRep_bin041_OPKGAAAG_02298;dRep_bin133_NOBPDBPA_02940	>dRep_bin041_OPKGAAAG_02298 Glutamine synthetase;>dRep_bin133_NOBPDBPA_02940 Glutamine synthetase	dRep_bin158_OGFICEAP_00426	CDS	glnA_1	6.3.1.2	Glutamine synthetase
OGFICEAP_00428							22.918539999999997					5	0	1,2564E-51	dRep_bin335_JIOGNAPG_01770;dRep_bin279_IAEFEPEN_00389;dRep_bin158_OGFICEAP_00428;dRep_bin135_HHKACLPM_00390;dRep_bin075_EPEMMOCL_00088;dRep_bin300_MJPPENNL_01195;dRep_bin186_HJAAFFNP_01943	dRep_bin335_JIOGNAPG_01770	>dRep_bin335_JIOGNAPG_01770 Fructose-bisphosphate aldolase	dRep_bin158_OGFICEAP_00428	CDS	fba	4.1.2.13	Fructose-bisphosphate aldolase
OGFICEAP_00452			26.07075									3	3	4,4057E-26	dRep_bin145_KMJJJOEJ_01230;dRep_bin158_OGFICEAP_00452;dRep_bin248_CCDFPECI_01350;dRep_bin115_IFKGOGCL_01005;dRep_bin095_HOBNOEEF_00954;dRep_bin339_DBNBAHDK_00532;dRep_bin242_LKAIBGGJ_00171	dRep_bin145_KMJJJOEJ_01230;dRep_bin158_OGFICEAP_00452;dRep_bin248_CCDFPECI_01350;dRep_bin115_IFKGOGCL_01005;dRep_bin095_HOBNOEEF_00954;dRep_bin339_DBNBAHDK_00532;dRep_bin242_LKAIBGGJ_00171	>dRep_bin145_KMJJJOEJ_01230 Glycine reductase complex component B subunits alpha and beta;>dRep_bin158_OGFICEAP_00452 Glycine reductase complex component B subunits alpha and beta;>dRep_bin248_CCDFPECI_01350 Glycine reductase complex component B subunits a	dRep_bin158_OGFICEAP_00452	CDS	grdE	1.21.4.2	Glycine reductase complex component B subunits alpha and beta
OGFICEAP_00453	27.22288	26.76699	28.074800000000003	26.66112	27.08699	26.922299999999996	28.580289999999998	27.60293				7	6	2,8725E-28	dRep_bin158_OGFICEAP_00453;dRep_bin115_IFKGOGCL_01004	dRep_bin158_OGFICEAP_00453	>dRep_bin158_OGFICEAP_00453 Glycine reductase complex component B subunit gamma	dRep_bin158_OGFICEAP_00453	CDS	grdB_1	1.21.4.2	Glycine reductase complex component B subunit gamma
OGFICEAP_00454	26.97946	27.34147	27.28198	26.745089999999998	27.12928	24.68945	27.55939	27.382279999999998				3	3	2,5131E-50	dRep_bin158_OGFICEAP_00454;dRep_bin115_IFKGOGCL_01003	dRep_bin158_OGFICEAP_00454	>dRep_bin158_OGFICEAP_00454 Glycine reductase complex component B subunit gamma	dRep_bin158_OGFICEAP_00454	CDS	grdB_2	1.21.4.2	Glycine reductase complex component B subunit gamma
OGFICEAP_00455	29.97131	30.68144	29.726599999999998	29.313460000000003	29.114960000000007	29.05328	30.18009	29.604080000000003				11	9	7,2066E-211	dRep_bin158_OGFICEAP_00455	dRep_bin158_OGFICEAP_00455	>dRep_bin158_OGFICEAP_00455 Thioredoxin reductase	dRep_bin158_OGFICEAP_00455	CDS	trxB	1.8.1.9	Thioredoxin reductase
OGFICEAP_00456	28.09003	26.998199999999997	28.978749999999998	27.95055	28.53464	29.055719999999997	29.616900000000005	28.342699999999997				7	5	9,4393E-50	dRep_bin158_OGFICEAP_00456	dRep_bin158_OGFICEAP_00456	>dRep_bin158_OGFICEAP_00456 Thioredoxin	dRep_bin158_OGFICEAP_00456	CDS	trxA		Thioredoxin
OGFICEAP_00459	28.68184	28.28405	29.70691	29.12731	29.19343	28.856830000000002	29.440749999999998	29.558239999999998				11	9	2,794E-145	dRep_bin158_OGFICEAP_00459	dRep_bin158_OGFICEAP_00459	>dRep_bin158_OGFICEAP_00459 Glycine/sarcosine/betaine reductase complex component C subunit beta	dRep_bin158_OGFICEAP_00459	CDS	grdC	1.21.4.2	Glycine/sarcosine/betaine reductase complex component C subunit beta
OGFICEAP_00460	26.450129999999998	27.69132	27.74599	26.20708	26.64141	26.472569999999997	27.757860000000004	27.547970000000003				6	6	1,0025E-46	dRep_bin158_OGFICEAP_00460;dRep_bin248_CCDFPECI_01679;dRep_bin254_GJDPFAEA_00600;dRep_bin249_OFIIEIDJ_00626;dRep_bin115_IFKGOGCL_00997	dRep_bin158_OGFICEAP_00460	>dRep_bin158_OGFICEAP_00460 Glycine/sarcosine/betaine reductase complex component C subunit alpha	dRep_bin158_OGFICEAP_00460	CDS	grdD	1.21.4.2	Glycine/sarcosine/betaine reductase complex component C subunit alpha
OGFICEAP_00476					19.30804							1	1	0,00049313	dRep_bin158_OGFICEAP_00476	dRep_bin158_OGFICEAP_00476	>dRep_bin158_OGFICEAP_00476 Acetylene hydratase	dRep_bin158_OGFICEAP_00476	CDS		4.2.1.112	Acetylene hydratase
OGFICEAP_00547					23.857090000000003							3	1	2,6894E-18	dRep_bin158_OGFICEAP_00547	dRep_bin158_OGFICEAP_00547	>dRep_bin158_OGFICEAP_00547 ATP synthase subunit beta, sodium ion specific	dRep_bin158_OGFICEAP_00547	CDS	atpD_1	3.6.3.15	ATP synthase subunit beta, sodium ion specific
OGFICEAP_00549				21.86884								3	1	1,3797E-13	dRep_bin021_AJDDCGJC_00051;dRep_bin252_NDAKLAGD_00826;dRep_bin317_ABPHNCOD_01131;dRep_bin216_JNJMCPHB_01076;dRep_bin272_LGBDGEIM_00618;dRep_bin097_CBBLIPAN_01579;dRep_bin053_OMGNPOOB_00833;dRep_bin337_FHKPNFDB_00090;dRep_bin052_PGOOKKFH_01594;dRep_bin168_HKDILBFE_01015;dRep_bin322_OJELOJOF_01622;dRep_bin220_PILICLLL_01543;dRep_bin055_IBMMJAEE_00610;dRep_bin061_ONFGDLGO_01234;dRep_bin168_HKDILBFE_00368;dRep_bin055_IBMMJAEE_00168;dRep_bin261_FJICAFFM_00490;dRep_bin017_FGFLFOPJ_00414;dRep_bin115_IFKGOGCL_01280;dRep_bin257_JHFDCHCB_01406;dRep_bin323_FBBLPLCG_01600;dRep_bin007_LNLEAAAN_00766;dRep_bin049_MNFBDPNO_00781;dRep_bin333_EFOKIBLA_01149;dRep_bin279_IAEFEPEN_01471;dRep_bin234_ECABPBME_01515;dRep_bin179_HFEIPPPA_02108;dRep_bin023_HGFJFKAI_01527;dRep_bin335_JIOGNAPG_00787;dRep_bin250_NMCAMJIO_00423;dRep_bin158_OGFICEAP_00549;dRep_bin100_CODMOHGB_01341;dRep_bin089_PAJFOJBN_02515;dRep_bin088_DNGPPFDK_01371;dRep_bin081_JDPCKDNP_00684;dRep_bin324_IPNHOHFK_01454;dRep_bin300_MJPPENNL_01260;dRep_bin292_JIBLDOOH_01593;dRep_bin284_DEHKNOBF_00281;dRep_bin282_PKAAPBFP_00934;dRep_bin279_IAEFEPEN_01275;dRep_bin269_PNILGKPH_00152;dRep_bin240_LDBBGJKG_01257;dRep_bin226_NLNLHLLD_00367;dRep_bin209_NKIHFCEN_01541;dRep_bin203_CLFNNOCF_01928;dRep_bin179_HFEIPPPA_00359;dRep_bin167_BLMEBMNN_00233;dRep_bin160_EFKMPBOM_02132;dRep_bin154_JGOKHKLI_02775;dRep_bin133_NOBPDBPA_00727;dRep_bin114_FJHJKHGL_00838;dRep_bin095_HOBNOEEF_00822;dRep_bin075_EPEMMOCL_00939;dRep_bin074_EHAOMODJ_00291;dRep_bin065_DFABHCBI_01203;dRep_bin347_EKGCMFPD_00625;dRep_bin325_EIIGOGHN_00612;dRep_bin310_IMBAFDIF_01359;dRep_bin308_JBPDGLPP_00545;dRep_bin306_FGHMKMMP_01018;dRep_bin297_EDHEEICA_01903;dRep_bin201_OLKDIBOK_00335;dRep_bin186_HJAAFFNP_00409;dRep_bin173_BEBNCADL_00242;dRep_bin169_PNICKJKO_00103;dRep_bin145_KMJJJOEJ_01348;dRep_bin135_HHKACLPM_00566;dRep_bin101_BNDDLDCL_00036;dRep_bin069_EGGEOGDC_01480;dRep_bin062_BOFBFLDA_00487;dRep_bin047_IFFANOMN_01271;dRep_bin042_MMFCLHOO_00308;dRep_bin041_OPKGAAAG_00762;dRep_bin024_OLHDGABE_00679;dRep_bin016_JLGAHGOJ_01831;dRep_bin001_GHHJMDAL_00660;dRep_bin349_AMCJEEEG_00131;dRep_bin312_MJFEFHMP_00833;dRep_bin264_DNFFGNEG_00100;dRep_bin246_MMFBABHK_00297;dRep_bin219_HGPEELLF_00003;dRep_bin174_LJJOKEME_01103;dRep_bin129_GADIAMAA_01409;dRep_bin127_FIPNHBCH_00703;dRep_bin077_DNNBMPMC_01278;dRep_bin030_OGPDLGOC_01790;dRep_bin004_OCHNPJPO_01519;dRep_bin218_ACMPALGF_00968;dRep_bin185_OOOLKACK_00657;dRep_bin181_MKGPMPIA_00538;dRep_bin148_NAJFKJMD_01090;dRep_bin058_GJKCICJN_01056;dRep_bin291_EILOACJB_00579;dRep_bin244_LBFMHLBI_01277;dRep_bin223_PIMCDKJI_01006;dRep_bin204_INMOGLDN_01473;dRep_bin184_MBMMJHKO_00222;dRep_bin302_AHDEPDKG_00621;dRep_bin265_LFKFBJPC_00590;dRep_bin233_BAGKKAOB_00885;dRep_bin188_EJILNMPE_01053;dRep_bin081_JDPCKDNP_01324;dRep_bin318_IEDEJOFJ_00724;dRep_bin144_NPHACCKF_00221;dRep_bin096_GNHMEKPF_00086;dRep_bin344_CJJBDGAA_01489;dRep_bin295_EJGKDKNE_00851;dRep_bin048_PABMBHAL_01507;dRep_bin303_DDDNDJCF_00663;dRep_bin283_NLJJFFAC_01754;dRep_bin201_OLKDIBOK_00523;dRep_bin139_KGAJINND_01276;dRep_bin134_HIAPAODO_01158;dRep_bin094_LBLICAAO_00942;dRep_bin062_BOFBFLDA_00417;dRep_bin336_MPGOKPOL_02385;dRep_bin082_HBEFABJN_00650;dRep_bin125_FADLGGII_00540;dRep_bin334_NAPFFNLD_01195;dRep_bin217_MJCEAEPB_00530;dRep_bin195_DDMDFNOK_00971;dRep_bin060_HNFNENOI_00088;dRep_bin328_GIGKNKPJ_00426;dRep_bin281_OGHLKMAI_01076;dRep_bin197_NHLBHFEI_00626;dRep_bin103_IGJBLKMC_00726;dRep_bin116_CLFDBMOF_00455;dRep_bin332_KAOPCDPF_00448;dRep_bin345_GLPJDLOI_00589;dRep_bin314_KCHFPLIP_00788;dRep_bin128_JPBBHEMA_00693;dRep_bin073_AKBCEHHO_01462;dRep_bin045_GJACFFBC_00428;dRep_bin329_GDOHKPBL_01522;dRep_bin316_FNLHDNEO_00349;dRep_bin307_AOCKHIKF_00400;dRep_bin294_EHJINIDK_01408;dRep_bin289_KALDCNNP_01327;dRep_bin183_FPGIOKBG_00622;dRep_bin098_DDEBHDKK_01308;dRep_bin165_HMDFFMMM_01247;dRep_bin037_GEAOEKHA_01212;dRep_bin256_KEMNAOBC_00113;dRep_bin092_OOJCPDEA_01143;dRep_bin126_PPDNCIBN_00264;dRep_bin090_IPGNHCBJ_00911;dRep_bin215_ABBFGCAF_00280;dRep_bin005_CNDFPKJG_00629;dRep_bin270_GEJAHNCN_01426;dRep_bin116_CLFDBMOF_00686;dRep_bin069_EGGEOGDC_00857;dRep_bin007_LNLEAAAN_01604;dRep_bin057_BNCFHBBO_01159;dRep_bin038_EIGFILKG_00229;dRep_bin114_FJHJKHGL_00934;dRep_bin152_LJMCIADF_00045;dRep_bin322_OJELOJOF_00826;dRep_bin266_JFOCEDAE_00030;dRep_bin194_MEPDOGGJ_01235;dRep_bin079_GAOGCKND_01437;dRep_bin068_ENOLAELK_01387;dRep_bin025_CBEJJMLE_00917;dRep_bin240_LDBBGJKG_00802;dRep_bin347_EKGCMFPD_01498;dRep_bin167_BLMEBMNN_00596;dRep_bin160_EFKMPBOM_02114;dRep_bin260_HELEPKJL_02017;dRep_bin091_MAFACGAD_00797;dRep_bin099_DNDAGJEJ_01471;dRep_bin278_BFCONKOE_01179;dRep_bin168_HKDILBFE_00397;dRep_bin284_DEHKNOBF_00737;dRep_bin001_GHHJMDAL_01209;dRep_bin236_BNONDECB_00531;dRep_bin286_OEMIJKMC_01078;dRep_bin231_CFOLMJBA_00464;dRep_bin193_GDMDPNNM_00224;dRep_bin172_ALNHGLMD_01787;dRep_bin182_EMCFODCD_00065;dRep_bin044_IPFKHAEF_00183	dRep_bin021_AJDDCGJC_00051;dRep_bin252_NDAKLAGD_00826;dRep_bin317_ABPHNCOD_01131;dRep_bin216_JNJMCPHB_01076;dRep_bin272_LGBDGEIM_00618;dRep_bin097_CBBLIPAN_01579;dRep_bin053_OMGNPOOB_00833;dRep_bin337_FHKPNFDB_00090;dRep_bin052_PGOOKKFH_01594	>dRep_bin021_AJDDCGJC_00051 ATP synthase subunit alpha;>dRep_bin252_NDAKLAGD_00826 ATP synthase subunit alpha;>dRep_bin317_ABPHNCOD_01131 ATP synthase subunit alpha;>dRep_bin216_JNJMCPHB_01076 ATP synthase subunit alpha;>dRep_bin272_LGBDGEIM_00618 ATP synt	dRep_bin158_OGFICEAP_00549	CDS	atpA	3.6.3.14	ATP synthase subunit alpha
OGFICEAP_00559				20.976589999999998								1	1	0,0048467	dRep_bin158_OGFICEAP_00559	dRep_bin158_OGFICEAP_00559	>dRep_bin158_OGFICEAP_00559 Lrp/AsnC ligand binding domain protein	dRep_bin158_OGFICEAP_00559	CDS			Lrp/AsnC ligand binding domain protein
OGFICEAP_00564	24.3507	25.55283	24.429309999999997	24.54816								2	2	5,1058E-05	dRep_bin158_OGFICEAP_00564	dRep_bin158_OGFICEAP_00564	>dRep_bin158_OGFICEAP_00564 Bacteriohemerythrin	dRep_bin158_OGFICEAP_00564	CDS			Bacteriohemerythrin
OGFICEAP_00573			22.09941									2	1	6,714E-06	dRep_bin179_HFEIPPPA_02337;dRep_bin324_IPNHOHFK_00622;dRep_bin116_CLFDBMOF_00799;dRep_bin006_HPJGJCAG_01804;dRep_bin302_AHDEPDKG_00994;dRep_bin306_FGHMKMMP_00469;dRep_bin292_JIBLDOOH_01500;dRep_bin226_NLNLHLLD_00785;dRep_bin209_NKIHFCEN_02132;dRep_bin269_PNILGKPH_00882;dRep_bin238_OLNFACLE_00688;dRep_bin025_CBEJJMLE_00614;dRep_bin347_EKGCMFPD_00065;dRep_bin001_GHHJMDAL_01148;dRep_bin322_OJELOJOF_00643;dRep_bin284_DEHKNOBF_00598;dRep_bin266_JFOCEDAE_00905;dRep_bin023_HGFJFKAI_01708;dRep_bin115_IFKGOGCL_02485;dRep_bin158_OGFICEAP_00573;dRep_bin234_ECABPBME_00814;dRep_bin027_OFJCHLJJ_01525	dRep_bin179_HFEIPPPA_02337;dRep_bin324_IPNHOHFK_00622;dRep_bin116_CLFDBMOF_00799;dRep_bin006_HPJGJCAG_01804;dRep_bin302_AHDEPDKG_00994;dRep_bin306_FGHMKMMP_00469;dRep_bin292_JIBLDOOH_01500;dRep_bin226_NLNLHLLD_00785;dRep_bin209_NKIHFCEN_02132;dRep_bin269_PNILGKPH_00882;dRep_bin238_OLNFACLE_00688;dRep_bin025_CBEJJMLE_00614;dRep_bin347_EKGCMFPD_00065;dRep_bin001_GHHJMDAL_01148;dRep_bin322_OJELOJOF_00643;dRep_bin284_DEHKNOBF_00598;dRep_bin266_JFOCEDAE_00905;dRep_bin023_HGFJFKAI_01708;dRep_bin115_IFKGOGCL_02485;dRep_bin158_OGFICEAP_00573;dRep_bin234_ECABPBME_00814;dRep_bin027_OFJCHLJJ_01525	>dRep_bin179_HFEIPPPA_02337 Diaminopimelate decarboxylase;>dRep_bin324_IPNHOHFK_00622 Diaminopimelate decarboxylase;>dRep_bin116_CLFDBMOF_00799 Diaminopimelate decarboxylase;>dRep_bin006_HPJGJCAG_01804 Diaminopimelate decarboxylase;>dRep_bin302_AHDEPDKG_00	dRep_bin158_OGFICEAP_00573	CDS	lysA	4.1.1.20	Diaminopimelate decarboxylase
OGFICEAP_00576					20.030260000000002							2	1	5,631E-06	dRep_bin158_OGFICEAP_00576	dRep_bin158_OGFICEAP_00576	>dRep_bin158_OGFICEAP_00576 Putative aminotransferase/MSMEI_6121	dRep_bin158_OGFICEAP_00576	CDS			Putative aminotransferase/MSMEI_6121
OGFICEAP_00577	26.20712	25.90307	25.71555	25.23608								5	1	3,2065E-42	dRep_bin158_OGFICEAP_00577;dRep_bin248_CCDFPECI_00586	dRep_bin158_OGFICEAP_00577	>dRep_bin158_OGFICEAP_00577 2,3-bisphosphoglycerate-independent phosphoglycerate mutase	dRep_bin158_OGFICEAP_00577	CDS	gpmI	5.4.2.12	2,3-bisphosphoglycerate-independent phosphoglycerate mutase
OGFICEAP_00579	27.925919999999998	27.86956	27.77794	28.1305	27.63831	27.54915	27.618350000000003	27.43627				8	1	1,7602E-63	dRep_bin158_OGFICEAP_00579;dRep_bin047_IFFANOMN_00479;dRep_bin322_OJELOJOF_00302	dRep_bin158_OGFICEAP_00579;dRep_bin047_IFFANOMN_00479;dRep_bin322_OJELOJOF_00302	>dRep_bin158_OGFICEAP_00579 Triosephosphate isomerase;>dRep_bin047_IFFANOMN_00479 Triosephosphate isomerase;>dRep_bin322_OJELOJOF_00302 Triosephosphate isomerase	dRep_bin158_OGFICEAP_00579	CDS	tpiA	5.3.1.1	Triosephosphate isomerase
OGFICEAP_00580	30.64289	31.04928	30.999409999999997	30.691370000000003	30.81543	30.222389999999997	30.966569999999997	30.79359				16	6	4,651E-224	dRep_bin158_OGFICEAP_00580	dRep_bin158_OGFICEAP_00580	>dRep_bin158_OGFICEAP_00580 Phosphoglycerate kinase	dRep_bin158_OGFICEAP_00580	CDS	pgk_1	2.7.2.3	Phosphoglycerate kinase
OGFICEAP_00581					26.044960000000003	26.35568	26.85852	25.636770000000002				7	2	1,6256E-21	dRep_bin134_HIAPAODO_01104;dRep_bin062_BOFBFLDA_00581;dRep_bin158_OGFICEAP_00581;dRep_bin135_HHKACLPM_00915;dRep_bin016_JLGAHGOJ_00109	dRep_bin134_HIAPAODO_01104;dRep_bin062_BOFBFLDA_00581	>dRep_bin134_HIAPAODO_01104 Glyceraldehyde-3-phosphate dehydrogenase;>dRep_bin062_BOFBFLDA_00581 Glyceraldehyde-3-phosphate dehydrogenase	dRep_bin158_OGFICEAP_00581	CDS	gap_1	1.2.1.12	Glyceraldehyde-3-phosphate dehydrogenase
OGFICEAP_00595			26.086729999999996									3	0	6,6418E-13	dRep_bin220_PILICLLL_01263;dRep_bin303_DDDNDJCF_00812;dRep_bin158_OGFICEAP_00595	dRep_bin220_PILICLLL_01263	>dRep_bin220_PILICLLL_01263 1-deoxy-D-xylulose-5-phosphate synthase	dRep_bin158_OGFICEAP_00595	CDS	dxs_2	2.2.1.7	1-deoxy-D-xylulose-5-phosphate synthase
OGFICEAP_00596					25.29478		26.26119					3	3	2,1695E-18	dRep_bin201_OLKDIBOK_02416;dRep_bin095_HOBNOEEF_00520;dRep_bin248_CCDFPECI_00224;dRep_bin158_OGFICEAP_00596;dRep_bin234_ECABPBME_02310	dRep_bin201_OLKDIBOK_02416;dRep_bin095_HOBNOEEF_00520;dRep_bin248_CCDFPECI_00224	>dRep_bin201_OLKDIBOK_02416 Transketolase;>dRep_bin095_HOBNOEEF_00520 Transketolase;>dRep_bin248_CCDFPECI_00224 Transketolase 1	dRep_bin158_OGFICEAP_00596	CDS	tkt	2.2.1.1	Transketolase
OGFICEAP_00597	26.376350000000002	26.91593	26.04406	26.592629999999996	26.038629999999998	25.762179999999997	25.874930000000003	26.70477				9	1	1,9038E-143	dRep_bin158_OGFICEAP_00597	dRep_bin158_OGFICEAP_00597	>dRep_bin158_OGFICEAP_00597 Transaldolase	dRep_bin158_OGFICEAP_00597	CDS	tal	2.2.1.2	Transaldolase
OGFICEAP_00610				27.51262	26.903689999999997	26.242709999999995	26.850550000000002	26.542769999999997				3	2	5,492E-20	dRep_bin158_OGFICEAP_00610;dRep_bin062_BOFBFLDA_00726;dRep_bin016_JLGAHGOJ_00430;dRep_bin282_PKAAPBFP_00486;dRep_bin260_HELEPKJL_01349;dRep_bin167_BLMEBMNN_01078;dRep_bin160_EFKMPBOM_01985;dRep_bin127_FIPNHBCH_00031;dRep_bin081_JDPCKDNP_01235;dRep_bin047_IFFANOMN_00244;dRep_bin023_HGFJFKAI_00760;dRep_bin001_GHHJMDAL_01428;dRep_bin001_GHHJMDAL_01069;dRep_bin328_GIGKNKPJ_01342;dRep_bin266_JFOCEDAE_01010;dRep_bin211_LGJEFJIK_01524;dRep_bin065_DFABHCBI_01274;dRep_bin001_GHHJMDAL_00751	dRep_bin158_OGFICEAP_00610;dRep_bin062_BOFBFLDA_00726;dRep_bin016_JLGAHGOJ_00430	>dRep_bin158_OGFICEAP_00610 50S ribosomal protein L22;>dRep_bin062_BOFBFLDA_00726 50S ribosomal protein L22;>dRep_bin016_JLGAHGOJ_00430 50S ribosomal protein L22	dRep_bin158_OGFICEAP_00610	CDS	rplV		50S ribosomal protein L22
OGFICEAP_00611							27.04145					8	0	3,6665E-54	dRep_bin135_HHKACLPM_00482;dRep_bin308_JBPDGLPP_01108;dRep_bin186_HJAAFFNP_00336;dRep_bin127_FIPNHBCH_00030;dRep_bin328_GIGKNKPJ_01343;dRep_bin065_DFABHCBI_01275;dRep_bin001_GHHJMDAL_00750;dRep_bin062_BOFBFLDA_00727;dRep_bin158_OGFICEAP_00611;dRep_bin211_LGJEFJIK_00743;dRep_bin260_HELEPKJL_01348;dRep_bin234_ECABPBME_00125;dRep_bin115_IFKGOGCL_00642;dRep_bin088_DNGPPFDK_00693;dRep_bin001_GHHJMDAL_01427;dRep_bin253_CPMOAOBJ_00213;dRep_bin150_HCDEOBMH_00592;dRep_bin057_BNCFHBBO_00183;dRep_bin299_AKNBKJGM_01127;dRep_bin216_JNJMCPHB_00024;dRep_bin085_MBHLGCDB_00710;dRep_bin286_OEMIJKMC_00079;dRep_bin231_CFOLMJBA_01079;dRep_bin172_ALNHGLMD_00777;dRep_bin182_EMCFODCD_00190;dRep_bin058_GJKCICJN_00161;dRep_bin044_IPFKHAEF_01460;dRep_bin283_NLJJFFAC_00217	dRep_bin135_HHKACLPM_00482;dRep_bin308_JBPDGLPP_01108;dRep_bin186_HJAAFFNP_00336;dRep_bin127_FIPNHBCH_00030;dRep_bin328_GIGKNKPJ_01343;dRep_bin065_DFABHCBI_01275;dRep_bin001_GHHJMDAL_00750;dRep_bin062_BOFBFLDA_00727;dRep_bin158_OGFICEAP_00611;dRep_bin211_LGJEFJIK_00743	>dRep_bin135_HHKACLPM_00482 30S ribosomal protein S19;>dRep_bin308_JBPDGLPP_01108 30S ribosomal protein S19;>dRep_bin186_HJAAFFNP_00336 30S ribosomal protein S19;>dRep_bin127_FIPNHBCH_00030 30S ribosomal protein S19;>dRep_bin328_GIGKNKPJ_01343 30S ribosoma	dRep_bin158_OGFICEAP_00611	CDS	rpsS		30S ribosomal protein S19
OGFICEAP_00613				24.069239999999997								2	1	1,1993E-07	dRep_bin282_PKAAPBFP_00489;dRep_bin158_OGFICEAP_00613;dRep_bin047_IFFANOMN_00247;dRep_bin024_OLHDGABE_01332	dRep_bin282_PKAAPBFP_00489;dRep_bin158_OGFICEAP_00613;dRep_bin047_IFFANOMN_00247;dRep_bin024_OLHDGABE_01332	>dRep_bin282_PKAAPBFP_00489 50S ribosomal protein L23;>dRep_bin158_OGFICEAP_00613 50S ribosomal protein L23;>dRep_bin047_IFFANOMN_00247 50S ribosomal protein L23;>dRep_bin024_OLHDGABE_01332 50S ribosomal protein L23	dRep_bin158_OGFICEAP_00613	CDS	rplW		50S ribosomal protein L23
OGFICEAP_00614			25.539080000000002	25.41883								2	2	1,9874E-10	dRep_bin062_BOFBFLDA_00730;dRep_bin332_KAOPCDPF_01346;dRep_bin303_DDDNDJCF_00710;dRep_bin260_HELEPKJL_01345;dRep_bin186_HJAAFFNP_00333;dRep_bin158_OGFICEAP_00614;dRep_bin139_KGAJINND_01533;dRep_bin047_IFFANOMN_00248;dRep_bin001_GHHJMDAL_00747;dRep_bin328_GIGKNKPJ_01346;dRep_bin127_FIPNHBCH_00027	dRep_bin062_BOFBFLDA_00730;dRep_bin332_KAOPCDPF_01346;dRep_bin303_DDDNDJCF_00710;dRep_bin260_HELEPKJL_01345;dRep_bin186_HJAAFFNP_00333;dRep_bin158_OGFICEAP_00614;dRep_bin139_KGAJINND_01533;dRep_bin047_IFFANOMN_00248;dRep_bin001_GHHJMDAL_00747;dRep_bin328_GIGKNKPJ_01346;dRep_bin127_FIPNHBCH_00027	>dRep_bin062_BOFBFLDA_00730 50S ribosomal protein L4;>dRep_bin332_KAOPCDPF_01346 50S ribosomal protein L4;>dRep_bin303_DDDNDJCF_00710 50S ribosomal protein L4;>dRep_bin260_HELEPKJL_01345 50S ribosomal protein L4;>dRep_bin186_HJAAFFNP_00333 50S ribosomal pr	dRep_bin158_OGFICEAP_00614	CDS	rplD		50S ribosomal protein L4
OGFICEAP_00621					26.031260000000003	24.6666	28.626830000000002	26.504170000000002				5	4	1,8334E-21	dRep_bin095_HOBNOEEF_01766;dRep_bin158_OGFICEAP_00621	dRep_bin095_HOBNOEEF_01766;dRep_bin158_OGFICEAP_00621	>dRep_bin095_HOBNOEEF_01766 D-proline reductase subunit gamma;>dRep_bin158_OGFICEAP_00621 D-proline reductase subunit gamma	dRep_bin158_OGFICEAP_00621	CDS	prdB	1.21.4.1	D-proline reductase subunit gamma
OGFICEAP_00623					27.750980000000002			28.04135				3	3	1,0411E-07	dRep_bin158_OGFICEAP_00623	dRep_bin158_OGFICEAP_00623	>dRep_bin158_OGFICEAP_00623 D-proline reductase proprotein PrdA	dRep_bin158_OGFICEAP_00623	CDS	prdA_3	1.21.4.1	D-proline reductase proprotein PrdA
OGFICEAP_00645						24.67971		24.857000000000003				8	0	1,3699E-25	dRep_bin292_JIBLDOOH_01683;dRep_bin209_NKIHFCEN_01847;dRep_bin300_MJPPENNL_01104;dRep_bin297_EDHEEICA_01589;dRep_bin158_OGFICEAP_00645;dRep_bin145_KMJJJOEJ_01481;dRep_bin075_EPEMMOCL_01001;dRep_bin279_IAEFEPEN_00173;dRep_bin261_FJICAFFM_00231;dRep_bin203_CLFNNOCF_01942;dRep_bin180_JMFOHHIL_00474;dRep_bin344_CJJBDGAA_00237;dRep_bin115_IFKGOGCL_02756;dRep_bin248_CCDFPECI_01893;dRep_bin095_HOBNOEEF_01556;dRep_bin069_EGGEOGDC_00965;dRep_bin017_FGFLFOPJ_00592;dRep_bin016_JLGAHGOJ_00202;dRep_bin007_LNLEAAAN_00807;dRep_bin047_IFFANOMN_01298;dRep_bin306_FGHMKMMP_01230;dRep_bin308_JBPDGLPP_00751;dRep_bin160_EFKMPBOM_00970;dRep_bin349_AMCJEEEG_00332;dRep_bin260_HELEPKJL_02007;dRep_bin107_EFNBPDOP_01388;dRep_bin135_HHKACLPM_01683;dRep_bin039_IJNOFOJK_01477;dRep_bin027_OFJCHLJJ_00143;dRep_bin046_GKEJLOEK_00472;dRep_bin325_EIIGOGHN_00365;dRep_bin322_OJELOJOF_00229;dRep_bin077_DNNBMPMC_00896;dRep_bin220_PILICLLL_01164;dRep_bin282_PKAAPBFP_01479;dRep_bin081_JDPCKDNP_01848;dRep_bin249_OFIIEIDJ_01249;dRep_bin091_MAFACGAD_00528;dRep_bin319_PBDBJGCJ_00293;dRep_bin284_DEHKNOBF_00825;dRep_bin154_JGOKHKLI_01489;dRep_bin186_HJAAFFNP_01555;dRep_bin332_KAOPCDPF_00765	dRep_bin292_JIBLDOOH_01683;dRep_bin209_NKIHFCEN_01847;dRep_bin300_MJPPENNL_01104;dRep_bin297_EDHEEICA_01589	>dRep_bin292_JIBLDOOH_01683 Methionine--tRNA ligase;>dRep_bin209_NKIHFCEN_01847 Methionine--tRNA ligase;>dRep_bin300_MJPPENNL_01104 Methionine--tRNA ligase;>dRep_bin297_EDHEEICA_01589 Methionine--tRNA ligase	dRep_bin158_OGFICEAP_00645	CDS	metG	6.1.1.10	Methionine--tRNA ligase
OGFICEAP_00726	26.4163	25.460549999999998	26.53008	26.49732	26.423599999999997	25.75333	25.065749999999998	25.73836				5	3	3,3835E-24	dRep_bin158_OGFICEAP_00726;dRep_bin167_BLMEBMNN_01750;dRep_bin293_MEPKGOAN_00037;dRep_bin269_PNILGKPH_00249;dRep_bin270_GEJAHNCN_01115;dRep_bin257_JHFDCHCB_01631;dRep_bin297_EDHEEICA_00546;dRep_bin292_JIBLDOOH_02221;dRep_bin279_IAEFEPEN_01088;dRep_bin261_FJICAFFM_00631;dRep_bin249_OFIIEIDJ_00413;dRep_bin226_NLNLHLLD_00580;dRep_bin186_HJAAFFNP_01497;dRep_bin039_IJNOFOJK_01088;dRep_bin007_LNLEAAAN_00542;dRep_bin081_JDPCKDNP_01127;dRep_bin203_CLFNNOCF_00307;dRep_bin133_NOBPDBPA_02253;dRep_bin127_FIPNHBCH_01161;dRep_bin143_PFLDJMPF_00057;dRep_bin139_KGAJINND_01783;dRep_bin348_LCLFDNEE_00131	dRep_bin158_OGFICEAP_00726	>dRep_bin158_OGFICEAP_00726 Glutamate synthase [NADPH] small chain	dRep_bin158_OGFICEAP_00726	CDS	gltD	1.4.1.13	Glutamate synthase [NADPH] small chain
OGFICEAP_00729						23.53884						2	2	1,2076E-11	dRep_bin095_HOBNOEEF_01012;dRep_bin310_IMBAFDIF_00261;dRep_bin181_MKGPMPIA_00448;dRep_bin158_OGFICEAP_00729;dRep_bin088_DNGPPFDK_00346	dRep_bin095_HOBNOEEF_01012;dRep_bin310_IMBAFDIF_00261;dRep_bin181_MKGPMPIA_00448;dRep_bin158_OGFICEAP_00729;dRep_bin088_DNGPPFDK_00346	>dRep_bin095_HOBNOEEF_01012 Aldehyde-alcohol dehydrogenase;>dRep_bin310_IMBAFDIF_00261 Aldehyde-alcohol dehydrogenase;>dRep_bin181_MKGPMPIA_00448 Aldehyde-alcohol dehydrogenase;>dRep_bin158_OGFICEAP_00729 Aldehyde-alcohol dehydrogenase;>dRep_bin088_DNGPPFD	dRep_bin158_OGFICEAP_00729	CDS	adhE_1		Aldehyde-alcohol dehydrogenase
OGFICEAP_00774			23.286019999999997	23.610880000000005								4	1	5,7789E-14	dRep_bin133_NOBPDBPA_01467;dRep_bin209_NKIHFCEN_01581;dRep_bin179_HFEIPPPA_02264;dRep_bin226_NLNLHLLD_01531;dRep_bin324_IPNHOHFK_01023;dRep_bin335_JIOGNAPG_00849;dRep_bin297_EDHEEICA_01086;dRep_bin308_JBPDGLPP_01561;dRep_bin249_OFIIEIDJ_01347;dRep_bin024_OLHDGABE_00861;dRep_bin248_CCDFPECI_00398;dRep_bin095_HOBNOEEF_00461;dRep_bin168_HKDILBFE_01532;dRep_bin099_DNDAGJEJ_00152;dRep_bin091_MAFACGAD_01498;dRep_bin053_OMGNPOOB_00496;dRep_bin347_EKGCMFPD_00942;dRep_bin017_FGFLFOPJ_00104;dRep_bin001_GHHJMDAL_00099;dRep_bin260_HELEPKJL_01156;dRep_bin139_KGAJINND_00655;dRep_bin284_DEHKNOBF_00340;dRep_bin158_OGFICEAP_00774;dRep_bin115_IFKGOGCL_00685;dRep_bin023_HGFJFKAI_00316;dRep_bin127_FIPNHBCH_00146;dRep_bin254_GJDPFAEA_01402;dRep_bin167_BLMEBMNN_01288;dRep_bin328_GIGKNKPJ_00098;dRep_bin065_DFABHCBI_00298	dRep_bin133_NOBPDBPA_01467;dRep_bin209_NKIHFCEN_01581;dRep_bin179_HFEIPPPA_02264;dRep_bin226_NLNLHLLD_01531;dRep_bin324_IPNHOHFK_01023;dRep_bin335_JIOGNAPG_00849;dRep_bin297_EDHEEICA_01086	>dRep_bin133_NOBPDBPA_01467 2,3-dimethylmalate dehydratase large subunit;>dRep_bin209_NKIHFCEN_01581 2,3-dimethylmalate dehydratase large subunit;>dRep_bin179_HFEIPPPA_02264 2,3-dimethylmalate dehydratase large subunit;>dRep_bin226_NLNLHLLD_01531 Homoaconi	dRep_bin158_OGFICEAP_00774	CDS	dmdA_2	4.2.1.85	2,3-dimethylmalate dehydratase large subunit
OGFICEAP_00784	26.164150000000003	23.98885		24.66129	24.424319999999998	27.979129999999998	24.41667	23.78686				5	2	5,2423E-34	dRep_bin335_JIOGNAPG_00742;dRep_bin039_IJNOFOJK_01808;dRep_bin158_OGFICEAP_00784	dRep_bin335_JIOGNAPG_00742;dRep_bin039_IJNOFOJK_01808	>dRep_bin335_JIOGNAPG_00742 60 kDa chaperonin;>dRep_bin039_IJNOFOJK_01808 60 kDa chaperonin	dRep_bin158_OGFICEAP_00784	CDS	groL_1		60 kDa chaperonin
OGFICEAP_00810					25.158							3	3	1,2414E-07	dRep_bin201_OLKDIBOK_00577;dRep_bin115_IFKGOGCL_02473;dRep_bin247_EKGBJCBM_01258;dRep_bin161_JMKPMHCO_00071;dRep_bin250_NMCAMJIO_00285;dRep_bin124_HIHDFGCL_01631;dRep_bin154_JGOKHKLI_01454;dRep_bin146_LCCIBLJG_00619;dRep_bin106_BKDHGPBE_00808;dRep_bin106_BKDHGPBE_00753;dRep_bin344_CJJBDGAA_01388;dRep_bin325_EIIGOGHN_00333;dRep_bin260_HELEPKJL_00743;dRep_bin220_PILICLLL_01598;dRep_bin145_KMJJJOEJ_00848;dRep_bin139_KGAJINND_00377;dRep_bin115_IFKGOGCL_01096;dRep_bin095_HOBNOEEF_01156;dRep_bin081_JDPCKDNP_01298;dRep_bin047_IFFANOMN_00086;dRep_bin016_JLGAHGOJ_00176;dRep_bin322_OJELOJOF_00203;dRep_bin234_ECABPBME_02273;dRep_bin075_EPEMMOCL_00967;dRep_bin005_CNDFPKJG_01245;dRep_bin310_IMBAFDIF_01047;dRep_bin287_DONBGKDH_00172;dRep_bin089_PAJFOJBN_01160;dRep_bin158_OGFICEAP_00810	dRep_bin201_OLKDIBOK_00577	>dRep_bin201_OLKDIBOK_00577 S-adenosylmethionine synthase	dRep_bin158_OGFICEAP_00810	CDS	metK	2.5.1.6	S-adenosylmethionine synthase
OGFICEAP_00831								23.62778				4	1	3,6641E-10	dRep_bin139_KGAJINND_00546;dRep_bin344_CJJBDGAA_00504;dRep_bin269_PNILGKPH_01782;dRep_bin186_HJAAFFNP_01230;dRep_bin160_EFKMPBOM_02028;dRep_bin154_JGOKHKLI_01570;dRep_bin027_OFJCHLJJ_01704;dRep_bin019_MOJEPLJF_00393;dRep_bin095_HOBNOEEF_01900;dRep_bin007_LNLEAAAN_01664;dRep_bin134_HIAPAODO_02032;dRep_bin220_PILICLLL_00626;dRep_bin201_OLKDIBOK_01146;dRep_bin158_OGFICEAP_00831;dRep_bin261_FJICAFFM_00403;dRep_bin347_EKGCMFPD_01461;dRep_bin328_GIGKNKPJ_00617;dRep_bin308_JBPDGLPP_01735;dRep_bin284_DEHKNOBF_00839;dRep_bin254_GJDPFAEA_01844;dRep_bin127_FIPNHBCH_00020;dRep_bin081_JDPCKDNP_00351;dRep_bin065_DFABHCBI_01741;dRep_bin001_GHHJMDAL_00049;dRep_bin335_JIOGNAPG_00092;dRep_bin282_PKAAPBFP_00201;dRep_bin260_HELEPKJL_01120;dRep_bin039_IJNOFOJK_00928;dRep_bin088_DNGPPFDK_00468;dRep_bin248_CCDFPECI_00111;dRep_bin107_EFNBPDOP_01463;dRep_bin077_DNNBMPMC_00533;dRep_bin300_MJPPENNL_00852;dRep_bin279_IAEFEPEN_01391;dRep_bin145_KMJJJOEJ_01298;dRep_bin062_BOFBFLDA_00998;dRep_bin016_JLGAHGOJ_00540;dRep_bin310_IMBAFDIF_00139;dRep_bin115_IFKGOGCL_00786;dRep_bin158_OGFICEAP_00832;dRep_bin066_AJACLPEE_00773;dRep_bin249_OFIIEIDJ_01720;dRep_bin324_IPNHOHFK_00378;dRep_bin287_DONBGKDH_00056;dRep_bin186_HJAAFFNP_01363;dRep_bin181_MKGPMPIA_00052;dRep_bin319_PBDBJGCJ_00396;dRep_bin278_BFCONKOE_00395;dRep_bin024_OLHDGABE_00254;dRep_bin135_HHKACLPM_01039	dRep_bin139_KGAJINND_00546;dRep_bin344_CJJBDGAA_00504;dRep_bin269_PNILGKPH_01782;dRep_bin186_HJAAFFNP_01230;dRep_bin160_EFKMPBOM_02028;dRep_bin154_JGOKHKLI_01570;dRep_bin027_OFJCHLJJ_01704;dRep_bin019_MOJEPLJF_00393;dRep_bin095_HOBNOEEF_01900;dRep_bin007_LNLEAAAN_01664;dRep_bin134_HIAPAODO_02032;dRep_bin220_PILICLLL_00626;dRep_bin201_OLKDIBOK_01146;dRep_bin158_OGFICEAP_00831;dRep_bin261_FJICAFFM_00403;dRep_bin347_EKGCMFPD_01461;dRep_bin328_GIGKNKPJ_00617;dRep_bin308_JBPDGLPP_01735;dRep_bin284_DEHKNOBF_00839;dRep_bin254_GJDPFAEA_01844;dRep_bin127_FIPNHBCH_00020;dRep_bin081_JDPCKDNP_00351;dRep_bin065_DFABHCBI_01741;dRep_bin001_GHHJMDAL_00049;dRep_bin335_JIOGNAPG_00092;dRep_bin282_PKAAPBFP_00201;dRep_bin260_HELEPKJL_01120;dRep_bin039_IJNOFOJK_00928;dRep_bin088_DNGPPFDK_00468;dRep_bin248_CCDFPECI_00111;dRep_bin107_EFNBPDOP_01463;dRep_bin077_DNNBMPMC_00533;dRep_bin300_MJPPENNL_00852;dRep_bin279_IAEFEPEN_01391;dRep_bin145_KMJJJOEJ_01298;dRep_bin062_BOFBFLDA_00998;dRep_bin016_JLGAHGOJ_00540;dRep_bin310_IMBAFDIF_00139	>dRep_bin139_KGAJINND_00546 ATP-dependent 6-phosphofructokinase;>dRep_bin344_CJJBDGAA_00504 ATP-dependent 6-phosphofructokinase;>dRep_bin269_PNILGKPH_01782 ATP-dependent 6-phosphofructokinase;>dRep_bin186_HJAAFFNP_01230 ATP-dependent 6-phosphofructokinase;	dRep_bin158_OGFICEAP_00831	CDS	pfkA_1	2.7.1.11	ATP-dependent 6-phosphofructokinase
OGFICEAP_00836						25.756970000000003						1	1	0,007356	dRep_bin158_OGFICEAP_00836;dRep_bin115_IFKGOGCL_02533;dRep_bin062_BOFBFLDA_00357;dRep_bin292_JIBLDOOH_00157;dRep_bin203_CLFNNOCF_00943;dRep_bin157_JPNIKEKI_00928;dRep_bin041_OPKGAAAG_00529;dRep_bin047_IFFANOMN_01141	dRep_bin158_OGFICEAP_00836;dRep_bin115_IFKGOGCL_02533;dRep_bin062_BOFBFLDA_00357;dRep_bin292_JIBLDOOH_00157;dRep_bin203_CLFNNOCF_00943;dRep_bin157_JPNIKEKI_00928;dRep_bin041_OPKGAAAG_00529;dRep_bin047_IFFANOMN_01141	>dRep_bin158_OGFICEAP_00836 Pyrroline-5-carboxylate reductase;>dRep_bin115_IFKGOGCL_02533 Pyrroline-5-carboxylate reductase;>dRep_bin062_BOFBFLDA_00357 Pyrroline-5-carboxylate reductase;>dRep_bin292_JIBLDOOH_00157 Pyrroline-5-carboxylate reductase;>dRep_bi	dRep_bin158_OGFICEAP_00836	CDS	proC_1	1.5.1.2	Pyrroline-5-carboxylate reductase
OGFICEAP_00839			24.09676									2	1	2,0863E-09	dRep_bin081_JDPCKDNP_01365;dRep_bin172_ALNHGLMD_00728;dRep_bin158_OGFICEAP_00839;dRep_bin115_IFKGOGCL_02532;dRep_bin160_EFKMPBOM_02561;dRep_bin099_DNDAGJEJ_01292;dRep_bin335_JIOGNAPG_00064;dRep_bin164_KHMELCCL_00756	dRep_bin081_JDPCKDNP_01365;dRep_bin172_ALNHGLMD_00728;dRep_bin158_OGFICEAP_00839;dRep_bin115_IFKGOGCL_02532;dRep_bin160_EFKMPBOM_02561;dRep_bin099_DNDAGJEJ_01292;dRep_bin335_JIOGNAPG_00064;dRep_bin164_KHMELCCL_00756	>dRep_bin081_JDPCKDNP_01365 Putative bifunctional phosphatase/peptidyl-prolyl cis-trans isomerase;>dRep_bin172_ALNHGLMD_00728 Putative bifunctional phosphatase/peptidyl-prolyl cis-trans isomerase;>dRep_bin158_OGFICEAP_00839 Peptidyl-prolyl cis-trans isomer	dRep_bin158_OGFICEAP_00839	CDS	ppiB	5.2.1.8	Peptidyl-prolyl cis-trans isomerase B
OGFICEAP_00873			28.77903	29.416960000000003	27.236439999999998	27.457870000000003	26.988259999999997	26.782069999999997				3	1	5,5654E-46	dRep_bin005_CNDFPKJG_00512;dRep_bin135_HHKACLPM_00996;dRep_bin007_LNLEAAAN_00555;dRep_bin303_DDDNDJCF_00538;dRep_bin328_GIGKNKPJ_00724;dRep_bin308_JBPDGLPP_01472;dRep_bin292_JIBLDOOH_00033;dRep_bin278_BFCONKOE_00439;dRep_bin269_PNILGKPH_00427;dRep_bin179_HFEIPPPA_01854;dRep_bin133_NOBPDBPA_03738;dRep_bin127_FIPNHBCH_00184;dRep_bin065_DFABHCBI_01543;dRep_bin039_IJNOFOJK_00835;dRep_bin031_BNHMFOII_01289;dRep_bin024_OLHDGABE_00632;dRep_bin001_GHHJMDAL_01042;dRep_bin027_OFJCHLJJ_01571;dRep_bin134_HIAPAODO_00757;dRep_bin339_DBNBAHDK_00274;dRep_bin268_LKMHIMLG_00767;dRep_bin215_ABBFGCAF_00889;dRep_bin142_NDNPJBEM_01236;dRep_bin347_EKGCMFPD_01033;dRep_bin325_EIIGOGHN_00650;dRep_bin310_IMBAFDIF_01183;dRep_bin293_MEPKGOAN_00730;dRep_bin282_PKAAPBFP_00286;dRep_bin100_CODMOHGB_00949;dRep_bin091_MAFACGAD_00437;dRep_bin079_GAOGCKND_00310;dRep_bin323_FBBLPLCG_01106;dRep_bin322_OJELOJOF_01654;dRep_bin273_FGAEBHNP_01366;dRep_bin266_JFOCEDAE_01192;dRep_bin231_CFOLMJBA_00878;dRep_bin194_MEPDOGGJ_01303;dRep_bin182_EMCFODCD_01258;dRep_bin169_PNICKJKO_01164;dRep_bin158_OGFICEAP_00873;dRep_bin115_IFKGOGCL_01307;dRep_bin108_BPNCDINP_01062;dRep_bin087_FCLGAPPI_00927;dRep_bin056_EMNHHOJA_01448;dRep_bin047_IFFANOMN_00919;dRep_bin044_IPFKHAEF_00004;dRep_bin026_HNPIIINL_00567;dRep_bin025_CBEJJMLE_00162;dRep_bin336_MPGOKPOL_00656;dRep_bin277_MIPNGEJE_00938;dRep_bin257_JHFDCHCB_01267;dRep_bin172_ALNHGLMD_01450;dRep_bin166_DFIAJFEC_00114;dRep_bin147_EJLBNEBE_01610;dRep_bin105_AAEIHAFF_01928	dRep_bin005_CNDFPKJG_00512;dRep_bin135_HHKACLPM_00996;dRep_bin007_LNLEAAAN_00555;dRep_bin303_DDDNDJCF_00538;dRep_bin328_GIGKNKPJ_00724;dRep_bin308_JBPDGLPP_01472;dRep_bin292_JIBLDOOH_00033;dRep_bin278_BFCONKOE_00439;dRep_bin269_PNILGKPH_00427;dRep_bin179_HFEIPPPA_01854;dRep_bin133_NOBPDBPA_03738;dRep_bin127_FIPNHBCH_00184;dRep_bin065_DFABHCBI_01543;dRep_bin039_IJNOFOJK_00835;dRep_bin031_BNHMFOII_01289;dRep_bin024_OLHDGABE_00632;dRep_bin001_GHHJMDAL_01042;dRep_bin027_OFJCHLJJ_01571	>dRep_bin005_CNDFPKJG_00512 30S ribosomal protein S12;>dRep_bin135_HHKACLPM_00996 30S ribosomal protein S12;>dRep_bin007_LNLEAAAN_00555 30S ribosomal protein S12;>dRep_bin303_DDDNDJCF_00538 30S ribosomal protein S12;>dRep_bin328_GIGKNKPJ_00724 30S ribosoma	dRep_bin158_OGFICEAP_00873	CDS	rpsL		30S ribosomal protein S12
OGFICEAP_00880			20.02161									1	1	0,0010523	dRep_bin158_OGFICEAP_00880	dRep_bin158_OGFICEAP_00880	>dRep_bin158_OGFICEAP_00880 Dipeptide-binding protein DppE	dRep_bin158_OGFICEAP_00880	CDS	dppE_1		Dipeptide-binding protein DppE
OGFICEAP_00891					23.15502							1	1	0,0046341	dRep_bin134_HIAPAODO_02169;dRep_bin310_IMBAFDIF_00963;dRep_bin248_CCDFPECI_01285;dRep_bin095_HOBNOEEF_00251;dRep_bin158_OGFICEAP_00891	dRep_bin134_HIAPAODO_02169;dRep_bin310_IMBAFDIF_00963;dRep_bin248_CCDFPECI_01285;dRep_bin095_HOBNOEEF_00251;dRep_bin158_OGFICEAP_00891	>dRep_bin134_HIAPAODO_02169 2-iminoacetate synthase;>dRep_bin310_IMBAFDIF_00963 2-iminoacetate synthase;>dRep_bin248_CCDFPECI_01285 2-iminoacetate synthase;>dRep_bin095_HOBNOEEF_00251 2-iminoacetate synthase;>dRep_bin158_OGFICEAP_00891 2-iminoacetate synth	dRep_bin158_OGFICEAP_00891	CDS	thiH_2	4.1.99.19	2-iminoacetate synthase
OGFICEAP_00898	24.59286	25.92107	24.29123									1	1	6,4226E-10	dRep_bin081_JDPCKDNP_01788;dRep_bin052_PGOOKKFH_01460;dRep_bin158_OGFICEAP_00898;dRep_bin292_JIBLDOOH_01755	dRep_bin081_JDPCKDNP_01788;dRep_bin052_PGOOKKFH_01460;dRep_bin158_OGFICEAP_00898;dRep_bin292_JIBLDOOH_01755	>dRep_bin081_JDPCKDNP_01788 4-hydroxymandelate oxidase;>dRep_bin052_PGOOKKFH_01460 4-hydroxymandelate oxidase;>dRep_bin158_OGFICEAP_00898 4-hydroxymandelate oxidase;>dRep_bin292_JIBLDOOH_01755 4-hydroxymandelate oxidase	dRep_bin158_OGFICEAP_00898	CDS	hmo	1.1.3.46	4-hydroxymandelate oxidase
OGFICEAP_00970		25.633390000000002										2	2	0,00019066	dRep_bin344_CJJBDGAA_00898;dRep_bin335_JIOGNAPG_01201;dRep_bin139_KGAJINND_01130;dRep_bin041_OPKGAAAG_02277;dRep_bin134_HIAPAODO_00923;dRep_bin089_PAJFOJBN_00023;dRep_bin088_DNGPPFDK_01103;dRep_bin062_BOFBFLDA_01112;dRep_bin158_OGFICEAP_00970;dRep_bin303_DDDNDJCF_01875;dRep_bin287_DONBGKDH_00692;dRep_bin266_JFOCEDAE_01617;dRep_bin234_ECABPBME_01365;dRep_bin254_GJDPFAEA_02106;dRep_bin127_FIPNHBCH_01543;dRep_bin167_BLMEBMNN_01358;dRep_bin069_EGGEOGDC_00688;dRep_bin047_IFFANOMN_00937	dRep_bin344_CJJBDGAA_00898;dRep_bin335_JIOGNAPG_01201;dRep_bin139_KGAJINND_01130;dRep_bin041_OPKGAAAG_02277;dRep_bin134_HIAPAODO_00923;dRep_bin089_PAJFOJBN_00023;dRep_bin088_DNGPPFDK_01103;dRep_bin062_BOFBFLDA_01112;dRep_bin158_OGFICEAP_00970;dRep_bin303_DDDNDJCF_01875;dRep_bin287_DONBGKDH_00692;dRep_bin266_JFOCEDAE_01617;dRep_bin234_ECABPBME_01365;dRep_bin254_GJDPFAEA_02106;dRep_bin127_FIPNHBCH_01543;dRep_bin167_BLMEBMNN_01358;dRep_bin069_EGGEOGDC_00688;dRep_bin047_IFFANOMN_00937	>dRep_bin344_CJJBDGAA_00898 dTDP-4-dehydrorhamnose 3,5-epimerase;>dRep_bin335_JIOGNAPG_01201 dTDP-4-dehydrorhamnose 3,5-epimerase;>dRep_bin139_KGAJINND_01130 dTDP-4-dehydrorhamnose 3,5-epimerase;>dRep_bin041_OPKGAAAG_02277 dTDP-4-dehydrorhamnose 3,5-epimer	dRep_bin158_OGFICEAP_00970	CDS	rfbC	5.1.3.13	dTDP-4-dehydrorhamnose 3,5-epimerase
OGFICEAP_01010	26.357850000000006	26.35671	26.91056	27.442689999999995	27.565649999999998	26.268909999999998	27.855729999999998	26.992369999999998				6	0	1,6744E-13	dRep_bin220_PILICLLL_00989;dRep_bin016_JLGAHGOJ_00301;dRep_bin260_HELEPKJL_01949;dRep_bin024_OLHDGABE_01286;dRep_bin068_ENOLAELK_00820;dRep_bin056_EMNHHOJA_00968;dRep_bin026_HNPIIINL_01362;dRep_bin253_CPMOAOBJ_00875;dRep_bin145_KMJJJOEJ_00851;dRep_bin344_CJJBDGAA_02006;dRep_bin278_BFCONKOE_01078;dRep_bin269_PNILGKPH_01415;dRep_bin240_LDBBGJKG_01602;dRep_bin065_DFABHCBI_01421;dRep_bin158_OGFICEAP_01010	dRep_bin220_PILICLLL_00989;dRep_bin016_JLGAHGOJ_00301	>dRep_bin220_PILICLLL_00989 Elongation factor G;>dRep_bin016_JLGAHGOJ_00301 Elongation factor G	dRep_bin158_OGFICEAP_01010	CDS	fusA_1		Elongation factor G
OGFICEAP_01014	25.260839999999998	25.237900000000003	25.375970000000002	26.26735								15	1	2,769E-104	dRep_bin158_OGFICEAP_01014	dRep_bin158_OGFICEAP_01014	>dRep_bin158_OGFICEAP_01014 60 kDa chaperonin	dRep_bin158_OGFICEAP_01014	CDS	groL_2		60 kDa chaperonin
OGFICEAP_01016				20.12956								4	1	1,9606E-08	dRep_bin260_HELEPKJL_00003;dRep_bin303_DDDNDJCF_01034;dRep_bin254_GJDPFAEA_00291;dRep_bin248_CCDFPECI_01105;dRep_bin240_LDBBGJKG_00257;dRep_bin234_ECABPBME_02182;dRep_bin186_HJAAFFNP_02094;dRep_bin069_EGGEOGDC_00700;dRep_bin065_DFABHCBI_02333;dRep_bin344_CJJBDGAA_01016;dRep_bin287_DONBGKDH_00957;dRep_bin158_OGFICEAP_01016;dRep_bin134_HIAPAODO_01243;dRep_bin088_DNGPPFDK_00299;dRep_bin016_JLGAHGOJ_01972;dRep_bin168_HKDILBFE_00283;dRep_bin099_DNDAGJEJ_01634;dRep_bin023_HGFJFKAI_00643;dRep_bin335_JIOGNAPG_00172	dRep_bin260_HELEPKJL_00003;dRep_bin303_DDDNDJCF_01034;dRep_bin254_GJDPFAEA_00291;dRep_bin248_CCDFPECI_01105;dRep_bin240_LDBBGJKG_00257;dRep_bin234_ECABPBME_02182;dRep_bin186_HJAAFFNP_02094;dRep_bin069_EGGEOGDC_00700;dRep_bin065_DFABHCBI_02333;dRep_bin344_CJJBDGAA_01016;dRep_bin287_DONBGKDH_00957;dRep_bin158_OGFICEAP_01016;dRep_bin134_HIAPAODO_01243;dRep_bin088_DNGPPFDK_00299;dRep_bin016_JLGAHGOJ_01972	>dRep_bin260_HELEPKJL_00003 Inosine-5-monophosphate dehydrogenase;>dRep_bin303_DDDNDJCF_01034 Inosine-5-monophosphate dehydrogenase;>dRep_bin254_GJDPFAEA_00291 Inosine-5-monophosphate dehydrogenase;>dRep_bin248_CCDFPECI_01105 Inosine-5-monophosphate de	dRep_bin158_OGFICEAP_01016	CDS	guaB_1	1.1.1.205	Inosine-5'-monophosphate dehydrogenase
OGFICEAP_01022								24.969609999999996				1	1	3,5617E-06	dRep_bin158_OGFICEAP_01022	dRep_bin158_OGFICEAP_01022	>dRep_bin158_OGFICEAP_01022 Elongation factor P	dRep_bin158_OGFICEAP_01022	CDS	efp		Elongation factor P
OGFICEAP_01037						23.308139999999998	23.676050000000004					3	1	2,9621E-38	dRep_bin158_OGFICEAP_01037	dRep_bin158_OGFICEAP_01037	>dRep_bin158_OGFICEAP_01037 ABC transporter periplasmic-binding protein YtfQ	dRep_bin158_OGFICEAP_01037	CDS	ytfQ		ABC transporter periplasmic-binding protein YtfQ
OGFICEAP_01055							24.12202					1	1	1,1843E-07	dRep_bin158_OGFICEAP_01055	dRep_bin158_OGFICEAP_01055	>dRep_bin158_OGFICEAP_01055 Phosphoglucomutase	dRep_bin158_OGFICEAP_01055	CDS	pgcA	5.4.2.2	Phosphoglucomutase
OGFICEAP_01060	26.824810000000003	26.950709999999997	26.38217	27.740019999999998	26.889599999999998	27.42598	26.526639999999997	26.67034				18	1	0	dRep_bin158_OGFICEAP_01060	dRep_bin158_OGFICEAP_01060	>dRep_bin158_OGFICEAP_01060 Chaperone protein DnaK	dRep_bin158_OGFICEAP_01060	CDS	dnaK		Chaperone protein DnaK
OGFICEAP_01071						24.19152						1	1	0,0013803	dRep_bin158_OGFICEAP_01071;dRep_bin139_KGAJINND_00701;dRep_bin134_HIAPAODO_01164;dRep_bin115_IFKGOGCL_02150;dRep_bin095_HOBNOEEF_01583;dRep_bin031_BNHMFOII_01069;dRep_bin027_OFJCHLJJ_00667;dRep_bin024_OLHDGABE_01413;dRep_bin268_LKMHIMLG_01344;dRep_bin282_PKAAPBFP_00455	dRep_bin158_OGFICEAP_01071;dRep_bin139_KGAJINND_00701;dRep_bin134_HIAPAODO_01164;dRep_bin115_IFKGOGCL_02150;dRep_bin095_HOBNOEEF_01583;dRep_bin031_BNHMFOII_01069;dRep_bin027_OFJCHLJJ_00667;dRep_bin024_OLHDGABE_01413;dRep_bin268_LKMHIMLG_01344;dRep_bin282_PKAAPBFP_00455	>dRep_bin158_OGFICEAP_01071 30S ribosomal protein S9;>dRep_bin139_KGAJINND_00701 30S ribosomal protein S9;>dRep_bin134_HIAPAODO_01164 30S ribosomal protein S9;>dRep_bin115_IFKGOGCL_02150 30S ribosomal protein S9;>dRep_bin095_HOBNOEEF_01583 30S ribosomal pr	dRep_bin158_OGFICEAP_01071	CDS	rpsI		30S ribosomal protein S9
OGFICEAP_01083	25.23114	26.20021	25.60848	25.00539	25.231910000000003	24.7476	24.899800000000003	25.86637				5	4	9,1623E-50	dRep_bin158_OGFICEAP_01083;dRep_bin055_IBMMJAEE_01254;dRep_bin192_GCMBELNN_00771;dRep_bin293_MEPKGOAN_00645;dRep_bin185_OOOLKACK_00545	dRep_bin158_OGFICEAP_01083	>dRep_bin158_OGFICEAP_01083 NADP-dependent 7-alpha-hydroxysteroid dehydrogenase	dRep_bin158_OGFICEAP_01083	CDS		1.1.1.-	NADP-dependent 7-alpha-hydroxysteroid dehydrogenase
OGFICEAP_01126	27.641070000000003	29.068479999999997	27.918429999999997	28.226599999999998	28.1866		27.866729999999997	27.47018				13	2	5,593E-128	dRep_bin016_JLGAHGOJ_00050;dRep_bin135_HHKACLPM_00690;dRep_bin234_ECABPBME_00594;dRep_bin158_OGFICEAP_01126	dRep_bin016_JLGAHGOJ_00050	>dRep_bin016_JLGAHGOJ_00050 Aspartate-semialdehyde dehydrogenase	dRep_bin158_OGFICEAP_01126	CDS	asd	1.2.1.11	Aspartate-semialdehyde dehydrogenase
OGFICEAP_01139							23.5471					4	1	2,0048E-08	dRep_bin062_BOFBFLDA_01260;dRep_bin145_KMJJJOEJ_00156;dRep_bin158_OGFICEAP_01139	dRep_bin062_BOFBFLDA_01260;dRep_bin145_KMJJJOEJ_00156;dRep_bin158_OGFICEAP_01139	>dRep_bin062_BOFBFLDA_01260 Aspartate--tRNA ligase;>dRep_bin145_KMJJJOEJ_00156 Aspartate--tRNA ligase;>dRep_bin158_OGFICEAP_01139 Aspartate--tRNA ligase	dRep_bin158_OGFICEAP_01139	CDS	aspS	6.1.1.12	Aspartate--tRNA ligase
OGFICEAP_01163				24.25609								5	1	1,5418E-13	dRep_bin209_NKIHFCEN_00317;dRep_bin324_IPNHOHFK_01678;dRep_bin157_JPNIKEKI_00710;dRep_bin074_EHAOMODJ_01437;dRep_bin062_BOFBFLDA_00093;dRep_bin145_KMJJJOEJ_01378;dRep_bin024_OLHDGABE_00204;dRep_bin308_JBPDGLPP_00141;dRep_bin203_CLFNNOCF_01622;dRep_bin226_NLNLHLLD_00884;dRep_bin269_PNILGKPH_01346;dRep_bin179_HFEIPPPA_00528;dRep_bin279_IAEFEPEN_00315;dRep_bin254_GJDPFAEA_01649;dRep_bin158_OGFICEAP_01163;dRep_bin167_BLMEBMNN_00405;dRep_bin065_DFABHCBI_00157	dRep_bin209_NKIHFCEN_00317	>dRep_bin209_NKIHFCEN_00317 N-acetyl-gamma-glutamyl-phosphate reductase	dRep_bin158_OGFICEAP_01163	CDS	argC	1.2.1.38	N-acetyl-gamma-glutamyl-phosphate reductase
OGFICEAP_01179		26.237920000000003		27.30226	27.379890000000003		26.413050000000002	26.67074				7	1	3,1565E-26	dRep_bin344_CJJBDGAA_00829;dRep_bin306_FGHMKMMP_00969;dRep_bin181_MKGPMPIA_01169;dRep_bin096_GNHMEKPF_00515;dRep_bin158_OGFICEAP_01179;dRep_bin082_HBEFABJN_00295;dRep_bin066_AJACLPEE_01023;dRep_bin332_KAOPCDPF_01131;dRep_bin062_BOFBFLDA_00829;dRep_bin017_FGFLFOPJ_00885;dRep_bin330_CODAKHDJ_00034;dRep_bin057_BNCFHBBO_01322;dRep_bin005_CNDFPKJG_01715	dRep_bin344_CJJBDGAA_00829	>dRep_bin344_CJJBDGAA_00829 Phosphoribosylaminoimidazole-succinocarboxamide synthase	dRep_bin158_OGFICEAP_01179	CDS	purC	6.3.2.6	Phosphoribosylaminoimidazole-succinocarboxamide synthase
OGFICEAP_01186	26.43422	26.80329	26.201739999999997		27.1882	26.07967						1	1	1,5041E-11	dRep_bin303_DDDNDJCF_01608;dRep_bin266_JFOCEDAE_01454;dRep_bin201_OLKDIBOK_00645;dRep_bin158_OGFICEAP_01186;dRep_bin310_IMBAFDIF_00476;dRep_bin248_CCDFPECI_01720;dRep_bin220_PILICLLL_00944;dRep_bin145_KMJJJOEJ_00665	dRep_bin303_DDDNDJCF_01608;dRep_bin266_JFOCEDAE_01454;dRep_bin201_OLKDIBOK_00645;dRep_bin158_OGFICEAP_01186;dRep_bin310_IMBAFDIF_00476;dRep_bin248_CCDFPECI_01720;dRep_bin220_PILICLLL_00944;dRep_bin145_KMJJJOEJ_00665	>dRep_bin303_DDDNDJCF_01608 30S ribosomal protein S18;>dRep_bin266_JFOCEDAE_01454 30S ribosomal protein S18;>dRep_bin201_OLKDIBOK_00645 30S ribosomal protein S18;>dRep_bin158_OGFICEAP_01186 30S ribosomal protein S18;>dRep_bin310_IMBAFDIF_00476 30S ribosoma	dRep_bin158_OGFICEAP_01186	CDS	rpsR		30S ribosomal protein S18
OGFICEAP_01188				21.409299999999998								1	1	7,8785E-06	dRep_bin158_OGFICEAP_01188	dRep_bin158_OGFICEAP_01188	>dRep_bin158_OGFICEAP_01188 Nucleotidyl transferase	dRep_bin158_OGFICEAP_01188	CDS			Nucleotidyl transferase
OGFICEAP_01190												1	1	3,0065E-06	dRep_bin158_OGFICEAP_01190	dRep_bin158_OGFICEAP_01190	>dRep_bin158_OGFICEAP_01190 UDP-glucose 4-epimerase	dRep_bin158_OGFICEAP_01190	CDS	lnpD_1	5.1.3.2	UDP-glucose 4-epimerase
OGFICEAP_01238						22.306860000000004						3	1	6,3831E-08	dRep_bin041_OPKGAAAG_00367;dRep_bin284_DEHKNOBF_00254;dRep_bin319_PBDBJGCJ_00655;dRep_bin203_CLFNNOCF_01297;dRep_bin181_MKGPMPIA_00407;dRep_bin179_HFEIPPPA_00842;dRep_bin139_KGAJINND_00918;dRep_bin133_NOBPDBPA_02473;dRep_bin066_AJACLPEE_00004;dRep_bin194_MEPDOGGJ_00508;dRep_bin152_LJMCIADF_01431;dRep_bin068_ENOLAELK_01095;dRep_bin038_EIGFILKG_01028;dRep_bin025_CBEJJMLE_01384;dRep_bin324_IPNHOHFK_01934;dRep_bin023_HGFJFKAI_01643;dRep_bin209_NKIHFCEN_00957;dRep_bin157_JPNIKEKI_01504;dRep_bin297_EDHEEICA_00667;dRep_bin226_NLNLHLLD_00265;dRep_bin306_FGHMKMMP_01756;dRep_bin005_CNDFPKJG_00040;dRep_bin158_OGFICEAP_01238;dRep_bin303_DDDNDJCF_00102;dRep_bin299_AKNBKJGM_01304;dRep_bin248_CCDFPECI_01165;dRep_bin145_KMJJJOEJ_00716;dRep_bin095_HOBNOEEF_01829;dRep_bin081_JDPCKDNP_01870;dRep_bin053_OMGNPOOB_00265;dRep_bin310_IMBAFDIF_00723;dRep_bin077_DNNBMPMC_01957;dRep_bin201_OLKDIBOK_00147;dRep_bin124_HIHDFGCL_01069;dRep_bin079_GAOGCKND_00667;dRep_bin107_EFNBPDOP_00920	dRep_bin041_OPKGAAAG_00367;dRep_bin284_DEHKNOBF_00254;dRep_bin319_PBDBJGCJ_00655;dRep_bin203_CLFNNOCF_01297;dRep_bin181_MKGPMPIA_00407;dRep_bin179_HFEIPPPA_00842;dRep_bin139_KGAJINND_00918;dRep_bin133_NOBPDBPA_02473;dRep_bin066_AJACLPEE_00004;dRep_bin194_MEPDOGGJ_00508;dRep_bin152_LJMCIADF_01431;dRep_bin068_ENOLAELK_01095;dRep_bin038_EIGFILKG_01028;dRep_bin025_CBEJJMLE_01384;dRep_bin324_IPNHOHFK_01934;dRep_bin023_HGFJFKAI_01643;dRep_bin209_NKIHFCEN_00957;dRep_bin157_JPNIKEKI_01504;dRep_bin297_EDHEEICA_00667;dRep_bin226_NLNLHLLD_00265;dRep_bin306_FGHMKMMP_01756;dRep_bin005_CNDFPKJG_00040	>dRep_bin041_OPKGAAAG_00367 Nicotinate-nucleotide pyrophosphorylase [carboxylating];>dRep_bin284_DEHKNOBF_00254 Nicotinate-nucleotide pyrophosphorylase [carboxylating];>dRep_bin319_PBDBJGCJ_00655 putative nicotinate-nucleotide pyrophosphorylase [carboxylat	dRep_bin158_OGFICEAP_01238	CDS	nadC	2.4.2.19	putative nicotinate-nucleotide pyrophosphorylase [carboxylating]
OGFICEAP_01345	24.753529999999998	25.156840000000003	25.41329	25.456850000000003	25.471629999999998	24.512860000000003	26.69962	25.67831				1	1	5,9398E-07	dRep_bin158_OGFICEAP_01345;dRep_bin115_IFKGOGCL_02762	dRep_bin158_OGFICEAP_01345;dRep_bin115_IFKGOGCL_02762	>dRep_bin158_OGFICEAP_01345 50S ribosomal protein L11;>dRep_bin115_IFKGOGCL_02762 50S ribosomal protein L11	dRep_bin158_OGFICEAP_01345	CDS	rplK		50S ribosomal protein L11
OGFICEAP_01370						19.55093						6	0	1,3469E-56	dRep_bin220_PILICLLL_01497;dRep_bin158_OGFICEAP_01370	dRep_bin220_PILICLLL_01497	>dRep_bin220_PILICLLL_01497 Dihydroxy-acid dehydratase	dRep_bin158_OGFICEAP_01370	CDS	ilvD_2	4.2.1.9	Dihydroxy-acid dehydratase
OGFICEAP_01380								22.391840000000002				2	2	0,0012784	dRep_bin292_JIBLDOOH_01455;dRep_bin297_EDHEEICA_00460;dRep_bin260_HELEPKJL_01994;dRep_bin134_HIAPAODO_01228;dRep_bin115_IFKGOGCL_01262;dRep_bin062_BOFBFLDA_00625;dRep_bin269_PNILGKPH_00784;dRep_bin145_KMJJJOEJ_00869;dRep_bin310_IMBAFDIF_00687;dRep_bin226_NLNLHLLD_01228;dRep_bin209_NKIHFCEN_00359;dRep_bin158_OGFICEAP_01380;dRep_bin157_JPNIKEKI_00889;dRep_bin127_FIPNHBCH_01213;dRep_bin186_HJAAFFNP_00787;dRep_bin167_BLMEBMNN_01301;dRep_bin069_EGGEOGDC_00481;dRep_bin016_JLGAHGOJ_01259;dRep_bin065_DFABHCBI_00254;dRep_bin039_IJNOFOJK_01684;dRep_bin322_OJELOJOF_00527;dRep_bin261_FJICAFFM_00492;dRep_bin220_PILICLLL_01235;dRep_bin201_OLKDIBOK_02013;dRep_bin303_DDDNDJCF_00579	dRep_bin292_JIBLDOOH_01455;dRep_bin297_EDHEEICA_00460;dRep_bin260_HELEPKJL_01994;dRep_bin134_HIAPAODO_01228;dRep_bin115_IFKGOGCL_01262;dRep_bin062_BOFBFLDA_00625;dRep_bin269_PNILGKPH_00784;dRep_bin145_KMJJJOEJ_00869;dRep_bin310_IMBAFDIF_00687;dRep_bin226_NLNLHLLD_01228;dRep_bin209_NKIHFCEN_00359;dRep_bin158_OGFICEAP_01380;dRep_bin157_JPNIKEKI_00889;dRep_bin127_FIPNHBCH_01213;dRep_bin186_HJAAFFNP_00787;dRep_bin167_BLMEBMNN_01301;dRep_bin069_EGGEOGDC_00481;dRep_bin016_JLGAHGOJ_01259;dRep_bin065_DFABHCBI_00254;dRep_bin039_IJNOFOJK_01684;dRep_bin322_OJELOJOF_00527;dRep_bin261_FJICAFFM_00492;dRep_bin220_PILICLLL_01235;dRep_bin201_OLKDIBOK_02013;dRep_bin303_DDDNDJCF_00579	>dRep_bin292_JIBLDOOH_01455 Ribonuclease J1;>dRep_bin297_EDHEEICA_00460 Ribonuclease J1;>dRep_bin260_HELEPKJL_01994 Ribonuclease J1;>dRep_bin134_HIAPAODO_01228 Ribonuclease J1;>dRep_bin115_IFKGOGCL_01262 Ribonuclease J1;>dRep_bin062_BOFBFLDA_00625 Ribonucl	dRep_bin158_OGFICEAP_01380	CDS	rnjA	3.1.-.-	Ribonuclease J1
OGFICEAP_01424	28.738789999999998	28.75124	29.01084	29.3506	29.64461	30.02168	29.81859	30.104370000000003				12	4	1,026E-72	dRep_bin191_NGFJMLOL_01578;dRep_bin070_EMBHKIOF_00129;dRep_bin154_JGOKHKLI_00366;dRep_bin055_IBMMJAEE_00161;dRep_bin328_GIGKNKPJ_00645;dRep_bin047_IFFANOMN_00612;dRep_bin027_OFJCHLJJ_00977;dRep_bin005_CNDFPKJG_01432;dRep_bin278_BFCONKOE_00469;dRep_bin282_PKAAPBFP_00320;dRep_bin284_DEHKNOBF_00421;dRep_bin303_DDDNDJCF_00133;dRep_bin287_DONBGKDH_00272;dRep_bin220_PILICLLL_00145;dRep_bin107_EFNBPDOP_01320;dRep_bin158_OGFICEAP_01424;dRep_bin323_FBBLPLCG_01090;dRep_bin318_IEDEJOFJ_00395;dRep_bin308_JBPDGLPP_01660;dRep_bin306_FGHMKMMP_01032;dRep_bin261_FJICAFFM_00034;dRep_bin240_LDBBGJKG_01385;dRep_bin234_ECABPBME_00209;dRep_bin181_MKGPMPIA_00707;dRep_bin077_DNNBMPMC_00629;dRep_bin066_AJACLPEE_00619;dRep_bin065_DFABHCBI_01813;dRep_bin023_HGFJFKAI_00570;dRep_bin235_EGJBMLPF_00465;dRep_bin186_HJAAFFNP_00454;dRep_bin145_KMJJJOEJ_01616;dRep_bin095_HOBNOEEF_00383	dRep_bin191_NGFJMLOL_01578;dRep_bin070_EMBHKIOF_00129	>dRep_bin191_NGFJMLOL_01578 hypothetical protein;>dRep_bin070_EMBHKIOF_00129 hypothetical protein	dRep_bin158_OGFICEAP_01424	CDS			hypothetical protein
OGFICEAP_01428	28.72611	29.289599999999997	29.5258	28.677410000000002	28.746439999999996	28.10174	28.90693	28.88591				20	16	8,3592E-185	dRep_bin158_OGFICEAP_01428;dRep_bin254_GJDPFAEA_00108;dRep_bin326_CEEAIPKF_00144;dRep_bin122_JHMJFODI_00778;dRep_bin207_OHNPDPFI_00238;dRep_bin276_EHNFLEBP_00969;dRep_bin180_JMFOHHIL_00772;dRep_bin329_GDOHKPBL_01560;dRep_bin076_GLAOFBEC_02388;dRep_bin035_JBNPBOKG_01458;dRep_bin012_KEBBILMO_01041;dRep_bin070_EMBHKIOF_01360;dRep_bin229_FFOBPPJI_00960;dRep_bin210_AGEDAEIA_01389;dRep_bin354_MMOALAFN_00639;dRep_bin345_GLPJDLOI_00473;dRep_bin123_PJKBFKBB_01063;dRep_bin111_FPJIHFKE_00154;dRep_bin045_GJACFFBC_01941;dRep_bin040_EIFLLDOA_00889;dRep_bin333_EFOKIBLA_01013;dRep_bin131_HLFNHDGI_01012;dRep_bin022_BOEAFNDE_01446;dRep_bin301_NJFJIJGA_00142;dRep_bin275_NIDIBBDA_01350;dRep_bin149_GABCHCDI_01079;dRep_bin138_EJGHNBMI_00344;dRep_bin049_MNFBDPNO_00104;dRep_bin032_PPNIGLME_00241;dRep_bin343_JCMCKBGF_01571;dRep_bin118_FGIOKLBC_01793;dRep_bin093_PGADNPMG_00211;dRep_bin085_MBHLGCDB_01455;dRep_bin018_ILOONPIC_01183;dRep_bin323_FBBLPLCG_01525;dRep_bin265_LFKFBJPC_01879;dRep_bin121_BHOOLFKN_01093;dRep_bin122_JHMJFODI_01227	dRep_bin158_OGFICEAP_01428	>dRep_bin158_OGFICEAP_01428 Acetate kinase	dRep_bin158_OGFICEAP_01428	CDS	ackA	2.7.2.1	Acetate kinase
OGFICEAP_01436				22.68825								1	1	0,0058078	dRep_bin344_CJJBDGAA_00877;dRep_bin248_CCDFPECI_01095;dRep_bin145_KMJJJOEJ_01042;dRep_bin075_EPEMMOCL_00063;dRep_bin322_OJELOJOF_01105;dRep_bin310_IMBAFDIF_01102;dRep_bin308_JBPDGLPP_01083;dRep_bin158_OGFICEAP_01436;dRep_bin115_IFKGOGCL_01394;dRep_bin266_JFOCEDAE_01440;dRep_bin211_LGJEFJIK_01486;dRep_bin081_JDPCKDNP_00412	dRep_bin344_CJJBDGAA_00877;dRep_bin248_CCDFPECI_01095;dRep_bin145_KMJJJOEJ_01042;dRep_bin075_EPEMMOCL_00063;dRep_bin322_OJELOJOF_01105;dRep_bin310_IMBAFDIF_01102;dRep_bin308_JBPDGLPP_01083;dRep_bin158_OGFICEAP_01436;dRep_bin115_IFKGOGCL_01394;dRep_bin266_JFOCEDAE_01440;dRep_bin211_LGJEFJIK_01486;dRep_bin081_JDPCKDNP_00412	>dRep_bin344_CJJBDGAA_00877 50S ribosomal protein L27;>dRep_bin248_CCDFPECI_01095 50S ribosomal protein L27;>dRep_bin145_KMJJJOEJ_01042 50S ribosomal protein L27;>dRep_bin075_EPEMMOCL_00063 50S ribosomal protein L27;>dRep_bin322_OJELOJOF_01105 50S ribosoma	dRep_bin158_OGFICEAP_01436	CDS	rpmA		50S ribosomal protein L27
OGFICEAP_01438				26.368709999999997								4	2	1,0849E-12	dRep_bin292_JIBLDOOH_01063;dRep_bin041_OPKGAAAG_01075;dRep_bin209_NKIHFCEN_01331;dRep_bin269_PNILGKPH_00386;dRep_bin039_IJNOFOJK_00028;dRep_bin324_IPNHOHFK_01206;dRep_bin300_MJPPENNL_00977;dRep_bin279_IAEFEPEN_01295;dRep_bin344_CJJBDGAA_00875;dRep_bin328_GIGKNKPJ_01713;dRep_bin308_JBPDGLPP_01081;dRep_bin303_DDDNDJCF_01452;dRep_bin260_HELEPKJL_01814;dRep_bin240_LDBBGJKG_01949;dRep_bin211_LGJEFJIK_01488;dRep_bin201_OLKDIBOK_00486;dRep_bin186_HJAAFFNP_00498;dRep_bin161_JMKPMHCO_00510;dRep_bin140_ACFAKGIL_00966;dRep_bin139_KGAJINND_01935;dRep_bin127_FIPNHBCH_01109;dRep_bin091_MAFACGAD_00938;dRep_bin069_EGGEOGDC_00173;dRep_bin065_DFABHCBI_01020;dRep_bin062_BOFBFLDA_00118;dRep_bin024_OLHDGABE_00006;dRep_bin016_JLGAHGOJ_01717;dRep_bin347_EKGCMFPD_00813;dRep_bin332_KAOPCDPF_00718;dRep_bin322_OJELOJOF_01104;dRep_bin310_IMBAFDIF_01100;dRep_bin306_FGHMKMMP_01495;dRep_bin282_PKAAPBFP_00123;dRep_bin266_JFOCEDAE_01441;dRep_bin249_OFIIEIDJ_00818;dRep_bin248_CCDFPECI_00304;dRep_bin234_ECABPBME_02078;dRep_bin181_MKGPMPIA_00013;dRep_bin160_EFKMPBOM_00454;dRep_bin158_OGFICEAP_01438;dRep_bin154_JGOKHKLI_00210;dRep_bin145_KMJJJOEJ_01040;dRep_bin135_HHKACLPM_01477;dRep_bin107_EFNBPDOP_01455;dRep_bin089_PAJFOJBN_01775;dRep_bin081_JDPCKDNP_00410;dRep_bin077_DNNBMPMC_01401;dRep_bin075_EPEMMOCL_00061;dRep_bin027_OFJCHLJJ_01614;dRep_bin023_HGFJFKAI_00593;dRep_bin019_MOJEPLJF_00571;dRep_bin007_LNLEAAAN_01143;dRep_bin005_CNDFPKJG_01435;dRep_bin001_GHHJMDAL_01190	dRep_bin292_JIBLDOOH_01063;dRep_bin041_OPKGAAAG_01075;dRep_bin209_NKIHFCEN_01331;dRep_bin269_PNILGKPH_00386;dRep_bin039_IJNOFOJK_00028;dRep_bin324_IPNHOHFK_01206;dRep_bin300_MJPPENNL_00977;dRep_bin279_IAEFEPEN_01295	>dRep_bin292_JIBLDOOH_01063 50S ribosomal protein L21;>dRep_bin041_OPKGAAAG_01075 50S ribosomal protein L21;>dRep_bin209_NKIHFCEN_01331 50S ribosomal protein L21;>dRep_bin269_PNILGKPH_00386 50S ribosomal protein L21;>dRep_bin039_IJNOFOJK_00028 50S ribosoma	dRep_bin158_OGFICEAP_01438	CDS	rplU		50S ribosomal protein L21
OGFICEAP_01465					25.405189999999997							2	2	7,4204E-09	dRep_bin047_IFFANOMN_01382;dRep_bin019_MOJEPLJF_01837;dRep_bin260_HELEPKJL_00817;dRep_bin158_OGFICEAP_01465;dRep_bin115_IFKGOGCL_01465;dRep_bin016_JLGAHGOJ_01175;dRep_bin203_CLFNNOCF_01539;dRep_bin179_HFEIPPPA_01127;dRep_bin157_JPNIKEKI_00677;dRep_bin041_OPKGAAAG_01323;dRep_bin209_NKIHFCEN_01038	dRep_bin047_IFFANOMN_01382;dRep_bin019_MOJEPLJF_01837;dRep_bin260_HELEPKJL_00817;dRep_bin158_OGFICEAP_01465;dRep_bin115_IFKGOGCL_01465;dRep_bin016_JLGAHGOJ_01175;dRep_bin203_CLFNNOCF_01539;dRep_bin179_HFEIPPPA_01127;dRep_bin157_JPNIKEKI_00677;dRep_bin041_OPKGAAAG_01323;dRep_bin209_NKIHFCEN_01038	>dRep_bin047_IFFANOMN_01382 Orotidine 5-phosphate decarboxylase;>dRep_bin019_MOJEPLJF_01837 Orotidine 5-phosphate decarboxylase;>dRep_bin260_HELEPKJL_00817 Orotidine 5-phosphate decarboxylase;>dRep_bin158_OGFICEAP_01465 Orotidine 5-phosphate decarboxyl	dRep_bin158_OGFICEAP_01465	CDS	pyrF	4.1.1.23	Orotidine 5'-phosphate decarboxylase
OGFICEAP_01500	27.461699999999997											4	0	3,2178E-113	dRep_bin158_OGFICEAP_01500	dRep_bin158_OGFICEAP_01500	>dRep_bin158_OGFICEAP_01500 hypothetical protein	dRep_bin158_OGFICEAP_01500	CDS			hypothetical protein
OGFICEAP_01542							26.440659999999998	26.22				2	2	1,4031E-18	dRep_bin158_OGFICEAP_01542	dRep_bin158_OGFICEAP_01542	>dRep_bin158_OGFICEAP_01542 hypothetical protein	dRep_bin158_OGFICEAP_01542	CDS			hypothetical protein
OGFICEAP_01552	24.52193	24.748679999999997										2	2	3,4608E-05	dRep_bin158_OGFICEAP_01552;dRep_bin248_CCDFPECI_01552;dRep_bin095_HOBNOEEF_01425	dRep_bin158_OGFICEAP_01552;dRep_bin248_CCDFPECI_01552;dRep_bin095_HOBNOEEF_01425	>dRep_bin158_OGFICEAP_01552 Sulfurtransferase TusA;>dRep_bin248_CCDFPECI_01552 Sulfurtransferase TusA;>dRep_bin095_HOBNOEEF_01425 Sulfurtransferase TusA	dRep_bin158_OGFICEAP_01552	CDS			Sulfurtransferase TusA
OGFICEAP_01582	26.409309999999998	26.73518	27.015850000000004	25.91205								4	2	1,2093E-20	dRep_bin336_MPGOKPOL_00896;dRep_bin147_EJLBNEBE_00136;dRep_bin085_MBHLGCDB_00357;dRep_bin238_OLNFACLE_01925;dRep_bin339_DBNBAHDK_02208;dRep_bin262_LLCGOPIE_00576;dRep_bin332_KAOPCDPF_00403;dRep_bin321_EJNAAGJG_01053;dRep_bin186_HJAAFFNP_01167;dRep_bin158_OGFICEAP_01582;dRep_bin145_KMJJJOEJ_00451;dRep_bin295_EJGKDKNE_00688;dRep_bin243_JDMELKLC_00439;dRep_bin194_MEPDOGGJ_00203;dRep_bin152_LJMCIADF_01105;dRep_bin101_BNDDLDCL_00447;dRep_bin079_GAOGCKND_00351;dRep_bin068_ENOLAELK_00629;dRep_bin026_HNPIIINL_01484;dRep_bin025_CBEJJMLE_00462;dRep_bin125_FADLGGII_01452;dRep_bin123_PJKBFKBB_00308;dRep_bin354_MMOALAFN_00213;dRep_bin248_CCDFPECI_00809;dRep_bin268_LKMHIMLG_00072;dRep_bin090_IPGNHCBJ_01072	dRep_bin336_MPGOKPOL_00896;dRep_bin147_EJLBNEBE_00136;dRep_bin085_MBHLGCDB_00357	>dRep_bin336_MPGOKPOL_00896 Serine hydroxymethyltransferase;>dRep_bin147_EJLBNEBE_00136 Serine hydroxymethyltransferase;>dRep_bin085_MBHLGCDB_00357 Serine hydroxymethyltransferase	dRep_bin158_OGFICEAP_01582	CDS	glyA	2.1.2.1	Serine hydroxymethyltransferase
OGFICEAP_01624						26.7618						1	1	6,3895E-11	dRep_bin095_HOBNOEEF_02030;dRep_bin203_CLFNNOCF_00407;dRep_bin135_HHKACLPM_01560;dRep_bin005_CNDFPKJG_00657;dRep_bin322_OJELOJOF_01582;dRep_bin310_IMBAFDIF_01593;dRep_bin269_PNILGKPH_01090;dRep_bin134_HIAPAODO_00124;dRep_bin075_EPEMMOCL_02033;dRep_bin248_CCDFPECI_01608;dRep_bin158_OGFICEAP_01624;dRep_bin115_IFKGOGCL_00555;dRep_bin324_IPNHOHFK_01145;dRep_bin297_EDHEEICA_00686;dRep_bin282_PKAAPBFP_00656;dRep_bin179_HFEIPPPA_00189;dRep_bin168_HKDILBFE_01398;dRep_bin041_OPKGAAAG_01276;dRep_bin292_JIBLDOOH_02196;dRep_bin261_FJICAFFM_00056;dRep_bin226_NLNLHLLD_01358;dRep_bin209_NKIHFCEN_00790;dRep_bin157_JPNIKEKI_00582	dRep_bin095_HOBNOEEF_02030;dRep_bin203_CLFNNOCF_00407;dRep_bin135_HHKACLPM_01560;dRep_bin005_CNDFPKJG_00657;dRep_bin322_OJELOJOF_01582;dRep_bin310_IMBAFDIF_01593;dRep_bin269_PNILGKPH_01090;dRep_bin134_HIAPAODO_00124;dRep_bin075_EPEMMOCL_02033;dRep_bin248_CCDFPECI_01608;dRep_bin158_OGFICEAP_01624;dRep_bin115_IFKGOGCL_00555;dRep_bin324_IPNHOHFK_01145;dRep_bin297_EDHEEICA_00686;dRep_bin282_PKAAPBFP_00656;dRep_bin179_HFEIPPPA_00189;dRep_bin168_HKDILBFE_01398;dRep_bin041_OPKGAAAG_01276;dRep_bin292_JIBLDOOH_02196;dRep_bin261_FJICAFFM_00056;dRep_bin226_NLNLHLLD_01358;dRep_bin209_NKIHFCEN_00790;dRep_bin157_JPNIKEKI_00582	>dRep_bin095_HOBNOEEF_02030 Methylmalonyl-CoA carboxyltransferase 5S subunit;>dRep_bin203_CLFNNOCF_00407 Methylmalonyl-CoA carboxyltransferase 5S subunit;>dRep_bin135_HHKACLPM_01560 Methylmalonyl-CoA carboxyltransferase 5S subunit;>dRep_bin005_CNDFPKJG_006	dRep_bin158_OGFICEAP_01624	CDS		2.1.3.1	Methylmalonyl-CoA carboxyltransferase 5S subunit
OGFICEAP_01642	27.18215	26.598039999999997	27.460529999999995	27.45599	26.30072	26.116090000000003		26.71122				6	0	1,4132E-56	dRep_bin209_NKIHFCEN_00818;dRep_bin158_OGFICEAP_01642;dRep_bin133_NOBPDBPA_01189;dRep_bin145_KMJJJOEJ_01323;dRep_bin127_FIPNHBCH_00570;dRep_bin134_HIAPAODO_01495	dRep_bin209_NKIHFCEN_00818;dRep_bin158_OGFICEAP_01642	>dRep_bin209_NKIHFCEN_00818 UDP-glucose 4-epimerase;>dRep_bin158_OGFICEAP_01642 UDP-glucose 4-epimerase	dRep_bin158_OGFICEAP_01642	CDS	lnpD_2	5.1.3.2	UDP-glucose 4-epimerase
OGFICEAP_01696	27.78606	29.85522	27.926429999999996	27.88099								9	2	4,3568E-32	dRep_bin016_JLGAHGOJ_00518;dRep_bin134_HIAPAODO_00931;dRep_bin240_LDBBGJKG_01106;dRep_bin248_CCDFPECI_00419;dRep_bin323_FBBLPLCG_01558;dRep_bin158_OGFICEAP_01696;dRep_bin114_FJHJKHGL_01147	dRep_bin016_JLGAHGOJ_00518;dRep_bin134_HIAPAODO_00931	>dRep_bin016_JLGAHGOJ_00518 Diflavin flavoprotein A 1;>dRep_bin134_HIAPAODO_00931 Diflavin flavoprotein A 1	dRep_bin158_OGFICEAP_01696	CDS	hrb_2		High molecular weight rubredoxin
OGFICEAP_01837	26.99129	26.37753	27.482699999999994	27.123960000000004	27.112070000000003	26.18756	26.13071	26.30742				5	0	1,3679E-12	dRep_bin218_ACMPALGF_01167;dRep_bin095_HOBNOEEF_01880;dRep_bin158_OGFICEAP_01837;dRep_bin282_PKAAPBFP_00474;dRep_bin266_JFOCEDAE_00998;dRep_bin095_HOBNOEEF_01782;dRep_bin335_JIOGNAPG_00125;dRep_bin135_HHKACLPM_00469;dRep_bin328_GIGKNKPJ_01330	dRep_bin218_ACMPALGF_01167;dRep_bin095_HOBNOEEF_01880;dRep_bin158_OGFICEAP_01837;dRep_bin282_PKAAPBFP_00474;dRep_bin266_JFOCEDAE_00998;dRep_bin095_HOBNOEEF_01782	>dRep_bin218_ACMPALGF_01167 30S ribosomal protein S5;>dRep_bin095_HOBNOEEF_01880 30S ribosomal protein S5;>dRep_bin158_OGFICEAP_01837 30S ribosomal protein S5;>dRep_bin282_PKAAPBFP_00474 30S ribosomal protein S5;>dRep_bin266_JFOCEDAE_00998 30S ribosomal pr	dRep_bin158_OGFICEAP_01837	CDS	rpsE		30S ribosomal protein S5
OGFICEAP_01844					23.84738	21.44698	22.59994	22.59621				4	1	1,6537E-12	dRep_bin095_HOBNOEEF_02143;dRep_bin005_CNDFPKJG_01243;dRep_bin310_IMBAFDIF_01073;dRep_bin158_OGFICEAP_01844;dRep_bin047_IFFANOMN_01995;dRep_bin348_LCLFDNEE_00129;dRep_bin088_DNGPPFDK_00883;dRep_bin019_MOJEPLJF_00878;dRep_bin306_FGHMKMMP_01415;dRep_bin282_PKAAPBFP_01259;dRep_bin211_LGJEFJIK_01231;dRep_bin089_PAJFOJBN_01458;dRep_bin260_HELEPKJL_02091;dRep_bin007_LNLEAAAN_01036;dRep_bin136_NAIECEIF_01114;dRep_bin351_CKFFBPHM_01653;dRep_bin028_GKEJLBAM_00395;dRep_bin339_DBNBAHDK_01331	dRep_bin095_HOBNOEEF_02143;dRep_bin005_CNDFPKJG_01243;dRep_bin310_IMBAFDIF_01073;dRep_bin158_OGFICEAP_01844;dRep_bin047_IFFANOMN_01995;dRep_bin348_LCLFDNEE_00129	>dRep_bin095_HOBNOEEF_02143 Aspartate carbamoyltransferase catalytic subunit;>dRep_bin005_CNDFPKJG_01243 Aspartate carbamoyltransferase catalytic subunit;>dRep_bin310_IMBAFDIF_01073 Aspartate carbamoyltransferase catalytic subunit;>dRep_bin158_OGFICEAP_018	dRep_bin158_OGFICEAP_01844	CDS	pyrB	2.1.3.2	Aspartate carbamoyltransferase catalytic subunit
OGFICEAP_01934	23.209509999999998											13	1	0	dRep_bin158_OGFICEAP_01934	dRep_bin158_OGFICEAP_01934	>dRep_bin158_OGFICEAP_01934 Phosphoglycerate kinase	dRep_bin158_OGFICEAP_01934	CDS	pgk_2	2.7.2.3	Phosphoglycerate kinase
OGFICEAP_01935						23.10471						7	1	7,414E-25	dRep_bin209_NKIHFCEN_00257;dRep_bin158_OGFICEAP_01935	dRep_bin209_NKIHFCEN_00257;dRep_bin158_OGFICEAP_01935	>dRep_bin209_NKIHFCEN_00257 Glyceraldehyde-3-phosphate dehydrogenase;>dRep_bin158_OGFICEAP_01935 Glyceraldehyde-3-phosphate dehydrogenase	dRep_bin158_OGFICEAP_01935	CDS	gap_2	1.2.1.12	Glyceraldehyde-3-phosphate dehydrogenase
OGFICEAP_01941	25.14422											1	1	4,9544E-17	dRep_bin201_OLKDIBOK_02658;dRep_bin158_OGFICEAP_01941;dRep_bin095_HOBNOEEF_00524	dRep_bin201_OLKDIBOK_02658;dRep_bin158_OGFICEAP_01941;dRep_bin095_HOBNOEEF_00524	>dRep_bin201_OLKDIBOK_02658 Phosphocarrier protein HPr;>dRep_bin158_OGFICEAP_01941 Phosphocarrier protein HPr;>dRep_bin095_HOBNOEEF_00524 Phosphocarrier protein HPr	dRep_bin158_OGFICEAP_01941	CDS	ptsH_2	2.7.11.-	Phosphocarrier protein HPr
OGFICEAP_01972	29.677900000000005	30.21882	29.53938	29.54946	29.77657	29.07202	29.73713	29.88536				16	6	6,1566E-290	dRep_bin158_OGFICEAP_01972;dRep_bin303_DDDNDJCF_00730	dRep_bin158_OGFICEAP_01972	>dRep_bin158_OGFICEAP_01972 L-arabinose isomerase	dRep_bin158_OGFICEAP_01972	CDS	araA	5.3.1.4	L-arabinose isomerase
OGFICEAP_01973	24.772229999999997	25.576639999999998	24.79704									4	1	4,2286E-17	dRep_bin158_OGFICEAP_01973	dRep_bin158_OGFICEAP_01973	>dRep_bin158_OGFICEAP_01973 L-ribulose-5-phosphate 4-epimerase UlaF	dRep_bin158_OGFICEAP_01973	CDS	ulaF_2	5.1.3.4	L-ribulose-5-phosphate 4-epimerase UlaF
OGFICEAP_01974	26.334600000000002	26.89655	26.43635	26.14478	26.166719999999998	25.62734	25.767689999999998	25.968669999999996				6	3	8,341E-19	dRep_bin158_OGFICEAP_01974	dRep_bin158_OGFICEAP_01974	>dRep_bin158_OGFICEAP_01974 L-fuculokinase	dRep_bin158_OGFICEAP_01974	CDS	fucK	2.7.1.51	L-fuculokinase
OGFICEAP_02041	26.75723	26.03248	26.532429999999998		27.5034	26.667360000000002	28.461429999999996	27.981689999999997				5	0	9,8783E-13	dRep_bin328_GIGKNKPJ_00624;dRep_bin254_GJDPFAEA_00296;dRep_bin186_HJAAFFNP_00793;dRep_bin167_BLMEBMNN_01306;dRep_bin260_HELEPKJL_02061;dRep_bin248_CCDFPECI_00936;dRep_bin308_JBPDGLPP_01162;dRep_bin127_FIPNHBCH_01208;dRep_bin069_EGGEOGDC_00476;dRep_bin024_OLHDGABE_00336;dRep_bin158_OGFICEAP_02041;dRep_bin297_EDHEEICA_00455;dRep_bin160_EFKMPBOM_00755;dRep_bin154_JGOKHKLI_01879;dRep_bin047_IFFANOMN_02058;dRep_bin001_GHHJMDAL_00923;dRep_bin065_DFABHCBI_00260;dRep_bin310_IMBAFDIF_00693;dRep_bin269_PNILGKPH_00789;dRep_bin234_ECABPBME_02333;dRep_bin039_IJNOFOJK_01271;dRep_bin344_CJJBDGAA_00733	dRep_bin328_GIGKNKPJ_00624;dRep_bin254_GJDPFAEA_00296;dRep_bin186_HJAAFFNP_00793;dRep_bin167_BLMEBMNN_01306;dRep_bin260_HELEPKJL_02061;dRep_bin248_CCDFPECI_00936;dRep_bin308_JBPDGLPP_01162;dRep_bin127_FIPNHBCH_01208;dRep_bin069_EGGEOGDC_00476;dRep_bin024_OLHDGABE_00336;dRep_bin158_OGFICEAP_02041;dRep_bin297_EDHEEICA_00455;dRep_bin160_EFKMPBOM_00755;dRep_bin154_JGOKHKLI_01879;dRep_bin047_IFFANOMN_02058;dRep_bin001_GHHJMDAL_00923;dRep_bin065_DFABHCBI_00260;dRep_bin310_IMBAFDIF_00693;dRep_bin269_PNILGKPH_00789;dRep_bin234_ECABPBME_02333;dRep_bin039_IJNOFOJK_01271;dRep_bin344_CJJBDGAA_00733	>dRep_bin328_GIGKNKPJ_00624 hypothetical protein;>dRep_bin254_GJDPFAEA_00296 hypothetical protein;>dRep_bin186_HJAAFFNP_00793 hypothetical protein;>dRep_bin167_BLMEBMNN_01306 hypothetical protein;>dRep_bin260_HELEPKJL_02061 hypothetical protein;>dRep_bin24	dRep_bin158_OGFICEAP_02041	CDS			hypothetical protein
OGFICEAP_02077	27.81201	27.62178	27.502489999999998	27.902649999999998	27.641890000000004	26.87373	27.733890000000002	27.32268				4	0	9,2841E-12	dRep_bin266_JFOCEDAE_00469;dRep_bin158_OGFICEAP_02077;dRep_bin167_BLMEBMNN_01111;dRep_bin344_CJJBDGAA_01931;dRep_bin324_IPNHOHFK_00198;dRep_bin269_PNILGKPH_01184;dRep_bin297_EDHEEICA_00055;dRep_bin145_KMJJJOEJ_01157;dRep_bin107_EFNBPDOP_01472;dRep_bin310_IMBAFDIF_01195;dRep_bin300_MJPPENNL_00128;dRep_bin115_IFKGOGCL_01978;dRep_bin308_JBPDGLPP_01709;dRep_bin075_EPEMMOCL_01920;dRep_bin047_IFFANOMN_01370;dRep_bin089_PAJFOJBN_01930;dRep_bin261_FJICAFFM_00651;dRep_bin303_DDDNDJCF_01187;dRep_bin226_NLNLHLLD_00115;dRep_bin127_FIPNHBCH_00340;dRep_bin017_FGFLFOPJ_00355;dRep_bin077_DNNBMPMC_01598;dRep_bin039_IJNOFOJK_01428;dRep_bin186_HJAAFFNP_01660;dRep_bin065_DFABHCBI_00103;dRep_bin220_PILICLLL_01833;dRep_bin134_HIAPAODO_00139;dRep_bin135_HHKACLPM_00006;dRep_bin143_PFLDJMPF_00573;dRep_bin325_EIIGOGHN_00632;dRep_bin099_DNDAGJEJ_00069;dRep_bin293_MEPKGOAN_01336;dRep_bin074_EHAOMODJ_00677;dRep_bin335_JIOGNAPG_01692;dRep_bin260_HELEPKJL_01142;dRep_bin319_PBDBJGCJ_00729;dRep_bin211_LGJEFJIK_00866;dRep_bin168_HKDILBFE_00717;dRep_bin091_MAFACGAD_00274;dRep_bin248_CCDFPECI_01081;dRep_bin240_LDBBGJKG_00905;dRep_bin095_HOBNOEEF_01654;dRep_bin306_FGHMKMMP_00881;dRep_bin282_PKAAPBFP_01110;dRep_bin249_OFIIEIDJ_01129;dRep_bin347_EKGCMFPD_00530;dRep_bin284_DEHKNOBF_01449;dRep_bin001_GHHJMDAL_00488;dRep_bin181_MKGPMPIA_00635	dRep_bin266_JFOCEDAE_00469;dRep_bin158_OGFICEAP_02077;dRep_bin167_BLMEBMNN_01111;dRep_bin344_CJJBDGAA_01931;dRep_bin324_IPNHOHFK_00198;dRep_bin269_PNILGKPH_01184;dRep_bin297_EDHEEICA_00055;dRep_bin145_KMJJJOEJ_01157;dRep_bin107_EFNBPDOP_01472;dRep_bin310_IMBAFDIF_01195;dRep_bin300_MJPPENNL_00128;dRep_bin115_IFKGOGCL_01978;dRep_bin308_JBPDGLPP_01709;dRep_bin075_EPEMMOCL_01920;dRep_bin047_IFFANOMN_01370;dRep_bin089_PAJFOJBN_01930;dRep_bin261_FJICAFFM_00651;dRep_bin303_DDDNDJCF_01187;dRep_bin226_NLNLHLLD_00115;dRep_bin127_FIPNHBCH_00340;dRep_bin017_FGFLFOPJ_00355;dRep_bin077_DNNBMPMC_01598;dRep_bin039_IJNOFOJK_01428;dRep_bin186_HJAAFFNP_01660;dRep_bin065_DFABHCBI_00103;dRep_bin220_PILICLLL_01833;dRep_bin134_HIAPAODO_00139;dRep_bin135_HHKACLPM_00006	>dRep_bin266_JFOCEDAE_00469 Phosphoribosylamine--glycine ligase;>dRep_bin158_OGFICEAP_02077 Phosphoribosylamine--glycine ligase;>dRep_bin167_BLMEBMNN_01111 Phosphoribosylamine--glycine ligase;>dRep_bin344_CJJBDGAA_01931 Phosphoribosylamine--glycine ligase;	dRep_bin158_OGFICEAP_02077	CDS	purD	6.3.4.13	Phosphoribosylamine--glycine ligase
OGFICEAP_02112				21.702019999999997								1	1	4,9207E-05	dRep_bin158_OGFICEAP_02112;dRep_bin095_HOBNOEEF_01349;dRep_bin248_CCDFPECI_00042	dRep_bin158_OGFICEAP_02112;dRep_bin095_HOBNOEEF_01349;dRep_bin248_CCDFPECI_00042	>dRep_bin158_OGFICEAP_02112 Uridylate kinase;>dRep_bin095_HOBNOEEF_01349 Uridylate kinase;>dRep_bin248_CCDFPECI_00042 Uridylate kinase	dRep_bin158_OGFICEAP_02112	CDS	pyrH	2.7.4.22	Uridylate kinase
OGFICEAP_02122	23.48493	24.78297	23.90095	23.661990000000003	23.425089999999997			23.202619999999996				3	3	1,1927E-18	dRep_bin158_OGFICEAP_02122	dRep_bin158_OGFICEAP_02122	>dRep_bin158_OGFICEAP_02122 putative M18 family aminopeptidase 1	dRep_bin158_OGFICEAP_02122	CDS	apeA_2	3.4.11.-	putative M18 family aminopeptidase 1
OGFICEAP_02128								23.175850000000004				2	2	7,8939E-05	dRep_bin139_KGAJINND_01641;dRep_bin248_CCDFPECI_01582;dRep_bin158_OGFICEAP_02128;dRep_bin269_PNILGKPH_01823;dRep_bin094_LBLICAAO_00377;dRep_bin016_JLGAHGOJ_01883;dRep_bin019_MOJEPLJF_01847;dRep_bin310_IMBAFDIF_00375;dRep_bin021_AJDDCGJC_00096;dRep_bin027_OFJCHLJJ_01476	dRep_bin139_KGAJINND_01641;dRep_bin248_CCDFPECI_01582;dRep_bin158_OGFICEAP_02128;dRep_bin269_PNILGKPH_01823;dRep_bin094_LBLICAAO_00377;dRep_bin016_JLGAHGOJ_01883;dRep_bin019_MOJEPLJF_01847;dRep_bin310_IMBAFDIF_00375;dRep_bin021_AJDDCGJC_00096;dRep_bin027_OFJCHLJJ_01476	>dRep_bin139_KGAJINND_01641 Oligo-1,6-glucosidase;>dRep_bin248_CCDFPECI_01582 Oligo-1,6-glucosidase;>dRep_bin158_OGFICEAP_02128 Oligo-1,6-glucosidase;>dRep_bin269_PNILGKPH_01823 Oligo-1,6-glucosidase;>dRep_bin094_LBLICAAO_00377 Oligo-1,6-glucosidase;>dRep_	dRep_bin158_OGFICEAP_02128	CDS	malL_1	3.2.1.10	Oligo-1,6-glucosidase
OGFICEAP_02130	25.8986	25.973339999999997	26.19903	26.281	26.514310000000002	26.59049	25.7571	26.25906				4	1	4,6283E-12	dRep_bin145_KMJJJOEJ_01258;dRep_bin242_LKAIBGGJ_00691;dRep_bin081_JDPCKDNP_01525;dRep_bin317_ABPHNCOD_01232;dRep_bin347_EKGCMFPD_00789;dRep_bin282_PKAAPBFP_00053;dRep_bin039_IJNOFOJK_00980;dRep_bin001_GHHJMDAL_00862;dRep_bin272_LGBDGEIM_01970;dRep_bin186_HJAAFFNP_02184;dRep_bin005_CNDFPKJG_01374;dRep_bin332_KAOPCDPF_00412;dRep_bin167_BLMEBMNN_01248;dRep_bin260_HELEPKJL_00916;dRep_bin160_EFKMPBOM_00919;dRep_bin209_NKIHFCEN_00567;dRep_bin158_OGFICEAP_02130;dRep_bin283_NLJJFFAC_01508;dRep_bin278_BFCONKOE_00571;dRep_bin325_EIIGOGHN_00662;dRep_bin218_ACMPALGF_01369;dRep_bin094_LBLICAAO_00052;dRep_bin299_AKNBKJGM_01021;dRep_bin157_JPNIKEKI_01309;dRep_bin075_EPEMMOCL_02359;dRep_bin055_IBMMJAEE_00109;dRep_bin306_FGHMKMMP_00327;dRep_bin216_JNJMCPHB_00254;dRep_bin292_JIBLDOOH_01625;dRep_bin179_HFEIPPPA_02175;dRep_bin133_NOBPDBPA_01803;dRep_bin088_DNGPPFDK_01392;dRep_bin024_OLHDGABE_00503;dRep_bin324_IPNHOHFK_01870;dRep_bin203_CLFNNOCF_00851;dRep_bin017_FGFLFOPJ_00925;dRep_bin065_DFABHCBI_01998;dRep_bin192_GCMBELNN_00043;dRep_bin310_IMBAFDIF_01495;dRep_bin218_ACMPALGF_00670	dRep_bin145_KMJJJOEJ_01258;dRep_bin242_LKAIBGGJ_00691;dRep_bin081_JDPCKDNP_01525;dRep_bin317_ABPHNCOD_01232;dRep_bin347_EKGCMFPD_00789;dRep_bin282_PKAAPBFP_00053;dRep_bin039_IJNOFOJK_00980;dRep_bin001_GHHJMDAL_00862;dRep_bin272_LGBDGEIM_01970;dRep_bin186_HJAAFFNP_02184;dRep_bin005_CNDFPKJG_01374;dRep_bin332_KAOPCDPF_00412;dRep_bin167_BLMEBMNN_01248;dRep_bin260_HELEPKJL_00916;dRep_bin160_EFKMPBOM_00919;dRep_bin209_NKIHFCEN_00567;dRep_bin158_OGFICEAP_02130;dRep_bin283_NLJJFFAC_01508;dRep_bin278_BFCONKOE_00571;dRep_bin325_EIIGOGHN_00662;dRep_bin218_ACMPALGF_01369;dRep_bin094_LBLICAAO_00052;dRep_bin299_AKNBKJGM_01021;dRep_bin157_JPNIKEKI_01309;dRep_bin075_EPEMMOCL_02359;dRep_bin055_IBMMJAEE_00109;dRep_bin306_FGHMKMMP_00327;dRep_bin216_JNJMCPHB_00254;dRep_bin292_JIBLDOOH_01625;dRep_bin179_HFEIPPPA_02175;dRep_bin133_NOBPDBPA_01803;dRep_bin088_DNGPPFDK_01392;dRep_bin024_OLHDGABE_00503;dRep_bin324_IPNHOHFK_01870;dRep_bin203_CLFNNOCF_00851;dRep_bin017_FGFLFOPJ_00925;dRep_bin065_DFABHCBI_01998	>dRep_bin145_KMJJJOEJ_01258 GMP synthase [glutamine-hydrolyzing];>dRep_bin242_LKAIBGGJ_00691 GMP synthase [glutamine-hydrolyzing];>dRep_bin081_JDPCKDNP_01525 GMP synthase [glutamine-hydrolyzing];>dRep_bin317_ABPHNCOD_01232 GMP synthase [glutamine-hydrolyzi	dRep_bin158_OGFICEAP_02130	CDS	guaA	6.3.5.2	GMP synthase [glutamine-hydrolyzing]
OGFICEAP_02133												10	1	1,2267E-25	dRep_bin158_OGFICEAP_02133	dRep_bin158_OGFICEAP_02133	>dRep_bin158_OGFICEAP_02133 Elongation factor G	dRep_bin158_OGFICEAP_02133	CDS	fusA_2		Elongation factor G
OGFICEAP_02134	25.983829999999998		25.631950000000007	25.93807	26.49647	26.139680000000002	24.969649999999998	26.27546				15	2	7,482E-173	dRep_bin158_OGFICEAP_02134	dRep_bin158_OGFICEAP_02134	>dRep_bin158_OGFICEAP_02134 Elongation factor Tu	dRep_bin158_OGFICEAP_02134	CDS	tuf		Elongation factor Tu
OGFICEAP_02168				24.52409								3	1	3,0363E-62	dRep_bin157_JPNIKEKI_01307;dRep_bin039_IJNOFOJK_01899;dRep_bin186_HJAAFFNP_00774;dRep_bin318_IEDEJOFJ_01639;dRep_bin164_KHMELCCL_00132;dRep_bin328_GIGKNKPJ_01195;dRep_bin260_HELEPKJL_01523;dRep_bin287_DONBGKDH_01508;dRep_bin158_OGFICEAP_02168;dRep_bin127_FIPNHBCH_00569;dRep_bin115_IFKGOGCL_02347;dRep_bin099_DNDAGJEJ_00641;dRep_bin308_JBPDGLPP_01860;dRep_bin333_EFOKIBLA_01083;dRep_bin321_EJNAAGJG_00266;dRep_bin273_FGAEBHNP_00052;dRep_bin299_AKNBKJGM_00308;dRep_bin216_JNJMCPHB_01326;dRep_bin094_LBLICAAO_00532;dRep_bin295_EJGKDKNE_01389;dRep_bin021_AJDDCGJC_00388;dRep_bin336_MPGOKPOL_01887;dRep_bin147_EJLBNEBE_01158;dRep_bin091_MAFACGAD_00923;dRep_bin261_FJICAFFM_00349;dRep_bin203_CLFNNOCF_01032;dRep_bin292_JIBLDOOH_00170;dRep_bin324_IPNHOHFK_01855;dRep_bin133_NOBPDBPA_02057;dRep_bin179_HFEIPPPA_01406;dRep_bin297_EDHEEICA_01152;dRep_bin005_CNDFPKJG_00713	dRep_bin157_JPNIKEKI_01307;dRep_bin039_IJNOFOJK_01899;dRep_bin186_HJAAFFNP_00774;dRep_bin318_IEDEJOFJ_01639;dRep_bin164_KHMELCCL_00132;dRep_bin328_GIGKNKPJ_01195;dRep_bin260_HELEPKJL_01523;dRep_bin287_DONBGKDH_01508;dRep_bin158_OGFICEAP_02168;dRep_bin127_FIPNHBCH_00569;dRep_bin115_IFKGOGCL_02347;dRep_bin099_DNDAGJEJ_00641;dRep_bin308_JBPDGLPP_01860;dRep_bin333_EFOKIBLA_01083;dRep_bin321_EJNAAGJG_00266;dRep_bin273_FGAEBHNP_00052;dRep_bin299_AKNBKJGM_00308;dRep_bin216_JNJMCPHB_01326;dRep_bin094_LBLICAAO_00532;dRep_bin295_EJGKDKNE_01389;dRep_bin021_AJDDCGJC_00388;dRep_bin336_MPGOKPOL_01887;dRep_bin147_EJLBNEBE_01158;dRep_bin091_MAFACGAD_00923;dRep_bin261_FJICAFFM_00349;dRep_bin203_CLFNNOCF_01032;dRep_bin292_JIBLDOOH_00170;dRep_bin324_IPNHOHFK_01855;dRep_bin133_NOBPDBPA_02057;dRep_bin179_HFEIPPPA_01406;dRep_bin297_EDHEEICA_01152;dRep_bin005_CNDFPKJG_00713	>dRep_bin157_JPNIKEKI_01307 Galactose-1-phosphate uridylyltransferase;>dRep_bin039_IJNOFOJK_01899 Galactose-1-phosphate uridylyltransferase;>dRep_bin186_HJAAFFNP_00774 Galactose-1-phosphate uridylyltransferase;>dRep_bin318_IEDEJOFJ_01639 Galactose-1-phosph	dRep_bin158_OGFICEAP_02168	CDS	galT	2.7.7.12	Galactose-1-phosphate uridylyltransferase
OGFICEAP_02170	26.534880000000005	26.20075	26.6975	26.697100000000002	27.33262	25.499599999999997	25.70617	25.12021				10	2	1,4411E-74	dRep_bin158_OGFICEAP_02170;dRep_bin069_EGGEOGDC_01648	dRep_bin158_OGFICEAP_02170	>dRep_bin158_OGFICEAP_02170 Formate acetyltransferase	dRep_bin158_OGFICEAP_02170	CDS	pflB	2.3.1.54	Formate acetyltransferase
OGFICEAP_02182	26.615830000000003	29.22083	27.09979	26.626450000000002								14	0	3,7203E-252	dRep_bin158_OGFICEAP_02182	dRep_bin158_OGFICEAP_02182	>dRep_bin158_OGFICEAP_02182 hypothetical protein	dRep_bin158_OGFICEAP_02182	CDS			hypothetical protein
OGFICEAP_02183		24.341639999999998										2	1	2,6905E-05	dRep_bin158_OGFICEAP_02183	dRep_bin158_OGFICEAP_02183	>dRep_bin158_OGFICEAP_02183 Xylulose kinase	dRep_bin158_OGFICEAP_02183	CDS	xylB_3	2.7.1.17	Xylulose kinase
OGFICEAP_02209	25.089019999999998	26.15217		25.962099999999996								7	2	7,9334E-27	dRep_bin158_OGFICEAP_02209	dRep_bin158_OGFICEAP_02209	>dRep_bin158_OGFICEAP_02209 Phosphoserine aminotransferase	dRep_bin158_OGFICEAP_02209	CDS	serC	2.6.1.52	Phosphoserine aminotransferase
OGFICEAP_02211		24.72998										1	1	8,7672E-05	dRep_bin031_BNHMFOII_01781;dRep_bin090_IPGNHCBJ_01053;dRep_bin158_OGFICEAP_02211	dRep_bin031_BNHMFOII_01781;dRep_bin090_IPGNHCBJ_01053;dRep_bin158_OGFICEAP_02211	>dRep_bin031_BNHMFOII_01781 Sirohydrochlorin cobaltochelatase;>dRep_bin090_IPGNHCBJ_01053 Sirohydrochlorin cobaltochelatase;>dRep_bin158_OGFICEAP_02211 Sirohydrochlorin cobaltochelatase	dRep_bin158_OGFICEAP_02211	CDS	cbiK_2	4.99.1.3	Sirohydrochlorin cobaltochelatase
