GBprotID	LFQ intensity CtrPig1	LFQ intensity CtrPig2	LFQ intensity CtrPig3	LFQ intensity CtrPig4	LFQ intensity MannanPig1	LFQ intensity MannanPig2	LFQ intensity MannanPig3	LFQ intensity MannanPig4	Only identified by site	Reverse	Contaminant	Peptides	Unique peptides	PEP	Protein IDs	Majority protein IDs	Fasta headers	IDcomb	ftype	gene	EC_number	product
ADJJGPBG_00038				25.623970000000003								10	1	1,1406E-30	dRep_bin043_KLAFNACO_01524;dRep_bin011_KOGMKLNO_01821;dRep_bin159_ADJJGPBG_00038	dRep_bin043_KLAFNACO_01524;dRep_bin011_KOGMKLNO_01821	>dRep_bin043_KLAFNACO_01524 Bifunctional PGK/TIM;>dRep_bin011_KOGMKLNO_01821 Bifunctional PGK/TIM	dRep_bin159_ADJJGPBG_00038	CDS	pgk/tpi		Bifunctional PGK/TIM
ADJJGPBG_00093		21.25603			22.842589999999998			22.8121				2	1	4,0939E-88	dRep_bin240_LDBBGJKG_00098;dRep_bin031_BNHMFOII_01241;dRep_bin142_NDNPJBEM_01312;dRep_bin248_CCDFPECI_01700;dRep_bin169_PNICKJKO_01291;dRep_bin257_JHFDCHCB_00613;dRep_bin322_OJELOJOF_00807;dRep_bin193_GDMDPNNM_00140;dRep_bin124_HIHDFGCL_00177;dRep_bin079_GAOGCKND_00330;dRep_bin068_ENOLAELK_00170;dRep_bin266_JFOCEDAE_01509;dRep_bin160_EFKMPBOM_01717;dRep_bin154_JGOKHKLI_02113;dRep_bin019_MOJEPLJF_00503;dRep_bin253_CPMOAOBJ_01331;dRep_bin056_EMNHHOJA_00831;dRep_bin335_JIOGNAPG_01465;dRep_bin152_LJMCIADF_01179;dRep_bin148_NAJFKJMD_01045;dRep_bin095_HOBNOEEF_01511;dRep_bin038_EIGFILKG_00469;dRep_bin243_JDMELKLC_00643;dRep_bin029_LFMGBBEC_01605;dRep_bin300_MJPPENNL_00271;dRep_bin279_IAEFEPEN_00816;dRep_bin159_ADJJGPBG_00093;dRep_bin143_PFLDJMPF_00341;dRep_bin205_LKIOOBKC_01861;dRep_bin135_HHKACLPM_01695	dRep_bin240_LDBBGJKG_00098;dRep_bin031_BNHMFOII_01241;dRep_bin142_NDNPJBEM_01312;dRep_bin248_CCDFPECI_01700;dRep_bin169_PNICKJKO_01291;dRep_bin257_JHFDCHCB_00613;dRep_bin322_OJELOJOF_00807;dRep_bin193_GDMDPNNM_00140;dRep_bin124_HIHDFGCL_00177;dRep_bin079_GAOGCKND_00330;dRep_bin068_ENOLAELK_00170;dRep_bin266_JFOCEDAE_01509;dRep_bin160_EFKMPBOM_01717;dRep_bin154_JGOKHKLI_02113;dRep_bin019_MOJEPLJF_00503;dRep_bin253_CPMOAOBJ_01331;dRep_bin056_EMNHHOJA_00831;dRep_bin335_JIOGNAPG_01465;dRep_bin152_LJMCIADF_01179;dRep_bin148_NAJFKJMD_01045;dRep_bin095_HOBNOEEF_01511;dRep_bin038_EIGFILKG_00469;dRep_bin243_JDMELKLC_00643;dRep_bin029_LFMGBBEC_01605;dRep_bin300_MJPPENNL_00271;dRep_bin279_IAEFEPEN_00816;dRep_bin159_ADJJGPBG_00093;dRep_bin143_PFLDJMPF_00341;dRep_bin205_LKIOOBKC_01861;dRep_bin135_HHKACLPM_01695	>dRep_bin240_LDBBGJKG_00098 Galactose-1-phosphate uridylyltransferase;>dRep_bin031_BNHMFOII_01241 Galactose-1-phosphate uridylyltransferase;>dRep_bin142_NDNPJBEM_01312 Galactose-1-phosphate uridylyltransferase;>dRep_bin248_CCDFPECI_01700 Galactose-1-phosph	dRep_bin159_ADJJGPBG_00093	CDS	galT	2.7.7.12	Galactose-1-phosphate uridylyltransferase
ADJJGPBG_00139					24.301870000000005		25.681990000000003	24.651850000000007				7	3	1,0652E-21	dRep_bin139_KGAJINND_01153;dRep_bin120_EKLBOPNC_00101;dRep_bin083_OCBADPJJ_00780;dRep_bin159_ADJJGPBG_00139;dRep_bin011_KOGMKLNO_01053;dRep_bin234_ECABPBME_00237;dRep_bin205_LKIOOBKC_00002;dRep_bin278_BFCONKOE_00986;dRep_bin335_JIOGNAPG_00454;dRep_bin189_AHHEHGDL_00148;dRep_bin168_HKDILBFE_01166;dRep_bin099_DNDAGJEJ_01458;dRep_bin208_DHPGEIBC_00208;dRep_bin304_JDNJGFKH_00703;dRep_bin320_LDBKCCKL_00918;dRep_bin167_BLMEBMNN_01289;dRep_bin222_GGCAJABB_00547	dRep_bin139_KGAJINND_01153	>dRep_bin139_KGAJINND_01153 Glycogen phosphorylase	dRep_bin159_ADJJGPBG_00139	CDS	glgP	2.4.1.1	Glycogen phosphorylase
ADJJGPBG_00194	28.357880000000005	27.656080000000003	28.228029999999997	28.57431	25.248659999999997	24.659810000000004	27.32217	27.05662				11	4	1,1736E-37	dRep_bin043_KLAFNACO_01540;dRep_bin245_MBCFLKOF_00677;dRep_bin320_LDBKCCKL_00736;dRep_bin011_KOGMKLNO_00151;dRep_bin159_ADJJGPBG_00194;dRep_bin104_EGLEJOLM_01160;dRep_bin189_AHHEHGDL_01717;dRep_bin205_LKIOOBKC_01484;dRep_bin076_GLAOFBEC_01293	dRep_bin043_KLAFNACO_01540;dRep_bin245_MBCFLKOF_00677;dRep_bin320_LDBKCCKL_00736	>dRep_bin043_KLAFNACO_01540 Phosphoenolpyruvate carboxykinase [GTP];>dRep_bin245_MBCFLKOF_00677 Phosphoenolpyruvate carboxykinase [GTP];>dRep_bin320_LDBKCCKL_00736 Phosphoenolpyruvate carboxykinase [GTP]	dRep_bin159_ADJJGPBG_00194	CDS	pckG	4.1.1.32	Phosphoenolpyruvate carboxykinase [GTP]
ADJJGPBG_00225	24.07218	23.716800000000003	23.95118	26.763439999999996	25.16549	24.475189999999998	24.676160000000003	26.104560000000003				15	4	9,6629E-89	dRep_bin292_JIBLDOOH_00231;dRep_bin297_EDHEEICA_01717;dRep_bin211_LGJEFJIK_01294;dRep_bin157_JPNIKEKI_01376;dRep_bin019_MOJEPLJF_01906;dRep_bin005_CNDFPKJG_01248;dRep_bin159_ADJJGPBG_00225;dRep_bin168_HKDILBFE_01106;dRep_bin099_DNDAGJEJ_00713;dRep_bin205_LKIOOBKC_01411;dRep_bin043_KLAFNACO_02125;dRep_bin245_MBCFLKOF_01021;dRep_bin023_HGFJFKAI_01546;dRep_bin101_BNDDLDCL_00015;dRep_bin010_MFFFGEGD_02440	dRep_bin292_JIBLDOOH_00231;dRep_bin297_EDHEEICA_01717;dRep_bin211_LGJEFJIK_01294	>dRep_bin292_JIBLDOOH_00231 Cellobiose phosphorylase;>dRep_bin297_EDHEEICA_01717 Cellobiose phosphorylase;>dRep_bin211_LGJEFJIK_01294 Cellobiose phosphorylase	dRep_bin159_ADJJGPBG_00225	CDS	cbpA	2.4.1.20	Cellobiose phosphorylase
ADJJGPBG_00242	26.69219	26.677750000000003	28.50582	26.90483	27.34621	26.46095	28.45348	28.25921				9	9	2,8765E-97	dRep_bin013_IODPEDPB_00271;dRep_bin175_HANCENAK_00859;dRep_bin353_PPDHLNJB_00514;dRep_bin040_EIFLLDOA_00002;dRep_bin304_JDNJGFKH_00740;dRep_bin120_EKLBOPNC_00840;dRep_bin159_ADJJGPBG_00242;dRep_bin043_KLAFNACO_01820;dRep_bin189_AHHEHGDL_01721	dRep_bin013_IODPEDPB_00271	>dRep_bin013_IODPEDPB_00271 Glutamate--tRNA ligase	dRep_bin159_ADJJGPBG_00242	CDS	gltX	6.1.1.17	Glutamate--tRNA ligase
ADJJGPBG_00251	27.73357	26.1831	25.77904	26.626870000000004								6	2	2,516E-90	dRep_bin162_JBGCCDIN_00873;dRep_bin189_AHHEHGDL_01035;dRep_bin208_DHPGEIBC_01391;dRep_bin072_JOBJPCGA_00855;dRep_bin245_MBCFLKOF_01845;dRep_bin222_GGCAJABB_00207;dRep_bin208_DHPGEIBC_00919;dRep_bin072_JOBJPCGA_01584;dRep_bin043_KLAFNACO_00070;dRep_bin010_MFFFGEGD_01375;dRep_bin205_LKIOOBKC_00550;dRep_bin159_ADJJGPBG_00251;dRep_bin120_EKLBOPNC_00734;dRep_bin011_KOGMKLNO_00047;dRep_bin120_EKLBOPNC_00562;dRep_bin320_LDBKCCKL_01220;dRep_bin320_LDBKCCKL_00925;dRep_bin245_MBCFLKOF_01332;dRep_bin222_GGCAJABB_00208;dRep_bin159_ADJJGPBG_00250;dRep_bin010_MFFFGEGD_00247;dRep_bin304_JDNJGFKH_01099;dRep_bin083_OCBADPJJ_01321;dRep_bin083_OCBADPJJ_00627	dRep_bin162_JBGCCDIN_00873;dRep_bin189_AHHEHGDL_01035;dRep_bin208_DHPGEIBC_01391;dRep_bin072_JOBJPCGA_00855	>dRep_bin162_JBGCCDIN_00873 Flagellar filament 31.3 kDa core protein;>dRep_bin189_AHHEHGDL_01035 Flagellar filament 31.3 kDa core protein;>dRep_bin208_DHPGEIBC_01391 Flagellar filament 31.3 kDa core protein;>dRep_bin072_JOBJPCGA_00855 Flagellar filament 31	dRep_bin159_ADJJGPBG_00251	CDS	flaB3		Flagellar filament 30.7 kDa core protein
ADJJGPBG_00425		25.58075										6	0	1,3543E-87	dRep_bin108_BPNCDINP_01326;dRep_bin089_PAJFOJBN_00301;dRep_bin300_MJPPENNL_00939;dRep_bin145_KMJJJOEJ_00792;dRep_bin091_MAFACGAD_01189;dRep_bin049_MNFBDPNO_00324;dRep_bin016_JLGAHGOJ_00954;dRep_bin157_JPNIKEKI_00961;dRep_bin297_EDHEEICA_00222;dRep_bin160_EFKMPBOM_02659;dRep_bin079_GAOGCKND_00457;dRep_bin068_ENOLAELK_00441;dRep_bin101_BNDDLDCL_01290;dRep_bin330_CODAKHDJ_00875;dRep_bin133_NOBPDBPA_00602;dRep_bin299_AKNBKJGM_01294;dRep_bin250_NMCAMJIO_01057;dRep_bin123_PJKBFKBB_00547;dRep_bin272_LGBDGEIM_01628;dRep_bin179_HFEIPPPA_01660;dRep_bin216_JNJMCPHB_01272;dRep_bin201_OLKDIBOK_01356;dRep_bin062_BOFBFLDA_00952;dRep_bin107_EFNBPDOP_00212;dRep_bin077_DNNBMPMC_01832;dRep_bin306_FGHMKMMP_01672;dRep_bin095_HOBNOEEF_00755;dRep_bin159_ADJJGPBG_00425;dRep_bin222_GGCAJABB_01443;dRep_bin310_IMBAFDIF_00623;dRep_bin181_MKGPMPIA_00586;dRep_bin074_EHAOMODJ_00159;dRep_bin073_AKBCEHHO_00467;dRep_bin285_IPHKFJAN_00913;dRep_bin228_CECEDMJG_00322;dRep_bin066_AJACLPEE_00029;dRep_bin276_EHNFLEBP_00509;dRep_bin021_AJDDCGJC_01318;dRep_bin104_EGLEJOLM_00960;dRep_bin327_EPEGNBAG_00068;dRep_bin241_LMMMGDNI_00158	dRep_bin108_BPNCDINP_01326;dRep_bin089_PAJFOJBN_00301;dRep_bin300_MJPPENNL_00939;dRep_bin145_KMJJJOEJ_00792;dRep_bin091_MAFACGAD_01189;dRep_bin049_MNFBDPNO_00324;dRep_bin016_JLGAHGOJ_00954;dRep_bin157_JPNIKEKI_00961;dRep_bin297_EDHEEICA_00222;dRep_bin160_EFKMPBOM_02659;dRep_bin079_GAOGCKND_00457;dRep_bin068_ENOLAELK_00441;dRep_bin101_BNDDLDCL_01290;dRep_bin330_CODAKHDJ_00875;dRep_bin133_NOBPDBPA_00602;dRep_bin299_AKNBKJGM_01294;dRep_bin250_NMCAMJIO_01057;dRep_bin123_PJKBFKBB_00547;dRep_bin272_LGBDGEIM_01628;dRep_bin179_HFEIPPPA_01660;dRep_bin216_JNJMCPHB_01272;dRep_bin201_OLKDIBOK_01356;dRep_bin062_BOFBFLDA_00952;dRep_bin107_EFNBPDOP_00212;dRep_bin077_DNNBMPMC_01832;dRep_bin306_FGHMKMMP_01672;dRep_bin095_HOBNOEEF_00755;dRep_bin159_ADJJGPBG_00425;dRep_bin222_GGCAJABB_01443;dRep_bin310_IMBAFDIF_00623;dRep_bin181_MKGPMPIA_00586;dRep_bin074_EHAOMODJ_00159	>dRep_bin108_BPNCDINP_01326 Pyridoxal 5-phosphate synthase subunit PdxS;>dRep_bin089_PAJFOJBN_00301 Pyridoxal 5-phosphate synthase subunit PdxS;>dRep_bin300_MJPPENNL_00939 Pyridoxal 5-phosphate synthase subunit PdxS;>dRep_bin145_KMJJJOEJ_00792 Pyridoxal	dRep_bin159_ADJJGPBG_00425	CDS	pdxS	4.3.3.6	Pyridoxal 5'-phosphate synthase subunit PdxS
ADJJGPBG_00428	25.929329999999997	25.80334	28.56587	25.608739999999997	28.330830000000002	28.851180000000003	29.565199999999997	28.06394				23	21	2,0039E-260	dRep_bin053_OMGNPOOB_01278;dRep_bin302_AHDEPDKG_00299;dRep_bin238_OLNFACLE_00618;dRep_bin125_FADLGGII_00735;dRep_bin097_CBBLIPAN_01892;dRep_bin134_HIAPAODO_01198;dRep_bin261_FJICAFFM_00295;dRep_bin282_PKAAPBFP_01577;dRep_bin074_EHAOMODJ_00946;dRep_bin347_EKGCMFPD_01776;dRep_bin127_FIPNHBCH_01523;dRep_bin075_EPEMMOCL_00770;dRep_bin201_OLKDIBOK_02470;dRep_bin323_FBBLPLCG_00116;dRep_bin242_LKAIBGGJ_01298;dRep_bin029_LFMGBBEC_01403;dRep_bin250_NMCAMJIO_00064;dRep_bin049_MNFBDPNO_00772;dRep_bin309_BIOHLCGG_00465;dRep_bin193_GDMDPNNM_00894;dRep_bin106_BKDHGPBE_01007;dRep_bin243_JDMELKLC_00010;dRep_bin057_BNCFHBBO_00002;dRep_bin026_HNPIIINL_00319;dRep_bin085_MBHLGCDB_00395;dRep_bin140_ACFAKGIL_00161;dRep_bin150_HCDEOBMH_00480;dRep_bin177_HLHGKLFL_01057;dRep_bin260_HELEPKJL_01297;dRep_bin159_ADJJGPBG_00428	dRep_bin053_OMGNPOOB_01278	>dRep_bin053_OMGNPOOB_01278 Phosphoribosylformylglycinamidine synthase	dRep_bin159_ADJJGPBG_00428	CDS	purL	6.3.5.3	Phosphoribosylformylglycinamidine synthase subunit PurL
ADJJGPBG_00470	28.45337	27.357920000000004	27.32817	27.268569999999997	28.54425	27.50839	27.110780000000002	28.18296				11	6	3,3374E-82	dRep_bin330_CODAKHDJ_00891;dRep_bin320_LDBKCCKL_01514;dRep_bin159_ADJJGPBG_00470	dRep_bin330_CODAKHDJ_00891	>dRep_bin330_CODAKHDJ_00891 Pyruvate, phosphate dikinase	dRep_bin159_ADJJGPBG_00470	CDS	ppdK	2.7.9.1	Pyruvate, phosphate dikinase
ADJJGPBG_00687	26.90346	29.108890000000002		26.54701								17	5	4,4373E-174	dRep_bin016_JLGAHGOJ_01792;dRep_bin159_ADJJGPBG_00687;dRep_bin205_LKIOOBKC_01666	dRep_bin016_JLGAHGOJ_01792	>dRep_bin016_JLGAHGOJ_01792 Glucose-6-phosphate isomerase	dRep_bin159_ADJJGPBG_00687	CDS	pgi	5.3.1.9	Glucose-6-phosphate isomerase
ADJJGPBG_00705	31.30758	30.661270000000002	31.420759999999998	31.469709999999996	31.630360000000003	32.23922	31.331860000000006	31.52659				3	2	2,127E-47	dRep_bin159_ADJJGPBG_00705	dRep_bin159_ADJJGPBG_00705	>dRep_bin159_ADJJGPBG_00705 hypothetical protein	dRep_bin159_ADJJGPBG_00705	CDS			hypothetical protein
ADJJGPBG_00706	27.56478	24.572309999999998		25.550860000000004								10	7	7,4042E-70	dRep_bin162_JBGCCDIN_00891;dRep_bin159_ADJJGPBG_00706	dRep_bin162_JBGCCDIN_00891	>dRep_bin162_JBGCCDIN_00891 hypothetical protein	dRep_bin159_ADJJGPBG_00706	CDS			hypothetical protein
ADJJGPBG_00709	28.09441	29.43966	27.510890000000003	26.619470000000003	29.28916	25.932019999999998	25.02335	27.464739999999995				11	9	1,3327E-285	dRep_bin039_IJNOFOJK_01927;dRep_bin257_JHFDCHCB_00104;dRep_bin308_JBPDGLPP_00395;dRep_bin164_KHMELCCL_01489;dRep_bin162_JBGCCDIN_00878;dRep_bin159_ADJJGPBG_00709;dRep_bin324_IPNHOHFK_00298;dRep_bin306_FGHMKMMP_00659	dRep_bin039_IJNOFOJK_01927	>dRep_bin039_IJNOFOJK_01927 ABC transporter periplasmic-binding protein YtfQ	dRep_bin159_ADJJGPBG_00709	CDS	ytfQ		ABC transporter periplasmic-binding protein YtfQ
ADJJGPBG_00714			20.14058									4	1	3,7358E-81	dRep_bin159_ADJJGPBG_00714	dRep_bin159_ADJJGPBG_00714	>dRep_bin159_ADJJGPBG_00714 Flagellar filament 33 kDa core protein	dRep_bin159_ADJJGPBG_00714	CDS			Flagellar filament 33 kDa core protein
ADJJGPBG_00733	23.94789	23.656980000000004	24.9072	25.723619999999997								3	2	2,1459E-19	dRep_bin159_ADJJGPBG_00733	dRep_bin159_ADJJGPBG_00733	>dRep_bin159_ADJJGPBG_00733 Flagellar filament outer layer protein	dRep_bin159_ADJJGPBG_00733	CDS	flaA		Flagellar filament outer layer protein
ADJJGPBG_01036					26.768379999999997							3	1	2,9563E-09	dRep_bin183_FPGIOKBG_01973;dRep_bin034_MEBMFDLL_01112;dRep_bin063_PJANDMAH_00033;dRep_bin104_EGLEJOLM_00236;dRep_bin331_HPKAPHAF_00401;dRep_bin037_GEAOEKHA_01236;dRep_bin276_EHNFLEBP_00896;dRep_bin159_ADJJGPBG_01036;dRep_bin083_OCBADPJJ_00248;dRep_bin120_EKLBOPNC_01937;dRep_bin210_AGEDAEIA_00563;dRep_bin296_FDMPKPOH_01992;dRep_bin002_CFBNDKDN_00667;dRep_bin110_JGOEJECF_00717;dRep_bin314_KCHFPLIP_00736;dRep_bin346_JKFDGFHC_01012;dRep_bin307_AOCKHIKF_00964;dRep_bin113_LIFKCGBF_00231;dRep_bin301_NJFJIJGA_00693;dRep_bin295_EJGKDKNE_01558;dRep_bin118_FGIOKLBC_00221;dRep_bin070_EMBHKIOF_01275;dRep_bin037_GEAOEKHA_00935;dRep_bin022_BOEAFNDE_00846;dRep_bin275_NIDIBBDA_00292;dRep_bin346_JKFDGFHC_01402;dRep_bin331_HPKAPHAF_00660;dRep_bin198_GMLJKALI_01178;dRep_bin165_HMDFFMMM_00173;dRep_bin084_CGBIKHBH_01220;dRep_bin002_CFBNDKDN_00154;dRep_bin036_DOKCEIDH_00528;dRep_bin045_GJACFFBC_00872;dRep_bin034_MEBMFDLL_01631;dRep_bin137_NABPABPB_01490;dRep_bin113_LIFKCGBF_00697;dRep_bin298_EIPJCOMF_00317;dRep_bin036_DOKCEIDH_01142;dRep_bin196_BIELHBNH_01084	dRep_bin183_FPGIOKBG_01973;dRep_bin034_MEBMFDLL_01112	>dRep_bin183_FPGIOKBG_01973 4-alpha-glucanotransferase;>dRep_bin034_MEBMFDLL_01112 4-alpha-glucanotransferase	dRep_bin159_ADJJGPBG_01036	CDS	malQ_2	2.4.1.25	4-alpha-glucanotransferase
ADJJGPBG_01223						21.475659999999998						5	1	5,4179E-173	dRep_bin191_NGFJMLOL_01500;dRep_bin159_ADJJGPBG_01223	dRep_bin191_NGFJMLOL_01500;dRep_bin159_ADJJGPBG_01223	>dRep_bin191_NGFJMLOL_01500 Enolase;>dRep_bin159_ADJJGPBG_01223 Enolase	dRep_bin159_ADJJGPBG_01223	CDS	eno	4.2.1.11	Enolase
ADJJGPBG_01342					25.06357							5	1	3,6059E-73	dRep_bin203_CLFNNOCF_01682;dRep_bin347_EKGCMFPD_01504;dRep_bin284_DEHKNOBF_01057;dRep_bin260_HELEPKJL_00015;dRep_bin310_IMBAFDIF_00287;dRep_bin134_HIAPAODO_00846;dRep_bin062_BOFBFLDA_01435;dRep_bin300_MJPPENNL_01196;dRep_bin201_OLKDIBOK_02047;dRep_bin105_AAEIHAFF_01478;dRep_bin100_CODMOHGB_01221;dRep_bin088_DNGPPFDK_00866;dRep_bin277_MIPNGEJE_00690;dRep_bin166_DFIAJFEC_00146;dRep_bin161_JMKPMHCO_01114;dRep_bin059_OOBKFNPP_00125;dRep_bin046_GKEJLOEK_01062;dRep_bin091_MAFACGAD_00248;dRep_bin017_FGFLFOPJ_00727;dRep_bin354_MMOALAFN_00741;dRep_bin324_IPNHOHFK_00313;dRep_bin323_FBBLPLCG_01264;dRep_bin309_BIOHLCGG_01306;dRep_bin273_FGAEBHNP_00470;dRep_bin261_FJICAFFM_01100;dRep_bin148_NAJFKJMD_00795;dRep_bin115_IFKGOGCL_00123;dRep_bin069_EGGEOGDC_01056;dRep_bin344_CJJBDGAA_01161;dRep_bin249_OFIIEIDJ_00715;dRep_bin220_PILICLLL_00990;dRep_bin134_HIAPAODO_01436;dRep_bin065_DFABHCBI_00344;dRep_bin032_PPNIGLME_00203;dRep_bin270_GEJAHNCN_01587;dRep_bin065_DFABHCBI_00249;dRep_bin278_BFCONKOE_01054;dRep_bin016_JLGAHGOJ_00641;dRep_bin328_GIGKNKPJ_01462;dRep_bin308_JBPDGLPP_01172;dRep_bin303_DDDNDJCF_01320;dRep_bin254_GJDPFAEA_00870;dRep_bin234_ECABPBME_00536;dRep_bin186_HJAAFFNP_01789;dRep_bin167_BLMEBMNN_01296;dRep_bin107_EFNBPDOP_00511;dRep_bin077_DNNBMPMC_01864;dRep_bin066_AJACLPEE_01033;dRep_bin047_IFFANOMN_00697;dRep_bin135_HHKACLPM_00107;dRep_bin303_DDDNDJCF_00377;dRep_bin306_FGHMKMMP_01595;dRep_bin211_LGJEFJIK_00450;dRep_bin007_LNLEAAAN_01312;dRep_bin344_CJJBDGAA_01611;dRep_bin031_BNHMFOII_01628;dRep_bin353_PPDHLNJB_02118;dRep_bin254_GJDPFAEA_00869;dRep_bin094_LBLICAAO_00342;dRep_bin047_IFFANOMN_01357;dRep_bin120_EKLBOPNC_01832;dRep_bin168_HKDILBFE_01442;dRep_bin099_DNDAGJEJ_00392;dRep_bin215_ABBFGCAF_00798;dRep_bin029_LFMGBBEC_01628;dRep_bin240_LDBBGJKG_01094;dRep_bin279_IAEFEPEN_01491;dRep_bin130_OIFFANPF_01666;dRep_bin319_PBDBJGCJ_00268;dRep_bin017_FGFLFOPJ_00820;dRep_bin082_HBEFABJN_01328;dRep_bin245_MBCFLKOF_01762;dRep_bin027_OFJCHLJJ_00790;dRep_bin108_BPNCDINP_00911;dRep_bin308_JBPDGLPP_01750;dRep_bin193_GDMDPNNM_00480;dRep_bin344_CJJBDGAA_02078;dRep_bin049_MNFBDPNO_01413;dRep_bin096_GNHMEKPF_00097;dRep_bin104_EGLEJOLM_01934;dRep_bin339_DBNBAHDK_02499;dRep_bin321_EJNAAGJG_00755;dRep_bin273_FGAEBHNP_00835;dRep_bin250_NMCAMJIO_00087;dRep_bin247_EKGBJCBM_00317;dRep_bin148_NAJFKJMD_01189;dRep_bin337_FHKPNFDB_01633;dRep_bin320_LDBKCCKL_01786;dRep_bin304_JDNJGFKH_01982;dRep_bin286_OEMIJKMC_01141;dRep_bin231_CFOLMJBA_00953;dRep_bin162_JBGCCDIN_01636;dRep_bin126_PPDNCIBN_01067;dRep_bin109_MJABCPAK_00317;dRep_bin057_BNCFHBBO_00597;dRep_bin288_KOIAAABN_00012;dRep_bin263_OLEFOGIJ_00295;dRep_bin304_JDNJGFKH_00179;dRep_bin208_DHPGEIBC_00457;dRep_bin189_AHHEHGDL_01282;dRep_bin177_HLHGKLFL_00741;dRep_bin140_ACFAKGIL_00319;dRep_bin105_AAEIHAFF_01411;dRep_bin082_HBEFABJN_00692;dRep_bin010_MFFFGEGD_00717;dRep_bin005_CNDFPKJG_01705;dRep_bin287_DONBGKDH_01836;dRep_bin094_LBLICAAO_00388;dRep_bin058_GJKCICJN_00227;dRep_bin293_MEPKGOAN_00829;dRep_bin218_ACMPALGF_00229;dRep_bin205_LKIOOBKC_00417;dRep_bin172_ALNHGLMD_01439;dRep_bin159_ADJJGPBG_01342;dRep_bin143_PFLDJMPF_01248;dRep_bin101_BNDDLDCL_01982;dRep_bin091_MAFACGAD_01619;dRep_bin072_JOBJPCGA_00130;dRep_bin011_KOGMKLNO_01272;dRep_bin164_KHMELCCL_01402;dRep_bin305_FCIEFIHE_00371;dRep_bin222_GGCAJABB_00745;dRep_bin006_HPJGJCAG_01874;dRep_bin286_OEMIJKMC_01354;dRep_bin126_PPDNCIBN_00282;dRep_bin185_OOOLKACK_00819;dRep_bin043_KLAFNACO_00900;dRep_bin231_CFOLMJBA_01529;dRep_bin237_KJDLIPND_00869;dRep_bin147_EJLBNEBE_00138;dRep_bin186_HJAAFFNP_01790;dRep_bin081_JDPCKDNP_00172;dRep_bin069_EGGEOGDC_00890;dRep_bin282_PKAAPBFP_00016;dRep_bin206_OIIBOIAK_00984;dRep_bin161_JMKPMHCO_00782;dRep_bin278_BFCONKOE_00310;dRep_bin260_HELEPKJL_01944;dRep_bin336_MPGOKPOL_00897	dRep_bin203_CLFNNOCF_01682;dRep_bin347_EKGCMFPD_01504;dRep_bin284_DEHKNOBF_01057;dRep_bin260_HELEPKJL_00015;dRep_bin310_IMBAFDIF_00287;dRep_bin134_HIAPAODO_00846;dRep_bin062_BOFBFLDA_01435	>dRep_bin203_CLFNNOCF_01682 Glutamine synthetase;>dRep_bin347_EKGCMFPD_01504 Glutamine synthetase;>dRep_bin284_DEHKNOBF_01057 Glutamine synthetase;>dRep_bin260_HELEPKJL_00015 Glutamine synthetase;>dRep_bin310_IMBAFDIF_00287 Glutamine synthetase;>dRep_bin13	dRep_bin159_ADJJGPBG_01342	CDS	glnA_1	6.3.1.2	Glutamine synthetase
ADJJGPBG_01441	27.63034			27.27719	28.813810000000004	27.98625	27.674110000000002	28.24989				4	0	3,3645E-08	dRep_bin057_BNCFHBBO_00377;dRep_bin302_AHDEPDKG_00326;dRep_bin105_AAEIHAFF_01063;dRep_bin096_GNHMEKPF_00522;dRep_bin245_MBCFLKOF_01948;dRep_bin162_JBGCCDIN_01402;dRep_bin072_JOBJPCGA_00009;dRep_bin043_KLAFNACO_00632;dRep_bin010_MFFFGEGD_01264;dRep_bin320_LDBKCCKL_00449;dRep_bin242_LKAIBGGJ_00692;dRep_bin236_BNONDECB_01262;dRep_bin218_ACMPALGF_00622;dRep_bin189_AHHEHGDL_00790;dRep_bin159_ADJJGPBG_01441;dRep_bin094_LBLICAAO_01385;dRep_bin011_KOGMKLNO_01406;dRep_bin330_CODAKHDJ_01494;dRep_bin142_NDNPJBEM_01049;dRep_bin116_CLFDBMOF_00488;dRep_bin082_HBEFABJN_00310;dRep_bin283_NLJJFFAC_00119	dRep_bin057_BNCFHBBO_00377;dRep_bin302_AHDEPDKG_00326;dRep_bin105_AAEIHAFF_01063	>dRep_bin057_BNCFHBBO_00377 Inosine-5-monophosphate dehydrogenase;>dRep_bin302_AHDEPDKG_00326 Inosine-5-monophosphate dehydrogenase;>dRep_bin105_AAEIHAFF_01063 Inosine-5-monophosphate dehydrogenase	dRep_bin159_ADJJGPBG_01441	CDS	guaB_1	1.1.1.205	Inosine-5'-monophosphate dehydrogenase
ADJJGPBG_01461	24.17516											4	1	1,5727E-07	dRep_bin159_ADJJGPBG_01461;dRep_bin189_AHHEHGDL_00053	dRep_bin159_ADJJGPBG_01461;dRep_bin189_AHHEHGDL_00053	>dRep_bin159_ADJJGPBG_01461 60 kDa chaperonin;>dRep_bin189_AHHEHGDL_00053 60 kDa chaperonin	dRep_bin159_ADJJGPBG_01461	CDS	groL		60 kDa chaperonin
ADJJGPBG_01487	25.862539999999996	25.86816	27.082529999999995	26.6554		26.275439999999996		26.083629999999996				7	2	7,2473E-58	dRep_bin287_DONBGKDH_00177;dRep_bin266_JFOCEDAE_00333;dRep_bin231_CFOLMJBA_00379;dRep_bin010_MFFFGEGD_02454;dRep_bin003_GOBBLOGO_00458;dRep_bin337_FHKPNFDB_01691;dRep_bin262_LLCGOPIE_00287;dRep_bin200_JJGKEOHI_00802;dRep_bin086_HHEJBMCP_00081;dRep_bin044_IPFKHAEF_01202;dRep_bin189_AHHEHGDL_00588;dRep_bin210_AGEDAEIA_00618;dRep_bin162_JBGCCDIN_00738;dRep_bin205_LKIOOBKC_00492;dRep_bin159_ADJJGPBG_01487;dRep_bin011_KOGMKLNO_00445;dRep_bin314_KCHFPLIP_00100	dRep_bin287_DONBGKDH_00177;dRep_bin266_JFOCEDAE_00333	>dRep_bin287_DONBGKDH_00177 Fructose-bisphosphate aldolase;>dRep_bin266_JFOCEDAE_00333 Fructose-bisphosphate aldolase	dRep_bin159_ADJJGPBG_01487	CDS	fbaA	4.1.2.13	Fructose-bisphosphate aldolase class 2
ADJJGPBG_01633		24.770319999999998	26.889719999999997									4	4	1,6404E-14	dRep_bin159_ADJJGPBG_01633;dRep_bin162_JBGCCDIN_01921	dRep_bin159_ADJJGPBG_01633	>dRep_bin159_ADJJGPBG_01633 hypothetical protein	dRep_bin159_ADJJGPBG_01633	CDS			hypothetical protein
ADJJGPBG_01729			23.64229	23.74684				24.48296				18	3	3,8972E-149	dRep_bin220_PILICLLL_02028;dRep_bin278_BFCONKOE_00441;dRep_bin081_JDPCKDNP_00377;dRep_bin322_OJELOJOF_00804;dRep_bin248_CCDFPECI_00079;dRep_bin106_BKDHGPBE_00283;dRep_bin144_NPHACCKF_01724;dRep_bin122_JHMJFODI_00608;dRep_bin141_GMCOOECB_01066;dRep_bin213_HHHELMFN_00712;dRep_bin109_MJABCPAK_00085;dRep_bin085_MBHLGCDB_01100;dRep_bin024_OLHDGABE_00645;dRep_bin127_FIPNHBCH_00373;dRep_bin318_IEDEJOFJ_00277;dRep_bin155_CLHNKEHA_00696;dRep_bin218_ACMPALGF_01353;dRep_bin119_AKFBCGDO_01001;dRep_bin146_LCCIBLJG_00301;dRep_bin354_MMOALAFN_01658;dRep_bin347_EKGCMFPD_01037;dRep_bin227_IJODGBOI_00749;dRep_bin132_FAPBDCMG_00320;dRep_bin313_CJFGINPI_00866;dRep_bin156_GFIMJAAC_00888;dRep_bin342_BMMENEMP_00958;dRep_bin280_IMCGLKKG_00439;dRep_bin197_NHLBHFEI_00889;dRep_bin281_OGHLKMAI_00400;dRep_bin276_EHNFLEBP_02113;dRep_bin104_EGLEJOLM_01406;dRep_bin207_OHNPDPFI_01068;dRep_bin121_BHOOLFKN_00245;dRep_bin008_MNDMJLEI_00892;dRep_bin054_NNOKONMC_00872;dRep_bin011_KOGMKLNO_00879;dRep_bin142_NDNPJBEM_01584;dRep_bin333_EFOKIBLA_00720;dRep_bin223_PIMCDKJI_01633;dRep_bin120_EKLBOPNC_00731;dRep_bin177_HLHGKLFL_00449;dRep_bin140_ACFAKGIL_00447;dRep_bin304_JDNJGFKH_00598;dRep_bin245_MBCFLKOF_00047;dRep_bin208_DHPGEIBC_00902;dRep_bin010_MFFFGEGD_00183;dRep_bin083_OCBADPJJ_01145;dRep_bin222_GGCAJABB_00479;dRep_bin205_LKIOOBKC_01169;dRep_bin320_LDBKCCKL_00573;dRep_bin162_JBGCCDIN_01242;dRep_bin159_ADJJGPBG_01729;dRep_bin033_DLABHNFE_00633;dRep_bin012_KEBBILMO_00315;dRep_bin350_EKOOEEGH_01215;dRep_bin121_BHOOLFKN_01088;dRep_bin212_IEMJENOD_00205;dRep_bin161_JMKPMHCO_00073;dRep_bin353_PPDHLNJB_01811;dRep_bin195_DDMDFNOK_01689;dRep_bin327_EPEGNBAG_00663;dRep_bin241_LMMMGDNI_01611;dRep_bin334_NAPFFNLD_00132	dRep_bin220_PILICLLL_02028	>dRep_bin220_PILICLLL_02028 DNA-directed RNA polymerase subunit beta	dRep_bin159_ADJJGPBG_01729	CDS	rpoB	2.7.7.6	DNA-directed RNA polymerase subunit beta
ADJJGPBG_01745	25.08416	24.93656	26.538800000000002	26.86915	25.985119999999995	24.62037	24.93517	24.65649				3	0	2,2235E-28	dRep_bin282_PKAAPBFP_00481;dRep_bin160_EFKMPBOM_01980;dRep_bin154_JGOKHKLI_00793;dRep_bin139_KGAJINND_01524;dRep_bin127_FIPNHBCH_00036;dRep_bin089_PAJFOJBN_02082;dRep_bin047_IFFANOMN_01724;dRep_bin347_EKGCMFPD_01107;dRep_bin308_JBPDGLPP_01114;dRep_bin266_JFOCEDAE_01005;dRep_bin328_GIGKNKPJ_01841;dRep_bin260_HELEPKJL_01354;dRep_bin216_JNJMCPHB_00018;dRep_bin186_HJAAFFNP_00342;dRep_bin167_BLMEBMNN_01083;dRep_bin115_IFKGOGCL_00636;dRep_bin065_DFABHCBI_01269;dRep_bin047_IFFANOMN_00239;dRep_bin290_OIOJKBNK_00632;dRep_bin256_KEMNAOBC_00187;dRep_bin128_JPBBHEMA_00218;dRep_bin110_JGOEJECF_00549;dRep_bin093_PGADNPMG_00791;dRep_bin355_KJEFNADK_00780;dRep_bin350_EKOOEEGH_00173;dRep_bin345_GLPJDLOI_00878;dRep_bin320_LDBKCCKL_00884;dRep_bin318_IEDEJOFJ_00796;dRep_bin315_AGEMOMDG_01119;dRep_bin306_FGHMKMMP_01710;dRep_bin304_JDNJGFKH_00632;dRep_bin283_NLJJFFAC_00211;dRep_bin267_LJCFMAFA_00484;dRep_bin265_LFKFBJPC_00850;dRep_bin258_DAMEHFEK_00123;dRep_bin247_EKGBJCBM_00038;dRep_bin230_NINMBMKB_00063;dRep_bin217_MJCEAEPB_00583;dRep_bin211_LGJEFJIK_01307;dRep_bin205_LKIOOBKC_00363;dRep_bin195_DDMDFNOK_01673;dRep_bin189_AHHEHGDL_00011;dRep_bin162_JBGCCDIN_01258;dRep_bin159_ADJJGPBG_01745;dRep_bin156_GFIMJAAC_00195;dRep_bin150_HCDEOBMH_00586;dRep_bin144_NPHACCKF_00096;dRep_bin135_HHKACLPM_00476;dRep_bin121_BHOOLFKN_00529;dRep_bin120_EKLBOPNC_00238;dRep_bin114_FJHJKHGL_00201;dRep_bin078_GKFCBAEI_00311;dRep_bin060_HNFNENOI_00556;dRep_bin027_OFJCHLJJ_00124;dRep_bin020_JCCELPIE_00086;dRep_bin014_CHIHIMAN_01506;dRep_bin006_HPJGJCAG_00037;dRep_bin001_GHHJMDAL_00906;dRep_bin049_MNFBDPNO_01392;dRep_bin330_CODAKHDJ_00376;dRep_bin242_LKAIBGGJ_00214;dRep_bin218_ACMPALGF_00060;dRep_bin106_BKDHGPBE_00670	dRep_bin282_PKAAPBFP_00481;dRep_bin160_EFKMPBOM_01980;dRep_bin154_JGOKHKLI_00793;dRep_bin139_KGAJINND_01524;dRep_bin127_FIPNHBCH_00036;dRep_bin089_PAJFOJBN_02082;dRep_bin047_IFFANOMN_01724;dRep_bin347_EKGCMFPD_01107;dRep_bin308_JBPDGLPP_01114;dRep_bin266_JFOCEDAE_01005;dRep_bin328_GIGKNKPJ_01841;dRep_bin260_HELEPKJL_01354;dRep_bin216_JNJMCPHB_00018;dRep_bin186_HJAAFFNP_00342;dRep_bin167_BLMEBMNN_01083;dRep_bin115_IFKGOGCL_00636;dRep_bin065_DFABHCBI_01269;dRep_bin047_IFFANOMN_00239	>dRep_bin282_PKAAPBFP_00481 50S ribosomal protein L14;>dRep_bin160_EFKMPBOM_01980 50S ribosomal protein L14;>dRep_bin154_JGOKHKLI_00793 50S ribosomal protein L14;>dRep_bin139_KGAJINND_01524 50S ribosomal protein L14;>dRep_bin127_FIPNHBCH_00036 50S ribosoma	dRep_bin159_ADJJGPBG_01745	CDS	rplN		50S ribosomal protein L14
ADJJGPBG_01811			22.50928	22.762659999999997	22.054080000000003	22.38118		22.087509999999998				2	2	0,00083861	dRep_bin045_GJACFFBC_00064;dRep_bin002_CFBNDKDN_01023;dRep_bin113_LIFKCGBF_01751;dRep_bin159_ADJJGPBG_01811;dRep_bin203_CLFNNOCF_01389;dRep_bin098_DDEBHDKK_00487;dRep_bin344_CJJBDGAA_01435;dRep_bin170_LICLFCFF_01021;dRep_bin285_IPHKFJAN_01164;dRep_bin307_AOCKHIKF_00030	dRep_bin045_GJACFFBC_00064;dRep_bin002_CFBNDKDN_01023;dRep_bin113_LIFKCGBF_01751;dRep_bin159_ADJJGPBG_01811;dRep_bin203_CLFNNOCF_01389;dRep_bin098_DDEBHDKK_00487;dRep_bin344_CJJBDGAA_01435;dRep_bin170_LICLFCFF_01021;dRep_bin285_IPHKFJAN_01164;dRep_bin307_AOCKHIKF_00030	>dRep_bin045_GJACFFBC_00064 L-glyceraldehyde 3-phosphate reductase;>dRep_bin002_CFBNDKDN_01023 L-glyceraldehyde 3-phosphate reductase;>dRep_bin113_LIFKCGBF_01751 L-glyceraldehyde 3-phosphate reductase;>dRep_bin159_ADJJGPBG_01811 L-glyceraldehyde 3-phosphat	dRep_bin159_ADJJGPBG_01811	CDS	gpr	1.1.1.-	L-glyceraldehyde 3-phosphate reductase
ADJJGPBG_01860					24.24887	26.77128	24.69339	24.025629999999996				3	1	5,593E-12	dRep_bin139_KGAJINND_01577;dRep_bin344_CJJBDGAA_01807;dRep_bin300_MJPPENNL_01697;dRep_bin324_IPNHOHFK_02134;dRep_bin261_FJICAFFM_01134;dRep_bin303_DDDNDJCF_01519;dRep_bin297_EDHEEICA_00415;dRep_bin209_NKIHFCEN_00709;dRep_bin167_BLMEBMNN_00621;dRep_bin157_JPNIKEKI_01820;dRep_bin133_NOBPDBPA_02652;dRep_bin016_JLGAHGOJ_01099;dRep_bin292_JIBLDOOH_01420;dRep_bin127_FIPNHBCH_01248;dRep_bin062_BOFBFLDA_01336;dRep_bin115_IFKGOGCL_01923;dRep_bin269_PNILGKPH_02213;dRep_bin208_DHPGEIBC_01209;dRep_bin347_EKGCMFPD_00714;dRep_bin266_JFOCEDAE_00751;dRep_bin211_LGJEFJIK_00719;dRep_bin316_FNLHDNEO_01427;dRep_bin065_DFABHCBI_00784;dRep_bin319_PBDBJGCJ_00028;dRep_bin077_DNNBMPMC_00009;dRep_bin006_HPJGJCAG_01885;dRep_bin066_AJACLPEE_00266;dRep_bin279_IAEFEPEN_00114;dRep_bin254_GJDPFAEA_01714;dRep_bin035_JBNPBOKG_00265;dRep_bin092_OOJCPDEA_01135;dRep_bin173_BEBNCADL_00932;dRep_bin261_FJICAFFM_01422;dRep_bin288_KOIAAABN_01088;dRep_bin263_OLEFOGIJ_00124;dRep_bin099_DNDAGJEJ_00022;dRep_bin325_EIIGOGHN_01093;dRep_bin076_GLAOFBEC_01169;dRep_bin089_PAJFOJBN_00283;dRep_bin287_DONBGKDH_01271;dRep_bin162_JBGCCDIN_01770;dRep_bin135_HHKACLPM_00267;dRep_bin332_KAOPCDPF_00441;dRep_bin310_IMBAFDIF_00637;dRep_bin304_JDNJGFKH_01711;dRep_bin222_GGCAJABB_01248;dRep_bin159_ADJJGPBG_01860;dRep_bin043_KLAFNACO_01408;dRep_bin023_HGFJFKAI_00653;dRep_bin189_AHHEHGDL_01147;dRep_bin328_GIGKNKPJ_01484;dRep_bin282_PKAAPBFP_01012;dRep_bin229_FFOBPPJI_01006;dRep_bin203_CLFNNOCF_00634;dRep_bin102_ICFDHPGB_01107;dRep_bin072_JOBJPCGA_00187;dRep_bin029_LFMGBBEC_00768;dRep_bin017_FGFLFOPJ_00988;dRep_bin195_DDMDFNOK_00791;dRep_bin120_EKLBOPNC_01828;dRep_bin058_GJKCICJN_00813;dRep_bin046_GKEJLOEK_00003;dRep_bin186_HJAAFFNP_01596;dRep_bin349_AMCJEEEG_00676;dRep_bin200_JJGKEOHI_00578;dRep_bin027_OFJCHLJJ_00701;dRep_bin161_JMKPMHCO_01186;dRep_bin160_EFKMPBOM_00139;dRep_bin154_JGOKHKLI_00533;dRep_bin083_OCBADPJJ_00750;dRep_bin049_MNFBDPNO_00757;dRep_bin008_MNDMJLEI_00707;dRep_bin158_OGFICEAP_00389;dRep_bin334_NAPFFNLD_00463;dRep_bin339_DBNBAHDK_00481;dRep_bin241_LMMMGDNI_00312;dRep_bin179_HFEIPPPA_00773;dRep_bin245_MBCFLKOF_01292;dRep_bin010_MFFFGEGD_00549	dRep_bin139_KGAJINND_01577;dRep_bin344_CJJBDGAA_01807;dRep_bin300_MJPPENNL_01697;dRep_bin324_IPNHOHFK_02134;dRep_bin261_FJICAFFM_01134;dRep_bin303_DDDNDJCF_01519;dRep_bin297_EDHEEICA_00415;dRep_bin209_NKIHFCEN_00709;dRep_bin167_BLMEBMNN_00621;dRep_bin157_JPNIKEKI_01820;dRep_bin133_NOBPDBPA_02652;dRep_bin016_JLGAHGOJ_01099;dRep_bin292_JIBLDOOH_01420;dRep_bin127_FIPNHBCH_01248;dRep_bin062_BOFBFLDA_01336;dRep_bin115_IFKGOGCL_01923;dRep_bin269_PNILGKPH_02213	>dRep_bin139_KGAJINND_01577 Chaperone protein ClpB 1;>dRep_bin344_CJJBDGAA_01807 Chaperone protein ClpB;>dRep_bin300_MJPPENNL_01697 Chaperone protein ClpB;>dRep_bin324_IPNHOHFK_02134 Chaperone protein ClpB;>dRep_bin261_FJICAFFM_01134 Chaperone protein ClpB	dRep_bin159_ADJJGPBG_01860	CDS	clpB1		Chaperone protein ClpB 1
ADJJGPBG_01916					23.00606	23.896980000000003						2	1	8,6813E-10	dRep_bin324_IPNHOHFK_01144;dRep_bin297_EDHEEICA_00687;dRep_bin292_JIBLDOOH_02195;dRep_bin261_FJICAFFM_00057;dRep_bin226_NLNLHLLD_01357;dRep_bin209_NKIHFCEN_00791;dRep_bin203_CLFNNOCF_00406;dRep_bin179_HFEIPPPA_00190;dRep_bin157_JPNIKEKI_00583;dRep_bin133_NOBPDBPA_01168;dRep_bin041_OPKGAAAG_01275;dRep_bin168_HKDILBFE_01397;dRep_bin130_OIFFANPF_00962;dRep_bin083_OCBADPJJ_00812;dRep_bin169_PNICKJKO_00385;dRep_bin319_PBDBJGCJ_01796;dRep_bin109_MJABCPAK_00038;dRep_bin106_BKDHGPBE_00849;dRep_bin216_JNJMCPHB_01613;dRep_bin299_AKNBKJGM_00580;dRep_bin100_CODMOHGB_00911;dRep_bin317_ABPHNCOD_01390;dRep_bin272_LGBDGEIM_00788;dRep_bin249_OFIIEIDJ_00467;dRep_bin066_AJACLPEE_01038;dRep_bin335_JIOGNAPG_00681;dRep_bin234_ECABPBME_00227;dRep_bin088_DNGPPFDK_01237;dRep_bin303_DDDNDJCF_00797;dRep_bin300_MJPPENNL_00671;dRep_bin279_IAEFEPEN_01368;dRep_bin278_BFCONKOE_00336;dRep_bin269_PNILGKPH_01089;dRep_bin260_HELEPKJL_01496;dRep_bin089_PAJFOJBN_00528;dRep_bin027_OFJCHLJJ_00828;dRep_bin019_MOJEPLJF_01606;dRep_bin116_CLFDBMOF_00536;dRep_bin057_BNCFHBBO_00059;dRep_bin134_HIAPAODO_00123;dRep_bin322_OJELOJOF_01583;dRep_bin270_GEJAHNCN_00957;dRep_bin348_LCLFDNEE_00829;dRep_bin295_EJGKDKNE_00315;dRep_bin277_MIPNGEJE_01644;dRep_bin166_DFIAJFEC_00192;dRep_bin264_DNFFGNEG_00340;dRep_bin153_JGABJFBF_01236;dRep_bin114_FJHJKHGL_00133;dRep_bin111_FPJIHFKE_00195;dRep_bin252_NDAKLAGD_00473;dRep_bin247_EKGBJCBM_00710;dRep_bin035_JBNPBOKG_01025;dRep_bin026_HNPIIINL_00916;dRep_bin085_MBHLGCDB_01217;dRep_bin068_ENOLAELK_00657;dRep_bin049_MNFBDPNO_00064;dRep_bin038_EIGFILKG_00881;dRep_bin152_LJMCIADF_01515;dRep_bin079_GAOGCKND_00762;dRep_bin231_CFOLMJBA_00732;dRep_bin126_PPDNCIBN_00705;dRep_bin333_EFOKIBLA_00857;dRep_bin123_PJKBFKBB_00290;dRep_bin185_OOOLKACK_01362;dRep_bin305_FCIEFIHE_01147;dRep_bin070_EMBHKIOF_00605;dRep_bin006_HPJGJCAG_01539;dRep_bin101_BNDDLDCL_00049;dRep_bin331_HPKAPHAF_00752;dRep_bin301_NJFJIJGA_00013;dRep_bin037_GEAOEKHA_01146;dRep_bin087_FCLGAPPI_00654;dRep_bin159_ADJJGPBG_01916;dRep_bin304_JDNJGFKH_01533;dRep_bin120_EKLBOPNC_00943;dRep_bin162_JBGCCDIN_00762;dRep_bin072_JOBJPCGA_01185;dRep_bin320_LDBKCCKL_00985;dRep_bin245_MBCFLKOF_00867;dRep_bin010_MFFFGEGD_00116;dRep_bin205_LKIOOBKC_01048;dRep_bin043_KLAFNACO_01234;dRep_bin011_KOGMKLNO_01366;dRep_bin189_AHHEHGDL_01620;dRep_bin222_GGCAJABB_00316;dRep_bin208_DHPGEIBC_01479;dRep_bin130_OIFFANPF_00887	dRep_bin324_IPNHOHFK_01144;dRep_bin297_EDHEEICA_00687;dRep_bin292_JIBLDOOH_02195;dRep_bin261_FJICAFFM_00057;dRep_bin226_NLNLHLLD_01357;dRep_bin209_NKIHFCEN_00791;dRep_bin203_CLFNNOCF_00406;dRep_bin179_HFEIPPPA_00190;dRep_bin157_JPNIKEKI_00583;dRep_bin133_NOBPDBPA_01168;dRep_bin041_OPKGAAAG_01275;dRep_bin168_HKDILBFE_01397;dRep_bin130_OIFFANPF_00962;dRep_bin083_OCBADPJJ_00812;dRep_bin169_PNICKJKO_00385;dRep_bin319_PBDBJGCJ_01796;dRep_bin109_MJABCPAK_00038;dRep_bin106_BKDHGPBE_00849;dRep_bin216_JNJMCPHB_01613;dRep_bin299_AKNBKJGM_00580;dRep_bin100_CODMOHGB_00911;dRep_bin317_ABPHNCOD_01390;dRep_bin272_LGBDGEIM_00788;dRep_bin249_OFIIEIDJ_00467;dRep_bin066_AJACLPEE_01038;dRep_bin335_JIOGNAPG_00681;dRep_bin234_ECABPBME_00227;dRep_bin088_DNGPPFDK_01237;dRep_bin303_DDDNDJCF_00797;dRep_bin300_MJPPENNL_00671;dRep_bin279_IAEFEPEN_01368;dRep_bin278_BFCONKOE_00336;dRep_bin269_PNILGKPH_01089;dRep_bin260_HELEPKJL_01496;dRep_bin089_PAJFOJBN_00528;dRep_bin027_OFJCHLJJ_00828;dRep_bin019_MOJEPLJF_01606;dRep_bin116_CLFDBMOF_00536;dRep_bin057_BNCFHBBO_00059;dRep_bin134_HIAPAODO_00123;dRep_bin322_OJELOJOF_01583;dRep_bin270_GEJAHNCN_00957;dRep_bin348_LCLFDNEE_00829;dRep_bin295_EJGKDKNE_00315;dRep_bin277_MIPNGEJE_01644;dRep_bin166_DFIAJFEC_00192;dRep_bin264_DNFFGNEG_00340;dRep_bin153_JGABJFBF_01236;dRep_bin114_FJHJKHGL_00133;dRep_bin111_FPJIHFKE_00195;dRep_bin252_NDAKLAGD_00473;dRep_bin247_EKGBJCBM_00710;dRep_bin035_JBNPBOKG_01025;dRep_bin026_HNPIIINL_00916;dRep_bin085_MBHLGCDB_01217;dRep_bin068_ENOLAELK_00657;dRep_bin049_MNFBDPNO_00064;dRep_bin038_EIGFILKG_00881;dRep_bin152_LJMCIADF_01515;dRep_bin079_GAOGCKND_00762;dRep_bin231_CFOLMJBA_00732;dRep_bin126_PPDNCIBN_00705;dRep_bin333_EFOKIBLA_00857;dRep_bin123_PJKBFKBB_00290;dRep_bin185_OOOLKACK_01362;dRep_bin305_FCIEFIHE_01147;dRep_bin070_EMBHKIOF_00605;dRep_bin006_HPJGJCAG_01539;dRep_bin101_BNDDLDCL_00049;dRep_bin331_HPKAPHAF_00752;dRep_bin301_NJFJIJGA_00013;dRep_bin037_GEAOEKHA_01146;dRep_bin087_FCLGAPPI_00654;dRep_bin159_ADJJGPBG_01916;dRep_bin304_JDNJGFKH_01533;dRep_bin120_EKLBOPNC_00943;dRep_bin162_JBGCCDIN_00762;dRep_bin072_JOBJPCGA_01185;dRep_bin320_LDBKCCKL_00985;dRep_bin245_MBCFLKOF_00867;dRep_bin010_MFFFGEGD_00116;dRep_bin205_LKIOOBKC_01048;dRep_bin043_KLAFNACO_01234;dRep_bin011_KOGMKLNO_01366;dRep_bin189_AHHEHGDL_01620;dRep_bin222_GGCAJABB_00316;dRep_bin208_DHPGEIBC_01479;dRep_bin130_OIFFANPF_00887	>dRep_bin324_IPNHOHFK_01144 Glutaconyl-CoA decarboxylase subunit beta;>dRep_bin297_EDHEEICA_00687 Glutaconyl-CoA decarboxylase subunit beta;>dRep_bin292_JIBLDOOH_02195 Glutaconyl-CoA decarboxylase subunit beta;>dRep_bin261_FJICAFFM_00057 Glutaconyl-CoA dec	dRep_bin159_ADJJGPBG_01916	CDS	gcdB_2	4.1.1.70	Glutaconyl-CoA decarboxylase subunit beta
ADJJGPBG_01943				23.7416								1	1	0,0039369	dRep_bin159_ADJJGPBG_01943	dRep_bin159_ADJJGPBG_01943	>dRep_bin159_ADJJGPBG_01943 Bacterial export proteins, family 3	dRep_bin159_ADJJGPBG_01943	CDS			Bacterial export proteins, family 3
ADJJGPBG_02245	28.940749999999998	29.99994	29.691840000000003	30.448449999999998								19	19	6,4342E-199	dRep_bin269_PNILGKPH_00266;dRep_bin240_LDBBGJKG_01998;dRep_bin159_ADJJGPBG_02245;dRep_bin325_EIIGOGHN_00449	dRep_bin269_PNILGKPH_00266	>dRep_bin269_PNILGKPH_00266 Putative prophage major tail sheath protein	dRep_bin159_ADJJGPBG_02245	CDS	gpFI_2		Putative prophage major tail sheath protein
