GBprotID	LFQ intensity CtrPig1	LFQ intensity CtrPig2	LFQ intensity CtrPig3	LFQ intensity CtrPig4	LFQ intensity MannanPig1	LFQ intensity MannanPig2	LFQ intensity MannanPig3	LFQ intensity MannanPig4	Only identified by site	Reverse	Contaminant	Peptides	Unique peptides	PEP	Protein IDs	Majority protein IDs	Fasta headers	IDcomb	ftype	gene	EC_number	product
KHMELCCL_00077						21.813550000000003	24.59889					3	2	7,3094E-07	dRep_bin058_GJKCICJN_01076;dRep_bin114_FJHJKHGL_00474;dRep_bin164_KHMELCCL_00077;dRep_bin160_EFKMPBOM_01404;dRep_bin154_JGOKHKLI_02573;dRep_bin305_FCIEFIHE_01196;dRep_bin265_LFKFBJPC_01684;dRep_bin142_NDNPJBEM_00001	dRep_bin058_GJKCICJN_01076;dRep_bin114_FJHJKHGL_00474	>dRep_bin058_GJKCICJN_01076 Isocitrate dehydrogenase [NADP];>dRep_bin114_FJHJKHGL_00474 Isocitrate dehydrogenase [NADP]	dRep_bin164_KHMELCCL_00077	CDS	icd	1.1.1.42	Isocitrate dehydrogenase [NADP]
KHMELCCL_00132				24.52409								3	1	3,0363E-62	dRep_bin157_JPNIKEKI_01307;dRep_bin039_IJNOFOJK_01899;dRep_bin186_HJAAFFNP_00774;dRep_bin318_IEDEJOFJ_01639;dRep_bin164_KHMELCCL_00132;dRep_bin328_GIGKNKPJ_01195;dRep_bin260_HELEPKJL_01523;dRep_bin287_DONBGKDH_01508;dRep_bin158_OGFICEAP_02168;dRep_bin127_FIPNHBCH_00569;dRep_bin115_IFKGOGCL_02347;dRep_bin099_DNDAGJEJ_00641;dRep_bin308_JBPDGLPP_01860;dRep_bin333_EFOKIBLA_01083;dRep_bin321_EJNAAGJG_00266;dRep_bin273_FGAEBHNP_00052;dRep_bin299_AKNBKJGM_00308;dRep_bin216_JNJMCPHB_01326;dRep_bin094_LBLICAAO_00532;dRep_bin295_EJGKDKNE_01389;dRep_bin021_AJDDCGJC_00388;dRep_bin336_MPGOKPOL_01887;dRep_bin147_EJLBNEBE_01158;dRep_bin091_MAFACGAD_00923;dRep_bin261_FJICAFFM_00349;dRep_bin203_CLFNNOCF_01032;dRep_bin292_JIBLDOOH_00170;dRep_bin324_IPNHOHFK_01855;dRep_bin133_NOBPDBPA_02057;dRep_bin179_HFEIPPPA_01406;dRep_bin297_EDHEEICA_01152;dRep_bin005_CNDFPKJG_00713	dRep_bin157_JPNIKEKI_01307;dRep_bin039_IJNOFOJK_01899;dRep_bin186_HJAAFFNP_00774;dRep_bin318_IEDEJOFJ_01639;dRep_bin164_KHMELCCL_00132;dRep_bin328_GIGKNKPJ_01195;dRep_bin260_HELEPKJL_01523;dRep_bin287_DONBGKDH_01508;dRep_bin158_OGFICEAP_02168;dRep_bin127_FIPNHBCH_00569;dRep_bin115_IFKGOGCL_02347;dRep_bin099_DNDAGJEJ_00641;dRep_bin308_JBPDGLPP_01860;dRep_bin333_EFOKIBLA_01083;dRep_bin321_EJNAAGJG_00266;dRep_bin273_FGAEBHNP_00052;dRep_bin299_AKNBKJGM_00308;dRep_bin216_JNJMCPHB_01326;dRep_bin094_LBLICAAO_00532;dRep_bin295_EJGKDKNE_01389;dRep_bin021_AJDDCGJC_00388;dRep_bin336_MPGOKPOL_01887;dRep_bin147_EJLBNEBE_01158;dRep_bin091_MAFACGAD_00923;dRep_bin261_FJICAFFM_00349;dRep_bin203_CLFNNOCF_01032;dRep_bin292_JIBLDOOH_00170;dRep_bin324_IPNHOHFK_01855;dRep_bin133_NOBPDBPA_02057;dRep_bin179_HFEIPPPA_01406;dRep_bin297_EDHEEICA_01152;dRep_bin005_CNDFPKJG_00713	>dRep_bin157_JPNIKEKI_01307 Galactose-1-phosphate uridylyltransferase;>dRep_bin039_IJNOFOJK_01899 Galactose-1-phosphate uridylyltransferase;>dRep_bin186_HJAAFFNP_00774 Galactose-1-phosphate uridylyltransferase;>dRep_bin318_IEDEJOFJ_01639 Galactose-1-phosph	dRep_bin164_KHMELCCL_00132	CDS	galT	2.7.7.12	Galactose-1-phosphate uridylyltransferase
KHMELCCL_00344	27.940839999999998	28.7475	27.544810000000002	27.162789999999998								5	1	2,4473E-58	dRep_bin164_KHMELCCL_00344;dRep_bin087_FCLGAPPI_00827;dRep_bin185_OOOLKACK_00038;dRep_bin354_MMOALAFN_00137	dRep_bin164_KHMELCCL_00344;dRep_bin087_FCLGAPPI_00827;dRep_bin185_OOOLKACK_00038	>dRep_bin164_KHMELCCL_00344 Phosphoglycerate kinase;>dRep_bin087_FCLGAPPI_00827 Phosphoglycerate kinase;>dRep_bin185_OOOLKACK_00038 Phosphoglycerate kinase	dRep_bin164_KHMELCCL_00344	CDS	pgk	2.7.2.3	Phosphoglycerate kinase
KHMELCCL_00431	25.32934	25.07582	25.7258	24.65824								3	2	4,3899E-15	dRep_bin164_KHMELCCL_00431;dRep_bin029_LFMGBBEC_01014;dRep_bin268_LKMHIMLG_01416;dRep_bin242_LKAIBGGJ_01234;dRep_bin148_NAJFKJMD_00861	dRep_bin164_KHMELCCL_00431;dRep_bin029_LFMGBBEC_01014;dRep_bin268_LKMHIMLG_01416	>dRep_bin164_KHMELCCL_00431 NAD-dependent malic enzyme;>dRep_bin029_LFMGBBEC_01014 NAD-dependent malic enzyme;>dRep_bin268_LKMHIMLG_01416 NAD-dependent malic enzyme	dRep_bin164_KHMELCCL_00431	CDS		1.1.1.38	NAD-dependent malic enzyme
KHMELCCL_00702		24.88684										1	1	0,0060807	dRep_bin268_LKMHIMLG_00075;dRep_bin215_ABBFGCAF_00319;dRep_bin058_GJKCICJN_00891;dRep_bin164_KHMELCCL_00702	dRep_bin268_LKMHIMLG_00075;dRep_bin215_ABBFGCAF_00319;dRep_bin058_GJKCICJN_00891;dRep_bin164_KHMELCCL_00702	>dRep_bin268_LKMHIMLG_00075 Single-stranded DNA-binding protein;>dRep_bin215_ABBFGCAF_00319 Single-stranded DNA-binding protein A;>dRep_bin058_GJKCICJN_00891 Single-stranded DNA-binding protein;>dRep_bin164_KHMELCCL_00702 Single-stranded DNA-binding protei	dRep_bin164_KHMELCCL_00702	CDS	ssbA_1		Single-stranded DNA-binding protein A
KHMELCCL_00756			24.09676									2	1	2,0863E-09	dRep_bin081_JDPCKDNP_01365;dRep_bin172_ALNHGLMD_00728;dRep_bin158_OGFICEAP_00839;dRep_bin115_IFKGOGCL_02532;dRep_bin160_EFKMPBOM_02561;dRep_bin099_DNDAGJEJ_01292;dRep_bin335_JIOGNAPG_00064;dRep_bin164_KHMELCCL_00756	dRep_bin081_JDPCKDNP_01365;dRep_bin172_ALNHGLMD_00728;dRep_bin158_OGFICEAP_00839;dRep_bin115_IFKGOGCL_02532;dRep_bin160_EFKMPBOM_02561;dRep_bin099_DNDAGJEJ_01292;dRep_bin335_JIOGNAPG_00064;dRep_bin164_KHMELCCL_00756	>dRep_bin081_JDPCKDNP_01365 Putative bifunctional phosphatase/peptidyl-prolyl cis-trans isomerase;>dRep_bin172_ALNHGLMD_00728 Putative bifunctional phosphatase/peptidyl-prolyl cis-trans isomerase;>dRep_bin158_OGFICEAP_00839 Peptidyl-prolyl cis-trans isomer	dRep_bin164_KHMELCCL_00756	CDS	ppiB	5.2.1.8	putative peptidyl-prolyl cis-trans isomerase
KHMELCCL_00792						22.65058						4	1	5,1627E-16	dRep_bin164_KHMELCCL_00792	dRep_bin164_KHMELCCL_00792	>dRep_bin164_KHMELCCL_00792 60 kDa chaperonin	dRep_bin164_KHMELCCL_00792	CDS	groL		60 kDa chaperonin
KHMELCCL_00895								24.33272				2	2	0,00046459	dRep_bin029_LFMGBBEC_00364;dRep_bin286_OEMIJKMC_00210;dRep_bin231_CFOLMJBA_00436;dRep_bin164_KHMELCCL_00895;dRep_bin126_PPDNCIBN_01113;dRep_bin354_MMOALAFN_00676;dRep_bin321_EJNAAGJG_00153;dRep_bin273_FGAEBHNP_00022;dRep_bin257_JHFDCHCB_01607;dRep_bin185_OOOLKACK_00892;dRep_bin221_LMGNIMOJ_00573	dRep_bin029_LFMGBBEC_00364;dRep_bin286_OEMIJKMC_00210;dRep_bin231_CFOLMJBA_00436;dRep_bin164_KHMELCCL_00895;dRep_bin126_PPDNCIBN_01113;dRep_bin354_MMOALAFN_00676;dRep_bin321_EJNAAGJG_00153;dRep_bin273_FGAEBHNP_00022;dRep_bin257_JHFDCHCB_01607;dRep_bin185_OOOLKACK_00892;dRep_bin221_LMGNIMOJ_00573	>dRep_bin029_LFMGBBEC_00364 Ribosome-recycling factor;>dRep_bin286_OEMIJKMC_00210 Ribosome-recycling factor;>dRep_bin231_CFOLMJBA_00436 Ribosome-recycling factor;>dRep_bin164_KHMELCCL_00895 Ribosome-recycling factor;>dRep_bin126_PPDNCIBN_01113 Ribosome-rec	dRep_bin164_KHMELCCL_00895	CDS	frr		Ribosome-recycling factor
KHMELCCL_00915								23.413639999999997				1	1	1,6824E-17	dRep_bin340_OFLHNGJM_00544;dRep_bin172_ALNHGLMD_01419;dRep_bin164_KHMELCCL_00915;dRep_bin148_NAJFKJMD_00379;dRep_bin029_LFMGBBEC_00860	dRep_bin340_OFLHNGJM_00544;dRep_bin172_ALNHGLMD_01419;dRep_bin164_KHMELCCL_00915;dRep_bin148_NAJFKJMD_00379;dRep_bin029_LFMGBBEC_00860	>dRep_bin340_OFLHNGJM_00544 putative zinc-ribbon domain protein;>dRep_bin172_ALNHGLMD_01419 putative zinc-ribbon domain protein;>dRep_bin164_KHMELCCL_00915 putative zinc-ribbon domain protein;>dRep_bin148_NAJFKJMD_00379 putative zinc-ribbon domain protein;	dRep_bin164_KHMELCCL_00915	CDS			putative zinc-ribbon domain protein
KHMELCCL_00939								21.504800000000003				5	1	3,9803E-89	dRep_bin260_HELEPKJL_01435;dRep_bin135_HHKACLPM_00878;dRep_bin279_IAEFEPEN_00125;dRep_bin139_KGAJINND_00653;dRep_bin047_IFFANOMN_00833;dRep_bin220_PILICLLL_01353;dRep_bin062_BOFBFLDA_00870;dRep_bin027_OFJCHLJJ_01114;dRep_bin145_KMJJJOEJ_00674;dRep_bin300_MJPPENNL_01153;dRep_bin282_PKAAPBFP_00002;dRep_bin091_MAFACGAD_00478;dRep_bin116_CLFDBMOF_00810;dRep_bin347_EKGCMFPD_00673;dRep_bin322_OJELOJOF_01660;dRep_bin335_JIOGNAPG_01578;dRep_bin201_OLKDIBOK_02525;dRep_bin160_EFKMPBOM_02349;dRep_bin077_DNNBMPMC_01926;dRep_bin246_MMFBABHK_00869;dRep_bin219_HGPEELLF_00755;dRep_bin174_LJJOKEME_01393;dRep_bin312_MJFEFHMP_00102;dRep_bin129_GADIAMAA_01507;dRep_bin030_OGPDLGOC_00490;dRep_bin004_OCHNPJPO_00897;dRep_bin061_ONFGDLGO_00219;dRep_bin264_DNFFGNEG_00399;dRep_bin153_JGABJFBF_00375;dRep_bin244_LBFMHLBI_00924;dRep_bin204_INMOGLDN_00439;dRep_bin050_FBECOHCI_00117;dRep_bin202_HEPPALPH_01023;dRep_bin223_PIMCDKJI_00571;dRep_bin233_BAGKKAOB_00161;dRep_bin336_MPGOKPOL_01196;dRep_bin333_EFOKIBLA_00139;dRep_bin303_DDDNDJCF_00008;dRep_bin095_HOBNOEEF_01151;dRep_bin249_OFIIEIDJ_00631;dRep_bin007_LNLEAAAN_00381;dRep_bin328_GIGKNKPJ_00383;dRep_bin081_JDPCKDNP_00006;dRep_bin078_GKFCBAEI_00579;dRep_bin325_EIIGOGHN_00717;dRep_bin319_PBDBJGCJ_01544;dRep_bin306_FGHMKMMP_01785;dRep_bin181_MKGPMPIA_01340;dRep_bin127_FIPNHBCH_01090;dRep_bin066_AJACLPEE_01002;dRep_bin024_OLHDGABE_01294;dRep_bin220_PILICLLL_00488;dRep_bin078_GKFCBAEI_00372;dRep_bin006_HPJGJCAG_01324;dRep_bin142_NDNPJBEM_00465;dRep_bin350_EKOOEEGH_00689;dRep_bin228_CECEDMJG_00916;dRep_bin218_ACMPALGF_00396;dRep_bin164_KHMELCCL_00939;dRep_bin173_BEBNCADL_00342;dRep_bin058_GJKCICJN_00554;dRep_bin268_LKMHIMLG_00442;dRep_bin237_KJDLIPND_00262;dRep_bin251_FGNGCJDD_00443;dRep_bin192_GCMBELNN_00009	dRep_bin260_HELEPKJL_01435;dRep_bin135_HHKACLPM_00878;dRep_bin279_IAEFEPEN_00125;dRep_bin139_KGAJINND_00653;dRep_bin047_IFFANOMN_00833	>dRep_bin260_HELEPKJL_01435 Trehalose import ATP-binding protein SugC;>dRep_bin135_HHKACLPM_00878 Trehalose import ATP-binding protein SugC;>dRep_bin279_IAEFEPEN_00125 Trehalose import ATP-binding protein SugC;>dRep_bin139_KGAJINND_00653 Trehalose import A	dRep_bin164_KHMELCCL_00939	CDS	ugpC	3.6.3.20	sn-glycerol-3-phosphate import ATP-binding protein UgpC
KHMELCCL_00990		25.334900000000005										3	1	5,9857E-23	dRep_bin287_DONBGKDH_01270;dRep_bin135_HHKACLPM_01661;dRep_bin062_BOFBFLDA_01051;dRep_bin092_OOJCPDEA_01517;dRep_bin018_ILOONPIC_00218;dRep_bin164_KHMELCCL_00990;dRep_bin322_OJELOJOF_00712;dRep_bin292_JIBLDOOH_00786;dRep_bin248_CCDFPECI_00998;dRep_bin303_DDDNDJCF_01599;dRep_bin209_NKIHFCEN_00645	dRep_bin287_DONBGKDH_01270;dRep_bin135_HHKACLPM_01661;dRep_bin062_BOFBFLDA_01051	>dRep_bin287_DONBGKDH_01270 Glycerol kinase;>dRep_bin135_HHKACLPM_01661 Glycerol kinase;>dRep_bin062_BOFBFLDA_01051 Glycerol kinase	dRep_bin164_KHMELCCL_00990	CDS	glpK	2.7.1.30	Glycerol kinase
KHMELCCL_00998					24.674920000000004	24.937960000000004	26.01261	24.51533				6	2	2,0208E-28	dRep_bin164_KHMELCCL_00998;dRep_bin220_PILICLLL_01304	dRep_bin164_KHMELCCL_00998	>dRep_bin164_KHMELCCL_00998 Ornithine carbamoyltransferase	dRep_bin164_KHMELCCL_00998	CDS	argF_1	2.1.3.3	Ornithine carbamoyltransferase
KHMELCCL_00999	26.315830000000002	25.86311	26.81372	24.902789999999996	25.562559999999998		27.192719999999998	25.765649999999997				2	2	1,2101E-15	dRep_bin263_OLEFOGIJ_00970;dRep_bin288_KOIAAABN_01196;dRep_bin268_LKMHIMLG_00673;dRep_bin340_OFLHNGJM_01514;dRep_bin310_IMBAFDIF_01448;dRep_bin164_KHMELCCL_00999;dRep_bin215_ABBFGCAF_00841;dRep_bin148_NAJFKJMD_00901	dRep_bin263_OLEFOGIJ_00970;dRep_bin288_KOIAAABN_01196;dRep_bin268_LKMHIMLG_00673;dRep_bin340_OFLHNGJM_01514;dRep_bin310_IMBAFDIF_01448;dRep_bin164_KHMELCCL_00999;dRep_bin215_ABBFGCAF_00841;dRep_bin148_NAJFKJMD_00901	>dRep_bin263_OLEFOGIJ_00970 putative succinyl-diaminopimelate desuccinylase;>dRep_bin288_KOIAAABN_01196 putative succinyl-diaminopimelate desuccinylase;>dRep_bin268_LKMHIMLG_00673 selenium_YgeY: putative selenium metabolism hydrolase;>dRep_bin340_OFLHNGJM_	dRep_bin164_KHMELCCL_00999	CDS	dapE_1	3.5.1.18	putative succinyl-diaminopimelate desuccinylase
KHMELCCL_01144		28.40989	27.643890000000003	27.208719999999996								3	3	4,9455E-19	dRep_bin148_NAJFKJMD_00822;dRep_bin029_LFMGBBEC_00323;dRep_bin164_KHMELCCL_01144	dRep_bin148_NAJFKJMD_00822;dRep_bin029_LFMGBBEC_00323	>dRep_bin148_NAJFKJMD_00822 50S ribosomal protein L11;>dRep_bin029_LFMGBBEC_00323 50S ribosomal protein L11	dRep_bin164_KHMELCCL_01144	CDS	rplK		50S ribosomal protein L11
KHMELCCL_01305					26.10079	26.514650000000003	26.612460000000002	26.019900000000003				7	5	8,7117E-17	dRep_bin053_OMGNPOOB_01327;dRep_bin339_DBNBAHDK_01802;dRep_bin097_CBBLIPAN_01339;dRep_bin086_HHEJBMCP_00287;dRep_bin059_OOBKFNPP_00186;dRep_bin147_EJLBNEBE_01381;dRep_bin333_EFOKIBLA_00847;dRep_bin164_KHMELCCL_01305;dRep_bin262_LLCGOPIE_00173;dRep_bin336_MPGOKPOL_01950;dRep_bin215_ABBFGCAF_00176;dRep_bin182_EMCFODCD_00688;dRep_bin166_DFIAJFEC_01191;dRep_bin142_NDNPJBEM_00220;dRep_bin126_PPDNCIBN_01004;dRep_bin044_IPFKHAEF_01344;dRep_bin100_CODMOHGB_01496;dRep_bin006_HPJGJCAG_01813	dRep_bin053_OMGNPOOB_01327;dRep_bin339_DBNBAHDK_01802	>dRep_bin053_OMGNPOOB_01327 GMP synthase [glutamine-hydrolyzing];>dRep_bin339_DBNBAHDK_01802 GMP synthase [glutamine-hydrolyzing]	dRep_bin164_KHMELCCL_01305	CDS	guaA	6.3.5.2	GMP synthase [glutamine-hydrolyzing]
KHMELCCL_01402					25.06357							5	1	3,6059E-73	dRep_bin203_CLFNNOCF_01682;dRep_bin347_EKGCMFPD_01504;dRep_bin284_DEHKNOBF_01057;dRep_bin260_HELEPKJL_00015;dRep_bin310_IMBAFDIF_00287;dRep_bin134_HIAPAODO_00846;dRep_bin062_BOFBFLDA_01435;dRep_bin300_MJPPENNL_01196;dRep_bin201_OLKDIBOK_02047;dRep_bin105_AAEIHAFF_01478;dRep_bin100_CODMOHGB_01221;dRep_bin088_DNGPPFDK_00866;dRep_bin277_MIPNGEJE_00690;dRep_bin166_DFIAJFEC_00146;dRep_bin161_JMKPMHCO_01114;dRep_bin059_OOBKFNPP_00125;dRep_bin046_GKEJLOEK_01062;dRep_bin091_MAFACGAD_00248;dRep_bin017_FGFLFOPJ_00727;dRep_bin354_MMOALAFN_00741;dRep_bin324_IPNHOHFK_00313;dRep_bin323_FBBLPLCG_01264;dRep_bin309_BIOHLCGG_01306;dRep_bin273_FGAEBHNP_00470;dRep_bin261_FJICAFFM_01100;dRep_bin148_NAJFKJMD_00795;dRep_bin115_IFKGOGCL_00123;dRep_bin069_EGGEOGDC_01056;dRep_bin344_CJJBDGAA_01161;dRep_bin249_OFIIEIDJ_00715;dRep_bin220_PILICLLL_00990;dRep_bin134_HIAPAODO_01436;dRep_bin065_DFABHCBI_00344;dRep_bin032_PPNIGLME_00203;dRep_bin270_GEJAHNCN_01587;dRep_bin065_DFABHCBI_00249;dRep_bin278_BFCONKOE_01054;dRep_bin016_JLGAHGOJ_00641;dRep_bin328_GIGKNKPJ_01462;dRep_bin308_JBPDGLPP_01172;dRep_bin303_DDDNDJCF_01320;dRep_bin254_GJDPFAEA_00870;dRep_bin234_ECABPBME_00536;dRep_bin186_HJAAFFNP_01789;dRep_bin167_BLMEBMNN_01296;dRep_bin107_EFNBPDOP_00511;dRep_bin077_DNNBMPMC_01864;dRep_bin066_AJACLPEE_01033;dRep_bin047_IFFANOMN_00697;dRep_bin135_HHKACLPM_00107;dRep_bin303_DDDNDJCF_00377;dRep_bin306_FGHMKMMP_01595;dRep_bin211_LGJEFJIK_00450;dRep_bin007_LNLEAAAN_01312;dRep_bin344_CJJBDGAA_01611;dRep_bin031_BNHMFOII_01628;dRep_bin353_PPDHLNJB_02118;dRep_bin254_GJDPFAEA_00869;dRep_bin094_LBLICAAO_00342;dRep_bin047_IFFANOMN_01357;dRep_bin120_EKLBOPNC_01832;dRep_bin168_HKDILBFE_01442;dRep_bin099_DNDAGJEJ_00392;dRep_bin215_ABBFGCAF_00798;dRep_bin029_LFMGBBEC_01628;dRep_bin240_LDBBGJKG_01094;dRep_bin279_IAEFEPEN_01491;dRep_bin130_OIFFANPF_01666;dRep_bin319_PBDBJGCJ_00268;dRep_bin017_FGFLFOPJ_00820;dRep_bin082_HBEFABJN_01328;dRep_bin245_MBCFLKOF_01762;dRep_bin027_OFJCHLJJ_00790;dRep_bin108_BPNCDINP_00911;dRep_bin308_JBPDGLPP_01750;dRep_bin193_GDMDPNNM_00480;dRep_bin344_CJJBDGAA_02078;dRep_bin049_MNFBDPNO_01413;dRep_bin096_GNHMEKPF_00097;dRep_bin104_EGLEJOLM_01934;dRep_bin339_DBNBAHDK_02499;dRep_bin321_EJNAAGJG_00755;dRep_bin273_FGAEBHNP_00835;dRep_bin250_NMCAMJIO_00087;dRep_bin247_EKGBJCBM_00317;dRep_bin148_NAJFKJMD_01189;dRep_bin337_FHKPNFDB_01633;dRep_bin320_LDBKCCKL_01786;dRep_bin304_JDNJGFKH_01982;dRep_bin286_OEMIJKMC_01141;dRep_bin231_CFOLMJBA_00953;dRep_bin162_JBGCCDIN_01636;dRep_bin126_PPDNCIBN_01067;dRep_bin109_MJABCPAK_00317;dRep_bin057_BNCFHBBO_00597;dRep_bin288_KOIAAABN_00012;dRep_bin263_OLEFOGIJ_00295;dRep_bin304_JDNJGFKH_00179;dRep_bin208_DHPGEIBC_00457;dRep_bin189_AHHEHGDL_01282;dRep_bin177_HLHGKLFL_00741;dRep_bin140_ACFAKGIL_00319;dRep_bin105_AAEIHAFF_01411;dRep_bin082_HBEFABJN_00692;dRep_bin010_MFFFGEGD_00717;dRep_bin005_CNDFPKJG_01705;dRep_bin287_DONBGKDH_01836;dRep_bin094_LBLICAAO_00388;dRep_bin058_GJKCICJN_00227;dRep_bin293_MEPKGOAN_00829;dRep_bin218_ACMPALGF_00229;dRep_bin205_LKIOOBKC_00417;dRep_bin172_ALNHGLMD_01439;dRep_bin159_ADJJGPBG_01342;dRep_bin143_PFLDJMPF_01248;dRep_bin101_BNDDLDCL_01982;dRep_bin091_MAFACGAD_01619;dRep_bin072_JOBJPCGA_00130;dRep_bin011_KOGMKLNO_01272;dRep_bin164_KHMELCCL_01402;dRep_bin305_FCIEFIHE_00371;dRep_bin222_GGCAJABB_00745;dRep_bin006_HPJGJCAG_01874;dRep_bin286_OEMIJKMC_01354;dRep_bin126_PPDNCIBN_00282;dRep_bin185_OOOLKACK_00819;dRep_bin043_KLAFNACO_00900;dRep_bin231_CFOLMJBA_01529;dRep_bin237_KJDLIPND_00869;dRep_bin147_EJLBNEBE_00138;dRep_bin186_HJAAFFNP_01790;dRep_bin081_JDPCKDNP_00172;dRep_bin069_EGGEOGDC_00890;dRep_bin282_PKAAPBFP_00016;dRep_bin206_OIIBOIAK_00984;dRep_bin161_JMKPMHCO_00782;dRep_bin278_BFCONKOE_00310;dRep_bin260_HELEPKJL_01944;dRep_bin336_MPGOKPOL_00897	dRep_bin203_CLFNNOCF_01682;dRep_bin347_EKGCMFPD_01504;dRep_bin284_DEHKNOBF_01057;dRep_bin260_HELEPKJL_00015;dRep_bin310_IMBAFDIF_00287;dRep_bin134_HIAPAODO_00846;dRep_bin062_BOFBFLDA_01435	>dRep_bin203_CLFNNOCF_01682 Glutamine synthetase;>dRep_bin347_EKGCMFPD_01504 Glutamine synthetase;>dRep_bin284_DEHKNOBF_01057 Glutamine synthetase;>dRep_bin260_HELEPKJL_00015 Glutamine synthetase;>dRep_bin310_IMBAFDIF_00287 Glutamine synthetase;>dRep_bin13	dRep_bin164_KHMELCCL_01402	CDS	glnA	6.3.1.2	Glutamine synthetase
KHMELCCL_01415	27.85941	28.463029999999996	27.93669	27.44016	27.75576	26.476719999999997	26.7366	28.52817				14	14	4,391E-48	F1SDC7;A0A287BBJ7;A0A287B9G0;A0A287BBP7;F1SDC4;dRep_bin331_HPKAPHAF_01456;dRep_bin247_EKGBJCBM_00024;dRep_bin164_KHMELCCL_01415;dRep_bin288_KOIAAABN_01793;dRep_bin081_JDPCKDNP_01454;I6L6E1;V9GZ89;A0A286ZP99;dRep_bin316_FNLHDNEO_00373	F1SDC7;A0A287BBJ7;A0A287B9G0	>tr|F1SDC7|F1SDC7_PIG Aldehyde dehydrogenase OS=Sus scrofa OX=9823 GN=ALDH3A2 PE=1 SV=3;>tr|A0A287BBJ7|A0A287BBJ7_PIG Aldehyde dehydrogenase 3 family member A2 OS=Sus scrofa OX=9823 GN=ALDH3A2 PE=1 SV=1;>tr|A0A287B9G0|A0A287B9G0_PIG Aldehyde dehydrogenase	dRep_bin164_KHMELCCL_01415	CDS	mdlD	1.2.1.28	NAD(P)-dependent benzaldehyde dehydrogenase
KHMELCCL_01489	28.09441	29.43966	27.510890000000003	26.619470000000003	29.28916	25.932019999999998	25.02335	27.464739999999995				11	9	1,3327E-285	dRep_bin039_IJNOFOJK_01927;dRep_bin257_JHFDCHCB_00104;dRep_bin308_JBPDGLPP_00395;dRep_bin164_KHMELCCL_01489;dRep_bin162_JBGCCDIN_00878;dRep_bin159_ADJJGPBG_00709;dRep_bin324_IPNHOHFK_00298;dRep_bin306_FGHMKMMP_00659	dRep_bin039_IJNOFOJK_01927	>dRep_bin039_IJNOFOJK_01927 ABC transporter periplasmic-binding protein YtfQ	dRep_bin164_KHMELCCL_01489	CDS	ytfQ_1		ABC transporter periplasmic-binding protein YtfQ
KHMELCCL_01524				20.39111								5	2	4,6259E-36	dRep_bin039_IJNOFOJK_01613;dRep_bin019_MOJEPLJF_00966;dRep_bin081_JDPCKDNP_02251;dRep_bin254_GJDPFAEA_00219;dRep_bin322_OJELOJOF_01676;dRep_bin017_FGFLFOPJ_00577;dRep_bin335_JIOGNAPG_01619;dRep_bin164_KHMELCCL_01524	dRep_bin039_IJNOFOJK_01613	>dRep_bin039_IJNOFOJK_01613 Xylulose kinase	dRep_bin164_KHMELCCL_01524	CDS	xylB_4	2.7.1.17	Xylulose kinase
KHMELCCL_01564							22.190360000000002					1	1	0,0079309	dRep_bin164_KHMELCCL_01564	dRep_bin164_KHMELCCL_01564	>dRep_bin164_KHMELCCL_01564 hypothetical protein	dRep_bin164_KHMELCCL_01564	CDS			hypothetical protein
KHMELCCL_01586							22.730719999999998					1	1	0,00023544	dRep_bin164_KHMELCCL_01586	dRep_bin164_KHMELCCL_01586	>dRep_bin164_KHMELCCL_01586 hypothetical protein	dRep_bin164_KHMELCCL_01586	CDS			hypothetical protein
KHMELCCL_01591		26.36701	26.859350000000003	26.93078								3	2	7,8209E-10	dRep_bin336_MPGOKPOL_02173;dRep_bin164_KHMELCCL_01591	dRep_bin336_MPGOKPOL_02173	>dRep_bin336_MPGOKPOL_02173 50S ribosomal protein L2	dRep_bin164_KHMELCCL_01591	CDS	rplB		50S ribosomal protein L2
KHMELCCL_01594	26.05889	25.68266	25.75603	25.172990000000002	25.33828	25.556810000000002	25.987219999999997	25.48296				3	3	2,4309E-15	dRep_bin164_KHMELCCL_01594	dRep_bin164_KHMELCCL_01594	>dRep_bin164_KHMELCCL_01594 30S ribosomal protein S3	dRep_bin164_KHMELCCL_01594	CDS	rpsC		30S ribosomal protein S3
KHMELCCL_01668					24.04293							5	0	2,2681E-29	dRep_bin130_OIFFANPF_01337;dRep_bin325_EIIGOGHN_01516;dRep_bin269_PNILGKPH_00361;dRep_bin266_JFOCEDAE_01517;dRep_bin075_EPEMMOCL_02280;dRep_bin007_LNLEAAAN_00876;dRep_bin260_HELEPKJL_00373;dRep_bin164_KHMELCCL_01668	dRep_bin130_OIFFANPF_01337;dRep_bin325_EIIGOGHN_01516;dRep_bin269_PNILGKPH_00361;dRep_bin266_JFOCEDAE_01517;dRep_bin075_EPEMMOCL_02280;dRep_bin007_LNLEAAAN_00876;dRep_bin260_HELEPKJL_00373	>dRep_bin130_OIFFANPF_01337 hypothetical protein;>dRep_bin325_EIIGOGHN_01516 hypothetical protein;>dRep_bin269_PNILGKPH_00361 hypothetical protein;>dRep_bin266_JFOCEDAE_01517 hypothetical protein;>dRep_bin075_EPEMMOCL_02280 hypothetical protein;>dRep_bin00	dRep_bin164_KHMELCCL_01668	CDS			hypothetical protein
KHMELCCL_01690		25.869239999999998										2	1	2,2848E-07	dRep_bin266_JFOCEDAE_00036;dRep_bin305_FCIEFIHE_00630;dRep_bin185_OOOLKACK_00882;dRep_bin164_KHMELCCL_01690;dRep_bin058_GJKCICJN_00976;dRep_bin139_KGAJINND_00031	dRep_bin266_JFOCEDAE_00036;dRep_bin305_FCIEFIHE_00630;dRep_bin185_OOOLKACK_00882;dRep_bin164_KHMELCCL_01690;dRep_bin058_GJKCICJN_00976;dRep_bin139_KGAJINND_00031	>dRep_bin266_JFOCEDAE_00036 Corrinoid/iron-sulfur protein small subunit;>dRep_bin305_FCIEFIHE_00630 Corrinoid/iron-sulfur protein small subunit;>dRep_bin185_OOOLKACK_00882 Corrinoid/iron-sulfur protein small subunit;>dRep_bin164_KHMELCCL_01690 Corrinoid/ir	dRep_bin164_KHMELCCL_01690	CDS	acsD		Corrinoid/iron-sulfur protein small subunit
KHMELCCL_01692	26.18629	26.15211	25.119060000000005	25.07194								3	2	9,2438E-13	dRep_bin148_NAJFKJMD_00763;dRep_bin164_KHMELCCL_01692	dRep_bin148_NAJFKJMD_00763	>dRep_bin148_NAJFKJMD_00763 5,10-methylenetetrahydrofolate reductase	dRep_bin164_KHMELCCL_01692	CDS			fadh2: methylenetetrahydrofolate reductase [NAD(P)H]
KHMELCCL_01772	28.932579999999998	28.116940000000003	28.51968	28.22637	28.189519999999998	28.423619999999996	28.953519999999997	28.19976				14	4	5,168E-125	dRep_bin164_KHMELCCL_01772	dRep_bin164_KHMELCCL_01772	>dRep_bin164_KHMELCCL_01772 Elongation factor Tu	dRep_bin164_KHMELCCL_01772	CDS	tuf		Elongation factor Tu
KHMELCCL_01773		28.373810000000002										4	1	1,5512E-10	dRep_bin164_KHMELCCL_01773	dRep_bin164_KHMELCCL_01773	>dRep_bin164_KHMELCCL_01773 Elongation factor G	dRep_bin164_KHMELCCL_01773	CDS	fusA		Elongation factor G
KHMELCCL_01820	24.882779999999997	26.40075	24.439739999999997	24.833060000000003	25.1806	27.267229999999998	24.89092	26.07463				5	0	3,0435E-44	dRep_bin234_ECABPBME_01240;dRep_bin079_GAOGCKND_00793;dRep_bin025_CBEJJMLE_01713;dRep_bin164_KHMELCCL_01820;dRep_bin218_ACMPALGF_00755;dRep_bin148_NAJFKJMD_00453	dRep_bin234_ECABPBME_01240;dRep_bin079_GAOGCKND_00793;dRep_bin025_CBEJJMLE_01713	>dRep_bin234_ECABPBME_01240 Rubrerythrin-1;>dRep_bin079_GAOGCKND_00793 Rubrerythrin-1;>dRep_bin025_CBEJJMLE_01713 Rubrerythrin-1	dRep_bin164_KHMELCCL_01820	CDS	rbr1	1.11.1.1	Rubrerythrin-1
KHMELCCL_01838					25.37812		27.18026	25.844050000000003				2	2	0,00039487	dRep_bin058_GJKCICJN_00268;dRep_bin100_CODMOHGB_01266;dRep_bin044_IPFKHAEF_01203;dRep_bin185_OOOLKACK_00254;dRep_bin142_NDNPJBEM_01439;dRep_bin332_KAOPCDPF_00210;dRep_bin193_GDMDPNNM_01660;dRep_bin215_ABBFGCAF_00629;dRep_bin268_LKMHIMLG_00104;dRep_bin164_KHMELCCL_01838;dRep_bin006_HPJGJCAG_01440;dRep_bin193_GDMDPNNM_00137;dRep_bin172_ALNHGLMD_01430;dRep_bin270_GEJAHNCN_01086;dRep_bin109_MJABCPAK_01283;dRep_bin059_OOBKFNPP_00443;dRep_bin126_PPDNCIBN_01623;dRep_bin231_CFOLMJBA_00378;dRep_bin286_OEMIJKMC_00470;dRep_bin126_PPDNCIBN_01274	dRep_bin058_GJKCICJN_00268;dRep_bin100_CODMOHGB_01266;dRep_bin044_IPFKHAEF_01203;dRep_bin185_OOOLKACK_00254;dRep_bin142_NDNPJBEM_01439;dRep_bin332_KAOPCDPF_00210;dRep_bin193_GDMDPNNM_01660;dRep_bin215_ABBFGCAF_00629;dRep_bin268_LKMHIMLG_00104;dRep_bin164_KHMELCCL_01838;dRep_bin006_HPJGJCAG_01440;dRep_bin193_GDMDPNNM_00137;dRep_bin172_ALNHGLMD_01430;dRep_bin270_GEJAHNCN_01086;dRep_bin109_MJABCPAK_01283;dRep_bin059_OOBKFNPP_00443;dRep_bin126_PPDNCIBN_01623;dRep_bin231_CFOLMJBA_00378;dRep_bin286_OEMIJKMC_00470;dRep_bin126_PPDNCIBN_01274	>dRep_bin058_GJKCICJN_00268 Pyrophosphate--fructose 6-phosphate 1-phosphotransferase;>dRep_bin100_CODMOHGB_01266 Pyrophosphate--fructose 6-phosphate 1-phosphotransferase;>dRep_bin044_IPFKHAEF_01203 Pyrophosphate--fructose 6-phosphate 1-phosphotransferase;>	dRep_bin164_KHMELCCL_01838	CDS	pfp	2.7.1.90	Pyrophosphate--fructose 6-phosphate 1-phosphotransferase
