GBprotID	LFQ intensity CtrPig1	LFQ intensity CtrPig2	LFQ intensity CtrPig3	LFQ intensity CtrPig4	LFQ intensity MannanPig1	LFQ intensity MannanPig2	LFQ intensity MannanPig3	LFQ intensity MannanPig4	Only identified by site	Reverse	Contaminant	Peptides	Unique peptides	PEP	Protein IDs	Majority protein IDs	Fasta headers	IDcomb	ftype	gene	EC_number	product
PNICKJKO_00019	28.87812	31.03453	28.62721	29.76994	28.290789999999998			28.22394				41	5	0	F1S0D7;dRep_bin284_DEHKNOBF_00519;dRep_bin169_PNICKJKO_00019;dRep_bin099_DNDAGJEJ_00743	F1S0D7	>tr|F1S0D7|F1S0D7_PIG Uncharacterized protein OS=Sus scrofa OX=9823 GN=LCT PE=1 SV=3	dRep_bin169_PNICKJKO_00019	CDS	bglA	3.2.1.21	Beta-glucosidase A
PNICKJKO_00103				21.86884								3	1	1,3797E-13	dRep_bin021_AJDDCGJC_00051;dRep_bin252_NDAKLAGD_00826;dRep_bin317_ABPHNCOD_01131;dRep_bin216_JNJMCPHB_01076;dRep_bin272_LGBDGEIM_00618;dRep_bin097_CBBLIPAN_01579;dRep_bin053_OMGNPOOB_00833;dRep_bin337_FHKPNFDB_00090;dRep_bin052_PGOOKKFH_01594;dRep_bin168_HKDILBFE_01015;dRep_bin322_OJELOJOF_01622;dRep_bin220_PILICLLL_01543;dRep_bin055_IBMMJAEE_00610;dRep_bin061_ONFGDLGO_01234;dRep_bin168_HKDILBFE_00368;dRep_bin055_IBMMJAEE_00168;dRep_bin261_FJICAFFM_00490;dRep_bin017_FGFLFOPJ_00414;dRep_bin115_IFKGOGCL_01280;dRep_bin257_JHFDCHCB_01406;dRep_bin323_FBBLPLCG_01600;dRep_bin007_LNLEAAAN_00766;dRep_bin049_MNFBDPNO_00781;dRep_bin333_EFOKIBLA_01149;dRep_bin279_IAEFEPEN_01471;dRep_bin234_ECABPBME_01515;dRep_bin179_HFEIPPPA_02108;dRep_bin023_HGFJFKAI_01527;dRep_bin335_JIOGNAPG_00787;dRep_bin250_NMCAMJIO_00423;dRep_bin158_OGFICEAP_00549;dRep_bin100_CODMOHGB_01341;dRep_bin089_PAJFOJBN_02515;dRep_bin088_DNGPPFDK_01371;dRep_bin081_JDPCKDNP_00684;dRep_bin324_IPNHOHFK_01454;dRep_bin300_MJPPENNL_01260;dRep_bin292_JIBLDOOH_01593;dRep_bin284_DEHKNOBF_00281;dRep_bin282_PKAAPBFP_00934;dRep_bin279_IAEFEPEN_01275;dRep_bin269_PNILGKPH_00152;dRep_bin240_LDBBGJKG_01257;dRep_bin226_NLNLHLLD_00367;dRep_bin209_NKIHFCEN_01541;dRep_bin203_CLFNNOCF_01928;dRep_bin179_HFEIPPPA_00359;dRep_bin167_BLMEBMNN_00233;dRep_bin160_EFKMPBOM_02132;dRep_bin154_JGOKHKLI_02775;dRep_bin133_NOBPDBPA_00727;dRep_bin114_FJHJKHGL_00838;dRep_bin095_HOBNOEEF_00822;dRep_bin075_EPEMMOCL_00939;dRep_bin074_EHAOMODJ_00291;dRep_bin065_DFABHCBI_01203;dRep_bin347_EKGCMFPD_00625;dRep_bin325_EIIGOGHN_00612;dRep_bin310_IMBAFDIF_01359;dRep_bin308_JBPDGLPP_00545;dRep_bin306_FGHMKMMP_01018;dRep_bin297_EDHEEICA_01903;dRep_bin201_OLKDIBOK_00335;dRep_bin186_HJAAFFNP_00409;dRep_bin173_BEBNCADL_00242;dRep_bin169_PNICKJKO_00103;dRep_bin145_KMJJJOEJ_01348;dRep_bin135_HHKACLPM_00566;dRep_bin101_BNDDLDCL_00036;dRep_bin069_EGGEOGDC_01480;dRep_bin062_BOFBFLDA_00487;dRep_bin047_IFFANOMN_01271;dRep_bin042_MMFCLHOO_00308;dRep_bin041_OPKGAAAG_00762;dRep_bin024_OLHDGABE_00679;dRep_bin016_JLGAHGOJ_01831;dRep_bin001_GHHJMDAL_00660;dRep_bin349_AMCJEEEG_00131;dRep_bin312_MJFEFHMP_00833;dRep_bin264_DNFFGNEG_00100;dRep_bin246_MMFBABHK_00297;dRep_bin219_HGPEELLF_00003;dRep_bin174_LJJOKEME_01103;dRep_bin129_GADIAMAA_01409;dRep_bin127_FIPNHBCH_00703;dRep_bin077_DNNBMPMC_01278;dRep_bin030_OGPDLGOC_01790;dRep_bin004_OCHNPJPO_01519;dRep_bin218_ACMPALGF_00968;dRep_bin185_OOOLKACK_00657;dRep_bin181_MKGPMPIA_00538;dRep_bin148_NAJFKJMD_01090;dRep_bin058_GJKCICJN_01056;dRep_bin291_EILOACJB_00579;dRep_bin244_LBFMHLBI_01277;dRep_bin223_PIMCDKJI_01006;dRep_bin204_INMOGLDN_01473;dRep_bin184_MBMMJHKO_00222;dRep_bin302_AHDEPDKG_00621;dRep_bin265_LFKFBJPC_00590;dRep_bin233_BAGKKAOB_00885;dRep_bin188_EJILNMPE_01053;dRep_bin081_JDPCKDNP_01324;dRep_bin318_IEDEJOFJ_00724;dRep_bin144_NPHACCKF_00221;dRep_bin096_GNHMEKPF_00086;dRep_bin344_CJJBDGAA_01489;dRep_bin295_EJGKDKNE_00851;dRep_bin048_PABMBHAL_01507;dRep_bin303_DDDNDJCF_00663;dRep_bin283_NLJJFFAC_01754;dRep_bin201_OLKDIBOK_00523;dRep_bin139_KGAJINND_01276;dRep_bin134_HIAPAODO_01158;dRep_bin094_LBLICAAO_00942;dRep_bin062_BOFBFLDA_00417;dRep_bin336_MPGOKPOL_02385;dRep_bin082_HBEFABJN_00650;dRep_bin125_FADLGGII_00540;dRep_bin334_NAPFFNLD_01195;dRep_bin217_MJCEAEPB_00530;dRep_bin195_DDMDFNOK_00971;dRep_bin060_HNFNENOI_00088;dRep_bin328_GIGKNKPJ_00426;dRep_bin281_OGHLKMAI_01076;dRep_bin197_NHLBHFEI_00626;dRep_bin103_IGJBLKMC_00726;dRep_bin116_CLFDBMOF_00455;dRep_bin332_KAOPCDPF_00448;dRep_bin345_GLPJDLOI_00589;dRep_bin314_KCHFPLIP_00788;dRep_bin128_JPBBHEMA_00693;dRep_bin073_AKBCEHHO_01462;dRep_bin045_GJACFFBC_00428;dRep_bin329_GDOHKPBL_01522;dRep_bin316_FNLHDNEO_00349;dRep_bin307_AOCKHIKF_00400;dRep_bin294_EHJINIDK_01408;dRep_bin289_KALDCNNP_01327;dRep_bin183_FPGIOKBG_00622;dRep_bin098_DDEBHDKK_01308;dRep_bin165_HMDFFMMM_01247;dRep_bin037_GEAOEKHA_01212;dRep_bin256_KEMNAOBC_00113;dRep_bin092_OOJCPDEA_01143;dRep_bin126_PPDNCIBN_00264;dRep_bin090_IPGNHCBJ_00911;dRep_bin215_ABBFGCAF_00280;dRep_bin005_CNDFPKJG_00629;dRep_bin270_GEJAHNCN_01426;dRep_bin116_CLFDBMOF_00686;dRep_bin069_EGGEOGDC_00857;dRep_bin007_LNLEAAAN_01604;dRep_bin057_BNCFHBBO_01159;dRep_bin038_EIGFILKG_00229;dRep_bin114_FJHJKHGL_00934;dRep_bin152_LJMCIADF_00045;dRep_bin322_OJELOJOF_00826;dRep_bin266_JFOCEDAE_00030;dRep_bin194_MEPDOGGJ_01235;dRep_bin079_GAOGCKND_01437;dRep_bin068_ENOLAELK_01387;dRep_bin025_CBEJJMLE_00917;dRep_bin240_LDBBGJKG_00802;dRep_bin347_EKGCMFPD_01498;dRep_bin167_BLMEBMNN_00596;dRep_bin160_EFKMPBOM_02114;dRep_bin260_HELEPKJL_02017;dRep_bin091_MAFACGAD_00797;dRep_bin099_DNDAGJEJ_01471;dRep_bin278_BFCONKOE_01179;dRep_bin168_HKDILBFE_00397;dRep_bin284_DEHKNOBF_00737;dRep_bin001_GHHJMDAL_01209;dRep_bin236_BNONDECB_00531;dRep_bin286_OEMIJKMC_01078;dRep_bin231_CFOLMJBA_00464;dRep_bin193_GDMDPNNM_00224;dRep_bin172_ALNHGLMD_01787;dRep_bin182_EMCFODCD_00065;dRep_bin044_IPFKHAEF_00183	dRep_bin021_AJDDCGJC_00051;dRep_bin252_NDAKLAGD_00826;dRep_bin317_ABPHNCOD_01131;dRep_bin216_JNJMCPHB_01076;dRep_bin272_LGBDGEIM_00618;dRep_bin097_CBBLIPAN_01579;dRep_bin053_OMGNPOOB_00833;dRep_bin337_FHKPNFDB_00090;dRep_bin052_PGOOKKFH_01594	>dRep_bin021_AJDDCGJC_00051 ATP synthase subunit alpha;>dRep_bin252_NDAKLAGD_00826 ATP synthase subunit alpha;>dRep_bin317_ABPHNCOD_01131 ATP synthase subunit alpha;>dRep_bin216_JNJMCPHB_01076 ATP synthase subunit alpha;>dRep_bin272_LGBDGEIM_00618 ATP synt	dRep_bin169_PNICKJKO_00103	CDS	atpA	3.6.3.14	ATP synthase subunit alpha
PNICKJKO_00153	24.79793	26.83846	25.03217									4	0	1,5719E-13	dRep_bin318_IEDEJOFJ_01240;dRep_bin101_BNDDLDCL_00756;dRep_bin303_DDDNDJCF_01356;dRep_bin140_ACFAKGIL_00086;dRep_bin169_PNICKJKO_00153	dRep_bin318_IEDEJOFJ_01240;dRep_bin101_BNDDLDCL_00756;dRep_bin303_DDDNDJCF_01356	>dRep_bin318_IEDEJOFJ_01240 Putative diflavin flavoprotein A 3;>dRep_bin101_BNDDLDCL_00756 Flavo-diiron protein FprA1;>dRep_bin303_DDDNDJCF_01356 Nitric oxide reductase	dRep_bin169_PNICKJKO_00153	CDS	fprA1	1.6.3.4	Flavo-diiron protein FprA1
PNICKJKO_00194			24.25256									1	1	0,007358	dRep_bin169_PNICKJKO_00194	dRep_bin169_PNICKJKO_00194	>dRep_bin169_PNICKJKO_00194 hypothetical protein	dRep_bin169_PNICKJKO_00194	CDS			hypothetical protein
PNICKJKO_00207						24.440759999999997		25.269739999999995				3	3	7,2828E-05	dRep_bin053_OMGNPOOB_00621;dRep_bin299_AKNBKJGM_01067;dRep_bin272_LGBDGEIM_00184;dRep_bin021_AJDDCGJC_01140;dRep_bin216_JNJMCPHB_01827;dRep_bin317_ABPHNCOD_01209;dRep_bin160_EFKMPBOM_02597;dRep_bin154_JGOKHKLI_02624;dRep_bin097_CBBLIPAN_00573;dRep_bin337_FHKPNFDB_00161;dRep_bin282_PKAAPBFP_01348;dRep_bin143_PFLDJMPF_00993;dRep_bin169_PNICKJKO_00207;dRep_bin032_PPNIGLME_00759;dRep_bin005_CNDFPKJG_01409;dRep_bin116_CLFDBMOF_00895;dRep_bin150_HCDEOBMH_00869;dRep_bin253_CPMOAOBJ_00404	dRep_bin053_OMGNPOOB_00621;dRep_bin299_AKNBKJGM_01067;dRep_bin272_LGBDGEIM_00184;dRep_bin021_AJDDCGJC_01140;dRep_bin216_JNJMCPHB_01827	>dRep_bin053_OMGNPOOB_00621 Argininosuccinate synthase;>dRep_bin299_AKNBKJGM_01067 Argininosuccinate synthase;>dRep_bin272_LGBDGEIM_00184 Argininosuccinate synthase;>dRep_bin021_AJDDCGJC_01140 Argininosuccinate synthase;>dRep_bin216_JNJMCPHB_01827 Arginino	dRep_bin169_PNICKJKO_00207	CDS	argG	6.3.4.5	Argininosuccinate synthase
PNICKJKO_00346						25.46488	22.31833					2	1	1,6457E-05	dRep_bin124_HIHDFGCL_00737;dRep_bin152_LJMCIADF_00126;dRep_bin169_PNICKJKO_00346;dRep_bin194_MEPDOGGJ_00957;dRep_bin025_CBEJJMLE_00693;dRep_bin032_PPNIGLME_01057	dRep_bin124_HIHDFGCL_00737;dRep_bin152_LJMCIADF_00126;dRep_bin169_PNICKJKO_00346;dRep_bin194_MEPDOGGJ_00957;dRep_bin025_CBEJJMLE_00693;dRep_bin032_PPNIGLME_01057	>dRep_bin124_HIHDFGCL_00737 Chaperone protein HtpG;>dRep_bin152_LJMCIADF_00126 Chaperone protein HtpG;>dRep_bin169_PNICKJKO_00346 Chaperone protein HtpG;>dRep_bin194_MEPDOGGJ_00957 Chaperone protein HtpG;>dRep_bin025_CBEJJMLE_00693 Chaperone protein HtpG;>	dRep_bin169_PNICKJKO_00346	CDS	htpG		Chaperone protein HtpG
PNICKJKO_00385					23.00606	23.896980000000003						2	1	8,6813E-10	dRep_bin324_IPNHOHFK_01144;dRep_bin297_EDHEEICA_00687;dRep_bin292_JIBLDOOH_02195;dRep_bin261_FJICAFFM_00057;dRep_bin226_NLNLHLLD_01357;dRep_bin209_NKIHFCEN_00791;dRep_bin203_CLFNNOCF_00406;dRep_bin179_HFEIPPPA_00190;dRep_bin157_JPNIKEKI_00583;dRep_bin133_NOBPDBPA_01168;dRep_bin041_OPKGAAAG_01275;dRep_bin168_HKDILBFE_01397;dRep_bin130_OIFFANPF_00962;dRep_bin083_OCBADPJJ_00812;dRep_bin169_PNICKJKO_00385;dRep_bin319_PBDBJGCJ_01796;dRep_bin109_MJABCPAK_00038;dRep_bin106_BKDHGPBE_00849;dRep_bin216_JNJMCPHB_01613;dRep_bin299_AKNBKJGM_00580;dRep_bin100_CODMOHGB_00911;dRep_bin317_ABPHNCOD_01390;dRep_bin272_LGBDGEIM_00788;dRep_bin249_OFIIEIDJ_00467;dRep_bin066_AJACLPEE_01038;dRep_bin335_JIOGNAPG_00681;dRep_bin234_ECABPBME_00227;dRep_bin088_DNGPPFDK_01237;dRep_bin303_DDDNDJCF_00797;dRep_bin300_MJPPENNL_00671;dRep_bin279_IAEFEPEN_01368;dRep_bin278_BFCONKOE_00336;dRep_bin269_PNILGKPH_01089;dRep_bin260_HELEPKJL_01496;dRep_bin089_PAJFOJBN_00528;dRep_bin027_OFJCHLJJ_00828;dRep_bin019_MOJEPLJF_01606;dRep_bin116_CLFDBMOF_00536;dRep_bin057_BNCFHBBO_00059;dRep_bin134_HIAPAODO_00123;dRep_bin322_OJELOJOF_01583;dRep_bin270_GEJAHNCN_00957;dRep_bin348_LCLFDNEE_00829;dRep_bin295_EJGKDKNE_00315;dRep_bin277_MIPNGEJE_01644;dRep_bin166_DFIAJFEC_00192;dRep_bin264_DNFFGNEG_00340;dRep_bin153_JGABJFBF_01236;dRep_bin114_FJHJKHGL_00133;dRep_bin111_FPJIHFKE_00195;dRep_bin252_NDAKLAGD_00473;dRep_bin247_EKGBJCBM_00710;dRep_bin035_JBNPBOKG_01025;dRep_bin026_HNPIIINL_00916;dRep_bin085_MBHLGCDB_01217;dRep_bin068_ENOLAELK_00657;dRep_bin049_MNFBDPNO_00064;dRep_bin038_EIGFILKG_00881;dRep_bin152_LJMCIADF_01515;dRep_bin079_GAOGCKND_00762;dRep_bin231_CFOLMJBA_00732;dRep_bin126_PPDNCIBN_00705;dRep_bin333_EFOKIBLA_00857;dRep_bin123_PJKBFKBB_00290;dRep_bin185_OOOLKACK_01362;dRep_bin305_FCIEFIHE_01147;dRep_bin070_EMBHKIOF_00605;dRep_bin006_HPJGJCAG_01539;dRep_bin101_BNDDLDCL_00049;dRep_bin331_HPKAPHAF_00752;dRep_bin301_NJFJIJGA_00013;dRep_bin037_GEAOEKHA_01146;dRep_bin087_FCLGAPPI_00654;dRep_bin159_ADJJGPBG_01916;dRep_bin304_JDNJGFKH_01533;dRep_bin120_EKLBOPNC_00943;dRep_bin162_JBGCCDIN_00762;dRep_bin072_JOBJPCGA_01185;dRep_bin320_LDBKCCKL_00985;dRep_bin245_MBCFLKOF_00867;dRep_bin010_MFFFGEGD_00116;dRep_bin205_LKIOOBKC_01048;dRep_bin043_KLAFNACO_01234;dRep_bin011_KOGMKLNO_01366;dRep_bin189_AHHEHGDL_01620;dRep_bin222_GGCAJABB_00316;dRep_bin208_DHPGEIBC_01479;dRep_bin130_OIFFANPF_00887	dRep_bin324_IPNHOHFK_01144;dRep_bin297_EDHEEICA_00687;dRep_bin292_JIBLDOOH_02195;dRep_bin261_FJICAFFM_00057;dRep_bin226_NLNLHLLD_01357;dRep_bin209_NKIHFCEN_00791;dRep_bin203_CLFNNOCF_00406;dRep_bin179_HFEIPPPA_00190;dRep_bin157_JPNIKEKI_00583;dRep_bin133_NOBPDBPA_01168;dRep_bin041_OPKGAAAG_01275;dRep_bin168_HKDILBFE_01397;dRep_bin130_OIFFANPF_00962;dRep_bin083_OCBADPJJ_00812;dRep_bin169_PNICKJKO_00385;dRep_bin319_PBDBJGCJ_01796;dRep_bin109_MJABCPAK_00038;dRep_bin106_BKDHGPBE_00849;dRep_bin216_JNJMCPHB_01613;dRep_bin299_AKNBKJGM_00580;dRep_bin100_CODMOHGB_00911;dRep_bin317_ABPHNCOD_01390;dRep_bin272_LGBDGEIM_00788;dRep_bin249_OFIIEIDJ_00467;dRep_bin066_AJACLPEE_01038;dRep_bin335_JIOGNAPG_00681;dRep_bin234_ECABPBME_00227;dRep_bin088_DNGPPFDK_01237;dRep_bin303_DDDNDJCF_00797;dRep_bin300_MJPPENNL_00671;dRep_bin279_IAEFEPEN_01368;dRep_bin278_BFCONKOE_00336;dRep_bin269_PNILGKPH_01089;dRep_bin260_HELEPKJL_01496;dRep_bin089_PAJFOJBN_00528;dRep_bin027_OFJCHLJJ_00828;dRep_bin019_MOJEPLJF_01606;dRep_bin116_CLFDBMOF_00536;dRep_bin057_BNCFHBBO_00059;dRep_bin134_HIAPAODO_00123;dRep_bin322_OJELOJOF_01583;dRep_bin270_GEJAHNCN_00957;dRep_bin348_LCLFDNEE_00829;dRep_bin295_EJGKDKNE_00315;dRep_bin277_MIPNGEJE_01644;dRep_bin166_DFIAJFEC_00192;dRep_bin264_DNFFGNEG_00340;dRep_bin153_JGABJFBF_01236;dRep_bin114_FJHJKHGL_00133;dRep_bin111_FPJIHFKE_00195;dRep_bin252_NDAKLAGD_00473;dRep_bin247_EKGBJCBM_00710;dRep_bin035_JBNPBOKG_01025;dRep_bin026_HNPIIINL_00916;dRep_bin085_MBHLGCDB_01217;dRep_bin068_ENOLAELK_00657;dRep_bin049_MNFBDPNO_00064;dRep_bin038_EIGFILKG_00881;dRep_bin152_LJMCIADF_01515;dRep_bin079_GAOGCKND_00762;dRep_bin231_CFOLMJBA_00732;dRep_bin126_PPDNCIBN_00705;dRep_bin333_EFOKIBLA_00857;dRep_bin123_PJKBFKBB_00290;dRep_bin185_OOOLKACK_01362;dRep_bin305_FCIEFIHE_01147;dRep_bin070_EMBHKIOF_00605;dRep_bin006_HPJGJCAG_01539;dRep_bin101_BNDDLDCL_00049;dRep_bin331_HPKAPHAF_00752;dRep_bin301_NJFJIJGA_00013;dRep_bin037_GEAOEKHA_01146;dRep_bin087_FCLGAPPI_00654;dRep_bin159_ADJJGPBG_01916;dRep_bin304_JDNJGFKH_01533;dRep_bin120_EKLBOPNC_00943;dRep_bin162_JBGCCDIN_00762;dRep_bin072_JOBJPCGA_01185;dRep_bin320_LDBKCCKL_00985;dRep_bin245_MBCFLKOF_00867;dRep_bin010_MFFFGEGD_00116;dRep_bin205_LKIOOBKC_01048;dRep_bin043_KLAFNACO_01234;dRep_bin011_KOGMKLNO_01366;dRep_bin189_AHHEHGDL_01620;dRep_bin222_GGCAJABB_00316;dRep_bin208_DHPGEIBC_01479;dRep_bin130_OIFFANPF_00887	>dRep_bin324_IPNHOHFK_01144 Glutaconyl-CoA decarboxylase subunit beta;>dRep_bin297_EDHEEICA_00687 Glutaconyl-CoA decarboxylase subunit beta;>dRep_bin292_JIBLDOOH_02195 Glutaconyl-CoA decarboxylase subunit beta;>dRep_bin261_FJICAFFM_00057 Glutaconyl-CoA dec	dRep_bin169_PNICKJKO_00385	CDS	gcdB	4.1.1.70	Glutaconyl-CoA decarboxylase subunit beta
PNICKJKO_00392	27.71463	27.68331	26.889139999999998	28.01861	27.595769999999998	28.02733	26.771910000000002	27.17978				11	6	2,981E-44	dRep_bin169_PNICKJKO_00392	dRep_bin169_PNICKJKO_00392	>dRep_bin169_PNICKJKO_00392 Phosphoenolpyruvate carboxykinase [GTP]	dRep_bin169_PNICKJKO_00392	CDS	pckG	4.1.1.32	Phosphoenolpyruvate carboxykinase [GTP]
PNICKJKO_00453	27.00903	26.562599999999996	26.774800000000003	26.61821	28.10924	26.945809999999998	27.06466	27.56405				28	1	6,4819E-172	dRep_bin169_PNICKJKO_00453;dRep_bin043_KLAFNACO_00200	dRep_bin169_PNICKJKO_00453	>dRep_bin169_PNICKJKO_00453 Pyruvate, phosphate dikinase	dRep_bin169_PNICKJKO_00453	CDS	ppdK	2.7.9.1	Pyruvate, phosphate dikinase
PNICKJKO_00497					23.93742			23.47098				3	1	1,1062E-09	dRep_bin243_JDMELKLC_00398;dRep_bin303_DDDNDJCF_00769;dRep_bin282_PKAAPBFP_01679;dRep_bin201_OLKDIBOK_01319;dRep_bin319_PBDBJGCJ_01591;dRep_bin242_LKAIBGGJ_00029;dRep_bin310_IMBAFDIF_01505;dRep_bin260_HELEPKJL_01696;dRep_bin166_DFIAJFEC_00514;dRep_bin147_EJLBNEBE_00361;dRep_bin077_DNNBMPMC_00391;dRep_bin282_PKAAPBFP_00757;dRep_bin041_OPKGAAAG_01476;dRep_bin179_HFEIPPPA_00680;dRep_bin169_PNICKJKO_00497;dRep_bin139_KGAJINND_01602;dRep_bin101_BNDDLDCL_01738;dRep_bin023_HGFJFKAI_01298;dRep_bin160_EFKMPBOM_01956;dRep_bin069_EGGEOGDC_01526	dRep_bin243_JDMELKLC_00398;dRep_bin303_DDDNDJCF_00769;dRep_bin282_PKAAPBFP_01679;dRep_bin201_OLKDIBOK_01319;dRep_bin319_PBDBJGCJ_01591;dRep_bin242_LKAIBGGJ_00029;dRep_bin310_IMBAFDIF_01505;dRep_bin260_HELEPKJL_01696;dRep_bin166_DFIAJFEC_00514;dRep_bin147_EJLBNEBE_00361;dRep_bin077_DNNBMPMC_00391;dRep_bin282_PKAAPBFP_00757;dRep_bin041_OPKGAAAG_01476;dRep_bin179_HFEIPPPA_00680;dRep_bin169_PNICKJKO_00497;dRep_bin139_KGAJINND_01602;dRep_bin101_BNDDLDCL_01738;dRep_bin023_HGFJFKAI_01298;dRep_bin160_EFKMPBOM_01956;dRep_bin069_EGGEOGDC_01526	>dRep_bin243_JDMELKLC_00398 Enolase;>dRep_bin303_DDDNDJCF_00769 Enolase;>dRep_bin282_PKAAPBFP_01679 Enolase;>dRep_bin201_OLKDIBOK_01319 Enolase;>dRep_bin319_PBDBJGCJ_01591 Enolase;>dRep_bin242_LKAIBGGJ_00029 Enolase;>dRep_bin310_IMBAFDIF_01505 Enolase;>dRe	dRep_bin169_PNICKJKO_00497	CDS	eno	4.2.1.11	Enolase
PNICKJKO_00577	22.442129999999995		23.827260000000003	22.52984	24.373910000000002	23.1697	24.233810000000002	23.283759999999997				3	2	1,2032E-19	dRep_bin201_OLKDIBOK_02152;dRep_bin303_DDDNDJCF_00821;dRep_bin134_HIAPAODO_01657;dRep_bin287_DONBGKDH_00415;dRep_bin158_OGFICEAP_00108;dRep_bin257_JHFDCHCB_00470;dRep_bin323_FBBLPLCG_00211;dRep_bin169_PNICKJKO_00577;dRep_bin056_EMNHHOJA_00890;dRep_bin024_OLHDGABE_01284;dRep_bin066_AJACLPEE_00551;dRep_bin254_GJDPFAEA_01693;dRep_bin207_OHNPDPFI_01049;dRep_bin151_AHBJLMBI_00266;dRep_bin119_AKFBCGDO_00602;dRep_bin081_JDPCKDNP_00442;dRep_bin027_OFJCHLJJ_00341;dRep_bin009_KMMEHEKA_00446;dRep_bin322_OJELOJOF_01023;dRep_bin321_EJNAAGJG_00651;dRep_bin282_PKAAPBFP_01369;dRep_bin273_FGAEBHNP_01231;dRep_bin016_JLGAHGOJ_00303;dRep_bin147_EJLBNEBE_01876;dRep_bin026_HNPIIINL_01011;dRep_bin309_BIOHLCGG_00817;dRep_bin253_CPMOAOBJ_01191;dRep_bin278_BFCONKOE_00460;dRep_bin227_IJODGBOI_00814;dRep_bin220_PILICLLL_00789	dRep_bin201_OLKDIBOK_02152;dRep_bin303_DDDNDJCF_00821;dRep_bin134_HIAPAODO_01657;dRep_bin287_DONBGKDH_00415;dRep_bin158_OGFICEAP_00108;dRep_bin257_JHFDCHCB_00470;dRep_bin323_FBBLPLCG_00211;dRep_bin169_PNICKJKO_00577;dRep_bin056_EMNHHOJA_00890;dRep_bin024_OLHDGABE_01284	>dRep_bin201_OLKDIBOK_02152 Leucine--tRNA ligase;>dRep_bin303_DDDNDJCF_00821 Leucine--tRNA ligase;>dRep_bin134_HIAPAODO_01657 Leucine--tRNA ligase;>dRep_bin287_DONBGKDH_00415 Leucine--tRNA ligase;>dRep_bin158_OGFICEAP_00108 Leucine--tRNA ligase;>dRep_bin25	dRep_bin169_PNICKJKO_00577	CDS	leuS	6.1.1.4	Leucine--tRNA ligase
PNICKJKO_00585	26.20665	25.682119999999998	28.042229999999996	26.352960000000003	28.674960000000006	28.704050000000002	29.36001	28.2202				3	2	1,1698E-10	dRep_bin053_OMGNPOOB_00454;dRep_bin101_BNDDLDCL_00199;dRep_bin169_PNICKJKO_00585	dRep_bin053_OMGNPOOB_00454	>dRep_bin053_OMGNPOOB_00454 putative HIT-like protein	dRep_bin169_PNICKJKO_00585	CDS		3.9.1.-	Purine nucleoside phosphoramidase
PNICKJKO_00645	30.77886	30.147950000000005	29.721980000000002	29.284029999999998	28.255029999999998	28.52006	29.5185	29.39372				14	14	0	dRep_bin225_FLBKEJIP_01498;dRep_bin169_PNICKJKO_00645	dRep_bin225_FLBKEJIP_01498	>dRep_bin225_FLBKEJIP_01498 Sucrose phosphorylase	dRep_bin169_PNICKJKO_00645	CDS	gtfA	2.4.1.7	Sucrose phosphorylase
PNICKJKO_00676	25.875	25.45149	25.49692	25.47927	24.88087	25.36369	24.21801	24.50603				3	1	2,3495E-07	dRep_bin169_PNICKJKO_00676;dRep_bin123_PJKBFKBB_00132;dRep_bin032_PPNIGLME_01201;dRep_bin302_AHDEPDKG_00471;dRep_bin339_DBNBAHDK_00794;dRep_bin143_PFLDJMPF_01190	dRep_bin169_PNICKJKO_00676;dRep_bin123_PJKBFKBB_00132;dRep_bin032_PPNIGLME_01201	>dRep_bin169_PNICKJKO_00676 Aspartate-semialdehyde dehydrogenase;>dRep_bin123_PJKBFKBB_00132 Aspartate-semialdehyde dehydrogenase;>dRep_bin032_PPNIGLME_01201 Aspartate-semialdehyde dehydrogenase	dRep_bin169_PNICKJKO_00676	CDS	asd	1.2.1.11	Aspartate-semialdehyde dehydrogenase
PNICKJKO_00787							24.95757	24.02149				6	1	7,2707E-47	dRep_bin248_CCDFPECI_01517;dRep_bin095_HOBNOEEF_01190;dRep_bin269_PNILGKPH_01796;dRep_bin240_LDBBGJKG_00146;dRep_bin225_FLBKEJIP_00866;dRep_bin100_CODMOHGB_00292;dRep_bin044_IPFKHAEF_00946;dRep_bin325_EIIGOGHN_00062;dRep_bin091_MAFACGAD_01165;dRep_bin016_JLGAHGOJ_00453;dRep_bin211_LGJEFJIK_00348;dRep_bin135_HHKACLPM_00457;dRep_bin075_EPEMMOCL_00485;dRep_bin306_FGHMKMMP_00321;dRep_bin107_EFNBPDOP_00109;dRep_bin077_DNNBMPMC_01424;dRep_bin282_PKAAPBFP_00462;dRep_bin181_MKGPMPIA_00362;dRep_bin349_AMCJEEEG_00053;dRep_bin286_OEMIJKMC_00055;dRep_bin231_CFOLMJBA_01056;dRep_bin182_EMCFODCD_00166;dRep_bin172_ALNHGLMD_00138;dRep_bin270_GEJAHNCN_00840;dRep_bin169_PNICKJKO_00787;dRep_bin085_MBHLGCDB_00687;dRep_bin143_PFLDJMPF_00820;dRep_bin074_EHAOMODJ_01303;dRep_bin059_OOBKFNPP_00785;dRep_bin005_CNDFPKJG_00735;dRep_bin299_AKNBKJGM_01258;dRep_bin321_EJNAAGJG_00978;dRep_bin273_FGAEBHNP_00355;dRep_bin049_MNFBDPNO_01410	dRep_bin248_CCDFPECI_01517;dRep_bin095_HOBNOEEF_01190;dRep_bin269_PNILGKPH_01796;dRep_bin240_LDBBGJKG_00146	>dRep_bin248_CCDFPECI_01517 DNA-directed RNA polymerase subunit alpha;>dRep_bin095_HOBNOEEF_01190 DNA-directed RNA polymerase subunit alpha;>dRep_bin269_PNILGKPH_01796 DNA-directed RNA polymerase subunit alpha;>dRep_bin240_LDBBGJKG_00146 DNA-directed RNA p	dRep_bin169_PNICKJKO_00787	CDS	rpoA	2.7.7.6	DNA-directed RNA polymerase subunit alpha
PNICKJKO_00788				23.93112								5	1	2,6605E-19	dRep_bin034_MEBMFDLL_01056;dRep_bin279_IAEFEPEN_01416;dRep_bin177_HLHGKLFL_00481;dRep_bin169_PNICKJKO_00788;dRep_bin140_ACFAKGIL_01122;dRep_bin003_GOBBLOGO_00647;dRep_bin299_AKNBKJGM_01257;dRep_bin257_JHFDCHCB_00866;dRep_bin018_ILOONPIC_00165;dRep_bin238_OLNFACLE_00469;dRep_bin125_FADLGGII_00937;dRep_bin035_JBNPBOKG_01441;dRep_bin348_LCLFDNEE_00738;dRep_bin331_HPKAPHAF_00145;dRep_bin172_ALNHGLMD_00137;dRep_bin106_BKDHGPBE_00653;dRep_bin304_JDNJGFKH_00619;dRep_bin205_LKIOOBKC_00377	dRep_bin034_MEBMFDLL_01056	>dRep_bin034_MEBMFDLL_01056 30S ribosomal protein S4	dRep_bin169_PNICKJKO_00788	CDS	rpsD		30S ribosomal protein S4
PNICKJKO_00799			27.785689999999995	29.70708	28.134080000000004			27.05879				2	2	1,1008E-06	dRep_bin299_AKNBKJGM_01248;dRep_bin175_HANCENAK_01523;dRep_bin169_PNICKJKO_00799;dRep_bin166_DFIAJFEC_00226;dRep_bin123_PJKBFKBB_00839;dRep_bin306_FGHMKMMP_01715;dRep_bin211_LGJEFJIK_01528;dRep_bin081_JDPCKDNP_01246;dRep_bin031_BNHMFOII_01050	dRep_bin299_AKNBKJGM_01248;dRep_bin175_HANCENAK_01523;dRep_bin169_PNICKJKO_00799;dRep_bin166_DFIAJFEC_00226;dRep_bin123_PJKBFKBB_00839;dRep_bin306_FGHMKMMP_01715;dRep_bin211_LGJEFJIK_01528;dRep_bin081_JDPCKDNP_01246;dRep_bin031_BNHMFOII_01050	>dRep_bin299_AKNBKJGM_01248 50S ribosomal protein L18;>dRep_bin175_HANCENAK_01523 50S ribosomal protein L18;>dRep_bin169_PNICKJKO_00799 50S ribosomal protein L18;>dRep_bin166_DFIAJFEC_00226 50S ribosomal protein L18;>dRep_bin123_PJKBFKBB_00839 50S ribosoma	dRep_bin169_PNICKJKO_00799	CDS	rplR		50S ribosomal protein L18
PNICKJKO_00809					26.86136	26.749319999999997	26.92739	26.71516				3	0	5,3736E-34	dRep_bin347_EKGCMFPD_01103;dRep_bin081_JDPCKDNP_01236;dRep_bin176_DLEJNGKN_01638;dRep_bin003_GOBBLOGO_01252;dRep_bin109_MJABCPAK_00929;dRep_bin339_DBNBAHDK_00857;dRep_bin169_PNICKJKO_00809;dRep_bin321_EJNAAGJG_01011	dRep_bin347_EKGCMFPD_01103;dRep_bin081_JDPCKDNP_01236	>dRep_bin347_EKGCMFPD_01103 30S ribosomal protein S3;>dRep_bin081_JDPCKDNP_01236 30S ribosomal protein S3	dRep_bin169_PNICKJKO_00809	CDS	rpsC		30S ribosomal protein S3
PNICKJKO_00811	25.53774		25.70432	26.565419999999996								4	2	6,3671E-17	dRep_bin123_PJKBFKBB_00851;dRep_bin339_DBNBAHDK_00855;dRep_bin105_AAEIHAFF_01512;dRep_bin169_PNICKJKO_00811;dRep_bin056_EMNHHOJA_00794	dRep_bin123_PJKBFKBB_00851;dRep_bin339_DBNBAHDK_00855;dRep_bin105_AAEIHAFF_01512;dRep_bin169_PNICKJKO_00811;dRep_bin056_EMNHHOJA_00794	>dRep_bin123_PJKBFKBB_00851 30S ribosomal protein S19;>dRep_bin339_DBNBAHDK_00855 30S ribosomal protein S19;>dRep_bin105_AAEIHAFF_01512 30S ribosomal protein S19;>dRep_bin169_PNICKJKO_00811 30S ribosomal protein S19;>dRep_bin056_EMNHHOJA_00794 30S ribosoma	dRep_bin169_PNICKJKO_00811	CDS	rpsS		30S ribosomal protein S19
PNICKJKO_00877					25.616020000000002	23.6184	23.54922					4	1	1,9799E-33	dRep_bin260_HELEPKJL_01845;dRep_bin201_OLKDIBOK_00112;dRep_bin303_DDDNDJCF_00142;dRep_bin287_DONBGKDH_01854;dRep_bin322_OJELOJOF_01184;dRep_bin257_JHFDCHCB_00967;dRep_bin169_PNICKJKO_00877;A0A287A8P8;dRep_bin051_HIEIDCID_00151;dRep_bin086_HHEJBMCP_00386;dRep_bin122_JHMJFODI_00063;dRep_bin023_HGFJFKAI_00771;dRep_bin181_MKGPMPIA_00103;dRep_bin066_AJACLPEE_00701;dRep_bin259_IFIOODLK_02454;dRep_bin180_JMFOHHIL_00810;dRep_bin176_DLEJNGKN_00496;dRep_bin102_ICFDHPGB_00705;dRep_bin054_NNOKONMC_00274;dRep_bin141_GMCOOECB_00272;dRep_bin081_JDPCKDNP_01556;dRep_bin191_NGFJMLOL_01066;dRep_bin347_EKGCMFPD_00368;dRep_bin258_DAMEHFEK_00953;dRep_bin207_OHNPDPFI_00730;dRep_bin155_CLHNKEHA_00341;dRep_bin147_EJLBNEBE_00007;dRep_bin003_GOBBLOGO_01064;dRep_bin001_GHHJMDAL_00643;dRep_bin178_FLGBGGJB_01411;dRep_bin161_JMKPMHCO_00287;dRep_bin096_GNHMEKPF_00190;dRep_bin074_EHAOMODJ_00071;dRep_bin059_OOBKFNPP_00877;dRep_bin009_KMMEHEKA_00693;dRep_bin308_JBPDGLPP_01578;dRep_bin276_EHNFLEBP_00798;dRep_bin337_FHKPNFDB_01542;dRep_bin273_FGAEBHNP_00709;dRep_bin167_BLMEBMNN_01919;dRep_bin114_FJHJKHGL_00074;dRep_bin085_MBHLGCDB_00354;dRep_bin058_GJKCICJN_00485;A0A287B9S9;dRep_bin342_BMMENEMP_00811;dRep_bin341_NBEGOKEF_00144;dRep_bin231_CFOLMJBA_00136;dRep_bin095_HOBNOEEF_01465;dRep_bin236_BNONDECB_00582;dRep_bin168_HKDILBFE_01225;dRep_bin099_DNDAGJEJ_01201;dRep_bin024_OLHDGABE_00735;dRep_bin006_HPJGJCAG_01680;I3LL84;dRep_bin332_KAOPCDPF_00242;dRep_bin336_MPGOKPOL_00237;A0A287BIW1;dRep_bin319_PBDBJGCJ_00470	dRep_bin260_HELEPKJL_01845;dRep_bin201_OLKDIBOK_00112;dRep_bin303_DDDNDJCF_00142;dRep_bin287_DONBGKDH_01854	>dRep_bin260_HELEPKJL_01845 UDP-glucose 4-epimerase;>dRep_bin201_OLKDIBOK_00112 UDP-glucose 4-epimerase;>dRep_bin303_DDDNDJCF_00142 UDP-glucose 4-epimerase;>dRep_bin287_DONBGKDH_01854 UDP-glucose 4-epimerase	dRep_bin169_PNICKJKO_00877	CDS	galE	5.1.3.2	UDP-glucose 4-epimerase
PNICKJKO_00880								21.643810000000002				9	0	4,6207E-36	dRep_bin143_PFLDJMPF_01162;dRep_bin074_EHAOMODJ_00197;dRep_bin152_LJMCIADF_00840;dRep_bin079_GAOGCKND_00311;dRep_bin068_ENOLAELK_00990;dRep_bin124_HIHDFGCL_00318;dRep_bin272_LGBDGEIM_00728;dRep_bin337_FHKPNFDB_00324;dRep_bin056_EMNHHOJA_01446;dRep_bin054_NNOKONMC_00657;dRep_bin102_ICFDHPGB_00342;dRep_bin259_IFIOODLK_00485;dRep_bin086_HHEJBMCP_01132;dRep_bin054_NNOKONMC_00873;dRep_bin161_JMKPMHCO_00072;dRep_bin044_IPFKHAEF_00005;dRep_bin085_MBHLGCDB_01101;dRep_bin059_OOBKFNPP_00481;dRep_bin171_FIDMCACI_00747;dRep_bin012_KEBBILMO_00314;dRep_bin212_IEMJENOD_00204;dRep_bin257_JHFDCHCB_01099;dRep_bin277_MIPNGEJE_00939;dRep_bin238_OLNFACLE_01881;dRep_bin200_JJGKEOHI_00480;dRep_bin144_NPHACCKF_01932;dRep_bin321_EJNAAGJG_00384;dRep_bin333_EFOKIBLA_00721;dRep_bin273_FGAEBHNP_01365;dRep_bin280_IMCGLKKG_00438;dRep_bin171_FIDMCACI_00165;dRep_bin051_HIEIDCID_00833;dRep_bin141_GMCOOECB_01065;dRep_bin122_JHMJFODI_00609;dRep_bin155_CLHNKEHA_00697;dRep_bin313_CJFGINPI_00865;dRep_bin213_HHHELMFN_00711;dRep_bin258_DAMEHFEK_00926;dRep_bin169_PNICKJKO_00880;dRep_bin055_IBMMJAEE_00781;dRep_bin096_GNHMEKPF_00270;dRep_bin082_HBEFABJN_01176;dRep_bin094_LBLICAAO_01798;dRep_bin052_PGOOKKFH_00001;dRep_bin178_FLGBGGJB_00429;dRep_bin123_PJKBFKBB_00530;dRep_bin046_GKEJLOEK_00533;dRep_bin270_GEJAHNCN_00559;dRep_bin087_FCLGAPPI_00749;dRep_bin317_ABPHNCOD_01524;dRep_bin354_MMOALAFN_01090;dRep_bin221_LMGNIMOJ_00256;dRep_bin005_CNDFPKJG_00513;dRep_bin144_NPHACCKF_01674;dRep_bin215_ABBFGCAF_00891;dRep_bin024_OLHDGABE_01486;dRep_bin207_OHNPDPFI_01006;dRep_bin109_MJABCPAK_00005;dRep_bin121_BHOOLFKN_00138;dRep_bin144_NPHACCKF_01593;dRep_bin236_BNONDECB_00589;dRep_bin166_DFIAJFEC_00113;dRep_bin352_KFNHGNFC_00788;dRep_bin187_CLPDGDBG_00447;dRep_bin192_GCMBELNN_00637;dRep_bin206_OIIBOIAK_00839;dRep_bin173_BEBNCADL_00299;dRep_bin080_CBEBHNNK_00392;dRep_bin237_KJDLIPND_00675	dRep_bin143_PFLDJMPF_01162;dRep_bin074_EHAOMODJ_00197;dRep_bin152_LJMCIADF_00840;dRep_bin079_GAOGCKND_00311;dRep_bin068_ENOLAELK_00990;dRep_bin124_HIHDFGCL_00318;dRep_bin272_LGBDGEIM_00728;dRep_bin337_FHKPNFDB_00324;dRep_bin056_EMNHHOJA_01446;dRep_bin054_NNOKONMC_00657;dRep_bin102_ICFDHPGB_00342;dRep_bin259_IFIOODLK_00485;dRep_bin086_HHEJBMCP_01132;dRep_bin054_NNOKONMC_00873;dRep_bin161_JMKPMHCO_00072;dRep_bin044_IPFKHAEF_00005;dRep_bin085_MBHLGCDB_01101	>dRep_bin143_PFLDJMPF_01162 DNA-directed RNA polymerase subunit beta;>dRep_bin074_EHAOMODJ_00197 DNA-directed RNA polymerase subunit beta;>dRep_bin152_LJMCIADF_00840 DNA-directed RNA polymerase subunit beta;>dRep_bin079_GAOGCKND_00311 DNA-directed RNA p	dRep_bin169_PNICKJKO_00880	CDS	rpoC	2.7.7.6	DNA-directed RNA polymerase subunit beta'
PNICKJKO_00881			25.22589	24.995369999999998								10	0	1,2933E-60	dRep_bin348_LCLFDNEE_01283;dRep_bin105_AAEIHAFF_00953;dRep_bin339_DBNBAHDK_00279;dRep_bin166_DFIAJFEC_00112;dRep_bin169_PNICKJKO_00881;dRep_bin124_HIHDFGCL_00317;dRep_bin194_MEPDOGGJ_01305;dRep_bin025_CBEJJMLE_01533;dRep_bin152_LJMCIADF_00839;dRep_bin079_GAOGCKND_00312;dRep_bin038_EIGFILKG_00352;dRep_bin068_ENOLAELK_00991	dRep_bin348_LCLFDNEE_01283;dRep_bin105_AAEIHAFF_00953;dRep_bin339_DBNBAHDK_00279;dRep_bin166_DFIAJFEC_00112;dRep_bin169_PNICKJKO_00881;dRep_bin124_HIHDFGCL_00317;dRep_bin194_MEPDOGGJ_01305;dRep_bin025_CBEJJMLE_01533;dRep_bin152_LJMCIADF_00839;dRep_bin079_GAOGCKND_00312;dRep_bin038_EIGFILKG_00352;dRep_bin068_ENOLAELK_00991	>dRep_bin348_LCLFDNEE_01283 DNA-directed RNA polymerase subunit beta;>dRep_bin105_AAEIHAFF_00953 DNA-directed RNA polymerase subunit beta;>dRep_bin339_DBNBAHDK_00279 DNA-directed RNA polymerase subunit beta;>dRep_bin166_DFIAJFEC_00112 DNA-directed RNA poly	dRep_bin169_PNICKJKO_00881	CDS	rpoB	2.7.7.6	DNA-directed RNA polymerase subunit beta
PNICKJKO_00981						23.527910000000002						5	3	1,9632E-28	dRep_bin169_PNICKJKO_00981	dRep_bin169_PNICKJKO_00981	>dRep_bin169_PNICKJKO_00981 60 kDa chaperonin	dRep_bin169_PNICKJKO_00981	CDS	groL		60 kDa chaperonin
PNICKJKO_01050					26.47465							3	1	1,211E-11	dRep_bin299_AKNBKJGM_00770;dRep_bin085_MBHLGCDB_01216;dRep_bin169_PNICKJKO_01050;dRep_bin249_OFIIEIDJ_01139;dRep_bin199_JBCGANNF_01104;dRep_bin215_ABBFGCAF_00063;dRep_bin120_EKLBOPNC_00650;F1RUV5	dRep_bin299_AKNBKJGM_00770	>dRep_bin299_AKNBKJGM_00770 Methylmalonyl-CoA carboxyltransferase 5S subunit	dRep_bin169_PNICKJKO_01050	CDS		2.1.3.1	Methylmalonyl-CoA carboxyltransferase 5S subunit
PNICKJKO_01093								24.445939999999997				3	1	1,2536E-20	dRep_bin193_GDMDPNNM_01335;dRep_bin194_MEPDOGGJ_00909;dRep_bin152_LJMCIADF_01136;dRep_bin124_HIHDFGCL_01283;dRep_bin101_BNDDLDCL_01786;dRep_bin079_GAOGCKND_00249;dRep_bin068_ENOLAELK_01480;dRep_bin038_EIGFILKG_00281;dRep_bin025_CBEJJMLE_00745;dRep_bin286_OEMIJKMC_00443;dRep_bin231_CFOLMJBA_00984;dRep_bin172_ALNHGLMD_00252;dRep_bin142_NDNPJBEM_00885;dRep_bin126_PPDNCIBN_01642;dRep_bin090_IPGNHCBJ_00359;dRep_bin321_EJNAAGJG_00108;dRep_bin273_FGAEBHNP_01040;dRep_bin323_FBBLPLCG_00442;dRep_bin309_BIOHLCGG_00720;dRep_bin268_LKMHIMLG_00991;dRep_bin166_DFIAJFEC_01338;dRep_bin143_PFLDJMPF_01113;dRep_bin108_BPNCDINP_00985;dRep_bin056_EMNHHOJA_01394;dRep_bin026_HNPIIINL_00248;dRep_bin006_HPJGJCAG_00021;dRep_bin340_OFLHNGJM_01045;dRep_bin270_GEJAHNCN_00054;dRep_bin182_EMCFODCD_00202;dRep_bin044_IPFKHAEF_00804;dRep_bin354_MMOALAFN_00312;dRep_bin253_CPMOAOBJ_00594;dRep_bin074_EHAOMODJ_00802;dRep_bin049_MNFBDPNO_00646;dRep_bin257_JHFDCHCB_00163;dRep_bin336_MPGOKPOL_00030;dRep_bin169_PNICKJKO_01093;dRep_bin147_EJLBNEBE_00336;dRep_bin123_PJKBFKBB_00356;dRep_bin032_PPNIGLME_01273;dRep_bin293_MEPKGOAN_00625	dRep_bin193_GDMDPNNM_01335;dRep_bin194_MEPDOGGJ_00909;dRep_bin152_LJMCIADF_01136;dRep_bin124_HIHDFGCL_01283;dRep_bin101_BNDDLDCL_01786;dRep_bin079_GAOGCKND_00249;dRep_bin068_ENOLAELK_01480;dRep_bin038_EIGFILKG_00281;dRep_bin025_CBEJJMLE_00745;dRep_bin286_OEMIJKMC_00443;dRep_bin231_CFOLMJBA_00984;dRep_bin172_ALNHGLMD_00252;dRep_bin142_NDNPJBEM_00885;dRep_bin126_PPDNCIBN_01642;dRep_bin090_IPGNHCBJ_00359	>dRep_bin193_GDMDPNNM_01335 HPr-like protein Crh;>dRep_bin194_MEPDOGGJ_00909 HPr-like protein Crh;>dRep_bin152_LJMCIADF_01136 HPr-like protein Crh;>dRep_bin124_HIHDFGCL_01283 HPr-like protein Crh;>dRep_bin101_BNDDLDCL_01786 HPr-like protein Crh;>dRep_bin07	dRep_bin169_PNICKJKO_01093	CDS	crh		HPr-like protein Crh
PNICKJKO_01110	23.498749999999998	23.41377	23.664050000000003	25.007910000000003								4	3	8,0566E-12	dRep_bin292_JIBLDOOH_01418;dRep_bin303_DDDNDJCF_00505;dRep_bin077_DNNBMPMC_00941;dRep_bin152_LJMCIADF_01123;dRep_bin124_HIHDFGCL_00335;dRep_bin079_GAOGCKND_00643;dRep_bin068_ENOLAELK_01078;dRep_bin038_EIGFILKG_00380;dRep_bin309_BIOHLCGG_00617;dRep_bin194_MEPDOGGJ_00286;dRep_bin025_CBEJJMLE_00539;dRep_bin247_EKGBJCBM_00804;dRep_bin253_CPMOAOBJ_00601;dRep_bin169_PNICKJKO_01110;dRep_bin123_PJKBFKBB_01254;dRep_bin306_FGHMKMMP_00717;dRep_bin293_MEPKGOAN_00676;dRep_bin257_JHFDCHCB_01083;dRep_bin249_OFIIEIDJ_00213;dRep_bin157_JPNIKEKI_01818;dRep_bin085_MBHLGCDB_01586;dRep_bin319_PBDBJGCJ_01316;dRep_bin300_MJPPENNL_01694;dRep_bin282_PKAAPBFP_01497;dRep_bin220_PILICLLL_01502;dRep_bin209_NKIHFCEN_00711;dRep_bin179_HFEIPPPA_01156;dRep_bin166_DFIAJFEC_01129;dRep_bin160_EFKMPBOM_01097;dRep_bin154_JGOKHKLI_00129;dRep_bin088_DNGPPFDK_00244;dRep_bin075_EPEMMOCL_01534;dRep_bin069_EGGEOGDC_00523;dRep_bin344_CJJBDGAA_01343;dRep_bin324_IPNHOHFK_02132;dRep_bin310_IMBAFDIF_01633;dRep_bin297_EDHEEICA_00782;dRep_bin269_PNILGKPH_01786;dRep_bin248_CCDFPECI_00995;dRep_bin226_NLNLHLLD_00535;dRep_bin203_CLFNNOCF_00636;dRep_bin168_HKDILBFE_00313;dRep_bin139_KGAJINND_00724;dRep_bin133_NOBPDBPA_02650;dRep_bin099_DNDAGJEJ_01464;dRep_bin091_MAFACGAD_00915;dRep_bin007_LNLEAAAN_01209;dRep_bin260_HELEPKJL_00482;dRep_bin186_HJAAFFNP_01391;dRep_bin115_IFKGOGCL_02481;dRep_bin039_IJNOFOJK_00485;dRep_bin354_MMOALAFN_01391;dRep_bin261_FJICAFFM_01132;dRep_bin336_MPGOKPOL_01187;dRep_bin095_HOBNOEEF_00148;dRep_bin348_LCLFDNEE_00586;dRep_bin125_FADLGGII_01253;dRep_bin089_PAJFOJBN_00918;dRep_bin277_MIPNGEJE_00466	dRep_bin292_JIBLDOOH_01418;dRep_bin303_DDDNDJCF_00505	>dRep_bin292_JIBLDOOH_01418 Putative aminotransferase/MSMEI_6121;>dRep_bin303_DDDNDJCF_00505 Putative aminotransferase/MSMEI_6121	dRep_bin169_PNICKJKO_01110	CDS			Putative aminotransferase/MSMEI_6121
PNICKJKO_01162					24.85814	25.807250000000003		24.33953				5	3	2,9957E-15	dRep_bin169_PNICKJKO_01162	dRep_bin169_PNICKJKO_01162	>dRep_bin169_PNICKJKO_01162 Elongation factor G	dRep_bin169_PNICKJKO_01162	CDS	fusA_2		Elongation factor G
PNICKJKO_01164			28.77903	29.416960000000003	27.236439999999998	27.457870000000003	26.988259999999997	26.782069999999997				3	1	5,5654E-46	dRep_bin005_CNDFPKJG_00512;dRep_bin135_HHKACLPM_00996;dRep_bin007_LNLEAAAN_00555;dRep_bin303_DDDNDJCF_00538;dRep_bin328_GIGKNKPJ_00724;dRep_bin308_JBPDGLPP_01472;dRep_bin292_JIBLDOOH_00033;dRep_bin278_BFCONKOE_00439;dRep_bin269_PNILGKPH_00427;dRep_bin179_HFEIPPPA_01854;dRep_bin133_NOBPDBPA_03738;dRep_bin127_FIPNHBCH_00184;dRep_bin065_DFABHCBI_01543;dRep_bin039_IJNOFOJK_00835;dRep_bin031_BNHMFOII_01289;dRep_bin024_OLHDGABE_00632;dRep_bin001_GHHJMDAL_01042;dRep_bin027_OFJCHLJJ_01571;dRep_bin134_HIAPAODO_00757;dRep_bin339_DBNBAHDK_00274;dRep_bin268_LKMHIMLG_00767;dRep_bin215_ABBFGCAF_00889;dRep_bin142_NDNPJBEM_01236;dRep_bin347_EKGCMFPD_01033;dRep_bin325_EIIGOGHN_00650;dRep_bin310_IMBAFDIF_01183;dRep_bin293_MEPKGOAN_00730;dRep_bin282_PKAAPBFP_00286;dRep_bin100_CODMOHGB_00949;dRep_bin091_MAFACGAD_00437;dRep_bin079_GAOGCKND_00310;dRep_bin323_FBBLPLCG_01106;dRep_bin322_OJELOJOF_01654;dRep_bin273_FGAEBHNP_01366;dRep_bin266_JFOCEDAE_01192;dRep_bin231_CFOLMJBA_00878;dRep_bin194_MEPDOGGJ_01303;dRep_bin182_EMCFODCD_01258;dRep_bin169_PNICKJKO_01164;dRep_bin158_OGFICEAP_00873;dRep_bin115_IFKGOGCL_01307;dRep_bin108_BPNCDINP_01062;dRep_bin087_FCLGAPPI_00927;dRep_bin056_EMNHHOJA_01448;dRep_bin047_IFFANOMN_00919;dRep_bin044_IPFKHAEF_00004;dRep_bin026_HNPIIINL_00567;dRep_bin025_CBEJJMLE_00162;dRep_bin336_MPGOKPOL_00656;dRep_bin277_MIPNGEJE_00938;dRep_bin257_JHFDCHCB_01267;dRep_bin172_ALNHGLMD_01450;dRep_bin166_DFIAJFEC_00114;dRep_bin147_EJLBNEBE_01610;dRep_bin105_AAEIHAFF_01928	dRep_bin005_CNDFPKJG_00512;dRep_bin135_HHKACLPM_00996;dRep_bin007_LNLEAAAN_00555;dRep_bin303_DDDNDJCF_00538;dRep_bin328_GIGKNKPJ_00724;dRep_bin308_JBPDGLPP_01472;dRep_bin292_JIBLDOOH_00033;dRep_bin278_BFCONKOE_00439;dRep_bin269_PNILGKPH_00427;dRep_bin179_HFEIPPPA_01854;dRep_bin133_NOBPDBPA_03738;dRep_bin127_FIPNHBCH_00184;dRep_bin065_DFABHCBI_01543;dRep_bin039_IJNOFOJK_00835;dRep_bin031_BNHMFOII_01289;dRep_bin024_OLHDGABE_00632;dRep_bin001_GHHJMDAL_01042;dRep_bin027_OFJCHLJJ_01571	>dRep_bin005_CNDFPKJG_00512 30S ribosomal protein S12;>dRep_bin135_HHKACLPM_00996 30S ribosomal protein S12;>dRep_bin007_LNLEAAAN_00555 30S ribosomal protein S12;>dRep_bin303_DDDNDJCF_00538 30S ribosomal protein S12;>dRep_bin328_GIGKNKPJ_00724 30S ribosoma	dRep_bin169_PNICKJKO_01164	CDS	rpsL		30S ribosomal protein S12
PNICKJKO_01185				24.354940000000003								9	1	3,7383E-82	dRep_bin133_NOBPDBPA_02407;dRep_bin319_PBDBJGCJ_01738;dRep_bin066_AJACLPEE_00162;dRep_bin077_DNNBMPMC_01718;dRep_bin181_MKGPMPIA_01194;dRep_bin260_HELEPKJL_01076;dRep_bin107_EFNBPDOP_00499;dRep_bin240_LDBBGJKG_00163;dRep_bin328_GIGKNKPJ_00321;dRep_bin347_EKGCMFPD_00479;dRep_bin088_DNGPPFDK_00287;dRep_bin135_HHKACLPM_00514;dRep_bin145_KMJJJOEJ_01002;dRep_bin335_JIOGNAPG_00895;dRep_bin234_ECABPBME_01768;dRep_bin134_HIAPAODO_01302;dRep_bin261_FJICAFFM_00778;dRep_bin019_MOJEPLJF_00883;dRep_bin166_DFIAJFEC_01066;dRep_bin105_AAEIHAFF_00721;dRep_bin142_NDNPJBEM_00168;dRep_bin169_PNICKJKO_01185;dRep_bin007_LNLEAAAN_00243;dRep_bin325_EIIGOGHN_01426;dRep_bin027_OFJCHLJJ_00581;dRep_bin333_EFOKIBLA_00453;dRep_bin049_MNFBDPNO_01275;dRep_bin293_MEPKGOAN_01477;dRep_bin148_NAJFKJMD_01296;dRep_bin008_MNDMJLEI_00823;dRep_bin270_GEJAHNCN_00044;dRep_bin031_BNHMFOII_00682;dRep_bin006_HPJGJCAG_00004;dRep_bin048_PABMBHAL_00541;dRep_bin143_PFLDJMPF_00665	dRep_bin133_NOBPDBPA_02407;dRep_bin319_PBDBJGCJ_01738;dRep_bin066_AJACLPEE_00162;dRep_bin077_DNNBMPMC_01718	>dRep_bin133_NOBPDBPA_02407 Dihydroxy-acid dehydratase;>dRep_bin319_PBDBJGCJ_01738 Dihydroxy-acid dehydratase;>dRep_bin066_AJACLPEE_00162 Dihydroxy-acid dehydratase;>dRep_bin077_DNNBMPMC_01718 Dihydroxy-acid dehydratase	dRep_bin169_PNICKJKO_01185	CDS	ilvD	4.2.1.9	Dihydroxy-acid dehydratase
PNICKJKO_01186						22.36666						10	1	3,5119E-223	dRep_bin169_PNICKJKO_01186	dRep_bin169_PNICKJKO_01186	>dRep_bin169_PNICKJKO_01186 Ketol-acid reductoisomerase (NADP(+))	dRep_bin169_PNICKJKO_01186	CDS	ilvC	1.1.1.86	Ketol-acid reductoisomerase (NADP(+))
PNICKJKO_01206						25.946239999999996	23.91752	23.970789999999997				9	5	4,6516E-35	dRep_bin169_PNICKJKO_01206	dRep_bin169_PNICKJKO_01206	>dRep_bin169_PNICKJKO_01206 Formate acetyltransferase	dRep_bin169_PNICKJKO_01206	CDS	pflB_1	2.3.1.54	Formate acetyltransferase
PNICKJKO_01231		27.137700000000002	28.213910000000002									3	2	6,6573E-14	dRep_bin336_MPGOKPOL_01661;dRep_bin147_EJLBNEBE_00968;dRep_bin166_DFIAJFEC_00179;dRep_bin154_JGOKHKLI_01998;dRep_bin339_DBNBAHDK_01085;dRep_bin300_MJPPENNL_01801;dRep_bin282_PKAAPBFP_01285;dRep_bin123_PJKBFKBB_00598;dRep_bin101_BNDDLDCL_00004;dRep_bin335_JIOGNAPG_01865;dRep_bin303_DDDNDJCF_00644;dRep_bin287_DONBGKDH_00347;dRep_bin279_IAEFEPEN_00542;dRep_bin279_IAEFEPEN_00126;dRep_bin266_JFOCEDAE_01152;dRep_bin101_BNDDLDCL_00003;dRep_bin081_JDPCKDNP_00961;dRep_bin169_PNICKJKO_01231;dRep_bin336_MPGOKPOL_01199;dRep_bin322_OJELOJOF_00845	dRep_bin336_MPGOKPOL_01661;dRep_bin147_EJLBNEBE_00968	>dRep_bin336_MPGOKPOL_01661 hypothetical protein;>dRep_bin147_EJLBNEBE_00968 hypothetical protein	dRep_bin169_PNICKJKO_01231	CDS			hypothetical protein
PNICKJKO_01238								28.63561				8	0	2,8351E-119	dRep_bin220_PILICLLL_01158;dRep_bin032_PPNIGLME_01262;dRep_bin322_OJELOJOF_00287;dRep_bin249_OFIIEIDJ_01886;dRep_bin309_BIOHLCGG_01421;dRep_bin085_MBHLGCDB_00653;dRep_bin126_PPDNCIBN_00111;dRep_bin145_KMJJJOEJ_00430;dRep_bin323_FBBLPLCG_00095;dRep_bin169_PNICKJKO_01238;dRep_bin139_KGAJINND_02193;dRep_bin152_LJMCIADF_00385;dRep_bin068_ENOLAELK_00554;dRep_bin079_GAOGCKND_01274;dRep_bin049_MNFBDPNO_01473;dRep_bin044_IPFKHAEF_00146;dRep_bin263_OLEFOGIJ_00323;dRep_bin025_CBEJJMLE_01269;dRep_bin194_MEPDOGGJ_00714;dRep_bin124_HIHDFGCL_00491;dRep_bin057_BNCFHBBO_01811	dRep_bin220_PILICLLL_01158;dRep_bin032_PPNIGLME_01262;dRep_bin322_OJELOJOF_00287;dRep_bin249_OFIIEIDJ_01886;dRep_bin309_BIOHLCGG_01421;dRep_bin085_MBHLGCDB_00653;dRep_bin126_PPDNCIBN_00111;dRep_bin145_KMJJJOEJ_00430	>dRep_bin220_PILICLLL_01158 Reverse rubrerythrin-1;>dRep_bin032_PPNIGLME_01262 Reverse rubrerythrin-1;>dRep_bin322_OJELOJOF_00287 Reverse rubrerythrin-1;>dRep_bin249_OFIIEIDJ_01886 Reverse rubrerythrin-2;>dRep_bin309_BIOHLCGG_01421 Reverse rubrerythrin-1;>	dRep_bin169_PNICKJKO_01238	CDS	rbr3A	1.11.1.1	Reverse rubrerythrin-1
PNICKJKO_01257	24.716910000000002	26.35938	25.17649	24.24692								5	4	7,8497E-11	dRep_bin142_NDNPJBEM_00033;dRep_bin169_PNICKJKO_01257;dRep_bin181_MKGPMPIA_01212;dRep_bin107_EFNBPDOP_00239;dRep_bin057_BNCFHBBO_01665;dRep_bin006_HPJGJCAG_01025;dRep_bin282_PKAAPBFP_00196;dRep_bin024_OLHDGABE_00323;dRep_bin319_PBDBJGCJ_01632;dRep_bin066_AJACLPEE_00486;dRep_bin348_LCLFDNEE_00860;dRep_bin305_FCIEFIHE_00692;dRep_bin288_KOIAAABN_00146;dRep_bin263_OLEFOGIJ_00764;dRep_bin145_KMJJJOEJ_00876;dRep_bin072_JOBJPCGA_01565;dRep_bin049_MNFBDPNO_00313;dRep_bin043_KLAFNACO_00754;dRep_bin345_GLPJDLOI_00081;dRep_bin250_NMCAMJIO_01517;dRep_bin089_PAJFOJBN_01491;dRep_bin332_KAOPCDPF_01005	dRep_bin142_NDNPJBEM_00033	>dRep_bin142_NDNPJBEM_00033 Ornithine carbamoyltransferase	dRep_bin169_PNICKJKO_01257	CDS	argF	2.1.3.3	Ornithine carbamoyltransferase
PNICKJKO_01291		21.25603			22.842589999999998			22.8121				2	1	4,0939E-88	dRep_bin240_LDBBGJKG_00098;dRep_bin031_BNHMFOII_01241;dRep_bin142_NDNPJBEM_01312;dRep_bin248_CCDFPECI_01700;dRep_bin169_PNICKJKO_01291;dRep_bin257_JHFDCHCB_00613;dRep_bin322_OJELOJOF_00807;dRep_bin193_GDMDPNNM_00140;dRep_bin124_HIHDFGCL_00177;dRep_bin079_GAOGCKND_00330;dRep_bin068_ENOLAELK_00170;dRep_bin266_JFOCEDAE_01509;dRep_bin160_EFKMPBOM_01717;dRep_bin154_JGOKHKLI_02113;dRep_bin019_MOJEPLJF_00503;dRep_bin253_CPMOAOBJ_01331;dRep_bin056_EMNHHOJA_00831;dRep_bin335_JIOGNAPG_01465;dRep_bin152_LJMCIADF_01179;dRep_bin148_NAJFKJMD_01045;dRep_bin095_HOBNOEEF_01511;dRep_bin038_EIGFILKG_00469;dRep_bin243_JDMELKLC_00643;dRep_bin029_LFMGBBEC_01605;dRep_bin300_MJPPENNL_00271;dRep_bin279_IAEFEPEN_00816;dRep_bin159_ADJJGPBG_00093;dRep_bin143_PFLDJMPF_00341;dRep_bin205_LKIOOBKC_01861;dRep_bin135_HHKACLPM_01695	dRep_bin240_LDBBGJKG_00098;dRep_bin031_BNHMFOII_01241;dRep_bin142_NDNPJBEM_01312;dRep_bin248_CCDFPECI_01700;dRep_bin169_PNICKJKO_01291;dRep_bin257_JHFDCHCB_00613;dRep_bin322_OJELOJOF_00807;dRep_bin193_GDMDPNNM_00140;dRep_bin124_HIHDFGCL_00177;dRep_bin079_GAOGCKND_00330;dRep_bin068_ENOLAELK_00170;dRep_bin266_JFOCEDAE_01509;dRep_bin160_EFKMPBOM_01717;dRep_bin154_JGOKHKLI_02113;dRep_bin019_MOJEPLJF_00503;dRep_bin253_CPMOAOBJ_01331;dRep_bin056_EMNHHOJA_00831;dRep_bin335_JIOGNAPG_01465;dRep_bin152_LJMCIADF_01179;dRep_bin148_NAJFKJMD_01045;dRep_bin095_HOBNOEEF_01511;dRep_bin038_EIGFILKG_00469;dRep_bin243_JDMELKLC_00643;dRep_bin029_LFMGBBEC_01605;dRep_bin300_MJPPENNL_00271;dRep_bin279_IAEFEPEN_00816;dRep_bin159_ADJJGPBG_00093;dRep_bin143_PFLDJMPF_00341;dRep_bin205_LKIOOBKC_01861;dRep_bin135_HHKACLPM_01695	>dRep_bin240_LDBBGJKG_00098 Galactose-1-phosphate uridylyltransferase;>dRep_bin031_BNHMFOII_01241 Galactose-1-phosphate uridylyltransferase;>dRep_bin142_NDNPJBEM_01312 Galactose-1-phosphate uridylyltransferase;>dRep_bin248_CCDFPECI_01700 Galactose-1-phosph	dRep_bin169_PNICKJKO_01291	CDS	galT	2.7.7.12	Galactose-1-phosphate uridylyltransferase
PNICKJKO_01385					26.943239999999996	26.122970000000002	26.065189999999998	26.90782				5	2	6,127E-29	dRep_bin243_JDMELKLC_00540;dRep_bin257_JHFDCHCB_00581;dRep_bin169_PNICKJKO_01385;dRep_bin348_LCLFDNEE_00791;dRep_bin302_AHDEPDKG_00610;dRep_bin238_OLNFACLE_00096;dRep_bin125_FADLGGII_00977;dRep_bin323_FBBLPLCG_00090;dRep_bin035_JBNPBOKG_01683	dRep_bin243_JDMELKLC_00540;dRep_bin257_JHFDCHCB_00581;dRep_bin169_PNICKJKO_01385	>dRep_bin243_JDMELKLC_00540 ATP-dependent 6-phosphofructokinase;>dRep_bin257_JHFDCHCB_00581 ATP-dependent 6-phosphofructokinase;>dRep_bin169_PNICKJKO_01385 ATP-dependent 6-phosphofructokinase	dRep_bin169_PNICKJKO_01385	CDS	pfkA	2.7.1.11	ATP-dependent 6-phosphofructokinase
PNICKJKO_01447					25.900119999999998	27.46987	26.849950000000003	26.325139999999998				4	0	3,2743E-28	dRep_bin307_AOCKHIKF_00160;dRep_bin098_DDEBHDKK_00652;dRep_bin183_FPGIOKBG_00590;dRep_bin128_JPBBHEMA_00391;dRep_bin137_NABPABPB_01015;dRep_bin198_GMLJKALI_00983;dRep_bin112_NDMGAKCH_00558;dRep_bin073_AKBCEHHO_00630;dRep_bin111_FPJIHFKE_01146;dRep_bin064_CMDDCDKG_00952;dRep_bin070_EMBHKIOF_00143;dRep_bin037_GEAOEKHA_00627;dRep_bin314_KCHFPLIP_01340;dRep_bin232_JGAEDAFA_00436;dRep_bin290_OIOJKBNK_01502;dRep_bin136_NAIECEIF_00125;dRep_bin018_ILOONPIC_00511;dRep_bin110_JGOEJECF_00059;dRep_bin092_OOJCPDEA_01586;dRep_bin271_NGFBCHKH_00234;dRep_bin224_NFENHJGB_01651;dRep_bin084_CGBIKHBH_01000;dRep_bin346_JKFDGFHC_00749;dRep_bin036_DOKCEIDH_01514;dRep_bin002_CFBNDKDN_00078;dRep_bin351_CKFFBPHM_00883;dRep_bin289_KALDCNNP_01019;dRep_bin298_EIPJCOMF_00289;dRep_bin229_FFOBPPJI_00563;dRep_bin275_NIDIBBDA_01303;dRep_bin210_AGEDAEIA_00620;dRep_bin104_EGLEJOLM_00781;dRep_bin257_JHFDCHCB_01689;dRep_bin097_CBBLIPAN_01153;dRep_bin337_FHKPNFDB_01364;dRep_bin335_JIOGNAPG_00046;dRep_bin282_PKAAPBFP_01042;dRep_bin234_ECABPBME_00099;dRep_bin135_HHKACLPM_00078;dRep_bin089_PAJFOJBN_00724;dRep_bin088_DNGPPFDK_00540;dRep_bin075_EPEMMOCL_00011;dRep_bin035_JBNPBOKG_00075;dRep_bin093_PGADNPMG_00660;dRep_bin169_PNICKJKO_01447;dRep_bin230_NINMBMKB_00368;dRep_bin294_EHJINIDK_00696;dRep_bin028_GKEJLBAM_00575;dRep_bin014_CHIHIMAN_01200;dRep_bin355_KJEFNADK_00480;dRep_bin063_PJANDMAH_00595;dRep_bin034_MEBMFDLL_01871;dRep_bin320_LDBKCCKL_00526;dRep_bin301_NJFJIJGA_01347;dRep_bin149_GABCHCDI_01402;dRep_bin310_IMBAFDIF_01474;dRep_bin242_LKAIBGGJ_00169;dRep_bin181_MKGPMPIA_00142;dRep_bin267_LJCFMAFA_00611;dRep_bin306_FGHMKMMP_00339;dRep_bin150_HCDEOBMH_01051;dRep_bin091_MAFACGAD_01386;dRep_bin040_EIFLLDOA_01982;dRep_bin005_CNDFPKJG_00382;dRep_bin333_EFOKIBLA_01313;dRep_bin317_ABPHNCOD_01616;dRep_bin081_JDPCKDNP_00758;dRep_bin138_EJGHNBMI_00536;dRep_bin162_JBGCCDIN_00612;dRep_bin272_LGBDGEIM_00307;dRep_bin168_HKDILBFE_01242;dRep_bin118_FGIOKLBC_01317	dRep_bin307_AOCKHIKF_00160;dRep_bin098_DDEBHDKK_00652;dRep_bin183_FPGIOKBG_00590;dRep_bin128_JPBBHEMA_00391;dRep_bin137_NABPABPB_01015;dRep_bin198_GMLJKALI_00983;dRep_bin112_NDMGAKCH_00558;dRep_bin073_AKBCEHHO_00630;dRep_bin111_FPJIHFKE_01146;dRep_bin064_CMDDCDKG_00952;dRep_bin070_EMBHKIOF_00143;dRep_bin037_GEAOEKHA_00627;dRep_bin314_KCHFPLIP_01340;dRep_bin232_JGAEDAFA_00436;dRep_bin290_OIOJKBNK_01502;dRep_bin136_NAIECEIF_00125;dRep_bin018_ILOONPIC_00511;dRep_bin110_JGOEJECF_00059;dRep_bin092_OOJCPDEA_01586;dRep_bin271_NGFBCHKH_00234;dRep_bin224_NFENHJGB_01651;dRep_bin084_CGBIKHBH_01000;dRep_bin346_JKFDGFHC_00749;dRep_bin036_DOKCEIDH_01514;dRep_bin002_CFBNDKDN_00078;dRep_bin351_CKFFBPHM_00883;dRep_bin289_KALDCNNP_01019;dRep_bin298_EIPJCOMF_00289;dRep_bin229_FFOBPPJI_00563;dRep_bin275_NIDIBBDA_01303;dRep_bin210_AGEDAEIA_00620;dRep_bin104_EGLEJOLM_00781;dRep_bin257_JHFDCHCB_01689;dRep_bin097_CBBLIPAN_01153;dRep_bin337_FHKPNFDB_01364;dRep_bin335_JIOGNAPG_00046;dRep_bin282_PKAAPBFP_01042;dRep_bin234_ECABPBME_00099;dRep_bin135_HHKACLPM_00078;dRep_bin089_PAJFOJBN_00724;dRep_bin088_DNGPPFDK_00540;dRep_bin075_EPEMMOCL_00011;dRep_bin035_JBNPBOKG_00075;dRep_bin093_PGADNPMG_00660	>dRep_bin307_AOCKHIKF_00160 NADPH-dependent 7-cyano-7-deazaguanine reductase;>dRep_bin098_DDEBHDKK_00652 NADPH-dependent 7-cyano-7-deazaguanine reductase;>dRep_bin183_FPGIOKBG_00590 NADPH-dependent 7-cyano-7-deazaguanine reductase;>dRep_bin128_JPBBHEMA_003	dRep_bin169_PNICKJKO_01447	CDS	queF	1.7.1.13	NADPH-dependent 7-cyano-7-deazaguanine reductase
PNICKJKO_01458	28.269099999999998	27.321050000000003	27.52313	27.43349	29.555850000000003	28.4649	29.5133	30.816810000000004				23	9	0	dRep_bin139_KGAJINND_01821;dRep_bin215_ABBFGCAF_00253;dRep_bin042_MMFCLHOO_00160;dRep_bin283_NLJJFFAC_00705;dRep_bin160_EFKMPBOM_00712;dRep_bin154_JGOKHKLI_01926;dRep_bin087_FCLGAPPI_00028;dRep_bin046_GKEJLOEK_00646;dRep_bin308_JBPDGLPP_01510;dRep_bin226_NLNLHLLD_01292;dRep_bin203_CLFNNOCF_00196;dRep_bin169_PNICKJKO_01458;dRep_bin167_BLMEBMNN_02003;dRep_bin144_NPHACCKF_00207;dRep_bin127_FIPNHBCH_01156;dRep_bin101_BNDDLDCL_00920;dRep_bin091_MAFACGAD_00174;dRep_bin089_PAJFOJBN_01094;dRep_bin055_IBMMJAEE_01006;dRep_bin024_OLHDGABE_00811;dRep_bin017_FGFLFOPJ_01094;dRep_bin005_CNDFPKJG_00650;dRep_bin282_PKAAPBFP_01434;dRep_bin347_EKGCMFPD_01249;dRep_bin250_NMCAMJIO_00216;dRep_bin257_JHFDCHCB_02386;dRep_bin186_HJAAFFNP_01166;dRep_bin123_PJKBFKBB_01198	dRep_bin139_KGAJINND_01821	>dRep_bin139_KGAJINND_01821 Formate--tetrahydrofolate ligase	dRep_bin169_PNICKJKO_01458	CDS	fhs	6.3.4.3	Formate--tetrahydrofolate ligase
PNICKJKO_01476	25.74116	27.00228	26.89227	25.65652								8	6	2,367E-43	dRep_bin336_MPGOKPOL_02004;dRep_bin147_EJLBNEBE_01087;dRep_bin333_EFOKIBLA_00080;dRep_bin257_JHFDCHCB_01127;dRep_bin142_NDNPJBEM_01275;dRep_bin169_PNICKJKO_01476;dRep_bin032_PPNIGLME_00804;dRep_bin354_MMOALAFN_01389;dRep_bin123_PJKBFKBB_00735;dRep_bin044_IPFKHAEF_00433;dRep_bin058_GJKCICJN_01155;dRep_bin079_GAOGCKND_01421;dRep_bin124_HIHDFGCL_00141;dRep_bin194_MEPDOGGJ_00831;dRep_bin025_CBEJJMLE_01012;dRep_bin236_BNONDECB_01011	dRep_bin336_MPGOKPOL_02004;dRep_bin147_EJLBNEBE_01087	>dRep_bin336_MPGOKPOL_02004 Polyribonucleotide nucleotidyltransferase;>dRep_bin147_EJLBNEBE_01087 Polyribonucleotide nucleotidyltransferase	dRep_bin169_PNICKJKO_01476	CDS	pnp	2.7.7.8	Polyribonucleotide nucleotidyltransferase
