GBprotID	LFQ intensity CtrPig1	LFQ intensity CtrPig2	LFQ intensity CtrPig3	LFQ intensity CtrPig4	LFQ intensity MannanPig1	LFQ intensity MannanPig2	LFQ intensity MannanPig3	LFQ intensity MannanPig4	Only identified by site	Reverse	Contaminant	Peptides	Unique peptides	PEP	Protein IDs	Majority protein IDs	Fasta headers	IDcomb	ftype	gene	EC_number	product
HANCENAK_00013	25.02107	25.385479999999998	25.00607	25.515060000000002	25.73704	24.9044						5	2	6,1977E-27	dRep_bin175_HANCENAK_00013	dRep_bin175_HANCENAK_00013	>dRep_bin175_HANCENAK_00013 Inosine-5-monophosphate dehydrogenase	dRep_bin175_HANCENAK_00013	CDS	guaB	1.1.1.205	Inosine-5'-monophosphate dehydrogenase
HANCENAK_00014		26.054660000000002		26.030060000000002								5	2	6,9302E-24	dRep_bin175_HANCENAK_00014	dRep_bin175_HANCENAK_00014	>dRep_bin175_HANCENAK_00014 GMP synthase [glutamine-hydrolyzing]	dRep_bin175_HANCENAK_00014	CDS	guaA	6.3.5.2	GMP synthase [glutamine-hydrolyzing]
HANCENAK_00015	26.50211	27.236629999999998	28.51961	26.288909999999998				26.3003				7	6	2,4611E-82	dRep_bin013_IODPEDPB_01443;dRep_bin175_HANCENAK_00015	dRep_bin013_IODPEDPB_01443	>dRep_bin013_IODPEDPB_01443 GMP reductase	dRep_bin175_HANCENAK_00015	CDS	guaC	1.7.1.7	GMP reductase
HANCENAK_00016	29.34604	29.05714	29.80928	28.161970000000004	27.73331	27.52917	28.51473	28.282909999999998				18	18	8,7104E-187	dRep_bin013_IODPEDPB_01444;dRep_bin175_HANCENAK_00016	dRep_bin013_IODPEDPB_01444	>dRep_bin013_IODPEDPB_01444 Adenylosuccinate synthetase	dRep_bin175_HANCENAK_00016	CDS	purA	6.3.4.4	Adenylosuccinate synthetase
HANCENAK_00039		25.800970000000003										1	1	5,8087E-65	dRep_bin175_HANCENAK_00039	dRep_bin175_HANCENAK_00039	>dRep_bin175_HANCENAK_00039 N-acetylglucosamine-6-phosphate deacetylase	dRep_bin175_HANCENAK_00039	CDS	nagA	3.5.1.25	N-acetylglucosamine-6-phosphate deacetylase
HANCENAK_00045	24.46395			25.570539999999998								3	3	9,2904E-07	dRep_bin175_HANCENAK_00045	dRep_bin175_HANCENAK_00045	>dRep_bin175_HANCENAK_00045 Beta-phosphoglucomutase	dRep_bin175_HANCENAK_00045	CDS	yvdM	5.4.2.6	Beta-phosphoglucomutase
HANCENAK_00046	26.423759999999998	26.55527	26.867970000000003	27.94481	27.709970000000002	26.334600000000002	26.12979					6	6	2,0389E-14	dRep_bin175_HANCENAK_00046	dRep_bin175_HANCENAK_00046	>dRep_bin175_HANCENAK_00046 Maltose phosphorylase	dRep_bin175_HANCENAK_00046	CDS	malP_1	2.4.1.8	Maltose phosphorylase
HANCENAK_00047		23.022509999999997		24.3432								3	3	1,5622E-15	dRep_bin175_HANCENAK_00047	dRep_bin175_HANCENAK_00047	>dRep_bin175_HANCENAK_00047 Intracellular maltogenic amylase	dRep_bin175_HANCENAK_00047	CDS	bbmA	3.2.1.-	Intracellular maltogenic amylase
HANCENAK_00056		23.244739999999997		24.183739999999997								2	2	8,8335E-12	dRep_bin175_HANCENAK_00056	dRep_bin175_HANCENAK_00056	>dRep_bin175_HANCENAK_00056 D-alanine--D-alanine ligase A	dRep_bin175_HANCENAK_00056	CDS	ddlA	6.3.2.4	D-alanine--D-alanine ligase A
HANCENAK_00082	28.62954	29.354750000000003	29.992399999999996	30.023139999999998	30.21083	30.89937	29.70792	30.0531				20	3	1,2194E-156	dRep_bin191_NGFJMLOL_01259;dRep_bin296_FDMPKPOH_00205;dRep_bin210_AGEDAEIA_00766;dRep_bin195_DDMDFNOK_00108;dRep_bin334_NAPFFNLD_01038;dRep_bin211_LGJEFJIK_01419;dRep_bin295_EJGKDKNE_00091;dRep_bin341_NBEGOKEF_00239;dRep_bin020_JCCELPIE_00888;dRep_bin283_NLJJFFAC_01280;dRep_bin274_DBJHKLDG_00956;dRep_bin016_JLGAHGOJ_01458;dRep_bin108_BPNCDINP_01604;dRep_bin008_MNDMJLEI_00335;dRep_bin270_GEJAHNCN_01137;dRep_bin005_CNDFPKJG_01352;dRep_bin060_HNFNENOI_00669;dRep_bin146_LCCIBLJG_00571;dRep_bin326_CEEAIPKF_00877;dRep_bin333_EFOKIBLA_00153;dRep_bin168_HKDILBFE_01558;dRep_bin244_LBFMHLBI_01599;dRep_bin096_GNHMEKPF_00231;dRep_bin237_KJDLIPND_00220;dRep_bin188_EJILNMPE_01240;dRep_bin251_FGNGCJDD_00076;dRep_bin227_IJODGBOI_00103;dRep_bin151_AHBJLMBI_00923;dRep_bin116_CLFDBMOF_00729;dRep_bin141_GMCOOECB_00805;dRep_bin350_EKOOEEGH_00925;dRep_bin132_FAPBDCMG_00754;dRep_bin080_CBEBHNNK_00317;dRep_bin051_HIEIDCID_00971;dRep_bin228_CECEDMJG_00643;dRep_bin009_KMMEHEKA_00811;dRep_bin318_IEDEJOFJ_01292;dRep_bin207_OHNPDPFI_00717;dRep_bin345_GLPJDLOI_00471;dRep_bin144_NPHACCKF_01507;dRep_bin118_FGIOKLBC_00082;dRep_bin355_KJEFNADK_00986;dRep_bin293_MEPKGOAN_00544;dRep_bin230_NINMBMKB_00674;dRep_bin014_CHIHIMAN_00029;dRep_bin218_ACMPALGF_00178;dRep_bin165_HMDFFMMM_01108;dRep_bin094_LBLICAAO_00513;dRep_bin076_GLAOFBEC_01428;dRep_bin267_LJCFMAFA_00110;dRep_bin048_PABMBHAL_00321;dRep_bin147_EJLBNEBE_02032;dRep_bin128_JPBBHEMA_00007;dRep_bin042_MMFCLHOO_01063;dRep_bin351_CKFFBPHM_00913;dRep_bin123_PJKBFKBB_00095;dRep_bin330_CODAKHDJ_00708;dRep_bin252_NDAKLAGD_01294;dRep_bin233_BAGKKAOB_01574;dRep_bin217_MJCEAEPB_00244;dRep_bin110_JGOEJECF_00272;dRep_bin109_MJABCPAK_00670;dRep_bin101_BNDDLDCL_01055;dRep_bin092_OOJCPDEA_00344;dRep_bin074_EHAOMODJ_00824;dRep_bin336_MPGOKPOL_02107;dRep_bin290_OIOJKBNK_01058;dRep_bin264_DNFFGNEG_00269;dRep_bin256_KEMNAOBC_01330;dRep_bin246_MMFBABHK_01553;dRep_bin166_DFIAJFEC_00041;dRep_bin153_JGABJFBF_00098;dRep_bin143_PFLDJMPF_00060;dRep_bin106_BKDHGPBE_01156;dRep_bin071_JHMCIJPE_01039;dRep_bin250_NMCAMJIO_00472;dRep_bin312_MJFEFHMP_01194;dRep_bin194_MEPDOGGJ_00657;dRep_bin129_GADIAMAA_01832;dRep_bin061_ONFGDLGO_01341;dRep_bin030_OGPDLGOC_01109;dRep_bin025_CBEJJMLE_00255;dRep_bin223_PIMCDKJI_01311;dRep_bin204_INMOGLDN_00399;dRep_bin202_HEPPALPH_00661;dRep_bin105_AAEIHAFF_01590;dRep_bin056_EMNHHOJA_01586;dRep_bin174_LJJOKEME_01552;dRep_bin057_BNCFHBBO_00981;dRep_bin348_LCLFDNEE_01410;dRep_bin339_DBNBAHDK_00024;dRep_bin321_EJNAAGJG_00897;dRep_bin273_FGAEBHNP_01096;dRep_bin248_CCDFPECI_01765;dRep_bin124_HIHDFGCL_01059;dRep_bin068_ENOLAELK_01049;dRep_bin038_EIGFILKG_00020;dRep_bin276_EHNFLEBP_00417;dRep_bin152_LJMCIADF_00769;dRep_bin115_IFKGOGCL_00005;dRep_bin099_DNDAGJEJ_00435;dRep_bin085_MBHLGCDB_01722;dRep_bin079_GAOGCKND_00892;dRep_bin026_HNPIIINL_00985;dRep_bin353_PPDHLNJB_01438;dRep_bin319_PBDBJGCJ_01331;dRep_bin291_EILOACJB_00194;dRep_bin241_LMMMGDNI_00361;dRep_bin091_MAFACGAD_00751;dRep_bin303_DDDNDJCF_01255;dRep_bin216_JNJMCPHB_01481;dRep_bin184_MBMMJHKO_01167;dRep_bin161_JMKPMHCO_00103;dRep_bin021_AJDDCGJC_01597;dRep_bin095_HOBNOEEF_00033;dRep_bin059_OOBKFNPP_00633;dRep_bin018_ILOONPIC_00093;dRep_bin306_FGHMKMMP_00476;dRep_bin175_HANCENAK_00082;dRep_bin040_EIFLLDOA_01832;dRep_bin166_DFIAJFEC_00288;dRep_bin085_MBHLGCDB_01583	dRep_bin191_NGFJMLOL_01259	>dRep_bin191_NGFJMLOL_01259 Aspartate--tRNA ligase	dRep_bin175_HANCENAK_00082	CDS	aspS	6.1.1.12	Aspartate--tRNA ligase
HANCENAK_00112	27.24	26.79625	26.69684	27.82529	27.1062	26.06355		26.069950000000002				5	5	2,1238E-72	dRep_bin175_HANCENAK_00112	dRep_bin175_HANCENAK_00112	>dRep_bin175_HANCENAK_00112 Sucrose phosphorylase	dRep_bin175_HANCENAK_00112	CDS	gtfA	2.4.1.7	Sucrose phosphorylase
HANCENAK_00145	27.526339999999998	27.29719	28.36599	30.551050000000004	28.94617	28.1436	28.80667	27.268569999999997				12	10	1,1693E-219	dRep_bin175_HANCENAK_00145	dRep_bin175_HANCENAK_00145	>dRep_bin175_HANCENAK_00145 Fructose-bisphosphate aldolase	dRep_bin175_HANCENAK_00145	CDS	fba	4.1.2.13	Fructose-bisphosphate aldolase
HANCENAK_00158				22.835990000000002								2	2	1,1247E-09	dRep_bin175_HANCENAK_00158	dRep_bin175_HANCENAK_00158	>dRep_bin175_HANCENAK_00158 Orotate phosphoribosyltransferase	dRep_bin175_HANCENAK_00158	CDS	pyrE	2.4.2.10	Orotate phosphoribosyltransferase
HANCENAK_00162				24.14359								2	1	1,1791E-08	dRep_bin175_HANCENAK_00162	dRep_bin175_HANCENAK_00162	>dRep_bin175_HANCENAK_00162 putative HIT-like protein	dRep_bin175_HANCENAK_00162	CDS			putative HIT-like protein
HANCENAK_00167					25.58506		23.988069999999997					3	3	8,0857E-22	dRep_bin013_IODPEDPB_00361;dRep_bin175_HANCENAK_00167	dRep_bin013_IODPEDPB_00361	>dRep_bin013_IODPEDPB_00361 Galactokinase	dRep_bin175_HANCENAK_00167	CDS	galK_1	2.7.1.6	Galactokinase
HANCENAK_00178							26.05068	24.62037				1	1	0,00014594	dRep_bin175_HANCENAK_00178	dRep_bin175_HANCENAK_00178	>dRep_bin175_HANCENAK_00178 Alanine racemase	dRep_bin175_HANCENAK_00178	CDS	alr	5.1.1.1	Alanine racemase
HANCENAK_00202	24.066860000000002											5	1	1,1256E-60	dRep_bin175_HANCENAK_00202	dRep_bin175_HANCENAK_00202	>dRep_bin175_HANCENAK_00202 DNA-directed RNA polymerase subunit beta	dRep_bin175_HANCENAK_00202	CDS	rpoB	2.7.7.6	DNA-directed RNA polymerase subunit beta
HANCENAK_00203		23.851390000000002	25.534480000000002									10	2	3,9895E-63	dRep_bin175_HANCENAK_00203	dRep_bin175_HANCENAK_00203	>dRep_bin175_HANCENAK_00203 DNA-directed RNA polymerase subunit beta	dRep_bin175_HANCENAK_00203	CDS	rpoC	2.7.7.6	DNA-directed RNA polymerase subunit beta'
HANCENAK_00206			24.96746									2	1	4,9061E-06	dRep_bin175_HANCENAK_00206	dRep_bin175_HANCENAK_00206	>dRep_bin175_HANCENAK_00206 30S ribosomal protein S12	dRep_bin175_HANCENAK_00206	CDS	rpsL		30S ribosomal protein S12
HANCENAK_00207				25.6875								2	1	1,38E-12	dRep_bin175_HANCENAK_00207	dRep_bin175_HANCENAK_00207	>dRep_bin175_HANCENAK_00207 30S ribosomal protein S7	dRep_bin175_HANCENAK_00207	CDS	rpsG		30S ribosomal protein S7
HANCENAK_00210	25.899890000000003	27.09225	28.469019999999997	26.77493	28.12204	26.640860000000004	29.05959	28.621810000000004				7	3	9,0867E-54	dRep_bin175_HANCENAK_00210	dRep_bin175_HANCENAK_00210	>dRep_bin175_HANCENAK_00210 Threonine--tRNA ligase	dRep_bin175_HANCENAK_00210	CDS	thrS	6.1.1.3	Threonine--tRNA ligase
HANCENAK_00229					25.54058							2	1	2,3973E-05	dRep_bin175_HANCENAK_00229;dRep_bin338_LIGGOPOO_00933	dRep_bin175_HANCENAK_00229;dRep_bin338_LIGGOPOO_00933	>dRep_bin175_HANCENAK_00229 Peptide chain release factor 1;>dRep_bin338_LIGGOPOO_00933 Peptide chain release factor 1	dRep_bin175_HANCENAK_00229	CDS	prfA		Peptide chain release factor 1
HANCENAK_00232	22.82439		25.591950000000004									2	2	8,4643E-13	dRep_bin013_IODPEDPB_00925;dRep_bin175_HANCENAK_00232	dRep_bin013_IODPEDPB_00925;dRep_bin175_HANCENAK_00232	>dRep_bin013_IODPEDPB_00925 Uracil phosphoribosyltransferase;>dRep_bin175_HANCENAK_00232 Uracil phosphoribosyltransferase	dRep_bin175_HANCENAK_00232	CDS	upp	2.4.2.9	Uracil phosphoribosyltransferase
HANCENAK_00237			24.635060000000003									2	1	2,51E-10	dRep_bin175_HANCENAK_00237	dRep_bin175_HANCENAK_00237	>dRep_bin175_HANCENAK_00237 ATP synthase subunit alpha	dRep_bin175_HANCENAK_00237	CDS	atpA	3.6.3.14	ATP synthase subunit alpha
HANCENAK_00246		28.457910000000002	28.471850000000003	29.0617								2	2	0,0022445	dRep_bin013_IODPEDPB_01544;dRep_bin175_HANCENAK_00246	dRep_bin013_IODPEDPB_01544;dRep_bin175_HANCENAK_00246	>dRep_bin013_IODPEDPB_01544 Peptidoglycan O-acetyltransferase;>dRep_bin175_HANCENAK_00246 Peptidoglycan O-acetyltransferase	dRep_bin175_HANCENAK_00246	CDS	patA_1	2.3.1.-	Peptidoglycan O-acetyltransferase
HANCENAK_00254				23.750619999999998								3	3	6,9143E-11	dRep_bin175_HANCENAK_00254	dRep_bin175_HANCENAK_00254	>dRep_bin175_HANCENAK_00254 Formate--tetrahydrofolate ligase 1	dRep_bin175_HANCENAK_00254	CDS	fhs1_1	6.3.4.3	Formate--tetrahydrofolate ligase 1
HANCENAK_00255			26.0891	26.865850000000002								2	2	1,1287E-06	dRep_bin013_IODPEDPB_00528;dRep_bin175_HANCENAK_00255;dRep_bin352_KFNHGNFC_00154;dRep_bin213_HHHELMFN_00761	dRep_bin013_IODPEDPB_00528;dRep_bin175_HANCENAK_00255;dRep_bin352_KFNHGNFC_00154;dRep_bin213_HHHELMFN_00761	>dRep_bin013_IODPEDPB_00528 Formate--tetrahydrofolate ligase 1;>dRep_bin175_HANCENAK_00255 Formate--tetrahydrofolate ligase 1;>dRep_bin352_KFNHGNFC_00154 Formate--tetrahydrofolate ligase;>dRep_bin213_HHHELMFN_00761 Formate--tetrahydrofolate ligase	dRep_bin175_HANCENAK_00255	CDS	fhs1_2	6.3.4.3	Formate--tetrahydrofolate ligase 1
HANCENAK_00297	29.131220000000003	30.40892	28.677180000000003	31.59246	30.487119999999997	29.019000000000002	28.20084					9	9	3,7607E-184	dRep_bin175_HANCENAK_00297	dRep_bin175_HANCENAK_00297	>dRep_bin175_HANCENAK_00297 Pyridoxamine 5-phosphate oxidase	dRep_bin175_HANCENAK_00297	CDS			Pyridoxamine 5'-phosphate oxidase
HANCENAK_00322		25.148329999999998										2	2	5,5855E-05	dRep_bin013_IODPEDPB_00026;dRep_bin175_HANCENAK_00322	dRep_bin013_IODPEDPB_00026;dRep_bin175_HANCENAK_00322	>dRep_bin013_IODPEDPB_00026 UDP-N-acetylmuramoyl-tripeptide--D-alanyl-D-alanine ligase;>dRep_bin175_HANCENAK_00322 UDP-N-acetylmuramoyl-tripeptide--D-alanyl-D-alanine ligase	dRep_bin175_HANCENAK_00322	CDS	murF_2	6.3.2.10	UDP-N-acetylmuramoyl-tripeptide--D-alanyl-D-alanine ligase
HANCENAK_00324					25.01831							3	1	1,0294E-08	dRep_bin175_HANCENAK_00324	dRep_bin175_HANCENAK_00324	>dRep_bin175_HANCENAK_00324 UDP-N-acetylglucosamine 1-carboxyvinyltransferase	dRep_bin175_HANCENAK_00324	CDS	murA1	2.5.1.7	UDP-N-acetylglucosamine 1-carboxyvinyltransferase
HANCENAK_00329	25.262159999999998	25.294529999999998	27.85019	25.28288	25.10093	26.177390000000003		25.8495				7	7	6,0875E-97	dRep_bin013_IODPEDPB_01751;dRep_bin175_HANCENAK_00329	dRep_bin013_IODPEDPB_01751	>dRep_bin013_IODPEDPB_01751 Ribose-phosphate pyrophosphokinase	dRep_bin175_HANCENAK_00329	CDS	prs_2	2.7.6.1	Ribose-phosphate pyrophosphokinase
HANCENAK_00359	28.66932	29.144840000000002	28.815739999999998	29.488989999999998	28.88002	26.743679999999998	29.64083	28.651160000000004				8	4	2,0733E-79	dRep_bin175_HANCENAK_00359	dRep_bin175_HANCENAK_00359	>dRep_bin175_HANCENAK_00359 D-lactate dehydrogenase	dRep_bin175_HANCENAK_00359	CDS	ldhA	1.1.1.28	D-lactate dehydrogenase
HANCENAK_00370			23.328960000000002	24.623160000000002	24.483819999999998		25.760509999999996	24.37875				1	1	4,7039E-30	dRep_bin175_HANCENAK_00370;dRep_bin013_IODPEDPB_00580	dRep_bin175_HANCENAK_00370;dRep_bin013_IODPEDPB_00580	>dRep_bin175_HANCENAK_00370 Phosphoglucosamine mutase;>dRep_bin013_IODPEDPB_00580 Phosphoglucosamine mutase	dRep_bin175_HANCENAK_00370	CDS	glmM	5.4.2.10	Phosphoglucosamine mutase
HANCENAK_00399		23.80371	24.432429999999997	24.54693	24.19212	23.580719999999996	25.145729999999997					3	3	2,5045E-08	dRep_bin013_IODPEDPB_00500;dRep_bin175_HANCENAK_00399	dRep_bin013_IODPEDPB_00500;dRep_bin175_HANCENAK_00399	>dRep_bin013_IODPEDPB_00500 hypothetical protein;>dRep_bin175_HANCENAK_00399 hypothetical protein	dRep_bin175_HANCENAK_00399	CDS			hypothetical protein
HANCENAK_00400					19.99286							1	1	0,00073042	dRep_bin175_HANCENAK_00400	dRep_bin175_HANCENAK_00400	>dRep_bin175_HANCENAK_00400 Alanine--tRNA ligase	dRep_bin175_HANCENAK_00400	CDS	alaS	6.1.1.7	Alanine--tRNA ligase
HANCENAK_00411	28.37576	26.877010000000002	28.519950000000005	28.949659999999998	28.584229999999998	26.830260000000003	29.70779	28.498039999999996				12	11	2,6126E-124	dRep_bin175_HANCENAK_00411	dRep_bin175_HANCENAK_00411	>dRep_bin175_HANCENAK_00411 60 kDa chaperonin	dRep_bin175_HANCENAK_00411	CDS	groL		60 kDa chaperonin
HANCENAK_00455				25.71143	25.994709999999998							2	2	7,5834E-08	dRep_bin175_HANCENAK_00455	dRep_bin175_HANCENAK_00455	>dRep_bin175_HANCENAK_00455 PAS domain protein	dRep_bin175_HANCENAK_00455	CDS			PAS domain protein
HANCENAK_00476	29.968019999999996	28.21813	28.971860000000003	27.26955	26.19133	28.66153	26.39164	27.39403				16	11	6,0652E-185	dRep_bin228_CECEDMJG_00730;dRep_bin175_HANCENAK_00476	dRep_bin228_CECEDMJG_00730	>dRep_bin228_CECEDMJG_00730 NADP-dependent glyceraldehyde-3-phosphate dehydrogenase	dRep_bin175_HANCENAK_00476	CDS	gapN	1.2.1.9	NADP-dependent glyceraldehyde-3-phosphate dehydrogenase
HANCENAK_00516	27.174270000000003	27.327060000000003	26.377870000000005	27.969549999999998	27.05009	24.95615	26.879350000000002	27.294999999999998				12	12	1,3733E-210	dRep_bin175_HANCENAK_00516	dRep_bin175_HANCENAK_00516	>dRep_bin175_HANCENAK_00516 Fumarate hydratase class II	dRep_bin175_HANCENAK_00516	CDS	fumC	4.2.1.2	Fumarate hydratase class II
HANCENAK_00528	25.882619999999996	24.990789999999997	26.55831	25.195050000000002	25.07936	23.949669999999998	27.58606	24.16837				3	3	1,7969E-07	dRep_bin013_IODPEDPB_00352;dRep_bin175_HANCENAK_00528	dRep_bin013_IODPEDPB_00352;dRep_bin175_HANCENAK_00528	>dRep_bin013_IODPEDPB_00352 Ribosome hibernation promotion factor;>dRep_bin175_HANCENAK_00528 Ribosome hibernation promotion factor	dRep_bin175_HANCENAK_00528	CDS	hpf		Ribosome hibernation promotion factor
HANCENAK_00529				22.89972								1	1	9,8658E-05	dRep_bin175_HANCENAK_00529	dRep_bin175_HANCENAK_00529	>dRep_bin175_HANCENAK_00529 Protein translocase subunit SecA	dRep_bin175_HANCENAK_00529	CDS	secA		Protein translocase subunit SecA
HANCENAK_00545				22.358880000000003								2	1	1,6157E-07	dRep_bin175_HANCENAK_00545	dRep_bin175_HANCENAK_00545	>dRep_bin175_HANCENAK_00545 ATP-dependent Clp protease proteolytic subunit	dRep_bin175_HANCENAK_00545	CDS	clpP	3.4.21.92	ATP-dependent Clp protease proteolytic subunit
HANCENAK_00552	33.243320000000004	33.49464	33.17785	33.21043	32.09669	32.37757	32.294500000000006	32.63647				8	6	1,7428E-196	dRep_bin175_HANCENAK_00552	dRep_bin175_HANCENAK_00552	>dRep_bin175_HANCENAK_00552 Glyceraldehyde-3-phosphate dehydrogenase	dRep_bin175_HANCENAK_00552	CDS	gap	1.2.1.12	Glyceraldehyde-3-phosphate dehydrogenase
HANCENAK_00553	33.96267	34.368610000000004	33.946459999999995	33.86922	33.68008	31.83838	34.07822	33.6196				15	14	0	dRep_bin175_HANCENAK_00553	dRep_bin175_HANCENAK_00553	>dRep_bin175_HANCENAK_00553 Phosphoglycerate kinase	dRep_bin175_HANCENAK_00553	CDS	pgk	2.7.2.3	Phosphoglycerate kinase
HANCENAK_00554	29.92988	30.67624	28.85103	30.48135	29.013850000000005	28.973779999999998	29.961409999999997	28.70091				5	3	1,3974E-119	dRep_bin175_HANCENAK_00554;dRep_bin094_LBLICAAO_01540;dRep_bin295_EJGKDKNE_00348	dRep_bin175_HANCENAK_00554	>dRep_bin175_HANCENAK_00554 Triosephosphate isomerase	dRep_bin175_HANCENAK_00554	CDS	tpiA	5.3.1.1	Triosephosphate isomerase
HANCENAK_00609	26.8925	28.561539999999997	26.617230000000003	29.16022	28.19643	26.94905	25.91839					6	6	9,167E-27	dRep_bin175_HANCENAK_00609	dRep_bin175_HANCENAK_00609	>dRep_bin175_HANCENAK_00609 UDP-glucose 4-epimerase	dRep_bin175_HANCENAK_00609	CDS	galE	5.1.3.2	UDP-glucose 4-epimerase
HANCENAK_00618	26.75379	25.41616	25.250639999999997	25.0135			25.550810000000002	26.00172				3	3	3,7283E-09	dRep_bin225_FLBKEJIP_00062;dRep_bin013_IODPEDPB_01014;dRep_bin175_HANCENAK_00618	dRep_bin225_FLBKEJIP_00062	>dRep_bin225_FLBKEJIP_00062 2,3,4,5-tetrahydropyridine-2,6-dicarboxylate N-acetyltransferase	dRep_bin175_HANCENAK_00618	CDS	dapH	2.3.1.89	2,3,4,5-tetrahydropyridine-2,6-dicarboxylate N-acetyltransferase
HANCENAK_00632							25.377890000000004					1	1	0,0045707	dRep_bin175_HANCENAK_00632	dRep_bin175_HANCENAK_00632	>dRep_bin175_HANCENAK_00632 Putative universal stress protein	dRep_bin175_HANCENAK_00632	CDS			Putative universal stress protein
HANCENAK_00675	28.408479999999997	28.72994	28.08167	28.790509999999998	28.71217	26.403239999999997	28.768159999999998	28.614390000000004				4	4	3,5108E-75	dRep_bin175_HANCENAK_00675	dRep_bin175_HANCENAK_00675	>dRep_bin175_HANCENAK_00675 putative pyridine nucleotide-disulfide oxidoreductase RclA	dRep_bin175_HANCENAK_00675	CDS	rclA		putative pyridine nucleotide-disulfide oxidoreductase RclA
HANCENAK_00678				23.072								1	1	0,0048338	dRep_bin175_HANCENAK_00678	dRep_bin175_HANCENAK_00678	>dRep_bin175_HANCENAK_00678 Peptide deformylase 2	dRep_bin175_HANCENAK_00678	CDS	def2	3.5.1.88	Peptide deformylase 2
HANCENAK_00679	27.58405	27.9428	26.82141	26.449379999999998	26.374160000000003	24.02758	28.57506	27.51141				5	3	6,2731E-59	dRep_bin013_IODPEDPB_01282;dRep_bin148_NAJFKJMD_01023;dRep_bin122_JHMJFODI_00068;dRep_bin280_IMCGLKKG_01102;dRep_bin101_BNDDLDCL_00800;dRep_bin175_HANCENAK_00679	dRep_bin013_IODPEDPB_01282	>dRep_bin013_IODPEDPB_01282 GTP-binding protein TypA/BipA	dRep_bin175_HANCENAK_00679	CDS	typA		GTP-binding protein TypA/BipA
HANCENAK_00682		25.630150000000004										1	1	0,0047997	dRep_bin175_HANCENAK_00682	dRep_bin175_HANCENAK_00682	>dRep_bin175_HANCENAK_00682 putative oxidoreductase	dRep_bin175_HANCENAK_00682	CDS		1.-.-.-	putative oxidoreductase
HANCENAK_00693	25.54648	25.264709999999997	25.202099999999998	29.08596	28.31838	26.00657	25.58492					4	4	4,4591E-18	dRep_bin175_HANCENAK_00693	dRep_bin175_HANCENAK_00693	>dRep_bin175_HANCENAK_00693 50S ribosomal protein L7/L12	dRep_bin175_HANCENAK_00693	CDS	rplL		50S ribosomal protein L7/L12
HANCENAK_00710			24.34935									2	2	2,072E-15	dRep_bin175_HANCENAK_00710	dRep_bin175_HANCENAK_00710	>dRep_bin175_HANCENAK_00710 Cysteine--tRNA ligase	dRep_bin175_HANCENAK_00710	CDS	cysS	6.1.1.16	Cysteine--tRNA ligase
HANCENAK_00717	30.399890000000003	30.62549	29.746779999999998	30.377930000000003	30.20443	28.511750000000003	30.70281	30.23763				13	4	4,9673E-188	dRep_bin175_HANCENAK_00717	dRep_bin175_HANCENAK_00717	>dRep_bin175_HANCENAK_00717 Chaperone protein DnaK	dRep_bin175_HANCENAK_00717	CDS	dnaK		Chaperone protein DnaK
HANCENAK_00722	26.627980000000004	25.098519999999997	27.90104	26.3665	25.308519999999998	26.245099999999997	24.73469	25.928789999999996				6	6	2,838E-29	dRep_bin013_IODPEDPB_01001;dRep_bin175_HANCENAK_00722	dRep_bin013_IODPEDPB_01001	>dRep_bin013_IODPEDPB_01001 Adenine phosphoribosyltransferase	dRep_bin175_HANCENAK_00722	CDS	apt	2.4.2.7	Adenine phosphoribosyltransferase
HANCENAK_00763					24.0385							1	1	0,0077703	dRep_bin175_HANCENAK_00763	dRep_bin175_HANCENAK_00763	>dRep_bin175_HANCENAK_00763 UDP-N-acetylmuramoyl-L-alanyl-D-glutamate--L-lysine ligase	dRep_bin175_HANCENAK_00763	CDS	murE	6.3.2.7	UDP-N-acetylmuramoyl-L-alanyl-D-glutamate--L-lysine ligase
HANCENAK_00765					27.075	26.8642	28.337560000000003	27.19976				5	5	3,294E-12	dRep_bin175_HANCENAK_00765	dRep_bin175_HANCENAK_00765	>dRep_bin175_HANCENAK_00765 Transcriptional regulatory protein SrrA	dRep_bin175_HANCENAK_00765	CDS	srrA_1		Transcriptional regulatory protein SrrA
HANCENAK_00779					23.25048	22.425289999999997						1	1	0,007162	dRep_bin175_HANCENAK_00779	dRep_bin175_HANCENAK_00779	>dRep_bin175_HANCENAK_00779 Sucrose-6-phosphate hydrolase	dRep_bin175_HANCENAK_00779	CDS	scrB_1	3.2.1.26	Sucrose-6-phosphate hydrolase
HANCENAK_00789				21.39739								2	2	1,0057E-07	dRep_bin175_HANCENAK_00789	dRep_bin175_HANCENAK_00789	>dRep_bin175_HANCENAK_00789 Acetate kinase	dRep_bin175_HANCENAK_00789	CDS	ackA	2.7.2.1	Acetate kinase
HANCENAK_00795	30.03341	30.93593	29.64441	30.77282	30.362229999999997	27.748939999999997	30.43807	30.31268				12	9	0	dRep_bin175_HANCENAK_00795;dRep_bin173_BEBNCADL_00348	dRep_bin175_HANCENAK_00795	>dRep_bin175_HANCENAK_00795 Glucose-6-phosphate isomerase	dRep_bin175_HANCENAK_00795	CDS	pgi	5.3.1.9	Glucose-6-phosphate isomerase
HANCENAK_00826		24.757050000000003	26.93809	27.43897								2	2	1,9262E-29	dRep_bin225_FLBKEJIP_01018;dRep_bin175_HANCENAK_00826	dRep_bin225_FLBKEJIP_01018;dRep_bin175_HANCENAK_00826	>dRep_bin225_FLBKEJIP_01018 30S ribosomal protein S18;>dRep_bin175_HANCENAK_00826 30S ribosomal protein S18	dRep_bin175_HANCENAK_00826	CDS	rpsR		30S ribosomal protein S18
HANCENAK_00827	25.50121	26.124810000000004	26.033830000000002	24.754960000000004								4	2	1,5915E-81	dRep_bin175_HANCENAK_00827	dRep_bin175_HANCENAK_00827	>dRep_bin175_HANCENAK_00827 Single-stranded DNA-binding protein	dRep_bin175_HANCENAK_00827	CDS	ssb		Single-stranded DNA-binding protein
HANCENAK_00829		22.3915		23.310910000000003	22.9279		22.69358	22.893950000000004				2	2	1,3665E-07	dRep_bin175_HANCENAK_00829	dRep_bin175_HANCENAK_00829	>dRep_bin175_HANCENAK_00829 DNA gyrase subunit A	dRep_bin175_HANCENAK_00829	CDS	gyrA	5.99.1.3	DNA gyrase subunit A
HANCENAK_00850	26.125339999999998		27.1335									2	1	1,3885E-05	dRep_bin175_HANCENAK_00850	dRep_bin175_HANCENAK_00850	>dRep_bin175_HANCENAK_00850 50S ribosomal protein L20	dRep_bin175_HANCENAK_00850	CDS	rplT		50S ribosomal protein L20
HANCENAK_00859	26.69219	26.677750000000003	28.50582	26.90483	27.34621	26.46095	28.45348	28.25921				9	9	2,8765E-97	dRep_bin013_IODPEDPB_00271;dRep_bin175_HANCENAK_00859;dRep_bin353_PPDHLNJB_00514;dRep_bin040_EIFLLDOA_00002;dRep_bin304_JDNJGFKH_00740;dRep_bin120_EKLBOPNC_00840;dRep_bin159_ADJJGPBG_00242;dRep_bin043_KLAFNACO_01820;dRep_bin189_AHHEHGDL_01721	dRep_bin013_IODPEDPB_00271	>dRep_bin013_IODPEDPB_00271 Glutamate--tRNA ligase	dRep_bin175_HANCENAK_00859	CDS	gltX	6.1.1.17	Glutamate--tRNA ligase
HANCENAK_00873	30.29647	30.962789999999995	30.159550000000003	31.79118	30.64839	30.409429999999997	32.754599999999996	29.906129999999997				20	20	6,246E-226	dRep_bin175_HANCENAK_00873	dRep_bin175_HANCENAK_00873	>dRep_bin175_HANCENAK_00873 Enolase	dRep_bin175_HANCENAK_00873	CDS	eno	4.2.1.11	Enolase
HANCENAK_00891		25.694560000000003	25.177560000000003	25.960779999999996								2	2	3,7637E-09	dRep_bin175_HANCENAK_00891	dRep_bin175_HANCENAK_00891	>dRep_bin175_HANCENAK_00891 Membrane lipoprotein TmpC	dRep_bin175_HANCENAK_00891	CDS	tmpC_1		Membrane lipoprotein TmpC
HANCENAK_00909	22.377160000000003	22.986089999999997	25.983139999999995	21.882519999999996	22.74647	23.71051	29.05582	25.966749999999998				5	5	5,8504E-45	dRep_bin013_IODPEDPB_01361;dRep_bin020_JCCELPIE_00994;dRep_bin175_HANCENAK_00909	dRep_bin013_IODPEDPB_01361	>dRep_bin013_IODPEDPB_01361 Serine--tRNA ligase	dRep_bin175_HANCENAK_00909	CDS	serS	6.1.1.11	Serine--tRNA ligase
HANCENAK_00913	25.518629999999998											4	1	2,793E-08	dRep_bin175_HANCENAK_00913	dRep_bin175_HANCENAK_00913	>dRep_bin175_HANCENAK_00913 DNA-directed RNA polymerase subunit alpha	dRep_bin175_HANCENAK_00913	CDS	rpoA	2.7.7.6	DNA-directed RNA polymerase subunit alpha
HANCENAK_00919								24.237900000000003				1	1	0,0013728	dRep_bin175_HANCENAK_00919	dRep_bin175_HANCENAK_00919	>dRep_bin175_HANCENAK_00919 50S ribosomal protein L13	dRep_bin175_HANCENAK_00919	CDS	rplM		50S ribosomal protein L13
HANCENAK_00920			25.10538									2	1	0,0036501	dRep_bin175_HANCENAK_00920;dRep_bin013_IODPEDPB_00460	dRep_bin175_HANCENAK_00920;dRep_bin013_IODPEDPB_00460	>dRep_bin175_HANCENAK_00920 30S ribosomal protein S9;>dRep_bin013_IODPEDPB_00460 30S ribosomal protein S9	dRep_bin175_HANCENAK_00920	CDS	rpsI		30S ribosomal protein S9
HANCENAK_00962						24.352050000000002						1	1	0,00014216	dRep_bin182_EMCFODCD_01381;dRep_bin157_JPNIKEKI_00822;dRep_bin044_IPFKHAEF_01309;dRep_bin089_PAJFOJBN_02060;dRep_bin166_DFIAJFEC_01371;dRep_bin175_HANCENAK_00962;dRep_bin048_PABMBHAL_02288	dRep_bin182_EMCFODCD_01381;dRep_bin157_JPNIKEKI_00822;dRep_bin044_IPFKHAEF_01309;dRep_bin089_PAJFOJBN_02060;dRep_bin166_DFIAJFEC_01371;dRep_bin175_HANCENAK_00962;dRep_bin048_PABMBHAL_02288	>dRep_bin182_EMCFODCD_01381 Glycerol-3-phosphate cytidylyltransferase;>dRep_bin157_JPNIKEKI_00822 Glycerol-3-phosphate cytidylyltransferase;>dRep_bin044_IPFKHAEF_01309 Glycerol-3-phosphate cytidylyltransferase;>dRep_bin089_PAJFOJBN_02060 Glycerol-3-phospha	dRep_bin175_HANCENAK_00962	CDS	tarD	2.7.7.39	Glycerol-3-phosphate cytidylyltransferase
HANCENAK_00980				26.940109999999997								2	2	2,4086E-12	dRep_bin175_HANCENAK_00980	dRep_bin175_HANCENAK_00980	>dRep_bin175_HANCENAK_00980 Aminopeptidase E	dRep_bin175_HANCENAK_00980	CDS	pepE_2	3.4.22.-	Aminopeptidase E
HANCENAK_00994				23.74129								3	2	1,0534E-10	dRep_bin175_HANCENAK_00994	dRep_bin175_HANCENAK_00994	>dRep_bin175_HANCENAK_00994 Carbamate kinase 1	dRep_bin175_HANCENAK_00994	CDS	arcC1	2.7.2.2	Carbamate kinase 1
HANCENAK_00995		23.31838		24.268709999999995								3	3	1,1999E-07	dRep_bin175_HANCENAK_00995	dRep_bin175_HANCENAK_00995	>dRep_bin175_HANCENAK_00995 Ornithine carbamoyltransferase	dRep_bin175_HANCENAK_00995	CDS	argF	2.1.3.3	Ornithine carbamoyltransferase
HANCENAK_00998	23.84757											3	3	1,5193E-12	dRep_bin225_FLBKEJIP_00080;dRep_bin175_HANCENAK_00998	dRep_bin225_FLBKEJIP_00080	>dRep_bin225_FLBKEJIP_00080 N-substituted formamide deformylase	dRep_bin175_HANCENAK_00998	CDS	nfdA	3.5.1.91	N-substituted formamide deformylase
HANCENAK_01015	22.86236	23.263419999999996	22.694870000000005	27.722599999999996	24.55818	22.682219999999997						5	4	8,2556E-31	dRep_bin175_HANCENAK_01015	dRep_bin175_HANCENAK_01015	>dRep_bin175_HANCENAK_01015 PTS-dependent dihydroxyacetone kinase, dihydroxyacetone-binding subunit DhaK	dRep_bin175_HANCENAK_01015	CDS	dhaK	2.7.-.-	PTS-dependent dihydroxyacetone kinase, dihydroxyacetone-binding subunit DhaK
HANCENAK_01017				23.232339999999997								1	1	1,4976E-05	dRep_bin175_HANCENAK_01017	dRep_bin175_HANCENAK_01017	>dRep_bin175_HANCENAK_01017 PTS-dependent dihydroxyacetone kinase, phosphotransferase subunit DhaM	dRep_bin175_HANCENAK_01017	CDS	dhaM	2.7.1.-	PTS-dependent dihydroxyacetone kinase, phosphotransferase subunit DhaM
HANCENAK_01060	26.36088	23.79759	26.94782		22.987409999999997	23.131700000000002	31.168	26.842539999999996				5	5	1,1349E-39	dRep_bin013_IODPEDPB_00655;dRep_bin175_HANCENAK_01060;dRep_bin349_AMCJEEEG_00761;dRep_bin342_BMMENEMP_01129;dRep_bin259_IFIOODLK_02231	dRep_bin013_IODPEDPB_00655;dRep_bin175_HANCENAK_01060	>dRep_bin013_IODPEDPB_00655 Elongation factor P;>dRep_bin175_HANCENAK_01060 Elongation factor P	dRep_bin175_HANCENAK_01060	CDS	efp_2		Elongation factor P
HANCENAK_01072	27.928239999999995	29.08727	28.050250000000002	28.04302	28.9196							4	4	2,015E-10	dRep_bin175_HANCENAK_01072	dRep_bin175_HANCENAK_01072	>dRep_bin175_HANCENAK_01072 Bifunctional purine biosynthesis protein PurH	dRep_bin175_HANCENAK_01072	CDS	purH		Bifunctional purine biosynthesis protein PurH
HANCENAK_01080	24.55467	26.7213	25.67511	27.83942	27.27817	25.79947						7	4	1,8661E-96	dRep_bin175_HANCENAK_01080	dRep_bin175_HANCENAK_01080	>dRep_bin175_HANCENAK_01080 Adenylosuccinate lyase	dRep_bin175_HANCENAK_01080	CDS	purB	4.3.2.2	Adenylosuccinate lyase
HANCENAK_01096	28.374010000000002	28.550910000000002	26.92128	28.20727	27.956319999999998	23.716800000000003	28.478499999999997	27.52753				6	3	9,8967E-82	dRep_bin175_HANCENAK_01096	dRep_bin175_HANCENAK_01096	>dRep_bin175_HANCENAK_01096 Glycine--tRNA ligase alpha subunit	dRep_bin175_HANCENAK_01096	CDS	glyQ	6.1.1.14	Glycine--tRNA ligase alpha subunit
HANCENAK_01097	24.284609999999997	24.369329999999998	24.944629999999997	25.080099999999998	24.50282	23.19912	23.445689999999995	23.517370000000003				4	3	4,3441E-28	dRep_bin175_HANCENAK_01097	dRep_bin175_HANCENAK_01097	>dRep_bin175_HANCENAK_01097 Glycine--tRNA ligase beta subunit	dRep_bin175_HANCENAK_01097	CDS	glyS	6.1.1.14	Glycine--tRNA ligase beta subunit
HANCENAK_01112	28.60566	27.683850000000003	28.68759	28.41667	28.424339999999997	26.4042	29.94308	28.844820000000002				7	7	3,8813E-114	dRep_bin175_HANCENAK_01112	dRep_bin175_HANCENAK_01112	>dRep_bin175_HANCENAK_01112 Glutamine--fructose-6-phosphate aminotransferase [isomerizing]	dRep_bin175_HANCENAK_01112	CDS	glmS	2.6.1.16	Glutamine--fructose-6-phosphate aminotransferase [isomerizing]
HANCENAK_01115				21.855439999999998								1	1	0,0055407	dRep_bin175_HANCENAK_01115	dRep_bin175_HANCENAK_01115	>dRep_bin175_HANCENAK_01115 Mannitol-specific phosphotransferase enzyme IIA component	dRep_bin175_HANCENAK_01115	CDS	mtlF	2.7.1.197	Mannitol-specific phosphotransferase enzyme IIA component
HANCENAK_01116		25.52316	24.613860000000006	26.407239999999998	24.14203	23.493629999999996	28.049729999999997					5	5	9,1328E-24	dRep_bin175_HANCENAK_01116	dRep_bin175_HANCENAK_01116	>dRep_bin175_HANCENAK_01116 Mannitol-1-phosphate 5-dehydrogenase	dRep_bin175_HANCENAK_01116	CDS	mtlD	1.1.1.17	Mannitol-1-phosphate 5-dehydrogenase
HANCENAK_01117		25.91743										1	1	0,0024062	dRep_bin175_HANCENAK_01117	dRep_bin175_HANCENAK_01117	>dRep_bin175_HANCENAK_01117 Phosphoenolpyruvate carboxylase	dRep_bin175_HANCENAK_01117	CDS	ppc	4.1.1.31	Phosphoenolpyruvate carboxylase
HANCENAK_01125	30.032629999999997	30.40131	29.83351	29.844350000000002	29.05225	27.45411	29.8947	29.51022				16	16	6,6317E-226	dRep_bin013_IODPEDPB_00615;dRep_bin175_HANCENAK_01125	dRep_bin013_IODPEDPB_00615	>dRep_bin013_IODPEDPB_00615 Dipeptidase A	dRep_bin175_HANCENAK_01125	CDS	pepDA_4	3.4.-.-	Dipeptidase A
HANCENAK_01146	26.73312	26.986419999999995	26.19378	27.38377	26.67546	24.86689	27.962399999999995	27.232329999999997				6	4	6,9338E-88	dRep_bin175_HANCENAK_01146	dRep_bin175_HANCENAK_01146	>dRep_bin175_HANCENAK_01146 Xylulose-5-phosphate phosphoketolase	dRep_bin175_HANCENAK_01146	CDS	xpkA	4.1.2.9	Xylulose-5-phosphate phosphoketolase
HANCENAK_01182	24.73159	25.86594	24.63079	26.386619999999997	25.962189999999996	24.517010000000003						6	6	2,3539E-29	dRep_bin175_HANCENAK_01182	dRep_bin175_HANCENAK_01182	>dRep_bin175_HANCENAK_01182 Multicopper oxidase mco	dRep_bin175_HANCENAK_01182	CDS	mco	1.-.-.-	Multicopper oxidase mco
HANCENAK_01186	32.8907	32.91779	33.218720000000005	32.61213000000001	31.539450000000002	31.674970000000005	31.055429999999998	32.490300000000005				6	6	9,8647E-118	dRep_bin013_IODPEDPB_00046;dRep_bin175_HANCENAK_01186	dRep_bin013_IODPEDPB_00046	>dRep_bin013_IODPEDPB_00046 Phosphocarrier protein HPr	dRep_bin175_HANCENAK_01186	CDS	ptsH	2.7.11.-	Phosphocarrier protein HPr
HANCENAK_01187	25.87375	25.831950000000006	25.44897	25.87047	25.44449		25.330260000000003	25.945009999999996				3	1	2,0417E-134	dRep_bin175_HANCENAK_01187	dRep_bin175_HANCENAK_01187	>dRep_bin175_HANCENAK_01187 Phosphoenolpyruvate-protein phosphotransferase	dRep_bin175_HANCENAK_01187	CDS	ptsI	2.7.3.9	Phosphoenolpyruvate-protein phosphotransferase
HANCENAK_01231	26.337750000000003		27.45897		26.37343		28.561	26.652260000000002				4	3	3,7117E-19	dRep_bin175_HANCENAK_01231;dRep_bin013_IODPEDPB_00899	dRep_bin175_HANCENAK_01231;dRep_bin013_IODPEDPB_00899	>dRep_bin175_HANCENAK_01231 Response regulator ArlR;>dRep_bin013_IODPEDPB_00899 Response regulator ArlR	dRep_bin175_HANCENAK_01231	CDS	arlR		Response regulator ArlR
HANCENAK_01255	30.17474	30.613160000000004	30.4069	30.493719999999996	30.291980000000002	28.58409	31.14431	30.30138				5	2	6,8265E-120	dRep_bin175_HANCENAK_01255	dRep_bin175_HANCENAK_01255	>dRep_bin175_HANCENAK_01255 Phosphoenolpyruvate carboxykinase	dRep_bin175_HANCENAK_01255	CDS			Phosphoenolpyruvate carboxykinase
HANCENAK_01279	28.09743	27.650820000000003	29.29448	28.43599	27.3982	28.35552	28.16591	28.2294				16	16	7,3464E-208	dRep_bin013_IODPEDPB_00143;dRep_bin175_HANCENAK_01279	dRep_bin013_IODPEDPB_00143	>dRep_bin013_IODPEDPB_00143 Neutral endopeptidase	dRep_bin175_HANCENAK_01279	CDS	pepO	3.4.24.-	Neutral endopeptidase
HANCENAK_01297	29.167890000000003	29.77966	30.45992	29.260419999999996	29.02889	27.90776	29.428139999999996	29.49375				11	9	1,152E-161	dRep_bin013_IODPEDPB_00131;dRep_bin175_HANCENAK_01297	dRep_bin013_IODPEDPB_00131	>dRep_bin013_IODPEDPB_00131 30S ribosomal protein S2	dRep_bin175_HANCENAK_01297	CDS	rpsB		30S ribosomal protein S2
HANCENAK_01299	27.45325		27.60633	27.34875	27.55311	26.292109999999997	27.99129	27.414820000000002				3	3	2,7731E-35	dRep_bin013_IODPEDPB_00129;dRep_bin152_LJMCIADF_00561;dRep_bin026_HNPIIINL_00624;dRep_bin194_MEPDOGGJ_00252;dRep_bin124_HIHDFGCL_00172;dRep_bin038_EIGFILKG_00845;dRep_bin025_CBEJJMLE_00504;dRep_bin353_PPDHLNJB_01721;dRep_bin079_GAOGCKND_01237;dRep_bin068_ENOLAELK_00465;dRep_bin006_HPJGJCAG_01285;dRep_bin175_HANCENAK_01299;dRep_bin337_FHKPNFDB_01083;dRep_bin318_IEDEJOFJ_00698;dRep_bin225_FLBKEJIP_00557;dRep_bin140_ACFAKGIL_00191	dRep_bin013_IODPEDPB_00129	>dRep_bin013_IODPEDPB_00129 Uridylate kinase	dRep_bin175_HANCENAK_01299	CDS	pyrH	2.7.4.22	Uridylate kinase
HANCENAK_01300							29.2591					1	1	0,0034762	dRep_bin175_HANCENAK_01300	dRep_bin175_HANCENAK_01300	>dRep_bin175_HANCENAK_01300 Ribosome-recycling factor	dRep_bin175_HANCENAK_01300	CDS	frr		Ribosome-recycling factor
HANCENAK_01315					23.132060000000003							1	1	4,9732E-27	dRep_bin175_HANCENAK_01315	dRep_bin175_HANCENAK_01315	>dRep_bin175_HANCENAK_01315 Aspartate carbamoyltransferase	dRep_bin175_HANCENAK_01315	CDS	pyrB	2.1.3.2	Aspartate carbamoyltransferase
HANCENAK_01337	25.996519999999997	25.397450000000003	26.123150000000003	25.23539								2	2	1,6404E-16	dRep_bin013_IODPEDPB_01879;dRep_bin175_HANCENAK_01337;dRep_bin299_AKNBKJGM_01359;dRep_bin150_HCDEOBMH_01445	dRep_bin013_IODPEDPB_01879;dRep_bin175_HANCENAK_01337;dRep_bin299_AKNBKJGM_01359;dRep_bin150_HCDEOBMH_01445	>dRep_bin013_IODPEDPB_01879 DNA-binding protein HU;>dRep_bin175_HANCENAK_01337 DNA-binding protein HU;>dRep_bin299_AKNBKJGM_01359 DNA-binding protein HU;>dRep_bin150_HCDEOBMH_01445 DNA-binding protein HU	dRep_bin175_HANCENAK_01337	CDS	hup		DNA-binding protein HU
HANCENAK_01339					26.438709999999997	25.34753	29.62822	26.768119999999996				4	2	5,985E-52	dRep_bin175_HANCENAK_01339	dRep_bin175_HANCENAK_01339	>dRep_bin175_HANCENAK_01339 30S ribosomal protein S1	dRep_bin175_HANCENAK_01339	CDS	rps1		30S ribosomal protein S1
HANCENAK_01349	29.794050000000002	31.04765	29.395519999999998	32.438590000000005	31.87899	29.4775	29.32058					17	8	0	dRep_bin175_HANCENAK_01349	dRep_bin175_HANCENAK_01349	>dRep_bin175_HANCENAK_01349 Pyruvate kinase	dRep_bin175_HANCENAK_01349	CDS	pyk	2.7.1.40	Pyruvate kinase
HANCENAK_01350	29.00137	29.179470000000002	28.616770000000002	30.262599999999996	29.368609999999997	28.962539999999994						5	4	2,0986E-26	dRep_bin175_HANCENAK_01350	dRep_bin175_HANCENAK_01350	>dRep_bin175_HANCENAK_01350 ATP-dependent 6-phosphofructokinase	dRep_bin175_HANCENAK_01350	CDS	pfkA	2.7.1.11	ATP-dependent 6-phosphofructokinase
HANCENAK_01364								23.69954				1	1	1,9506E-05	dRep_bin013_IODPEDPB_01071;dRep_bin225_FLBKEJIP_01193;dRep_bin175_HANCENAK_01364	dRep_bin013_IODPEDPB_01071;dRep_bin225_FLBKEJIP_01193;dRep_bin175_HANCENAK_01364	>dRep_bin013_IODPEDPB_01071 Transcriptional regulatory protein WalR;>dRep_bin225_FLBKEJIP_01193 Transcriptional regulatory protein WalR;>dRep_bin175_HANCENAK_01364 Transcriptional regulatory protein WalR	dRep_bin175_HANCENAK_01364	CDS	walR		Transcriptional regulatory protein WalR
HANCENAK_01374	26.548499999999997	27.031920000000003	26.410800000000002	27.03255	27.369950000000003	24.85034	26.613580000000002	26.879350000000002				3	3	2,3619E-27	dRep_bin013_IODPEDPB_00513;dRep_bin175_HANCENAK_01374	dRep_bin013_IODPEDPB_00513	>dRep_bin013_IODPEDPB_00513 Urocanate reductase	dRep_bin175_HANCENAK_01374	CDS	urdA_2	1.3.99.33	Urocanate reductase
HANCENAK_01398					24.77329							3	3	2,0135E-48	dRep_bin175_HANCENAK_01398	dRep_bin175_HANCENAK_01398	>dRep_bin175_HANCENAK_01398 Aldehyde-alcohol dehydrogenase	dRep_bin175_HANCENAK_01398	CDS	adhE_2		Aldehyde-alcohol dehydrogenase
HANCENAK_01406		28.22297	26.33836	27.03402								3	2	7,918E-38	dRep_bin175_HANCENAK_01406	dRep_bin175_HANCENAK_01406	>dRep_bin175_HANCENAK_01406 S-ribosylhomocysteine lyase	dRep_bin175_HANCENAK_01406	CDS	luxS	4.4.1.21	S-ribosylhomocysteine lyase
HANCENAK_01440	31.20145	31.688709999999997	30.697930000000003	32.82105	32.09767	30.839890000000004	29.519160000000003	31.31143				15	6	0	dRep_bin175_HANCENAK_01440	dRep_bin175_HANCENAK_01440	>dRep_bin175_HANCENAK_01440 Elongation factor Tu	dRep_bin175_HANCENAK_01440	CDS	tuf		Elongation factor Tu
HANCENAK_01446				20.76482								1	1	0,0015398	dRep_bin175_HANCENAK_01446	dRep_bin175_HANCENAK_01446	>dRep_bin175_HANCENAK_01446 Nitroreductase NfnB	dRep_bin175_HANCENAK_01446	CDS	nfnB	1.-.-.-	Nitroreductase NfnB
HANCENAK_01473	29.613840000000003	30.373890000000003	29.58438	31.484429999999996	30.54416	29.84607	28.54407	28.20434				10	6	3,4712E-132	dRep_bin175_HANCENAK_01473	dRep_bin175_HANCENAK_01473	>dRep_bin175_HANCENAK_01473 2,3-bisphosphoglycerate-dependent phosphoglycerate mutase	dRep_bin175_HANCENAK_01473	CDS	gpmA	5.4.2.11	2,3-bisphosphoglycerate-dependent phosphoglycerate mutase
HANCENAK_01518	27.111080000000005	25.262339999999995	27.30739	26.175539999999998	26.41558	25.40746	27.90386	26.130930000000003				4	4	4,2828E-24	dRep_bin013_IODPEDPB_00472;dRep_bin175_HANCENAK_01518	dRep_bin013_IODPEDPB_00472	>dRep_bin013_IODPEDPB_00472 Adenylate kinase	dRep_bin175_HANCENAK_01518	CDS	adk	2.7.4.3	Adenylate kinase
HANCENAK_01520	25.04402		26.197660000000003									3	3	3,2216E-15	dRep_bin013_IODPEDPB_00474;dRep_bin175_HANCENAK_01520;dRep_bin005_CNDFPKJG_00742	dRep_bin013_IODPEDPB_00474	>dRep_bin013_IODPEDPB_00474 50S ribosomal protein L15	dRep_bin175_HANCENAK_01520	CDS	rplO		50S ribosomal protein L15
HANCENAK_01523			27.785689999999995	29.70708	28.134080000000004			27.05879				2	2	1,1008E-06	dRep_bin299_AKNBKJGM_01248;dRep_bin175_HANCENAK_01523;dRep_bin169_PNICKJKO_00799;dRep_bin166_DFIAJFEC_00226;dRep_bin123_PJKBFKBB_00839;dRep_bin306_FGHMKMMP_01715;dRep_bin211_LGJEFJIK_01528;dRep_bin081_JDPCKDNP_01246;dRep_bin031_BNHMFOII_01050	dRep_bin299_AKNBKJGM_01248;dRep_bin175_HANCENAK_01523;dRep_bin169_PNICKJKO_00799;dRep_bin166_DFIAJFEC_00226;dRep_bin123_PJKBFKBB_00839;dRep_bin306_FGHMKMMP_01715;dRep_bin211_LGJEFJIK_01528;dRep_bin081_JDPCKDNP_01246;dRep_bin031_BNHMFOII_01050	>dRep_bin299_AKNBKJGM_01248 50S ribosomal protein L18;>dRep_bin175_HANCENAK_01523 50S ribosomal protein L18;>dRep_bin169_PNICKJKO_00799 50S ribosomal protein L18;>dRep_bin166_DFIAJFEC_00226 50S ribosomal protein L18;>dRep_bin123_PJKBFKBB_00839 50S ribosoma	dRep_bin175_HANCENAK_01523	CDS	rplR		50S ribosomal protein L18
HANCENAK_01524		24.644170000000003	27.04978	24.672439999999998								3	3	1,6526E-31	dRep_bin013_IODPEDPB_00478;dRep_bin175_HANCENAK_01524	dRep_bin013_IODPEDPB_00478	>dRep_bin013_IODPEDPB_00478 50S ribosomal protein L6	dRep_bin175_HANCENAK_01524	CDS	rplF		50S ribosomal protein L6
HANCENAK_01525	26.83256	27.73066	29.51875	30.8473	28.63519	26.903339999999996	31.793619999999997	28.171070000000004				5	4	5,8785E-100	dRep_bin175_HANCENAK_01525	dRep_bin175_HANCENAK_01525	>dRep_bin175_HANCENAK_01525 30S ribosomal protein S8	dRep_bin175_HANCENAK_01525	CDS	rpsH		30S ribosomal protein S8
HANCENAK_01529	25.59169		26.427619999999997	26.02899								3	2	1,0712E-07	dRep_bin013_IODPEDPB_00483;dRep_bin175_HANCENAK_01529	dRep_bin013_IODPEDPB_00483;dRep_bin175_HANCENAK_01529	>dRep_bin013_IODPEDPB_00483 50S ribosomal protein L14;>dRep_bin175_HANCENAK_01529 50S ribosomal protein L14	dRep_bin175_HANCENAK_01529	CDS	rplN		50S ribosomal protein L14
