GBprotID	LFQ intensity CtrPig1	LFQ intensity CtrPig2	LFQ intensity CtrPig3	LFQ intensity CtrPig4	LFQ intensity MannanPig1	LFQ intensity MannanPig2	LFQ intensity MannanPig3	LFQ intensity MannanPig4	Only identified by site	Reverse	Contaminant	Peptides	Unique peptides	PEP	Protein IDs	Majority protein IDs	Fasta headers	IDcomb	ftype	gene	EC_number	product
MKGPMPIA_00013				26.368709999999997								4	2	1,0849E-12	dRep_bin292_JIBLDOOH_01063;dRep_bin041_OPKGAAAG_01075;dRep_bin209_NKIHFCEN_01331;dRep_bin269_PNILGKPH_00386;dRep_bin039_IJNOFOJK_00028;dRep_bin324_IPNHOHFK_01206;dRep_bin300_MJPPENNL_00977;dRep_bin279_IAEFEPEN_01295;dRep_bin344_CJJBDGAA_00875;dRep_bin328_GIGKNKPJ_01713;dRep_bin308_JBPDGLPP_01081;dRep_bin303_DDDNDJCF_01452;dRep_bin260_HELEPKJL_01814;dRep_bin240_LDBBGJKG_01949;dRep_bin211_LGJEFJIK_01488;dRep_bin201_OLKDIBOK_00486;dRep_bin186_HJAAFFNP_00498;dRep_bin161_JMKPMHCO_00510;dRep_bin140_ACFAKGIL_00966;dRep_bin139_KGAJINND_01935;dRep_bin127_FIPNHBCH_01109;dRep_bin091_MAFACGAD_00938;dRep_bin069_EGGEOGDC_00173;dRep_bin065_DFABHCBI_01020;dRep_bin062_BOFBFLDA_00118;dRep_bin024_OLHDGABE_00006;dRep_bin016_JLGAHGOJ_01717;dRep_bin347_EKGCMFPD_00813;dRep_bin332_KAOPCDPF_00718;dRep_bin322_OJELOJOF_01104;dRep_bin310_IMBAFDIF_01100;dRep_bin306_FGHMKMMP_01495;dRep_bin282_PKAAPBFP_00123;dRep_bin266_JFOCEDAE_01441;dRep_bin249_OFIIEIDJ_00818;dRep_bin248_CCDFPECI_00304;dRep_bin234_ECABPBME_02078;dRep_bin181_MKGPMPIA_00013;dRep_bin160_EFKMPBOM_00454;dRep_bin158_OGFICEAP_01438;dRep_bin154_JGOKHKLI_00210;dRep_bin145_KMJJJOEJ_01040;dRep_bin135_HHKACLPM_01477;dRep_bin107_EFNBPDOP_01455;dRep_bin089_PAJFOJBN_01775;dRep_bin081_JDPCKDNP_00410;dRep_bin077_DNNBMPMC_01401;dRep_bin075_EPEMMOCL_00061;dRep_bin027_OFJCHLJJ_01614;dRep_bin023_HGFJFKAI_00593;dRep_bin019_MOJEPLJF_00571;dRep_bin007_LNLEAAAN_01143;dRep_bin005_CNDFPKJG_01435;dRep_bin001_GHHJMDAL_01190	dRep_bin292_JIBLDOOH_01063;dRep_bin041_OPKGAAAG_01075;dRep_bin209_NKIHFCEN_01331;dRep_bin269_PNILGKPH_00386;dRep_bin039_IJNOFOJK_00028;dRep_bin324_IPNHOHFK_01206;dRep_bin300_MJPPENNL_00977;dRep_bin279_IAEFEPEN_01295	>dRep_bin292_JIBLDOOH_01063 50S ribosomal protein L21;>dRep_bin041_OPKGAAAG_01075 50S ribosomal protein L21;>dRep_bin209_NKIHFCEN_01331 50S ribosomal protein L21;>dRep_bin269_PNILGKPH_00386 50S ribosomal protein L21;>dRep_bin039_IJNOFOJK_00028 50S ribosoma	dRep_bin181_MKGPMPIA_00013	CDS	rplU		50S ribosomal protein L21
MKGPMPIA_00052								23.62778				4	1	3,6641E-10	dRep_bin139_KGAJINND_00546;dRep_bin344_CJJBDGAA_00504;dRep_bin269_PNILGKPH_01782;dRep_bin186_HJAAFFNP_01230;dRep_bin160_EFKMPBOM_02028;dRep_bin154_JGOKHKLI_01570;dRep_bin027_OFJCHLJJ_01704;dRep_bin019_MOJEPLJF_00393;dRep_bin095_HOBNOEEF_01900;dRep_bin007_LNLEAAAN_01664;dRep_bin134_HIAPAODO_02032;dRep_bin220_PILICLLL_00626;dRep_bin201_OLKDIBOK_01146;dRep_bin158_OGFICEAP_00831;dRep_bin261_FJICAFFM_00403;dRep_bin347_EKGCMFPD_01461;dRep_bin328_GIGKNKPJ_00617;dRep_bin308_JBPDGLPP_01735;dRep_bin284_DEHKNOBF_00839;dRep_bin254_GJDPFAEA_01844;dRep_bin127_FIPNHBCH_00020;dRep_bin081_JDPCKDNP_00351;dRep_bin065_DFABHCBI_01741;dRep_bin001_GHHJMDAL_00049;dRep_bin335_JIOGNAPG_00092;dRep_bin282_PKAAPBFP_00201;dRep_bin260_HELEPKJL_01120;dRep_bin039_IJNOFOJK_00928;dRep_bin088_DNGPPFDK_00468;dRep_bin248_CCDFPECI_00111;dRep_bin107_EFNBPDOP_01463;dRep_bin077_DNNBMPMC_00533;dRep_bin300_MJPPENNL_00852;dRep_bin279_IAEFEPEN_01391;dRep_bin145_KMJJJOEJ_01298;dRep_bin062_BOFBFLDA_00998;dRep_bin016_JLGAHGOJ_00540;dRep_bin310_IMBAFDIF_00139;dRep_bin115_IFKGOGCL_00786;dRep_bin158_OGFICEAP_00832;dRep_bin066_AJACLPEE_00773;dRep_bin249_OFIIEIDJ_01720;dRep_bin324_IPNHOHFK_00378;dRep_bin287_DONBGKDH_00056;dRep_bin186_HJAAFFNP_01363;dRep_bin181_MKGPMPIA_00052;dRep_bin319_PBDBJGCJ_00396;dRep_bin278_BFCONKOE_00395;dRep_bin024_OLHDGABE_00254;dRep_bin135_HHKACLPM_01039	dRep_bin139_KGAJINND_00546;dRep_bin344_CJJBDGAA_00504;dRep_bin269_PNILGKPH_01782;dRep_bin186_HJAAFFNP_01230;dRep_bin160_EFKMPBOM_02028;dRep_bin154_JGOKHKLI_01570;dRep_bin027_OFJCHLJJ_01704;dRep_bin019_MOJEPLJF_00393;dRep_bin095_HOBNOEEF_01900;dRep_bin007_LNLEAAAN_01664;dRep_bin134_HIAPAODO_02032;dRep_bin220_PILICLLL_00626;dRep_bin201_OLKDIBOK_01146;dRep_bin158_OGFICEAP_00831;dRep_bin261_FJICAFFM_00403;dRep_bin347_EKGCMFPD_01461;dRep_bin328_GIGKNKPJ_00617;dRep_bin308_JBPDGLPP_01735;dRep_bin284_DEHKNOBF_00839;dRep_bin254_GJDPFAEA_01844;dRep_bin127_FIPNHBCH_00020;dRep_bin081_JDPCKDNP_00351;dRep_bin065_DFABHCBI_01741;dRep_bin001_GHHJMDAL_00049;dRep_bin335_JIOGNAPG_00092;dRep_bin282_PKAAPBFP_00201;dRep_bin260_HELEPKJL_01120;dRep_bin039_IJNOFOJK_00928;dRep_bin088_DNGPPFDK_00468;dRep_bin248_CCDFPECI_00111;dRep_bin107_EFNBPDOP_01463;dRep_bin077_DNNBMPMC_00533;dRep_bin300_MJPPENNL_00852;dRep_bin279_IAEFEPEN_01391;dRep_bin145_KMJJJOEJ_01298;dRep_bin062_BOFBFLDA_00998;dRep_bin016_JLGAHGOJ_00540;dRep_bin310_IMBAFDIF_00139	>dRep_bin139_KGAJINND_00546 ATP-dependent 6-phosphofructokinase;>dRep_bin344_CJJBDGAA_00504 ATP-dependent 6-phosphofructokinase;>dRep_bin269_PNILGKPH_01782 ATP-dependent 6-phosphofructokinase;>dRep_bin186_HJAAFFNP_01230 ATP-dependent 6-phosphofructokinase;	dRep_bin181_MKGPMPIA_00052	CDS	pfkA	2.7.1.11	ATP-dependent 6-phosphofructokinase
MKGPMPIA_00058	24.909950000000002	26.008409999999998	26.43557	26.35592	26.00267	26.164360000000002	26.32337	25.978229999999996				5	3	3,5357E-11	dRep_bin133_NOBPDBPA_01431;dRep_bin179_HFEIPPPA_01728;dRep_bin297_EDHEEICA_01357;dRep_bin211_LGJEFJIK_00920;dRep_bin203_CLFNNOCF_02084;dRep_bin240_LDBBGJKG_01545;dRep_bin026_HNPIIINL_01047;dRep_bin282_PKAAPBFP_00190;dRep_bin328_GIGKNKPJ_00916;dRep_bin335_JIOGNAPG_00084;dRep_bin085_MBHLGCDB_00002;dRep_bin134_HIAPAODO_01587;dRep_bin181_MKGPMPIA_00058;dRep_bin077_DNNBMPMC_01745;dRep_bin154_JGOKHKLI_01584;dRep_bin186_HJAAFFNP_01739;dRep_bin168_HKDILBFE_01500	dRep_bin133_NOBPDBPA_01431;dRep_bin179_HFEIPPPA_01728;dRep_bin297_EDHEEICA_01357;dRep_bin211_LGJEFJIK_00920;dRep_bin203_CLFNNOCF_02084;dRep_bin240_LDBBGJKG_01545	>dRep_bin133_NOBPDBPA_01431 Lysine--tRNA ligase;>dRep_bin179_HFEIPPPA_01728 Lysine--tRNA ligase;>dRep_bin297_EDHEEICA_01357 Lysine--tRNA ligase;>dRep_bin211_LGJEFJIK_00920 Lysine--tRNA ligase;>dRep_bin203_CLFNNOCF_02084 Lysine--tRNA ligase;>dRep_bin240_LDB	dRep_bin181_MKGPMPIA_00058	CDS	lysS	6.1.1.6	Lysine--tRNA ligase
MKGPMPIA_00061	29.287619999999997	28.34011	29.104900000000004	29.466469999999997	29.71291	30.61544	29.19277	29.977050000000002				20	4	1,0638E-240	dRep_bin209_NKIHFCEN_00291;dRep_bin041_OPKGAAAG_02305;dRep_bin181_MKGPMPIA_00061	dRep_bin209_NKIHFCEN_00291	>dRep_bin209_NKIHFCEN_00291 Pyruvate synthase	dRep_bin181_MKGPMPIA_00061	CDS	por	1.2.7.1	Pyruvate synthase
MKGPMPIA_00080		27.263739999999995										8	0	2,0977E-117	dRep_bin158_OGFICEAP_00263;dRep_bin181_MKGPMPIA_00080;dRep_bin135_HHKACLPM_00070;dRep_bin115_IFKGOGCL_01718;dRep_bin254_GJDPFAEA_00329;dRep_bin240_LDBBGJKG_00023	dRep_bin158_OGFICEAP_00263;dRep_bin181_MKGPMPIA_00080;dRep_bin135_HHKACLPM_00070;dRep_bin115_IFKGOGCL_01718;dRep_bin254_GJDPFAEA_00329;dRep_bin240_LDBBGJKG_00023	>dRep_bin158_OGFICEAP_00263 Reverse rubrerythrin-1;>dRep_bin181_MKGPMPIA_00080 Reverse rubrerythrin-1;>dRep_bin135_HHKACLPM_00070 Reverse rubrerythrin-1;>dRep_bin115_IFKGOGCL_01718 Reverse rubrerythrin-1;>dRep_bin254_GJDPFAEA_00329 Reverse rubrerythrin-1;>	dRep_bin181_MKGPMPIA_00080	CDS	rbr3A	1.11.1.1	Reverse rubrerythrin-1
MKGPMPIA_00090				24.726399999999998								2	1	4,821E-05	dRep_bin350_EKOOEEGH_00545;dRep_bin027_OFJCHLJJ_00315;dRep_bin335_JIOGNAPG_01981;dRep_bin005_CNDFPKJG_01220;dRep_bin181_MKGPMPIA_00090;dRep_bin347_EKGCMFPD_01027	dRep_bin350_EKOOEEGH_00545;dRep_bin027_OFJCHLJJ_00315;dRep_bin335_JIOGNAPG_01981;dRep_bin005_CNDFPKJG_01220;dRep_bin181_MKGPMPIA_00090;dRep_bin347_EKGCMFPD_01027	>dRep_bin350_EKOOEEGH_00545 Enolase;>dRep_bin027_OFJCHLJJ_00315 Enolase;>dRep_bin335_JIOGNAPG_01981 Enolase;>dRep_bin005_CNDFPKJG_01220 Enolase;>dRep_bin181_MKGPMPIA_00090 Enolase;>dRep_bin347_EKGCMFPD_01027 Enolase	dRep_bin181_MKGPMPIA_00090	CDS	eno	4.2.1.11	Enolase
MKGPMPIA_00094								22.59612				2	2	0,00065072	dRep_bin039_IJNOFOJK_00482;dRep_bin240_LDBBGJKG_01120;dRep_bin181_MKGPMPIA_00094;dRep_bin139_KGAJINND_01431;dRep_bin261_FJICAFFM_01223;dRep_bin017_FGFLFOPJ_00978;dRep_bin203_CLFNNOCF_01423;dRep_bin007_LNLEAAAN_00426	dRep_bin039_IJNOFOJK_00482;dRep_bin240_LDBBGJKG_01120;dRep_bin181_MKGPMPIA_00094;dRep_bin139_KGAJINND_01431;dRep_bin261_FJICAFFM_01223;dRep_bin017_FGFLFOPJ_00978;dRep_bin203_CLFNNOCF_01423;dRep_bin007_LNLEAAAN_00426	>dRep_bin039_IJNOFOJK_00482 Oligosaccharide 4-alpha-D-glucosyltransferase;>dRep_bin240_LDBBGJKG_01120 Oligosaccharide 4-alpha-D-glucosyltransferase;>dRep_bin181_MKGPMPIA_00094 Oligosaccharide 4-alpha-D-glucosyltransferase;>dRep_bin139_KGAJINND_01431 Oligos	dRep_bin181_MKGPMPIA_00094	CDS		2.4.1.161	Oligosaccharide 4-alpha-D-glucosyltransferase
MKGPMPIA_00103					25.616020000000002	23.6184	23.54922					4	1	1,9799E-33	dRep_bin260_HELEPKJL_01845;dRep_bin201_OLKDIBOK_00112;dRep_bin303_DDDNDJCF_00142;dRep_bin287_DONBGKDH_01854;dRep_bin322_OJELOJOF_01184;dRep_bin257_JHFDCHCB_00967;dRep_bin169_PNICKJKO_00877;A0A287A8P8;dRep_bin051_HIEIDCID_00151;dRep_bin086_HHEJBMCP_00386;dRep_bin122_JHMJFODI_00063;dRep_bin023_HGFJFKAI_00771;dRep_bin181_MKGPMPIA_00103;dRep_bin066_AJACLPEE_00701;dRep_bin259_IFIOODLK_02454;dRep_bin180_JMFOHHIL_00810;dRep_bin176_DLEJNGKN_00496;dRep_bin102_ICFDHPGB_00705;dRep_bin054_NNOKONMC_00274;dRep_bin141_GMCOOECB_00272;dRep_bin081_JDPCKDNP_01556;dRep_bin191_NGFJMLOL_01066;dRep_bin347_EKGCMFPD_00368;dRep_bin258_DAMEHFEK_00953;dRep_bin207_OHNPDPFI_00730;dRep_bin155_CLHNKEHA_00341;dRep_bin147_EJLBNEBE_00007;dRep_bin003_GOBBLOGO_01064;dRep_bin001_GHHJMDAL_00643;dRep_bin178_FLGBGGJB_01411;dRep_bin161_JMKPMHCO_00287;dRep_bin096_GNHMEKPF_00190;dRep_bin074_EHAOMODJ_00071;dRep_bin059_OOBKFNPP_00877;dRep_bin009_KMMEHEKA_00693;dRep_bin308_JBPDGLPP_01578;dRep_bin276_EHNFLEBP_00798;dRep_bin337_FHKPNFDB_01542;dRep_bin273_FGAEBHNP_00709;dRep_bin167_BLMEBMNN_01919;dRep_bin114_FJHJKHGL_00074;dRep_bin085_MBHLGCDB_00354;dRep_bin058_GJKCICJN_00485;A0A287B9S9;dRep_bin342_BMMENEMP_00811;dRep_bin341_NBEGOKEF_00144;dRep_bin231_CFOLMJBA_00136;dRep_bin095_HOBNOEEF_01465;dRep_bin236_BNONDECB_00582;dRep_bin168_HKDILBFE_01225;dRep_bin099_DNDAGJEJ_01201;dRep_bin024_OLHDGABE_00735;dRep_bin006_HPJGJCAG_01680;I3LL84;dRep_bin332_KAOPCDPF_00242;dRep_bin336_MPGOKPOL_00237;A0A287BIW1;dRep_bin319_PBDBJGCJ_00470	dRep_bin260_HELEPKJL_01845;dRep_bin201_OLKDIBOK_00112;dRep_bin303_DDDNDJCF_00142;dRep_bin287_DONBGKDH_01854	>dRep_bin260_HELEPKJL_01845 UDP-glucose 4-epimerase;>dRep_bin201_OLKDIBOK_00112 UDP-glucose 4-epimerase;>dRep_bin303_DDDNDJCF_00142 UDP-glucose 4-epimerase;>dRep_bin287_DONBGKDH_01854 UDP-glucose 4-epimerase	dRep_bin181_MKGPMPIA_00103	CDS	lnpD	5.1.3.2	UDP-glucose 4-epimerase
MKGPMPIA_00141	28.222789999999996	28.508129999999998	27.013820000000003	27.77216	28.62666	28.40178	29.05758	28.884339999999998				2	2	9,7455E-08	dRep_bin181_MKGPMPIA_00141	dRep_bin181_MKGPMPIA_00141	>dRep_bin181_MKGPMPIA_00141 Rubrerythrin-1	dRep_bin181_MKGPMPIA_00141	CDS	rbr1	1.11.1.1	Rubrerythrin-1
MKGPMPIA_00142					25.900119999999998	27.46987	26.849950000000003	26.325139999999998				4	0	3,2743E-28	dRep_bin307_AOCKHIKF_00160;dRep_bin098_DDEBHDKK_00652;dRep_bin183_FPGIOKBG_00590;dRep_bin128_JPBBHEMA_00391;dRep_bin137_NABPABPB_01015;dRep_bin198_GMLJKALI_00983;dRep_bin112_NDMGAKCH_00558;dRep_bin073_AKBCEHHO_00630;dRep_bin111_FPJIHFKE_01146;dRep_bin064_CMDDCDKG_00952;dRep_bin070_EMBHKIOF_00143;dRep_bin037_GEAOEKHA_00627;dRep_bin314_KCHFPLIP_01340;dRep_bin232_JGAEDAFA_00436;dRep_bin290_OIOJKBNK_01502;dRep_bin136_NAIECEIF_00125;dRep_bin018_ILOONPIC_00511;dRep_bin110_JGOEJECF_00059;dRep_bin092_OOJCPDEA_01586;dRep_bin271_NGFBCHKH_00234;dRep_bin224_NFENHJGB_01651;dRep_bin084_CGBIKHBH_01000;dRep_bin346_JKFDGFHC_00749;dRep_bin036_DOKCEIDH_01514;dRep_bin002_CFBNDKDN_00078;dRep_bin351_CKFFBPHM_00883;dRep_bin289_KALDCNNP_01019;dRep_bin298_EIPJCOMF_00289;dRep_bin229_FFOBPPJI_00563;dRep_bin275_NIDIBBDA_01303;dRep_bin210_AGEDAEIA_00620;dRep_bin104_EGLEJOLM_00781;dRep_bin257_JHFDCHCB_01689;dRep_bin097_CBBLIPAN_01153;dRep_bin337_FHKPNFDB_01364;dRep_bin335_JIOGNAPG_00046;dRep_bin282_PKAAPBFP_01042;dRep_bin234_ECABPBME_00099;dRep_bin135_HHKACLPM_00078;dRep_bin089_PAJFOJBN_00724;dRep_bin088_DNGPPFDK_00540;dRep_bin075_EPEMMOCL_00011;dRep_bin035_JBNPBOKG_00075;dRep_bin093_PGADNPMG_00660;dRep_bin169_PNICKJKO_01447;dRep_bin230_NINMBMKB_00368;dRep_bin294_EHJINIDK_00696;dRep_bin028_GKEJLBAM_00575;dRep_bin014_CHIHIMAN_01200;dRep_bin355_KJEFNADK_00480;dRep_bin063_PJANDMAH_00595;dRep_bin034_MEBMFDLL_01871;dRep_bin320_LDBKCCKL_00526;dRep_bin301_NJFJIJGA_01347;dRep_bin149_GABCHCDI_01402;dRep_bin310_IMBAFDIF_01474;dRep_bin242_LKAIBGGJ_00169;dRep_bin181_MKGPMPIA_00142;dRep_bin267_LJCFMAFA_00611;dRep_bin306_FGHMKMMP_00339;dRep_bin150_HCDEOBMH_01051;dRep_bin091_MAFACGAD_01386;dRep_bin040_EIFLLDOA_01982;dRep_bin005_CNDFPKJG_00382;dRep_bin333_EFOKIBLA_01313;dRep_bin317_ABPHNCOD_01616;dRep_bin081_JDPCKDNP_00758;dRep_bin138_EJGHNBMI_00536;dRep_bin162_JBGCCDIN_00612;dRep_bin272_LGBDGEIM_00307;dRep_bin168_HKDILBFE_01242;dRep_bin118_FGIOKLBC_01317	dRep_bin307_AOCKHIKF_00160;dRep_bin098_DDEBHDKK_00652;dRep_bin183_FPGIOKBG_00590;dRep_bin128_JPBBHEMA_00391;dRep_bin137_NABPABPB_01015;dRep_bin198_GMLJKALI_00983;dRep_bin112_NDMGAKCH_00558;dRep_bin073_AKBCEHHO_00630;dRep_bin111_FPJIHFKE_01146;dRep_bin064_CMDDCDKG_00952;dRep_bin070_EMBHKIOF_00143;dRep_bin037_GEAOEKHA_00627;dRep_bin314_KCHFPLIP_01340;dRep_bin232_JGAEDAFA_00436;dRep_bin290_OIOJKBNK_01502;dRep_bin136_NAIECEIF_00125;dRep_bin018_ILOONPIC_00511;dRep_bin110_JGOEJECF_00059;dRep_bin092_OOJCPDEA_01586;dRep_bin271_NGFBCHKH_00234;dRep_bin224_NFENHJGB_01651;dRep_bin084_CGBIKHBH_01000;dRep_bin346_JKFDGFHC_00749;dRep_bin036_DOKCEIDH_01514;dRep_bin002_CFBNDKDN_00078;dRep_bin351_CKFFBPHM_00883;dRep_bin289_KALDCNNP_01019;dRep_bin298_EIPJCOMF_00289;dRep_bin229_FFOBPPJI_00563;dRep_bin275_NIDIBBDA_01303;dRep_bin210_AGEDAEIA_00620;dRep_bin104_EGLEJOLM_00781;dRep_bin257_JHFDCHCB_01689;dRep_bin097_CBBLIPAN_01153;dRep_bin337_FHKPNFDB_01364;dRep_bin335_JIOGNAPG_00046;dRep_bin282_PKAAPBFP_01042;dRep_bin234_ECABPBME_00099;dRep_bin135_HHKACLPM_00078;dRep_bin089_PAJFOJBN_00724;dRep_bin088_DNGPPFDK_00540;dRep_bin075_EPEMMOCL_00011;dRep_bin035_JBNPBOKG_00075;dRep_bin093_PGADNPMG_00660	>dRep_bin307_AOCKHIKF_00160 NADPH-dependent 7-cyano-7-deazaguanine reductase;>dRep_bin098_DDEBHDKK_00652 NADPH-dependent 7-cyano-7-deazaguanine reductase;>dRep_bin183_FPGIOKBG_00590 NADPH-dependent 7-cyano-7-deazaguanine reductase;>dRep_bin128_JPBBHEMA_003	dRep_bin181_MKGPMPIA_00142	CDS	queF	1.7.1.13	NADPH-dependent 7-cyano-7-deazaguanine reductase
MKGPMPIA_00169	25.10613	25.14402	24.72666	23.87849								7	1	3,2468E-188	dRep_bin181_MKGPMPIA_00169	dRep_bin181_MKGPMPIA_00169	>dRep_bin181_MKGPMPIA_00169 hypothetical protein	dRep_bin181_MKGPMPIA_00169	CDS			hypothetical protein
MKGPMPIA_00170	28.490519999999997	28.34143	28.00742	28.15943	28.19221	26.505589999999998	28.288419999999995	27.70616				14	1	2,3057E-295	dRep_bin066_AJACLPEE_00962;dRep_bin181_MKGPMPIA_00170;dRep_bin319_PBDBJGCJ_00888;dRep_bin077_DNNBMPMC_00068;dRep_bin252_NDAKLAGD_01819;dRep_bin219_HGPEELLF_01018;dRep_bin129_GADIAMAA_01157;dRep_bin264_DNFFGNEG_00769;dRep_bin246_MMFBABHK_00503	dRep_bin066_AJACLPEE_00962;dRep_bin181_MKGPMPIA_00170;dRep_bin319_PBDBJGCJ_00888;dRep_bin077_DNNBMPMC_00068	>dRep_bin066_AJACLPEE_00962 GGGtGRT protein;>dRep_bin181_MKGPMPIA_00170 GGGtGRT protein;>dRep_bin319_PBDBJGCJ_00888 GGGtGRT protein;>dRep_bin077_DNNBMPMC_00068 GGGtGRT protein	dRep_bin181_MKGPMPIA_00170	CDS			GGGtGRT protein
MKGPMPIA_00261		24.82158										1	1	0,00049242	dRep_bin181_MKGPMPIA_00261	dRep_bin181_MKGPMPIA_00261	>dRep_bin181_MKGPMPIA_00261 6,7-dimethyl-8-ribityllumazine synthase	dRep_bin181_MKGPMPIA_00261	CDS	ribH	2.5.1.78	6,7-dimethyl-8-ribityllumazine synthase
MKGPMPIA_00361				21.965709999999994								1	1	0,0076481	dRep_bin066_AJACLPEE_01148;dRep_bin319_PBDBJGCJ_01387;dRep_bin181_MKGPMPIA_00361	dRep_bin066_AJACLPEE_01148;dRep_bin319_PBDBJGCJ_01387;dRep_bin181_MKGPMPIA_00361	>dRep_bin066_AJACLPEE_01148 50S ribosomal protein L17;>dRep_bin319_PBDBJGCJ_01387 50S ribosomal protein L17;>dRep_bin181_MKGPMPIA_00361 50S ribosomal protein L17	dRep_bin181_MKGPMPIA_00361	CDS	rplQ		50S ribosomal protein L17
MKGPMPIA_00362							24.95757	24.02149				6	1	7,2707E-47	dRep_bin248_CCDFPECI_01517;dRep_bin095_HOBNOEEF_01190;dRep_bin269_PNILGKPH_01796;dRep_bin240_LDBBGJKG_00146;dRep_bin225_FLBKEJIP_00866;dRep_bin100_CODMOHGB_00292;dRep_bin044_IPFKHAEF_00946;dRep_bin325_EIIGOGHN_00062;dRep_bin091_MAFACGAD_01165;dRep_bin016_JLGAHGOJ_00453;dRep_bin211_LGJEFJIK_00348;dRep_bin135_HHKACLPM_00457;dRep_bin075_EPEMMOCL_00485;dRep_bin306_FGHMKMMP_00321;dRep_bin107_EFNBPDOP_00109;dRep_bin077_DNNBMPMC_01424;dRep_bin282_PKAAPBFP_00462;dRep_bin181_MKGPMPIA_00362;dRep_bin349_AMCJEEEG_00053;dRep_bin286_OEMIJKMC_00055;dRep_bin231_CFOLMJBA_01056;dRep_bin182_EMCFODCD_00166;dRep_bin172_ALNHGLMD_00138;dRep_bin270_GEJAHNCN_00840;dRep_bin169_PNICKJKO_00787;dRep_bin085_MBHLGCDB_00687;dRep_bin143_PFLDJMPF_00820;dRep_bin074_EHAOMODJ_01303;dRep_bin059_OOBKFNPP_00785;dRep_bin005_CNDFPKJG_00735;dRep_bin299_AKNBKJGM_01258;dRep_bin321_EJNAAGJG_00978;dRep_bin273_FGAEBHNP_00355;dRep_bin049_MNFBDPNO_01410	dRep_bin248_CCDFPECI_01517;dRep_bin095_HOBNOEEF_01190;dRep_bin269_PNILGKPH_01796;dRep_bin240_LDBBGJKG_00146	>dRep_bin248_CCDFPECI_01517 DNA-directed RNA polymerase subunit alpha;>dRep_bin095_HOBNOEEF_01190 DNA-directed RNA polymerase subunit alpha;>dRep_bin269_PNILGKPH_01796 DNA-directed RNA polymerase subunit alpha;>dRep_bin240_LDBBGJKG_00146 DNA-directed RNA p	dRep_bin181_MKGPMPIA_00362	CDS	rpoA	2.7.7.6	DNA-directed RNA polymerase subunit alpha
MKGPMPIA_00365								23.49826				6	1	4,9058E-104	dRep_bin095_HOBNOEEF_02007;dRep_bin297_EDHEEICA_00996;dRep_bin287_DONBGKDH_00529;dRep_bin203_CLFNNOCF_02530;dRep_bin145_KMJJJOEJ_00745;dRep_bin328_GIGKNKPJ_01323;dRep_bin308_JBPDGLPP_01130;dRep_bin306_FGHMKMMP_00318;dRep_bin282_PKAAPBFP_00465;dRep_bin211_LGJEFJIK_00345;dRep_bin139_KGAJINND_00945;dRep_bin127_FIPNHBCH_00052;dRep_bin095_HOBNOEEF_01888;dRep_bin095_HOBNOEEF_01790;dRep_bin091_MAFACGAD_01162;dRep_bin088_DNGPPFDK_00714;dRep_bin075_EPEMMOCL_00488;dRep_bin134_HIAPAODO_00290;dRep_bin160_EFKMPBOM_01967;dRep_bin154_JGOKHKLI_00778;dRep_bin016_JLGAHGOJ_00450;dRep_bin221_LMGNIMOJ_00494;dRep_bin262_LLCGOPIE_00946;dRep_bin321_EJNAAGJG_00981;dRep_bin310_IMBAFDIF_00300;dRep_bin250_NMCAMJIO_00649;dRep_bin247_EKGBJCBM_00054;dRep_bin143_PFLDJMPF_00817;dRep_bin124_HIHDFGCL_01300;dRep_bin114_FJHJKHGL_01242;dRep_bin105_AAEIHAFF_01720;dRep_bin074_EHAOMODJ_01300;dRep_bin026_HNPIIINL_00948;dRep_bin177_HLHGKLFL_00479;dRep_bin146_LCCIBLJG_00787;dRep_bin005_CNDFPKJG_00738;dRep_bin325_EIIGOGHN_00065;dRep_bin303_DDDNDJCF_01078;dRep_bin266_JFOCEDAE_00989;dRep_bin181_MKGPMPIA_00365;dRep_bin089_PAJFOJBN_02097;dRep_bin047_IFFANOMN_00393;dRep_bin024_OLHDGABE_01301;dRep_bin023_HGFJFKAI_01284;dRep_bin017_FGFLFOPJ_00125;dRep_bin081_JDPCKDNP_01256;dRep_bin065_DFABHCBI_01254;dRep_bin001_GHHJMDAL_01184	dRep_bin095_HOBNOEEF_02007;dRep_bin297_EDHEEICA_00996;dRep_bin287_DONBGKDH_00529;dRep_bin203_CLFNNOCF_02530;dRep_bin145_KMJJJOEJ_00745;dRep_bin328_GIGKNKPJ_01323;dRep_bin308_JBPDGLPP_01130;dRep_bin306_FGHMKMMP_00318;dRep_bin282_PKAAPBFP_00465;dRep_bin211_LGJEFJIK_00345;dRep_bin139_KGAJINND_00945;dRep_bin127_FIPNHBCH_00052;dRep_bin095_HOBNOEEF_01888;dRep_bin095_HOBNOEEF_01790;dRep_bin091_MAFACGAD_01162;dRep_bin088_DNGPPFDK_00714;dRep_bin075_EPEMMOCL_00488;dRep_bin134_HIAPAODO_00290;dRep_bin160_EFKMPBOM_01967;dRep_bin154_JGOKHKLI_00778;dRep_bin016_JLGAHGOJ_00450;dRep_bin221_LMGNIMOJ_00494	>dRep_bin095_HOBNOEEF_02007 30S ribosomal protein S13;>dRep_bin297_EDHEEICA_00996 30S ribosomal protein S13;>dRep_bin287_DONBGKDH_00529 30S ribosomal protein S13;>dRep_bin203_CLFNNOCF_02530 30S ribosomal protein S13;>dRep_bin145_KMJJJOEJ_00745 30S ribosoma	dRep_bin181_MKGPMPIA_00365	CDS	rpsM		30S ribosomal protein S13
MKGPMPIA_00407						22.306860000000004						3	1	6,3831E-08	dRep_bin041_OPKGAAAG_00367;dRep_bin284_DEHKNOBF_00254;dRep_bin319_PBDBJGCJ_00655;dRep_bin203_CLFNNOCF_01297;dRep_bin181_MKGPMPIA_00407;dRep_bin179_HFEIPPPA_00842;dRep_bin139_KGAJINND_00918;dRep_bin133_NOBPDBPA_02473;dRep_bin066_AJACLPEE_00004;dRep_bin194_MEPDOGGJ_00508;dRep_bin152_LJMCIADF_01431;dRep_bin068_ENOLAELK_01095;dRep_bin038_EIGFILKG_01028;dRep_bin025_CBEJJMLE_01384;dRep_bin324_IPNHOHFK_01934;dRep_bin023_HGFJFKAI_01643;dRep_bin209_NKIHFCEN_00957;dRep_bin157_JPNIKEKI_01504;dRep_bin297_EDHEEICA_00667;dRep_bin226_NLNLHLLD_00265;dRep_bin306_FGHMKMMP_01756;dRep_bin005_CNDFPKJG_00040;dRep_bin158_OGFICEAP_01238;dRep_bin303_DDDNDJCF_00102;dRep_bin299_AKNBKJGM_01304;dRep_bin248_CCDFPECI_01165;dRep_bin145_KMJJJOEJ_00716;dRep_bin095_HOBNOEEF_01829;dRep_bin081_JDPCKDNP_01870;dRep_bin053_OMGNPOOB_00265;dRep_bin310_IMBAFDIF_00723;dRep_bin077_DNNBMPMC_01957;dRep_bin201_OLKDIBOK_00147;dRep_bin124_HIHDFGCL_01069;dRep_bin079_GAOGCKND_00667;dRep_bin107_EFNBPDOP_00920	dRep_bin041_OPKGAAAG_00367;dRep_bin284_DEHKNOBF_00254;dRep_bin319_PBDBJGCJ_00655;dRep_bin203_CLFNNOCF_01297;dRep_bin181_MKGPMPIA_00407;dRep_bin179_HFEIPPPA_00842;dRep_bin139_KGAJINND_00918;dRep_bin133_NOBPDBPA_02473;dRep_bin066_AJACLPEE_00004;dRep_bin194_MEPDOGGJ_00508;dRep_bin152_LJMCIADF_01431;dRep_bin068_ENOLAELK_01095;dRep_bin038_EIGFILKG_01028;dRep_bin025_CBEJJMLE_01384;dRep_bin324_IPNHOHFK_01934;dRep_bin023_HGFJFKAI_01643;dRep_bin209_NKIHFCEN_00957;dRep_bin157_JPNIKEKI_01504;dRep_bin297_EDHEEICA_00667;dRep_bin226_NLNLHLLD_00265;dRep_bin306_FGHMKMMP_01756;dRep_bin005_CNDFPKJG_00040	>dRep_bin041_OPKGAAAG_00367 Nicotinate-nucleotide pyrophosphorylase [carboxylating];>dRep_bin284_DEHKNOBF_00254 Nicotinate-nucleotide pyrophosphorylase [carboxylating];>dRep_bin319_PBDBJGCJ_00655 putative nicotinate-nucleotide pyrophosphorylase [carboxylat	dRep_bin181_MKGPMPIA_00407	CDS	nadC	2.4.2.19	putative nicotinate-nucleotide pyrophosphorylase [carboxylating]
MKGPMPIA_00426			25.494239999999998	23.728579999999997	24.27902	23.62656	24.484439999999996	24.347260000000002				5	0	3,3568E-13	dRep_bin139_KGAJINND_01684;dRep_bin001_GHHJMDAL_00951;dRep_bin347_EKGCMFPD_01457;dRep_bin308_JBPDGLPP_01901;dRep_bin031_BNHMFOII_01110;dRep_bin181_MKGPMPIA_00426;dRep_bin335_JIOGNAPG_01505;dRep_bin288_KOIAAABN_00041;dRep_bin263_OLEFOGIJ_00542	dRep_bin139_KGAJINND_01684;dRep_bin001_GHHJMDAL_00951;dRep_bin347_EKGCMFPD_01457	>dRep_bin139_KGAJINND_01684 Aspartate--tRNA ligase;>dRep_bin001_GHHJMDAL_00951 Aspartate--tRNA ligase;>dRep_bin347_EKGCMFPD_01457 Aspartate--tRNA ligase	dRep_bin181_MKGPMPIA_00426	CDS	aspS	6.1.1.12	Aspartate--tRNA ligase
MKGPMPIA_00448						23.53884						2	2	1,2076E-11	dRep_bin095_HOBNOEEF_01012;dRep_bin310_IMBAFDIF_00261;dRep_bin181_MKGPMPIA_00448;dRep_bin158_OGFICEAP_00729;dRep_bin088_DNGPPFDK_00346	dRep_bin095_HOBNOEEF_01012;dRep_bin310_IMBAFDIF_00261;dRep_bin181_MKGPMPIA_00448;dRep_bin158_OGFICEAP_00729;dRep_bin088_DNGPPFDK_00346	>dRep_bin095_HOBNOEEF_01012 Aldehyde-alcohol dehydrogenase;>dRep_bin310_IMBAFDIF_00261 Aldehyde-alcohol dehydrogenase;>dRep_bin181_MKGPMPIA_00448 Aldehyde-alcohol dehydrogenase;>dRep_bin158_OGFICEAP_00729 Aldehyde-alcohol dehydrogenase;>dRep_bin088_DNGPPFD	dRep_bin181_MKGPMPIA_00448	CDS	adhE		Aldehyde-alcohol dehydrogenase
MKGPMPIA_00465	23.6937	22.55319	22.817590000000003	22.79658								6	2	3,7467E-65	dRep_bin115_IFKGOGCL_02494;dRep_bin328_GIGKNKPJ_01111;dRep_bin181_MKGPMPIA_00465;dRep_bin319_PBDBJGCJ_01232;dRep_bin091_MAFACGAD_00725;dRep_bin077_DNNBMPMC_00037;dRep_bin007_LNLEAAAN_00658;dRep_bin066_AJACLPEE_01254;dRep_bin218_ACMPALGF_00107;dRep_bin168_HKDILBFE_00926;dRep_bin099_DNDAGJEJ_00999;dRep_bin089_PAJFOJBN_00512;dRep_bin306_FGHMKMMP_00549;dRep_bin267_LJCFMAFA_00570	dRep_bin115_IFKGOGCL_02494;dRep_bin328_GIGKNKPJ_01111	>dRep_bin115_IFKGOGCL_02494 Acetate kinase;>dRep_bin328_GIGKNKPJ_01111 Acetate kinase	dRep_bin181_MKGPMPIA_00465	CDS	ackA	2.7.2.1	Acetate kinase
MKGPMPIA_00497		22.04587	23.112750000000002	21.20461								3	2	2,8524E-07	dRep_bin333_EFOKIBLA_00032;dRep_bin319_PBDBJGCJ_00589;dRep_bin181_MKGPMPIA_00497;dRep_bin167_BLMEBMNN_01847	dRep_bin333_EFOKIBLA_00032	>dRep_bin333_EFOKIBLA_00032 50S ribosomal protein L11	dRep_bin181_MKGPMPIA_00497	CDS	rplK		50S ribosomal protein L11
MKGPMPIA_00505	24.97285	25.00984	25.160850000000003									2	2	0,00015312	dRep_bin319_PBDBJGCJ_00537;dRep_bin077_DNNBMPMC_01346;dRep_bin066_AJACLPEE_00297;dRep_bin211_LGJEFJIK_01436;dRep_bin181_MKGPMPIA_00505;dRep_bin107_EFNBPDOP_00876	dRep_bin319_PBDBJGCJ_00537;dRep_bin077_DNNBMPMC_01346;dRep_bin066_AJACLPEE_00297;dRep_bin211_LGJEFJIK_01436;dRep_bin181_MKGPMPIA_00505;dRep_bin107_EFNBPDOP_00876	>dRep_bin319_PBDBJGCJ_00537 Glycogen phosphorylase;>dRep_bin077_DNNBMPMC_01346 Glycogen phosphorylase;>dRep_bin066_AJACLPEE_00297 Glycogen phosphorylase;>dRep_bin211_LGJEFJIK_01436 Glycogen phosphorylase;>dRep_bin181_MKGPMPIA_00505 Glycogen phosphorylase;>	dRep_bin181_MKGPMPIA_00505	CDS	glgP_2	2.4.1.1	Glycogen phosphorylase
MKGPMPIA_00514				25.320339999999998								6	1	7,6232E-29	dRep_bin319_PBDBJGCJ_01471;dRep_bin181_MKGPMPIA_00514;dRep_bin005_CNDFPKJG_01326;dRep_bin194_MEPDOGGJ_00854;dRep_bin025_CBEJJMLE_01033;dRep_bin094_LBLICAAO_01863;REV__dRep_bin126_PPDNCIBN_01392	dRep_bin319_PBDBJGCJ_01471	>dRep_bin319_PBDBJGCJ_01471 Acryloyl-CoA reductase electron transfer subunit gamma	dRep_bin181_MKGPMPIA_00514	CDS	carD	1.3.1.108	Caffeyl-CoA reductase-Etf complex subunit CarD
MKGPMPIA_00515	27.1776	26.8642	27.93961	26.65062	27.25323	25.529870000000003	25.606820000000003	25.484219999999997				11	3	1,5218E-84	dRep_bin319_PBDBJGCJ_01470;dRep_bin181_MKGPMPIA_00515;dRep_bin069_EGGEOGDC_01586	dRep_bin319_PBDBJGCJ_01470;dRep_bin181_MKGPMPIA_00515	>dRep_bin319_PBDBJGCJ_01470 Acyl-CoA dehydrogenase, short-chain specific;>dRep_bin181_MKGPMPIA_00515 Acyl-CoA dehydrogenase, short-chain specific	dRep_bin181_MKGPMPIA_00515	CDS	bcd	1.3.8.1	Acyl-CoA dehydrogenase, short-chain specific
MKGPMPIA_00533				25.39682								11	0	1,0719E-56	dRep_bin319_PBDBJGCJ_00583;dRep_bin066_AJACLPEE_00089;dRep_bin091_MAFACGAD_00436;dRep_bin234_ECABPBME_00010;dRep_bin282_PKAAPBFP_00287;dRep_bin088_DNGPPFDK_01225;dRep_bin077_DNNBMPMC_01008;dRep_bin024_OLHDGABE_00644;dRep_bin181_MKGPMPIA_00533;dRep_bin099_DNDAGJEJ_00128;dRep_bin211_LGJEFJIK_00732	dRep_bin319_PBDBJGCJ_00583;dRep_bin066_AJACLPEE_00089;dRep_bin091_MAFACGAD_00436;dRep_bin234_ECABPBME_00010;dRep_bin282_PKAAPBFP_00287;dRep_bin088_DNGPPFDK_01225;dRep_bin077_DNNBMPMC_01008;dRep_bin024_OLHDGABE_00644	>dRep_bin319_PBDBJGCJ_00583 DNA-directed RNA polymerase subunit beta;>dRep_bin066_AJACLPEE_00089 DNA-directed RNA polymerase subunit beta;>dRep_bin091_MAFACGAD_00436 DNA-directed RNA polymerase subunit beta;>dRep_bin234_ECABPBME_00010 DNA-directed RNA p	dRep_bin181_MKGPMPIA_00533	CDS	rpoC	2.7.7.6	DNA-directed RNA polymerase subunit beta'
MKGPMPIA_00538				21.86884								3	1	1,3797E-13	dRep_bin021_AJDDCGJC_00051;dRep_bin252_NDAKLAGD_00826;dRep_bin317_ABPHNCOD_01131;dRep_bin216_JNJMCPHB_01076;dRep_bin272_LGBDGEIM_00618;dRep_bin097_CBBLIPAN_01579;dRep_bin053_OMGNPOOB_00833;dRep_bin337_FHKPNFDB_00090;dRep_bin052_PGOOKKFH_01594;dRep_bin168_HKDILBFE_01015;dRep_bin322_OJELOJOF_01622;dRep_bin220_PILICLLL_01543;dRep_bin055_IBMMJAEE_00610;dRep_bin061_ONFGDLGO_01234;dRep_bin168_HKDILBFE_00368;dRep_bin055_IBMMJAEE_00168;dRep_bin261_FJICAFFM_00490;dRep_bin017_FGFLFOPJ_00414;dRep_bin115_IFKGOGCL_01280;dRep_bin257_JHFDCHCB_01406;dRep_bin323_FBBLPLCG_01600;dRep_bin007_LNLEAAAN_00766;dRep_bin049_MNFBDPNO_00781;dRep_bin333_EFOKIBLA_01149;dRep_bin279_IAEFEPEN_01471;dRep_bin234_ECABPBME_01515;dRep_bin179_HFEIPPPA_02108;dRep_bin023_HGFJFKAI_01527;dRep_bin335_JIOGNAPG_00787;dRep_bin250_NMCAMJIO_00423;dRep_bin158_OGFICEAP_00549;dRep_bin100_CODMOHGB_01341;dRep_bin089_PAJFOJBN_02515;dRep_bin088_DNGPPFDK_01371;dRep_bin081_JDPCKDNP_00684;dRep_bin324_IPNHOHFK_01454;dRep_bin300_MJPPENNL_01260;dRep_bin292_JIBLDOOH_01593;dRep_bin284_DEHKNOBF_00281;dRep_bin282_PKAAPBFP_00934;dRep_bin279_IAEFEPEN_01275;dRep_bin269_PNILGKPH_00152;dRep_bin240_LDBBGJKG_01257;dRep_bin226_NLNLHLLD_00367;dRep_bin209_NKIHFCEN_01541;dRep_bin203_CLFNNOCF_01928;dRep_bin179_HFEIPPPA_00359;dRep_bin167_BLMEBMNN_00233;dRep_bin160_EFKMPBOM_02132;dRep_bin154_JGOKHKLI_02775;dRep_bin133_NOBPDBPA_00727;dRep_bin114_FJHJKHGL_00838;dRep_bin095_HOBNOEEF_00822;dRep_bin075_EPEMMOCL_00939;dRep_bin074_EHAOMODJ_00291;dRep_bin065_DFABHCBI_01203;dRep_bin347_EKGCMFPD_00625;dRep_bin325_EIIGOGHN_00612;dRep_bin310_IMBAFDIF_01359;dRep_bin308_JBPDGLPP_00545;dRep_bin306_FGHMKMMP_01018;dRep_bin297_EDHEEICA_01903;dRep_bin201_OLKDIBOK_00335;dRep_bin186_HJAAFFNP_00409;dRep_bin173_BEBNCADL_00242;dRep_bin169_PNICKJKO_00103;dRep_bin145_KMJJJOEJ_01348;dRep_bin135_HHKACLPM_00566;dRep_bin101_BNDDLDCL_00036;dRep_bin069_EGGEOGDC_01480;dRep_bin062_BOFBFLDA_00487;dRep_bin047_IFFANOMN_01271;dRep_bin042_MMFCLHOO_00308;dRep_bin041_OPKGAAAG_00762;dRep_bin024_OLHDGABE_00679;dRep_bin016_JLGAHGOJ_01831;dRep_bin001_GHHJMDAL_00660;dRep_bin349_AMCJEEEG_00131;dRep_bin312_MJFEFHMP_00833;dRep_bin264_DNFFGNEG_00100;dRep_bin246_MMFBABHK_00297;dRep_bin219_HGPEELLF_00003;dRep_bin174_LJJOKEME_01103;dRep_bin129_GADIAMAA_01409;dRep_bin127_FIPNHBCH_00703;dRep_bin077_DNNBMPMC_01278;dRep_bin030_OGPDLGOC_01790;dRep_bin004_OCHNPJPO_01519;dRep_bin218_ACMPALGF_00968;dRep_bin185_OOOLKACK_00657;dRep_bin181_MKGPMPIA_00538;dRep_bin148_NAJFKJMD_01090;dRep_bin058_GJKCICJN_01056;dRep_bin291_EILOACJB_00579;dRep_bin244_LBFMHLBI_01277;dRep_bin223_PIMCDKJI_01006;dRep_bin204_INMOGLDN_01473;dRep_bin184_MBMMJHKO_00222;dRep_bin302_AHDEPDKG_00621;dRep_bin265_LFKFBJPC_00590;dRep_bin233_BAGKKAOB_00885;dRep_bin188_EJILNMPE_01053;dRep_bin081_JDPCKDNP_01324;dRep_bin318_IEDEJOFJ_00724;dRep_bin144_NPHACCKF_00221;dRep_bin096_GNHMEKPF_00086;dRep_bin344_CJJBDGAA_01489;dRep_bin295_EJGKDKNE_00851;dRep_bin048_PABMBHAL_01507;dRep_bin303_DDDNDJCF_00663;dRep_bin283_NLJJFFAC_01754;dRep_bin201_OLKDIBOK_00523;dRep_bin139_KGAJINND_01276;dRep_bin134_HIAPAODO_01158;dRep_bin094_LBLICAAO_00942;dRep_bin062_BOFBFLDA_00417;dRep_bin336_MPGOKPOL_02385;dRep_bin082_HBEFABJN_00650;dRep_bin125_FADLGGII_00540;dRep_bin334_NAPFFNLD_01195;dRep_bin217_MJCEAEPB_00530;dRep_bin195_DDMDFNOK_00971;dRep_bin060_HNFNENOI_00088;dRep_bin328_GIGKNKPJ_00426;dRep_bin281_OGHLKMAI_01076;dRep_bin197_NHLBHFEI_00626;dRep_bin103_IGJBLKMC_00726;dRep_bin116_CLFDBMOF_00455;dRep_bin332_KAOPCDPF_00448;dRep_bin345_GLPJDLOI_00589;dRep_bin314_KCHFPLIP_00788;dRep_bin128_JPBBHEMA_00693;dRep_bin073_AKBCEHHO_01462;dRep_bin045_GJACFFBC_00428;dRep_bin329_GDOHKPBL_01522;dRep_bin316_FNLHDNEO_00349;dRep_bin307_AOCKHIKF_00400;dRep_bin294_EHJINIDK_01408;dRep_bin289_KALDCNNP_01327;dRep_bin183_FPGIOKBG_00622;dRep_bin098_DDEBHDKK_01308;dRep_bin165_HMDFFMMM_01247;dRep_bin037_GEAOEKHA_01212;dRep_bin256_KEMNAOBC_00113;dRep_bin092_OOJCPDEA_01143;dRep_bin126_PPDNCIBN_00264;dRep_bin090_IPGNHCBJ_00911;dRep_bin215_ABBFGCAF_00280;dRep_bin005_CNDFPKJG_00629;dRep_bin270_GEJAHNCN_01426;dRep_bin116_CLFDBMOF_00686;dRep_bin069_EGGEOGDC_00857;dRep_bin007_LNLEAAAN_01604;dRep_bin057_BNCFHBBO_01159;dRep_bin038_EIGFILKG_00229;dRep_bin114_FJHJKHGL_00934;dRep_bin152_LJMCIADF_00045;dRep_bin322_OJELOJOF_00826;dRep_bin266_JFOCEDAE_00030;dRep_bin194_MEPDOGGJ_01235;dRep_bin079_GAOGCKND_01437;dRep_bin068_ENOLAELK_01387;dRep_bin025_CBEJJMLE_00917;dRep_bin240_LDBBGJKG_00802;dRep_bin347_EKGCMFPD_01498;dRep_bin167_BLMEBMNN_00596;dRep_bin160_EFKMPBOM_02114;dRep_bin260_HELEPKJL_02017;dRep_bin091_MAFACGAD_00797;dRep_bin099_DNDAGJEJ_01471;dRep_bin278_BFCONKOE_01179;dRep_bin168_HKDILBFE_00397;dRep_bin284_DEHKNOBF_00737;dRep_bin001_GHHJMDAL_01209;dRep_bin236_BNONDECB_00531;dRep_bin286_OEMIJKMC_01078;dRep_bin231_CFOLMJBA_00464;dRep_bin193_GDMDPNNM_00224;dRep_bin172_ALNHGLMD_01787;dRep_bin182_EMCFODCD_00065;dRep_bin044_IPFKHAEF_00183	dRep_bin021_AJDDCGJC_00051;dRep_bin252_NDAKLAGD_00826;dRep_bin317_ABPHNCOD_01131;dRep_bin216_JNJMCPHB_01076;dRep_bin272_LGBDGEIM_00618;dRep_bin097_CBBLIPAN_01579;dRep_bin053_OMGNPOOB_00833;dRep_bin337_FHKPNFDB_00090;dRep_bin052_PGOOKKFH_01594	>dRep_bin021_AJDDCGJC_00051 ATP synthase subunit alpha;>dRep_bin252_NDAKLAGD_00826 ATP synthase subunit alpha;>dRep_bin317_ABPHNCOD_01131 ATP synthase subunit alpha;>dRep_bin216_JNJMCPHB_01076 ATP synthase subunit alpha;>dRep_bin272_LGBDGEIM_00618 ATP synt	dRep_bin181_MKGPMPIA_00538	CDS	atpA	3.6.3.14	ATP synthase subunit alpha
MKGPMPIA_00586		25.58075										6	0	1,3543E-87	dRep_bin108_BPNCDINP_01326;dRep_bin089_PAJFOJBN_00301;dRep_bin300_MJPPENNL_00939;dRep_bin145_KMJJJOEJ_00792;dRep_bin091_MAFACGAD_01189;dRep_bin049_MNFBDPNO_00324;dRep_bin016_JLGAHGOJ_00954;dRep_bin157_JPNIKEKI_00961;dRep_bin297_EDHEEICA_00222;dRep_bin160_EFKMPBOM_02659;dRep_bin079_GAOGCKND_00457;dRep_bin068_ENOLAELK_00441;dRep_bin101_BNDDLDCL_01290;dRep_bin330_CODAKHDJ_00875;dRep_bin133_NOBPDBPA_00602;dRep_bin299_AKNBKJGM_01294;dRep_bin250_NMCAMJIO_01057;dRep_bin123_PJKBFKBB_00547;dRep_bin272_LGBDGEIM_01628;dRep_bin179_HFEIPPPA_01660;dRep_bin216_JNJMCPHB_01272;dRep_bin201_OLKDIBOK_01356;dRep_bin062_BOFBFLDA_00952;dRep_bin107_EFNBPDOP_00212;dRep_bin077_DNNBMPMC_01832;dRep_bin306_FGHMKMMP_01672;dRep_bin095_HOBNOEEF_00755;dRep_bin159_ADJJGPBG_00425;dRep_bin222_GGCAJABB_01443;dRep_bin310_IMBAFDIF_00623;dRep_bin181_MKGPMPIA_00586;dRep_bin074_EHAOMODJ_00159;dRep_bin073_AKBCEHHO_00467;dRep_bin285_IPHKFJAN_00913;dRep_bin228_CECEDMJG_00322;dRep_bin066_AJACLPEE_00029;dRep_bin276_EHNFLEBP_00509;dRep_bin021_AJDDCGJC_01318;dRep_bin104_EGLEJOLM_00960;dRep_bin327_EPEGNBAG_00068;dRep_bin241_LMMMGDNI_00158	dRep_bin108_BPNCDINP_01326;dRep_bin089_PAJFOJBN_00301;dRep_bin300_MJPPENNL_00939;dRep_bin145_KMJJJOEJ_00792;dRep_bin091_MAFACGAD_01189;dRep_bin049_MNFBDPNO_00324;dRep_bin016_JLGAHGOJ_00954;dRep_bin157_JPNIKEKI_00961;dRep_bin297_EDHEEICA_00222;dRep_bin160_EFKMPBOM_02659;dRep_bin079_GAOGCKND_00457;dRep_bin068_ENOLAELK_00441;dRep_bin101_BNDDLDCL_01290;dRep_bin330_CODAKHDJ_00875;dRep_bin133_NOBPDBPA_00602;dRep_bin299_AKNBKJGM_01294;dRep_bin250_NMCAMJIO_01057;dRep_bin123_PJKBFKBB_00547;dRep_bin272_LGBDGEIM_01628;dRep_bin179_HFEIPPPA_01660;dRep_bin216_JNJMCPHB_01272;dRep_bin201_OLKDIBOK_01356;dRep_bin062_BOFBFLDA_00952;dRep_bin107_EFNBPDOP_00212;dRep_bin077_DNNBMPMC_01832;dRep_bin306_FGHMKMMP_01672;dRep_bin095_HOBNOEEF_00755;dRep_bin159_ADJJGPBG_00425;dRep_bin222_GGCAJABB_01443;dRep_bin310_IMBAFDIF_00623;dRep_bin181_MKGPMPIA_00586;dRep_bin074_EHAOMODJ_00159	>dRep_bin108_BPNCDINP_01326 Pyridoxal 5-phosphate synthase subunit PdxS;>dRep_bin089_PAJFOJBN_00301 Pyridoxal 5-phosphate synthase subunit PdxS;>dRep_bin300_MJPPENNL_00939 Pyridoxal 5-phosphate synthase subunit PdxS;>dRep_bin145_KMJJJOEJ_00792 Pyridoxal	dRep_bin181_MKGPMPIA_00586	CDS	pdxS	4.3.3.6	Pyridoxal 5'-phosphate synthase subunit PdxS
MKGPMPIA_00606	29.39679	29.82083	28.888699999999996	30.023	29.064629999999998	28.535050000000002	28.569679999999998	28.7529				16	4	1,348E-126	dRep_bin292_JIBLDOOH_01787;dRep_bin181_MKGPMPIA_00606;dRep_bin127_FIPNHBCH_00771;dRep_bin105_AAEIHAFF_01288;dRep_bin347_EKGCMFPD_01599;dRep_bin001_GHHJMDAL_00086	dRep_bin292_JIBLDOOH_01787	>dRep_bin292_JIBLDOOH_01787 Bifunctional purine biosynthesis protein PurH	dRep_bin181_MKGPMPIA_00606	CDS	purH		Bifunctional purine biosynthesis protein PurH
MKGPMPIA_00607		26.86526										5	0	1,9553E-71	dRep_bin077_DNNBMPMC_00828;dRep_bin066_AJACLPEE_00599;dRep_bin319_PBDBJGCJ_01452;dRep_bin181_MKGPMPIA_00607	dRep_bin077_DNNBMPMC_00828;dRep_bin066_AJACLPEE_00599;dRep_bin319_PBDBJGCJ_01452;dRep_bin181_MKGPMPIA_00607	>dRep_bin077_DNNBMPMC_00828 IMP cyclohydrolase-like protein;>dRep_bin066_AJACLPEE_00599 IMP cyclohydrolase-like protein;>dRep_bin319_PBDBJGCJ_01452 IMP cyclohydrolase-like protein;>dRep_bin181_MKGPMPIA_00607 IMP cyclohydrolase-like protein	dRep_bin181_MKGPMPIA_00607	CDS			IMP cyclohydrolase-like protein
MKGPMPIA_00635	27.81201	27.62178	27.502489999999998	27.902649999999998	27.641890000000004	26.87373	27.733890000000002	27.32268				4	0	9,2841E-12	dRep_bin266_JFOCEDAE_00469;dRep_bin158_OGFICEAP_02077;dRep_bin167_BLMEBMNN_01111;dRep_bin344_CJJBDGAA_01931;dRep_bin324_IPNHOHFK_00198;dRep_bin269_PNILGKPH_01184;dRep_bin297_EDHEEICA_00055;dRep_bin145_KMJJJOEJ_01157;dRep_bin107_EFNBPDOP_01472;dRep_bin310_IMBAFDIF_01195;dRep_bin300_MJPPENNL_00128;dRep_bin115_IFKGOGCL_01978;dRep_bin308_JBPDGLPP_01709;dRep_bin075_EPEMMOCL_01920;dRep_bin047_IFFANOMN_01370;dRep_bin089_PAJFOJBN_01930;dRep_bin261_FJICAFFM_00651;dRep_bin303_DDDNDJCF_01187;dRep_bin226_NLNLHLLD_00115;dRep_bin127_FIPNHBCH_00340;dRep_bin017_FGFLFOPJ_00355;dRep_bin077_DNNBMPMC_01598;dRep_bin039_IJNOFOJK_01428;dRep_bin186_HJAAFFNP_01660;dRep_bin065_DFABHCBI_00103;dRep_bin220_PILICLLL_01833;dRep_bin134_HIAPAODO_00139;dRep_bin135_HHKACLPM_00006;dRep_bin143_PFLDJMPF_00573;dRep_bin325_EIIGOGHN_00632;dRep_bin099_DNDAGJEJ_00069;dRep_bin293_MEPKGOAN_01336;dRep_bin074_EHAOMODJ_00677;dRep_bin335_JIOGNAPG_01692;dRep_bin260_HELEPKJL_01142;dRep_bin319_PBDBJGCJ_00729;dRep_bin211_LGJEFJIK_00866;dRep_bin168_HKDILBFE_00717;dRep_bin091_MAFACGAD_00274;dRep_bin248_CCDFPECI_01081;dRep_bin240_LDBBGJKG_00905;dRep_bin095_HOBNOEEF_01654;dRep_bin306_FGHMKMMP_00881;dRep_bin282_PKAAPBFP_01110;dRep_bin249_OFIIEIDJ_01129;dRep_bin347_EKGCMFPD_00530;dRep_bin284_DEHKNOBF_01449;dRep_bin001_GHHJMDAL_00488;dRep_bin181_MKGPMPIA_00635	dRep_bin266_JFOCEDAE_00469;dRep_bin158_OGFICEAP_02077;dRep_bin167_BLMEBMNN_01111;dRep_bin344_CJJBDGAA_01931;dRep_bin324_IPNHOHFK_00198;dRep_bin269_PNILGKPH_01184;dRep_bin297_EDHEEICA_00055;dRep_bin145_KMJJJOEJ_01157;dRep_bin107_EFNBPDOP_01472;dRep_bin310_IMBAFDIF_01195;dRep_bin300_MJPPENNL_00128;dRep_bin115_IFKGOGCL_01978;dRep_bin308_JBPDGLPP_01709;dRep_bin075_EPEMMOCL_01920;dRep_bin047_IFFANOMN_01370;dRep_bin089_PAJFOJBN_01930;dRep_bin261_FJICAFFM_00651;dRep_bin303_DDDNDJCF_01187;dRep_bin226_NLNLHLLD_00115;dRep_bin127_FIPNHBCH_00340;dRep_bin017_FGFLFOPJ_00355;dRep_bin077_DNNBMPMC_01598;dRep_bin039_IJNOFOJK_01428;dRep_bin186_HJAAFFNP_01660;dRep_bin065_DFABHCBI_00103;dRep_bin220_PILICLLL_01833;dRep_bin134_HIAPAODO_00139;dRep_bin135_HHKACLPM_00006	>dRep_bin266_JFOCEDAE_00469 Phosphoribosylamine--glycine ligase;>dRep_bin158_OGFICEAP_02077 Phosphoribosylamine--glycine ligase;>dRep_bin167_BLMEBMNN_01111 Phosphoribosylamine--glycine ligase;>dRep_bin344_CJJBDGAA_01931 Phosphoribosylamine--glycine ligase;	dRep_bin181_MKGPMPIA_00635	CDS	purD	6.3.4.13	Phosphoribosylamine--glycine ligase
MKGPMPIA_00661	29.895639999999997	30.7809	30.231350000000003	30.858900000000002	29.677760000000003	30.19049	29.354850000000006	29.610980000000005				14	2	9,6215E-110	dRep_bin133_NOBPDBPA_01525;dRep_bin069_EGGEOGDC_00770;dRep_bin095_HOBNOEEF_02261;dRep_bin279_IAEFEPEN_00690;dRep_bin240_LDBBGJKG_00170;dRep_bin324_IPNHOHFK_01232;dRep_bin168_HKDILBFE_01877;dRep_bin186_HJAAFFNP_00589;dRep_bin023_HGFJFKAI_01138;dRep_bin308_JBPDGLPP_00699;dRep_bin107_EFNBPDOP_00870;dRep_bin319_PBDBJGCJ_01310;dRep_bin107_EFNBPDOP_01430;dRep_bin089_PAJFOJBN_01445;dRep_bin077_DNNBMPMC_01129;dRep_bin066_AJACLPEE_00745;dRep_bin347_EKGCMFPD_00717;dRep_bin001_GHHJMDAL_01300;dRep_bin181_MKGPMPIA_00661	dRep_bin133_NOBPDBPA_01525;dRep_bin069_EGGEOGDC_00770;dRep_bin095_HOBNOEEF_02261;dRep_bin279_IAEFEPEN_00690;dRep_bin240_LDBBGJKG_00170;dRep_bin324_IPNHOHFK_01232;dRep_bin168_HKDILBFE_01877;dRep_bin186_HJAAFFNP_00589;dRep_bin023_HGFJFKAI_01138	>dRep_bin133_NOBPDBPA_01525 Aspartate-semialdehyde dehydrogenase 2;>dRep_bin069_EGGEOGDC_00770 Aspartate-semialdehyde dehydrogenase 2;>dRep_bin095_HOBNOEEF_02261 Aspartate-semialdehyde dehydrogenase 2;>dRep_bin279_IAEFEPEN_00690 Aspartate-semialdehyde dehy	dRep_bin181_MKGPMPIA_00661	CDS	asd2	1.2.1.11	Aspartate-semialdehyde dehydrogenase 2
MKGPMPIA_00676	26.71581	26.098589999999998	27.236539999999998	27.06106								2	0	9,5897E-30	dRep_bin181_MKGPMPIA_00676;dRep_bin066_AJACLPEE_00957	dRep_bin181_MKGPMPIA_00676;dRep_bin066_AJACLPEE_00957	>dRep_bin181_MKGPMPIA_00676 2,3-dimethylmalate dehydratase large subunit;>dRep_bin066_AJACLPEE_00957 2,3-dimethylmalate dehydratase large subunit	dRep_bin181_MKGPMPIA_00676	CDS	dmdA_1	4.2.1.85	2,3-dimethylmalate dehydratase large subunit
MKGPMPIA_00692	24.71869	25.84604		26.19875								5	5	2,024E-26	dRep_bin133_NOBPDBPA_01403;dRep_bin220_PILICLLL_00258;dRep_bin211_LGJEFJIK_00415;dRep_bin181_MKGPMPIA_00692;dRep_bin319_PBDBJGCJ_00260	dRep_bin133_NOBPDBPA_01403	>dRep_bin133_NOBPDBPA_01403 hypothetical protein	dRep_bin181_MKGPMPIA_00692	CDS			hypothetical protein
MKGPMPIA_00707	28.738789999999998	28.75124	29.01084	29.3506	29.64461	30.02168	29.81859	30.104370000000003				12	4	1,026E-72	dRep_bin191_NGFJMLOL_01578;dRep_bin070_EMBHKIOF_00129;dRep_bin154_JGOKHKLI_00366;dRep_bin055_IBMMJAEE_00161;dRep_bin328_GIGKNKPJ_00645;dRep_bin047_IFFANOMN_00612;dRep_bin027_OFJCHLJJ_00977;dRep_bin005_CNDFPKJG_01432;dRep_bin278_BFCONKOE_00469;dRep_bin282_PKAAPBFP_00320;dRep_bin284_DEHKNOBF_00421;dRep_bin303_DDDNDJCF_00133;dRep_bin287_DONBGKDH_00272;dRep_bin220_PILICLLL_00145;dRep_bin107_EFNBPDOP_01320;dRep_bin158_OGFICEAP_01424;dRep_bin323_FBBLPLCG_01090;dRep_bin318_IEDEJOFJ_00395;dRep_bin308_JBPDGLPP_01660;dRep_bin306_FGHMKMMP_01032;dRep_bin261_FJICAFFM_00034;dRep_bin240_LDBBGJKG_01385;dRep_bin234_ECABPBME_00209;dRep_bin181_MKGPMPIA_00707;dRep_bin077_DNNBMPMC_00629;dRep_bin066_AJACLPEE_00619;dRep_bin065_DFABHCBI_01813;dRep_bin023_HGFJFKAI_00570;dRep_bin235_EGJBMLPF_00465;dRep_bin186_HJAAFFNP_00454;dRep_bin145_KMJJJOEJ_01616;dRep_bin095_HOBNOEEF_00383	dRep_bin191_NGFJMLOL_01578;dRep_bin070_EMBHKIOF_00129	>dRep_bin191_NGFJMLOL_01578 hypothetical protein;>dRep_bin070_EMBHKIOF_00129 hypothetical protein	dRep_bin181_MKGPMPIA_00707	CDS			hypothetical protein
MKGPMPIA_00709						24.113390000000003						2	1	2,5993E-07	dRep_bin240_LDBBGJKG_01001;dRep_bin001_GHHJMDAL_01372;dRep_bin143_PFLDJMPF_00153;dRep_bin024_OLHDGABE_00846;dRep_bin181_MKGPMPIA_00709;dRep_bin077_DNNBMPMC_01859;dRep_bin005_CNDFPKJG_00656;dRep_bin150_HCDEOBMH_01568;dRep_bin135_HHKACLPM_01559;dRep_bin075_EPEMMOCL_02034;dRep_bin091_MAFACGAD_00181;dRep_bin007_LNLEAAAN_01218;dRep_bin282_PKAAPBFP_00655;dRep_bin254_GJDPFAEA_01551;dRep_bin249_OFIIEIDJ_01140;dRep_bin127_FIPNHBCH_01645;dRep_bin347_EKGCMFPD_00098;dRep_bin322_OJELOJOF_01214;dRep_bin310_IMBAFDIF_01594;dRep_bin287_DONBGKDH_00226;dRep_bin284_DEHKNOBF_00726;dRep_bin266_JFOCEDAE_00133;dRep_bin186_HJAAFFNP_01238;dRep_bin145_KMJJJOEJ_00954;dRep_bin115_IFKGOGCL_00554;dRep_bin065_DFABHCBI_01587;dRep_bin248_CCDFPECI_01609;dRep_bin095_HOBNOEEF_01791;dRep_bin160_EFKMPBOM_01116;dRep_bin154_JGOKHKLI_00150;dRep_bin081_JDPCKDNP_01583;dRep_bin336_MPGOKPOL_01589;dRep_bin306_FGHMKMMP_01590;dRep_bin056_EMNHHOJA_00230;dRep_bin309_BIOHLCGG_00694;dRep_bin302_AHDEPDKG_01234;dRep_bin257_JHFDCHCB_02163;dRep_bin147_EJLBNEBE_01266;dRep_bin124_HIHDFGCL_00964;dRep_bin194_MEPDOGGJ_01159;dRep_bin025_CBEJJMLE_01722;dRep_bin293_MEPKGOAN_00673;dRep_bin058_GJKCICJN_00893;dRep_bin074_EHAOMODJ_00750	dRep_bin240_LDBBGJKG_01001;dRep_bin001_GHHJMDAL_01372;dRep_bin143_PFLDJMPF_00153;dRep_bin024_OLHDGABE_00846;dRep_bin181_MKGPMPIA_00709;dRep_bin077_DNNBMPMC_01859;dRep_bin005_CNDFPKJG_00656;dRep_bin150_HCDEOBMH_01568;dRep_bin135_HHKACLPM_01559;dRep_bin075_EPEMMOCL_02034;dRep_bin091_MAFACGAD_00181;dRep_bin007_LNLEAAAN_01218;dRep_bin282_PKAAPBFP_00655;dRep_bin254_GJDPFAEA_01551;dRep_bin249_OFIIEIDJ_01140;dRep_bin127_FIPNHBCH_01645;dRep_bin347_EKGCMFPD_00098;dRep_bin322_OJELOJOF_01214;dRep_bin310_IMBAFDIF_01594;dRep_bin287_DONBGKDH_00226;dRep_bin284_DEHKNOBF_00726;dRep_bin266_JFOCEDAE_00133;dRep_bin186_HJAAFFNP_01238;dRep_bin145_KMJJJOEJ_00954;dRep_bin115_IFKGOGCL_00554;dRep_bin065_DFABHCBI_01587;dRep_bin248_CCDFPECI_01609;dRep_bin095_HOBNOEEF_01791;dRep_bin160_EFKMPBOM_01116;dRep_bin154_JGOKHKLI_00150;dRep_bin081_JDPCKDNP_01583;dRep_bin336_MPGOKPOL_01589;dRep_bin306_FGHMKMMP_01590;dRep_bin056_EMNHHOJA_00230;dRep_bin309_BIOHLCGG_00694;dRep_bin302_AHDEPDKG_01234;dRep_bin257_JHFDCHCB_02163;dRep_bin147_EJLBNEBE_01266;dRep_bin124_HIHDFGCL_00964;dRep_bin194_MEPDOGGJ_01159;dRep_bin025_CBEJJMLE_01722;dRep_bin293_MEPKGOAN_00673;dRep_bin058_GJKCICJN_00893;dRep_bin074_EHAOMODJ_00750	>dRep_bin240_LDBBGJKG_01001 Glutaconyl-CoA decarboxylase subunit beta;>dRep_bin001_GHHJMDAL_01372 Glutaconyl-CoA decarboxylase subunit beta;>dRep_bin143_PFLDJMPF_00153 Glutaconyl-CoA decarboxylase subunit beta;>dRep_bin024_OLHDGABE_00846 Glutaconyl-CoA dec	dRep_bin181_MKGPMPIA_00709	CDS	gcdB	4.1.1.70	Glutaconyl-CoA decarboxylase subunit beta
MKGPMPIA_00787				27.00517								6	0	1,378E-29	dRep_bin157_JPNIKEKI_00313;dRep_bin297_EDHEEICA_00070;dRep_bin139_KGAJINND_00603;dRep_bin220_PILICLLL_00054;dRep_bin181_MKGPMPIA_00787;dRep_bin181_MKGPMPIA_01430;dRep_bin091_MAFACGAD_00979;dRep_bin335_JIOGNAPG_01270;dRep_bin089_PAJFOJBN_01146;dRep_bin319_PBDBJGCJ_00825;dRep_bin306_FGHMKMMP_00269	dRep_bin157_JPNIKEKI_00313;dRep_bin297_EDHEEICA_00070;dRep_bin139_KGAJINND_00603;dRep_bin220_PILICLLL_00054;dRep_bin181_MKGPMPIA_00787	>dRep_bin157_JPNIKEKI_00313 Phosphoglucomutase;>dRep_bin297_EDHEEICA_00070 Phosphoglucomutase;>dRep_bin139_KGAJINND_00603 Phosphoglucomutase;>dRep_bin220_PILICLLL_00054 Phosphoglucomutase;>dRep_bin181_MKGPMPIA_00787 Phosphoglucomutase	dRep_bin181_MKGPMPIA_00787	CDS	pgcA_1	5.4.2.2	Phosphoglucomutase
MKGPMPIA_00803		26.54225										5	1	4,0367E-17	dRep_bin107_EFNBPDOP_00842;dRep_bin248_CCDFPECI_00359;dRep_bin297_EDHEEICA_01390;dRep_bin134_HIAPAODO_00250;dRep_bin209_NKIHFCEN_01919;dRep_bin026_HNPIIINL_01416;dRep_bin193_GDMDPNNM_00355;dRep_bin181_MKGPMPIA_00803;dRep_bin180_JMFOHHIL_00102;dRep_bin262_LLCGOPIE_00545;dRep_bin154_JGOKHKLI_01246	dRep_bin107_EFNBPDOP_00842;dRep_bin248_CCDFPECI_00359	>dRep_bin107_EFNBPDOP_00842 Rubrerythrin;>dRep_bin248_CCDFPECI_00359 Rubrerythrin-1	dRep_bin181_MKGPMPIA_00803	CDS	gltA_2	1.4.1.13	Glutamate synthase [NADPH] large chain
MKGPMPIA_00811			20.188699999999997									2	0	0,013699	dRep_bin284_DEHKNOBF_01566;dRep_bin335_JIOGNAPG_01357;dRep_bin186_HJAAFFNP_01603;dRep_bin347_EKGCMFPD_00174;dRep_bin325_EIIGOGHN_00933;dRep_bin226_NLNLHLLD_01138;dRep_bin211_LGJEFJIK_01575;dRep_bin168_HKDILBFE_00526;dRep_bin157_JPNIKEKI_01583;dRep_bin133_NOBPDBPA_02120;dRep_bin099_DNDAGJEJ_00490;dRep_bin023_HGFJFKAI_00001;dRep_bin181_MKGPMPIA_00811;dRep_bin344_CJJBDGAA_00826;dRep_bin154_JGOKHKLI_00807;dRep_bin209_NKIHFCEN_01867;dRep_bin160_EFKMPBOM_01681;dRep_bin324_IPNHOHFK_00236	dRep_bin284_DEHKNOBF_01566;dRep_bin335_JIOGNAPG_01357;dRep_bin186_HJAAFFNP_01603;dRep_bin347_EKGCMFPD_00174;dRep_bin325_EIIGOGHN_00933;dRep_bin226_NLNLHLLD_01138;dRep_bin211_LGJEFJIK_01575;dRep_bin168_HKDILBFE_00526;dRep_bin157_JPNIKEKI_01583;dRep_bin133_NOBPDBPA_02120;dRep_bin099_DNDAGJEJ_00490;dRep_bin023_HGFJFKAI_00001;dRep_bin181_MKGPMPIA_00811;dRep_bin344_CJJBDGAA_00826;dRep_bin154_JGOKHKLI_00807;dRep_bin209_NKIHFCEN_01867;dRep_bin160_EFKMPBOM_01681;dRep_bin324_IPNHOHFK_00236	>dRep_bin284_DEHKNOBF_01566 L-methionine gamma-lyase;>dRep_bin335_JIOGNAPG_01357 L-methionine gamma-lyase;>dRep_bin186_HJAAFFNP_01603 L-methionine gamma-lyase;>dRep_bin347_EKGCMFPD_00174 L-methionine gamma-lyase;>dRep_bin325_EIIGOGHN_00933 L-methionine gam	dRep_bin181_MKGPMPIA_00811	CDS	mgl_1	4.4.1.11	L-methionine gamma-lyase
MKGPMPIA_00854	24.66655	25.382279999999998	25.017380000000003	24.617850000000008								2	2	2,4611E-07	dRep_bin336_MPGOKPOL_01888;dRep_bin094_LBLICAAO_00044;dRep_bin352_KFNHGNFC_00332;dRep_bin181_MKGPMPIA_00854;dRep_bin077_DNNBMPMC_00429;dRep_bin293_MEPKGOAN_01829;dRep_bin211_LGJEFJIK_01085	dRep_bin336_MPGOKPOL_01888;dRep_bin094_LBLICAAO_00044;dRep_bin352_KFNHGNFC_00332;dRep_bin181_MKGPMPIA_00854;dRep_bin077_DNNBMPMC_00429;dRep_bin293_MEPKGOAN_01829;dRep_bin211_LGJEFJIK_01085	>dRep_bin336_MPGOKPOL_01888 Peptidyl-prolyl cis-trans isomerase B;>dRep_bin094_LBLICAAO_00044 Peptidyl-prolyl cis-trans isomerase B;>dRep_bin352_KFNHGNFC_00332 Peptidyl-prolyl cis-trans isomerase A;>dRep_bin181_MKGPMPIA_00854 putative peptidyl-prolyl cis-t	dRep_bin181_MKGPMPIA_00854	CDS	ppiB_2	5.2.1.8	putative peptidyl-prolyl cis-trans isomerase
MKGPMPIA_00925	28.04791	27.563329999999997	26.537980000000005									8	2	2,8305E-58	dRep_bin181_MKGPMPIA_00925	dRep_bin181_MKGPMPIA_00925	>dRep_bin181_MKGPMPIA_00925 Transaldolase	dRep_bin181_MKGPMPIA_00925	CDS	tal	2.2.1.2	Transaldolase
MKGPMPIA_00935	28.515970000000003	28.41671	28.426019999999998	27.148609999999998	27.67526	27.92065	28.272	28.173460000000002				15	9	4,9493E-79	dRep_bin225_FLBKEJIP_01173;dRep_bin251_FGNGCJDD_01070;dRep_bin237_KJDLIPND_01290;dRep_bin206_OIIBOIAK_00625;dRep_bin172_ALNHGLMD_00009;dRep_bin031_BNHMFOII_01700;dRep_bin181_MKGPMPIA_00935;dRep_bin089_PAJFOJBN_02615;dRep_bin027_OFJCHLJJ_01041;dRep_bin308_JBPDGLPP_00001;dRep_bin220_PILICLLL_01148;dRep_bin062_BOFBFLDA_00453	dRep_bin225_FLBKEJIP_01173	>dRep_bin225_FLBKEJIP_01173 GMP synthase [glutamine-hydrolyzing]	dRep_bin181_MKGPMPIA_00935	CDS	guaA	6.3.5.2	GMP synthase [glutamine-hydrolyzing]
MKGPMPIA_01099	21.90683	23.317410000000002	22.40958	22.11044								5	2	5,6504E-18	dRep_bin066_AJACLPEE_00786;dRep_bin181_MKGPMPIA_01099;dRep_bin254_GJDPFAEA_02005;dRep_bin124_HIHDFGCL_00558;dRep_bin032_PPNIGLME_00835;dRep_bin194_MEPDOGGJ_00849;dRep_bin104_EGLEJOLM_00185;dRep_bin079_GAOGCKND_00647;dRep_bin025_CBEJJMLE_01029;dRep_bin152_LJMCIADF_00832;dRep_bin038_EIGFILKG_00145;dRep_bin301_NJFJIJGA_01481;dRep_bin149_GABCHCDI_00803;dRep_bin296_FDMPKPOH_01579;dRep_bin128_JPBBHEMA_01047;dRep_bin018_ILOONPIC_00800	dRep_bin066_AJACLPEE_00786;dRep_bin181_MKGPMPIA_01099	>dRep_bin066_AJACLPEE_00786 Flavo-diiron protein FprA1;>dRep_bin181_MKGPMPIA_01099 Flavo-diiron protein FprA1	dRep_bin181_MKGPMPIA_01099	CDS	fprA1	1.6.3.4	Flavo-diiron protein FprA1
MKGPMPIA_01164	23.339190000000002			25.50018	26.857210000000002	25.17154	25.03069	24.31576				4	4	2,4798E-16	dRep_bin201_OLKDIBOK_00002;dRep_bin260_HELEPKJL_01692;dRep_bin194_MEPDOGGJ_00071;dRep_bin124_HIHDFGCL_00655;dRep_bin025_CBEJJMLE_00037;dRep_bin181_MKGPMPIA_01164;dRep_bin127_FIPNHBCH_01402;dRep_bin056_EMNHHOJA_01420;dRep_bin026_HNPIIINL_00980;dRep_bin253_CPMOAOBJ_00446;dRep_bin248_CCDFPECI_00832;dRep_bin016_JLGAHGOJ_01875	dRep_bin201_OLKDIBOK_00002;dRep_bin260_HELEPKJL_01692	>dRep_bin201_OLKDIBOK_00002 Intracellular exo-alpha-(1->5)-L-arabinofuranosidase;>dRep_bin260_HELEPKJL_01692 Intracellular exo-alpha-(1->5)-L-arabinofuranosidase	dRep_bin181_MKGPMPIA_01164	CDS	abfA	3.2.1.55	Intracellular exo-alpha-(1->5)-L-arabinofuranosidase
MKGPMPIA_01169		26.237920000000003		27.30226	27.379890000000003		26.413050000000002	26.67074				7	1	3,1565E-26	dRep_bin344_CJJBDGAA_00829;dRep_bin306_FGHMKMMP_00969;dRep_bin181_MKGPMPIA_01169;dRep_bin096_GNHMEKPF_00515;dRep_bin158_OGFICEAP_01179;dRep_bin082_HBEFABJN_00295;dRep_bin066_AJACLPEE_01023;dRep_bin332_KAOPCDPF_01131;dRep_bin062_BOFBFLDA_00829;dRep_bin017_FGFLFOPJ_00885;dRep_bin330_CODAKHDJ_00034;dRep_bin057_BNCFHBBO_01322;dRep_bin005_CNDFPKJG_01715	dRep_bin344_CJJBDGAA_00829	>dRep_bin344_CJJBDGAA_00829 Phosphoribosylaminoimidazole-succinocarboxamide synthase	dRep_bin181_MKGPMPIA_01169	CDS	purC	6.3.2.6	Phosphoribosylaminoimidazole-succinocarboxamide synthase
MKGPMPIA_01194				24.354940000000003								9	1	3,7383E-82	dRep_bin133_NOBPDBPA_02407;dRep_bin319_PBDBJGCJ_01738;dRep_bin066_AJACLPEE_00162;dRep_bin077_DNNBMPMC_01718;dRep_bin181_MKGPMPIA_01194;dRep_bin260_HELEPKJL_01076;dRep_bin107_EFNBPDOP_00499;dRep_bin240_LDBBGJKG_00163;dRep_bin328_GIGKNKPJ_00321;dRep_bin347_EKGCMFPD_00479;dRep_bin088_DNGPPFDK_00287;dRep_bin135_HHKACLPM_00514;dRep_bin145_KMJJJOEJ_01002;dRep_bin335_JIOGNAPG_00895;dRep_bin234_ECABPBME_01768;dRep_bin134_HIAPAODO_01302;dRep_bin261_FJICAFFM_00778;dRep_bin019_MOJEPLJF_00883;dRep_bin166_DFIAJFEC_01066;dRep_bin105_AAEIHAFF_00721;dRep_bin142_NDNPJBEM_00168;dRep_bin169_PNICKJKO_01185;dRep_bin007_LNLEAAAN_00243;dRep_bin325_EIIGOGHN_01426;dRep_bin027_OFJCHLJJ_00581;dRep_bin333_EFOKIBLA_00453;dRep_bin049_MNFBDPNO_01275;dRep_bin293_MEPKGOAN_01477;dRep_bin148_NAJFKJMD_01296;dRep_bin008_MNDMJLEI_00823;dRep_bin270_GEJAHNCN_00044;dRep_bin031_BNHMFOII_00682;dRep_bin006_HPJGJCAG_00004;dRep_bin048_PABMBHAL_00541;dRep_bin143_PFLDJMPF_00665	dRep_bin133_NOBPDBPA_02407;dRep_bin319_PBDBJGCJ_01738;dRep_bin066_AJACLPEE_00162;dRep_bin077_DNNBMPMC_01718	>dRep_bin133_NOBPDBPA_02407 Dihydroxy-acid dehydratase;>dRep_bin319_PBDBJGCJ_01738 Dihydroxy-acid dehydratase;>dRep_bin066_AJACLPEE_00162 Dihydroxy-acid dehydratase;>dRep_bin077_DNNBMPMC_01718 Dihydroxy-acid dehydratase	dRep_bin181_MKGPMPIA_01194	CDS	ilvD	4.2.1.9	Dihydroxy-acid dehydratase
MKGPMPIA_01212	24.716910000000002	26.35938	25.17649	24.24692								5	4	7,8497E-11	dRep_bin142_NDNPJBEM_00033;dRep_bin169_PNICKJKO_01257;dRep_bin181_MKGPMPIA_01212;dRep_bin107_EFNBPDOP_00239;dRep_bin057_BNCFHBBO_01665;dRep_bin006_HPJGJCAG_01025;dRep_bin282_PKAAPBFP_00196;dRep_bin024_OLHDGABE_00323;dRep_bin319_PBDBJGCJ_01632;dRep_bin066_AJACLPEE_00486;dRep_bin348_LCLFDNEE_00860;dRep_bin305_FCIEFIHE_00692;dRep_bin288_KOIAAABN_00146;dRep_bin263_OLEFOGIJ_00764;dRep_bin145_KMJJJOEJ_00876;dRep_bin072_JOBJPCGA_01565;dRep_bin049_MNFBDPNO_00313;dRep_bin043_KLAFNACO_00754;dRep_bin345_GLPJDLOI_00081;dRep_bin250_NMCAMJIO_01517;dRep_bin089_PAJFOJBN_01491;dRep_bin332_KAOPCDPF_01005	dRep_bin142_NDNPJBEM_00033	>dRep_bin142_NDNPJBEM_00033 Ornithine carbamoyltransferase	dRep_bin181_MKGPMPIA_01212	CDS	argF	2.1.3.3	Ornithine carbamoyltransferase
MKGPMPIA_01250							25.107050000000005					2	1	4,7779E-07	dRep_bin209_NKIHFCEN_01755;dRep_bin046_GKEJLOEK_00638;dRep_bin049_MNFBDPNO_01178;dRep_bin319_PBDBJGCJ_00020;dRep_bin189_AHHEHGDL_00316;dRep_bin181_MKGPMPIA_01250;dRep_bin134_HIAPAODO_00748;dRep_bin205_LKIOOBKC_00188	dRep_bin209_NKIHFCEN_01755;dRep_bin046_GKEJLOEK_00638;dRep_bin049_MNFBDPNO_01178;dRep_bin319_PBDBJGCJ_00020;dRep_bin189_AHHEHGDL_00316;dRep_bin181_MKGPMPIA_01250;dRep_bin134_HIAPAODO_00748;dRep_bin205_LKIOOBKC_00188	>dRep_bin209_NKIHFCEN_01755 2-dehydro-3-deoxygluconokinase;>dRep_bin046_GKEJLOEK_00638 2-dehydro-3-deoxygluconokinase;>dRep_bin049_MNFBDPNO_01178 2-dehydro-3-deoxygluconokinase;>dRep_bin319_PBDBJGCJ_00020 2-dehydro-3-deoxygluconokinase;>dRep_bin189_AHHEHGD	dRep_bin181_MKGPMPIA_01250	CDS	kdgK	2.7.1.45	2-dehydro-3-deoxygluconokinase
MKGPMPIA_01251		25.482409999999994		24.541150000000002								3	2	7,918E-07	dRep_bin181_MKGPMPIA_01251;dRep_bin107_EFNBPDOP_00554;dRep_bin077_DNNBMPMC_01941	dRep_bin181_MKGPMPIA_01251;dRep_bin107_EFNBPDOP_00554;dRep_bin077_DNNBMPMC_01941	>dRep_bin181_MKGPMPIA_01251 Putative KHG/KDPG aldolase;>dRep_bin107_EFNBPDOP_00554 Putative KHG/KDPG aldolase;>dRep_bin077_DNNBMPMC_01941 Putative KHG/KDPG aldolase	dRep_bin181_MKGPMPIA_01251	CDS	eda		Putative KHG/KDPG aldolase
MKGPMPIA_01260	27.8521	27.465829999999997	28.031810000000004	28.17331	27.713850000000004	26.465889999999998	27.25296	27.80538				10	3	2,5464E-57	dRep_bin181_MKGPMPIA_01260;dRep_bin077_DNNBMPMC_01388;dRep_bin352_KFNHGNFC_00242;dRep_bin335_JIOGNAPG_00211	dRep_bin181_MKGPMPIA_01260;dRep_bin077_DNNBMPMC_01388	>dRep_bin181_MKGPMPIA_01260 Xylulose-5-phosphate phosphoketolase;>dRep_bin077_DNNBMPMC_01388 Xylulose-5-phosphate phosphoketolase	dRep_bin181_MKGPMPIA_01260	CDS	xpkA	4.1.2.9	Xylulose-5-phosphate phosphoketolase
MKGPMPIA_01282	25.4776	27.560119999999998	25.45315	25.21568								4	1	3,9059E-15	dRep_bin181_MKGPMPIA_01282;dRep_bin319_PBDBJGCJ_01465	dRep_bin181_MKGPMPIA_01282;dRep_bin319_PBDBJGCJ_01465	>dRep_bin181_MKGPMPIA_01282 Succinyl-CoA:coenzyme A transferase;>dRep_bin319_PBDBJGCJ_01465 Succinyl-CoA:coenzyme A transferase	dRep_bin181_MKGPMPIA_01282	CDS	cat1	2.8.3.-	Succinyl-CoA:coenzyme A transferase
MKGPMPIA_01292	29.13514	29.654700000000002	29.354980000000005	29.397650000000002	29.328689999999998	27.702789999999997	27.965429999999994	28.588389999999997				23	7	1,4009E-178	dRep_bin319_PBDBJGCJ_01262;dRep_bin181_MKGPMPIA_01292	dRep_bin319_PBDBJGCJ_01262	>dRep_bin319_PBDBJGCJ_01262 NADP-specific glutamate dehydrogenase	dRep_bin181_MKGPMPIA_01292	CDS	gdh	1.4.1.4	NADP-specific glutamate dehydrogenase
MKGPMPIA_01332			23.262129999999996									1	1	1,124E-05	dRep_bin325_EIIGOGHN_00455;dRep_bin287_DONBGKDH_01891;dRep_bin260_HELEPKJL_00793;dRep_bin095_HOBNOEEF_02183;dRep_bin023_HGFJFKAI_00898;dRep_bin226_NLNLHLLD_01485;dRep_bin041_OPKGAAAG_02051;dRep_bin062_BOFBFLDA_01385;dRep_bin181_MKGPMPIA_01332;dRep_bin269_PNILGKPH_01447;dRep_bin282_PKAAPBFP_01100;dRep_bin261_FJICAFFM_01242;dRep_bin203_CLFNNOCF_00622;dRep_bin234_ECABPBME_01964;dRep_bin007_LNLEAAAN_01741;dRep_bin335_JIOGNAPG_00799;dRep_bin309_BIOHLCGG_01161;dRep_bin160_EFKMPBOM_00129;dRep_bin154_JGOKHKLI_00545;dRep_bin133_NOBPDBPA_03678;dRep_bin089_PAJFOJBN_00292;dRep_bin019_MOJEPLJF_01283;dRep_bin134_HIAPAODO_00643;dRep_bin024_OLHDGABE_01143;dRep_bin005_CNDFPKJG_01361;dRep_bin209_NKIHFCEN_00699;dRep_bin179_HFEIPPPA_01887;dRep_bin157_JPNIKEKI_01833;dRep_bin107_EFNBPDOP_00671;dRep_bin077_DNNBMPMC_00160;dRep_bin039_IJNOFOJK_00262;dRep_bin016_JLGAHGOJ_00401;dRep_bin344_CJJBDGAA_00564;dRep_bin324_IPNHOHFK_02103;dRep_bin249_OFIIEIDJ_01493;dRep_bin139_KGAJINND_00448;dRep_bin081_JDPCKDNP_01186;dRep_bin319_PBDBJGCJ_01293;dRep_bin279_IAEFEPEN_01252;dRep_bin220_PILICLLL_00969;dRep_bin201_OLKDIBOK_00798;dRep_bin293_MEPKGOAN_01317;dRep_bin292_JIBLDOOH_01431;dRep_bin027_OFJCHLJJ_01511;dRep_bin347_EKGCMFPD_00408;dRep_bin211_LGJEFJIK_00568	dRep_bin325_EIIGOGHN_00455;dRep_bin287_DONBGKDH_01891;dRep_bin260_HELEPKJL_00793;dRep_bin095_HOBNOEEF_02183;dRep_bin023_HGFJFKAI_00898;dRep_bin226_NLNLHLLD_01485;dRep_bin041_OPKGAAAG_02051;dRep_bin062_BOFBFLDA_01385;dRep_bin181_MKGPMPIA_01332;dRep_bin269_PNILGKPH_01447;dRep_bin282_PKAAPBFP_01100;dRep_bin261_FJICAFFM_01242;dRep_bin203_CLFNNOCF_00622;dRep_bin234_ECABPBME_01964;dRep_bin007_LNLEAAAN_01741;dRep_bin335_JIOGNAPG_00799;dRep_bin309_BIOHLCGG_01161;dRep_bin160_EFKMPBOM_00129;dRep_bin154_JGOKHKLI_00545;dRep_bin133_NOBPDBPA_03678;dRep_bin089_PAJFOJBN_00292;dRep_bin019_MOJEPLJF_01283;dRep_bin134_HIAPAODO_00643;dRep_bin024_OLHDGABE_01143;dRep_bin005_CNDFPKJG_01361;dRep_bin209_NKIHFCEN_00699;dRep_bin179_HFEIPPPA_01887;dRep_bin157_JPNIKEKI_01833;dRep_bin107_EFNBPDOP_00671;dRep_bin077_DNNBMPMC_00160;dRep_bin039_IJNOFOJK_00262;dRep_bin016_JLGAHGOJ_00401;dRep_bin344_CJJBDGAA_00564;dRep_bin324_IPNHOHFK_02103;dRep_bin249_OFIIEIDJ_01493;dRep_bin139_KGAJINND_00448;dRep_bin081_JDPCKDNP_01186;dRep_bin319_PBDBJGCJ_01293;dRep_bin279_IAEFEPEN_01252;dRep_bin220_PILICLLL_00969;dRep_bin201_OLKDIBOK_00798;dRep_bin293_MEPKGOAN_01317;dRep_bin292_JIBLDOOH_01431;dRep_bin027_OFJCHLJJ_01511;dRep_bin347_EKGCMFPD_00408;dRep_bin211_LGJEFJIK_00568	>dRep_bin325_EIIGOGHN_00455 Valine--tRNA ligase;>dRep_bin287_DONBGKDH_01891 Valine--tRNA ligase;>dRep_bin260_HELEPKJL_00793 Valine--tRNA ligase;>dRep_bin095_HOBNOEEF_02183 Valine--tRNA ligase;>dRep_bin023_HGFJFKAI_00898 Valine--tRNA ligase;>dRep_bin226_NLN	dRep_bin181_MKGPMPIA_01332	CDS	valS	6.1.1.9	Valine--tRNA ligase
MKGPMPIA_01340								21.504800000000003				5	1	3,9803E-89	dRep_bin260_HELEPKJL_01435;dRep_bin135_HHKACLPM_00878;dRep_bin279_IAEFEPEN_00125;dRep_bin139_KGAJINND_00653;dRep_bin047_IFFANOMN_00833;dRep_bin220_PILICLLL_01353;dRep_bin062_BOFBFLDA_00870;dRep_bin027_OFJCHLJJ_01114;dRep_bin145_KMJJJOEJ_00674;dRep_bin300_MJPPENNL_01153;dRep_bin282_PKAAPBFP_00002;dRep_bin091_MAFACGAD_00478;dRep_bin116_CLFDBMOF_00810;dRep_bin347_EKGCMFPD_00673;dRep_bin322_OJELOJOF_01660;dRep_bin335_JIOGNAPG_01578;dRep_bin201_OLKDIBOK_02525;dRep_bin160_EFKMPBOM_02349;dRep_bin077_DNNBMPMC_01926;dRep_bin246_MMFBABHK_00869;dRep_bin219_HGPEELLF_00755;dRep_bin174_LJJOKEME_01393;dRep_bin312_MJFEFHMP_00102;dRep_bin129_GADIAMAA_01507;dRep_bin030_OGPDLGOC_00490;dRep_bin004_OCHNPJPO_00897;dRep_bin061_ONFGDLGO_00219;dRep_bin264_DNFFGNEG_00399;dRep_bin153_JGABJFBF_00375;dRep_bin244_LBFMHLBI_00924;dRep_bin204_INMOGLDN_00439;dRep_bin050_FBECOHCI_00117;dRep_bin202_HEPPALPH_01023;dRep_bin223_PIMCDKJI_00571;dRep_bin233_BAGKKAOB_00161;dRep_bin336_MPGOKPOL_01196;dRep_bin333_EFOKIBLA_00139;dRep_bin303_DDDNDJCF_00008;dRep_bin095_HOBNOEEF_01151;dRep_bin249_OFIIEIDJ_00631;dRep_bin007_LNLEAAAN_00381;dRep_bin328_GIGKNKPJ_00383;dRep_bin081_JDPCKDNP_00006;dRep_bin078_GKFCBAEI_00579;dRep_bin325_EIIGOGHN_00717;dRep_bin319_PBDBJGCJ_01544;dRep_bin306_FGHMKMMP_01785;dRep_bin181_MKGPMPIA_01340;dRep_bin127_FIPNHBCH_01090;dRep_bin066_AJACLPEE_01002;dRep_bin024_OLHDGABE_01294;dRep_bin220_PILICLLL_00488;dRep_bin078_GKFCBAEI_00372;dRep_bin006_HPJGJCAG_01324;dRep_bin142_NDNPJBEM_00465;dRep_bin350_EKOOEEGH_00689;dRep_bin228_CECEDMJG_00916;dRep_bin218_ACMPALGF_00396;dRep_bin164_KHMELCCL_00939;dRep_bin173_BEBNCADL_00342;dRep_bin058_GJKCICJN_00554;dRep_bin268_LKMHIMLG_00442;dRep_bin237_KJDLIPND_00262;dRep_bin251_FGNGCJDD_00443;dRep_bin192_GCMBELNN_00009	dRep_bin260_HELEPKJL_01435;dRep_bin135_HHKACLPM_00878;dRep_bin279_IAEFEPEN_00125;dRep_bin139_KGAJINND_00653;dRep_bin047_IFFANOMN_00833	>dRep_bin260_HELEPKJL_01435 Trehalose import ATP-binding protein SugC;>dRep_bin135_HHKACLPM_00878 Trehalose import ATP-binding protein SugC;>dRep_bin279_IAEFEPEN_00125 Trehalose import ATP-binding protein SugC;>dRep_bin139_KGAJINND_00653 Trehalose import A	dRep_bin181_MKGPMPIA_01340	CDS	sugC	3.6.3.-	Trehalose import ATP-binding protein SugC
MKGPMPIA_01481	29.37921	29.89656	29.27238	29.757830000000002	29.11379	31.56384	28.95757	29.36518				15	4	0	dRep_bin113_LIFKCGBF_00492;dRep_bin181_MKGPMPIA_01481	dRep_bin113_LIFKCGBF_00492	>dRep_bin113_LIFKCGBF_00492 Triosephosphate isomerase	dRep_bin181_MKGPMPIA_01481	CDS	tpiA	5.3.1.1	Triosephosphate isomerase
MKGPMPIA_01482	25.317310000000003	27.37269	26.427229999999998	25.907629999999997								12	0	1,9914E-149	dRep_bin181_MKGPMPIA_01482	dRep_bin181_MKGPMPIA_01482	>dRep_bin181_MKGPMPIA_01482 Phosphoglycerate kinase	dRep_bin181_MKGPMPIA_01482	CDS	pgk	2.7.2.3	Phosphoglycerate kinase
MKGPMPIA_01483	23.47902		24.51833	23.035619999999998								5	1	3,9064E-27	dRep_bin181_MKGPMPIA_01483	dRep_bin181_MKGPMPIA_01483	>dRep_bin181_MKGPMPIA_01483 Glyceraldehyde-3-phosphate dehydrogenase	dRep_bin181_MKGPMPIA_01483	CDS	gap	1.2.1.12	Glyceraldehyde-3-phosphate dehydrogenase
MKGPMPIA_01503				23.544629999999998								6	0	5,3172E-30	dRep_bin181_MKGPMPIA_01503;dRep_bin277_MIPNGEJE_00465;dRep_bin107_EFNBPDOP_00562;dRep_bin145_KMJJJOEJ_01674	dRep_bin181_MKGPMPIA_01503	>dRep_bin181_MKGPMPIA_01503 Fructose-bisphosphate aldolase	dRep_bin181_MKGPMPIA_01503	CDS	fba	4.1.2.13	Fructose-bisphosphate aldolase
MKGPMPIA_01546	27.7991	28.88107	27.45505	28.298629999999996								13	11	6,3934E-45	dRep_bin133_NOBPDBPA_00635;dRep_bin154_JGOKHKLI_01352;dRep_bin107_EFNBPDOP_01439;dRep_bin025_CBEJJMLE_00662;dRep_bin152_LJMCIADF_00488;dRep_bin072_JOBJPCGA_00703;dRep_bin068_ENOLAELK_00753;dRep_bin038_EIGFILKG_00354;dRep_bin079_GAOGCKND_00806;dRep_bin147_EJLBNEBE_00451;dRep_bin186_HJAAFFNP_01970;dRep_bin335_JIOGNAPG_01822;dRep_bin139_KGAJINND_01102;dRep_bin181_MKGPMPIA_01546;dRep_bin160_EFKMPBOM_00850;dRep_bin154_JGOKHKLI_00417;dRep_bin254_GJDPFAEA_00196;dRep_bin209_NKIHFCEN_01106;dRep_bin324_IPNHOHFK_01105	dRep_bin133_NOBPDBPA_00635	>dRep_bin133_NOBPDBPA_00635 Intracellular exo-alpha-L-arabinofuranosidase 2	dRep_bin181_MKGPMPIA_01546	CDS	abf2	3.2.1.55	Intracellular exo-alpha-L-arabinofuranosidase 2
