GBprotID	LFQ intensity CtrPig1	LFQ intensity CtrPig2	LFQ intensity CtrPig3	LFQ intensity CtrPig4	LFQ intensity MannanPig1	LFQ intensity MannanPig2	LFQ intensity MannanPig3	LFQ intensity MannanPig4	Only identified by site	Reverse	Contaminant	Peptides	Unique peptides	PEP	Protein IDs	Majority protein IDs	Fasta headers	IDcomb	ftype	gene	EC_number	product
MOGDLGIN_00069								25.00166				1	1	0,00079255	dRep_bin190_MOGDLGIN_00069	dRep_bin190_MOGDLGIN_00069	>dRep_bin190_MOGDLGIN_00069 putative glycosyltransferase EpsJ	dRep_bin190_MOGDLGIN_00069	CDS	epsJ_1	2.4.-.-	putative glycosyltransferase EpsJ
MOGDLGIN_00106	26.408369999999998											2	2	0,00089401	dRep_bin190_MOGDLGIN_00106;dRep_bin114_FJHJKHGL_00678;dRep_bin247_EKGBJCBM_00908	dRep_bin190_MOGDLGIN_00106;dRep_bin114_FJHJKHGL_00678;dRep_bin247_EKGBJCBM_00908	>dRep_bin190_MOGDLGIN_00106 Ornithine carbamoyltransferase, catabolic;>dRep_bin114_FJHJKHGL_00678 Ornithine carbamoyltransferase;>dRep_bin247_EKGBJCBM_00908 Ornithine carbamoyltransferase	dRep_bin190_MOGDLGIN_00106	CDS	arcB	2.1.3.3	Ornithine carbamoyltransferase, catabolic
MOGDLGIN_00302					20.66084	20.19075						6	1	4,1576E-39	dRep_bin346_JKFDGFHC_00049;dRep_bin271_NGFBCHKH_01432;dRep_bin170_LICLFCFF_00076;dRep_bin113_LIFKCGBF_00665;dRep_bin036_DOKCEIDH_00273;dRep_bin034_MEBMFDLL_01305;dRep_bin285_IPHKFJAN_00808;dRep_bin298_EIPJCOMF_01620;dRep_bin289_KALDCNNP_01320;dRep_bin196_BIELHBNH_01057;dRep_bin138_EJGHNBMI_00590;dRep_bin064_CMDDCDKG_01375;dRep_bin183_FPGIOKBG_00615;dRep_bin073_AKBCEHHO_01469;dRep_bin323_FBBLPLCG_01598;dRep_bin101_BNDDLDCL_00033;dRep_bin049_MNFBDPNO_00783;dRep_bin087_FCLGAPPI_00381;dRep_bin281_OGHLKMAI_01074;dRep_bin210_AGEDAEIA_01693;dRep_bin118_FGIOKLBC_01781;dRep_bin022_BOEAFNDE_01420;dRep_bin131_HLFNHDGI_01253;dRep_bin002_CFBNDKDN_00034;dRep_bin014_CHIHIMAN_01271;dRep_bin329_GDOHKPBL_01515;dRep_bin314_KCHFPLIP_00795;dRep_bin307_AOCKHIKF_00407;dRep_bin098_DDEBHDKK_01315;dRep_bin306_FGHMKMMP_00477;dRep_bin153_JGABJFBF_01420;dRep_bin172_ALNHGLMD_01785;dRep_bin286_OEMIJKMC_01076;dRep_bin182_EMCFODCD_00063;dRep_bin126_PPDNCIBN_00262;dRep_bin044_IPFKHAEF_00185;dRep_bin283_NLJJFFAC_01756;dRep_bin203_CLFNNOCF_01930;dRep_bin179_HFEIPPPA_00361;dRep_bin218_ACMPALGF_01344;dRep_bin144_NPHACCKF_00223;dRep_bin094_LBLICAAO_00940;dRep_bin032_PPNIGLME_01008;dRep_bin027_OFJCHLJJ_00625;dRep_bin096_GNHMEKPF_00088;dRep_bin257_JHFDCHCB_01408;dRep_bin190_MOGDLGIN_00302;dRep_bin114_FJHJKHGL_00840;dRep_bin055_IBMMJAEE_00170;dRep_bin048_PABMBHAL_01509;dRep_bin318_IEDEJOFJ_00726;dRep_bin264_DNFFGNEG_00422;dRep_bin244_LBFMHLBI_01058;dRep_bin223_PIMCDKJI_01107;dRep_bin202_HEPPALPH_00196;dRep_bin242_LKAIBGGJ_00303;dRep_bin204_INMOGLDN_01542;dRep_bin174_LJJOKEME_00810;dRep_bin080_CBEBHNNK_00066;dRep_bin312_MJFEFHMP_00588;dRep_bin246_MMFBABHK_00194;dRep_bin116_CLFDBMOF_00457;dRep_bin061_ONFGDLGO_01437;dRep_bin030_OGPDLGOC_00261;dRep_bin004_OCHNPJPO_01274;dRep_bin251_FGNGCJDD_00242;dRep_bin219_HGPEELLF_01206;dRep_bin129_GADIAMAA_00806;dRep_bin076_GLAOFBEC_00429;dRep_bin188_EJILNMPE_01055;dRep_bin252_NDAKLAGD_01289;dRep_bin352_KFNHGNFC_00642;dRep_bin206_OIIBOIAK_00292;dRep_bin078_GKFCBAEI_00119;dRep_bin301_NJFJIJGA_00585;dRep_bin275_NIDIBBDA_00034;dRep_bin040_EIFLLDOA_01203;dRep_bin028_GKEJLBAM_00163;dRep_bin149_GABCHCDI_00012;dRep_bin093_PGADNPMG_00427;dRep_bin345_GLPJDLOI_00001;dRep_bin296_FDMPKPOH_01296;dRep_bin316_FNLHDNEO_00355;dRep_bin256_KEMNAOBC_01607;dRep_bin071_JHMCIJPE_01347;dRep_bin128_JPBBHEMA_00687;dRep_bin165_HMDFFMMM_01254;dRep_bin351_CKFFBPHM_01191;dRep_bin092_OOJCPDEA_01149	dRep_bin346_JKFDGFHC_00049;dRep_bin271_NGFBCHKH_01432;dRep_bin170_LICLFCFF_00076;dRep_bin113_LIFKCGBF_00665;dRep_bin036_DOKCEIDH_00273;dRep_bin034_MEBMFDLL_01305;dRep_bin285_IPHKFJAN_00808;dRep_bin298_EIPJCOMF_01620;dRep_bin289_KALDCNNP_01320;dRep_bin196_BIELHBNH_01057;dRep_bin138_EJGHNBMI_00590;dRep_bin064_CMDDCDKG_01375;dRep_bin183_FPGIOKBG_00615;dRep_bin073_AKBCEHHO_01469	>dRep_bin346_JKFDGFHC_00049 ATP synthase subunit beta, sodium ion specific;>dRep_bin271_NGFBCHKH_01432 ATP synthase subunit beta;>dRep_bin170_LICLFCFF_00076 ATP synthase subunit beta, sodium ion specific;>dRep_bin113_LIFKCGBF_00665 ATP synthase subunit bet	dRep_bin190_MOGDLGIN_00302	CDS	atpD_2	3.6.3.15	ATP synthase subunit beta, sodium ion specific
MOGDLGIN_00433						27.41006						4	4	6,1247E-18	dRep_bin190_MOGDLGIN_00433	dRep_bin190_MOGDLGIN_00433	>dRep_bin190_MOGDLGIN_00433 hypothetical protein	dRep_bin190_MOGDLGIN_00433	CDS			hypothetical protein
MOGDLGIN_00610					28.3482			27.438729999999996				2	2	0,00030329	dRep_bin190_MOGDLGIN_00610	dRep_bin190_MOGDLGIN_00610	>dRep_bin190_MOGDLGIN_00610 hypothetical protein	dRep_bin190_MOGDLGIN_00610	CDS			hypothetical protein
