GBprotID	LFQ intensity CtrPig1	LFQ intensity CtrPig2	LFQ intensity CtrPig3	LFQ intensity CtrPig4	LFQ intensity MannanPig1	LFQ intensity MannanPig2	LFQ intensity MannanPig3	LFQ intensity MannanPig4	Only identified by site	Reverse	Contaminant	Peptides	Unique peptides	PEP	Protein IDs	Majority protein IDs	Fasta headers	IDcomb	ftype	gene	EC_number	product
GCMBELNN_00009								21.504800000000003				5	1	3,9803E-89	dRep_bin260_HELEPKJL_01435;dRep_bin135_HHKACLPM_00878;dRep_bin279_IAEFEPEN_00125;dRep_bin139_KGAJINND_00653;dRep_bin047_IFFANOMN_00833;dRep_bin220_PILICLLL_01353;dRep_bin062_BOFBFLDA_00870;dRep_bin027_OFJCHLJJ_01114;dRep_bin145_KMJJJOEJ_00674;dRep_bin300_MJPPENNL_01153;dRep_bin282_PKAAPBFP_00002;dRep_bin091_MAFACGAD_00478;dRep_bin116_CLFDBMOF_00810;dRep_bin347_EKGCMFPD_00673;dRep_bin322_OJELOJOF_01660;dRep_bin335_JIOGNAPG_01578;dRep_bin201_OLKDIBOK_02525;dRep_bin160_EFKMPBOM_02349;dRep_bin077_DNNBMPMC_01926;dRep_bin246_MMFBABHK_00869;dRep_bin219_HGPEELLF_00755;dRep_bin174_LJJOKEME_01393;dRep_bin312_MJFEFHMP_00102;dRep_bin129_GADIAMAA_01507;dRep_bin030_OGPDLGOC_00490;dRep_bin004_OCHNPJPO_00897;dRep_bin061_ONFGDLGO_00219;dRep_bin264_DNFFGNEG_00399;dRep_bin153_JGABJFBF_00375;dRep_bin244_LBFMHLBI_00924;dRep_bin204_INMOGLDN_00439;dRep_bin050_FBECOHCI_00117;dRep_bin202_HEPPALPH_01023;dRep_bin223_PIMCDKJI_00571;dRep_bin233_BAGKKAOB_00161;dRep_bin336_MPGOKPOL_01196;dRep_bin333_EFOKIBLA_00139;dRep_bin303_DDDNDJCF_00008;dRep_bin095_HOBNOEEF_01151;dRep_bin249_OFIIEIDJ_00631;dRep_bin007_LNLEAAAN_00381;dRep_bin328_GIGKNKPJ_00383;dRep_bin081_JDPCKDNP_00006;dRep_bin078_GKFCBAEI_00579;dRep_bin325_EIIGOGHN_00717;dRep_bin319_PBDBJGCJ_01544;dRep_bin306_FGHMKMMP_01785;dRep_bin181_MKGPMPIA_01340;dRep_bin127_FIPNHBCH_01090;dRep_bin066_AJACLPEE_01002;dRep_bin024_OLHDGABE_01294;dRep_bin220_PILICLLL_00488;dRep_bin078_GKFCBAEI_00372;dRep_bin006_HPJGJCAG_01324;dRep_bin142_NDNPJBEM_00465;dRep_bin350_EKOOEEGH_00689;dRep_bin228_CECEDMJG_00916;dRep_bin218_ACMPALGF_00396;dRep_bin164_KHMELCCL_00939;dRep_bin173_BEBNCADL_00342;dRep_bin058_GJKCICJN_00554;dRep_bin268_LKMHIMLG_00442;dRep_bin237_KJDLIPND_00262;dRep_bin251_FGNGCJDD_00443;dRep_bin192_GCMBELNN_00009	dRep_bin260_HELEPKJL_01435;dRep_bin135_HHKACLPM_00878;dRep_bin279_IAEFEPEN_00125;dRep_bin139_KGAJINND_00653;dRep_bin047_IFFANOMN_00833	>dRep_bin260_HELEPKJL_01435 Trehalose import ATP-binding protein SugC;>dRep_bin135_HHKACLPM_00878 Trehalose import ATP-binding protein SugC;>dRep_bin279_IAEFEPEN_00125 Trehalose import ATP-binding protein SugC;>dRep_bin139_KGAJINND_00653 Trehalose import A	dRep_bin192_GCMBELNN_00009	CDS	sugC	3.6.3.-	Trehalose import ATP-binding protein SugC
GCMBELNN_00017	32.07623	30.102990000000002	30.91933	29.59737	29.108739999999997	30.373160000000002	29.680619999999998	30.57326				39	36	0	dRep_bin228_CECEDMJG_00587;dRep_bin192_GCMBELNN_00017	dRep_bin228_CECEDMJG_00587	>dRep_bin228_CECEDMJG_00587 Aldehyde-alcohol dehydrogenase	dRep_bin192_GCMBELNN_00017	CDS	adhE_1		Aldehyde-alcohol dehydrogenase
GCMBELNN_00036			24.785259999999997									2	1	1,1413E-05	dRep_bin154_JGOKHKLI_01168;dRep_bin160_EFKMPBOM_01807;dRep_bin194_MEPDOGGJ_00951;dRep_bin025_CBEJJMLE_00687;dRep_bin323_FBBLPLCG_01251;dRep_bin068_ENOLAELK_00339;dRep_bin038_EIGFILKG_00563;dRep_bin192_GCMBELNN_00036;dRep_bin107_EFNBPDOP_00338;dRep_bin352_KFNHGNFC_00077;dRep_bin076_GLAOFBEC_00319;dRep_bin234_ECABPBME_01372;dRep_bin167_BLMEBMNN_00672;dRep_bin229_FFOBPPJI_00893;dRep_bin210_AGEDAEIA_01097;dRep_bin118_FGIOKLBC_01121;dRep_bin093_PGADNPMG_01764;dRep_bin040_EIFLLDOA_01233;dRep_bin028_GKEJLBAM_01056;dRep_bin260_HELEPKJL_01992	dRep_bin154_JGOKHKLI_01168;dRep_bin160_EFKMPBOM_01807;dRep_bin194_MEPDOGGJ_00951;dRep_bin025_CBEJJMLE_00687;dRep_bin323_FBBLPLCG_01251;dRep_bin068_ENOLAELK_00339;dRep_bin038_EIGFILKG_00563;dRep_bin192_GCMBELNN_00036;dRep_bin107_EFNBPDOP_00338;dRep_bin352_KFNHGNFC_00077;dRep_bin076_GLAOFBEC_00319;dRep_bin234_ECABPBME_01372;dRep_bin167_BLMEBMNN_00672;dRep_bin229_FFOBPPJI_00893;dRep_bin210_AGEDAEIA_01097;dRep_bin118_FGIOKLBC_01121;dRep_bin093_PGADNPMG_01764;dRep_bin040_EIFLLDOA_01233;dRep_bin028_GKEJLBAM_01056;dRep_bin260_HELEPKJL_01992	>dRep_bin154_JGOKHKLI_01168 Phosphoglucomutase;>dRep_bin160_EFKMPBOM_01807 Phosphoglucomutase;>dRep_bin194_MEPDOGGJ_00951 Phosphoglucomutase;>dRep_bin025_CBEJJMLE_00687 Phosphoglucomutase;>dRep_bin323_FBBLPLCG_01251 Phosphoglucomutase;>dRep_bin068_ENOLAELK	dRep_bin192_GCMBELNN_00036	CDS	pgcA_1	5.4.2.2	Phosphoglucomutase
GCMBELNN_00043	25.8986	25.973339999999997	26.19903	26.281	26.514310000000002	26.59049	25.7571	26.25906				4	1	4,6283E-12	dRep_bin145_KMJJJOEJ_01258;dRep_bin242_LKAIBGGJ_00691;dRep_bin081_JDPCKDNP_01525;dRep_bin317_ABPHNCOD_01232;dRep_bin347_EKGCMFPD_00789;dRep_bin282_PKAAPBFP_00053;dRep_bin039_IJNOFOJK_00980;dRep_bin001_GHHJMDAL_00862;dRep_bin272_LGBDGEIM_01970;dRep_bin186_HJAAFFNP_02184;dRep_bin005_CNDFPKJG_01374;dRep_bin332_KAOPCDPF_00412;dRep_bin167_BLMEBMNN_01248;dRep_bin260_HELEPKJL_00916;dRep_bin160_EFKMPBOM_00919;dRep_bin209_NKIHFCEN_00567;dRep_bin158_OGFICEAP_02130;dRep_bin283_NLJJFFAC_01508;dRep_bin278_BFCONKOE_00571;dRep_bin325_EIIGOGHN_00662;dRep_bin218_ACMPALGF_01369;dRep_bin094_LBLICAAO_00052;dRep_bin299_AKNBKJGM_01021;dRep_bin157_JPNIKEKI_01309;dRep_bin075_EPEMMOCL_02359;dRep_bin055_IBMMJAEE_00109;dRep_bin306_FGHMKMMP_00327;dRep_bin216_JNJMCPHB_00254;dRep_bin292_JIBLDOOH_01625;dRep_bin179_HFEIPPPA_02175;dRep_bin133_NOBPDBPA_01803;dRep_bin088_DNGPPFDK_01392;dRep_bin024_OLHDGABE_00503;dRep_bin324_IPNHOHFK_01870;dRep_bin203_CLFNNOCF_00851;dRep_bin017_FGFLFOPJ_00925;dRep_bin065_DFABHCBI_01998;dRep_bin192_GCMBELNN_00043;dRep_bin310_IMBAFDIF_01495;dRep_bin218_ACMPALGF_00670	dRep_bin145_KMJJJOEJ_01258;dRep_bin242_LKAIBGGJ_00691;dRep_bin081_JDPCKDNP_01525;dRep_bin317_ABPHNCOD_01232;dRep_bin347_EKGCMFPD_00789;dRep_bin282_PKAAPBFP_00053;dRep_bin039_IJNOFOJK_00980;dRep_bin001_GHHJMDAL_00862;dRep_bin272_LGBDGEIM_01970;dRep_bin186_HJAAFFNP_02184;dRep_bin005_CNDFPKJG_01374;dRep_bin332_KAOPCDPF_00412;dRep_bin167_BLMEBMNN_01248;dRep_bin260_HELEPKJL_00916;dRep_bin160_EFKMPBOM_00919;dRep_bin209_NKIHFCEN_00567;dRep_bin158_OGFICEAP_02130;dRep_bin283_NLJJFFAC_01508;dRep_bin278_BFCONKOE_00571;dRep_bin325_EIIGOGHN_00662;dRep_bin218_ACMPALGF_01369;dRep_bin094_LBLICAAO_00052;dRep_bin299_AKNBKJGM_01021;dRep_bin157_JPNIKEKI_01309;dRep_bin075_EPEMMOCL_02359;dRep_bin055_IBMMJAEE_00109;dRep_bin306_FGHMKMMP_00327;dRep_bin216_JNJMCPHB_00254;dRep_bin292_JIBLDOOH_01625;dRep_bin179_HFEIPPPA_02175;dRep_bin133_NOBPDBPA_01803;dRep_bin088_DNGPPFDK_01392;dRep_bin024_OLHDGABE_00503;dRep_bin324_IPNHOHFK_01870;dRep_bin203_CLFNNOCF_00851;dRep_bin017_FGFLFOPJ_00925;dRep_bin065_DFABHCBI_01998	>dRep_bin145_KMJJJOEJ_01258 GMP synthase [glutamine-hydrolyzing];>dRep_bin242_LKAIBGGJ_00691 GMP synthase [glutamine-hydrolyzing];>dRep_bin081_JDPCKDNP_01525 GMP synthase [glutamine-hydrolyzing];>dRep_bin317_ABPHNCOD_01232 GMP synthase [glutamine-hydrolyzi	dRep_bin192_GCMBELNN_00043	CDS	guaA	6.3.5.2	GMP synthase [glutamine-hydrolyzing]
GCMBELNN_00106			23.138450000000002									4	0	2,8454E-08	dRep_bin192_GCMBELNN_00106;dRep_bin187_CLPDGDBG_00238	dRep_bin192_GCMBELNN_00106;dRep_bin187_CLPDGDBG_00238	>dRep_bin192_GCMBELNN_00106 Elongation factor Tu;>dRep_bin187_CLPDGDBG_00238 Elongation factor Tu	dRep_bin192_GCMBELNN_00106	CDS	tuf		Elongation factor Tu
GCMBELNN_00107	29.50317	28.84305	30.379060000000003	29.7445	30.37958	31.6366	30.65258	30.32303				12	3	1,0311E-206	dRep_bin112_NDMGAKCH_01046;dRep_bin314_KCHFPLIP_01287;dRep_bin352_KFNHGNFC_00266;dRep_bin206_OIIBOIAK_00897;dRep_bin192_GCMBELNN_00107;dRep_bin187_CLPDGDBG_00237	dRep_bin112_NDMGAKCH_01046	>dRep_bin112_NDMGAKCH_01046 Elongation factor G	dRep_bin192_GCMBELNN_00107	CDS	fusA_1		Elongation factor G
GCMBELNN_00291								24.347260000000002				1	1	0,0082485	dRep_bin192_GCMBELNN_00291	dRep_bin192_GCMBELNN_00291	>dRep_bin192_GCMBELNN_00291 hypothetical protein	dRep_bin192_GCMBELNN_00291	CDS			hypothetical protein
GCMBELNN_00448								24.102050000000002				3	1	1,1701E-07	dRep_bin238_OLNFACLE_01567;dRep_bin074_EHAOMODJ_01332;dRep_bin257_JHFDCHCB_00694;dRep_bin101_BNDDLDCL_01900;dRep_bin053_OMGNPOOB_00587;dRep_bin187_CLPDGDBG_00542;dRep_bin192_GCMBELNN_00448;dRep_bin152_LJMCIADF_01345;dRep_bin068_ENOLAELK_00711;dRep_bin105_AAEIHAFF_00838;dRep_bin090_IPGNHCBJ_00365	dRep_bin238_OLNFACLE_01567;dRep_bin074_EHAOMODJ_01332;dRep_bin257_JHFDCHCB_00694;dRep_bin101_BNDDLDCL_01900	>dRep_bin238_OLNFACLE_01567 Methylmalonyl-CoA carboxyltransferase 5S subunit;>dRep_bin074_EHAOMODJ_01332 Methylmalonyl-CoA carboxyltransferase 5S subunit;>dRep_bin257_JHFDCHCB_00694 Methylmalonyl-CoA carboxyltransferase 5S subunit;>dRep_bin101_BNDDLDCL_019	dRep_bin192_GCMBELNN_00448	CDS		2.1.3.1	Methylmalonyl-CoA carboxyltransferase 5S subunit
GCMBELNN_00610	27.878709999999998	26.945809999999998	27.80581	28.31614	27.64141	28.85377	27.47452	28.228759999999998				12	1	1,2546E-92	dRep_bin292_JIBLDOOH_01852;dRep_bin133_NOBPDBPA_03221;dRep_bin005_CNDFPKJG_00202;dRep_bin310_IMBAFDIF_01175;dRep_bin318_IEDEJOFJ_00956;dRep_bin200_JJGKEOHI_00980;dRep_bin188_EJILNMPE_00756;dRep_bin085_MBHLGCDB_00878;dRep_bin192_GCMBELNN_00610	dRep_bin292_JIBLDOOH_01852;dRep_bin133_NOBPDBPA_03221	>dRep_bin292_JIBLDOOH_01852 Glyceraldehyde-3-phosphate dehydrogenase;>dRep_bin133_NOBPDBPA_03221 Glyceraldehyde-3-phosphate dehydrogenase	dRep_bin192_GCMBELNN_00610	CDS	gap	1.2.1.12	Glyceraldehyde-3-phosphate dehydrogenase
GCMBELNN_00637								21.643810000000002				9	0	4,6207E-36	dRep_bin143_PFLDJMPF_01162;dRep_bin074_EHAOMODJ_00197;dRep_bin152_LJMCIADF_00840;dRep_bin079_GAOGCKND_00311;dRep_bin068_ENOLAELK_00990;dRep_bin124_HIHDFGCL_00318;dRep_bin272_LGBDGEIM_00728;dRep_bin337_FHKPNFDB_00324;dRep_bin056_EMNHHOJA_01446;dRep_bin054_NNOKONMC_00657;dRep_bin102_ICFDHPGB_00342;dRep_bin259_IFIOODLK_00485;dRep_bin086_HHEJBMCP_01132;dRep_bin054_NNOKONMC_00873;dRep_bin161_JMKPMHCO_00072;dRep_bin044_IPFKHAEF_00005;dRep_bin085_MBHLGCDB_01101;dRep_bin059_OOBKFNPP_00481;dRep_bin171_FIDMCACI_00747;dRep_bin012_KEBBILMO_00314;dRep_bin212_IEMJENOD_00204;dRep_bin257_JHFDCHCB_01099;dRep_bin277_MIPNGEJE_00939;dRep_bin238_OLNFACLE_01881;dRep_bin200_JJGKEOHI_00480;dRep_bin144_NPHACCKF_01932;dRep_bin321_EJNAAGJG_00384;dRep_bin333_EFOKIBLA_00721;dRep_bin273_FGAEBHNP_01365;dRep_bin280_IMCGLKKG_00438;dRep_bin171_FIDMCACI_00165;dRep_bin051_HIEIDCID_00833;dRep_bin141_GMCOOECB_01065;dRep_bin122_JHMJFODI_00609;dRep_bin155_CLHNKEHA_00697;dRep_bin313_CJFGINPI_00865;dRep_bin213_HHHELMFN_00711;dRep_bin258_DAMEHFEK_00926;dRep_bin169_PNICKJKO_00880;dRep_bin055_IBMMJAEE_00781;dRep_bin096_GNHMEKPF_00270;dRep_bin082_HBEFABJN_01176;dRep_bin094_LBLICAAO_01798;dRep_bin052_PGOOKKFH_00001;dRep_bin178_FLGBGGJB_00429;dRep_bin123_PJKBFKBB_00530;dRep_bin046_GKEJLOEK_00533;dRep_bin270_GEJAHNCN_00559;dRep_bin087_FCLGAPPI_00749;dRep_bin317_ABPHNCOD_01524;dRep_bin354_MMOALAFN_01090;dRep_bin221_LMGNIMOJ_00256;dRep_bin005_CNDFPKJG_00513;dRep_bin144_NPHACCKF_01674;dRep_bin215_ABBFGCAF_00891;dRep_bin024_OLHDGABE_01486;dRep_bin207_OHNPDPFI_01006;dRep_bin109_MJABCPAK_00005;dRep_bin121_BHOOLFKN_00138;dRep_bin144_NPHACCKF_01593;dRep_bin236_BNONDECB_00589;dRep_bin166_DFIAJFEC_00113;dRep_bin352_KFNHGNFC_00788;dRep_bin187_CLPDGDBG_00447;dRep_bin192_GCMBELNN_00637;dRep_bin206_OIIBOIAK_00839;dRep_bin173_BEBNCADL_00299;dRep_bin080_CBEBHNNK_00392;dRep_bin237_KJDLIPND_00675	dRep_bin143_PFLDJMPF_01162;dRep_bin074_EHAOMODJ_00197;dRep_bin152_LJMCIADF_00840;dRep_bin079_GAOGCKND_00311;dRep_bin068_ENOLAELK_00990;dRep_bin124_HIHDFGCL_00318;dRep_bin272_LGBDGEIM_00728;dRep_bin337_FHKPNFDB_00324;dRep_bin056_EMNHHOJA_01446;dRep_bin054_NNOKONMC_00657;dRep_bin102_ICFDHPGB_00342;dRep_bin259_IFIOODLK_00485;dRep_bin086_HHEJBMCP_01132;dRep_bin054_NNOKONMC_00873;dRep_bin161_JMKPMHCO_00072;dRep_bin044_IPFKHAEF_00005;dRep_bin085_MBHLGCDB_01101	>dRep_bin143_PFLDJMPF_01162 DNA-directed RNA polymerase subunit beta;>dRep_bin074_EHAOMODJ_00197 DNA-directed RNA polymerase subunit beta;>dRep_bin152_LJMCIADF_00840 DNA-directed RNA polymerase subunit beta;>dRep_bin079_GAOGCKND_00311 DNA-directed RNA p	dRep_bin192_GCMBELNN_00637	CDS	rpoC	2.7.7.6	DNA-directed RNA polymerase subunit beta'
GCMBELNN_00663	27.22656	25.469639999999995	27.139560000000003	26.76989								3	0	2,5341E-17	dRep_bin074_EHAOMODJ_00357;dRep_bin335_JIOGNAPG_00060;dRep_bin234_ECABPBME_00543;dRep_bin185_OOOLKACK_00415;dRep_bin095_HOBNOEEF_01010;dRep_bin194_MEPDOGGJ_00068;dRep_bin025_CBEJJMLE_00034;dRep_bin282_PKAAPBFP_01136;dRep_bin260_HELEPKJL_01581;dRep_bin135_HHKACLPM_00020;dRep_bin047_IFFANOMN_01119;dRep_bin049_MNFBDPNO_00067;dRep_bin268_LKMHIMLG_00651;dRep_bin303_DDDNDJCF_00095;dRep_bin248_CCDFPECI_00722;dRep_bin243_JDMELKLC_00605;dRep_bin340_OFLHNGJM_00522;dRep_bin109_MJABCPAK_00884;dRep_bin087_FCLGAPPI_00696;dRep_bin160_EFKMPBOM_01056;dRep_bin154_JGOKHKLI_00096;dRep_bin354_MMOALAFN_01723;dRep_bin349_AMCJEEEG_01213;dRep_bin116_CLFDBMOF_00907;dRep_bin347_EKGCMFPD_01393;dRep_bin001_GHHJMDAL_01273;dRep_bin247_EKGBJCBM_00529;dRep_bin254_GJDPFAEA_00457;dRep_bin145_KMJJJOEJ_01456;dRep_bin322_OJELOJOF_01191;dRep_bin336_MPGOKPOL_00223;dRep_bin147_EJLBNEBE_01602;dRep_bin134_HIAPAODO_02129;dRep_bin062_BOFBFLDA_00221;dRep_bin332_KAOPCDPF_00824;dRep_bin253_CPMOAOBJ_01534;dRep_bin114_FJHJKHGL_01331;dRep_bin352_KFNHGNFC_00409;dRep_bin192_GCMBELNN_00663;dRep_bin187_CLPDGDBG_00783	dRep_bin074_EHAOMODJ_00357;dRep_bin335_JIOGNAPG_00060;dRep_bin234_ECABPBME_00543;dRep_bin185_OOOLKACK_00415;dRep_bin095_HOBNOEEF_01010;dRep_bin194_MEPDOGGJ_00068;dRep_bin025_CBEJJMLE_00034;dRep_bin282_PKAAPBFP_01136;dRep_bin260_HELEPKJL_01581;dRep_bin135_HHKACLPM_00020;dRep_bin047_IFFANOMN_01119;dRep_bin049_MNFBDPNO_00067;dRep_bin268_LKMHIMLG_00651;dRep_bin303_DDDNDJCF_00095;dRep_bin248_CCDFPECI_00722;dRep_bin243_JDMELKLC_00605;dRep_bin340_OFLHNGJM_00522;dRep_bin109_MJABCPAK_00884;dRep_bin087_FCLGAPPI_00696;dRep_bin160_EFKMPBOM_01056;dRep_bin154_JGOKHKLI_00096;dRep_bin354_MMOALAFN_01723	>dRep_bin074_EHAOMODJ_00357 Glutamate synthase [NADPH] small chain;>dRep_bin335_JIOGNAPG_00060 Glutamate synthase [NADPH] small chain;>dRep_bin234_ECABPBME_00543 Glutamate synthase [NADPH] small chain;>dRep_bin185_OOOLKACK_00415 Glutamate synthase [NADPH]	dRep_bin192_GCMBELNN_00663	CDS	gltD	1.4.1.13	Glutamate synthase [NADPH] small chain
GCMBELNN_00689	29.241999999999997	28.83002	28.66743	28.24481	27.857090000000003	27.498609999999996	27.40981	28.09527				21	14	1,2002E-242	dRep_bin002_CFBNDKDN_01067;dRep_bin037_GEAOEKHA_01508;dRep_bin071_JHMCIJPE_00803;dRep_bin018_ILOONPIC_00642;dRep_bin224_NFENHJGB_01709;dRep_bin071_JHMCIJPE_01570;dRep_bin316_FNLHDNEO_00193;dRep_bin131_HLFNHDGI_00037;dRep_bin096_GNHMEKPF_01084;dRep_bin100_CODMOHGB_01077;dRep_bin211_LGJEFJIK_00551;dRep_bin049_MNFBDPNO_01334;dRep_bin323_FBBLPLCG_01081;dRep_bin309_BIOHLCGG_00788;dRep_bin056_EMNHHOJA_00346;dRep_bin026_HNPIIINL_01320;dRep_bin007_LNLEAAAN_00164;dRep_bin343_JCMCKBGF_01550;dRep_bin192_GCMBELNN_00689;dRep_bin016_JLGAHGOJ_01842;dRep_bin136_NAIECEIF_01051;dRep_bin092_OOJCPDEA_01123;dRep_bin043_KLAFNACO_00445	dRep_bin002_CFBNDKDN_01067	>dRep_bin002_CFBNDKDN_01067 Uronate isomerase	dRep_bin192_GCMBELNN_00689	CDS	uxaC	5.3.1.12	Uronate isomerase
GCMBELNN_00691	26.191930000000003	26.96499	27.399910000000002	27.5015	27.204150000000002	28.43921	26.83774	26.811150000000005				15	4	4,156E-98	dRep_bin045_GJACFFBC_00924;dRep_bin192_GCMBELNN_00691	dRep_bin045_GJACFFBC_00924	>dRep_bin045_GJACFFBC_00924 2-dehydro-3-deoxygluconokinase	dRep_bin192_GCMBELNN_00691	CDS	kdgK	2.7.1.45	2-dehydro-3-deoxygluconokinase
GCMBELNN_00771	25.23114	26.20021	25.60848	25.00539	25.231910000000003	24.7476	24.899800000000003	25.86637				5	4	9,1623E-50	dRep_bin158_OGFICEAP_01083;dRep_bin055_IBMMJAEE_01254;dRep_bin192_GCMBELNN_00771;dRep_bin293_MEPKGOAN_00645;dRep_bin185_OOOLKACK_00545	dRep_bin158_OGFICEAP_01083	>dRep_bin158_OGFICEAP_01083 NADP-dependent 7-alpha-hydroxysteroid dehydrogenase	dRep_bin192_GCMBELNN_00771	CDS		1.1.1.-	NADP-dependent 7-alpha-hydroxysteroid dehydrogenase
