GBprotID	LFQ intensity CtrPig1	LFQ intensity CtrPig2	LFQ intensity CtrPig3	LFQ intensity CtrPig4	LFQ intensity MannanPig1	LFQ intensity MannanPig2	LFQ intensity MannanPig3	LFQ intensity MannanPig4	Only identified by site	Reverse	Contaminant	Peptides	Unique peptides	PEP	Protein IDs	Majority protein IDs	Fasta headers	IDcomb	ftype	gene	EC_number	product
OLKDIBOK_00002	23.339190000000002			25.50018	26.857210000000002	25.17154	25.03069	24.31576				4	4	2,4798E-16	dRep_bin201_OLKDIBOK_00002;dRep_bin260_HELEPKJL_01692;dRep_bin194_MEPDOGGJ_00071;dRep_bin124_HIHDFGCL_00655;dRep_bin025_CBEJJMLE_00037;dRep_bin181_MKGPMPIA_01164;dRep_bin127_FIPNHBCH_01402;dRep_bin056_EMNHHOJA_01420;dRep_bin026_HNPIIINL_00980;dRep_bin253_CPMOAOBJ_00446;dRep_bin248_CCDFPECI_00832;dRep_bin016_JLGAHGOJ_01875	dRep_bin201_OLKDIBOK_00002;dRep_bin260_HELEPKJL_01692	>dRep_bin201_OLKDIBOK_00002 Intracellular exo-alpha-(1->5)-L-arabinofuranosidase;>dRep_bin260_HELEPKJL_01692 Intracellular exo-alpha-(1->5)-L-arabinofuranosidase	dRep_bin201_OLKDIBOK_00002	CDS		3.2.1.55	Intracellular exo-alpha-(1->5)-L-arabinofuranosidase
OLKDIBOK_00005	26.87502	26.265009999999997	25.65275		28.0644	26.423319999999997	26.77931	26.867150000000002				8	8	2,6873E-110	dRep_bin201_OLKDIBOK_00005;dRep_bin260_HELEPKJL_01688	dRep_bin201_OLKDIBOK_00005	>dRep_bin201_OLKDIBOK_00005 putative arabinose-binding protein	dRep_bin201_OLKDIBOK_00005	CDS	araN		putative arabinose-binding protein
OLKDIBOK_00019					25.084439999999997							2	2	0,00086889	dRep_bin201_OLKDIBOK_00019	dRep_bin201_OLKDIBOK_00019	>dRep_bin201_OLKDIBOK_00019 Xylitol-binding protein	dRep_bin201_OLKDIBOK_00019	CDS	xypA		Xylitol-binding protein
OLKDIBOK_00030						22.41875						7	1	4,9121E-136	dRep_bin201_OLKDIBOK_00030	dRep_bin201_OLKDIBOK_00030	>dRep_bin201_OLKDIBOK_00030 Reverse rubrerythrin-1	dRep_bin201_OLKDIBOK_00030	CDS	rbr3A	1.11.1.1	Reverse rubrerythrin-1
OLKDIBOK_00037	26.25981	25.434060000000002	27.37327	27.34019	27.09235	24.631450000000005	25.781739999999996	27.179880000000004				4	2	3,5437E-22	dRep_bin201_OLKDIBOK_00037;dRep_bin005_CNDFPKJG_01090;dRep_bin203_CLFNNOCF_02313;dRep_bin322_OJELOJOF_00841;dRep_bin306_FGHMKMMP_01100;dRep_bin234_ECABPBME_01436;dRep_bin075_EPEMMOCL_00907;dRep_bin007_LNLEAAAN_00325;dRep_bin347_EKGCMFPD_01363;dRep_bin332_KAOPCDPF_00417;dRep_bin324_IPNHOHFK_00831;dRep_bin284_DEHKNOBF_01533;dRep_bin179_HFEIPPPA_02161;dRep_bin001_GHHJMDAL_00495;dRep_bin211_LGJEFJIK_01061	dRep_bin201_OLKDIBOK_00037;dRep_bin005_CNDFPKJG_01090;dRep_bin203_CLFNNOCF_02313;dRep_bin322_OJELOJOF_00841	>dRep_bin201_OLKDIBOK_00037 50S ribosomal protein L11;>dRep_bin005_CNDFPKJG_01090 50S ribosomal protein L11;>dRep_bin203_CLFNNOCF_02313 50S ribosomal protein L11;>dRep_bin322_OJELOJOF_00841 50S ribosomal protein L11	dRep_bin201_OLKDIBOK_00037	CDS	rplK		50S ribosomal protein L11
OLKDIBOK_00065	28.10834	25.910539999999997	25.95107	27.56507	28.213639999999998	29.022399999999998	26.41292	26.52938				6	5	1,653E-144	dRep_bin201_OLKDIBOK_00065	dRep_bin201_OLKDIBOK_00065	>dRep_bin201_OLKDIBOK_00065 ABC transporter periplasmic-binding protein YtfQ	dRep_bin201_OLKDIBOK_00065	CDS	ytfQ		ABC transporter periplasmic-binding protein YtfQ
OLKDIBOK_00075	32.314409999999995	31.51503	31.379270000000002	31.72505	33.15078	32.33514	32.0179	31.546509999999998				18	10	0	dRep_bin201_OLKDIBOK_00075	dRep_bin201_OLKDIBOK_00075	>dRep_bin201_OLKDIBOK_00075 hypothetical protein	dRep_bin201_OLKDIBOK_00075	CDS			hypothetical protein
OLKDIBOK_00076	27.88291	26.292739999999995	26.25337	26.982609999999994	28.26937	27.31233	27.234250000000003	26.788929999999997				5	5	7,2926E-54	dRep_bin201_OLKDIBOK_00076	dRep_bin201_OLKDIBOK_00076	>dRep_bin201_OLKDIBOK_00076 hypothetical protein	dRep_bin201_OLKDIBOK_00076	CDS			hypothetical protein
OLKDIBOK_00096	28.193850000000005	28.14768	27.303910000000002	27.76768	28.068509999999996	26.66166	28.189519999999998	26.82953				6	2	4,91E-21	dRep_bin201_OLKDIBOK_00096;dRep_bin226_NLNLHLLD_00643;dRep_bin157_JPNIKEKI_01428;dRep_bin220_PILICLLL_00420;dRep_bin209_NKIHFCEN_01063;dRep_bin139_KGAJINND_00432;dRep_bin344_CJJBDGAA_01155;dRep_bin260_HELEPKJL_00811;dRep_bin075_EPEMMOCL_01973;dRep_bin303_DDDNDJCF_01370;dRep_bin206_OIIBOIAK_00890;dRep_bin282_PKAAPBFP_00013;dRep_bin027_OFJCHLJJ_00660;dRep_bin248_CCDFPECI_00213;dRep_bin231_CFOLMJBA_00669;dRep_bin134_HIAPAODO_01486	dRep_bin201_OLKDIBOK_00096;dRep_bin226_NLNLHLLD_00643;dRep_bin157_JPNIKEKI_01428;dRep_bin220_PILICLLL_00420;dRep_bin209_NKIHFCEN_01063;dRep_bin139_KGAJINND_00432;dRep_bin344_CJJBDGAA_01155;dRep_bin260_HELEPKJL_00811;dRep_bin075_EPEMMOCL_01973;dRep_bin303_DDDNDJCF_01370	>dRep_bin201_OLKDIBOK_00096 Peptidyl-prolyl cis-trans isomerase B;>dRep_bin226_NLNLHLLD_00643 putative peptidyl-prolyl cis-trans isomerase;>dRep_bin157_JPNIKEKI_01428 Putative peptidyl-prolyl cis-trans isomerase;>dRep_bin220_PILICLLL_00420 Peptidyl-prolyl	dRep_bin201_OLKDIBOK_00096	CDS	ppiB	5.2.1.8	Peptidyl-prolyl cis-trans isomerase B
OLKDIBOK_00112					25.616020000000002	23.6184	23.54922					4	1	1,9799E-33	dRep_bin260_HELEPKJL_01845;dRep_bin201_OLKDIBOK_00112;dRep_bin303_DDDNDJCF_00142;dRep_bin287_DONBGKDH_01854;dRep_bin322_OJELOJOF_01184;dRep_bin257_JHFDCHCB_00967;dRep_bin169_PNICKJKO_00877;A0A287A8P8;dRep_bin051_HIEIDCID_00151;dRep_bin086_HHEJBMCP_00386;dRep_bin122_JHMJFODI_00063;dRep_bin023_HGFJFKAI_00771;dRep_bin181_MKGPMPIA_00103;dRep_bin066_AJACLPEE_00701;dRep_bin259_IFIOODLK_02454;dRep_bin180_JMFOHHIL_00810;dRep_bin176_DLEJNGKN_00496;dRep_bin102_ICFDHPGB_00705;dRep_bin054_NNOKONMC_00274;dRep_bin141_GMCOOECB_00272;dRep_bin081_JDPCKDNP_01556;dRep_bin191_NGFJMLOL_01066;dRep_bin347_EKGCMFPD_00368;dRep_bin258_DAMEHFEK_00953;dRep_bin207_OHNPDPFI_00730;dRep_bin155_CLHNKEHA_00341;dRep_bin147_EJLBNEBE_00007;dRep_bin003_GOBBLOGO_01064;dRep_bin001_GHHJMDAL_00643;dRep_bin178_FLGBGGJB_01411;dRep_bin161_JMKPMHCO_00287;dRep_bin096_GNHMEKPF_00190;dRep_bin074_EHAOMODJ_00071;dRep_bin059_OOBKFNPP_00877;dRep_bin009_KMMEHEKA_00693;dRep_bin308_JBPDGLPP_01578;dRep_bin276_EHNFLEBP_00798;dRep_bin337_FHKPNFDB_01542;dRep_bin273_FGAEBHNP_00709;dRep_bin167_BLMEBMNN_01919;dRep_bin114_FJHJKHGL_00074;dRep_bin085_MBHLGCDB_00354;dRep_bin058_GJKCICJN_00485;A0A287B9S9;dRep_bin342_BMMENEMP_00811;dRep_bin341_NBEGOKEF_00144;dRep_bin231_CFOLMJBA_00136;dRep_bin095_HOBNOEEF_01465;dRep_bin236_BNONDECB_00582;dRep_bin168_HKDILBFE_01225;dRep_bin099_DNDAGJEJ_01201;dRep_bin024_OLHDGABE_00735;dRep_bin006_HPJGJCAG_01680;I3LL84;dRep_bin332_KAOPCDPF_00242;dRep_bin336_MPGOKPOL_00237;A0A287BIW1;dRep_bin319_PBDBJGCJ_00470	dRep_bin260_HELEPKJL_01845;dRep_bin201_OLKDIBOK_00112;dRep_bin303_DDDNDJCF_00142;dRep_bin287_DONBGKDH_01854	>dRep_bin260_HELEPKJL_01845 UDP-glucose 4-epimerase;>dRep_bin201_OLKDIBOK_00112 UDP-glucose 4-epimerase;>dRep_bin303_DDDNDJCF_00142 UDP-glucose 4-epimerase;>dRep_bin287_DONBGKDH_01854 UDP-glucose 4-epimerase	dRep_bin201_OLKDIBOK_00112	CDS	lnpD	5.1.3.2	UDP-glucose 4-epimerase
OLKDIBOK_00113								22.71578				1	1	0,0044387	dRep_bin249_OFIIEIDJ_00122;dRep_bin041_OPKGAAAG_01976;dRep_bin269_PNILGKPH_00694;dRep_bin324_IPNHOHFK_01746;dRep_bin139_KGAJINND_00203;dRep_bin134_HIAPAODO_01440;dRep_bin310_IMBAFDIF_01190;dRep_bin297_EDHEEICA_00324;dRep_bin292_JIBLDOOH_01248;dRep_bin287_DONBGKDH_00552;dRep_bin284_DEHKNOBF_01431;dRep_bin282_PKAAPBFP_01594;dRep_bin248_CCDFPECI_00349;dRep_bin226_NLNLHLLD_00457;dRep_bin209_NKIHFCEN_01470;dRep_bin201_OLKDIBOK_00113;dRep_bin158_OGFICEAP_00289;dRep_bin154_JGOKHKLI_02118;dRep_bin145_KMJJJOEJ_01273;dRep_bin133_NOBPDBPA_04372;dRep_bin095_HOBNOEEF_01401;dRep_bin039_IJNOFOJK_00110;dRep_bin220_PILICLLL_01331;dRep_bin027_OFJCHLJJ_01236;dRep_bin266_JFOCEDAE_00675;dRep_bin001_GHHJMDAL_01115;dRep_bin160_EFKMPBOM_01722;dRep_bin261_FJICAFFM_00866;dRep_bin203_CLFNNOCF_02521;dRep_bin322_OJELOJOF_00188	dRep_bin249_OFIIEIDJ_00122;dRep_bin041_OPKGAAAG_01976;dRep_bin269_PNILGKPH_00694;dRep_bin324_IPNHOHFK_01746;dRep_bin139_KGAJINND_00203;dRep_bin134_HIAPAODO_01440;dRep_bin310_IMBAFDIF_01190;dRep_bin297_EDHEEICA_00324;dRep_bin292_JIBLDOOH_01248;dRep_bin287_DONBGKDH_00552;dRep_bin284_DEHKNOBF_01431;dRep_bin282_PKAAPBFP_01594;dRep_bin248_CCDFPECI_00349;dRep_bin226_NLNLHLLD_00457;dRep_bin209_NKIHFCEN_01470;dRep_bin201_OLKDIBOK_00113;dRep_bin158_OGFICEAP_00289;dRep_bin154_JGOKHKLI_02118;dRep_bin145_KMJJJOEJ_01273;dRep_bin133_NOBPDBPA_04372;dRep_bin095_HOBNOEEF_01401;dRep_bin039_IJNOFOJK_00110;dRep_bin220_PILICLLL_01331;dRep_bin027_OFJCHLJJ_01236;dRep_bin266_JFOCEDAE_00675;dRep_bin001_GHHJMDAL_01115;dRep_bin160_EFKMPBOM_01722;dRep_bin261_FJICAFFM_00866;dRep_bin203_CLFNNOCF_02521;dRep_bin322_OJELOJOF_00188	>dRep_bin249_OFIIEIDJ_00122 Glucose-1-phosphate adenylyltransferase;>dRep_bin041_OPKGAAAG_01976 Glucose-1-phosphate adenylyltransferase;>dRep_bin269_PNILGKPH_00694 Glucose-1-phosphate adenylyltransferase;>dRep_bin324_IPNHOHFK_01746 Glucose-1-phosphate aden	dRep_bin201_OLKDIBOK_00113	CDS	glgC_1	2.7.7.27	Glucose-1-phosphate adenylyltransferase
OLKDIBOK_00115				28.50635								2	0	0,025352	dRep_bin344_CJJBDGAA_01515;dRep_bin211_LGJEFJIK_00737;dRep_bin226_NLNLHLLD_00459;dRep_bin117_PMEMANMD_00232;dRep_bin266_JFOCEDAE_01199;dRep_bin261_FJICAFFM_00864;dRep_bin220_PILICLLL_01139;dRep_bin209_NKIHFCEN_01468;dRep_bin324_IPNHOHFK_01744;dRep_bin297_EDHEEICA_00326;dRep_bin203_CLFNNOCF_02519;dRep_bin157_JPNIKEKI_01354;dRep_bin133_NOBPDBPA_04374;dRep_bin041_OPKGAAAG_01974;dRep_bin091_MAFACGAD_01060;dRep_bin027_OFJCHLJJ_01238;dRep_bin322_OJELOJOF_00186;dRep_bin287_DONBGKDH_00550;dRep_bin081_JDPCKDNP_01704;dRep_bin249_OFIIEIDJ_00125;dRep_bin168_HKDILBFE_00610;dRep_bin135_HHKACLPM_01538;dRep_bin099_DNDAGJEJ_00403;dRep_bin089_PAJFOJBN_01181;dRep_bin005_CNDFPKJG_00525;dRep_bin260_HELEPKJL_01304;dRep_bin220_PILICLLL_01333;dRep_bin201_OLKDIBOK_00115;dRep_bin151_AHBJLMBI_00748;dRep_bin139_KGAJINND_00205;dRep_bin075_EPEMMOCL_00657;dRep_bin088_DNGPPFDK_00476;dRep_bin134_HIAPAODO_01442;dRep_bin310_IMBAFDIF_00699	dRep_bin344_CJJBDGAA_01515;dRep_bin211_LGJEFJIK_00737;dRep_bin226_NLNLHLLD_00459;dRep_bin117_PMEMANMD_00232;dRep_bin266_JFOCEDAE_01199;dRep_bin261_FJICAFFM_00864;dRep_bin220_PILICLLL_01139;dRep_bin209_NKIHFCEN_01468;dRep_bin324_IPNHOHFK_01744;dRep_bin297_EDHEEICA_00326;dRep_bin203_CLFNNOCF_02519;dRep_bin157_JPNIKEKI_01354;dRep_bin133_NOBPDBPA_04374;dRep_bin041_OPKGAAAG_01974;dRep_bin091_MAFACGAD_01060;dRep_bin027_OFJCHLJJ_01238;dRep_bin322_OJELOJOF_00186;dRep_bin287_DONBGKDH_00550;dRep_bin081_JDPCKDNP_01704;dRep_bin249_OFIIEIDJ_00125;dRep_bin168_HKDILBFE_00610;dRep_bin135_HHKACLPM_01538;dRep_bin099_DNDAGJEJ_00403;dRep_bin089_PAJFOJBN_01181;dRep_bin005_CNDFPKJG_00525;dRep_bin260_HELEPKJL_01304;dRep_bin220_PILICLLL_01333;dRep_bin201_OLKDIBOK_00115;dRep_bin151_AHBJLMBI_00748;dRep_bin139_KGAJINND_00205;dRep_bin075_EPEMMOCL_00657;dRep_bin088_DNGPPFDK_00476;dRep_bin134_HIAPAODO_01442;dRep_bin310_IMBAFDIF_00699	>dRep_bin344_CJJBDGAA_01515 Putative septation protein SpoVG;>dRep_bin211_LGJEFJIK_00737 Putative septation protein SpoVG;>dRep_bin226_NLNLHLLD_00459 Putative septation protein SpoVG;>dRep_bin117_PMEMANMD_00232 Putative septation protein SpoVG;>dRep_bin266	dRep_bin201_OLKDIBOK_00115	CDS	spoVG		Putative septation protein SpoVG
OLKDIBOK_00131	27.59818	26.86065	26.348850000000002	27.50173	28.65263	28.32937	27.38755	27.458109999999998				10	3	3,0303E-159	dRep_bin201_OLKDIBOK_00131	dRep_bin201_OLKDIBOK_00131	>dRep_bin201_OLKDIBOK_00131 Transaldolase	dRep_bin201_OLKDIBOK_00131	CDS	tal	2.2.1.2	Transaldolase
OLKDIBOK_00133					23.168779999999998	24.185789999999997	23.95118	24.038				4	2	3,1576E-17	dRep_bin201_OLKDIBOK_00133	dRep_bin201_OLKDIBOK_00133	>dRep_bin201_OLKDIBOK_00133 1-deoxy-D-xylulose-5-phosphate synthase	dRep_bin201_OLKDIBOK_00133	CDS	dxs_1	2.2.1.7	1-deoxy-D-xylulose-5-phosphate synthase
OLKDIBOK_00147						22.306860000000004						3	1	6,3831E-08	dRep_bin041_OPKGAAAG_00367;dRep_bin284_DEHKNOBF_00254;dRep_bin319_PBDBJGCJ_00655;dRep_bin203_CLFNNOCF_01297;dRep_bin181_MKGPMPIA_00407;dRep_bin179_HFEIPPPA_00842;dRep_bin139_KGAJINND_00918;dRep_bin133_NOBPDBPA_02473;dRep_bin066_AJACLPEE_00004;dRep_bin194_MEPDOGGJ_00508;dRep_bin152_LJMCIADF_01431;dRep_bin068_ENOLAELK_01095;dRep_bin038_EIGFILKG_01028;dRep_bin025_CBEJJMLE_01384;dRep_bin324_IPNHOHFK_01934;dRep_bin023_HGFJFKAI_01643;dRep_bin209_NKIHFCEN_00957;dRep_bin157_JPNIKEKI_01504;dRep_bin297_EDHEEICA_00667;dRep_bin226_NLNLHLLD_00265;dRep_bin306_FGHMKMMP_01756;dRep_bin005_CNDFPKJG_00040;dRep_bin158_OGFICEAP_01238;dRep_bin303_DDDNDJCF_00102;dRep_bin299_AKNBKJGM_01304;dRep_bin248_CCDFPECI_01165;dRep_bin145_KMJJJOEJ_00716;dRep_bin095_HOBNOEEF_01829;dRep_bin081_JDPCKDNP_01870;dRep_bin053_OMGNPOOB_00265;dRep_bin310_IMBAFDIF_00723;dRep_bin077_DNNBMPMC_01957;dRep_bin201_OLKDIBOK_00147;dRep_bin124_HIHDFGCL_01069;dRep_bin079_GAOGCKND_00667;dRep_bin107_EFNBPDOP_00920	dRep_bin041_OPKGAAAG_00367;dRep_bin284_DEHKNOBF_00254;dRep_bin319_PBDBJGCJ_00655;dRep_bin203_CLFNNOCF_01297;dRep_bin181_MKGPMPIA_00407;dRep_bin179_HFEIPPPA_00842;dRep_bin139_KGAJINND_00918;dRep_bin133_NOBPDBPA_02473;dRep_bin066_AJACLPEE_00004;dRep_bin194_MEPDOGGJ_00508;dRep_bin152_LJMCIADF_01431;dRep_bin068_ENOLAELK_01095;dRep_bin038_EIGFILKG_01028;dRep_bin025_CBEJJMLE_01384;dRep_bin324_IPNHOHFK_01934;dRep_bin023_HGFJFKAI_01643;dRep_bin209_NKIHFCEN_00957;dRep_bin157_JPNIKEKI_01504;dRep_bin297_EDHEEICA_00667;dRep_bin226_NLNLHLLD_00265;dRep_bin306_FGHMKMMP_01756;dRep_bin005_CNDFPKJG_00040	>dRep_bin041_OPKGAAAG_00367 Nicotinate-nucleotide pyrophosphorylase [carboxylating];>dRep_bin284_DEHKNOBF_00254 Nicotinate-nucleotide pyrophosphorylase [carboxylating];>dRep_bin319_PBDBJGCJ_00655 putative nicotinate-nucleotide pyrophosphorylase [carboxylat	dRep_bin201_OLKDIBOK_00147	CDS	nadC	2.4.2.19	putative nicotinate-nucleotide pyrophosphorylase [carboxylating]
OLKDIBOK_00172					23.282209999999996							2	2	2,2806E-07	dRep_bin201_OLKDIBOK_00172	dRep_bin201_OLKDIBOK_00172	>dRep_bin201_OLKDIBOK_00172 Arginine-binding extracellular protein ArtP	dRep_bin201_OLKDIBOK_00172	CDS	artP		Arginine-binding extracellular protein ArtP
OLKDIBOK_00232	26.37744	25.97399	26.81323	26.86124	27.34866	27.342399999999998	27.334750000000003	27.569499999999998				5	1	5,0378E-27	dRep_bin143_PFLDJMPF_00290;dRep_bin293_MEPKGOAN_01524;dRep_bin347_EKGCMFPD_01183;dRep_bin201_OLKDIBOK_00232;dRep_bin031_BNHMFOII_00394;dRep_bin344_CJJBDGAA_02115;dRep_bin303_DDDNDJCF_01571;dRep_bin027_OFJCHLJJ_00404;dRep_bin339_DBNBAHDK_00300;dRep_bin049_MNFBDPNO_01583;dRep_bin350_EKOOEEGH_01042;dRep_bin277_MIPNGEJE_00279;dRep_bin309_BIOHLCGG_01215;dRep_bin247_EKGBJCBM_01321;dRep_bin115_IFKGOGCL_01117;dRep_bin056_EMNHHOJA_00506;dRep_bin048_PABMBHAL_01302;dRep_bin253_CPMOAOBJ_00269;dRep_bin335_JIOGNAPG_01506;dRep_bin310_IMBAFDIF_00163;dRep_bin139_KGAJINND_00868;dRep_bin019_MOJEPLJF_01034;dRep_bin005_CNDFPKJG_00855;dRep_bin144_NPHACCKF_00198;dRep_bin094_LBLICAAO_01300;dRep_bin278_BFCONKOE_00967	dRep_bin143_PFLDJMPF_00290;dRep_bin293_MEPKGOAN_01524;dRep_bin347_EKGCMFPD_01183;dRep_bin201_OLKDIBOK_00232;dRep_bin031_BNHMFOII_00394;dRep_bin344_CJJBDGAA_02115;dRep_bin303_DDDNDJCF_01571;dRep_bin027_OFJCHLJJ_00404;dRep_bin339_DBNBAHDK_00300;dRep_bin049_MNFBDPNO_01583	>dRep_bin143_PFLDJMPF_00290 Serine--tRNA ligase;>dRep_bin293_MEPKGOAN_01524 Serine--tRNA ligase;>dRep_bin347_EKGCMFPD_01183 Serine--tRNA ligase;>dRep_bin201_OLKDIBOK_00232 Serine--tRNA ligase;>dRep_bin031_BNHMFOII_00394 Serine--tRNA ligase;>dRep_bin344_CJJ	dRep_bin201_OLKDIBOK_00232	CDS	serS	6.1.1.11	Serine--tRNA ligase
OLKDIBOK_00246					26.13972	24.420599999999997	24.54357	24.26205				3	3	3,4496E-23	dRep_bin201_OLKDIBOK_00246	dRep_bin201_OLKDIBOK_00246	>dRep_bin201_OLKDIBOK_00246 Leucine-, isoleucine-, valine-, threonine-, and alanine-binding protein	dRep_bin201_OLKDIBOK_00246	CDS	braC		Leucine-, isoleucine-, valine-, threonine-, and alanine-binding protein
OLKDIBOK_00261	27.40998	26.88681	27.257910000000003	27.90948	28.29452	27.625539999999997	27.690920000000002	27.00335				3	3	1,7796E-83	dRep_bin201_OLKDIBOK_00261	dRep_bin201_OLKDIBOK_00261	>dRep_bin201_OLKDIBOK_00261 Multiple sugar-binding periplasmic receptor ChvE	dRep_bin201_OLKDIBOK_00261	CDS	chvE		Multiple sugar-binding periplasmic receptor ChvE
OLKDIBOK_00303	24.305699999999998	23.91342	25.75509									3	2	4,1957E-08	dRep_bin074_EHAOMODJ_01164;dRep_bin201_OLKDIBOK_00303;dRep_bin339_DBNBAHDK_01396	dRep_bin074_EHAOMODJ_01164	>dRep_bin074_EHAOMODJ_01164 30S ribosomal protein S9	dRep_bin201_OLKDIBOK_00303	CDS	rpsI		30S ribosomal protein S9
OLKDIBOK_00318	30.04492	29.466839999999998	29.162960000000002	29.80893	30.666960000000003	29.27897	29.582409999999996	29.09557				19	8	8,7318E-142	dRep_bin201_OLKDIBOK_00318;dRep_bin332_KAOPCDPF_01251	dRep_bin201_OLKDIBOK_00318	>dRep_bin201_OLKDIBOK_00318 Xylulose-5-phosphate phosphoketolase	dRep_bin201_OLKDIBOK_00318	CDS	xpkA	4.1.2.9	Xylulose-5-phosphate phosphoketolase
OLKDIBOK_00322					21.114580000000004							1	1	0,0010573	dRep_bin201_OLKDIBOK_00322	dRep_bin201_OLKDIBOK_00322	>dRep_bin201_OLKDIBOK_00322 Pyruvate kinase	dRep_bin201_OLKDIBOK_00322	CDS	pyk_1	2.7.1.40	Pyruvate kinase
OLKDIBOK_00328					24.09724	23.38482	24.26492	23.620870000000004				3	3	2,2141E-07	dRep_bin201_OLKDIBOK_00328	dRep_bin201_OLKDIBOK_00328	>dRep_bin201_OLKDIBOK_00328 Alpha-xylosidase	dRep_bin201_OLKDIBOK_00328	CDS	yicI	3.2.1.177	Alpha-xylosidase
OLKDIBOK_00331					26.025489999999998	25.30952	24.82939	26.34147				6	6	7,7787E-62	dRep_bin048_PABMBHAL_01893;dRep_bin124_HIHDFGCL_01237;dRep_bin303_DDDNDJCF_00569;dRep_bin292_JIBLDOOH_02065;dRep_bin260_HELEPKJL_02000;dRep_bin160_EFKMPBOM_00903;dRep_bin007_LNLEAAAN_00317;dRep_bin325_EIIGOGHN_00731;dRep_bin201_OLKDIBOK_00331;dRep_bin167_BLMEBMNN_01052;dRep_bin268_LKMHIMLG_00660;dRep_bin069_EGGEOGDC_01019;dRep_bin344_CJJBDGAA_00578	dRep_bin048_PABMBHAL_01893	>dRep_bin048_PABMBHAL_01893 Choloylglycine hydrolase	dRep_bin201_OLKDIBOK_00331	CDS	cbh	3.5.1.24	Choloylglycine hydrolase
OLKDIBOK_00333				23.63312								4	0	1,2226E-09	dRep_bin167_BLMEBMNN_00598;dRep_bin303_DDDNDJCF_00238;dRep_bin201_OLKDIBOK_00333;dRep_bin123_PJKBFKBB_00889;dRep_bin278_BFCONKOE_00892;dRep_bin243_JDMELKLC_00672;dRep_bin114_FJHJKHGL_00936	dRep_bin167_BLMEBMNN_00598;dRep_bin303_DDDNDJCF_00238;dRep_bin201_OLKDIBOK_00333;dRep_bin123_PJKBFKBB_00889;dRep_bin278_BFCONKOE_00892;dRep_bin243_JDMELKLC_00672;dRep_bin114_FJHJKHGL_00936	>dRep_bin167_BLMEBMNN_00598 ATP synthase subunit beta;>dRep_bin303_DDDNDJCF_00238 ATP synthase subunit beta;>dRep_bin201_OLKDIBOK_00333 ATP synthase subunit beta;>dRep_bin123_PJKBFKBB_00889 ATP synthase subunit beta;>dRep_bin278_BFCONKOE_00892 ATP synthase	dRep_bin201_OLKDIBOK_00333	CDS	atpD_1	3.6.3.14	ATP synthase subunit beta
OLKDIBOK_00335				21.86884								3	1	1,3797E-13	dRep_bin021_AJDDCGJC_00051;dRep_bin252_NDAKLAGD_00826;dRep_bin317_ABPHNCOD_01131;dRep_bin216_JNJMCPHB_01076;dRep_bin272_LGBDGEIM_00618;dRep_bin097_CBBLIPAN_01579;dRep_bin053_OMGNPOOB_00833;dRep_bin337_FHKPNFDB_00090;dRep_bin052_PGOOKKFH_01594;dRep_bin168_HKDILBFE_01015;dRep_bin322_OJELOJOF_01622;dRep_bin220_PILICLLL_01543;dRep_bin055_IBMMJAEE_00610;dRep_bin061_ONFGDLGO_01234;dRep_bin168_HKDILBFE_00368;dRep_bin055_IBMMJAEE_00168;dRep_bin261_FJICAFFM_00490;dRep_bin017_FGFLFOPJ_00414;dRep_bin115_IFKGOGCL_01280;dRep_bin257_JHFDCHCB_01406;dRep_bin323_FBBLPLCG_01600;dRep_bin007_LNLEAAAN_00766;dRep_bin049_MNFBDPNO_00781;dRep_bin333_EFOKIBLA_01149;dRep_bin279_IAEFEPEN_01471;dRep_bin234_ECABPBME_01515;dRep_bin179_HFEIPPPA_02108;dRep_bin023_HGFJFKAI_01527;dRep_bin335_JIOGNAPG_00787;dRep_bin250_NMCAMJIO_00423;dRep_bin158_OGFICEAP_00549;dRep_bin100_CODMOHGB_01341;dRep_bin089_PAJFOJBN_02515;dRep_bin088_DNGPPFDK_01371;dRep_bin081_JDPCKDNP_00684;dRep_bin324_IPNHOHFK_01454;dRep_bin300_MJPPENNL_01260;dRep_bin292_JIBLDOOH_01593;dRep_bin284_DEHKNOBF_00281;dRep_bin282_PKAAPBFP_00934;dRep_bin279_IAEFEPEN_01275;dRep_bin269_PNILGKPH_00152;dRep_bin240_LDBBGJKG_01257;dRep_bin226_NLNLHLLD_00367;dRep_bin209_NKIHFCEN_01541;dRep_bin203_CLFNNOCF_01928;dRep_bin179_HFEIPPPA_00359;dRep_bin167_BLMEBMNN_00233;dRep_bin160_EFKMPBOM_02132;dRep_bin154_JGOKHKLI_02775;dRep_bin133_NOBPDBPA_00727;dRep_bin114_FJHJKHGL_00838;dRep_bin095_HOBNOEEF_00822;dRep_bin075_EPEMMOCL_00939;dRep_bin074_EHAOMODJ_00291;dRep_bin065_DFABHCBI_01203;dRep_bin347_EKGCMFPD_00625;dRep_bin325_EIIGOGHN_00612;dRep_bin310_IMBAFDIF_01359;dRep_bin308_JBPDGLPP_00545;dRep_bin306_FGHMKMMP_01018;dRep_bin297_EDHEEICA_01903;dRep_bin201_OLKDIBOK_00335;dRep_bin186_HJAAFFNP_00409;dRep_bin173_BEBNCADL_00242;dRep_bin169_PNICKJKO_00103;dRep_bin145_KMJJJOEJ_01348;dRep_bin135_HHKACLPM_00566;dRep_bin101_BNDDLDCL_00036;dRep_bin069_EGGEOGDC_01480;dRep_bin062_BOFBFLDA_00487;dRep_bin047_IFFANOMN_01271;dRep_bin042_MMFCLHOO_00308;dRep_bin041_OPKGAAAG_00762;dRep_bin024_OLHDGABE_00679;dRep_bin016_JLGAHGOJ_01831;dRep_bin001_GHHJMDAL_00660;dRep_bin349_AMCJEEEG_00131;dRep_bin312_MJFEFHMP_00833;dRep_bin264_DNFFGNEG_00100;dRep_bin246_MMFBABHK_00297;dRep_bin219_HGPEELLF_00003;dRep_bin174_LJJOKEME_01103;dRep_bin129_GADIAMAA_01409;dRep_bin127_FIPNHBCH_00703;dRep_bin077_DNNBMPMC_01278;dRep_bin030_OGPDLGOC_01790;dRep_bin004_OCHNPJPO_01519;dRep_bin218_ACMPALGF_00968;dRep_bin185_OOOLKACK_00657;dRep_bin181_MKGPMPIA_00538;dRep_bin148_NAJFKJMD_01090;dRep_bin058_GJKCICJN_01056;dRep_bin291_EILOACJB_00579;dRep_bin244_LBFMHLBI_01277;dRep_bin223_PIMCDKJI_01006;dRep_bin204_INMOGLDN_01473;dRep_bin184_MBMMJHKO_00222;dRep_bin302_AHDEPDKG_00621;dRep_bin265_LFKFBJPC_00590;dRep_bin233_BAGKKAOB_00885;dRep_bin188_EJILNMPE_01053;dRep_bin081_JDPCKDNP_01324;dRep_bin318_IEDEJOFJ_00724;dRep_bin144_NPHACCKF_00221;dRep_bin096_GNHMEKPF_00086;dRep_bin344_CJJBDGAA_01489;dRep_bin295_EJGKDKNE_00851;dRep_bin048_PABMBHAL_01507;dRep_bin303_DDDNDJCF_00663;dRep_bin283_NLJJFFAC_01754;dRep_bin201_OLKDIBOK_00523;dRep_bin139_KGAJINND_01276;dRep_bin134_HIAPAODO_01158;dRep_bin094_LBLICAAO_00942;dRep_bin062_BOFBFLDA_00417;dRep_bin336_MPGOKPOL_02385;dRep_bin082_HBEFABJN_00650;dRep_bin125_FADLGGII_00540;dRep_bin334_NAPFFNLD_01195;dRep_bin217_MJCEAEPB_00530;dRep_bin195_DDMDFNOK_00971;dRep_bin060_HNFNENOI_00088;dRep_bin328_GIGKNKPJ_00426;dRep_bin281_OGHLKMAI_01076;dRep_bin197_NHLBHFEI_00626;dRep_bin103_IGJBLKMC_00726;dRep_bin116_CLFDBMOF_00455;dRep_bin332_KAOPCDPF_00448;dRep_bin345_GLPJDLOI_00589;dRep_bin314_KCHFPLIP_00788;dRep_bin128_JPBBHEMA_00693;dRep_bin073_AKBCEHHO_01462;dRep_bin045_GJACFFBC_00428;dRep_bin329_GDOHKPBL_01522;dRep_bin316_FNLHDNEO_00349;dRep_bin307_AOCKHIKF_00400;dRep_bin294_EHJINIDK_01408;dRep_bin289_KALDCNNP_01327;dRep_bin183_FPGIOKBG_00622;dRep_bin098_DDEBHDKK_01308;dRep_bin165_HMDFFMMM_01247;dRep_bin037_GEAOEKHA_01212;dRep_bin256_KEMNAOBC_00113;dRep_bin092_OOJCPDEA_01143;dRep_bin126_PPDNCIBN_00264;dRep_bin090_IPGNHCBJ_00911;dRep_bin215_ABBFGCAF_00280;dRep_bin005_CNDFPKJG_00629;dRep_bin270_GEJAHNCN_01426;dRep_bin116_CLFDBMOF_00686;dRep_bin069_EGGEOGDC_00857;dRep_bin007_LNLEAAAN_01604;dRep_bin057_BNCFHBBO_01159;dRep_bin038_EIGFILKG_00229;dRep_bin114_FJHJKHGL_00934;dRep_bin152_LJMCIADF_00045;dRep_bin322_OJELOJOF_00826;dRep_bin266_JFOCEDAE_00030;dRep_bin194_MEPDOGGJ_01235;dRep_bin079_GAOGCKND_01437;dRep_bin068_ENOLAELK_01387;dRep_bin025_CBEJJMLE_00917;dRep_bin240_LDBBGJKG_00802;dRep_bin347_EKGCMFPD_01498;dRep_bin167_BLMEBMNN_00596;dRep_bin160_EFKMPBOM_02114;dRep_bin260_HELEPKJL_02017;dRep_bin091_MAFACGAD_00797;dRep_bin099_DNDAGJEJ_01471;dRep_bin278_BFCONKOE_01179;dRep_bin168_HKDILBFE_00397;dRep_bin284_DEHKNOBF_00737;dRep_bin001_GHHJMDAL_01209;dRep_bin236_BNONDECB_00531;dRep_bin286_OEMIJKMC_01078;dRep_bin231_CFOLMJBA_00464;dRep_bin193_GDMDPNNM_00224;dRep_bin172_ALNHGLMD_01787;dRep_bin182_EMCFODCD_00065;dRep_bin044_IPFKHAEF_00183	dRep_bin021_AJDDCGJC_00051;dRep_bin252_NDAKLAGD_00826;dRep_bin317_ABPHNCOD_01131;dRep_bin216_JNJMCPHB_01076;dRep_bin272_LGBDGEIM_00618;dRep_bin097_CBBLIPAN_01579;dRep_bin053_OMGNPOOB_00833;dRep_bin337_FHKPNFDB_00090;dRep_bin052_PGOOKKFH_01594	>dRep_bin021_AJDDCGJC_00051 ATP synthase subunit alpha;>dRep_bin252_NDAKLAGD_00826 ATP synthase subunit alpha;>dRep_bin317_ABPHNCOD_01131 ATP synthase subunit alpha;>dRep_bin216_JNJMCPHB_01076 ATP synthase subunit alpha;>dRep_bin272_LGBDGEIM_00618 ATP synt	dRep_bin201_OLKDIBOK_00335	CDS	atpA_2	3.6.3.14	ATP synthase subunit alpha
OLKDIBOK_00437								21.28099				2	1	1,6542E-12	dRep_bin201_OLKDIBOK_00437	dRep_bin201_OLKDIBOK_00437	>dRep_bin201_OLKDIBOK_00437 Purine nucleoside phosphorylase DeoD-type	dRep_bin201_OLKDIBOK_00437	CDS	deoD	2.4.2.1	Purine nucleoside phosphorylase DeoD-type
OLKDIBOK_00443	22.47507											2	2	9,1638E-15	dRep_bin201_OLKDIBOK_00443	dRep_bin201_OLKDIBOK_00443	>dRep_bin201_OLKDIBOK_00443 Membrane lipoprotein TmpC	dRep_bin201_OLKDIBOK_00443	CDS	tmpC_1		Membrane lipoprotein TmpC
OLKDIBOK_00470								25.607550000000003				2	2	0,0001669	dRep_bin201_OLKDIBOK_00470;dRep_bin167_BLMEBMNN_00889;dRep_bin203_CLFNNOCF_00231;dRep_bin335_JIOGNAPG_01017;dRep_bin284_DEHKNOBF_00331;dRep_bin220_PILICLLL_01670;dRep_bin139_KGAJINND_00985;dRep_bin160_EFKMPBOM_00479;dRep_bin154_JGOKHKLI_00231;dRep_bin310_IMBAFDIF_01111	dRep_bin201_OLKDIBOK_00470;dRep_bin167_BLMEBMNN_00889;dRep_bin203_CLFNNOCF_00231;dRep_bin335_JIOGNAPG_01017;dRep_bin284_DEHKNOBF_00331;dRep_bin220_PILICLLL_01670;dRep_bin139_KGAJINND_00985;dRep_bin160_EFKMPBOM_00479;dRep_bin154_JGOKHKLI_00231;dRep_bin310_IMBAFDIF_01111	>dRep_bin201_OLKDIBOK_00470 Cytidylate kinase;>dRep_bin167_BLMEBMNN_00889 Cytidylate kinase;>dRep_bin203_CLFNNOCF_00231 Cytidylate kinase;>dRep_bin335_JIOGNAPG_01017 Cytidylate kinase;>dRep_bin284_DEHKNOBF_00331 Cytidylate kinase;>dRep_bin220_PILICLLL_0167	dRep_bin201_OLKDIBOK_00470	CDS	cmk_2	2.7.4.25	Cytidylate kinase
OLKDIBOK_00486				26.368709999999997								4	2	1,0849E-12	dRep_bin292_JIBLDOOH_01063;dRep_bin041_OPKGAAAG_01075;dRep_bin209_NKIHFCEN_01331;dRep_bin269_PNILGKPH_00386;dRep_bin039_IJNOFOJK_00028;dRep_bin324_IPNHOHFK_01206;dRep_bin300_MJPPENNL_00977;dRep_bin279_IAEFEPEN_01295;dRep_bin344_CJJBDGAA_00875;dRep_bin328_GIGKNKPJ_01713;dRep_bin308_JBPDGLPP_01081;dRep_bin303_DDDNDJCF_01452;dRep_bin260_HELEPKJL_01814;dRep_bin240_LDBBGJKG_01949;dRep_bin211_LGJEFJIK_01488;dRep_bin201_OLKDIBOK_00486;dRep_bin186_HJAAFFNP_00498;dRep_bin161_JMKPMHCO_00510;dRep_bin140_ACFAKGIL_00966;dRep_bin139_KGAJINND_01935;dRep_bin127_FIPNHBCH_01109;dRep_bin091_MAFACGAD_00938;dRep_bin069_EGGEOGDC_00173;dRep_bin065_DFABHCBI_01020;dRep_bin062_BOFBFLDA_00118;dRep_bin024_OLHDGABE_00006;dRep_bin016_JLGAHGOJ_01717;dRep_bin347_EKGCMFPD_00813;dRep_bin332_KAOPCDPF_00718;dRep_bin322_OJELOJOF_01104;dRep_bin310_IMBAFDIF_01100;dRep_bin306_FGHMKMMP_01495;dRep_bin282_PKAAPBFP_00123;dRep_bin266_JFOCEDAE_01441;dRep_bin249_OFIIEIDJ_00818;dRep_bin248_CCDFPECI_00304;dRep_bin234_ECABPBME_02078;dRep_bin181_MKGPMPIA_00013;dRep_bin160_EFKMPBOM_00454;dRep_bin158_OGFICEAP_01438;dRep_bin154_JGOKHKLI_00210;dRep_bin145_KMJJJOEJ_01040;dRep_bin135_HHKACLPM_01477;dRep_bin107_EFNBPDOP_01455;dRep_bin089_PAJFOJBN_01775;dRep_bin081_JDPCKDNP_00410;dRep_bin077_DNNBMPMC_01401;dRep_bin075_EPEMMOCL_00061;dRep_bin027_OFJCHLJJ_01614;dRep_bin023_HGFJFKAI_00593;dRep_bin019_MOJEPLJF_00571;dRep_bin007_LNLEAAAN_01143;dRep_bin005_CNDFPKJG_01435;dRep_bin001_GHHJMDAL_01190	dRep_bin292_JIBLDOOH_01063;dRep_bin041_OPKGAAAG_01075;dRep_bin209_NKIHFCEN_01331;dRep_bin269_PNILGKPH_00386;dRep_bin039_IJNOFOJK_00028;dRep_bin324_IPNHOHFK_01206;dRep_bin300_MJPPENNL_00977;dRep_bin279_IAEFEPEN_01295	>dRep_bin292_JIBLDOOH_01063 50S ribosomal protein L21;>dRep_bin041_OPKGAAAG_01075 50S ribosomal protein L21;>dRep_bin209_NKIHFCEN_01331 50S ribosomal protein L21;>dRep_bin269_PNILGKPH_00386 50S ribosomal protein L21;>dRep_bin039_IJNOFOJK_00028 50S ribosoma	dRep_bin201_OLKDIBOK_00486	CDS	rplU		50S ribosomal protein L21
OLKDIBOK_00506							23.335250000000002					1	1	8,8053E-05	dRep_bin201_OLKDIBOK_00506	dRep_bin201_OLKDIBOK_00506	>dRep_bin201_OLKDIBOK_00506 Glycogen biosynthesis protein GlgD	dRep_bin201_OLKDIBOK_00506	CDS	glgD		Glycogen biosynthesis protein GlgD
OLKDIBOK_00507					27.648629999999997			24.41912				2	2	1,1372E-14	dRep_bin201_OLKDIBOK_00507	dRep_bin201_OLKDIBOK_00507	>dRep_bin201_OLKDIBOK_00507 General stress protein CTC	dRep_bin201_OLKDIBOK_00507	CDS	ctc		General stress protein CTC
OLKDIBOK_00520	25.59958											1	1	4,4137E-05	dRep_bin344_CJJBDGAA_01486;dRep_bin220_PILICLLL_00038;dRep_bin139_KGAJINND_01279;dRep_bin134_HIAPAODO_01161;dRep_bin062_BOFBFLDA_00414;dRep_bin019_MOJEPLJF_01365;dRep_bin201_OLKDIBOK_00520	dRep_bin344_CJJBDGAA_01486;dRep_bin220_PILICLLL_00038;dRep_bin139_KGAJINND_01279;dRep_bin134_HIAPAODO_01161;dRep_bin062_BOFBFLDA_00414;dRep_bin019_MOJEPLJF_01365;dRep_bin201_OLKDIBOK_00520	>dRep_bin344_CJJBDGAA_01486 ATP synthase subunit c, sodium ion specific;>dRep_bin220_PILICLLL_00038 ATP synthase subunit c, sodium ion specific;>dRep_bin139_KGAJINND_01279 ATP synthase subunit c, sodium ion specific;>dRep_bin134_HIAPAODO_01161 ATP synthase	dRep_bin201_OLKDIBOK_00520	CDS	atpE_3		ATP synthase subunit c, sodium ion specific
OLKDIBOK_00525								22.45179				4	0	6,4263E-19	dRep_bin348_LCLFDNEE_01056;dRep_bin201_OLKDIBOK_00525;dRep_bin134_HIAPAODO_01156;dRep_bin220_PILICLLL_01541;dRep_bin139_KGAJINND_01274;dRep_bin062_BOFBFLDA_00419;dRep_bin019_MOJEPLJF_00009;dRep_bin344_CJJBDGAA_00530;dRep_bin243_JDMELKLC_01162;dRep_bin173_BEBNCADL_00240	dRep_bin348_LCLFDNEE_01056;dRep_bin201_OLKDIBOK_00525;dRep_bin134_HIAPAODO_01156;dRep_bin220_PILICLLL_01541;dRep_bin139_KGAJINND_01274;dRep_bin062_BOFBFLDA_00419;dRep_bin019_MOJEPLJF_00009;dRep_bin344_CJJBDGAA_00530;dRep_bin243_JDMELKLC_01162	>dRep_bin348_LCLFDNEE_01056 ATP synthase subunit beta;>dRep_bin201_OLKDIBOK_00525 ATP synthase subunit beta;>dRep_bin134_HIAPAODO_01156 ATP synthase subunit beta;>dRep_bin220_PILICLLL_01541 ATP synthase subunit beta;>dRep_bin139_KGAJINND_01274 ATP synthase	dRep_bin201_OLKDIBOK_00525	CDS	atpD_2	3.6.3.14	ATP synthase subunit beta
OLKDIBOK_00536			22.59667									2	2	0,00094076	dRep_bin201_OLKDIBOK_00536	dRep_bin201_OLKDIBOK_00536	>dRep_bin201_OLKDIBOK_00536 Glutathione-binding protein GsiB	dRep_bin201_OLKDIBOK_00536	CDS	gsiB		Glutathione-binding protein GsiB
OLKDIBOK_00577					25.158							3	3	1,2414E-07	dRep_bin201_OLKDIBOK_00577;dRep_bin115_IFKGOGCL_02473;dRep_bin247_EKGBJCBM_01258;dRep_bin161_JMKPMHCO_00071;dRep_bin250_NMCAMJIO_00285;dRep_bin124_HIHDFGCL_01631;dRep_bin154_JGOKHKLI_01454;dRep_bin146_LCCIBLJG_00619;dRep_bin106_BKDHGPBE_00808;dRep_bin106_BKDHGPBE_00753;dRep_bin344_CJJBDGAA_01388;dRep_bin325_EIIGOGHN_00333;dRep_bin260_HELEPKJL_00743;dRep_bin220_PILICLLL_01598;dRep_bin145_KMJJJOEJ_00848;dRep_bin139_KGAJINND_00377;dRep_bin115_IFKGOGCL_01096;dRep_bin095_HOBNOEEF_01156;dRep_bin081_JDPCKDNP_01298;dRep_bin047_IFFANOMN_00086;dRep_bin016_JLGAHGOJ_00176;dRep_bin322_OJELOJOF_00203;dRep_bin234_ECABPBME_02273;dRep_bin075_EPEMMOCL_00967;dRep_bin005_CNDFPKJG_01245;dRep_bin310_IMBAFDIF_01047;dRep_bin287_DONBGKDH_00172;dRep_bin089_PAJFOJBN_01160;dRep_bin158_OGFICEAP_00810	dRep_bin201_OLKDIBOK_00577	>dRep_bin201_OLKDIBOK_00577 S-adenosylmethionine synthase	dRep_bin201_OLKDIBOK_00577	CDS	metK	2.5.1.6	S-adenosylmethionine synthase
OLKDIBOK_00624					24.160850000000003							3	3	5,2074E-56	dRep_bin201_OLKDIBOK_00624;dRep_bin081_JDPCKDNP_00661	dRep_bin201_OLKDIBOK_00624;dRep_bin081_JDPCKDNP_00661	>dRep_bin201_OLKDIBOK_00624 hypothetical protein;>dRep_bin081_JDPCKDNP_00661 hypothetical protein	dRep_bin201_OLKDIBOK_00624	CDS			hypothetical protein
OLKDIBOK_00627					24.979239999999997	23.76709	24.09949	23.342319999999997				4	3	7,8321E-08	dRep_bin201_OLKDIBOK_00627	dRep_bin201_OLKDIBOK_00627	>dRep_bin201_OLKDIBOK_00627 Fructose-bisphosphate aldolase	dRep_bin201_OLKDIBOK_00627	CDS	fda	4.1.2.13	Fructose-bisphosphate aldolase
OLKDIBOK_00645	26.43422	26.80329	26.201739999999997		27.1882	26.07967						1	1	1,5041E-11	dRep_bin303_DDDNDJCF_01608;dRep_bin266_JFOCEDAE_01454;dRep_bin201_OLKDIBOK_00645;dRep_bin158_OGFICEAP_01186;dRep_bin310_IMBAFDIF_00476;dRep_bin248_CCDFPECI_01720;dRep_bin220_PILICLLL_00944;dRep_bin145_KMJJJOEJ_00665	dRep_bin303_DDDNDJCF_01608;dRep_bin266_JFOCEDAE_01454;dRep_bin201_OLKDIBOK_00645;dRep_bin158_OGFICEAP_01186;dRep_bin310_IMBAFDIF_00476;dRep_bin248_CCDFPECI_01720;dRep_bin220_PILICLLL_00944;dRep_bin145_KMJJJOEJ_00665	>dRep_bin303_DDDNDJCF_01608 30S ribosomal protein S18;>dRep_bin266_JFOCEDAE_01454 30S ribosomal protein S18;>dRep_bin201_OLKDIBOK_00645 30S ribosomal protein S18;>dRep_bin158_OGFICEAP_01186 30S ribosomal protein S18;>dRep_bin310_IMBAFDIF_00476 30S ribosoma	dRep_bin201_OLKDIBOK_00645	CDS	rpsR		30S ribosomal protein S18
OLKDIBOK_00646					25.97609	25.646970000000003		25.20307				2	2	1,4949E-05	dRep_bin201_OLKDIBOK_00646;dRep_bin220_PILICLLL_00943;dRep_bin303_DDDNDJCF_01607	dRep_bin201_OLKDIBOK_00646;dRep_bin220_PILICLLL_00943;dRep_bin303_DDDNDJCF_01607	>dRep_bin201_OLKDIBOK_00646 Single-stranded DNA-binding protein;>dRep_bin220_PILICLLL_00943 Single-stranded DNA-binding protein;>dRep_bin303_DDDNDJCF_01607 Single-stranded DNA-binding protein	dRep_bin201_OLKDIBOK_00646	CDS	ssb		Single-stranded DNA-binding protein
OLKDIBOK_00669					24.448529999999995	23.15033	23.262129999999996	23.47816				5	1	9,3914E-26	dRep_bin201_OLKDIBOK_00669;dRep_bin081_JDPCKDNP_02088;dRep_bin133_NOBPDBPA_03966;dRep_bin335_JIOGNAPG_01044;dRep_bin292_JIBLDOOH_01869;dRep_bin240_LDBBGJKG_02054;dRep_bin220_PILICLLL_00565;dRep_bin261_FJICAFFM_00387;dRep_bin257_JHFDCHCB_02440;dRep_bin019_MOJEPLJF_01205;dRep_bin201_OLKDIBOK_01983	dRep_bin201_OLKDIBOK_00669;dRep_bin081_JDPCKDNP_02088;dRep_bin133_NOBPDBPA_03966;dRep_bin335_JIOGNAPG_01044	>dRep_bin201_OLKDIBOK_00669 Hydroxylamine reductase;>dRep_bin081_JDPCKDNP_02088 Hydroxylamine reductase;>dRep_bin133_NOBPDBPA_03966 Hydroxylamine reductase;>dRep_bin335_JIOGNAPG_01044 Hydroxylamine reductase	dRep_bin201_OLKDIBOK_00669	CDS	hcp_1	1.7.99.1	Hydroxylamine reductase
OLKDIBOK_00671					24.48185			23.7167				2	2	0,00094783	dRep_bin201_OLKDIBOK_00671;dRep_bin303_DDDNDJCF_00866;dRep_bin248_CCDFPECI_01658;dRep_bin139_KGAJINND_00391;dRep_bin220_PILICLLL_01918;dRep_bin310_IMBAFDIF_00780;dRep_bin095_HOBNOEEF_00045;dRep_bin145_KMJJJOEJ_01009	dRep_bin201_OLKDIBOK_00671;dRep_bin303_DDDNDJCF_00866;dRep_bin248_CCDFPECI_01658;dRep_bin139_KGAJINND_00391;dRep_bin220_PILICLLL_01918;dRep_bin310_IMBAFDIF_00780;dRep_bin095_HOBNOEEF_00045;dRep_bin145_KMJJJOEJ_01009	>dRep_bin201_OLKDIBOK_00671 Acetolactate synthase isozyme 3 small subunit;>dRep_bin303_DDDNDJCF_00866 Acetolactate synthase isozyme 3 small subunit;>dRep_bin248_CCDFPECI_01658 Acetolactate synthase isozyme 3 small subunit;>dRep_bin139_KGAJINND_00391 Acetol	dRep_bin201_OLKDIBOK_00671	CDS	ilvH_1	2.2.1.6	Acetolactate synthase isozyme 3 small subunit
OLKDIBOK_00687	23.27483	21.157460000000004	20.63547	21.697020000000002	23.716910000000002	21.327840000000002		20.953619999999997				1	1	0,00031437	dRep_bin201_OLKDIBOK_00687	dRep_bin201_OLKDIBOK_00687	>dRep_bin201_OLKDIBOK_00687 FMN reductase [NAD(P)H]	dRep_bin201_OLKDIBOK_00687	CDS	nfrA2	1.5.1.39	FMN reductase [NAD(P)H]
OLKDIBOK_00766	22.03413											1	1	2,1313E-06	dRep_bin201_OLKDIBOK_00766	dRep_bin201_OLKDIBOK_00766	>dRep_bin201_OLKDIBOK_00766 Cytosol non-specific dipeptidase	dRep_bin201_OLKDIBOK_00766	CDS	pepD	3.4.13.18	Cytosol non-specific dipeptidase
OLKDIBOK_00769							27.34308	25.94015				3	1	1,8891E-41	dRep_bin201_OLKDIBOK_00769;dRep_bin347_EKGCMFPD_01623	dRep_bin201_OLKDIBOK_00769;dRep_bin347_EKGCMFPD_01623	>dRep_bin201_OLKDIBOK_00769 Putrescine aminotransferase;>dRep_bin347_EKGCMFPD_01623 Putrescine aminotransferase	dRep_bin201_OLKDIBOK_00769	CDS	patA_1	2.6.1.82	Putrescine aminotransferase
OLKDIBOK_00798			23.262129999999996									1	1	1,124E-05	dRep_bin325_EIIGOGHN_00455;dRep_bin287_DONBGKDH_01891;dRep_bin260_HELEPKJL_00793;dRep_bin095_HOBNOEEF_02183;dRep_bin023_HGFJFKAI_00898;dRep_bin226_NLNLHLLD_01485;dRep_bin041_OPKGAAAG_02051;dRep_bin062_BOFBFLDA_01385;dRep_bin181_MKGPMPIA_01332;dRep_bin269_PNILGKPH_01447;dRep_bin282_PKAAPBFP_01100;dRep_bin261_FJICAFFM_01242;dRep_bin203_CLFNNOCF_00622;dRep_bin234_ECABPBME_01964;dRep_bin007_LNLEAAAN_01741;dRep_bin335_JIOGNAPG_00799;dRep_bin309_BIOHLCGG_01161;dRep_bin160_EFKMPBOM_00129;dRep_bin154_JGOKHKLI_00545;dRep_bin133_NOBPDBPA_03678;dRep_bin089_PAJFOJBN_00292;dRep_bin019_MOJEPLJF_01283;dRep_bin134_HIAPAODO_00643;dRep_bin024_OLHDGABE_01143;dRep_bin005_CNDFPKJG_01361;dRep_bin209_NKIHFCEN_00699;dRep_bin179_HFEIPPPA_01887;dRep_bin157_JPNIKEKI_01833;dRep_bin107_EFNBPDOP_00671;dRep_bin077_DNNBMPMC_00160;dRep_bin039_IJNOFOJK_00262;dRep_bin016_JLGAHGOJ_00401;dRep_bin344_CJJBDGAA_00564;dRep_bin324_IPNHOHFK_02103;dRep_bin249_OFIIEIDJ_01493;dRep_bin139_KGAJINND_00448;dRep_bin081_JDPCKDNP_01186;dRep_bin319_PBDBJGCJ_01293;dRep_bin279_IAEFEPEN_01252;dRep_bin220_PILICLLL_00969;dRep_bin201_OLKDIBOK_00798;dRep_bin293_MEPKGOAN_01317;dRep_bin292_JIBLDOOH_01431;dRep_bin027_OFJCHLJJ_01511;dRep_bin347_EKGCMFPD_00408;dRep_bin211_LGJEFJIK_00568	dRep_bin325_EIIGOGHN_00455;dRep_bin287_DONBGKDH_01891;dRep_bin260_HELEPKJL_00793;dRep_bin095_HOBNOEEF_02183;dRep_bin023_HGFJFKAI_00898;dRep_bin226_NLNLHLLD_01485;dRep_bin041_OPKGAAAG_02051;dRep_bin062_BOFBFLDA_01385;dRep_bin181_MKGPMPIA_01332;dRep_bin269_PNILGKPH_01447;dRep_bin282_PKAAPBFP_01100;dRep_bin261_FJICAFFM_01242;dRep_bin203_CLFNNOCF_00622;dRep_bin234_ECABPBME_01964;dRep_bin007_LNLEAAAN_01741;dRep_bin335_JIOGNAPG_00799;dRep_bin309_BIOHLCGG_01161;dRep_bin160_EFKMPBOM_00129;dRep_bin154_JGOKHKLI_00545;dRep_bin133_NOBPDBPA_03678;dRep_bin089_PAJFOJBN_00292;dRep_bin019_MOJEPLJF_01283;dRep_bin134_HIAPAODO_00643;dRep_bin024_OLHDGABE_01143;dRep_bin005_CNDFPKJG_01361;dRep_bin209_NKIHFCEN_00699;dRep_bin179_HFEIPPPA_01887;dRep_bin157_JPNIKEKI_01833;dRep_bin107_EFNBPDOP_00671;dRep_bin077_DNNBMPMC_00160;dRep_bin039_IJNOFOJK_00262;dRep_bin016_JLGAHGOJ_00401;dRep_bin344_CJJBDGAA_00564;dRep_bin324_IPNHOHFK_02103;dRep_bin249_OFIIEIDJ_01493;dRep_bin139_KGAJINND_00448;dRep_bin081_JDPCKDNP_01186;dRep_bin319_PBDBJGCJ_01293;dRep_bin279_IAEFEPEN_01252;dRep_bin220_PILICLLL_00969;dRep_bin201_OLKDIBOK_00798;dRep_bin293_MEPKGOAN_01317;dRep_bin292_JIBLDOOH_01431;dRep_bin027_OFJCHLJJ_01511;dRep_bin347_EKGCMFPD_00408;dRep_bin211_LGJEFJIK_00568	>dRep_bin325_EIIGOGHN_00455 Valine--tRNA ligase;>dRep_bin287_DONBGKDH_01891 Valine--tRNA ligase;>dRep_bin260_HELEPKJL_00793 Valine--tRNA ligase;>dRep_bin095_HOBNOEEF_02183 Valine--tRNA ligase;>dRep_bin023_HGFJFKAI_00898 Valine--tRNA ligase;>dRep_bin226_NLN	dRep_bin201_OLKDIBOK_00798	CDS	valS	6.1.1.9	Valine--tRNA ligase
OLKDIBOK_00799	25.740419999999997				25.90768	26.017480000000003	24.75939	25.000970000000002				3	3	1,0374E-10	dRep_bin201_OLKDIBOK_00799	dRep_bin201_OLKDIBOK_00799	>dRep_bin201_OLKDIBOK_00799 Putative aminopeptidase YsdC	dRep_bin201_OLKDIBOK_00799	CDS	ysdC	3.4.11.-	Putative aminopeptidase YsdC
OLKDIBOK_00835	26.30734	27.06425										4	4	1,7665E-60	dRep_bin095_HOBNOEEF_02115;dRep_bin201_OLKDIBOK_00835;dRep_bin266_JFOCEDAE_01039	dRep_bin095_HOBNOEEF_02115	>dRep_bin095_HOBNOEEF_02115 putative oxidoreductase YjmC	dRep_bin201_OLKDIBOK_00835	CDS	yjmC	1.1.1.-	putative oxidoreductase YjmC
OLKDIBOK_00839					25.19914			23.65152				1	1	0,00012278	dRep_bin201_OLKDIBOK_00839	dRep_bin201_OLKDIBOK_00839	>dRep_bin201_OLKDIBOK_00839 Uroporphyrinogen decarboxylase (URO-D)	dRep_bin201_OLKDIBOK_00839	CDS			Uroporphyrinogen decarboxylase (URO-D)
OLKDIBOK_00841					25.11239							1	1	0,0069962	dRep_bin201_OLKDIBOK_00841	dRep_bin201_OLKDIBOK_00841	>dRep_bin201_OLKDIBOK_00841 Methionine synthase	dRep_bin201_OLKDIBOK_00841	CDS	metH_2	2.1.1.13	Methionine synthase
OLKDIBOK_00863					24.407429999999998							1	1	0,0071401	dRep_bin201_OLKDIBOK_00863	dRep_bin201_OLKDIBOK_00863	>dRep_bin201_OLKDIBOK_00863 4-hydroxy-tetrahydrodipicolinate synthase	dRep_bin201_OLKDIBOK_00863	CDS	dapA	4.3.3.7	4-hydroxy-tetrahydrodipicolinate synthase
OLKDIBOK_00892	30.39968	29.67538	30.44717	30.425219999999996	31.260639999999995	30.57172	30.795209999999997	30.47431				23	12	0	dRep_bin201_OLKDIBOK_00892;dRep_bin278_BFCONKOE_00457	dRep_bin201_OLKDIBOK_00892	>dRep_bin201_OLKDIBOK_00892 Pyruvate synthase	dRep_bin201_OLKDIBOK_00892	CDS	por_1	1.2.7.1	Pyruvate synthase
OLKDIBOK_00906					21.08738							1	1	2,2489E-06	dRep_bin201_OLKDIBOK_00906	dRep_bin201_OLKDIBOK_00906	>dRep_bin201_OLKDIBOK_00906 1,3-propanediol dehydrogenase	dRep_bin201_OLKDIBOK_00906	CDS	dhaT	1.1.1.202	1,3-propanediol dehydrogenase
OLKDIBOK_00909					26.548289999999998	25.53451		25.16423				6	1	3,0639E-45	dRep_bin201_OLKDIBOK_00909	dRep_bin201_OLKDIBOK_00909	>dRep_bin201_OLKDIBOK_00909 Acetylornithine aminotransferase	dRep_bin201_OLKDIBOK_00909	CDS	argD	2.6.1.11	Acetylornithine aminotransferase
OLKDIBOK_00911	27.614420000000003	26.519940000000002	26.69179	27.488459999999996	27.493509999999997	27.34511	26.17041	25.96166				6	2	3,551E-78	dRep_bin201_OLKDIBOK_00911;dRep_bin263_OLEFOGIJ_01371	dRep_bin201_OLKDIBOK_00911	>dRep_bin201_OLKDIBOK_00911 Fructose-bisphosphate aldolase	dRep_bin201_OLKDIBOK_00911	CDS	fba	4.1.2.13	Fructose-bisphosphate aldolase
OLKDIBOK_00912					25.89113	24.019450000000003		25.05026				5	5	1,8843E-25	dRep_bin201_OLKDIBOK_00912	dRep_bin201_OLKDIBOK_00912	>dRep_bin201_OLKDIBOK_00912 L-lactate dehydrogenase P	dRep_bin201_OLKDIBOK_00912	CDS	ldhP	1.1.1.27	L-lactate dehydrogenase P
OLKDIBOK_00919					20.400519999999997							1	1	0,0074778	dRep_bin266_JFOCEDAE_00832;dRep_bin201_OLKDIBOK_00919;dRep_bin134_HIAPAODO_01516;dRep_bin062_BOFBFLDA_00036;dRep_bin047_IFFANOMN_01224;dRep_bin016_JLGAHGOJ_01130;dRep_bin253_CPMOAOBJ_01120;dRep_bin027_OFJCHLJJ_00760	dRep_bin266_JFOCEDAE_00832;dRep_bin201_OLKDIBOK_00919;dRep_bin134_HIAPAODO_01516;dRep_bin062_BOFBFLDA_00036;dRep_bin047_IFFANOMN_01224;dRep_bin016_JLGAHGOJ_01130;dRep_bin253_CPMOAOBJ_01120;dRep_bin027_OFJCHLJJ_00760	>dRep_bin266_JFOCEDAE_00832 Anaerobic sulfite reductase subunit B;>dRep_bin201_OLKDIBOK_00919 Anaerobic sulfite reductase subunit B;>dRep_bin134_HIAPAODO_01516 Anaerobic sulfite reductase subunit B;>dRep_bin062_BOFBFLDA_00036 Anaerobic sulfite reductase su	dRep_bin201_OLKDIBOK_00919	CDS	asrB_1		Anaerobic sulfite reductase subunit B
OLKDIBOK_00931					24.41313							2	1	3,5242E-06	dRep_bin007_LNLEAAAN_01114;dRep_bin134_HIAPAODO_01286;dRep_bin007_LNLEAAAN_00241;dRep_bin072_JOBJPCGA_01278;dRep_bin201_OLKDIBOK_00931;dRep_bin010_MFFFGEGD_00386	dRep_bin007_LNLEAAAN_01114;dRep_bin134_HIAPAODO_01286;dRep_bin007_LNLEAAAN_00241;dRep_bin072_JOBJPCGA_01278;dRep_bin201_OLKDIBOK_00931;dRep_bin010_MFFFGEGD_00386	>dRep_bin007_LNLEAAAN_01114 Right handed beta helix region;>dRep_bin134_HIAPAODO_01286 Right handed beta helix region;>dRep_bin007_LNLEAAAN_00241 Right handed beta helix region;>dRep_bin072_JOBJPCGA_01278 Right handed beta helix region;>dRep_bin201_OLKDIBO	dRep_bin201_OLKDIBOK_00931	CDS			Right handed beta helix region
OLKDIBOK_00936	22.803880000000003	23.24625	23.595599999999997	25.77092	24.33538	25.85868	23.93508	24.224860000000003				2	0	4,1229E-07	dRep_bin201_OLKDIBOK_00936;dRep_bin292_JIBLDOOH_01822;dRep_bin056_EMNHHOJA_01539;dRep_bin300_MJPPENNL_01742;dRep_bin287_DONBGKDH_00978;dRep_bin007_LNLEAAAN_01637;dRep_bin026_HNPIIINL_00941;dRep_bin328_GIGKNKPJ_01411;dRep_bin120_EKLBOPNC_01345	dRep_bin201_OLKDIBOK_00936;dRep_bin292_JIBLDOOH_01822;dRep_bin056_EMNHHOJA_01539;dRep_bin300_MJPPENNL_01742;dRep_bin287_DONBGKDH_00978;dRep_bin007_LNLEAAAN_01637;dRep_bin026_HNPIIINL_00941;dRep_bin328_GIGKNKPJ_01411;dRep_bin120_EKLBOPNC_01345	>dRep_bin201_OLKDIBOK_00936 L-glyceraldehyde 3-phosphate reductase;>dRep_bin292_JIBLDOOH_01822 L-glyceraldehyde 3-phosphate reductase;>dRep_bin056_EMNHHOJA_01539 L-glyceraldehyde 3-phosphate reductase;>dRep_bin300_MJPPENNL_01742 L-glyceraldehyde 3-phosphat	dRep_bin201_OLKDIBOK_00936	CDS	gpr_2	1.1.1.-	L-glyceraldehyde 3-phosphate reductase
OLKDIBOK_00954					23.76355							2	2	0,0013414	dRep_bin201_OLKDIBOK_00954	dRep_bin201_OLKDIBOK_00954	>dRep_bin201_OLKDIBOK_00954 Formate dehydrogenase H	dRep_bin201_OLKDIBOK_00954	CDS	fdhF	1.1.99.33	Formate dehydrogenase H
OLKDIBOK_00958	26.80637	25.51977	25.778789999999997	26.38123	28.009719999999998	26.553960000000004	27.124360000000003	26.928519999999995				12	7	1,639E-54	dRep_bin201_OLKDIBOK_00958	dRep_bin201_OLKDIBOK_00958	>dRep_bin201_OLKDIBOK_00958 NADP-specific glutamate dehydrogenase	dRep_bin201_OLKDIBOK_00958	CDS	gdh	1.4.1.4	NADP-specific glutamate dehydrogenase
OLKDIBOK_00973	23.83904	23.32512	21.6793	23.48407	25.34021	22.788519999999995	23.585659999999997	23.26585				5	2	2,7066E-60	dRep_bin201_OLKDIBOK_00973	dRep_bin201_OLKDIBOK_00973	>dRep_bin201_OLKDIBOK_00973 Galactose-1-phosphate uridylyltransferase	dRep_bin201_OLKDIBOK_00973	CDS	galT	2.7.7.12	Galactose-1-phosphate uridylyltransferase
OLKDIBOK_01007		25.886950000000002										4	1	1,5708E-11	dRep_bin220_PILICLLL_02001;dRep_bin201_OLKDIBOK_01007;dRep_bin139_KGAJINND_00406;dRep_bin193_GDMDPNNM_00158;dRep_bin056_EMNHHOJA_00828;dRep_bin026_HNPIIINL_01132	dRep_bin220_PILICLLL_02001	>dRep_bin220_PILICLLL_02001 NAD-dependent malic enzyme	dRep_bin201_OLKDIBOK_01007	CDS		1.1.1.38	NAD-dependent malic enzyme
OLKDIBOK_01011	27.234980000000004	26.3603	26.55293	26.941119999999998	27.848639999999996	26.82226	26.79104	25.45366				9	9	9,2045E-154	dRep_bin201_OLKDIBOK_01011	dRep_bin201_OLKDIBOK_01011	>dRep_bin201_OLKDIBOK_01011 Putative binding protein MsmE	dRep_bin201_OLKDIBOK_01011	CDS	msmE_1		Putative binding protein MsmE
OLKDIBOK_01015	25.157500000000002	25.131200000000003		24.97119	26.461699999999997	24.805529999999997	25.43345	25.317860000000007				8	2	5,8808E-120	dRep_bin201_OLKDIBOK_01015	dRep_bin201_OLKDIBOK_01015	>dRep_bin201_OLKDIBOK_01015 L-arabinose isomerase	dRep_bin201_OLKDIBOK_01015	CDS	araA	5.3.1.4	L-arabinose isomerase
OLKDIBOK_01041						20.02418						1	1	0,0073344	dRep_bin201_OLKDIBOK_01041	dRep_bin201_OLKDIBOK_01041	>dRep_bin201_OLKDIBOK_01041 Phosphoserine phosphatase ThrH	dRep_bin201_OLKDIBOK_01041	CDS	thrH	3.1.3.3	Phosphoserine phosphatase ThrH
OLKDIBOK_01060								21.54076				4	1	5,4014E-11	dRep_bin157_JPNIKEKI_00687;dRep_bin041_OPKGAAAG_00839;dRep_bin209_NKIHFCEN_00752;dRep_bin201_OLKDIBOK_01060	dRep_bin157_JPNIKEKI_00687;dRep_bin041_OPKGAAAG_00839;dRep_bin209_NKIHFCEN_00752;dRep_bin201_OLKDIBOK_01060	>dRep_bin157_JPNIKEKI_00687 Phosphoribosylamine--glycine ligase;>dRep_bin041_OPKGAAAG_00839 Phosphoribosylamine--glycine ligase;>dRep_bin209_NKIHFCEN_00752 Phosphoribosylamine--glycine ligase;>dRep_bin201_OLKDIBOK_01060 Phosphoribosylamine--glycine ligase	dRep_bin201_OLKDIBOK_01060	CDS	purD	6.3.4.13	Phosphoribosylamine--glycine ligase
OLKDIBOK_01132	27.20723	25.51521	25.20359	25.89555	27.491439999999997	24.713350000000002	25.91308	25.429689999999997				9	7	3,8021E-68	dRep_bin201_OLKDIBOK_01132;dRep_bin027_OFJCHLJJ_01603;dRep_bin065_DFABHCBI_01786;dRep_bin306_FGHMKMMP_00427	dRep_bin201_OLKDIBOK_01132	>dRep_bin201_OLKDIBOK_01132 Xylan 1,4-beta-xylosidase	dRep_bin201_OLKDIBOK_01132	CDS	xyl3A_1	3.2.1.37	Xylan 1,4-beta-xylosidase
OLKDIBOK_01146								23.62778				4	1	3,6641E-10	dRep_bin139_KGAJINND_00546;dRep_bin344_CJJBDGAA_00504;dRep_bin269_PNILGKPH_01782;dRep_bin186_HJAAFFNP_01230;dRep_bin160_EFKMPBOM_02028;dRep_bin154_JGOKHKLI_01570;dRep_bin027_OFJCHLJJ_01704;dRep_bin019_MOJEPLJF_00393;dRep_bin095_HOBNOEEF_01900;dRep_bin007_LNLEAAAN_01664;dRep_bin134_HIAPAODO_02032;dRep_bin220_PILICLLL_00626;dRep_bin201_OLKDIBOK_01146;dRep_bin158_OGFICEAP_00831;dRep_bin261_FJICAFFM_00403;dRep_bin347_EKGCMFPD_01461;dRep_bin328_GIGKNKPJ_00617;dRep_bin308_JBPDGLPP_01735;dRep_bin284_DEHKNOBF_00839;dRep_bin254_GJDPFAEA_01844;dRep_bin127_FIPNHBCH_00020;dRep_bin081_JDPCKDNP_00351;dRep_bin065_DFABHCBI_01741;dRep_bin001_GHHJMDAL_00049;dRep_bin335_JIOGNAPG_00092;dRep_bin282_PKAAPBFP_00201;dRep_bin260_HELEPKJL_01120;dRep_bin039_IJNOFOJK_00928;dRep_bin088_DNGPPFDK_00468;dRep_bin248_CCDFPECI_00111;dRep_bin107_EFNBPDOP_01463;dRep_bin077_DNNBMPMC_00533;dRep_bin300_MJPPENNL_00852;dRep_bin279_IAEFEPEN_01391;dRep_bin145_KMJJJOEJ_01298;dRep_bin062_BOFBFLDA_00998;dRep_bin016_JLGAHGOJ_00540;dRep_bin310_IMBAFDIF_00139;dRep_bin115_IFKGOGCL_00786;dRep_bin158_OGFICEAP_00832;dRep_bin066_AJACLPEE_00773;dRep_bin249_OFIIEIDJ_01720;dRep_bin324_IPNHOHFK_00378;dRep_bin287_DONBGKDH_00056;dRep_bin186_HJAAFFNP_01363;dRep_bin181_MKGPMPIA_00052;dRep_bin319_PBDBJGCJ_00396;dRep_bin278_BFCONKOE_00395;dRep_bin024_OLHDGABE_00254;dRep_bin135_HHKACLPM_01039	dRep_bin139_KGAJINND_00546;dRep_bin344_CJJBDGAA_00504;dRep_bin269_PNILGKPH_01782;dRep_bin186_HJAAFFNP_01230;dRep_bin160_EFKMPBOM_02028;dRep_bin154_JGOKHKLI_01570;dRep_bin027_OFJCHLJJ_01704;dRep_bin019_MOJEPLJF_00393;dRep_bin095_HOBNOEEF_01900;dRep_bin007_LNLEAAAN_01664;dRep_bin134_HIAPAODO_02032;dRep_bin220_PILICLLL_00626;dRep_bin201_OLKDIBOK_01146;dRep_bin158_OGFICEAP_00831;dRep_bin261_FJICAFFM_00403;dRep_bin347_EKGCMFPD_01461;dRep_bin328_GIGKNKPJ_00617;dRep_bin308_JBPDGLPP_01735;dRep_bin284_DEHKNOBF_00839;dRep_bin254_GJDPFAEA_01844;dRep_bin127_FIPNHBCH_00020;dRep_bin081_JDPCKDNP_00351;dRep_bin065_DFABHCBI_01741;dRep_bin001_GHHJMDAL_00049;dRep_bin335_JIOGNAPG_00092;dRep_bin282_PKAAPBFP_00201;dRep_bin260_HELEPKJL_01120;dRep_bin039_IJNOFOJK_00928;dRep_bin088_DNGPPFDK_00468;dRep_bin248_CCDFPECI_00111;dRep_bin107_EFNBPDOP_01463;dRep_bin077_DNNBMPMC_00533;dRep_bin300_MJPPENNL_00852;dRep_bin279_IAEFEPEN_01391;dRep_bin145_KMJJJOEJ_01298;dRep_bin062_BOFBFLDA_00998;dRep_bin016_JLGAHGOJ_00540;dRep_bin310_IMBAFDIF_00139	>dRep_bin139_KGAJINND_00546 ATP-dependent 6-phosphofructokinase;>dRep_bin344_CJJBDGAA_00504 ATP-dependent 6-phosphofructokinase;>dRep_bin269_PNILGKPH_01782 ATP-dependent 6-phosphofructokinase;>dRep_bin186_HJAAFFNP_01230 ATP-dependent 6-phosphofructokinase;	dRep_bin201_OLKDIBOK_01146	CDS	pfkA	2.7.1.11	ATP-dependent 6-phosphofructokinase
OLKDIBOK_01197						23.29292	24.82619					5	1	2,5843E-32	dRep_bin134_HIAPAODO_00456;dRep_bin091_MAFACGAD_01531;dRep_bin201_OLKDIBOK_01197;dRep_bin062_BOFBFLDA_00888;dRep_bin186_HJAAFFNP_02080;dRep_bin303_DDDNDJCF_01158;dRep_bin065_DFABHCBI_00856	dRep_bin134_HIAPAODO_00456;dRep_bin091_MAFACGAD_01531;dRep_bin201_OLKDIBOK_01197;dRep_bin062_BOFBFLDA_00888;dRep_bin186_HJAAFFNP_02080;dRep_bin303_DDDNDJCF_01158;dRep_bin065_DFABHCBI_00856	>dRep_bin134_HIAPAODO_00456 Polyribonucleotide nucleotidyltransferase;>dRep_bin091_MAFACGAD_01531 Polyribonucleotide nucleotidyltransferase;>dRep_bin201_OLKDIBOK_01197 Polyribonucleotide nucleotidyltransferase;>dRep_bin062_BOFBFLDA_00888 Polyribonucleotide	dRep_bin201_OLKDIBOK_01197	CDS	pnp	2.7.7.8	Polyribonucleotide nucleotidyltransferase
OLKDIBOK_01220		25.995289999999997										2	1	1,2574E-18	dRep_bin201_OLKDIBOK_01220;dRep_bin187_CLPDGDBG_01463;dRep_bin279_IAEFEPEN_01004	dRep_bin201_OLKDIBOK_01220;dRep_bin187_CLPDGDBG_01463;dRep_bin279_IAEFEPEN_01004	>dRep_bin201_OLKDIBOK_01220 Cellobiose phosphorylase;>dRep_bin187_CLPDGDBG_01463 Cellobiose phosphorylase;>dRep_bin279_IAEFEPEN_01004 Cellobiose phosphorylase	dRep_bin201_OLKDIBOK_01220	CDS	cbpA_1	2.4.1.20	Cellobiose phosphorylase
OLKDIBOK_01233		24.53629	25.0059									2	1	0,00019779	dRep_bin023_HGFJFKAI_01250;dRep_bin099_DNDAGJEJ_01283;dRep_bin248_CCDFPECI_01188;dRep_bin145_KMJJJOEJ_01627;dRep_bin220_PILICLLL_00379;dRep_bin303_DDDNDJCF_01527;dRep_bin254_GJDPFAEA_00295;dRep_bin211_LGJEFJIK_00752;dRep_bin124_HIHDFGCL_01240;dRep_bin091_MAFACGAD_00828;dRep_bin168_HKDILBFE_00712;dRep_bin088_DNGPPFDK_00057;dRep_bin300_MJPPENNL_00870;dRep_bin203_CLFNNOCF_01251;dRep_bin069_EGGEOGDC_00393;dRep_bin344_CJJBDGAA_01938;dRep_bin328_GIGKNKPJ_00733;dRep_bin249_OFIIEIDJ_00615;dRep_bin127_FIPNHBCH_01426;dRep_bin065_DFABHCBI_01328;dRep_bin056_EMNHHOJA_00171;dRep_bin016_JLGAHGOJ_00622;dRep_bin152_LJMCIADF_01306;dRep_bin095_HOBNOEEF_00399;dRep_bin079_GAOGCKND_00062;dRep_bin068_ENOLAELK_00735;dRep_bin026_HNPIIINL_00729;dRep_bin081_JDPCKDNP_00247;dRep_bin201_OLKDIBOK_01233;dRep_bin297_EDHEEICA_00257;dRep_bin308_JBPDGLPP_00521	dRep_bin023_HGFJFKAI_01250;dRep_bin099_DNDAGJEJ_01283;dRep_bin248_CCDFPECI_01188;dRep_bin145_KMJJJOEJ_01627;dRep_bin220_PILICLLL_00379;dRep_bin303_DDDNDJCF_01527;dRep_bin254_GJDPFAEA_00295;dRep_bin211_LGJEFJIK_00752;dRep_bin124_HIHDFGCL_01240;dRep_bin091_MAFACGAD_00828;dRep_bin168_HKDILBFE_00712;dRep_bin088_DNGPPFDK_00057;dRep_bin300_MJPPENNL_00870;dRep_bin203_CLFNNOCF_01251;dRep_bin069_EGGEOGDC_00393;dRep_bin344_CJJBDGAA_01938;dRep_bin328_GIGKNKPJ_00733;dRep_bin249_OFIIEIDJ_00615;dRep_bin127_FIPNHBCH_01426;dRep_bin065_DFABHCBI_01328;dRep_bin056_EMNHHOJA_00171;dRep_bin016_JLGAHGOJ_00622;dRep_bin152_LJMCIADF_01306;dRep_bin095_HOBNOEEF_00399;dRep_bin079_GAOGCKND_00062;dRep_bin068_ENOLAELK_00735;dRep_bin026_HNPIIINL_00729;dRep_bin081_JDPCKDNP_00247;dRep_bin201_OLKDIBOK_01233;dRep_bin297_EDHEEICA_00257;dRep_bin308_JBPDGLPP_00521	>dRep_bin023_HGFJFKAI_01250 Diaminopimelate decarboxylase;>dRep_bin099_DNDAGJEJ_01283 Diaminopimelate decarboxylase;>dRep_bin248_CCDFPECI_01188 Diaminopimelate decarboxylase;>dRep_bin145_KMJJJOEJ_01627 Diaminopimelate decarboxylase;>dRep_bin220_PILICLLL_00	dRep_bin201_OLKDIBOK_01233	CDS	lysA	4.1.1.20	Diaminopimelate decarboxylase
OLKDIBOK_01245	21.12654		21.00922	21.59236	22.34616	21.27969		20.82322				3	2	3,7505E-14	dRep_bin201_OLKDIBOK_01245	dRep_bin201_OLKDIBOK_01245	>dRep_bin201_OLKDIBOK_01245 Glycogen phosphorylase	dRep_bin201_OLKDIBOK_01245	CDS	glgP	2.4.1.1	Glycogen phosphorylase
OLKDIBOK_01253					24.51575							2	2	7,8178E-07	dRep_bin201_OLKDIBOK_01253	dRep_bin201_OLKDIBOK_01253	>dRep_bin201_OLKDIBOK_01253 Uridylate kinase	dRep_bin201_OLKDIBOK_01253	CDS	pyrH	2.7.4.22	Uridylate kinase
OLKDIBOK_01273					25.018050000000002		23.95082	23.96429				1	1	9,9768E-05	dRep_bin272_LGBDGEIM_01669;dRep_bin266_JFOCEDAE_01411;dRep_bin139_KGAJINND_01986;dRep_bin287_DONBGKDH_01167;dRep_bin201_OLKDIBOK_01273	dRep_bin272_LGBDGEIM_01669;dRep_bin266_JFOCEDAE_01411;dRep_bin139_KGAJINND_01986;dRep_bin287_DONBGKDH_01167;dRep_bin201_OLKDIBOK_01273	>dRep_bin272_LGBDGEIM_01669 Electron transport complex subunit RsxB;>dRep_bin266_JFOCEDAE_01411 Electron transport complex subunit RsxB;>dRep_bin139_KGAJINND_01986 Electron transport complex subunit RsxB;>dRep_bin287_DONBGKDH_01167 Electron transport compl	dRep_bin201_OLKDIBOK_01273	CDS	rsxB_3		Electron transport complex subunit RsxB
OLKDIBOK_01281					28.53055	26.905409999999996	27.939719999999998	27.4516				4	3	1,6574E-19	dRep_bin201_OLKDIBOK_01281	dRep_bin201_OLKDIBOK_01281	>dRep_bin201_OLKDIBOK_01281 Diflavin flavoprotein A 1	dRep_bin201_OLKDIBOK_01281	CDS	dfa1	1.-.-.-	Diflavin flavoprotein A 1
OLKDIBOK_01309	26.06739	26.95138	25.7744	27.166339999999998	27.017120000000002	26.53912	27.01744	27.44419				7	1	4,9636E-55	dRep_bin209_NKIHFCEN_00145;dRep_bin300_MJPPENNL_01356;dRep_bin279_IAEFEPEN_00777;dRep_bin069_EGGEOGDC_01214;dRep_bin065_DFABHCBI_01689;dRep_bin292_JIBLDOOH_00391;dRep_bin226_NLNLHLLD_00910;dRep_bin095_HOBNOEEF_01500;dRep_bin041_OPKGAAAG_01855;dRep_bin324_IPNHOHFK_00257;dRep_bin047_IFFANOMN_01252;dRep_bin023_HGFJFKAI_00865;dRep_bin234_ECABPBME_01126;dRep_bin016_JLGAHGOJ_01180;dRep_bin310_IMBAFDIF_01344;dRep_bin297_EDHEEICA_00623;dRep_bin201_OLKDIBOK_01309;dRep_bin248_CCDFPECI_00260;dRep_bin157_JPNIKEKI_00566;dRep_bin240_LDBBGJKG_01099;dRep_bin308_JBPDGLPP_00042;dRep_bin319_PBDBJGCJ_00310;dRep_bin066_AJACLPEE_00006;dRep_bin344_CJJBDGAA_00764;dRep_bin075_EPEMMOCL_01885	dRep_bin209_NKIHFCEN_00145;dRep_bin300_MJPPENNL_01356;dRep_bin279_IAEFEPEN_00777;dRep_bin069_EGGEOGDC_01214;dRep_bin065_DFABHCBI_01689;dRep_bin292_JIBLDOOH_00391;dRep_bin226_NLNLHLLD_00910;dRep_bin095_HOBNOEEF_01500;dRep_bin041_OPKGAAAG_01855;dRep_bin324_IPNHOHFK_00257;dRep_bin047_IFFANOMN_01252;dRep_bin023_HGFJFKAI_00865	>dRep_bin209_NKIHFCEN_00145 Adenylosuccinate synthetase;>dRep_bin300_MJPPENNL_01356 Adenylosuccinate synthetase;>dRep_bin279_IAEFEPEN_00777 Adenylosuccinate synthetase;>dRep_bin069_EGGEOGDC_01214 Adenylosuccinate synthetase;>dRep_bin065_DFABHCBI_01689 Aden	dRep_bin201_OLKDIBOK_01309	CDS	purA	6.3.4.4	Adenylosuccinate synthetase
OLKDIBOK_01319					23.93742			23.47098				3	1	1,1062E-09	dRep_bin243_JDMELKLC_00398;dRep_bin303_DDDNDJCF_00769;dRep_bin282_PKAAPBFP_01679;dRep_bin201_OLKDIBOK_01319;dRep_bin319_PBDBJGCJ_01591;dRep_bin242_LKAIBGGJ_00029;dRep_bin310_IMBAFDIF_01505;dRep_bin260_HELEPKJL_01696;dRep_bin166_DFIAJFEC_00514;dRep_bin147_EJLBNEBE_00361;dRep_bin077_DNNBMPMC_00391;dRep_bin282_PKAAPBFP_00757;dRep_bin041_OPKGAAAG_01476;dRep_bin179_HFEIPPPA_00680;dRep_bin169_PNICKJKO_00497;dRep_bin139_KGAJINND_01602;dRep_bin101_BNDDLDCL_01738;dRep_bin023_HGFJFKAI_01298;dRep_bin160_EFKMPBOM_01956;dRep_bin069_EGGEOGDC_01526	dRep_bin243_JDMELKLC_00398;dRep_bin303_DDDNDJCF_00769;dRep_bin282_PKAAPBFP_01679;dRep_bin201_OLKDIBOK_01319;dRep_bin319_PBDBJGCJ_01591;dRep_bin242_LKAIBGGJ_00029;dRep_bin310_IMBAFDIF_01505;dRep_bin260_HELEPKJL_01696;dRep_bin166_DFIAJFEC_00514;dRep_bin147_EJLBNEBE_00361;dRep_bin077_DNNBMPMC_00391;dRep_bin282_PKAAPBFP_00757;dRep_bin041_OPKGAAAG_01476;dRep_bin179_HFEIPPPA_00680;dRep_bin169_PNICKJKO_00497;dRep_bin139_KGAJINND_01602;dRep_bin101_BNDDLDCL_01738;dRep_bin023_HGFJFKAI_01298;dRep_bin160_EFKMPBOM_01956;dRep_bin069_EGGEOGDC_01526	>dRep_bin243_JDMELKLC_00398 Enolase;>dRep_bin303_DDDNDJCF_00769 Enolase;>dRep_bin282_PKAAPBFP_01679 Enolase;>dRep_bin201_OLKDIBOK_01319 Enolase;>dRep_bin319_PBDBJGCJ_01591 Enolase;>dRep_bin242_LKAIBGGJ_00029 Enolase;>dRep_bin310_IMBAFDIF_01505 Enolase;>dRe	dRep_bin201_OLKDIBOK_01319	CDS	eno_1	4.2.1.11	Enolase
OLKDIBOK_01326	28.009880000000003	27.6076	27.05734	28.21739	28.8797	27.35641	27.568119999999997	27.65854				16	9	2,5095E-211	dRep_bin201_OLKDIBOK_01326	dRep_bin201_OLKDIBOK_01326	>dRep_bin201_OLKDIBOK_01326 Glucose-6-phosphate isomerase	dRep_bin201_OLKDIBOK_01326	CDS	pgi	5.3.1.9	Glucose-6-phosphate isomerase
OLKDIBOK_01356		25.58075										6	0	1,3543E-87	dRep_bin108_BPNCDINP_01326;dRep_bin089_PAJFOJBN_00301;dRep_bin300_MJPPENNL_00939;dRep_bin145_KMJJJOEJ_00792;dRep_bin091_MAFACGAD_01189;dRep_bin049_MNFBDPNO_00324;dRep_bin016_JLGAHGOJ_00954;dRep_bin157_JPNIKEKI_00961;dRep_bin297_EDHEEICA_00222;dRep_bin160_EFKMPBOM_02659;dRep_bin079_GAOGCKND_00457;dRep_bin068_ENOLAELK_00441;dRep_bin101_BNDDLDCL_01290;dRep_bin330_CODAKHDJ_00875;dRep_bin133_NOBPDBPA_00602;dRep_bin299_AKNBKJGM_01294;dRep_bin250_NMCAMJIO_01057;dRep_bin123_PJKBFKBB_00547;dRep_bin272_LGBDGEIM_01628;dRep_bin179_HFEIPPPA_01660;dRep_bin216_JNJMCPHB_01272;dRep_bin201_OLKDIBOK_01356;dRep_bin062_BOFBFLDA_00952;dRep_bin107_EFNBPDOP_00212;dRep_bin077_DNNBMPMC_01832;dRep_bin306_FGHMKMMP_01672;dRep_bin095_HOBNOEEF_00755;dRep_bin159_ADJJGPBG_00425;dRep_bin222_GGCAJABB_01443;dRep_bin310_IMBAFDIF_00623;dRep_bin181_MKGPMPIA_00586;dRep_bin074_EHAOMODJ_00159;dRep_bin073_AKBCEHHO_00467;dRep_bin285_IPHKFJAN_00913;dRep_bin228_CECEDMJG_00322;dRep_bin066_AJACLPEE_00029;dRep_bin276_EHNFLEBP_00509;dRep_bin021_AJDDCGJC_01318;dRep_bin104_EGLEJOLM_00960;dRep_bin327_EPEGNBAG_00068;dRep_bin241_LMMMGDNI_00158	dRep_bin108_BPNCDINP_01326;dRep_bin089_PAJFOJBN_00301;dRep_bin300_MJPPENNL_00939;dRep_bin145_KMJJJOEJ_00792;dRep_bin091_MAFACGAD_01189;dRep_bin049_MNFBDPNO_00324;dRep_bin016_JLGAHGOJ_00954;dRep_bin157_JPNIKEKI_00961;dRep_bin297_EDHEEICA_00222;dRep_bin160_EFKMPBOM_02659;dRep_bin079_GAOGCKND_00457;dRep_bin068_ENOLAELK_00441;dRep_bin101_BNDDLDCL_01290;dRep_bin330_CODAKHDJ_00875;dRep_bin133_NOBPDBPA_00602;dRep_bin299_AKNBKJGM_01294;dRep_bin250_NMCAMJIO_01057;dRep_bin123_PJKBFKBB_00547;dRep_bin272_LGBDGEIM_01628;dRep_bin179_HFEIPPPA_01660;dRep_bin216_JNJMCPHB_01272;dRep_bin201_OLKDIBOK_01356;dRep_bin062_BOFBFLDA_00952;dRep_bin107_EFNBPDOP_00212;dRep_bin077_DNNBMPMC_01832;dRep_bin306_FGHMKMMP_01672;dRep_bin095_HOBNOEEF_00755;dRep_bin159_ADJJGPBG_00425;dRep_bin222_GGCAJABB_01443;dRep_bin310_IMBAFDIF_00623;dRep_bin181_MKGPMPIA_00586;dRep_bin074_EHAOMODJ_00159	>dRep_bin108_BPNCDINP_01326 Pyridoxal 5-phosphate synthase subunit PdxS;>dRep_bin089_PAJFOJBN_00301 Pyridoxal 5-phosphate synthase subunit PdxS;>dRep_bin300_MJPPENNL_00939 Pyridoxal 5-phosphate synthase subunit PdxS;>dRep_bin145_KMJJJOEJ_00792 Pyridoxal	dRep_bin201_OLKDIBOK_01356	CDS	pdxS	4.3.3.6	Pyridoxal 5'-phosphate synthase subunit PdxS
OLKDIBOK_01389				23.11234								1	1	0,0021807	dRep_bin201_OLKDIBOK_01389	dRep_bin201_OLKDIBOK_01389	>dRep_bin201_OLKDIBOK_01389 Intracellular exo-alpha-(1->5)-L-arabinofuranosidase 1	dRep_bin201_OLKDIBOK_01389	CDS	abfA	3.2.1.55	Intracellular exo-alpha-(1->5)-L-arabinofuranosidase 1
OLKDIBOK_01392								19.97281				4	1	5,2793E-19	dRep_bin193_GDMDPNNM_01689;dRep_bin220_PILICLLL_01952;dRep_bin041_OPKGAAAG_00715;dRep_bin254_GJDPFAEA_00837;dRep_bin310_IMBAFDIF_01407;dRep_bin201_OLKDIBOK_01392;dRep_bin039_IJNOFOJK_02171;dRep_bin082_HBEFABJN_01081;dRep_bin339_DBNBAHDK_01799;dRep_bin284_DEHKNOBF_00560;dRep_bin006_HPJGJCAG_01500;dRep_bin154_JGOKHKLI_00516;dRep_bin160_EFKMPBOM_00836	dRep_bin193_GDMDPNNM_01689;dRep_bin220_PILICLLL_01952;dRep_bin041_OPKGAAAG_00715;dRep_bin254_GJDPFAEA_00837;dRep_bin310_IMBAFDIF_01407;dRep_bin201_OLKDIBOK_01392;dRep_bin039_IJNOFOJK_02171;dRep_bin082_HBEFABJN_01081	>dRep_bin193_GDMDPNNM_01689 Oleate hydratase;>dRep_bin220_PILICLLL_01952 Oleate hydratase;>dRep_bin041_OPKGAAAG_00715 Oleate hydratase;>dRep_bin254_GJDPFAEA_00837 Oleate hydratase;>dRep_bin310_IMBAFDIF_01407 Oleate hydratase;>dRep_bin201_OLKDIBOK_01392 Ole	dRep_bin201_OLKDIBOK_01392	CDS		4.2.1.53	Oleate hydratase
OLKDIBOK_01416					28.068299999999997	26.022439999999996	26.34281	26.406599999999997				4	3	3,4857E-13	dRep_bin201_OLKDIBOK_01416	dRep_bin201_OLKDIBOK_01416	>dRep_bin201_OLKDIBOK_01416 O-acetylserine sulfhydrylase	dRep_bin201_OLKDIBOK_01416	CDS	cysK1	2.5.1.47	O-acetylserine sulfhydrylase
OLKDIBOK_01489					25.854930000000003	23.7546		23.77092				6	3	2,6426E-25	dRep_bin201_OLKDIBOK_01489	dRep_bin201_OLKDIBOK_01489	>dRep_bin201_OLKDIBOK_01489 LL-diaminopimelate aminotransferase	dRep_bin201_OLKDIBOK_01489	CDS	dapL	2.6.1.83	LL-diaminopimelate aminotransferase
OLKDIBOK_01636	27.301650000000002	27.3554	25.786409999999997	26.47425	27.128880000000002	26.06345	26.248369999999998	26.356090000000002				4	0	3,7727E-24	dRep_bin201_OLKDIBOK_01636	dRep_bin201_OLKDIBOK_01636	>dRep_bin201_OLKDIBOK_01636 L-ribulose-5-phosphate 4-epimerase UlaF	dRep_bin201_OLKDIBOK_01636	CDS	ulaF	5.1.3.4	L-ribulose-5-phosphate 4-epimerase UlaF
OLKDIBOK_01659	27.036950000000004	26.03509	25.33559	26.64375	27.68719	26.54937	26.49137	26.115910000000003				8	4	4,9005E-101	dRep_bin201_OLKDIBOK_01659	dRep_bin201_OLKDIBOK_01659	>dRep_bin201_OLKDIBOK_01659 Phosphoenolpyruvate carboxykinase (ATP)	dRep_bin201_OLKDIBOK_01659	CDS	pckA	4.1.1.49	Phosphoenolpyruvate carboxykinase (ATP)
OLKDIBOK_01689					24.81563	24.62042	24.26198					6	2	6,5376E-95	dRep_bin201_OLKDIBOK_01689;dRep_bin344_CJJBDGAA_01228	dRep_bin201_OLKDIBOK_01689;dRep_bin344_CJJBDGAA_01228	>dRep_bin201_OLKDIBOK_01689 Trehalose import ATP-binding protein SugC;>dRep_bin344_CJJBDGAA_01228 Trehalose import ATP-binding protein SugC	dRep_bin201_OLKDIBOK_01689	CDS	sugC_2	3.6.3.-	Trehalose import ATP-binding protein SugC
OLKDIBOK_01706								23.15374				1	1	0,00030505	dRep_bin201_OLKDIBOK_01706;dRep_bin139_KGAJINND_01671	dRep_bin201_OLKDIBOK_01706;dRep_bin139_KGAJINND_01671	>dRep_bin201_OLKDIBOK_01706 Hypoxanthine phosphoribosyltransferase;>dRep_bin139_KGAJINND_01671 Hypoxanthine phosphoribosyltransferase	dRep_bin201_OLKDIBOK_01706	CDS	hpt	2.4.2.8	Hypoxanthine phosphoribosyltransferase
OLKDIBOK_01767					26.962679999999995	25.68817	25.920429999999996	26.45596				3	3	2,3728E-09	dRep_bin201_OLKDIBOK_01767;dRep_bin303_DDDNDJCF_00205;dRep_bin287_DONBGKDH_01009	dRep_bin201_OLKDIBOK_01767	>dRep_bin201_OLKDIBOK_01767 Purine-binding protein	dRep_bin201_OLKDIBOK_01767	CDS			Purine-binding protein
OLKDIBOK_01773	31.259850000000004	30.552699999999998	30.693450000000002	30.585669999999997	31.242919999999998	30.45297	31.19319	30.459339999999997				27	9	0	dRep_bin201_OLKDIBOK_01773	dRep_bin201_OLKDIBOK_01773	>dRep_bin201_OLKDIBOK_01773 Carbon monoxide dehydrogenase 1	dRep_bin201_OLKDIBOK_01773	CDS	cooS1	1.2.7.4	Carbon monoxide dehydrogenase 1
OLKDIBOK_01785	28.25741	28.442609999999995	28.23599	28.57449	28.280119999999997	26.83038	27.99696	28.1977				35	9	0	dRep_bin201_OLKDIBOK_01785;dRep_bin062_BOFBFLDA_00821;dRep_bin134_HIAPAODO_02173	dRep_bin201_OLKDIBOK_01785	>dRep_bin201_OLKDIBOK_01785 Pyruvate, phosphate dikinase	dRep_bin201_OLKDIBOK_01785	CDS	ppdK	2.7.9.1	Pyruvate, phosphate dikinase
OLKDIBOK_01789								21.85472				3	1	2,4531E-19	dRep_bin201_OLKDIBOK_01789	dRep_bin201_OLKDIBOK_01789	>dRep_bin201_OLKDIBOK_01789 Glutamate synthase [NADPH] small chain	dRep_bin201_OLKDIBOK_01789	CDS	gltD	1.4.1.13	Glutamate synthase [NADPH] small chain
OLKDIBOK_01790							26.06065					1	1	0,0020144	dRep_bin201_OLKDIBOK_01790	dRep_bin201_OLKDIBOK_01790	>dRep_bin201_OLKDIBOK_01790 Dihydroorotate dehydrogenase B (NAD(+)), electron transfer subunit	dRep_bin201_OLKDIBOK_01790	CDS			Dihydroorotate dehydrogenase B (NAD(+)), electron transfer subunit
OLKDIBOK_01800					25.54345		25.362759999999998					2	2	3,4181E-10	dRep_bin201_OLKDIBOK_01800;dRep_bin297_EDHEEICA_00228;dRep_bin089_PAJFOJBN_01538;dRep_bin324_IPNHOHFK_00230;dRep_bin081_JDPCKDNP_00273;dRep_bin220_PILICLLL_00471	dRep_bin201_OLKDIBOK_01800;dRep_bin297_EDHEEICA_00228;dRep_bin089_PAJFOJBN_01538;dRep_bin324_IPNHOHFK_00230;dRep_bin081_JDPCKDNP_00273;dRep_bin220_PILICLLL_00471	>dRep_bin201_OLKDIBOK_01800 Methionine-binding lipoprotein MetQ;>dRep_bin297_EDHEEICA_00228 Methionine-binding lipoprotein MetQ;>dRep_bin089_PAJFOJBN_01538 Methionine-binding lipoprotein MetQ;>dRep_bin324_IPNHOHFK_00230 Methionine-binding lipoprotein MetQ;	dRep_bin201_OLKDIBOK_01800	CDS	metQ		Methionine-binding lipoprotein MetQ
OLKDIBOK_01842					25.68008	27.02411	25.38281	25.32165				3	3	7,9156E-15	dRep_bin226_NLNLHLLD_00501;dRep_bin041_OPKGAAAG_00618;dRep_bin297_EDHEEICA_00183;dRep_bin269_PNILGKPH_01725;dRep_bin179_HFEIPPPA_00805;dRep_bin157_JPNIKEKI_00808;dRep_bin209_NKIHFCEN_00924;dRep_bin039_IJNOFOJK_00290;dRep_bin344_CJJBDGAA_00560;dRep_bin324_IPNHOHFK_01905;dRep_bin310_IMBAFDIF_00509;dRep_bin303_DDDNDJCF_00255;dRep_bin292_JIBLDOOH_00721;dRep_bin248_CCDFPECI_01503;dRep_bin220_PILICLLL_01871;dRep_bin203_CLFNNOCF_01497;dRep_bin201_OLKDIBOK_01842;dRep_bin158_OGFICEAP_00351;dRep_bin145_KMJJJOEJ_00076;dRep_bin133_NOBPDBPA_03150;dRep_bin115_IFKGOGCL_00616;dRep_bin095_HOBNOEEF_01083;dRep_bin279_IAEFEPEN_01129;dRep_bin306_FGHMKMMP_00759;dRep_bin282_PKAAPBFP_00753;dRep_bin016_JLGAHGOJ_01160;dRep_bin261_FJICAFFM_00017;dRep_bin031_BNHMFOII_01497;dRep_bin325_EIIGOGHN_00625;dRep_bin168_HKDILBFE_01177;dRep_bin099_DNDAGJEJ_00278;dRep_bin335_JIOGNAPG_00120;dRep_bin308_JBPDGLPP_00959;dRep_bin234_ECABPBME_01000;dRep_bin240_LDBBGJKG_01894;dRep_bin167_BLMEBMNN_00117	dRep_bin226_NLNLHLLD_00501;dRep_bin041_OPKGAAAG_00618;dRep_bin297_EDHEEICA_00183;dRep_bin269_PNILGKPH_01725;dRep_bin179_HFEIPPPA_00805;dRep_bin157_JPNIKEKI_00808	>dRep_bin226_NLNLHLLD_00501 ATP-dependent Clp protease proteolytic subunit;>dRep_bin041_OPKGAAAG_00618 ATP-dependent Clp protease proteolytic subunit;>dRep_bin297_EDHEEICA_00183 ATP-dependent Clp protease proteolytic subunit;>dRep_bin269_PNILGKPH_01725 ATP	dRep_bin201_OLKDIBOK_01842	CDS	clpP	3.4.21.92	ATP-dependent Clp protease proteolytic subunit
OLKDIBOK_01863	24.54681		24.82556	24.07912	25.68075	24.960489999999997	25.71652	24.847850000000005				4	2	6,1747E-25	dRep_bin201_OLKDIBOK_01863;dRep_bin310_IMBAFDIF_00705;dRep_bin143_PFLDJMPF_00140;dRep_bin319_PBDBJGCJ_00958;dRep_bin135_HHKACLPM_01053;dRep_bin344_CJJBDGAA_00153;dRep_bin306_FGHMKMMP_01802;dRep_bin234_ECABPBME_01586;dRep_bin089_PAJFOJBN_01484;dRep_bin254_GJDPFAEA_01912;dRep_bin321_EJNAAGJG_00130;dRep_bin273_FGAEBHNP_01256;dRep_bin323_FBBLPLCG_00944;dRep_bin336_MPGOKPOL_02018;dRep_bin147_EJLBNEBE_01335;dRep_bin269_PNILGKPH_01519;dRep_bin287_DONBGKDH_01452;dRep_bin300_MJPPENNL_00258;dRep_bin065_DFABHCBI_01106;dRep_bin017_FGFLFOPJ_00960;dRep_bin226_NLNLHLLD_00912;dRep_bin160_EFKMPBOM_02042;dRep_bin047_IFFANOMN_00584;dRep_bin016_JLGAHGOJ_00526;dRep_bin309_BIOHLCGG_00717;dRep_bin278_BFCONKOE_00391;dRep_bin172_ALNHGLMD_01390	dRep_bin201_OLKDIBOK_01863;dRep_bin310_IMBAFDIF_00705;dRep_bin143_PFLDJMPF_00140;dRep_bin319_PBDBJGCJ_00958;dRep_bin135_HHKACLPM_01053;dRep_bin344_CJJBDGAA_00153;dRep_bin306_FGHMKMMP_01802;dRep_bin234_ECABPBME_01586;dRep_bin089_PAJFOJBN_01484;dRep_bin254_GJDPFAEA_01912;dRep_bin321_EJNAAGJG_00130;dRep_bin273_FGAEBHNP_01256;dRep_bin323_FBBLPLCG_00944;dRep_bin336_MPGOKPOL_02018;dRep_bin147_EJLBNEBE_01335;dRep_bin269_PNILGKPH_01519;dRep_bin287_DONBGKDH_01452;dRep_bin300_MJPPENNL_00258;dRep_bin065_DFABHCBI_01106;dRep_bin017_FGFLFOPJ_00960;dRep_bin226_NLNLHLLD_00912;dRep_bin160_EFKMPBOM_02042;dRep_bin047_IFFANOMN_00584;dRep_bin016_JLGAHGOJ_00526;dRep_bin309_BIOHLCGG_00717;dRep_bin278_BFCONKOE_00391	>dRep_bin201_OLKDIBOK_01863 Lysine--tRNA ligase;>dRep_bin310_IMBAFDIF_00705 Lysine--tRNA ligase;>dRep_bin143_PFLDJMPF_00140 Lysine--tRNA ligase;>dRep_bin319_PBDBJGCJ_00958 Lysine--tRNA ligase;>dRep_bin135_HHKACLPM_01053 Lysine--tRNA ligase;>dRep_bin344_CJJ	dRep_bin201_OLKDIBOK_01863	CDS	lysS	6.1.1.6	Lysine--tRNA ligase
OLKDIBOK_01880						21.07176						3	1	8,7611E-11	dRep_bin134_HIAPAODO_00743;dRep_bin201_OLKDIBOK_01880	dRep_bin134_HIAPAODO_00743;dRep_bin201_OLKDIBOK_01880	>dRep_bin134_HIAPAODO_00743 Chaperone protein ClpB;>dRep_bin201_OLKDIBOK_01880 Chaperone protein ClpB	dRep_bin201_OLKDIBOK_01880	CDS	clpB		Chaperone protein ClpB
OLKDIBOK_01890					21.35434							1	1	7,7081E-06	dRep_bin201_OLKDIBOK_01890	dRep_bin201_OLKDIBOK_01890	>dRep_bin201_OLKDIBOK_01890 Carbon monoxide dehydrogenase/acetyl-CoA synthase subunit alpha	dRep_bin201_OLKDIBOK_01890	CDS		2.3.1.169	Carbon monoxide dehydrogenase/acetyl-CoA synthase subunit alpha
OLKDIBOK_01892	24.790639999999996	24.70915	24.449599999999997	24.53077								3	3	8,872E-16	dRep_bin201_OLKDIBOK_01892;dRep_bin303_DDDNDJCF_00464	dRep_bin201_OLKDIBOK_01892;dRep_bin303_DDDNDJCF_00464	>dRep_bin201_OLKDIBOK_01892 Corrinoid/iron-sulfur protein large subunit;>dRep_bin303_DDDNDJCF_00464 Corrinoid/iron-sulfur protein large subunit	dRep_bin201_OLKDIBOK_01892	CDS	acsC		Corrinoid/iron-sulfur protein large subunit
OLKDIBOK_01893	28.510850000000005	27.253950000000003	27.804460000000002	28.29605	28.74782	28.513860000000005	27.244719999999997	27.36945				11	6	3,9414E-231	dRep_bin201_OLKDIBOK_01893	dRep_bin201_OLKDIBOK_01893	>dRep_bin201_OLKDIBOK_01893 5-methyltetrahydrofolate:corrinoid/iron-sulfur protein co-methyltransferase	dRep_bin201_OLKDIBOK_01893	CDS	acsE_2	2.1.1.258	5-methyltetrahydrofolate:corrinoid/iron-sulfur protein co-methyltransferase
OLKDIBOK_01905	30.20093	29.144940000000002	28.817510000000002	29.2031	30.70347	29.6187	30.740129999999997	29.53222				18	12	2,3916E-297	dRep_bin201_OLKDIBOK_01905;dRep_bin344_CJJBDGAA_00113	dRep_bin201_OLKDIBOK_01905	>dRep_bin201_OLKDIBOK_01905 5,10-methylenetetrahydrofolate reductase	dRep_bin201_OLKDIBOK_01905	CDS	metF	1.5.1.20	5,10-methylenetetrahydrofolate reductase
OLKDIBOK_01906	22.24606											1	1	0,0033101	dRep_bin201_OLKDIBOK_01906	dRep_bin201_OLKDIBOK_01906	>dRep_bin201_OLKDIBOK_01906 putative RNA-binding protein	dRep_bin201_OLKDIBOK_01906	CDS			putative RNA-binding protein
OLKDIBOK_01961					24.26907							2	1	1,3456E-05	dRep_bin201_OLKDIBOK_01961;dRep_bin310_IMBAFDIF_00613;dRep_bin005_CNDFPKJG_00348	dRep_bin201_OLKDIBOK_01961;dRep_bin310_IMBAFDIF_00613;dRep_bin005_CNDFPKJG_00348	>dRep_bin201_OLKDIBOK_01961 Meso-diaminopimelate D-dehydrogenase;>dRep_bin310_IMBAFDIF_00613 Meso-diaminopimelate D-dehydrogenase;>dRep_bin005_CNDFPKJG_00348 Meso-diaminopimelate D-dehydrogenase	dRep_bin201_OLKDIBOK_01961	CDS	ddh	1.4.1.16	Meso-diaminopimelate D-dehydrogenase
OLKDIBOK_02013								22.391840000000002				2	2	0,0012784	dRep_bin292_JIBLDOOH_01455;dRep_bin297_EDHEEICA_00460;dRep_bin260_HELEPKJL_01994;dRep_bin134_HIAPAODO_01228;dRep_bin115_IFKGOGCL_01262;dRep_bin062_BOFBFLDA_00625;dRep_bin269_PNILGKPH_00784;dRep_bin145_KMJJJOEJ_00869;dRep_bin310_IMBAFDIF_00687;dRep_bin226_NLNLHLLD_01228;dRep_bin209_NKIHFCEN_00359;dRep_bin158_OGFICEAP_01380;dRep_bin157_JPNIKEKI_00889;dRep_bin127_FIPNHBCH_01213;dRep_bin186_HJAAFFNP_00787;dRep_bin167_BLMEBMNN_01301;dRep_bin069_EGGEOGDC_00481;dRep_bin016_JLGAHGOJ_01259;dRep_bin065_DFABHCBI_00254;dRep_bin039_IJNOFOJK_01684;dRep_bin322_OJELOJOF_00527;dRep_bin261_FJICAFFM_00492;dRep_bin220_PILICLLL_01235;dRep_bin201_OLKDIBOK_02013;dRep_bin303_DDDNDJCF_00579	dRep_bin292_JIBLDOOH_01455;dRep_bin297_EDHEEICA_00460;dRep_bin260_HELEPKJL_01994;dRep_bin134_HIAPAODO_01228;dRep_bin115_IFKGOGCL_01262;dRep_bin062_BOFBFLDA_00625;dRep_bin269_PNILGKPH_00784;dRep_bin145_KMJJJOEJ_00869;dRep_bin310_IMBAFDIF_00687;dRep_bin226_NLNLHLLD_01228;dRep_bin209_NKIHFCEN_00359;dRep_bin158_OGFICEAP_01380;dRep_bin157_JPNIKEKI_00889;dRep_bin127_FIPNHBCH_01213;dRep_bin186_HJAAFFNP_00787;dRep_bin167_BLMEBMNN_01301;dRep_bin069_EGGEOGDC_00481;dRep_bin016_JLGAHGOJ_01259;dRep_bin065_DFABHCBI_00254;dRep_bin039_IJNOFOJK_01684;dRep_bin322_OJELOJOF_00527;dRep_bin261_FJICAFFM_00492;dRep_bin220_PILICLLL_01235;dRep_bin201_OLKDIBOK_02013;dRep_bin303_DDDNDJCF_00579	>dRep_bin292_JIBLDOOH_01455 Ribonuclease J1;>dRep_bin297_EDHEEICA_00460 Ribonuclease J1;>dRep_bin260_HELEPKJL_01994 Ribonuclease J1;>dRep_bin134_HIAPAODO_01228 Ribonuclease J1;>dRep_bin115_IFKGOGCL_01262 Ribonuclease J1;>dRep_bin062_BOFBFLDA_00625 Ribonucl	dRep_bin201_OLKDIBOK_02013	CDS	rnjA	3.1.-.-	Ribonuclease J1
OLKDIBOK_02047					25.06357							5	1	3,6059E-73	dRep_bin203_CLFNNOCF_01682;dRep_bin347_EKGCMFPD_01504;dRep_bin284_DEHKNOBF_01057;dRep_bin260_HELEPKJL_00015;dRep_bin310_IMBAFDIF_00287;dRep_bin134_HIAPAODO_00846;dRep_bin062_BOFBFLDA_01435;dRep_bin300_MJPPENNL_01196;dRep_bin201_OLKDIBOK_02047;dRep_bin105_AAEIHAFF_01478;dRep_bin100_CODMOHGB_01221;dRep_bin088_DNGPPFDK_00866;dRep_bin277_MIPNGEJE_00690;dRep_bin166_DFIAJFEC_00146;dRep_bin161_JMKPMHCO_01114;dRep_bin059_OOBKFNPP_00125;dRep_bin046_GKEJLOEK_01062;dRep_bin091_MAFACGAD_00248;dRep_bin017_FGFLFOPJ_00727;dRep_bin354_MMOALAFN_00741;dRep_bin324_IPNHOHFK_00313;dRep_bin323_FBBLPLCG_01264;dRep_bin309_BIOHLCGG_01306;dRep_bin273_FGAEBHNP_00470;dRep_bin261_FJICAFFM_01100;dRep_bin148_NAJFKJMD_00795;dRep_bin115_IFKGOGCL_00123;dRep_bin069_EGGEOGDC_01056;dRep_bin344_CJJBDGAA_01161;dRep_bin249_OFIIEIDJ_00715;dRep_bin220_PILICLLL_00990;dRep_bin134_HIAPAODO_01436;dRep_bin065_DFABHCBI_00344;dRep_bin032_PPNIGLME_00203;dRep_bin270_GEJAHNCN_01587;dRep_bin065_DFABHCBI_00249;dRep_bin278_BFCONKOE_01054;dRep_bin016_JLGAHGOJ_00641;dRep_bin328_GIGKNKPJ_01462;dRep_bin308_JBPDGLPP_01172;dRep_bin303_DDDNDJCF_01320;dRep_bin254_GJDPFAEA_00870;dRep_bin234_ECABPBME_00536;dRep_bin186_HJAAFFNP_01789;dRep_bin167_BLMEBMNN_01296;dRep_bin107_EFNBPDOP_00511;dRep_bin077_DNNBMPMC_01864;dRep_bin066_AJACLPEE_01033;dRep_bin047_IFFANOMN_00697;dRep_bin135_HHKACLPM_00107;dRep_bin303_DDDNDJCF_00377;dRep_bin306_FGHMKMMP_01595;dRep_bin211_LGJEFJIK_00450;dRep_bin007_LNLEAAAN_01312;dRep_bin344_CJJBDGAA_01611;dRep_bin031_BNHMFOII_01628;dRep_bin353_PPDHLNJB_02118;dRep_bin254_GJDPFAEA_00869;dRep_bin094_LBLICAAO_00342;dRep_bin047_IFFANOMN_01357;dRep_bin120_EKLBOPNC_01832;dRep_bin168_HKDILBFE_01442;dRep_bin099_DNDAGJEJ_00392;dRep_bin215_ABBFGCAF_00798;dRep_bin029_LFMGBBEC_01628;dRep_bin240_LDBBGJKG_01094;dRep_bin279_IAEFEPEN_01491;dRep_bin130_OIFFANPF_01666;dRep_bin319_PBDBJGCJ_00268;dRep_bin017_FGFLFOPJ_00820;dRep_bin082_HBEFABJN_01328;dRep_bin245_MBCFLKOF_01762;dRep_bin027_OFJCHLJJ_00790;dRep_bin108_BPNCDINP_00911;dRep_bin308_JBPDGLPP_01750;dRep_bin193_GDMDPNNM_00480;dRep_bin344_CJJBDGAA_02078;dRep_bin049_MNFBDPNO_01413;dRep_bin096_GNHMEKPF_00097;dRep_bin104_EGLEJOLM_01934;dRep_bin339_DBNBAHDK_02499;dRep_bin321_EJNAAGJG_00755;dRep_bin273_FGAEBHNP_00835;dRep_bin250_NMCAMJIO_00087;dRep_bin247_EKGBJCBM_00317;dRep_bin148_NAJFKJMD_01189;dRep_bin337_FHKPNFDB_01633;dRep_bin320_LDBKCCKL_01786;dRep_bin304_JDNJGFKH_01982;dRep_bin286_OEMIJKMC_01141;dRep_bin231_CFOLMJBA_00953;dRep_bin162_JBGCCDIN_01636;dRep_bin126_PPDNCIBN_01067;dRep_bin109_MJABCPAK_00317;dRep_bin057_BNCFHBBO_00597;dRep_bin288_KOIAAABN_00012;dRep_bin263_OLEFOGIJ_00295;dRep_bin304_JDNJGFKH_00179;dRep_bin208_DHPGEIBC_00457;dRep_bin189_AHHEHGDL_01282;dRep_bin177_HLHGKLFL_00741;dRep_bin140_ACFAKGIL_00319;dRep_bin105_AAEIHAFF_01411;dRep_bin082_HBEFABJN_00692;dRep_bin010_MFFFGEGD_00717;dRep_bin005_CNDFPKJG_01705;dRep_bin287_DONBGKDH_01836;dRep_bin094_LBLICAAO_00388;dRep_bin058_GJKCICJN_00227;dRep_bin293_MEPKGOAN_00829;dRep_bin218_ACMPALGF_00229;dRep_bin205_LKIOOBKC_00417;dRep_bin172_ALNHGLMD_01439;dRep_bin159_ADJJGPBG_01342;dRep_bin143_PFLDJMPF_01248;dRep_bin101_BNDDLDCL_01982;dRep_bin091_MAFACGAD_01619;dRep_bin072_JOBJPCGA_00130;dRep_bin011_KOGMKLNO_01272;dRep_bin164_KHMELCCL_01402;dRep_bin305_FCIEFIHE_00371;dRep_bin222_GGCAJABB_00745;dRep_bin006_HPJGJCAG_01874;dRep_bin286_OEMIJKMC_01354;dRep_bin126_PPDNCIBN_00282;dRep_bin185_OOOLKACK_00819;dRep_bin043_KLAFNACO_00900;dRep_bin231_CFOLMJBA_01529;dRep_bin237_KJDLIPND_00869;dRep_bin147_EJLBNEBE_00138;dRep_bin186_HJAAFFNP_01790;dRep_bin081_JDPCKDNP_00172;dRep_bin069_EGGEOGDC_00890;dRep_bin282_PKAAPBFP_00016;dRep_bin206_OIIBOIAK_00984;dRep_bin161_JMKPMHCO_00782;dRep_bin278_BFCONKOE_00310;dRep_bin260_HELEPKJL_01944;dRep_bin336_MPGOKPOL_00897	dRep_bin203_CLFNNOCF_01682;dRep_bin347_EKGCMFPD_01504;dRep_bin284_DEHKNOBF_01057;dRep_bin260_HELEPKJL_00015;dRep_bin310_IMBAFDIF_00287;dRep_bin134_HIAPAODO_00846;dRep_bin062_BOFBFLDA_01435	>dRep_bin203_CLFNNOCF_01682 Glutamine synthetase;>dRep_bin347_EKGCMFPD_01504 Glutamine synthetase;>dRep_bin284_DEHKNOBF_01057 Glutamine synthetase;>dRep_bin260_HELEPKJL_00015 Glutamine synthetase;>dRep_bin310_IMBAFDIF_00287 Glutamine synthetase;>dRep_bin13	dRep_bin201_OLKDIBOK_02047	CDS	glnA_1	6.3.1.2	Glutamine synthetase
OLKDIBOK_02152	22.442129999999995		23.827260000000003	22.52984	24.373910000000002	23.1697	24.233810000000002	23.283759999999997				3	2	1,2032E-19	dRep_bin201_OLKDIBOK_02152;dRep_bin303_DDDNDJCF_00821;dRep_bin134_HIAPAODO_01657;dRep_bin287_DONBGKDH_00415;dRep_bin158_OGFICEAP_00108;dRep_bin257_JHFDCHCB_00470;dRep_bin323_FBBLPLCG_00211;dRep_bin169_PNICKJKO_00577;dRep_bin056_EMNHHOJA_00890;dRep_bin024_OLHDGABE_01284;dRep_bin066_AJACLPEE_00551;dRep_bin254_GJDPFAEA_01693;dRep_bin207_OHNPDPFI_01049;dRep_bin151_AHBJLMBI_00266;dRep_bin119_AKFBCGDO_00602;dRep_bin081_JDPCKDNP_00442;dRep_bin027_OFJCHLJJ_00341;dRep_bin009_KMMEHEKA_00446;dRep_bin322_OJELOJOF_01023;dRep_bin321_EJNAAGJG_00651;dRep_bin282_PKAAPBFP_01369;dRep_bin273_FGAEBHNP_01231;dRep_bin016_JLGAHGOJ_00303;dRep_bin147_EJLBNEBE_01876;dRep_bin026_HNPIIINL_01011;dRep_bin309_BIOHLCGG_00817;dRep_bin253_CPMOAOBJ_01191;dRep_bin278_BFCONKOE_00460;dRep_bin227_IJODGBOI_00814;dRep_bin220_PILICLLL_00789	dRep_bin201_OLKDIBOK_02152;dRep_bin303_DDDNDJCF_00821;dRep_bin134_HIAPAODO_01657;dRep_bin287_DONBGKDH_00415;dRep_bin158_OGFICEAP_00108;dRep_bin257_JHFDCHCB_00470;dRep_bin323_FBBLPLCG_00211;dRep_bin169_PNICKJKO_00577;dRep_bin056_EMNHHOJA_00890;dRep_bin024_OLHDGABE_01284	>dRep_bin201_OLKDIBOK_02152 Leucine--tRNA ligase;>dRep_bin303_DDDNDJCF_00821 Leucine--tRNA ligase;>dRep_bin134_HIAPAODO_01657 Leucine--tRNA ligase;>dRep_bin287_DONBGKDH_00415 Leucine--tRNA ligase;>dRep_bin158_OGFICEAP_00108 Leucine--tRNA ligase;>dRep_bin25	dRep_bin201_OLKDIBOK_02152	CDS	leuS	6.1.1.4	Leucine--tRNA ligase
OLKDIBOK_02185					24.80371	25.47157						2	2	5,4719E-11	dRep_bin201_OLKDIBOK_02185	dRep_bin201_OLKDIBOK_02185	>dRep_bin201_OLKDIBOK_02185 Periplasmic binding protein domain protein	dRep_bin201_OLKDIBOK_02185	CDS			Periplasmic binding protein domain protein
OLKDIBOK_02285			19.70065									1	1	0,00094842	dRep_bin019_MOJEPLJF_01253;dRep_bin322_OJELOJOF_00998;dRep_bin266_JFOCEDAE_01255;dRep_bin203_CLFNNOCF_01667;dRep_bin179_HFEIPPPA_01487;dRep_bin062_BOFBFLDA_00482;dRep_bin335_JIOGNAPG_01394;dRep_bin325_EIIGOGHN_00716;dRep_bin300_MJPPENNL_01210;dRep_bin287_DONBGKDH_01487;dRep_bin282_PKAAPBFP_00060;dRep_bin279_IAEFEPEN_01206;dRep_bin269_PNILGKPH_01047;dRep_bin261_FJICAFFM_00341;dRep_bin249_OFIIEIDJ_00793;dRep_bin220_PILICLLL_00785;dRep_bin201_OLKDIBOK_02285;dRep_bin168_HKDILBFE_00870;dRep_bin160_EFKMPBOM_02348;dRep_bin158_OGFICEAP_00078;dRep_bin154_JGOKHKLI_02345;dRep_bin145_KMJJJOEJ_00681;dRep_bin139_KGAJINND_00935;dRep_bin135_HHKACLPM_01083;dRep_bin134_HIAPAODO_01183;dRep_bin133_NOBPDBPA_03238;dRep_bin099_DNDAGJEJ_00384;dRep_bin095_HOBNOEEF_02248;dRep_bin091_MAFACGAD_00479;dRep_bin081_JDPCKDNP_01979;dRep_bin039_IJNOFOJK_00775;dRep_bin023_HGFJFKAI_00522;dRep_bin324_IPNHOHFK_00121;dRep_bin278_BFCONKOE_01329;dRep_bin234_ECABPBME_01690;dRep_bin027_OFJCHLJJ_00792;dRep_bin024_OLHDGABE_00305;dRep_bin005_CNDFPKJG_01369;dRep_bin088_DNGPPFDK_01526;dRep_bin077_DNNBMPMC_01927;dRep_bin310_IMBAFDIF_00406	dRep_bin019_MOJEPLJF_01253;dRep_bin322_OJELOJOF_00998;dRep_bin266_JFOCEDAE_01255;dRep_bin203_CLFNNOCF_01667;dRep_bin179_HFEIPPPA_01487;dRep_bin062_BOFBFLDA_00482;dRep_bin335_JIOGNAPG_01394;dRep_bin325_EIIGOGHN_00716;dRep_bin300_MJPPENNL_01210;dRep_bin287_DONBGKDH_01487;dRep_bin282_PKAAPBFP_00060;dRep_bin279_IAEFEPEN_01206;dRep_bin269_PNILGKPH_01047;dRep_bin261_FJICAFFM_00341;dRep_bin249_OFIIEIDJ_00793;dRep_bin220_PILICLLL_00785;dRep_bin201_OLKDIBOK_02285;dRep_bin168_HKDILBFE_00870;dRep_bin160_EFKMPBOM_02348;dRep_bin158_OGFICEAP_00078;dRep_bin154_JGOKHKLI_02345;dRep_bin145_KMJJJOEJ_00681;dRep_bin139_KGAJINND_00935;dRep_bin135_HHKACLPM_01083;dRep_bin134_HIAPAODO_01183;dRep_bin133_NOBPDBPA_03238;dRep_bin099_DNDAGJEJ_00384;dRep_bin095_HOBNOEEF_02248;dRep_bin091_MAFACGAD_00479;dRep_bin081_JDPCKDNP_01979;dRep_bin039_IJNOFOJK_00775;dRep_bin023_HGFJFKAI_00522;dRep_bin324_IPNHOHFK_00121;dRep_bin278_BFCONKOE_01329;dRep_bin234_ECABPBME_01690;dRep_bin027_OFJCHLJJ_00792;dRep_bin024_OLHDGABE_00305;dRep_bin005_CNDFPKJG_01369;dRep_bin088_DNGPPFDK_01526;dRep_bin077_DNNBMPMC_01927;dRep_bin310_IMBAFDIF_00406	>dRep_bin019_MOJEPLJF_01253 Purine catabolism regulatory protein;>dRep_bin322_OJELOJOF_00998 Purine catabolism regulatory protein;>dRep_bin266_JFOCEDAE_01255 Purine catabolism regulatory protein;>dRep_bin203_CLFNNOCF_01667 Carbohydrate diacid regulator;>dR	dRep_bin201_OLKDIBOK_02285	CDS	pucR_3		Purine catabolism regulatory protein
OLKDIBOK_02322		25.67444	24.665409999999998		26.90656	23.925419999999995	23.87258	24.923479999999998				11	10	3,4878E-53	dRep_bin039_IJNOFOJK_01065;dRep_bin296_FDMPKPOH_00807;dRep_bin201_OLKDIBOK_02322;dRep_bin005_CNDFPKJG_01385	dRep_bin039_IJNOFOJK_01065	>dRep_bin039_IJNOFOJK_01065 Cellobiose phosphorylase	dRep_bin201_OLKDIBOK_02322	CDS	cbpA_3	2.4.1.20	Cellobiose phosphorylase
OLKDIBOK_02348	27.249699999999997	26.518860000000004	27.25431	27.27658	27.54215	27.15952	27.90409	26.71057				9	2	7,6845E-54	dRep_bin201_OLKDIBOK_02348;dRep_bin310_IMBAFDIF_01020;dRep_bin007_LNLEAAAN_00042;dRep_bin234_ECABPBME_00207;dRep_bin141_GMCOOECB_01150;dRep_bin135_HHKACLPM_01666;dRep_bin355_KJEFNADK_00135	dRep_bin201_OLKDIBOK_02348	>dRep_bin201_OLKDIBOK_02348 Phosphate acetyltransferase	dRep_bin201_OLKDIBOK_02348	CDS	pta	2.3.1.8	Phosphate acetyltransferase
OLKDIBOK_02416					25.29478		26.26119					3	3	2,1695E-18	dRep_bin201_OLKDIBOK_02416;dRep_bin095_HOBNOEEF_00520;dRep_bin248_CCDFPECI_00224;dRep_bin158_OGFICEAP_00596;dRep_bin234_ECABPBME_02310	dRep_bin201_OLKDIBOK_02416;dRep_bin095_HOBNOEEF_00520;dRep_bin248_CCDFPECI_00224	>dRep_bin201_OLKDIBOK_02416 Transketolase;>dRep_bin095_HOBNOEEF_00520 Transketolase;>dRep_bin248_CCDFPECI_00224 Transketolase 1	dRep_bin201_OLKDIBOK_02416	CDS	tkt_2	2.2.1.1	Transketolase
OLKDIBOK_02418					26.60569	26.291900000000002	27.15837	26.139830000000003				6	3	1,2081E-18	dRep_bin201_OLKDIBOK_02418;dRep_bin322_OJELOJOF_00300;dRep_bin220_PILICLLL_00129	dRep_bin201_OLKDIBOK_02418;dRep_bin322_OJELOJOF_00300;dRep_bin220_PILICLLL_00129	>dRep_bin201_OLKDIBOK_02418 2,3-bisphosphoglycerate-independent phosphoglycerate mutase;>dRep_bin322_OJELOJOF_00300 2,3-bisphosphoglycerate-independent phosphoglycerate mutase;>dRep_bin220_PILICLLL_00129 2,3-bisphosphoglycerate-independent phosphoglycerate	dRep_bin201_OLKDIBOK_02418	CDS	gpmI	5.4.2.12	2,3-bisphosphoglycerate-independent phosphoglycerate mutase
OLKDIBOK_02433								24.67471				2	1	3,5941E-06	dRep_bin139_KGAJINND_01299;dRep_bin249_OFIIEIDJ_00342;dRep_bin201_OLKDIBOK_02433;dRep_bin016_JLGAHGOJ_01891;dRep_bin248_CCDFPECI_00660;dRep_bin135_HHKACLPM_00948;dRep_bin075_EPEMMOCL_02434;dRep_bin031_BNHMFOII_01531;dRep_bin347_EKGCMFPD_00881;dRep_bin335_JIOGNAPG_00537;dRep_bin324_IPNHOHFK_01798;dRep_bin306_FGHMKMMP_00897;dRep_bin292_JIBLDOOH_02185;dRep_bin284_DEHKNOBF_01656;dRep_bin282_PKAAPBFP_00606;dRep_bin234_ECABPBME_00660;dRep_bin160_EFKMPBOM_02159;dRep_bin157_JPNIKEKI_01765;dRep_bin154_JGOKHKLI_01946;dRep_bin089_PAJFOJBN_02017;dRep_bin066_AJACLPEE_01205;dRep_bin019_MOJEPLJF_01345;dRep_bin017_FGFLFOPJ_00396;dRep_bin007_LNLEAAAN_00779;dRep_bin303_DDDNDJCF_00484;dRep_bin134_HIAPAODO_02040;dRep_bin027_OFJCHLJJ_00472;dRep_bin319_PBDBJGCJ_00498;dRep_bin300_MJPPENNL_00779;dRep_bin297_EDHEEICA_01479;dRep_bin287_DONBGKDH_00568;dRep_bin269_PNILGKPH_00378;dRep_bin266_JFOCEDAE_00242;dRep_bin226_NLNLHLLD_00006;dRep_bin220_PILICLLL_01253;dRep_bin209_NKIHFCEN_00393;dRep_bin179_HFEIPPPA_00599;dRep_bin133_NOBPDBPA_02395;dRep_bin127_FIPNHBCH_00410;dRep_bin088_DNGPPFDK_00575;dRep_bin081_JDPCKDNP_00771;dRep_bin041_OPKGAAAG_02154;dRep_bin308_JBPDGLPP_00851;dRep_bin167_BLMEBMNN_01783;dRep_bin095_HOBNOEEF_00951;dRep_bin024_OLHDGABE_01396;dRep_bin310_IMBAFDIF_00588;dRep_bin001_GHHJMDAL_01280	dRep_bin139_KGAJINND_01299;dRep_bin249_OFIIEIDJ_00342;dRep_bin201_OLKDIBOK_02433;dRep_bin016_JLGAHGOJ_01891;dRep_bin248_CCDFPECI_00660;dRep_bin135_HHKACLPM_00948;dRep_bin075_EPEMMOCL_02434;dRep_bin031_BNHMFOII_01531;dRep_bin347_EKGCMFPD_00881;dRep_bin335_JIOGNAPG_00537;dRep_bin324_IPNHOHFK_01798;dRep_bin306_FGHMKMMP_00897;dRep_bin292_JIBLDOOH_02185;dRep_bin284_DEHKNOBF_01656;dRep_bin282_PKAAPBFP_00606;dRep_bin234_ECABPBME_00660;dRep_bin160_EFKMPBOM_02159;dRep_bin157_JPNIKEKI_01765;dRep_bin154_JGOKHKLI_01946;dRep_bin089_PAJFOJBN_02017;dRep_bin066_AJACLPEE_01205;dRep_bin019_MOJEPLJF_01345;dRep_bin017_FGFLFOPJ_00396;dRep_bin007_LNLEAAAN_00779;dRep_bin303_DDDNDJCF_00484;dRep_bin134_HIAPAODO_02040;dRep_bin027_OFJCHLJJ_00472;dRep_bin319_PBDBJGCJ_00498;dRep_bin300_MJPPENNL_00779;dRep_bin297_EDHEEICA_01479;dRep_bin287_DONBGKDH_00568;dRep_bin269_PNILGKPH_00378;dRep_bin266_JFOCEDAE_00242;dRep_bin226_NLNLHLLD_00006;dRep_bin220_PILICLLL_01253;dRep_bin209_NKIHFCEN_00393;dRep_bin179_HFEIPPPA_00599;dRep_bin133_NOBPDBPA_02395;dRep_bin127_FIPNHBCH_00410;dRep_bin088_DNGPPFDK_00575;dRep_bin081_JDPCKDNP_00771;dRep_bin041_OPKGAAAG_02154;dRep_bin308_JBPDGLPP_00851;dRep_bin167_BLMEBMNN_01783;dRep_bin095_HOBNOEEF_00951;dRep_bin024_OLHDGABE_01396;dRep_bin310_IMBAFDIF_00588;dRep_bin001_GHHJMDAL_01280	>dRep_bin139_KGAJINND_01299 Glycine--tRNA ligase;>dRep_bin249_OFIIEIDJ_00342 Glycine--tRNA ligase;>dRep_bin201_OLKDIBOK_02433 Glycine--tRNA ligase;>dRep_bin016_JLGAHGOJ_01891 Glycine--tRNA ligase;>dRep_bin248_CCDFPECI_00660 Glycine--tRNA ligase;>dRep_bin13	dRep_bin201_OLKDIBOK_02433	CDS	glyQS	6.1.1.14	Glycine--tRNA ligase
OLKDIBOK_02468	26.362289999999998	26.546529999999997	25.72208									5	1	4,2755E-39	dRep_bin348_LCLFDNEE_01023;dRep_bin278_BFCONKOE_00947;dRep_bin201_OLKDIBOK_02468;dRep_bin057_BNCFHBBO_00677	dRep_bin348_LCLFDNEE_01023	>dRep_bin348_LCLFDNEE_01023 Glycerol kinase	dRep_bin201_OLKDIBOK_02468	CDS	glpK_2	2.7.1.30	Glycerol kinase
OLKDIBOK_02470	25.929329999999997	25.80334	28.56587	25.608739999999997	28.330830000000002	28.851180000000003	29.565199999999997	28.06394				23	21	2,0039E-260	dRep_bin053_OMGNPOOB_01278;dRep_bin302_AHDEPDKG_00299;dRep_bin238_OLNFACLE_00618;dRep_bin125_FADLGGII_00735;dRep_bin097_CBBLIPAN_01892;dRep_bin134_HIAPAODO_01198;dRep_bin261_FJICAFFM_00295;dRep_bin282_PKAAPBFP_01577;dRep_bin074_EHAOMODJ_00946;dRep_bin347_EKGCMFPD_01776;dRep_bin127_FIPNHBCH_01523;dRep_bin075_EPEMMOCL_00770;dRep_bin201_OLKDIBOK_02470;dRep_bin323_FBBLPLCG_00116;dRep_bin242_LKAIBGGJ_01298;dRep_bin029_LFMGBBEC_01403;dRep_bin250_NMCAMJIO_00064;dRep_bin049_MNFBDPNO_00772;dRep_bin309_BIOHLCGG_00465;dRep_bin193_GDMDPNNM_00894;dRep_bin106_BKDHGPBE_01007;dRep_bin243_JDMELKLC_00010;dRep_bin057_BNCFHBBO_00002;dRep_bin026_HNPIIINL_00319;dRep_bin085_MBHLGCDB_00395;dRep_bin140_ACFAKGIL_00161;dRep_bin150_HCDEOBMH_00480;dRep_bin177_HLHGKLFL_01057;dRep_bin260_HELEPKJL_01297;dRep_bin159_ADJJGPBG_00428	dRep_bin053_OMGNPOOB_01278	>dRep_bin053_OMGNPOOB_01278 Phosphoribosylformylglycinamidine synthase	dRep_bin201_OLKDIBOK_02470	CDS	purQ	6.3.5.3	Phosphoribosylformylglycinamidine synthase subunit PurQ
OLKDIBOK_02514				22.882779999999997								5	1	1,0863E-16	dRep_bin201_OLKDIBOK_02514;dRep_bin303_DDDNDJCF_00465	dRep_bin201_OLKDIBOK_02514	>dRep_bin201_OLKDIBOK_02514 Formate acetyltransferase	dRep_bin201_OLKDIBOK_02514	CDS	pflB	2.3.1.54	Formate acetyltransferase
OLKDIBOK_02525								21.504800000000003				5	1	3,9803E-89	dRep_bin260_HELEPKJL_01435;dRep_bin135_HHKACLPM_00878;dRep_bin279_IAEFEPEN_00125;dRep_bin139_KGAJINND_00653;dRep_bin047_IFFANOMN_00833;dRep_bin220_PILICLLL_01353;dRep_bin062_BOFBFLDA_00870;dRep_bin027_OFJCHLJJ_01114;dRep_bin145_KMJJJOEJ_00674;dRep_bin300_MJPPENNL_01153;dRep_bin282_PKAAPBFP_00002;dRep_bin091_MAFACGAD_00478;dRep_bin116_CLFDBMOF_00810;dRep_bin347_EKGCMFPD_00673;dRep_bin322_OJELOJOF_01660;dRep_bin335_JIOGNAPG_01578;dRep_bin201_OLKDIBOK_02525;dRep_bin160_EFKMPBOM_02349;dRep_bin077_DNNBMPMC_01926;dRep_bin246_MMFBABHK_00869;dRep_bin219_HGPEELLF_00755;dRep_bin174_LJJOKEME_01393;dRep_bin312_MJFEFHMP_00102;dRep_bin129_GADIAMAA_01507;dRep_bin030_OGPDLGOC_00490;dRep_bin004_OCHNPJPO_00897;dRep_bin061_ONFGDLGO_00219;dRep_bin264_DNFFGNEG_00399;dRep_bin153_JGABJFBF_00375;dRep_bin244_LBFMHLBI_00924;dRep_bin204_INMOGLDN_00439;dRep_bin050_FBECOHCI_00117;dRep_bin202_HEPPALPH_01023;dRep_bin223_PIMCDKJI_00571;dRep_bin233_BAGKKAOB_00161;dRep_bin336_MPGOKPOL_01196;dRep_bin333_EFOKIBLA_00139;dRep_bin303_DDDNDJCF_00008;dRep_bin095_HOBNOEEF_01151;dRep_bin249_OFIIEIDJ_00631;dRep_bin007_LNLEAAAN_00381;dRep_bin328_GIGKNKPJ_00383;dRep_bin081_JDPCKDNP_00006;dRep_bin078_GKFCBAEI_00579;dRep_bin325_EIIGOGHN_00717;dRep_bin319_PBDBJGCJ_01544;dRep_bin306_FGHMKMMP_01785;dRep_bin181_MKGPMPIA_01340;dRep_bin127_FIPNHBCH_01090;dRep_bin066_AJACLPEE_01002;dRep_bin024_OLHDGABE_01294;dRep_bin220_PILICLLL_00488;dRep_bin078_GKFCBAEI_00372;dRep_bin006_HPJGJCAG_01324;dRep_bin142_NDNPJBEM_00465;dRep_bin350_EKOOEEGH_00689;dRep_bin228_CECEDMJG_00916;dRep_bin218_ACMPALGF_00396;dRep_bin164_KHMELCCL_00939;dRep_bin173_BEBNCADL_00342;dRep_bin058_GJKCICJN_00554;dRep_bin268_LKMHIMLG_00442;dRep_bin237_KJDLIPND_00262;dRep_bin251_FGNGCJDD_00443;dRep_bin192_GCMBELNN_00009	dRep_bin260_HELEPKJL_01435;dRep_bin135_HHKACLPM_00878;dRep_bin279_IAEFEPEN_00125;dRep_bin139_KGAJINND_00653;dRep_bin047_IFFANOMN_00833	>dRep_bin260_HELEPKJL_01435 Trehalose import ATP-binding protein SugC;>dRep_bin135_HHKACLPM_00878 Trehalose import ATP-binding protein SugC;>dRep_bin279_IAEFEPEN_00125 Trehalose import ATP-binding protein SugC;>dRep_bin139_KGAJINND_00653 Trehalose import A	dRep_bin201_OLKDIBOK_02525	CDS	ugpC	3.6.3.20	sn-glycerol-3-phosphate import ATP-binding protein UgpC
OLKDIBOK_02586					21.5335	19.632060000000003		19.645139999999998				1	1	0,0076529	dRep_bin201_OLKDIBOK_02586	dRep_bin201_OLKDIBOK_02586	>dRep_bin201_OLKDIBOK_02586 Galactokinase	dRep_bin201_OLKDIBOK_02586	CDS	galK	2.7.1.6	Galactokinase
OLKDIBOK_02611					22.606980000000004							1	1	0,00023521	dRep_bin201_OLKDIBOK_02611	dRep_bin201_OLKDIBOK_02611	>dRep_bin201_OLKDIBOK_02611 Adenine phosphoribosyltransferase	dRep_bin201_OLKDIBOK_02611	CDS	apt	2.4.2.7	Adenine phosphoribosyltransferase
OLKDIBOK_02618		23.986419999999995	23.17342									2	1	4,4745E-32	dRep_bin135_HHKACLPM_01194;dRep_bin248_CCDFPECI_00232;dRep_bin048_PABMBHAL_01807;dRep_bin347_EKGCMFPD_00759;dRep_bin293_MEPKGOAN_01297;dRep_bin001_GHHJMDAL_00886;dRep_bin017_FGFLFOPJ_00766;dRep_bin318_IEDEJOFJ_01009;dRep_bin310_IMBAFDIF_00255;dRep_bin276_EHNFLEBP_00341;dRep_bin158_OGFICEAP_00321;dRep_bin145_KMJJJOEJ_01462;dRep_bin131_HLFNHDGI_00015;dRep_bin115_IFKGOGCL_00136;dRep_bin089_PAJFOJBN_01106;dRep_bin335_JIOGNAPG_01504;dRep_bin330_CODAKHDJ_00948;dRep_bin201_OLKDIBOK_02618;dRep_bin301_NJFJIJGA_00940;dRep_bin154_JGOKHKLI_01917;dRep_bin007_LNLEAAAN_01428	dRep_bin135_HHKACLPM_01194;dRep_bin248_CCDFPECI_00232;dRep_bin048_PABMBHAL_01807;dRep_bin347_EKGCMFPD_00759;dRep_bin293_MEPKGOAN_01297;dRep_bin001_GHHJMDAL_00886;dRep_bin017_FGFLFOPJ_00766;dRep_bin318_IEDEJOFJ_01009;dRep_bin310_IMBAFDIF_00255;dRep_bin276_EHNFLEBP_00341;dRep_bin158_OGFICEAP_00321;dRep_bin145_KMJJJOEJ_01462;dRep_bin131_HLFNHDGI_00015;dRep_bin115_IFKGOGCL_00136;dRep_bin089_PAJFOJBN_01106;dRep_bin335_JIOGNAPG_01504;dRep_bin330_CODAKHDJ_00948;dRep_bin201_OLKDIBOK_02618;dRep_bin301_NJFJIJGA_00940;dRep_bin154_JGOKHKLI_01917;dRep_bin007_LNLEAAAN_01428	>dRep_bin135_HHKACLPM_01194 L-methionine gamma-lyase;>dRep_bin248_CCDFPECI_00232 L-methionine gamma-lyase;>dRep_bin048_PABMBHAL_01807 L-methionine gamma-lyase;>dRep_bin347_EKGCMFPD_00759 L-methionine gamma-lyase;>dRep_bin293_MEPKGOAN_01297 L-methionine gam	dRep_bin201_OLKDIBOK_02618	CDS	megL	4.4.1.11	L-methionine gamma-lyase
OLKDIBOK_02623	27.611330000000002	26.935619999999997	26.22161	27.62303	28.45305	28.265299999999996	28.738789999999998	27.69079				2	1	1,925E-66	dRep_bin220_PILICLLL_00006;dRep_bin201_OLKDIBOK_02623	dRep_bin220_PILICLLL_00006;dRep_bin201_OLKDIBOK_02623	>dRep_bin220_PILICLLL_00006 Cold shock-like protein CspLA;>dRep_bin201_OLKDIBOK_02623 Cold shock-like protein CspLA	dRep_bin201_OLKDIBOK_02623	CDS	cspLA		Cold shock-like protein CspLA
OLKDIBOK_02632	28.176070000000003	27.08618	27.971860000000003	29.0445	29.48445	29.440629999999995	29.54008	28.460219999999996				21	7	2,8908E-259	dRep_bin201_OLKDIBOK_02632	dRep_bin201_OLKDIBOK_02632	>dRep_bin201_OLKDIBOK_02632 60 kDa chaperonin	dRep_bin201_OLKDIBOK_02632	CDS	groL		60 kDa chaperonin
OLKDIBOK_02658	25.14422											1	1	4,9544E-17	dRep_bin201_OLKDIBOK_02658;dRep_bin158_OGFICEAP_01941;dRep_bin095_HOBNOEEF_00524	dRep_bin201_OLKDIBOK_02658;dRep_bin158_OGFICEAP_01941;dRep_bin095_HOBNOEEF_00524	>dRep_bin201_OLKDIBOK_02658 Phosphocarrier protein HPr;>dRep_bin158_OGFICEAP_01941 Phosphocarrier protein HPr;>dRep_bin095_HOBNOEEF_00524 Phosphocarrier protein HPr	dRep_bin201_OLKDIBOK_02658	CDS	ptsH_2	2.7.11.-	Phosphocarrier protein HPr
