GBprotID	LFQ intensity CtrPig1	LFQ intensity CtrPig2	LFQ intensity CtrPig3	LFQ intensity CtrPig4	LFQ intensity MannanPig1	LFQ intensity MannanPig2	LFQ intensity MannanPig3	LFQ intensity MannanPig4	Only identified by site	Reverse	Contaminant	Peptides	Unique peptides	PEP	Protein IDs	Majority protein IDs	Fasta headers	IDcomb	ftype	gene	EC_number	product
JNJMCPHB_00011	25.86469	27.35473	25.69171	28.611230000000003								3	2	6,3211E-55	dRep_bin097_CBBLIPAN_01171;dRep_bin216_JNJMCPHB_00011	dRep_bin097_CBBLIPAN_01171	>dRep_bin097_CBBLIPAN_01171 30S ribosomal protein S5	dRep_bin216_JNJMCPHB_00011	CDS	rpsE		30S ribosomal protein S5
JNJMCPHB_00013							21.96081					1	1	0,0002007	dRep_bin216_JNJMCPHB_00013	dRep_bin216_JNJMCPHB_00013	>dRep_bin216_JNJMCPHB_00013 50S ribosomal protein L6	dRep_bin216_JNJMCPHB_00013	CDS	rplF		50S ribosomal protein L6
JNJMCPHB_00018	25.08416	24.93656	26.538800000000002	26.86915	25.985119999999995	24.62037	24.93517	24.65649				3	0	2,2235E-28	dRep_bin282_PKAAPBFP_00481;dRep_bin160_EFKMPBOM_01980;dRep_bin154_JGOKHKLI_00793;dRep_bin139_KGAJINND_01524;dRep_bin127_FIPNHBCH_00036;dRep_bin089_PAJFOJBN_02082;dRep_bin047_IFFANOMN_01724;dRep_bin347_EKGCMFPD_01107;dRep_bin308_JBPDGLPP_01114;dRep_bin266_JFOCEDAE_01005;dRep_bin328_GIGKNKPJ_01841;dRep_bin260_HELEPKJL_01354;dRep_bin216_JNJMCPHB_00018;dRep_bin186_HJAAFFNP_00342;dRep_bin167_BLMEBMNN_01083;dRep_bin115_IFKGOGCL_00636;dRep_bin065_DFABHCBI_01269;dRep_bin047_IFFANOMN_00239;dRep_bin290_OIOJKBNK_00632;dRep_bin256_KEMNAOBC_00187;dRep_bin128_JPBBHEMA_00218;dRep_bin110_JGOEJECF_00549;dRep_bin093_PGADNPMG_00791;dRep_bin355_KJEFNADK_00780;dRep_bin350_EKOOEEGH_00173;dRep_bin345_GLPJDLOI_00878;dRep_bin320_LDBKCCKL_00884;dRep_bin318_IEDEJOFJ_00796;dRep_bin315_AGEMOMDG_01119;dRep_bin306_FGHMKMMP_01710;dRep_bin304_JDNJGFKH_00632;dRep_bin283_NLJJFFAC_00211;dRep_bin267_LJCFMAFA_00484;dRep_bin265_LFKFBJPC_00850;dRep_bin258_DAMEHFEK_00123;dRep_bin247_EKGBJCBM_00038;dRep_bin230_NINMBMKB_00063;dRep_bin217_MJCEAEPB_00583;dRep_bin211_LGJEFJIK_01307;dRep_bin205_LKIOOBKC_00363;dRep_bin195_DDMDFNOK_01673;dRep_bin189_AHHEHGDL_00011;dRep_bin162_JBGCCDIN_01258;dRep_bin159_ADJJGPBG_01745;dRep_bin156_GFIMJAAC_00195;dRep_bin150_HCDEOBMH_00586;dRep_bin144_NPHACCKF_00096;dRep_bin135_HHKACLPM_00476;dRep_bin121_BHOOLFKN_00529;dRep_bin120_EKLBOPNC_00238;dRep_bin114_FJHJKHGL_00201;dRep_bin078_GKFCBAEI_00311;dRep_bin060_HNFNENOI_00556;dRep_bin027_OFJCHLJJ_00124;dRep_bin020_JCCELPIE_00086;dRep_bin014_CHIHIMAN_01506;dRep_bin006_HPJGJCAG_00037;dRep_bin001_GHHJMDAL_00906;dRep_bin049_MNFBDPNO_01392;dRep_bin330_CODAKHDJ_00376;dRep_bin242_LKAIBGGJ_00214;dRep_bin218_ACMPALGF_00060;dRep_bin106_BKDHGPBE_00670	dRep_bin282_PKAAPBFP_00481;dRep_bin160_EFKMPBOM_01980;dRep_bin154_JGOKHKLI_00793;dRep_bin139_KGAJINND_01524;dRep_bin127_FIPNHBCH_00036;dRep_bin089_PAJFOJBN_02082;dRep_bin047_IFFANOMN_01724;dRep_bin347_EKGCMFPD_01107;dRep_bin308_JBPDGLPP_01114;dRep_bin266_JFOCEDAE_01005;dRep_bin328_GIGKNKPJ_01841;dRep_bin260_HELEPKJL_01354;dRep_bin216_JNJMCPHB_00018;dRep_bin186_HJAAFFNP_00342;dRep_bin167_BLMEBMNN_01083;dRep_bin115_IFKGOGCL_00636;dRep_bin065_DFABHCBI_01269;dRep_bin047_IFFANOMN_00239	>dRep_bin282_PKAAPBFP_00481 50S ribosomal protein L14;>dRep_bin160_EFKMPBOM_01980 50S ribosomal protein L14;>dRep_bin154_JGOKHKLI_00793 50S ribosomal protein L14;>dRep_bin139_KGAJINND_01524 50S ribosomal protein L14;>dRep_bin127_FIPNHBCH_00036 50S ribosoma	dRep_bin216_JNJMCPHB_00018	CDS	rplN		50S ribosomal protein L14
JNJMCPHB_00020			24.5973	26.7128	26.110820000000004	26.41303		24.6732				3	2	1,7134E-08	dRep_bin272_LGBDGEIM_00924;dRep_bin216_JNJMCPHB_00020;dRep_bin097_CBBLIPAN_01180;dRep_bin150_HCDEOBMH_00588	dRep_bin272_LGBDGEIM_00924;dRep_bin216_JNJMCPHB_00020	>dRep_bin272_LGBDGEIM_00924 50S ribosomal protein L29;>dRep_bin216_JNJMCPHB_00020 50S ribosomal protein L29	dRep_bin216_JNJMCPHB_00020	CDS	rpmC		50S ribosomal protein L29
JNJMCPHB_00022	25.721639999999997	25.26689	26.166339999999998	25.887529999999998	26.549789999999998		25.23059	24.814800000000005				2	2	7,9029E-26	dRep_bin337_FHKPNFDB_00529;dRep_bin299_AKNBKJGM_01125;dRep_bin216_JNJMCPHB_00022;dRep_bin257_JHFDCHCB_00845	dRep_bin337_FHKPNFDB_00529;dRep_bin299_AKNBKJGM_01125;dRep_bin216_JNJMCPHB_00022;dRep_bin257_JHFDCHCB_00845	>dRep_bin337_FHKPNFDB_00529 30S ribosomal protein S3;>dRep_bin299_AKNBKJGM_01125 30S ribosomal protein S3;>dRep_bin216_JNJMCPHB_00022 30S ribosomal protein S3;>dRep_bin257_JHFDCHCB_00845 30S ribosomal protein S3	dRep_bin216_JNJMCPHB_00022	CDS	rpsC		30S ribosomal protein S3
JNJMCPHB_00024							27.04145					8	0	3,6665E-54	dRep_bin135_HHKACLPM_00482;dRep_bin308_JBPDGLPP_01108;dRep_bin186_HJAAFFNP_00336;dRep_bin127_FIPNHBCH_00030;dRep_bin328_GIGKNKPJ_01343;dRep_bin065_DFABHCBI_01275;dRep_bin001_GHHJMDAL_00750;dRep_bin062_BOFBFLDA_00727;dRep_bin158_OGFICEAP_00611;dRep_bin211_LGJEFJIK_00743;dRep_bin260_HELEPKJL_01348;dRep_bin234_ECABPBME_00125;dRep_bin115_IFKGOGCL_00642;dRep_bin088_DNGPPFDK_00693;dRep_bin001_GHHJMDAL_01427;dRep_bin253_CPMOAOBJ_00213;dRep_bin150_HCDEOBMH_00592;dRep_bin057_BNCFHBBO_00183;dRep_bin299_AKNBKJGM_01127;dRep_bin216_JNJMCPHB_00024;dRep_bin085_MBHLGCDB_00710;dRep_bin286_OEMIJKMC_00079;dRep_bin231_CFOLMJBA_01079;dRep_bin172_ALNHGLMD_00777;dRep_bin182_EMCFODCD_00190;dRep_bin058_GJKCICJN_00161;dRep_bin044_IPFKHAEF_01460;dRep_bin283_NLJJFFAC_00217	dRep_bin135_HHKACLPM_00482;dRep_bin308_JBPDGLPP_01108;dRep_bin186_HJAAFFNP_00336;dRep_bin127_FIPNHBCH_00030;dRep_bin328_GIGKNKPJ_01343;dRep_bin065_DFABHCBI_01275;dRep_bin001_GHHJMDAL_00750;dRep_bin062_BOFBFLDA_00727;dRep_bin158_OGFICEAP_00611;dRep_bin211_LGJEFJIK_00743	>dRep_bin135_HHKACLPM_00482 30S ribosomal protein S19;>dRep_bin308_JBPDGLPP_01108 30S ribosomal protein S19;>dRep_bin186_HJAAFFNP_00336 30S ribosomal protein S19;>dRep_bin127_FIPNHBCH_00030 30S ribosomal protein S19;>dRep_bin328_GIGKNKPJ_01343 30S ribosoma	dRep_bin216_JNJMCPHB_00024	CDS	rpsS		30S ribosomal protein S19
JNJMCPHB_00025						22.585379999999997						2	1	7,3871E-06	dRep_bin150_HCDEOBMH_00593;dRep_bin265_LFKFBJPC_00857;dRep_bin216_JNJMCPHB_00025;dRep_bin161_JMKPMHCO_00408;dRep_bin212_IEMJENOD_00035;dRep_bin171_FIDMCACI_00308;dRep_bin012_KEBBILMO_00565;dRep_bin318_IEDEJOFJ_00789;dRep_bin247_EKGBJCBM_00031;dRep_bin218_ACMPALGF_00067;dRep_bin200_JJGKEOHI_00813;dRep_bin177_HLHGKLFL_00458;dRep_bin078_GKFCBAEI_00304;dRep_bin236_BNONDECB_00449	dRep_bin150_HCDEOBMH_00593;dRep_bin265_LFKFBJPC_00857;dRep_bin216_JNJMCPHB_00025;dRep_bin161_JMKPMHCO_00408;dRep_bin212_IEMJENOD_00035;dRep_bin171_FIDMCACI_00308;dRep_bin012_KEBBILMO_00565;dRep_bin318_IEDEJOFJ_00789;dRep_bin247_EKGBJCBM_00031;dRep_bin218_ACMPALGF_00067;dRep_bin200_JJGKEOHI_00813;dRep_bin177_HLHGKLFL_00458;dRep_bin078_GKFCBAEI_00304;dRep_bin236_BNONDECB_00449	>dRep_bin150_HCDEOBMH_00593 50S ribosomal protein L2;>dRep_bin265_LFKFBJPC_00857 50S ribosomal protein L2;>dRep_bin216_JNJMCPHB_00025 50S ribosomal protein L2;>dRep_bin161_JMKPMHCO_00408 50S ribosomal protein L2;>dRep_bin212_IEMJENOD_00035 50S ribosomal pr	dRep_bin216_JNJMCPHB_00025	CDS	rplB		50S ribosomal protein L2
JNJMCPHB_00030	26.97826	26.85103	26.2583	27.38121	27.57802	27.814580000000003	25.778209999999998	25.82065				14	4	6,6617E-126	dRep_bin216_JNJMCPHB_00030	dRep_bin216_JNJMCPHB_00030	>dRep_bin216_JNJMCPHB_00030 Elongation factor Tu	dRep_bin216_JNJMCPHB_00030	CDS	tuf		Elongation factor Tu
JNJMCPHB_00031	25.06394			23.43301								6	1	1,4611E-19	dRep_bin216_JNJMCPHB_00031	dRep_bin216_JNJMCPHB_00031	>dRep_bin216_JNJMCPHB_00031 Elongation factor G	dRep_bin216_JNJMCPHB_00031	CDS	fusA		Elongation factor G
JNJMCPHB_00032	26.55808	25.728579999999997	27.663970000000003	28.881539999999998	26.10009			25.80169				5	3	4,1196E-32	dRep_bin317_ABPHNCOD_00391;dRep_bin216_JNJMCPHB_00032;dRep_bin272_LGBDGEIM_00936;dRep_bin299_AKNBKJGM_01135;dRep_bin342_BMMENEMP_00952;dRep_bin338_LIGGOPOO_00101;dRep_bin350_EKOOEEGH_01199;dRep_bin334_NAPFFNLD_00299;dRep_bin274_DBJHKLDG_01757;dRep_bin195_DDMDFNOK_01686;dRep_bin150_HCDEOBMH_00601;dRep_bin060_HNFNENOI_01597	dRep_bin317_ABPHNCOD_00391;dRep_bin216_JNJMCPHB_00032;dRep_bin272_LGBDGEIM_00936;dRep_bin299_AKNBKJGM_01135	>dRep_bin317_ABPHNCOD_00391 30S ribosomal protein S7;>dRep_bin216_JNJMCPHB_00032 30S ribosomal protein S7;>dRep_bin272_LGBDGEIM_00936 30S ribosomal protein S7;>dRep_bin299_AKNBKJGM_01135 30S ribosomal protein S7	dRep_bin216_JNJMCPHB_00032	CDS	rpsG		30S ribosomal protein S7
JNJMCPHB_00033			26.964109999999998									1	1	3,682E-18	dRep_bin216_JNJMCPHB_00033;dRep_bin317_ABPHNCOD_00390;dRep_bin272_LGBDGEIM_00937;dRep_bin299_AKNBKJGM_01136	dRep_bin216_JNJMCPHB_00033;dRep_bin317_ABPHNCOD_00390;dRep_bin272_LGBDGEIM_00937;dRep_bin299_AKNBKJGM_01136	>dRep_bin216_JNJMCPHB_00033 30S ribosomal protein S12;>dRep_bin317_ABPHNCOD_00390 30S ribosomal protein S12;>dRep_bin272_LGBDGEIM_00937 30S ribosomal protein S12;>dRep_bin299_AKNBKJGM_01136 30S ribosomal protein S12	dRep_bin216_JNJMCPHB_00033	CDS	rpsL		30S ribosomal protein S12
JNJMCPHB_00035					26.74638	27.83479	26.676000000000002	26.53848				6	5	6,6193E-28	dRep_bin021_AJDDCGJC_01221;dRep_bin160_EFKMPBOM_01527;dRep_bin154_JGOKHKLI_01467;dRep_bin216_JNJMCPHB_00035	dRep_bin021_AJDDCGJC_01221	>dRep_bin021_AJDDCGJC_01221 Transketolase	dRep_bin216_JNJMCPHB_00035	CDS	tkt	2.2.1.1	Transketolase
JNJMCPHB_00047		23.918339999999997										1	1	0,0014153	dRep_bin216_JNJMCPHB_00047	dRep_bin216_JNJMCPHB_00047	>dRep_bin216_JNJMCPHB_00047 Biotin carboxylase	dRep_bin216_JNJMCPHB_00047	CDS	accC	6.3.4.14	Biotin carboxylase
JNJMCPHB_00075						26.43446	24.010260000000002	23.20668				8	6	4,1564E-99	dRep_bin216_JNJMCPHB_00075	dRep_bin216_JNJMCPHB_00075	>dRep_bin216_JNJMCPHB_00075 60 kDa chaperonin	dRep_bin216_JNJMCPHB_00075	CDS	groL		60 kDa chaperonin
JNJMCPHB_00118						24.39748						3	1	1,4162E-22	dRep_bin216_JNJMCPHB_00118	dRep_bin216_JNJMCPHB_00118	>dRep_bin216_JNJMCPHB_00118 Propionyl-CoA carboxylase beta chain	dRep_bin216_JNJMCPHB_00118	CDS	pccB	6.4.1.3	Propionyl-CoA carboxylase beta chain
JNJMCPHB_00121						23.69816						3	1	6,7864E-39	dRep_bin216_JNJMCPHB_00121	dRep_bin216_JNJMCPHB_00121	>dRep_bin216_JNJMCPHB_00121 Methylmalonyl-CoA mutase	dRep_bin216_JNJMCPHB_00121	CDS	scpA_1	5.4.99.2	Methylmalonyl-CoA mutase
JNJMCPHB_00122	27.21317	28.134770000000003	26.9061	27.34002	28.00153	26.73092	27.13144	27.02158				15	2	0	dRep_bin216_JNJMCPHB_00122	dRep_bin216_JNJMCPHB_00122	>dRep_bin216_JNJMCPHB_00122 Methylmalonyl-CoA mutase large subunit	dRep_bin216_JNJMCPHB_00122	CDS	mutB	5.4.99.2	Methylmalonyl-CoA mutase large subunit
JNJMCPHB_00157						21.41194						2	1	9,3091E-07	dRep_bin216_JNJMCPHB_00157	dRep_bin216_JNJMCPHB_00157	>dRep_bin216_JNJMCPHB_00157 Purine nucleoside phosphorylase DeoD-type	dRep_bin216_JNJMCPHB_00157	CDS	deoD	2.4.2.1	Purine nucleoside phosphorylase DeoD-type
JNJMCPHB_00201	27.245359999999998	26.77316	27.14589	27.80913	27.981039999999997	27.33424						3	3	9,4752E-27	dRep_bin272_LGBDGEIM_01300;dRep_bin216_JNJMCPHB_00201;dRep_bin021_AJDDCGJC_01451;dRep_bin317_ABPHNCOD_00641;dRep_bin299_AKNBKJGM_00759	dRep_bin272_LGBDGEIM_01300	>dRep_bin272_LGBDGEIM_01300 30S ribosomal protein S18	dRep_bin216_JNJMCPHB_00201	CDS	rpsR		30S ribosomal protein S18
JNJMCPHB_00213	27.19423	27.555519999999998	27.160960000000003	28.055329999999998	26.603990000000003	28.07434	26.473039999999997	26.89816				5	5	2,4388E-40	dRep_bin272_LGBDGEIM_01248;dRep_bin216_JNJMCPHB_00213	dRep_bin272_LGBDGEIM_01248	>dRep_bin272_LGBDGEIM_01248 L-ribulose-5-phosphate 4-epimerase AraD	dRep_bin216_JNJMCPHB_00213	CDS	araD	5.1.3.4	L-ribulose-5-phosphate 4-epimerase AraD
JNJMCPHB_00220					24.61144	26.485079999999996	24.24692	24.383239999999997				2	1	1,6487E-42	dRep_bin021_AJDDCGJC_01469;dRep_bin216_JNJMCPHB_00220	dRep_bin021_AJDDCGJC_01469;dRep_bin216_JNJMCPHB_00220	>dRep_bin021_AJDDCGJC_01469 S-layer protein SlpA;>dRep_bin216_JNJMCPHB_00220 S-layer protein SlpA	dRep_bin216_JNJMCPHB_00220	CDS	slpA_1		S-layer protein SlpA
JNJMCPHB_00239							28.818060000000003					5	1	1,2761E-52	dRep_bin216_JNJMCPHB_00239	dRep_bin216_JNJMCPHB_00239	>dRep_bin216_JNJMCPHB_00239 NADP-specific glutamate dehydrogenase	dRep_bin216_JNJMCPHB_00239	CDS	gdh	1.4.1.4	NADP-specific glutamate dehydrogenase
JNJMCPHB_00245	28.15557	28.70968	27.64065	28.850820000000002	28.541890000000002	28.60559	27.93657	28.095619999999997				10	9	3,5564E-125	dRep_bin272_LGBDGEIM_00553;dRep_bin317_ABPHNCOD_01235;dRep_bin216_JNJMCPHB_00245;dRep_bin021_AJDDCGJC_00651	dRep_bin272_LGBDGEIM_00553	>dRep_bin272_LGBDGEIM_00553 Phosphoserine aminotransferase	dRep_bin216_JNJMCPHB_00245	CDS	serC	2.6.1.52	Phosphoserine aminotransferase
JNJMCPHB_00254	25.8986	25.973339999999997	26.19903	26.281	26.514310000000002	26.59049	25.7571	26.25906				4	1	4,6283E-12	dRep_bin145_KMJJJOEJ_01258;dRep_bin242_LKAIBGGJ_00691;dRep_bin081_JDPCKDNP_01525;dRep_bin317_ABPHNCOD_01232;dRep_bin347_EKGCMFPD_00789;dRep_bin282_PKAAPBFP_00053;dRep_bin039_IJNOFOJK_00980;dRep_bin001_GHHJMDAL_00862;dRep_bin272_LGBDGEIM_01970;dRep_bin186_HJAAFFNP_02184;dRep_bin005_CNDFPKJG_01374;dRep_bin332_KAOPCDPF_00412;dRep_bin167_BLMEBMNN_01248;dRep_bin260_HELEPKJL_00916;dRep_bin160_EFKMPBOM_00919;dRep_bin209_NKIHFCEN_00567;dRep_bin158_OGFICEAP_02130;dRep_bin283_NLJJFFAC_01508;dRep_bin278_BFCONKOE_00571;dRep_bin325_EIIGOGHN_00662;dRep_bin218_ACMPALGF_01369;dRep_bin094_LBLICAAO_00052;dRep_bin299_AKNBKJGM_01021;dRep_bin157_JPNIKEKI_01309;dRep_bin075_EPEMMOCL_02359;dRep_bin055_IBMMJAEE_00109;dRep_bin306_FGHMKMMP_00327;dRep_bin216_JNJMCPHB_00254;dRep_bin292_JIBLDOOH_01625;dRep_bin179_HFEIPPPA_02175;dRep_bin133_NOBPDBPA_01803;dRep_bin088_DNGPPFDK_01392;dRep_bin024_OLHDGABE_00503;dRep_bin324_IPNHOHFK_01870;dRep_bin203_CLFNNOCF_00851;dRep_bin017_FGFLFOPJ_00925;dRep_bin065_DFABHCBI_01998;dRep_bin192_GCMBELNN_00043;dRep_bin310_IMBAFDIF_01495;dRep_bin218_ACMPALGF_00670	dRep_bin145_KMJJJOEJ_01258;dRep_bin242_LKAIBGGJ_00691;dRep_bin081_JDPCKDNP_01525;dRep_bin317_ABPHNCOD_01232;dRep_bin347_EKGCMFPD_00789;dRep_bin282_PKAAPBFP_00053;dRep_bin039_IJNOFOJK_00980;dRep_bin001_GHHJMDAL_00862;dRep_bin272_LGBDGEIM_01970;dRep_bin186_HJAAFFNP_02184;dRep_bin005_CNDFPKJG_01374;dRep_bin332_KAOPCDPF_00412;dRep_bin167_BLMEBMNN_01248;dRep_bin260_HELEPKJL_00916;dRep_bin160_EFKMPBOM_00919;dRep_bin209_NKIHFCEN_00567;dRep_bin158_OGFICEAP_02130;dRep_bin283_NLJJFFAC_01508;dRep_bin278_BFCONKOE_00571;dRep_bin325_EIIGOGHN_00662;dRep_bin218_ACMPALGF_01369;dRep_bin094_LBLICAAO_00052;dRep_bin299_AKNBKJGM_01021;dRep_bin157_JPNIKEKI_01309;dRep_bin075_EPEMMOCL_02359;dRep_bin055_IBMMJAEE_00109;dRep_bin306_FGHMKMMP_00327;dRep_bin216_JNJMCPHB_00254;dRep_bin292_JIBLDOOH_01625;dRep_bin179_HFEIPPPA_02175;dRep_bin133_NOBPDBPA_01803;dRep_bin088_DNGPPFDK_01392;dRep_bin024_OLHDGABE_00503;dRep_bin324_IPNHOHFK_01870;dRep_bin203_CLFNNOCF_00851;dRep_bin017_FGFLFOPJ_00925;dRep_bin065_DFABHCBI_01998	>dRep_bin145_KMJJJOEJ_01258 GMP synthase [glutamine-hydrolyzing];>dRep_bin242_LKAIBGGJ_00691 GMP synthase [glutamine-hydrolyzing];>dRep_bin081_JDPCKDNP_01525 GMP synthase [glutamine-hydrolyzing];>dRep_bin317_ABPHNCOD_01232 GMP synthase [glutamine-hydrolyzi	dRep_bin216_JNJMCPHB_00254	CDS	guaA	6.3.5.2	GMP synthase [glutamine-hydrolyzing]
JNJMCPHB_00369						23.944139999999997						1	1	4,7402E-06	dRep_bin216_JNJMCPHB_00369	dRep_bin216_JNJMCPHB_00369	>dRep_bin216_JNJMCPHB_00369 Beta-glucanase	dRep_bin216_JNJMCPHB_00369	CDS	licB_2	3.2.1.73	Beta-glucanase
JNJMCPHB_00370	25.657750000000004	25.722629999999995		25.5461								3	2	1,5585E-33	dRep_bin299_AKNBKJGM_01519;dRep_bin021_AJDDCGJC_01509;dRep_bin216_JNJMCPHB_00370;dRep_bin343_JCMCKBGF_01636	dRep_bin299_AKNBKJGM_01519	>dRep_bin299_AKNBKJGM_01519 6-phospho-beta-glucosidase BglA	dRep_bin216_JNJMCPHB_00370	CDS	bglA	3.2.1.86	6-phospho-beta-glucosidase BglA
JNJMCPHB_00383					26.537080000000003							1	1	2,9618E-05	dRep_bin216_JNJMCPHB_00383	dRep_bin216_JNJMCPHB_00383	>dRep_bin216_JNJMCPHB_00383 50S ribosomal protein L27	dRep_bin216_JNJMCPHB_00383	CDS	rpmA		50S ribosomal protein L27
JNJMCPHB_00432					26.078329999999998							4	1	7,0701E-16	dRep_bin299_AKNBKJGM_00467;dRep_bin216_JNJMCPHB_00432	dRep_bin299_AKNBKJGM_00467	>dRep_bin299_AKNBKJGM_00467 Glycogen phosphorylase	dRep_bin216_JNJMCPHB_00432	CDS	glgP	2.4.1.1	Glycogen phosphorylase
JNJMCPHB_00444			25.704250000000002		26.18367	27.33943	27.34908	27.187070000000002				4	4	3,6554E-11	dRep_bin272_LGBDGEIM_00134;dRep_bin317_ABPHNCOD_00001;dRep_bin216_JNJMCPHB_00444	dRep_bin272_LGBDGEIM_00134;dRep_bin317_ABPHNCOD_00001	>dRep_bin272_LGBDGEIM_00134 Elongation factor P;>dRep_bin317_ABPHNCOD_00001 Elongation factor P	dRep_bin216_JNJMCPHB_00444	CDS	efp		Elongation factor P
JNJMCPHB_00525			22.74766	24.71523	22.851390000000002	24.54286						3	3	1,6217E-56	dRep_bin272_LGBDGEIM_00948;dRep_bin021_AJDDCGJC_01813;dRep_bin317_ABPHNCOD_01086;dRep_bin216_JNJMCPHB_00525;dRep_bin299_AKNBKJGM_01027	dRep_bin272_LGBDGEIM_00948;dRep_bin021_AJDDCGJC_01813;dRep_bin317_ABPHNCOD_01086	>dRep_bin272_LGBDGEIM_00948 Aspartate-semialdehyde dehydrogenase;>dRep_bin021_AJDDCGJC_01813 Aspartate-semialdehyde dehydrogenase;>dRep_bin317_ABPHNCOD_01086 Aspartate-semialdehyde dehydrogenase	dRep_bin216_JNJMCPHB_00525	CDS	asd	1.2.1.11	Aspartate-semialdehyde dehydrogenase
JNJMCPHB_00526	26.245179999999998	25.972309999999997	25.90428	26.485219999999995	26.190050000000003	25.86613	24.91159	25.3982				2	2	1,4844E-21	dRep_bin272_LGBDGEIM_00949;dRep_bin299_AKNBKJGM_01028;dRep_bin317_ABPHNCOD_01087;dRep_bin021_AJDDCGJC_01814;dRep_bin216_JNJMCPHB_00526	dRep_bin272_LGBDGEIM_00949;dRep_bin299_AKNBKJGM_01028;dRep_bin317_ABPHNCOD_01087;dRep_bin021_AJDDCGJC_01814;dRep_bin216_JNJMCPHB_00526	>dRep_bin272_LGBDGEIM_00949 4-hydroxy-tetrahydrodipicolinate reductase;>dRep_bin299_AKNBKJGM_01028 4-hydroxy-tetrahydrodipicolinate reductase;>dRep_bin317_ABPHNCOD_01087 4-hydroxy-tetrahydrodipicolinate reductase;>dRep_bin021_AJDDCGJC_01814 4-hydroxy-tetra	dRep_bin216_JNJMCPHB_00526	CDS	dapB	1.17.1.8	4-hydroxy-tetrahydrodipicolinate reductase
JNJMCPHB_00569						28.07281						1	1	0,007752	dRep_bin299_AKNBKJGM_01740;dRep_bin216_JNJMCPHB_00569	dRep_bin299_AKNBKJGM_01740;dRep_bin216_JNJMCPHB_00569	>dRep_bin299_AKNBKJGM_01740 Acyl carrier protein;>dRep_bin216_JNJMCPHB_00569 Acyl carrier protein	dRep_bin216_JNJMCPHB_00569	CDS	acpP		Acyl carrier protein
JNJMCPHB_00609	26.408729999999995	26.575419999999998	26.90288	27.125639999999997	27.84326	28.417960000000004	27.35161	27.59228				7	2	3,1052E-37	dRep_bin250_NMCAMJIO_00379;dRep_bin216_JNJMCPHB_00609	dRep_bin250_NMCAMJIO_00379;dRep_bin216_JNJMCPHB_00609	>dRep_bin250_NMCAMJIO_00379 Bifunctional purine biosynthesis protein PurH;>dRep_bin216_JNJMCPHB_00609 Bifunctional purine biosynthesis protein PurH	dRep_bin216_JNJMCPHB_00609	CDS	purH_1		Bifunctional purine biosynthesis protein PurH
JNJMCPHB_00670					27.315880000000003							4	0	2,925E-14	dRep_bin216_JNJMCPHB_00670;dRep_bin005_CNDFPKJG_01588;dRep_bin140_ACFAKGIL_00492;dRep_bin177_HLHGKLFL_01416	dRep_bin216_JNJMCPHB_00670;dRep_bin005_CNDFPKJG_01588;dRep_bin140_ACFAKGIL_00492;dRep_bin177_HLHGKLFL_01416	>dRep_bin216_JNJMCPHB_00670 Inosine-5-monophosphate dehydrogenase;>dRep_bin005_CNDFPKJG_01588 Inosine-5-monophosphate dehydrogenase;>dRep_bin140_ACFAKGIL_00492 Inosine-5-monophosphate dehydrogenase;>dRep_bin177_HLHGKLFL_01416 Inosine-5-monophosphate de	dRep_bin216_JNJMCPHB_00670	CDS	guaB_1	1.1.1.205	Inosine-5'-monophosphate dehydrogenase
JNJMCPHB_00678						23.298379999999998						3	1	3,169E-17	dRep_bin216_JNJMCPHB_00678;dRep_bin021_AJDDCGJC_00764	dRep_bin216_JNJMCPHB_00678;dRep_bin021_AJDDCGJC_00764	>dRep_bin216_JNJMCPHB_00678 Bifunctional purine biosynthesis protein PurH;>dRep_bin021_AJDDCGJC_00764 Bifunctional purine biosynthesis protein PurH	dRep_bin216_JNJMCPHB_00678	CDS	purH_2		Bifunctional purine biosynthesis protein PurH
JNJMCPHB_00690	25.64952		26.292689999999997	28.79637	27.13858			25.76481				4	4	1,7987E-18	dRep_bin299_AKNBKJGM_00573;dRep_bin216_JNJMCPHB_00690;dRep_bin021_AJDDCGJC_00144	dRep_bin299_AKNBKJGM_00573;dRep_bin216_JNJMCPHB_00690;dRep_bin021_AJDDCGJC_00144	>dRep_bin299_AKNBKJGM_00573 50S ribosomal protein L13;>dRep_bin216_JNJMCPHB_00690 50S ribosomal protein L13;>dRep_bin021_AJDDCGJC_00144 50S ribosomal protein L13	dRep_bin216_JNJMCPHB_00690	CDS	rplM		50S ribosomal protein L13
JNJMCPHB_00707			24.23929	24.054080000000003	25.085699999999996	23.66709						4	3	5,4822E-16	dRep_bin299_AKNBKJGM_00667;dRep_bin317_ABPHNCOD_01016;dRep_bin216_JNJMCPHB_00707;dRep_bin021_AJDDCGJC_00848	dRep_bin299_AKNBKJGM_00667;dRep_bin317_ABPHNCOD_01016	>dRep_bin299_AKNBKJGM_00667 Polyribonucleotide nucleotidyltransferase;>dRep_bin317_ABPHNCOD_01016 Polyribonucleotide nucleotidyltransferase	dRep_bin216_JNJMCPHB_00707	CDS	pnp	2.7.7.8	Polyribonucleotide nucleotidyltransferase
JNJMCPHB_00725					23.991699999999998	25.94896		23.806860000000004				3	3	6,4263E-24	dRep_bin021_AJDDCGJC_01339;dRep_bin216_JNJMCPHB_00725	dRep_bin021_AJDDCGJC_01339	>dRep_bin021_AJDDCGJC_01339 30S ribosomal protein S1	dRep_bin216_JNJMCPHB_00725	CDS	rpsA_1		30S ribosomal protein S1
JNJMCPHB_00756							24.45945					1	1	3,8301E-05	dRep_bin216_JNJMCPHB_00756	dRep_bin216_JNJMCPHB_00756	>dRep_bin216_JNJMCPHB_00756 6-phospho-beta-glucosidase GmuD	dRep_bin216_JNJMCPHB_00756	CDS	gmuD	3.2.1.86	6-phospho-beta-glucosidase GmuD
JNJMCPHB_00757						25.173560000000002						2	2	1,6878E-18	dRep_bin216_JNJMCPHB_00757	dRep_bin216_JNJMCPHB_00757	>dRep_bin216_JNJMCPHB_00757 hypothetical protein	dRep_bin216_JNJMCPHB_00757	CDS			hypothetical protein
JNJMCPHB_00777	28.080599999999997	27.851210000000002	27.83503	28.76765	28.76446	28.734150000000003	28.432529999999996	28.52369				7	5	1,6768E-117	dRep_bin272_LGBDGEIM_00167;dRep_bin216_JNJMCPHB_00777;dRep_bin299_AKNBKJGM_01571	dRep_bin272_LGBDGEIM_00167	>dRep_bin272_LGBDGEIM_00167 L(+)-tartrate dehydratase subunit alpha	dRep_bin216_JNJMCPHB_00777	CDS	ttdA	4.2.1.32	L(+)-tartrate dehydratase subunit alpha
JNJMCPHB_00778	27.48999	26.80809	26.95815	28.289649999999998	27.5591	28.480429999999995	27.925469999999997	27.867729999999998				7	5	2,6519E-36	dRep_bin272_LGBDGEIM_00168;dRep_bin216_JNJMCPHB_00778;dRep_bin021_AJDDCGJC_00190;dRep_bin097_CBBLIPAN_01331	dRep_bin272_LGBDGEIM_00168	>dRep_bin272_LGBDGEIM_00168 Fumarate hydratase class I, anaerobic	dRep_bin216_JNJMCPHB_00778	CDS	fumB	4.2.1.2	Fumarate hydratase class I, anaerobic
JNJMCPHB_00780						22.154930000000004						5	1	7,929E-57	dRep_bin021_AJDDCGJC_00192;dRep_bin216_JNJMCPHB_00780	dRep_bin021_AJDDCGJC_00192;dRep_bin216_JNJMCPHB_00780	>dRep_bin021_AJDDCGJC_00192 Fumarate reductase flavoprotein subunit;>dRep_bin216_JNJMCPHB_00780 Fumarate reductase flavoprotein subunit	dRep_bin216_JNJMCPHB_00780	CDS	frdA	1.3.5.4	Fumarate reductase flavoprotein subunit
JNJMCPHB_00781						25.680860000000003						5	1	4,3769E-20	dRep_bin272_LGBDGEIM_00171;dRep_bin216_JNJMCPHB_00781;dRep_bin021_AJDDCGJC_00193	dRep_bin272_LGBDGEIM_00171	>dRep_bin272_LGBDGEIM_00171 Fumarate reductase iron-sulfur subunit	dRep_bin216_JNJMCPHB_00781	CDS	frdB	1.3.5.1	Fumarate reductase iron-sulfur subunit
JNJMCPHB_00793					20.565419999999996	23.75959	21.114520000000002					2	2	5,9749E-07	dRep_bin216_JNJMCPHB_00793	dRep_bin216_JNJMCPHB_00793	>dRep_bin216_JNJMCPHB_00793 Phosphomannomutase/phosphoglucomutase	dRep_bin216_JNJMCPHB_00793	CDS	algC_1	5.4.2.2	Phosphomannomutase/phosphoglucomutase
JNJMCPHB_00794	25.34011	24.987499999999997		25.222319999999996								6	5	5,9061E-51	dRep_bin021_AJDDCGJC_01072;dRep_bin216_JNJMCPHB_00794	dRep_bin021_AJDDCGJC_01072;dRep_bin216_JNJMCPHB_00794	>dRep_bin021_AJDDCGJC_01072 Glucose-6-phosphate isomerase;>dRep_bin216_JNJMCPHB_00794 Glucose-6-phosphate isomerase	dRep_bin216_JNJMCPHB_00794	CDS	pgi	5.3.1.9	Glucose-6-phosphate isomerase
JNJMCPHB_00810					24.462259999999997	28.211090000000002	25.32433					18	7	4,0193E-206	dRep_bin216_JNJMCPHB_00810	dRep_bin216_JNJMCPHB_00810	>dRep_bin216_JNJMCPHB_00810 Phosphoenolpyruvate carboxykinase (ATP)	dRep_bin216_JNJMCPHB_00810	CDS	pckA	4.1.1.49	Phosphoenolpyruvate carboxykinase (ATP)
JNJMCPHB_00814					23.534100000000002	22.225089999999998		22.685689999999997				2	1	4,4559E-06	dRep_bin238_OLNFACLE_00398;dRep_bin057_BNCFHBBO_01480;dRep_bin166_DFIAJFEC_01273;dRep_bin335_JIOGNAPG_00083;dRep_bin085_MBHLGCDB_00001;dRep_bin100_CODMOHGB_00507;dRep_bin293_MEPKGOAN_01486;dRep_bin216_JNJMCPHB_00814;dRep_bin052_PGOOKKFH_01423;dRep_bin207_OHNPDPFI_00321;dRep_bin151_AHBJLMBI_01464;dRep_bin117_PMEMANMD_00592;dRep_bin009_KMMEHEKA_00219;dRep_bin259_IFIOODLK_02073;dRep_bin102_ICFDHPGB_00079;dRep_bin003_GOBBLOGO_00201;dRep_bin021_AJDDCGJC_00106;dRep_bin247_EKGBJCBM_00561;dRep_bin049_MNFBDPNO_01629;dRep_bin213_HHHELMFN_00639;dRep_bin265_LFKFBJPC_01443;dRep_bin109_MJABCPAK_01407;dRep_bin257_JHFDCHCB_01026;dRep_bin032_PPNIGLME_00869;dRep_bin079_GAOGCKND_01412;dRep_bin068_ENOLAELK_01548;dRep_bin025_CBEJJMLE_00266;dRep_bin152_LJMCIADF_01534;dRep_bin124_HIHDFGCL_01183;dRep_bin194_MEPDOGGJ_00641;dRep_bin339_DBNBAHDK_01337;dRep_bin283_NLJJFFAC_00380	dRep_bin238_OLNFACLE_00398;dRep_bin057_BNCFHBBO_01480;dRep_bin166_DFIAJFEC_01273;dRep_bin335_JIOGNAPG_00083;dRep_bin085_MBHLGCDB_00001;dRep_bin100_CODMOHGB_00507;dRep_bin293_MEPKGOAN_01486;dRep_bin216_JNJMCPHB_00814;dRep_bin052_PGOOKKFH_01423;dRep_bin207_OHNPDPFI_00321;dRep_bin151_AHBJLMBI_01464;dRep_bin117_PMEMANMD_00592;dRep_bin009_KMMEHEKA_00219;dRep_bin259_IFIOODLK_02073;dRep_bin102_ICFDHPGB_00079;dRep_bin003_GOBBLOGO_00201;dRep_bin021_AJDDCGJC_00106;dRep_bin247_EKGBJCBM_00561;dRep_bin049_MNFBDPNO_01629;dRep_bin213_HHHELMFN_00639;dRep_bin265_LFKFBJPC_01443;dRep_bin109_MJABCPAK_01407;dRep_bin257_JHFDCHCB_01026;dRep_bin032_PPNIGLME_00869;dRep_bin079_GAOGCKND_01412;dRep_bin068_ENOLAELK_01548;dRep_bin025_CBEJJMLE_00266;dRep_bin152_LJMCIADF_01534;dRep_bin124_HIHDFGCL_01183;dRep_bin194_MEPDOGGJ_00641;dRep_bin339_DBNBAHDK_01337;dRep_bin283_NLJJFFAC_00380	>dRep_bin238_OLNFACLE_00398 Lysine--tRNA ligase;>dRep_bin057_BNCFHBBO_01480 Lysine--tRNA ligase;>dRep_bin166_DFIAJFEC_01273 Lysine--tRNA ligase;>dRep_bin335_JIOGNAPG_00083 Lysine--tRNA ligase;>dRep_bin085_MBHLGCDB_00001 Lysine--tRNA ligase;>dRep_bin100_COD	dRep_bin216_JNJMCPHB_00814	CDS	lysS	6.1.1.6	Lysine--tRNA ligase
JNJMCPHB_00987							26.542759999999998					2	0	2,1948E-22	dRep_bin216_JNJMCPHB_00987	dRep_bin216_JNJMCPHB_00987	>dRep_bin216_JNJMCPHB_00987 Formate--tetrahydrofolate ligase	dRep_bin216_JNJMCPHB_00987	CDS	fhs_1	6.3.4.3	Formate--tetrahydrofolate ligase
JNJMCPHB_01068	26.7213	26.29735	25.12226	26.13373	26.117240000000002		24.972639999999995	25.029519999999998				4	2	1,3567E-10	dRep_bin299_AKNBKJGM_01072;dRep_bin216_JNJMCPHB_01068	dRep_bin299_AKNBKJGM_01072;dRep_bin216_JNJMCPHB_01068	>dRep_bin299_AKNBKJGM_01072 N-acetyl-gamma-glutamyl-phosphate reductase;>dRep_bin216_JNJMCPHB_01068 N-acetyl-gamma-glutamyl-phosphate reductase	dRep_bin216_JNJMCPHB_01068	CDS	argC	1.2.1.38	N-acetyl-gamma-glutamyl-phosphate reductase
JNJMCPHB_01074					22.565319999999996	22.194060000000004						4	2	6,1457E-18	dRep_bin021_AJDDCGJC_00049;dRep_bin216_JNJMCPHB_01074	dRep_bin021_AJDDCGJC_00049;dRep_bin216_JNJMCPHB_01074	>dRep_bin021_AJDDCGJC_00049 ATP synthase subunit beta;>dRep_bin216_JNJMCPHB_01074 ATP synthase subunit beta	dRep_bin216_JNJMCPHB_01074	CDS	atpD	3.6.3.14	ATP synthase subunit beta
JNJMCPHB_01076				21.86884								3	1	1,3797E-13	dRep_bin021_AJDDCGJC_00051;dRep_bin252_NDAKLAGD_00826;dRep_bin317_ABPHNCOD_01131;dRep_bin216_JNJMCPHB_01076;dRep_bin272_LGBDGEIM_00618;dRep_bin097_CBBLIPAN_01579;dRep_bin053_OMGNPOOB_00833;dRep_bin337_FHKPNFDB_00090;dRep_bin052_PGOOKKFH_01594;dRep_bin168_HKDILBFE_01015;dRep_bin322_OJELOJOF_01622;dRep_bin220_PILICLLL_01543;dRep_bin055_IBMMJAEE_00610;dRep_bin061_ONFGDLGO_01234;dRep_bin168_HKDILBFE_00368;dRep_bin055_IBMMJAEE_00168;dRep_bin261_FJICAFFM_00490;dRep_bin017_FGFLFOPJ_00414;dRep_bin115_IFKGOGCL_01280;dRep_bin257_JHFDCHCB_01406;dRep_bin323_FBBLPLCG_01600;dRep_bin007_LNLEAAAN_00766;dRep_bin049_MNFBDPNO_00781;dRep_bin333_EFOKIBLA_01149;dRep_bin279_IAEFEPEN_01471;dRep_bin234_ECABPBME_01515;dRep_bin179_HFEIPPPA_02108;dRep_bin023_HGFJFKAI_01527;dRep_bin335_JIOGNAPG_00787;dRep_bin250_NMCAMJIO_00423;dRep_bin158_OGFICEAP_00549;dRep_bin100_CODMOHGB_01341;dRep_bin089_PAJFOJBN_02515;dRep_bin088_DNGPPFDK_01371;dRep_bin081_JDPCKDNP_00684;dRep_bin324_IPNHOHFK_01454;dRep_bin300_MJPPENNL_01260;dRep_bin292_JIBLDOOH_01593;dRep_bin284_DEHKNOBF_00281;dRep_bin282_PKAAPBFP_00934;dRep_bin279_IAEFEPEN_01275;dRep_bin269_PNILGKPH_00152;dRep_bin240_LDBBGJKG_01257;dRep_bin226_NLNLHLLD_00367;dRep_bin209_NKIHFCEN_01541;dRep_bin203_CLFNNOCF_01928;dRep_bin179_HFEIPPPA_00359;dRep_bin167_BLMEBMNN_00233;dRep_bin160_EFKMPBOM_02132;dRep_bin154_JGOKHKLI_02775;dRep_bin133_NOBPDBPA_00727;dRep_bin114_FJHJKHGL_00838;dRep_bin095_HOBNOEEF_00822;dRep_bin075_EPEMMOCL_00939;dRep_bin074_EHAOMODJ_00291;dRep_bin065_DFABHCBI_01203;dRep_bin347_EKGCMFPD_00625;dRep_bin325_EIIGOGHN_00612;dRep_bin310_IMBAFDIF_01359;dRep_bin308_JBPDGLPP_00545;dRep_bin306_FGHMKMMP_01018;dRep_bin297_EDHEEICA_01903;dRep_bin201_OLKDIBOK_00335;dRep_bin186_HJAAFFNP_00409;dRep_bin173_BEBNCADL_00242;dRep_bin169_PNICKJKO_00103;dRep_bin145_KMJJJOEJ_01348;dRep_bin135_HHKACLPM_00566;dRep_bin101_BNDDLDCL_00036;dRep_bin069_EGGEOGDC_01480;dRep_bin062_BOFBFLDA_00487;dRep_bin047_IFFANOMN_01271;dRep_bin042_MMFCLHOO_00308;dRep_bin041_OPKGAAAG_00762;dRep_bin024_OLHDGABE_00679;dRep_bin016_JLGAHGOJ_01831;dRep_bin001_GHHJMDAL_00660;dRep_bin349_AMCJEEEG_00131;dRep_bin312_MJFEFHMP_00833;dRep_bin264_DNFFGNEG_00100;dRep_bin246_MMFBABHK_00297;dRep_bin219_HGPEELLF_00003;dRep_bin174_LJJOKEME_01103;dRep_bin129_GADIAMAA_01409;dRep_bin127_FIPNHBCH_00703;dRep_bin077_DNNBMPMC_01278;dRep_bin030_OGPDLGOC_01790;dRep_bin004_OCHNPJPO_01519;dRep_bin218_ACMPALGF_00968;dRep_bin185_OOOLKACK_00657;dRep_bin181_MKGPMPIA_00538;dRep_bin148_NAJFKJMD_01090;dRep_bin058_GJKCICJN_01056;dRep_bin291_EILOACJB_00579;dRep_bin244_LBFMHLBI_01277;dRep_bin223_PIMCDKJI_01006;dRep_bin204_INMOGLDN_01473;dRep_bin184_MBMMJHKO_00222;dRep_bin302_AHDEPDKG_00621;dRep_bin265_LFKFBJPC_00590;dRep_bin233_BAGKKAOB_00885;dRep_bin188_EJILNMPE_01053;dRep_bin081_JDPCKDNP_01324;dRep_bin318_IEDEJOFJ_00724;dRep_bin144_NPHACCKF_00221;dRep_bin096_GNHMEKPF_00086;dRep_bin344_CJJBDGAA_01489;dRep_bin295_EJGKDKNE_00851;dRep_bin048_PABMBHAL_01507;dRep_bin303_DDDNDJCF_00663;dRep_bin283_NLJJFFAC_01754;dRep_bin201_OLKDIBOK_00523;dRep_bin139_KGAJINND_01276;dRep_bin134_HIAPAODO_01158;dRep_bin094_LBLICAAO_00942;dRep_bin062_BOFBFLDA_00417;dRep_bin336_MPGOKPOL_02385;dRep_bin082_HBEFABJN_00650;dRep_bin125_FADLGGII_00540;dRep_bin334_NAPFFNLD_01195;dRep_bin217_MJCEAEPB_00530;dRep_bin195_DDMDFNOK_00971;dRep_bin060_HNFNENOI_00088;dRep_bin328_GIGKNKPJ_00426;dRep_bin281_OGHLKMAI_01076;dRep_bin197_NHLBHFEI_00626;dRep_bin103_IGJBLKMC_00726;dRep_bin116_CLFDBMOF_00455;dRep_bin332_KAOPCDPF_00448;dRep_bin345_GLPJDLOI_00589;dRep_bin314_KCHFPLIP_00788;dRep_bin128_JPBBHEMA_00693;dRep_bin073_AKBCEHHO_01462;dRep_bin045_GJACFFBC_00428;dRep_bin329_GDOHKPBL_01522;dRep_bin316_FNLHDNEO_00349;dRep_bin307_AOCKHIKF_00400;dRep_bin294_EHJINIDK_01408;dRep_bin289_KALDCNNP_01327;dRep_bin183_FPGIOKBG_00622;dRep_bin098_DDEBHDKK_01308;dRep_bin165_HMDFFMMM_01247;dRep_bin037_GEAOEKHA_01212;dRep_bin256_KEMNAOBC_00113;dRep_bin092_OOJCPDEA_01143;dRep_bin126_PPDNCIBN_00264;dRep_bin090_IPGNHCBJ_00911;dRep_bin215_ABBFGCAF_00280;dRep_bin005_CNDFPKJG_00629;dRep_bin270_GEJAHNCN_01426;dRep_bin116_CLFDBMOF_00686;dRep_bin069_EGGEOGDC_00857;dRep_bin007_LNLEAAAN_01604;dRep_bin057_BNCFHBBO_01159;dRep_bin038_EIGFILKG_00229;dRep_bin114_FJHJKHGL_00934;dRep_bin152_LJMCIADF_00045;dRep_bin322_OJELOJOF_00826;dRep_bin266_JFOCEDAE_00030;dRep_bin194_MEPDOGGJ_01235;dRep_bin079_GAOGCKND_01437;dRep_bin068_ENOLAELK_01387;dRep_bin025_CBEJJMLE_00917;dRep_bin240_LDBBGJKG_00802;dRep_bin347_EKGCMFPD_01498;dRep_bin167_BLMEBMNN_00596;dRep_bin160_EFKMPBOM_02114;dRep_bin260_HELEPKJL_02017;dRep_bin091_MAFACGAD_00797;dRep_bin099_DNDAGJEJ_01471;dRep_bin278_BFCONKOE_01179;dRep_bin168_HKDILBFE_00397;dRep_bin284_DEHKNOBF_00737;dRep_bin001_GHHJMDAL_01209;dRep_bin236_BNONDECB_00531;dRep_bin286_OEMIJKMC_01078;dRep_bin231_CFOLMJBA_00464;dRep_bin193_GDMDPNNM_00224;dRep_bin172_ALNHGLMD_01787;dRep_bin182_EMCFODCD_00065;dRep_bin044_IPFKHAEF_00183	dRep_bin021_AJDDCGJC_00051;dRep_bin252_NDAKLAGD_00826;dRep_bin317_ABPHNCOD_01131;dRep_bin216_JNJMCPHB_01076;dRep_bin272_LGBDGEIM_00618;dRep_bin097_CBBLIPAN_01579;dRep_bin053_OMGNPOOB_00833;dRep_bin337_FHKPNFDB_00090;dRep_bin052_PGOOKKFH_01594	>dRep_bin021_AJDDCGJC_00051 ATP synthase subunit alpha;>dRep_bin252_NDAKLAGD_00826 ATP synthase subunit alpha;>dRep_bin317_ABPHNCOD_01131 ATP synthase subunit alpha;>dRep_bin216_JNJMCPHB_01076 ATP synthase subunit alpha;>dRep_bin272_LGBDGEIM_00618 ATP synt	dRep_bin216_JNJMCPHB_01076	CDS	atpA	3.6.3.14	ATP synthase subunit alpha
JNJMCPHB_01083					21.98718							1	1	5,2284E-05	dRep_bin317_ABPHNCOD_01123;dRep_bin216_JNJMCPHB_01083	dRep_bin317_ABPHNCOD_01123;dRep_bin216_JNJMCPHB_01083	>dRep_bin317_ABPHNCOD_01123 UDP-N-acetylglucosamine 2-epimerase;>dRep_bin216_JNJMCPHB_01083 UDP-N-acetylglucosamine 2-epimerase	dRep_bin216_JNJMCPHB_01083	CDS	mnaA	5.1.3.14	UDP-N-acetylglucosamine 2-epimerase
JNJMCPHB_01115						24.45958						2	2	1,0518E-06	dRep_bin353_PPDHLNJB_01814;dRep_bin216_JNJMCPHB_01115;dRep_bin272_LGBDGEIM_01977;dRep_bin242_LKAIBGGJ_00570;dRep_bin041_OPKGAAAG_00038	dRep_bin353_PPDHLNJB_01814;dRep_bin216_JNJMCPHB_01115;dRep_bin272_LGBDGEIM_01977;dRep_bin242_LKAIBGGJ_00570;dRep_bin041_OPKGAAAG_00038	>dRep_bin353_PPDHLNJB_01814 Hydroxylamine reductase;>dRep_bin216_JNJMCPHB_01115 Hydroxylamine reductase;>dRep_bin272_LGBDGEIM_01977 Hydroxylamine reductase;>dRep_bin242_LKAIBGGJ_00570 Hydroxylamine reductase;>dRep_bin041_OPKGAAAG_00038 Hydroxylamine reduct	dRep_bin216_JNJMCPHB_01115	CDS	hcp	1.7.99.1	Hydroxylamine reductase
JNJMCPHB_01135					23.761719999999997	24.60309	24.058709999999998	23.77284				2	2	5,5357E-07	dRep_bin150_HCDEOBMH_01488;dRep_bin021_AJDDCGJC_00070;dRep_bin216_JNJMCPHB_01135	dRep_bin150_HCDEOBMH_01488;dRep_bin021_AJDDCGJC_00070;dRep_bin216_JNJMCPHB_01135	>dRep_bin150_HCDEOBMH_01488 2-dehydro-3-deoxyphosphooctonate aldolase;>dRep_bin021_AJDDCGJC_00070 2-dehydro-3-deoxyphosphooctonate aldolase;>dRep_bin216_JNJMCPHB_01135 2-dehydro-3-deoxyphosphooctonate aldolase	dRep_bin216_JNJMCPHB_01135	CDS	kdsA	2.5.1.55	2-dehydro-3-deoxyphosphooctonate aldolase
JNJMCPHB_01166					24.220439999999996	26.66939	24.653050000000004	25.07423				10	0	1,4616E-34	dRep_bin216_JNJMCPHB_01166	dRep_bin216_JNJMCPHB_01166	>dRep_bin216_JNJMCPHB_01166 DNA-directed RNA polymerase subunit beta	dRep_bin216_JNJMCPHB_01166	CDS	rpoC	2.7.7.6	DNA-directed RNA polymerase subunit beta'
JNJMCPHB_01170	28.324060000000003	28.691990000000004	28.197180000000003	29.150060000000003	27.639270000000003	28.982609999999994	28.34092	27.865789999999997				10	3	3,5534E-130	dRep_bin272_LGBDGEIM_00843;dRep_bin021_AJDDCGJC_00783;dRep_bin343_JCMCKBGF_03072;dRep_bin217_MJCEAEPB_00236;F1SNZ7;dRep_bin216_JNJMCPHB_01170;A0A287B574;O19069;A0A287BA50;F1SNZ6	dRep_bin272_LGBDGEIM_00843	>dRep_bin272_LGBDGEIM_00843 Succinate--CoA ligase [ADP-forming] subunit alpha	dRep_bin216_JNJMCPHB_01170	CDS	sucD	6.2.1.5	Succinate--CoA ligase [ADP-forming] subunit alpha
JNJMCPHB_01174						24.258609999999997						2	2	1,5164E-09	dRep_bin216_JNJMCPHB_01174	dRep_bin216_JNJMCPHB_01174	>dRep_bin216_JNJMCPHB_01174 L-lactate dehydrogenase	dRep_bin216_JNJMCPHB_01174	CDS	ldh	1.1.1.27	L-lactate dehydrogenase
JNJMCPHB_01257				23.537770000000002								1	1	0,0032666	dRep_bin299_AKNBKJGM_01763;dRep_bin272_LGBDGEIM_01075;dRep_bin216_JNJMCPHB_01257;dRep_bin021_AJDDCGJC_00528	dRep_bin299_AKNBKJGM_01763;dRep_bin272_LGBDGEIM_01075;dRep_bin216_JNJMCPHB_01257;dRep_bin021_AJDDCGJC_00528	>dRep_bin299_AKNBKJGM_01763 Leucine-responsive regulatory protein;>dRep_bin272_LGBDGEIM_01075 Leucine-responsive regulatory protein;>dRep_bin216_JNJMCPHB_01257 Leucine-responsive regulatory protein;>dRep_bin021_AJDDCGJC_00528 Lrp/AsnC ligand binding domain	dRep_bin216_JNJMCPHB_01257	CDS	lrp		Leucine-responsive regulatory protein
JNJMCPHB_01258	28.615830000000003	28.18546	29.82558	29.92139	30.37161	30.505309999999998	29.835990000000002	30.137000000000004				19	11	0	dRep_bin191_NGFJMLOL_01017;dRep_bin307_AOCKHIKF_00836;dRep_bin232_JGAEDAFA_01923;dRep_bin098_DDEBHDKK_00570;dRep_bin073_AKBCEHHO_00429;dRep_bin329_GDOHKPBL_00208;dRep_bin289_KALDCNNP_00441;dRep_bin219_HGPEELLF_00854;dRep_bin047_IFFANOMN_01143;dRep_bin354_MMOALAFN_00793;dRep_bin093_PGADNPMG_00569;dRep_bin327_EPEGNBAG_00694;dRep_bin123_PJKBFKBB_01119;dRep_bin325_EIIGOGHN_01520;dRep_bin335_JIOGNAPG_00036;dRep_bin082_HBEFABJN_00133;dRep_bin204_INMOGLDN_01573;dRep_bin174_LJJOKEME_01467;dRep_bin050_FBECOHCI_00562;dRep_bin264_DNFFGNEG_01376;dRep_bin252_NDAKLAGD_00172;dRep_bin246_MMFBABHK_01476;dRep_bin202_HEPPALPH_01125;dRep_bin004_OCHNPJPO_00139;dRep_bin318_IEDEJOFJ_00360;dRep_bin244_LBFMHLBI_01421;dRep_bin223_PIMCDKJI_00814;dRep_bin186_HJAAFFNP_00783;dRep_bin133_NOBPDBPA_02278;dRep_bin105_AAEIHAFF_01501;dRep_bin005_CNDFPKJG_01278;dRep_bin317_ABPHNCOD_01283;dRep_bin007_LNLEAAAN_00664;dRep_bin312_MJFEFHMP_01049;dRep_bin129_GADIAMAA_00560;dRep_bin065_DFABHCBI_00478;dRep_bin287_DONBGKDH_00800;dRep_bin238_OLNFACLE_00723;dRep_bin179_HFEIPPPA_01221;dRep_bin167_BLMEBMNN_00475;dRep_bin125_FADLGGII_00749;dRep_bin103_IGJBLKMC_00712;dRep_bin088_DNGPPFDK_00743;dRep_bin048_PABMBHAL_01780;dRep_bin348_LCLFDNEE_00919;dRep_bin278_BFCONKOE_00886;dRep_bin097_CBBLIPAN_00374;dRep_bin081_JDPCKDNP_01011;dRep_bin032_PPNIGLME_00057;dRep_bin272_LGBDGEIM_01074;dRep_bin049_MNFBDPNO_01322;dRep_bin013_IODPEDPB_01734;dRep_bin299_AKNBKJGM_01764;dRep_bin266_JFOCEDAE_00776;dRep_bin216_JNJMCPHB_01258;dRep_bin021_AJDDCGJC_00529;dRep_bin316_FNLHDNEO_00493;dRep_bin314_KCHFPLIP_01715;dRep_bin296_FDMPKPOH_01763;dRep_bin275_NIDIBBDA_00322;dRep_bin118_FGIOKLBC_00279;dRep_bin037_GEAOEKHA_00835;dRep_bin028_GKEJLBAM_01763;dRep_bin331_HPKAPHAF_00024;dRep_bin301_NJFJIJGA_01995;dRep_bin149_GABCHCDI_01177;dRep_bin057_BNCFHBBO_00918;dRep_bin040_EIFLLDOA_01272;dRep_bin265_LFKFBJPC_01505;dRep_bin022_BOEAFNDE_00753;dRep_bin210_AGEDAEIA_00448	dRep_bin191_NGFJMLOL_01017	>dRep_bin191_NGFJMLOL_01017 Aspartate aminotransferase	dRep_bin216_JNJMCPHB_01258	CDS	patA	2.6.1.-	Putative N-acetyl-LL-diaminopimelate aminotransferase
JNJMCPHB_01272		25.58075										6	0	1,3543E-87	dRep_bin108_BPNCDINP_01326;dRep_bin089_PAJFOJBN_00301;dRep_bin300_MJPPENNL_00939;dRep_bin145_KMJJJOEJ_00792;dRep_bin091_MAFACGAD_01189;dRep_bin049_MNFBDPNO_00324;dRep_bin016_JLGAHGOJ_00954;dRep_bin157_JPNIKEKI_00961;dRep_bin297_EDHEEICA_00222;dRep_bin160_EFKMPBOM_02659;dRep_bin079_GAOGCKND_00457;dRep_bin068_ENOLAELK_00441;dRep_bin101_BNDDLDCL_01290;dRep_bin330_CODAKHDJ_00875;dRep_bin133_NOBPDBPA_00602;dRep_bin299_AKNBKJGM_01294;dRep_bin250_NMCAMJIO_01057;dRep_bin123_PJKBFKBB_00547;dRep_bin272_LGBDGEIM_01628;dRep_bin179_HFEIPPPA_01660;dRep_bin216_JNJMCPHB_01272;dRep_bin201_OLKDIBOK_01356;dRep_bin062_BOFBFLDA_00952;dRep_bin107_EFNBPDOP_00212;dRep_bin077_DNNBMPMC_01832;dRep_bin306_FGHMKMMP_01672;dRep_bin095_HOBNOEEF_00755;dRep_bin159_ADJJGPBG_00425;dRep_bin222_GGCAJABB_01443;dRep_bin310_IMBAFDIF_00623;dRep_bin181_MKGPMPIA_00586;dRep_bin074_EHAOMODJ_00159;dRep_bin073_AKBCEHHO_00467;dRep_bin285_IPHKFJAN_00913;dRep_bin228_CECEDMJG_00322;dRep_bin066_AJACLPEE_00029;dRep_bin276_EHNFLEBP_00509;dRep_bin021_AJDDCGJC_01318;dRep_bin104_EGLEJOLM_00960;dRep_bin327_EPEGNBAG_00068;dRep_bin241_LMMMGDNI_00158	dRep_bin108_BPNCDINP_01326;dRep_bin089_PAJFOJBN_00301;dRep_bin300_MJPPENNL_00939;dRep_bin145_KMJJJOEJ_00792;dRep_bin091_MAFACGAD_01189;dRep_bin049_MNFBDPNO_00324;dRep_bin016_JLGAHGOJ_00954;dRep_bin157_JPNIKEKI_00961;dRep_bin297_EDHEEICA_00222;dRep_bin160_EFKMPBOM_02659;dRep_bin079_GAOGCKND_00457;dRep_bin068_ENOLAELK_00441;dRep_bin101_BNDDLDCL_01290;dRep_bin330_CODAKHDJ_00875;dRep_bin133_NOBPDBPA_00602;dRep_bin299_AKNBKJGM_01294;dRep_bin250_NMCAMJIO_01057;dRep_bin123_PJKBFKBB_00547;dRep_bin272_LGBDGEIM_01628;dRep_bin179_HFEIPPPA_01660;dRep_bin216_JNJMCPHB_01272;dRep_bin201_OLKDIBOK_01356;dRep_bin062_BOFBFLDA_00952;dRep_bin107_EFNBPDOP_00212;dRep_bin077_DNNBMPMC_01832;dRep_bin306_FGHMKMMP_01672;dRep_bin095_HOBNOEEF_00755;dRep_bin159_ADJJGPBG_00425;dRep_bin222_GGCAJABB_01443;dRep_bin310_IMBAFDIF_00623;dRep_bin181_MKGPMPIA_00586;dRep_bin074_EHAOMODJ_00159	>dRep_bin108_BPNCDINP_01326 Pyridoxal 5-phosphate synthase subunit PdxS;>dRep_bin089_PAJFOJBN_00301 Pyridoxal 5-phosphate synthase subunit PdxS;>dRep_bin300_MJPPENNL_00939 Pyridoxal 5-phosphate synthase subunit PdxS;>dRep_bin145_KMJJJOEJ_00792 Pyridoxal	dRep_bin216_JNJMCPHB_01272	CDS	pdxS	4.3.3.6	Pyridoxal 5'-phosphate synthase subunit PdxS
JNJMCPHB_01294					24.790739999999996	24.67061		24.49997				3	3	8,5191E-06	dRep_bin272_LGBDGEIM_00151;dRep_bin097_CBBLIPAN_00886;dRep_bin216_JNJMCPHB_01294;dRep_bin299_AKNBKJGM_01627;dRep_bin021_AJDDCGJC_00504	dRep_bin272_LGBDGEIM_00151	>dRep_bin272_LGBDGEIM_00151 Leucine--tRNA ligase	dRep_bin216_JNJMCPHB_01294	CDS	leuS	6.1.1.4	Leucine--tRNA ligase
JNJMCPHB_01305							22.41555					1	1	3,918E-07	dRep_bin216_JNJMCPHB_01305;dRep_bin272_LGBDGEIM_01842	dRep_bin216_JNJMCPHB_01305;dRep_bin272_LGBDGEIM_01842	>dRep_bin216_JNJMCPHB_01305 Glycine--tRNA ligase beta subunit;>dRep_bin272_LGBDGEIM_01842 Glycine--tRNA ligase beta subunit	dRep_bin216_JNJMCPHB_01305	CDS	glyS	6.1.1.14	Glycine--tRNA ligase beta subunit
JNJMCPHB_01306	28.869739999999997	29.851760000000002	29.18723	29.134350000000005	28.805039999999998	27.600950000000005	29.695050000000002	28.952469999999998				12	9	1,7872E-84	dRep_bin013_IODPEDPB_00856;dRep_bin042_MMFCLHOO_00940;dRep_bin228_CECEDMJG_01309;dRep_bin264_DNFFGNEG_00042;dRep_bin202_HEPPALPH_01238;dRep_bin353_PPDHLNJB_01390;dRep_bin246_MMFBABHK_00596;dRep_bin204_INMOGLDN_01192;dRep_bin174_LJJOKEME_00530;dRep_bin050_FBECOHCI_00884;dRep_bin030_OGPDLGOC_00805;dRep_bin327_EPEGNBAG_00851;dRep_bin252_NDAKLAGD_01622;dRep_bin233_BAGKKAOB_01126;dRep_bin216_JNJMCPHB_01306;dRep_bin021_AJDDCGJC_00514;dRep_bin317_ABPHNCOD_01653;dRep_bin153_JGABJFBF_00649;dRep_bin223_PIMCDKJI_01347;dRep_bin244_LBFMHLBI_00087	dRep_bin013_IODPEDPB_00856	>dRep_bin013_IODPEDPB_00856 Glycine--tRNA ligase alpha subunit	dRep_bin216_JNJMCPHB_01306	CDS	glyQ	6.1.1.14	Glycine--tRNA ligase alpha subunit
JNJMCPHB_01326				24.52409								3	1	3,0363E-62	dRep_bin157_JPNIKEKI_01307;dRep_bin039_IJNOFOJK_01899;dRep_bin186_HJAAFFNP_00774;dRep_bin318_IEDEJOFJ_01639;dRep_bin164_KHMELCCL_00132;dRep_bin328_GIGKNKPJ_01195;dRep_bin260_HELEPKJL_01523;dRep_bin287_DONBGKDH_01508;dRep_bin158_OGFICEAP_02168;dRep_bin127_FIPNHBCH_00569;dRep_bin115_IFKGOGCL_02347;dRep_bin099_DNDAGJEJ_00641;dRep_bin308_JBPDGLPP_01860;dRep_bin333_EFOKIBLA_01083;dRep_bin321_EJNAAGJG_00266;dRep_bin273_FGAEBHNP_00052;dRep_bin299_AKNBKJGM_00308;dRep_bin216_JNJMCPHB_01326;dRep_bin094_LBLICAAO_00532;dRep_bin295_EJGKDKNE_01389;dRep_bin021_AJDDCGJC_00388;dRep_bin336_MPGOKPOL_01887;dRep_bin147_EJLBNEBE_01158;dRep_bin091_MAFACGAD_00923;dRep_bin261_FJICAFFM_00349;dRep_bin203_CLFNNOCF_01032;dRep_bin292_JIBLDOOH_00170;dRep_bin324_IPNHOHFK_01855;dRep_bin133_NOBPDBPA_02057;dRep_bin179_HFEIPPPA_01406;dRep_bin297_EDHEEICA_01152;dRep_bin005_CNDFPKJG_00713	dRep_bin157_JPNIKEKI_01307;dRep_bin039_IJNOFOJK_01899;dRep_bin186_HJAAFFNP_00774;dRep_bin318_IEDEJOFJ_01639;dRep_bin164_KHMELCCL_00132;dRep_bin328_GIGKNKPJ_01195;dRep_bin260_HELEPKJL_01523;dRep_bin287_DONBGKDH_01508;dRep_bin158_OGFICEAP_02168;dRep_bin127_FIPNHBCH_00569;dRep_bin115_IFKGOGCL_02347;dRep_bin099_DNDAGJEJ_00641;dRep_bin308_JBPDGLPP_01860;dRep_bin333_EFOKIBLA_01083;dRep_bin321_EJNAAGJG_00266;dRep_bin273_FGAEBHNP_00052;dRep_bin299_AKNBKJGM_00308;dRep_bin216_JNJMCPHB_01326;dRep_bin094_LBLICAAO_00532;dRep_bin295_EJGKDKNE_01389;dRep_bin021_AJDDCGJC_00388;dRep_bin336_MPGOKPOL_01887;dRep_bin147_EJLBNEBE_01158;dRep_bin091_MAFACGAD_00923;dRep_bin261_FJICAFFM_00349;dRep_bin203_CLFNNOCF_01032;dRep_bin292_JIBLDOOH_00170;dRep_bin324_IPNHOHFK_01855;dRep_bin133_NOBPDBPA_02057;dRep_bin179_HFEIPPPA_01406;dRep_bin297_EDHEEICA_01152;dRep_bin005_CNDFPKJG_00713	>dRep_bin157_JPNIKEKI_01307 Galactose-1-phosphate uridylyltransferase;>dRep_bin039_IJNOFOJK_01899 Galactose-1-phosphate uridylyltransferase;>dRep_bin186_HJAAFFNP_00774 Galactose-1-phosphate uridylyltransferase;>dRep_bin318_IEDEJOFJ_01639 Galactose-1-phosph	dRep_bin216_JNJMCPHB_01326	CDS	galT	2.7.7.12	Galactose-1-phosphate uridylyltransferase
JNJMCPHB_01397						26.446419999999996						3	1	9,4322E-20	dRep_bin216_JNJMCPHB_01397	dRep_bin216_JNJMCPHB_01397	>dRep_bin216_JNJMCPHB_01397 hypothetical protein	dRep_bin216_JNJMCPHB_01397	CDS			hypothetical protein
JNJMCPHB_01398	29.542209999999997	29.36338	28.922179999999997	29.33354	29.82057	29.83524	29.080479999999998	28.60042				15	3	1,5679E-189	dRep_bin299_AKNBKJGM_02033;dRep_bin242_LKAIBGGJ_01355;dRep_bin216_JNJMCPHB_01398	dRep_bin299_AKNBKJGM_02033	>dRep_bin299_AKNBKJGM_02033 GGGtGRT protein	dRep_bin216_JNJMCPHB_01398	CDS			GGGtGRT protein
JNJMCPHB_01401			23.989109999999997		31.32817	30.51267	28.225129999999996	30.40477				27	27	0	dRep_bin048_PABMBHAL_00694;dRep_bin216_JNJMCPHB_01401;dRep_bin021_AJDDCGJC_00369;dRep_bin318_IEDEJOFJ_01444;dRep_bin318_IEDEJOFJ_00560	dRep_bin048_PABMBHAL_00694	>dRep_bin048_PABMBHAL_00694 Pyruvate kinase	dRep_bin216_JNJMCPHB_01401	CDS	pyk	2.7.1.40	Pyruvate kinase
JNJMCPHB_01464						26.56439	23.62845					10	1	6,3573E-51	dRep_bin216_JNJMCPHB_01464	dRep_bin216_JNJMCPHB_01464	>dRep_bin216_JNJMCPHB_01464 Ketol-acid reductoisomerase (NAD(+))	dRep_bin216_JNJMCPHB_01464	CDS	ilvC	1.1.1.382	Ketol-acid reductoisomerase (NAD(+))
JNJMCPHB_01477					27.028129999999997	27.809990000000003	27.614140000000003	27.14511				6	5	1,1895E-37	dRep_bin150_HCDEOBMH_00988;dRep_bin216_JNJMCPHB_01477	dRep_bin150_HCDEOBMH_00988	>dRep_bin150_HCDEOBMH_00988 Orotate phosphoribosyltransferase	dRep_bin216_JNJMCPHB_01477	CDS	pyrE_3	2.4.2.10	Orotate phosphoribosyltransferase
JNJMCPHB_01481	28.62954	29.354750000000003	29.992399999999996	30.023139999999998	30.21083	30.89937	29.70792	30.0531				20	3	1,2194E-156	dRep_bin191_NGFJMLOL_01259;dRep_bin296_FDMPKPOH_00205;dRep_bin210_AGEDAEIA_00766;dRep_bin195_DDMDFNOK_00108;dRep_bin334_NAPFFNLD_01038;dRep_bin211_LGJEFJIK_01419;dRep_bin295_EJGKDKNE_00091;dRep_bin341_NBEGOKEF_00239;dRep_bin020_JCCELPIE_00888;dRep_bin283_NLJJFFAC_01280;dRep_bin274_DBJHKLDG_00956;dRep_bin016_JLGAHGOJ_01458;dRep_bin108_BPNCDINP_01604;dRep_bin008_MNDMJLEI_00335;dRep_bin270_GEJAHNCN_01137;dRep_bin005_CNDFPKJG_01352;dRep_bin060_HNFNENOI_00669;dRep_bin146_LCCIBLJG_00571;dRep_bin326_CEEAIPKF_00877;dRep_bin333_EFOKIBLA_00153;dRep_bin168_HKDILBFE_01558;dRep_bin244_LBFMHLBI_01599;dRep_bin096_GNHMEKPF_00231;dRep_bin237_KJDLIPND_00220;dRep_bin188_EJILNMPE_01240;dRep_bin251_FGNGCJDD_00076;dRep_bin227_IJODGBOI_00103;dRep_bin151_AHBJLMBI_00923;dRep_bin116_CLFDBMOF_00729;dRep_bin141_GMCOOECB_00805;dRep_bin350_EKOOEEGH_00925;dRep_bin132_FAPBDCMG_00754;dRep_bin080_CBEBHNNK_00317;dRep_bin051_HIEIDCID_00971;dRep_bin228_CECEDMJG_00643;dRep_bin009_KMMEHEKA_00811;dRep_bin318_IEDEJOFJ_01292;dRep_bin207_OHNPDPFI_00717;dRep_bin345_GLPJDLOI_00471;dRep_bin144_NPHACCKF_01507;dRep_bin118_FGIOKLBC_00082;dRep_bin355_KJEFNADK_00986;dRep_bin293_MEPKGOAN_00544;dRep_bin230_NINMBMKB_00674;dRep_bin014_CHIHIMAN_00029;dRep_bin218_ACMPALGF_00178;dRep_bin165_HMDFFMMM_01108;dRep_bin094_LBLICAAO_00513;dRep_bin076_GLAOFBEC_01428;dRep_bin267_LJCFMAFA_00110;dRep_bin048_PABMBHAL_00321;dRep_bin147_EJLBNEBE_02032;dRep_bin128_JPBBHEMA_00007;dRep_bin042_MMFCLHOO_01063;dRep_bin351_CKFFBPHM_00913;dRep_bin123_PJKBFKBB_00095;dRep_bin330_CODAKHDJ_00708;dRep_bin252_NDAKLAGD_01294;dRep_bin233_BAGKKAOB_01574;dRep_bin217_MJCEAEPB_00244;dRep_bin110_JGOEJECF_00272;dRep_bin109_MJABCPAK_00670;dRep_bin101_BNDDLDCL_01055;dRep_bin092_OOJCPDEA_00344;dRep_bin074_EHAOMODJ_00824;dRep_bin336_MPGOKPOL_02107;dRep_bin290_OIOJKBNK_01058;dRep_bin264_DNFFGNEG_00269;dRep_bin256_KEMNAOBC_01330;dRep_bin246_MMFBABHK_01553;dRep_bin166_DFIAJFEC_00041;dRep_bin153_JGABJFBF_00098;dRep_bin143_PFLDJMPF_00060;dRep_bin106_BKDHGPBE_01156;dRep_bin071_JHMCIJPE_01039;dRep_bin250_NMCAMJIO_00472;dRep_bin312_MJFEFHMP_01194;dRep_bin194_MEPDOGGJ_00657;dRep_bin129_GADIAMAA_01832;dRep_bin061_ONFGDLGO_01341;dRep_bin030_OGPDLGOC_01109;dRep_bin025_CBEJJMLE_00255;dRep_bin223_PIMCDKJI_01311;dRep_bin204_INMOGLDN_00399;dRep_bin202_HEPPALPH_00661;dRep_bin105_AAEIHAFF_01590;dRep_bin056_EMNHHOJA_01586;dRep_bin174_LJJOKEME_01552;dRep_bin057_BNCFHBBO_00981;dRep_bin348_LCLFDNEE_01410;dRep_bin339_DBNBAHDK_00024;dRep_bin321_EJNAAGJG_00897;dRep_bin273_FGAEBHNP_01096;dRep_bin248_CCDFPECI_01765;dRep_bin124_HIHDFGCL_01059;dRep_bin068_ENOLAELK_01049;dRep_bin038_EIGFILKG_00020;dRep_bin276_EHNFLEBP_00417;dRep_bin152_LJMCIADF_00769;dRep_bin115_IFKGOGCL_00005;dRep_bin099_DNDAGJEJ_00435;dRep_bin085_MBHLGCDB_01722;dRep_bin079_GAOGCKND_00892;dRep_bin026_HNPIIINL_00985;dRep_bin353_PPDHLNJB_01438;dRep_bin319_PBDBJGCJ_01331;dRep_bin291_EILOACJB_00194;dRep_bin241_LMMMGDNI_00361;dRep_bin091_MAFACGAD_00751;dRep_bin303_DDDNDJCF_01255;dRep_bin216_JNJMCPHB_01481;dRep_bin184_MBMMJHKO_01167;dRep_bin161_JMKPMHCO_00103;dRep_bin021_AJDDCGJC_01597;dRep_bin095_HOBNOEEF_00033;dRep_bin059_OOBKFNPP_00633;dRep_bin018_ILOONPIC_00093;dRep_bin306_FGHMKMMP_00476;dRep_bin175_HANCENAK_00082;dRep_bin040_EIFLLDOA_01832;dRep_bin166_DFIAJFEC_00288;dRep_bin085_MBHLGCDB_01583	dRep_bin191_NGFJMLOL_01259	>dRep_bin191_NGFJMLOL_01259 Aspartate--tRNA ligase	dRep_bin216_JNJMCPHB_01481	CDS	aspS	6.1.1.12	Aspartate--tRNA ligase
JNJMCPHB_01525	27.39403	26.94793		28.42009	28.66635	29.339940000000002	29.83804	28.08431				4	4	1,5603E-39	dRep_bin021_AJDDCGJC_01699;dRep_bin216_JNJMCPHB_01525;dRep_bin311_NPLECLAD_00066;dRep_bin121_BHOOLFKN_00990;dRep_bin119_AKFBCGDO_01002	dRep_bin021_AJDDCGJC_01699;dRep_bin216_JNJMCPHB_01525;dRep_bin311_NPLECLAD_00066;dRep_bin121_BHOOLFKN_00990;dRep_bin119_AKFBCGDO_01002	>dRep_bin021_AJDDCGJC_01699 50S ribosomal protein L7/L12;>dRep_bin216_JNJMCPHB_01525 50S ribosomal protein L7/L12;>dRep_bin311_NPLECLAD_00066 50S ribosomal protein L7/L12;>dRep_bin121_BHOOLFKN_00990 50S ribosomal protein L7/L12;>dRep_bin119_AKFBCGDO_01002	dRep_bin216_JNJMCPHB_01525	CDS	rplL		50S ribosomal protein L7/L12
JNJMCPHB_01529		26.38139										4	0	1,3659E-11	dRep_bin302_AHDEPDKG_00345;dRep_bin216_JNJMCPHB_01529	dRep_bin302_AHDEPDKG_00345;dRep_bin216_JNJMCPHB_01529	>dRep_bin302_AHDEPDKG_00345 Cysteine synthase;>dRep_bin216_JNJMCPHB_01529 Cysteine synthase	dRep_bin216_JNJMCPHB_01529	CDS	cysK	2.5.1.47	Cysteine synthase
JNJMCPHB_01564						25.05875						3	3	7,2965E-14	dRep_bin216_JNJMCPHB_01564;dRep_bin097_CBBLIPAN_00048	dRep_bin216_JNJMCPHB_01564	>dRep_bin216_JNJMCPHB_01564 Malate dehydrogenase	dRep_bin216_JNJMCPHB_01564	CDS	mdh	1.1.1.37	Malate dehydrogenase
JNJMCPHB_01613					23.00606	23.896980000000003						2	1	8,6813E-10	dRep_bin324_IPNHOHFK_01144;dRep_bin297_EDHEEICA_00687;dRep_bin292_JIBLDOOH_02195;dRep_bin261_FJICAFFM_00057;dRep_bin226_NLNLHLLD_01357;dRep_bin209_NKIHFCEN_00791;dRep_bin203_CLFNNOCF_00406;dRep_bin179_HFEIPPPA_00190;dRep_bin157_JPNIKEKI_00583;dRep_bin133_NOBPDBPA_01168;dRep_bin041_OPKGAAAG_01275;dRep_bin168_HKDILBFE_01397;dRep_bin130_OIFFANPF_00962;dRep_bin083_OCBADPJJ_00812;dRep_bin169_PNICKJKO_00385;dRep_bin319_PBDBJGCJ_01796;dRep_bin109_MJABCPAK_00038;dRep_bin106_BKDHGPBE_00849;dRep_bin216_JNJMCPHB_01613;dRep_bin299_AKNBKJGM_00580;dRep_bin100_CODMOHGB_00911;dRep_bin317_ABPHNCOD_01390;dRep_bin272_LGBDGEIM_00788;dRep_bin249_OFIIEIDJ_00467;dRep_bin066_AJACLPEE_01038;dRep_bin335_JIOGNAPG_00681;dRep_bin234_ECABPBME_00227;dRep_bin088_DNGPPFDK_01237;dRep_bin303_DDDNDJCF_00797;dRep_bin300_MJPPENNL_00671;dRep_bin279_IAEFEPEN_01368;dRep_bin278_BFCONKOE_00336;dRep_bin269_PNILGKPH_01089;dRep_bin260_HELEPKJL_01496;dRep_bin089_PAJFOJBN_00528;dRep_bin027_OFJCHLJJ_00828;dRep_bin019_MOJEPLJF_01606;dRep_bin116_CLFDBMOF_00536;dRep_bin057_BNCFHBBO_00059;dRep_bin134_HIAPAODO_00123;dRep_bin322_OJELOJOF_01583;dRep_bin270_GEJAHNCN_00957;dRep_bin348_LCLFDNEE_00829;dRep_bin295_EJGKDKNE_00315;dRep_bin277_MIPNGEJE_01644;dRep_bin166_DFIAJFEC_00192;dRep_bin264_DNFFGNEG_00340;dRep_bin153_JGABJFBF_01236;dRep_bin114_FJHJKHGL_00133;dRep_bin111_FPJIHFKE_00195;dRep_bin252_NDAKLAGD_00473;dRep_bin247_EKGBJCBM_00710;dRep_bin035_JBNPBOKG_01025;dRep_bin026_HNPIIINL_00916;dRep_bin085_MBHLGCDB_01217;dRep_bin068_ENOLAELK_00657;dRep_bin049_MNFBDPNO_00064;dRep_bin038_EIGFILKG_00881;dRep_bin152_LJMCIADF_01515;dRep_bin079_GAOGCKND_00762;dRep_bin231_CFOLMJBA_00732;dRep_bin126_PPDNCIBN_00705;dRep_bin333_EFOKIBLA_00857;dRep_bin123_PJKBFKBB_00290;dRep_bin185_OOOLKACK_01362;dRep_bin305_FCIEFIHE_01147;dRep_bin070_EMBHKIOF_00605;dRep_bin006_HPJGJCAG_01539;dRep_bin101_BNDDLDCL_00049;dRep_bin331_HPKAPHAF_00752;dRep_bin301_NJFJIJGA_00013;dRep_bin037_GEAOEKHA_01146;dRep_bin087_FCLGAPPI_00654;dRep_bin159_ADJJGPBG_01916;dRep_bin304_JDNJGFKH_01533;dRep_bin120_EKLBOPNC_00943;dRep_bin162_JBGCCDIN_00762;dRep_bin072_JOBJPCGA_01185;dRep_bin320_LDBKCCKL_00985;dRep_bin245_MBCFLKOF_00867;dRep_bin010_MFFFGEGD_00116;dRep_bin205_LKIOOBKC_01048;dRep_bin043_KLAFNACO_01234;dRep_bin011_KOGMKLNO_01366;dRep_bin189_AHHEHGDL_01620;dRep_bin222_GGCAJABB_00316;dRep_bin208_DHPGEIBC_01479;dRep_bin130_OIFFANPF_00887	dRep_bin324_IPNHOHFK_01144;dRep_bin297_EDHEEICA_00687;dRep_bin292_JIBLDOOH_02195;dRep_bin261_FJICAFFM_00057;dRep_bin226_NLNLHLLD_01357;dRep_bin209_NKIHFCEN_00791;dRep_bin203_CLFNNOCF_00406;dRep_bin179_HFEIPPPA_00190;dRep_bin157_JPNIKEKI_00583;dRep_bin133_NOBPDBPA_01168;dRep_bin041_OPKGAAAG_01275;dRep_bin168_HKDILBFE_01397;dRep_bin130_OIFFANPF_00962;dRep_bin083_OCBADPJJ_00812;dRep_bin169_PNICKJKO_00385;dRep_bin319_PBDBJGCJ_01796;dRep_bin109_MJABCPAK_00038;dRep_bin106_BKDHGPBE_00849;dRep_bin216_JNJMCPHB_01613;dRep_bin299_AKNBKJGM_00580;dRep_bin100_CODMOHGB_00911;dRep_bin317_ABPHNCOD_01390;dRep_bin272_LGBDGEIM_00788;dRep_bin249_OFIIEIDJ_00467;dRep_bin066_AJACLPEE_01038;dRep_bin335_JIOGNAPG_00681;dRep_bin234_ECABPBME_00227;dRep_bin088_DNGPPFDK_01237;dRep_bin303_DDDNDJCF_00797;dRep_bin300_MJPPENNL_00671;dRep_bin279_IAEFEPEN_01368;dRep_bin278_BFCONKOE_00336;dRep_bin269_PNILGKPH_01089;dRep_bin260_HELEPKJL_01496;dRep_bin089_PAJFOJBN_00528;dRep_bin027_OFJCHLJJ_00828;dRep_bin019_MOJEPLJF_01606;dRep_bin116_CLFDBMOF_00536;dRep_bin057_BNCFHBBO_00059;dRep_bin134_HIAPAODO_00123;dRep_bin322_OJELOJOF_01583;dRep_bin270_GEJAHNCN_00957;dRep_bin348_LCLFDNEE_00829;dRep_bin295_EJGKDKNE_00315;dRep_bin277_MIPNGEJE_01644;dRep_bin166_DFIAJFEC_00192;dRep_bin264_DNFFGNEG_00340;dRep_bin153_JGABJFBF_01236;dRep_bin114_FJHJKHGL_00133;dRep_bin111_FPJIHFKE_00195;dRep_bin252_NDAKLAGD_00473;dRep_bin247_EKGBJCBM_00710;dRep_bin035_JBNPBOKG_01025;dRep_bin026_HNPIIINL_00916;dRep_bin085_MBHLGCDB_01217;dRep_bin068_ENOLAELK_00657;dRep_bin049_MNFBDPNO_00064;dRep_bin038_EIGFILKG_00881;dRep_bin152_LJMCIADF_01515;dRep_bin079_GAOGCKND_00762;dRep_bin231_CFOLMJBA_00732;dRep_bin126_PPDNCIBN_00705;dRep_bin333_EFOKIBLA_00857;dRep_bin123_PJKBFKBB_00290;dRep_bin185_OOOLKACK_01362;dRep_bin305_FCIEFIHE_01147;dRep_bin070_EMBHKIOF_00605;dRep_bin006_HPJGJCAG_01539;dRep_bin101_BNDDLDCL_00049;dRep_bin331_HPKAPHAF_00752;dRep_bin301_NJFJIJGA_00013;dRep_bin037_GEAOEKHA_01146;dRep_bin087_FCLGAPPI_00654;dRep_bin159_ADJJGPBG_01916;dRep_bin304_JDNJGFKH_01533;dRep_bin120_EKLBOPNC_00943;dRep_bin162_JBGCCDIN_00762;dRep_bin072_JOBJPCGA_01185;dRep_bin320_LDBKCCKL_00985;dRep_bin245_MBCFLKOF_00867;dRep_bin010_MFFFGEGD_00116;dRep_bin205_LKIOOBKC_01048;dRep_bin043_KLAFNACO_01234;dRep_bin011_KOGMKLNO_01366;dRep_bin189_AHHEHGDL_01620;dRep_bin222_GGCAJABB_00316;dRep_bin208_DHPGEIBC_01479;dRep_bin130_OIFFANPF_00887	>dRep_bin324_IPNHOHFK_01144 Glutaconyl-CoA decarboxylase subunit beta;>dRep_bin297_EDHEEICA_00687 Glutaconyl-CoA decarboxylase subunit beta;>dRep_bin292_JIBLDOOH_02195 Glutaconyl-CoA decarboxylase subunit beta;>dRep_bin261_FJICAFFM_00057 Glutaconyl-CoA dec	dRep_bin216_JNJMCPHB_01613	CDS	gcdB	4.1.1.70	Glutaconyl-CoA decarboxylase subunit beta
JNJMCPHB_01746	26.288569999999996	25.80292	27.51848	26.43192	26.20382	29.4381	28.87918	26.88087				11	8	0	dRep_bin216_JNJMCPHB_01746;dRep_bin216_JNJMCPHB_01730	dRep_bin216_JNJMCPHB_01746	>dRep_bin216_JNJMCPHB_01746 Flagellin B	dRep_bin216_JNJMCPHB_01746	CDS	flaB_1		Flagellin B
JNJMCPHB_01817		26.80649		27.05548	27.23206	27.52932		26.66099				3	2	1,8483E-13	dRep_bin272_LGBDGEIM_01992;dRep_bin216_JNJMCPHB_01817;dRep_bin272_LGBDGEIM_00989;dRep_bin317_ABPHNCOD_00059	dRep_bin272_LGBDGEIM_01992;dRep_bin216_JNJMCPHB_01817;dRep_bin272_LGBDGEIM_00989;dRep_bin317_ABPHNCOD_00059	>dRep_bin272_LGBDGEIM_01992 Methylglyoxal synthase;>dRep_bin216_JNJMCPHB_01817 Methylglyoxal synthase;>dRep_bin272_LGBDGEIM_00989 Methylglyoxal synthase;>dRep_bin317_ABPHNCOD_00059 Methylglyoxal synthase	dRep_bin216_JNJMCPHB_01817	CDS	mgsA	4.2.3.3	Methylglyoxal synthase
JNJMCPHB_01826							18.92431					3	1	1,5673E-08	dRep_bin216_JNJMCPHB_01826	dRep_bin216_JNJMCPHB_01826	>dRep_bin216_JNJMCPHB_01826 Ornithine carbamoyltransferase	dRep_bin216_JNJMCPHB_01826	CDS	argF	2.1.3.3	Ornithine carbamoyltransferase
JNJMCPHB_01827						24.440759999999997		25.269739999999995				3	3	7,2828E-05	dRep_bin053_OMGNPOOB_00621;dRep_bin299_AKNBKJGM_01067;dRep_bin272_LGBDGEIM_00184;dRep_bin021_AJDDCGJC_01140;dRep_bin216_JNJMCPHB_01827;dRep_bin317_ABPHNCOD_01209;dRep_bin160_EFKMPBOM_02597;dRep_bin154_JGOKHKLI_02624;dRep_bin097_CBBLIPAN_00573;dRep_bin337_FHKPNFDB_00161;dRep_bin282_PKAAPBFP_01348;dRep_bin143_PFLDJMPF_00993;dRep_bin169_PNICKJKO_00207;dRep_bin032_PPNIGLME_00759;dRep_bin005_CNDFPKJG_01409;dRep_bin116_CLFDBMOF_00895;dRep_bin150_HCDEOBMH_00869;dRep_bin253_CPMOAOBJ_00404	dRep_bin053_OMGNPOOB_00621;dRep_bin299_AKNBKJGM_01067;dRep_bin272_LGBDGEIM_00184;dRep_bin021_AJDDCGJC_01140;dRep_bin216_JNJMCPHB_01827	>dRep_bin053_OMGNPOOB_00621 Argininosuccinate synthase;>dRep_bin299_AKNBKJGM_01067 Argininosuccinate synthase;>dRep_bin272_LGBDGEIM_00184 Argininosuccinate synthase;>dRep_bin021_AJDDCGJC_01140 Argininosuccinate synthase;>dRep_bin216_JNJMCPHB_01827 Arginino	dRep_bin216_JNJMCPHB_01827	CDS	argG	6.3.4.5	Argininosuccinate synthase
JNJMCPHB_01853	26.441719999999997											6	3	1,7925E-98	dRep_bin216_JNJMCPHB_01853	dRep_bin216_JNJMCPHB_01853	>dRep_bin216_JNJMCPHB_01853 Flagellin	dRep_bin216_JNJMCPHB_01853	CDS	hag_3		Flagellin
JNJMCPHB_01858						22.97775						2	2	1,7069E-05	dRep_bin216_JNJMCPHB_01858	dRep_bin216_JNJMCPHB_01858	>dRep_bin216_JNJMCPHB_01858 Amylopullulanase	dRep_bin216_JNJMCPHB_01858	CDS	apu_2		Amylopullulanase
JNJMCPHB_01904						23.808429999999998						4	1	8,0644E-27	dRep_bin216_JNJMCPHB_01904	dRep_bin216_JNJMCPHB_01904	>dRep_bin216_JNJMCPHB_01904 2,3-bisphosphoglycerate-independent phosphoglycerate mutase	dRep_bin216_JNJMCPHB_01904	CDS	gpmI	5.4.2.12	2,3-bisphosphoglycerate-independent phosphoglycerate mutase
JNJMCPHB_01905			23.809900000000003									9	4	2,0283E-46	dRep_bin216_JNJMCPHB_01905	dRep_bin216_JNJMCPHB_01905	>dRep_bin216_JNJMCPHB_01905 Triosephosphate isomerase	dRep_bin216_JNJMCPHB_01905	CDS	tpiA	5.3.1.1	Triosephosphate isomerase
JNJMCPHB_01906					26.16246	28.3043	26.435	25.84912				1	1	9,4734E-08	dRep_bin216_JNJMCPHB_01906	dRep_bin216_JNJMCPHB_01906	>dRep_bin216_JNJMCPHB_01906 Bifunctional PGK/TIM	dRep_bin216_JNJMCPHB_01906	CDS	pgk/tpi		Bifunctional PGK/TIM
JNJMCPHB_01907						25.648039999999998						8	1	2,7737E-62	dRep_bin216_JNJMCPHB_01907	dRep_bin216_JNJMCPHB_01907	>dRep_bin216_JNJMCPHB_01907 Glyceraldehyde-3-phosphate dehydrogenase	dRep_bin216_JNJMCPHB_01907	CDS	gap	1.2.1.12	Glyceraldehyde-3-phosphate dehydrogenase
JNJMCPHB_01979	25.062089999999998	25.962519999999994		25.214970000000005								4	1	2,6286E-29	dRep_bin299_AKNBKJGM_01055;dRep_bin021_AJDDCGJC_00770;dRep_bin325_EIIGOGHN_01443;dRep_bin220_PILICLLL_01801;dRep_bin306_FGHMKMMP_00880;dRep_bin216_JNJMCPHB_01979;dRep_bin335_JIOGNAPG_01507;dRep_bin167_BLMEBMNN_01809;dRep_bin234_ECABPBME_01759;dRep_bin089_PAJFOJBN_01725;dRep_bin016_JLGAHGOJ_00524	dRep_bin299_AKNBKJGM_01055;dRep_bin021_AJDDCGJC_00770;dRep_bin325_EIIGOGHN_01443;dRep_bin220_PILICLLL_01801;dRep_bin306_FGHMKMMP_00880;dRep_bin216_JNJMCPHB_01979	>dRep_bin299_AKNBKJGM_01055 Serine hydroxymethyltransferase;>dRep_bin021_AJDDCGJC_00770 Serine hydroxymethyltransferase;>dRep_bin325_EIIGOGHN_01443 Serine hydroxymethyltransferase;>dRep_bin220_PILICLLL_01801 Serine hydroxymethyltransferase;>dRep_bin306_FGH	dRep_bin216_JNJMCPHB_01979	CDS	glyA_2	2.1.2.1	Serine hydroxymethyltransferase
JNJMCPHB_01985	28.07051	27.87338	27.80753	27.708329999999997	27.208439999999996		26.158870000000004	24.103900000000003				1	1	7,2464E-26	dRep_bin216_JNJMCPHB_01985	dRep_bin216_JNJMCPHB_01985	>dRep_bin216_JNJMCPHB_01985 S-layer protein SlpA	dRep_bin216_JNJMCPHB_01985	CDS	slpA_6		S-layer protein SlpA
JNJMCPHB_02001	29.368199999999998	29.07933	28.519050000000004	29.633070000000004	29.010360000000002	30.36338	28.38928	29.52083				21	13	6,8325E-275	dRep_bin021_AJDDCGJC_00279;dRep_bin216_JNJMCPHB_02001	dRep_bin021_AJDDCGJC_00279	>dRep_bin021_AJDDCGJC_00279 L-arabinose isomerase	dRep_bin216_JNJMCPHB_02001	CDS	araA	5.3.1.4	L-arabinose isomerase
JNJMCPHB_02016						20.722589999999997						2	1	7,3165E-10	dRep_bin216_JNJMCPHB_02016;dRep_bin272_LGBDGEIM_00037	dRep_bin216_JNJMCPHB_02016;dRep_bin272_LGBDGEIM_00037	>dRep_bin216_JNJMCPHB_02016 GTP-binding protein TypA/BipA;>dRep_bin272_LGBDGEIM_00037 GTP-binding protein TypA/BipA	dRep_bin216_JNJMCPHB_02016	CDS	typA		GTP-binding protein TypA/BipA
