GBprotID	LFQ intensity CtrPig1	LFQ intensity CtrPig2	LFQ intensity CtrPig3	LFQ intensity CtrPig4	LFQ intensity MannanPig1	LFQ intensity MannanPig2	LFQ intensity MannanPig3	LFQ intensity MannanPig4	Only identified by site	Reverse	Contaminant	Peptides	Unique peptides	PEP	Protein IDs	Majority protein IDs	Fasta headers	IDcomb	ftype	gene	EC_number	product
IJODGBOI_00061												4	1	8,0552E-25	dRep_bin024_OLHDGABE_01252;dRep_bin167_BLMEBMNN_01787;dRep_bin065_DFABHCBI_01060;dRep_bin325_EIIGOGHN_01290;dRep_bin342_BMMENEMP_00031;dRep_bin258_DAMEHFEK_00272;dRep_bin132_FAPBDCMG_00923;dRep_bin121_BHOOLFKN_01242;dRep_bin015_OGEFIJFH_00523;dRep_bin227_IJODGBOI_00061;dRep_bin350_EKOOEEGH_00746;dRep_bin254_GJDPFAEA_00627	dRep_bin024_OLHDGABE_01252;dRep_bin167_BLMEBMNN_01787;dRep_bin065_DFABHCBI_01060	>dRep_bin024_OLHDGABE_01252 Elongation factor Ts;>dRep_bin167_BLMEBMNN_01787 Elongation factor Ts;>dRep_bin065_DFABHCBI_01060 Elongation factor Ts	dRep_bin227_IJODGBOI_00061	CDS	tsf		Elongation factor Ts
IJODGBOI_00103	28.62954	29.354750000000003	29.992399999999996	30.023139999999998	30.21083	30.89937	29.70792	30.0531				20	3	1,2194E-156	dRep_bin191_NGFJMLOL_01259;dRep_bin296_FDMPKPOH_00205;dRep_bin210_AGEDAEIA_00766;dRep_bin195_DDMDFNOK_00108;dRep_bin334_NAPFFNLD_01038;dRep_bin211_LGJEFJIK_01419;dRep_bin295_EJGKDKNE_00091;dRep_bin341_NBEGOKEF_00239;dRep_bin020_JCCELPIE_00888;dRep_bin283_NLJJFFAC_01280;dRep_bin274_DBJHKLDG_00956;dRep_bin016_JLGAHGOJ_01458;dRep_bin108_BPNCDINP_01604;dRep_bin008_MNDMJLEI_00335;dRep_bin270_GEJAHNCN_01137;dRep_bin005_CNDFPKJG_01352;dRep_bin060_HNFNENOI_00669;dRep_bin146_LCCIBLJG_00571;dRep_bin326_CEEAIPKF_00877;dRep_bin333_EFOKIBLA_00153;dRep_bin168_HKDILBFE_01558;dRep_bin244_LBFMHLBI_01599;dRep_bin096_GNHMEKPF_00231;dRep_bin237_KJDLIPND_00220;dRep_bin188_EJILNMPE_01240;dRep_bin251_FGNGCJDD_00076;dRep_bin227_IJODGBOI_00103;dRep_bin151_AHBJLMBI_00923;dRep_bin116_CLFDBMOF_00729;dRep_bin141_GMCOOECB_00805;dRep_bin350_EKOOEEGH_00925;dRep_bin132_FAPBDCMG_00754;dRep_bin080_CBEBHNNK_00317;dRep_bin051_HIEIDCID_00971;dRep_bin228_CECEDMJG_00643;dRep_bin009_KMMEHEKA_00811;dRep_bin318_IEDEJOFJ_01292;dRep_bin207_OHNPDPFI_00717;dRep_bin345_GLPJDLOI_00471;dRep_bin144_NPHACCKF_01507;dRep_bin118_FGIOKLBC_00082;dRep_bin355_KJEFNADK_00986;dRep_bin293_MEPKGOAN_00544;dRep_bin230_NINMBMKB_00674;dRep_bin014_CHIHIMAN_00029;dRep_bin218_ACMPALGF_00178;dRep_bin165_HMDFFMMM_01108;dRep_bin094_LBLICAAO_00513;dRep_bin076_GLAOFBEC_01428;dRep_bin267_LJCFMAFA_00110;dRep_bin048_PABMBHAL_00321;dRep_bin147_EJLBNEBE_02032;dRep_bin128_JPBBHEMA_00007;dRep_bin042_MMFCLHOO_01063;dRep_bin351_CKFFBPHM_00913;dRep_bin123_PJKBFKBB_00095;dRep_bin330_CODAKHDJ_00708;dRep_bin252_NDAKLAGD_01294;dRep_bin233_BAGKKAOB_01574;dRep_bin217_MJCEAEPB_00244;dRep_bin110_JGOEJECF_00272;dRep_bin109_MJABCPAK_00670;dRep_bin101_BNDDLDCL_01055;dRep_bin092_OOJCPDEA_00344;dRep_bin074_EHAOMODJ_00824;dRep_bin336_MPGOKPOL_02107;dRep_bin290_OIOJKBNK_01058;dRep_bin264_DNFFGNEG_00269;dRep_bin256_KEMNAOBC_01330;dRep_bin246_MMFBABHK_01553;dRep_bin166_DFIAJFEC_00041;dRep_bin153_JGABJFBF_00098;dRep_bin143_PFLDJMPF_00060;dRep_bin106_BKDHGPBE_01156;dRep_bin071_JHMCIJPE_01039;dRep_bin250_NMCAMJIO_00472;dRep_bin312_MJFEFHMP_01194;dRep_bin194_MEPDOGGJ_00657;dRep_bin129_GADIAMAA_01832;dRep_bin061_ONFGDLGO_01341;dRep_bin030_OGPDLGOC_01109;dRep_bin025_CBEJJMLE_00255;dRep_bin223_PIMCDKJI_01311;dRep_bin204_INMOGLDN_00399;dRep_bin202_HEPPALPH_00661;dRep_bin105_AAEIHAFF_01590;dRep_bin056_EMNHHOJA_01586;dRep_bin174_LJJOKEME_01552;dRep_bin057_BNCFHBBO_00981;dRep_bin348_LCLFDNEE_01410;dRep_bin339_DBNBAHDK_00024;dRep_bin321_EJNAAGJG_00897;dRep_bin273_FGAEBHNP_01096;dRep_bin248_CCDFPECI_01765;dRep_bin124_HIHDFGCL_01059;dRep_bin068_ENOLAELK_01049;dRep_bin038_EIGFILKG_00020;dRep_bin276_EHNFLEBP_00417;dRep_bin152_LJMCIADF_00769;dRep_bin115_IFKGOGCL_00005;dRep_bin099_DNDAGJEJ_00435;dRep_bin085_MBHLGCDB_01722;dRep_bin079_GAOGCKND_00892;dRep_bin026_HNPIIINL_00985;dRep_bin353_PPDHLNJB_01438;dRep_bin319_PBDBJGCJ_01331;dRep_bin291_EILOACJB_00194;dRep_bin241_LMMMGDNI_00361;dRep_bin091_MAFACGAD_00751;dRep_bin303_DDDNDJCF_01255;dRep_bin216_JNJMCPHB_01481;dRep_bin184_MBMMJHKO_01167;dRep_bin161_JMKPMHCO_00103;dRep_bin021_AJDDCGJC_01597;dRep_bin095_HOBNOEEF_00033;dRep_bin059_OOBKFNPP_00633;dRep_bin018_ILOONPIC_00093;dRep_bin306_FGHMKMMP_00476;dRep_bin175_HANCENAK_00082;dRep_bin040_EIFLLDOA_01832;dRep_bin166_DFIAJFEC_00288;dRep_bin085_MBHLGCDB_01583	dRep_bin191_NGFJMLOL_01259	>dRep_bin191_NGFJMLOL_01259 Aspartate--tRNA ligase	dRep_bin227_IJODGBOI_00103	CDS	aspS_1	6.1.1.12	Aspartate--tRNA ligase
IJODGBOI_00189	27.65942	27.25593	27.35632	27.24309	28.27128	27.063529999999997	27.368109999999998	27.742139999999996				22	3	2,2711E-274	dRep_bin227_IJODGBOI_00189	dRep_bin227_IJODGBOI_00189	>dRep_bin227_IJODGBOI_00189 Pyruvate, phosphate dikinase	dRep_bin227_IJODGBOI_00189	CDS	ppdK	2.7.9.1	Pyruvate, phosphate dikinase
IJODGBOI_00749			23.64229	23.74684				24.48296				18	3	3,8972E-149	dRep_bin220_PILICLLL_02028;dRep_bin278_BFCONKOE_00441;dRep_bin081_JDPCKDNP_00377;dRep_bin322_OJELOJOF_00804;dRep_bin248_CCDFPECI_00079;dRep_bin106_BKDHGPBE_00283;dRep_bin144_NPHACCKF_01724;dRep_bin122_JHMJFODI_00608;dRep_bin141_GMCOOECB_01066;dRep_bin213_HHHELMFN_00712;dRep_bin109_MJABCPAK_00085;dRep_bin085_MBHLGCDB_01100;dRep_bin024_OLHDGABE_00645;dRep_bin127_FIPNHBCH_00373;dRep_bin318_IEDEJOFJ_00277;dRep_bin155_CLHNKEHA_00696;dRep_bin218_ACMPALGF_01353;dRep_bin119_AKFBCGDO_01001;dRep_bin146_LCCIBLJG_00301;dRep_bin354_MMOALAFN_01658;dRep_bin347_EKGCMFPD_01037;dRep_bin227_IJODGBOI_00749;dRep_bin132_FAPBDCMG_00320;dRep_bin313_CJFGINPI_00866;dRep_bin156_GFIMJAAC_00888;dRep_bin342_BMMENEMP_00958;dRep_bin280_IMCGLKKG_00439;dRep_bin197_NHLBHFEI_00889;dRep_bin281_OGHLKMAI_00400;dRep_bin276_EHNFLEBP_02113;dRep_bin104_EGLEJOLM_01406;dRep_bin207_OHNPDPFI_01068;dRep_bin121_BHOOLFKN_00245;dRep_bin008_MNDMJLEI_00892;dRep_bin054_NNOKONMC_00872;dRep_bin011_KOGMKLNO_00879;dRep_bin142_NDNPJBEM_01584;dRep_bin333_EFOKIBLA_00720;dRep_bin223_PIMCDKJI_01633;dRep_bin120_EKLBOPNC_00731;dRep_bin177_HLHGKLFL_00449;dRep_bin140_ACFAKGIL_00447;dRep_bin304_JDNJGFKH_00598;dRep_bin245_MBCFLKOF_00047;dRep_bin208_DHPGEIBC_00902;dRep_bin010_MFFFGEGD_00183;dRep_bin083_OCBADPJJ_01145;dRep_bin222_GGCAJABB_00479;dRep_bin205_LKIOOBKC_01169;dRep_bin320_LDBKCCKL_00573;dRep_bin162_JBGCCDIN_01242;dRep_bin159_ADJJGPBG_01729;dRep_bin033_DLABHNFE_00633;dRep_bin012_KEBBILMO_00315;dRep_bin350_EKOOEEGH_01215;dRep_bin121_BHOOLFKN_01088;dRep_bin212_IEMJENOD_00205;dRep_bin161_JMKPMHCO_00073;dRep_bin353_PPDHLNJB_01811;dRep_bin195_DDMDFNOK_01689;dRep_bin327_EPEGNBAG_00663;dRep_bin241_LMMMGDNI_01611;dRep_bin334_NAPFFNLD_00132	dRep_bin220_PILICLLL_02028	>dRep_bin220_PILICLLL_02028 DNA-directed RNA polymerase subunit beta	dRep_bin227_IJODGBOI_00749	CDS	rpoB	2.7.7.6	DNA-directed RNA polymerase subunit beta
IJODGBOI_00750	26.29112	24.712139999999998	26.585489999999997	27.38665	27.820980000000002	28.725529999999996	27.419890000000002	28.01579				21	0	5,2146E-220	dRep_bin137_NABPABPB_00328;dRep_bin183_FPGIOKBG_01645;dRep_bin092_OOJCPDEA_02023;dRep_bin128_JPBBHEMA_00863;dRep_bin227_IJODGBOI_00750;dRep_bin117_PMEMANMD_00289;dRep_bin208_DHPGEIBC_00903;dRep_bin174_LJJOKEME_00547;dRep_bin121_BHOOLFKN_00466;dRep_bin204_INMOGLDN_00195;dRep_bin129_GADIAMAA_00128;dRep_bin264_DNFFGNEG_01421;dRep_bin233_BAGKKAOB_00021;dRep_bin116_CLFDBMOF_01083;dRep_bin119_AKFBCGDO_01000;dRep_bin342_BMMENEMP_00957;dRep_bin076_GLAOFBEC_00340;dRep_bin197_NHLBHFEI_00890;dRep_bin195_DDMDFNOK_01688;dRep_bin241_LMMMGDNI_01612;dRep_bin334_NAPFFNLD_00133;dRep_bin008_MNDMJLEI_00893	dRep_bin137_NABPABPB_00328	>dRep_bin137_NABPABPB_00328 DNA-directed RNA polymerase subunit beta	dRep_bin227_IJODGBOI_00750	CDS	rpoC	2.7.7.6	DNA-directed RNA polymerase subunit beta'
IJODGBOI_00758	30.117440000000002	29.82094	29.93143	30.36765	30.655060000000002	30.36296	30.647190000000002	30.304870000000005				2	1	1,863E-06	dRep_bin227_IJODGBOI_00758	dRep_bin227_IJODGBOI_00758	>dRep_bin227_IJODGBOI_00758 Elongation factor G	dRep_bin227_IJODGBOI_00758	CDS	fusA		Elongation factor G
IJODGBOI_00814	22.442129999999995		23.827260000000003	22.52984	24.373910000000002	23.1697	24.233810000000002	23.283759999999997				3	2	1,2032E-19	dRep_bin201_OLKDIBOK_02152;dRep_bin303_DDDNDJCF_00821;dRep_bin134_HIAPAODO_01657;dRep_bin287_DONBGKDH_00415;dRep_bin158_OGFICEAP_00108;dRep_bin257_JHFDCHCB_00470;dRep_bin323_FBBLPLCG_00211;dRep_bin169_PNICKJKO_00577;dRep_bin056_EMNHHOJA_00890;dRep_bin024_OLHDGABE_01284;dRep_bin066_AJACLPEE_00551;dRep_bin254_GJDPFAEA_01693;dRep_bin207_OHNPDPFI_01049;dRep_bin151_AHBJLMBI_00266;dRep_bin119_AKFBCGDO_00602;dRep_bin081_JDPCKDNP_00442;dRep_bin027_OFJCHLJJ_00341;dRep_bin009_KMMEHEKA_00446;dRep_bin322_OJELOJOF_01023;dRep_bin321_EJNAAGJG_00651;dRep_bin282_PKAAPBFP_01369;dRep_bin273_FGAEBHNP_01231;dRep_bin016_JLGAHGOJ_00303;dRep_bin147_EJLBNEBE_01876;dRep_bin026_HNPIIINL_01011;dRep_bin309_BIOHLCGG_00817;dRep_bin253_CPMOAOBJ_01191;dRep_bin278_BFCONKOE_00460;dRep_bin227_IJODGBOI_00814;dRep_bin220_PILICLLL_00789	dRep_bin201_OLKDIBOK_02152;dRep_bin303_DDDNDJCF_00821;dRep_bin134_HIAPAODO_01657;dRep_bin287_DONBGKDH_00415;dRep_bin158_OGFICEAP_00108;dRep_bin257_JHFDCHCB_00470;dRep_bin323_FBBLPLCG_00211;dRep_bin169_PNICKJKO_00577;dRep_bin056_EMNHHOJA_00890;dRep_bin024_OLHDGABE_01284	>dRep_bin201_OLKDIBOK_02152 Leucine--tRNA ligase;>dRep_bin303_DDDNDJCF_00821 Leucine--tRNA ligase;>dRep_bin134_HIAPAODO_01657 Leucine--tRNA ligase;>dRep_bin287_DONBGKDH_00415 Leucine--tRNA ligase;>dRep_bin158_OGFICEAP_00108 Leucine--tRNA ligase;>dRep_bin25	dRep_bin227_IJODGBOI_00814	CDS	leuS	6.1.1.4	Leucine--tRNA ligase
IJODGBOI_00863	24.109810000000003											2	1	3,8571E-06	dRep_bin258_DAMEHFEK_00815;dRep_bin326_CEEAIPKF_00335;dRep_bin313_CJFGINPI_00883;dRep_bin311_NPLECLAD_00442;dRep_bin227_IJODGBOI_00863;dRep_bin171_FIDMCACI_00443;dRep_bin155_CLHNKEHA_00398;dRep_bin122_JHMJFODI_00580;dRep_bin009_KMMEHEKA_00227;dRep_bin180_JMFOHHIL_00465;dRep_bin156_GFIMJAAC_00069;dRep_bin015_OGEFIJFH_00072;dRep_bin213_HHHELMFN_00630	dRep_bin258_DAMEHFEK_00815;dRep_bin326_CEEAIPKF_00335;dRep_bin313_CJFGINPI_00883;dRep_bin311_NPLECLAD_00442;dRep_bin227_IJODGBOI_00863;dRep_bin171_FIDMCACI_00443;dRep_bin155_CLHNKEHA_00398;dRep_bin122_JHMJFODI_00580;dRep_bin009_KMMEHEKA_00227;dRep_bin180_JMFOHHIL_00465;dRep_bin156_GFIMJAAC_00069;dRep_bin015_OGEFIJFH_00072;dRep_bin213_HHHELMFN_00630	>dRep_bin258_DAMEHFEK_00815 Putative septation protein SpoVG;>dRep_bin326_CEEAIPKF_00335 Putative septation protein SpoVG;>dRep_bin313_CJFGINPI_00883 Putative septation protein SpoVG;>dRep_bin311_NPLECLAD_00442 Putative septation protein SpoVG;>dRep_bin227	dRep_bin227_IJODGBOI_00863	CDS	spoVG		Putative septation protein SpoVG
IJODGBOI_01012					26.773789999999998	27.2716	26.255950000000002	26.685519999999997				1	1	1,6521E-43	dRep_bin227_IJODGBOI_01012;dRep_bin173_BEBNCADL_00621	dRep_bin227_IJODGBOI_01012;dRep_bin173_BEBNCADL_00621	>dRep_bin227_IJODGBOI_01012 UDP-glucose 4-epimerase;>dRep_bin173_BEBNCADL_00621 UDP-glucose 4-epimerase	dRep_bin227_IJODGBOI_01012	CDS	lnpD	5.1.3.2	UDP-glucose 4-epimerase
