GBprotID	LFQ intensity CtrPig1	LFQ intensity CtrPig2	LFQ intensity CtrPig3	LFQ intensity CtrPig4	LFQ intensity MannanPig1	LFQ intensity MannanPig2	LFQ intensity MannanPig3	LFQ intensity MannanPig4	Only identified by site	Reverse	Contaminant	Peptides	Unique peptides	PEP	Protein IDs	Majority protein IDs	Fasta headers	IDcomb	ftype	gene	EC_number	product
NINMBMKB_00063	25.08416	24.93656	26.538800000000002	26.86915	25.985119999999995	24.62037	24.93517	24.65649				3	0	2,2235E-28	dRep_bin282_PKAAPBFP_00481;dRep_bin160_EFKMPBOM_01980;dRep_bin154_JGOKHKLI_00793;dRep_bin139_KGAJINND_01524;dRep_bin127_FIPNHBCH_00036;dRep_bin089_PAJFOJBN_02082;dRep_bin047_IFFANOMN_01724;dRep_bin347_EKGCMFPD_01107;dRep_bin308_JBPDGLPP_01114;dRep_bin266_JFOCEDAE_01005;dRep_bin328_GIGKNKPJ_01841;dRep_bin260_HELEPKJL_01354;dRep_bin216_JNJMCPHB_00018;dRep_bin186_HJAAFFNP_00342;dRep_bin167_BLMEBMNN_01083;dRep_bin115_IFKGOGCL_00636;dRep_bin065_DFABHCBI_01269;dRep_bin047_IFFANOMN_00239;dRep_bin290_OIOJKBNK_00632;dRep_bin256_KEMNAOBC_00187;dRep_bin128_JPBBHEMA_00218;dRep_bin110_JGOEJECF_00549;dRep_bin093_PGADNPMG_00791;dRep_bin355_KJEFNADK_00780;dRep_bin350_EKOOEEGH_00173;dRep_bin345_GLPJDLOI_00878;dRep_bin320_LDBKCCKL_00884;dRep_bin318_IEDEJOFJ_00796;dRep_bin315_AGEMOMDG_01119;dRep_bin306_FGHMKMMP_01710;dRep_bin304_JDNJGFKH_00632;dRep_bin283_NLJJFFAC_00211;dRep_bin267_LJCFMAFA_00484;dRep_bin265_LFKFBJPC_00850;dRep_bin258_DAMEHFEK_00123;dRep_bin247_EKGBJCBM_00038;dRep_bin230_NINMBMKB_00063;dRep_bin217_MJCEAEPB_00583;dRep_bin211_LGJEFJIK_01307;dRep_bin205_LKIOOBKC_00363;dRep_bin195_DDMDFNOK_01673;dRep_bin189_AHHEHGDL_00011;dRep_bin162_JBGCCDIN_01258;dRep_bin159_ADJJGPBG_01745;dRep_bin156_GFIMJAAC_00195;dRep_bin150_HCDEOBMH_00586;dRep_bin144_NPHACCKF_00096;dRep_bin135_HHKACLPM_00476;dRep_bin121_BHOOLFKN_00529;dRep_bin120_EKLBOPNC_00238;dRep_bin114_FJHJKHGL_00201;dRep_bin078_GKFCBAEI_00311;dRep_bin060_HNFNENOI_00556;dRep_bin027_OFJCHLJJ_00124;dRep_bin020_JCCELPIE_00086;dRep_bin014_CHIHIMAN_01506;dRep_bin006_HPJGJCAG_00037;dRep_bin001_GHHJMDAL_00906;dRep_bin049_MNFBDPNO_01392;dRep_bin330_CODAKHDJ_00376;dRep_bin242_LKAIBGGJ_00214;dRep_bin218_ACMPALGF_00060;dRep_bin106_BKDHGPBE_00670	dRep_bin282_PKAAPBFP_00481;dRep_bin160_EFKMPBOM_01980;dRep_bin154_JGOKHKLI_00793;dRep_bin139_KGAJINND_01524;dRep_bin127_FIPNHBCH_00036;dRep_bin089_PAJFOJBN_02082;dRep_bin047_IFFANOMN_01724;dRep_bin347_EKGCMFPD_01107;dRep_bin308_JBPDGLPP_01114;dRep_bin266_JFOCEDAE_01005;dRep_bin328_GIGKNKPJ_01841;dRep_bin260_HELEPKJL_01354;dRep_bin216_JNJMCPHB_00018;dRep_bin186_HJAAFFNP_00342;dRep_bin167_BLMEBMNN_01083;dRep_bin115_IFKGOGCL_00636;dRep_bin065_DFABHCBI_01269;dRep_bin047_IFFANOMN_00239	>dRep_bin282_PKAAPBFP_00481 50S ribosomal protein L14;>dRep_bin160_EFKMPBOM_01980 50S ribosomal protein L14;>dRep_bin154_JGOKHKLI_00793 50S ribosomal protein L14;>dRep_bin139_KGAJINND_01524 50S ribosomal protein L14;>dRep_bin127_FIPNHBCH_00036 50S ribosoma	dRep_bin230_NINMBMKB_00063	CDS	rplN		50S ribosomal protein L14
NINMBMKB_00174								25.89444				1	1	2,2587E-18	dRep_bin230_NINMBMKB_00174	dRep_bin230_NINMBMKB_00174	>dRep_bin230_NINMBMKB_00174 Flagellin A	dRep_bin230_NINMBMKB_00174	CDS	flaA		Flagellin A
NINMBMKB_00339					24.62773	25.07149	27.64966	25.208729999999996				4	2	4,8994E-12	dRep_bin230_NINMBMKB_00339	dRep_bin230_NINMBMKB_00339	>dRep_bin230_NINMBMKB_00339 putative peroxiredoxin	dRep_bin230_NINMBMKB_00339	CDS	tsaA	1.11.1.15	putative peroxiredoxin
NINMBMKB_00343	28.57618	28.73908	28.601940000000003	29.525329999999997	29.361539999999998	29.35947	29.47117	28.94081				13	7	2,1177E-64	dRep_bin191_NGFJMLOL_01183;dRep_bin170_LICLFCFF_01189;dRep_bin198_GMLJKALI_01270;dRep_bin064_CMDDCDKG_00041;dRep_bin137_NABPABPB_00428;dRep_bin289_KALDCNNP_00317;dRep_bin183_FPGIOKBG_00493;dRep_bin224_NFENHJGB_01634;dRep_bin314_KCHFPLIP_00994;dRep_bin285_IPHKFJAN_01105;dRep_bin294_EHJINIDK_00253;dRep_bin002_CFBNDKDN_01884;dRep_bin229_FFOBPPJI_00639;dRep_bin318_IEDEJOFJ_01051;dRep_bin355_KJEFNADK_00398;dRep_bin267_LJCFMAFA_00932;dRep_bin230_NINMBMKB_00343;dRep_bin249_OFIIEIDJ_01003;dRep_bin007_LNLEAAAN_00258;dRep_bin037_GEAOEKHA_00979;dRep_bin346_JKFDGFHC_00518;dRep_bin196_BIELHBNH_00928;dRep_bin063_PJANDMAH_01542;dRep_bin045_GJACFFBC_02082;dRep_bin036_DOKCEIDH_00964;dRep_bin034_MEBMFDLL_02139;dRep_bin329_GDOHKPBL_01390;dRep_bin345_GLPJDLOI_00615;dRep_bin307_AOCKHIKF_00674;dRep_bin098_DDEBHDKK_00690;dRep_bin301_NJFJIJGA_01580;dRep_bin275_NIDIBBDA_00434;dRep_bin149_GABCHCDI_00617;dRep_bin093_PGADNPMG_01618;dRep_bin014_CHIHIMAN_00183;dRep_bin073_AKBCEHHO_01560;dRep_bin210_AGEDAEIA_00697;dRep_bin084_CGBIKHBH_01547;dRep_bin070_EMBHKIOF_00966;dRep_bin022_BOEAFNDE_00824;dRep_bin256_KEMNAOBC_01139;dRep_bin071_JHMCIJPE_00028;dRep_bin165_HMDFFMMM_00871;dRep_bin118_FGIOKLBC_00537;dRep_bin110_JGOEJECF_01108;dRep_bin316_FNLHDNEO_00330;dRep_bin296_FDMPKPOH_01624;dRep_bin232_JGAEDAFA_01628;dRep_bin290_OIOJKBNK_00304	dRep_bin191_NGFJMLOL_01183	>dRep_bin191_NGFJMLOL_01183 S-adenosylmethionine synthase	dRep_bin230_NINMBMKB_00343	CDS	metK	2.5.1.6	S-adenosylmethionine synthase
NINMBMKB_00368					25.900119999999998	27.46987	26.849950000000003	26.325139999999998				4	0	3,2743E-28	dRep_bin307_AOCKHIKF_00160;dRep_bin098_DDEBHDKK_00652;dRep_bin183_FPGIOKBG_00590;dRep_bin128_JPBBHEMA_00391;dRep_bin137_NABPABPB_01015;dRep_bin198_GMLJKALI_00983;dRep_bin112_NDMGAKCH_00558;dRep_bin073_AKBCEHHO_00630;dRep_bin111_FPJIHFKE_01146;dRep_bin064_CMDDCDKG_00952;dRep_bin070_EMBHKIOF_00143;dRep_bin037_GEAOEKHA_00627;dRep_bin314_KCHFPLIP_01340;dRep_bin232_JGAEDAFA_00436;dRep_bin290_OIOJKBNK_01502;dRep_bin136_NAIECEIF_00125;dRep_bin018_ILOONPIC_00511;dRep_bin110_JGOEJECF_00059;dRep_bin092_OOJCPDEA_01586;dRep_bin271_NGFBCHKH_00234;dRep_bin224_NFENHJGB_01651;dRep_bin084_CGBIKHBH_01000;dRep_bin346_JKFDGFHC_00749;dRep_bin036_DOKCEIDH_01514;dRep_bin002_CFBNDKDN_00078;dRep_bin351_CKFFBPHM_00883;dRep_bin289_KALDCNNP_01019;dRep_bin298_EIPJCOMF_00289;dRep_bin229_FFOBPPJI_00563;dRep_bin275_NIDIBBDA_01303;dRep_bin210_AGEDAEIA_00620;dRep_bin104_EGLEJOLM_00781;dRep_bin257_JHFDCHCB_01689;dRep_bin097_CBBLIPAN_01153;dRep_bin337_FHKPNFDB_01364;dRep_bin335_JIOGNAPG_00046;dRep_bin282_PKAAPBFP_01042;dRep_bin234_ECABPBME_00099;dRep_bin135_HHKACLPM_00078;dRep_bin089_PAJFOJBN_00724;dRep_bin088_DNGPPFDK_00540;dRep_bin075_EPEMMOCL_00011;dRep_bin035_JBNPBOKG_00075;dRep_bin093_PGADNPMG_00660;dRep_bin169_PNICKJKO_01447;dRep_bin230_NINMBMKB_00368;dRep_bin294_EHJINIDK_00696;dRep_bin028_GKEJLBAM_00575;dRep_bin014_CHIHIMAN_01200;dRep_bin355_KJEFNADK_00480;dRep_bin063_PJANDMAH_00595;dRep_bin034_MEBMFDLL_01871;dRep_bin320_LDBKCCKL_00526;dRep_bin301_NJFJIJGA_01347;dRep_bin149_GABCHCDI_01402;dRep_bin310_IMBAFDIF_01474;dRep_bin242_LKAIBGGJ_00169;dRep_bin181_MKGPMPIA_00142;dRep_bin267_LJCFMAFA_00611;dRep_bin306_FGHMKMMP_00339;dRep_bin150_HCDEOBMH_01051;dRep_bin091_MAFACGAD_01386;dRep_bin040_EIFLLDOA_01982;dRep_bin005_CNDFPKJG_00382;dRep_bin333_EFOKIBLA_01313;dRep_bin317_ABPHNCOD_01616;dRep_bin081_JDPCKDNP_00758;dRep_bin138_EJGHNBMI_00536;dRep_bin162_JBGCCDIN_00612;dRep_bin272_LGBDGEIM_00307;dRep_bin168_HKDILBFE_01242;dRep_bin118_FGIOKLBC_01317	dRep_bin307_AOCKHIKF_00160;dRep_bin098_DDEBHDKK_00652;dRep_bin183_FPGIOKBG_00590;dRep_bin128_JPBBHEMA_00391;dRep_bin137_NABPABPB_01015;dRep_bin198_GMLJKALI_00983;dRep_bin112_NDMGAKCH_00558;dRep_bin073_AKBCEHHO_00630;dRep_bin111_FPJIHFKE_01146;dRep_bin064_CMDDCDKG_00952;dRep_bin070_EMBHKIOF_00143;dRep_bin037_GEAOEKHA_00627;dRep_bin314_KCHFPLIP_01340;dRep_bin232_JGAEDAFA_00436;dRep_bin290_OIOJKBNK_01502;dRep_bin136_NAIECEIF_00125;dRep_bin018_ILOONPIC_00511;dRep_bin110_JGOEJECF_00059;dRep_bin092_OOJCPDEA_01586;dRep_bin271_NGFBCHKH_00234;dRep_bin224_NFENHJGB_01651;dRep_bin084_CGBIKHBH_01000;dRep_bin346_JKFDGFHC_00749;dRep_bin036_DOKCEIDH_01514;dRep_bin002_CFBNDKDN_00078;dRep_bin351_CKFFBPHM_00883;dRep_bin289_KALDCNNP_01019;dRep_bin298_EIPJCOMF_00289;dRep_bin229_FFOBPPJI_00563;dRep_bin275_NIDIBBDA_01303;dRep_bin210_AGEDAEIA_00620;dRep_bin104_EGLEJOLM_00781;dRep_bin257_JHFDCHCB_01689;dRep_bin097_CBBLIPAN_01153;dRep_bin337_FHKPNFDB_01364;dRep_bin335_JIOGNAPG_00046;dRep_bin282_PKAAPBFP_01042;dRep_bin234_ECABPBME_00099;dRep_bin135_HHKACLPM_00078;dRep_bin089_PAJFOJBN_00724;dRep_bin088_DNGPPFDK_00540;dRep_bin075_EPEMMOCL_00011;dRep_bin035_JBNPBOKG_00075;dRep_bin093_PGADNPMG_00660	>dRep_bin307_AOCKHIKF_00160 NADPH-dependent 7-cyano-7-deazaguanine reductase;>dRep_bin098_DDEBHDKK_00652 NADPH-dependent 7-cyano-7-deazaguanine reductase;>dRep_bin183_FPGIOKBG_00590 NADPH-dependent 7-cyano-7-deazaguanine reductase;>dRep_bin128_JPBBHEMA_003	dRep_bin230_NINMBMKB_00368	CDS	queF	1.7.1.13	NADPH-dependent 7-cyano-7-deazaguanine reductase
NINMBMKB_00370							25.431990000000003					2	2	5,9966E-07	dRep_bin230_NINMBMKB_00370	dRep_bin230_NINMBMKB_00370	>dRep_bin230_NINMBMKB_00370 Superoxide dismutase [Fe]	dRep_bin230_NINMBMKB_00370	CDS	sodB	1.15.1.1	Superoxide dismutase [Fe]
NINMBMKB_00377							20.40291					1	1	0,0028243	dRep_bin267_LJCFMAFA_00806;dRep_bin291_EILOACJB_01446;dRep_bin355_KJEFNADK_01297;dRep_bin230_NINMBMKB_00377	dRep_bin267_LJCFMAFA_00806;dRep_bin291_EILOACJB_01446;dRep_bin355_KJEFNADK_01297;dRep_bin230_NINMBMKB_00377	>dRep_bin267_LJCFMAFA_00806 Isocitrate dehydrogenase [NADP];>dRep_bin291_EILOACJB_01446 Isocitrate dehydrogenase [NADP];>dRep_bin355_KJEFNADK_01297 Isocitrate dehydrogenase [NADP] 2;>dRep_bin230_NINMBMKB_00377 Isocitrate dehydrogenase [NADP] 2	dRep_bin230_NINMBMKB_00377	CDS	icd2	1.1.1.42	Isocitrate dehydrogenase [NADP] 2
NINMBMKB_00397								25.762709999999995				9	0	2,6874E-145	dRep_bin026_HNPIIINL_00565;dRep_bin309_BIOHLCGG_00069;dRep_bin182_EMCFODCD_01256;dRep_bin044_IPFKHAEF_00002;dRep_bin230_NINMBMKB_00397;dRep_bin221_LMGNIMOJ_00250	dRep_bin026_HNPIIINL_00565;dRep_bin309_BIOHLCGG_00069	>dRep_bin026_HNPIIINL_00565 Elongation factor G;>dRep_bin309_BIOHLCGG_00069 Elongation factor G	dRep_bin230_NINMBMKB_00397	CDS	fusA		Elongation factor G
NINMBMKB_00441	27.60633	26.83714	27.391980000000004	28.00282	27.142	27.74458	26.4321	26.123170000000002				14	11	2,095E-174	dRep_bin105_AAEIHAFF_01320;dRep_bin029_LFMGBBEC_01388;dRep_bin230_NINMBMKB_00441;dRep_bin280_IMCGLKKG_00408	dRep_bin105_AAEIHAFF_01320	>dRep_bin105_AAEIHAFF_01320 60 kDa chaperonin	dRep_bin230_NINMBMKB_00441	CDS	groL		60 kDa chaperonin
NINMBMKB_00671	24.458329999999997	24.712139999999998	25.065539999999995	26.952939999999998								5	5	2,936E-12	dRep_bin184_MBMMJHKO_00031;dRep_bin291_EILOACJB_01022;dRep_bin267_LJCFMAFA_00614;dRep_bin230_NINMBMKB_00671	dRep_bin184_MBMMJHKO_00031	>dRep_bin184_MBMMJHKO_00031 Aconitate hydratase B	dRep_bin230_NINMBMKB_00671	CDS	acnB	4.2.1.3	Aconitate hydratase B
NINMBMKB_00674	28.62954	29.354750000000003	29.992399999999996	30.023139999999998	30.21083	30.89937	29.70792	30.0531				20	3	1,2194E-156	dRep_bin191_NGFJMLOL_01259;dRep_bin296_FDMPKPOH_00205;dRep_bin210_AGEDAEIA_00766;dRep_bin195_DDMDFNOK_00108;dRep_bin334_NAPFFNLD_01038;dRep_bin211_LGJEFJIK_01419;dRep_bin295_EJGKDKNE_00091;dRep_bin341_NBEGOKEF_00239;dRep_bin020_JCCELPIE_00888;dRep_bin283_NLJJFFAC_01280;dRep_bin274_DBJHKLDG_00956;dRep_bin016_JLGAHGOJ_01458;dRep_bin108_BPNCDINP_01604;dRep_bin008_MNDMJLEI_00335;dRep_bin270_GEJAHNCN_01137;dRep_bin005_CNDFPKJG_01352;dRep_bin060_HNFNENOI_00669;dRep_bin146_LCCIBLJG_00571;dRep_bin326_CEEAIPKF_00877;dRep_bin333_EFOKIBLA_00153;dRep_bin168_HKDILBFE_01558;dRep_bin244_LBFMHLBI_01599;dRep_bin096_GNHMEKPF_00231;dRep_bin237_KJDLIPND_00220;dRep_bin188_EJILNMPE_01240;dRep_bin251_FGNGCJDD_00076;dRep_bin227_IJODGBOI_00103;dRep_bin151_AHBJLMBI_00923;dRep_bin116_CLFDBMOF_00729;dRep_bin141_GMCOOECB_00805;dRep_bin350_EKOOEEGH_00925;dRep_bin132_FAPBDCMG_00754;dRep_bin080_CBEBHNNK_00317;dRep_bin051_HIEIDCID_00971;dRep_bin228_CECEDMJG_00643;dRep_bin009_KMMEHEKA_00811;dRep_bin318_IEDEJOFJ_01292;dRep_bin207_OHNPDPFI_00717;dRep_bin345_GLPJDLOI_00471;dRep_bin144_NPHACCKF_01507;dRep_bin118_FGIOKLBC_00082;dRep_bin355_KJEFNADK_00986;dRep_bin293_MEPKGOAN_00544;dRep_bin230_NINMBMKB_00674;dRep_bin014_CHIHIMAN_00029;dRep_bin218_ACMPALGF_00178;dRep_bin165_HMDFFMMM_01108;dRep_bin094_LBLICAAO_00513;dRep_bin076_GLAOFBEC_01428;dRep_bin267_LJCFMAFA_00110;dRep_bin048_PABMBHAL_00321;dRep_bin147_EJLBNEBE_02032;dRep_bin128_JPBBHEMA_00007;dRep_bin042_MMFCLHOO_01063;dRep_bin351_CKFFBPHM_00913;dRep_bin123_PJKBFKBB_00095;dRep_bin330_CODAKHDJ_00708;dRep_bin252_NDAKLAGD_01294;dRep_bin233_BAGKKAOB_01574;dRep_bin217_MJCEAEPB_00244;dRep_bin110_JGOEJECF_00272;dRep_bin109_MJABCPAK_00670;dRep_bin101_BNDDLDCL_01055;dRep_bin092_OOJCPDEA_00344;dRep_bin074_EHAOMODJ_00824;dRep_bin336_MPGOKPOL_02107;dRep_bin290_OIOJKBNK_01058;dRep_bin264_DNFFGNEG_00269;dRep_bin256_KEMNAOBC_01330;dRep_bin246_MMFBABHK_01553;dRep_bin166_DFIAJFEC_00041;dRep_bin153_JGABJFBF_00098;dRep_bin143_PFLDJMPF_00060;dRep_bin106_BKDHGPBE_01156;dRep_bin071_JHMCIJPE_01039;dRep_bin250_NMCAMJIO_00472;dRep_bin312_MJFEFHMP_01194;dRep_bin194_MEPDOGGJ_00657;dRep_bin129_GADIAMAA_01832;dRep_bin061_ONFGDLGO_01341;dRep_bin030_OGPDLGOC_01109;dRep_bin025_CBEJJMLE_00255;dRep_bin223_PIMCDKJI_01311;dRep_bin204_INMOGLDN_00399;dRep_bin202_HEPPALPH_00661;dRep_bin105_AAEIHAFF_01590;dRep_bin056_EMNHHOJA_01586;dRep_bin174_LJJOKEME_01552;dRep_bin057_BNCFHBBO_00981;dRep_bin348_LCLFDNEE_01410;dRep_bin339_DBNBAHDK_00024;dRep_bin321_EJNAAGJG_00897;dRep_bin273_FGAEBHNP_01096;dRep_bin248_CCDFPECI_01765;dRep_bin124_HIHDFGCL_01059;dRep_bin068_ENOLAELK_01049;dRep_bin038_EIGFILKG_00020;dRep_bin276_EHNFLEBP_00417;dRep_bin152_LJMCIADF_00769;dRep_bin115_IFKGOGCL_00005;dRep_bin099_DNDAGJEJ_00435;dRep_bin085_MBHLGCDB_01722;dRep_bin079_GAOGCKND_00892;dRep_bin026_HNPIIINL_00985;dRep_bin353_PPDHLNJB_01438;dRep_bin319_PBDBJGCJ_01331;dRep_bin291_EILOACJB_00194;dRep_bin241_LMMMGDNI_00361;dRep_bin091_MAFACGAD_00751;dRep_bin303_DDDNDJCF_01255;dRep_bin216_JNJMCPHB_01481;dRep_bin184_MBMMJHKO_01167;dRep_bin161_JMKPMHCO_00103;dRep_bin021_AJDDCGJC_01597;dRep_bin095_HOBNOEEF_00033;dRep_bin059_OOBKFNPP_00633;dRep_bin018_ILOONPIC_00093;dRep_bin306_FGHMKMMP_00476;dRep_bin175_HANCENAK_00082;dRep_bin040_EIFLLDOA_01832;dRep_bin166_DFIAJFEC_00288;dRep_bin085_MBHLGCDB_01583	dRep_bin191_NGFJMLOL_01259	>dRep_bin191_NGFJMLOL_01259 Aspartate--tRNA ligase	dRep_bin230_NINMBMKB_00674	CDS	aspS	6.1.1.23	Aspartate--tRNA(Asp/Asn) ligase
NINMBMKB_00686					23.917800000000003							5	2	9,3132E-20	dRep_bin230_NINMBMKB_00686	dRep_bin230_NINMBMKB_00686	>dRep_bin230_NINMBMKB_00686 NADP-specific glutamate dehydrogenase	dRep_bin230_NINMBMKB_00686	CDS	gdh	1.4.1.4	NADP-specific glutamate dehydrogenase
NINMBMKB_00865	31.69062	31.497960000000003	31.258499999999998	30.57867	30.338729999999998	30.18754	31.41518	31.29647				16	13	0	dRep_bin225_FLBKEJIP_00638;dRep_bin193_GDMDPNNM_00391;dRep_bin104_EGLEJOLM_00429;dRep_bin267_LJCFMAFA_01104;dRep_bin128_JPBBHEMA_00063;dRep_bin322_OJELOJOF_01579;dRep_bin220_PILICLLL_00965;dRep_bin237_KJDLIPND_01288;dRep_bin273_FGAEBHNP_00090;dRep_bin350_EKOOEEGH_00878;dRep_bin341_NBEGOKEF_01245;dRep_bin230_NINMBMKB_00865;dRep_bin355_KJEFNADK_01484;dRep_bin306_FGHMKMMP_01597;dRep_bin291_EILOACJB_00178;dRep_bin276_EHNFLEBP_00863;dRep_bin107_EFNBPDOP_00094;dRep_bin077_DNNBMPMC_01312;dRep_bin324_IPNHOHFK_02120;dRep_bin308_JBPDGLPP_01844;dRep_bin089_PAJFOJBN_01453;dRep_bin031_BNHMFOII_01699;dRep_bin007_LNLEAAAN_01377;dRep_bin179_HFEIPPPA_01144;dRep_bin347_EKGCMFPD_01400;dRep_bin226_NLNLHLLD_00768;dRep_bin056_EMNHHOJA_00523;dRep_bin026_HNPIIINL_01583;dRep_bin020_JCCELPIE_01111;dRep_bin345_GLPJDLOI_00559;dRep_bin343_JCMCKBGF_01283;dRep_bin333_EFOKIBLA_00575;dRep_bin323_FBBLPLCG_00787;dRep_bin274_DBJHKLDG_00045;dRep_bin195_DDMDFNOK_00591;dRep_bin078_GKFCBAEI_00992;dRep_bin008_MNDMJLEI_01069;dRep_bin316_FNLHDNEO_00739;dRep_bin092_OOJCPDEA_01821;dRep_bin074_EHAOMODJ_00660;dRep_bin256_KEMNAOBC_00450;dRep_bin123_PJKBFKBB_01350;dRep_bin110_JGOEJECF_00180;dRep_bin101_BNDDLDCL_01841;dRep_bin071_JHMCIJPE_01380;dRep_bin040_EIFLLDOA_01745;dRep_bin032_PPNIGLME_01067;dRep_bin014_CHIHIMAN_00063;dRep_bin321_EJNAAGJG_00005;dRep_bin290_OIOJKBNK_00982;dRep_bin229_FFOBPPJI_01385;dRep_bin124_HIHDFGCL_00127;dRep_bin028_GKEJLBAM_01146;dRep_bin351_CKFFBPHM_00748;dRep_bin296_FDMPKPOH_01066;dRep_bin257_JHFDCHCB_01960;dRep_bin194_MEPDOGGJ_00157;dRep_bin191_NGFJMLOL_00394;dRep_bin136_NAIECEIF_01100;dRep_bin118_FGIOKLBC_00461;dRep_bin025_CBEJJMLE_00124;dRep_bin293_MEPKGOAN_00978;dRep_bin210_AGEDAEIA_00638;dRep_bin314_KCHFPLIP_00446;dRep_bin165_HMDFFMMM_00776;dRep_bin353_PPDHLNJB_00892;dRep_bin018_ILOONPIC_00585;dRep_bin060_HNFNENOI_01252;dRep_bin217_MJCEAEPB_01380	dRep_bin225_FLBKEJIP_00638	>dRep_bin225_FLBKEJIP_00638 Inosine-5-monophosphate dehydrogenase	dRep_bin230_NINMBMKB_00865	CDS	guaB	1.1.1.205	Inosine-5'-monophosphate dehydrogenase
NINMBMKB_00899							20.857950000000006					1	1	4,4875E-07	dRep_bin230_NINMBMKB_00899	dRep_bin230_NINMBMKB_00899	>dRep_bin230_NINMBMKB_00899 2-methylcitrate synthase	dRep_bin230_NINMBMKB_00899	CDS	prpC	2.3.3.5	2-methylcitrate synthase
NINMBMKB_00900	24.531480000000002		24.603990000000003	26.899890000000003								3	3	5,594E-08	dRep_bin267_LJCFMAFA_00845;dRep_bin230_NINMBMKB_00900;dRep_bin291_EILOACJB_00326	dRep_bin267_LJCFMAFA_00845;dRep_bin230_NINMBMKB_00900	>dRep_bin267_LJCFMAFA_00845 2-methylcitrate dehydratase;>dRep_bin230_NINMBMKB_00900 2-methylcitrate dehydratase	dRep_bin230_NINMBMKB_00900	CDS	prpD	4.2.1.79	2-methylcitrate dehydratase
NINMBMKB_00901		24.70757										1	1	0,0016631	dRep_bin100_CODMOHGB_00036;dRep_bin230_NINMBMKB_00901	dRep_bin100_CODMOHGB_00036;dRep_bin230_NINMBMKB_00901	>dRep_bin100_CODMOHGB_00036 Succinyl-CoA:coenzyme A transferase;>dRep_bin230_NINMBMKB_00901 Succinyl-CoA:coenzyme A transferase	dRep_bin230_NINMBMKB_00901	CDS	cat1	2.8.3.-	Succinyl-CoA:coenzyme A transferase
NINMBMKB_01057				23.996619999999997								8	2	1,6542E-78	dRep_bin230_NINMBMKB_01057;dRep_bin267_LJCFMAFA_00461	dRep_bin230_NINMBMKB_01057;dRep_bin267_LJCFMAFA_00461	>dRep_bin230_NINMBMKB_01057 Elongation factor Tu;>dRep_bin267_LJCFMAFA_00461 Elongation factor Tu	dRep_bin230_NINMBMKB_01057	CDS	tufA		Elongation factor Tu
NINMBMKB_01134								21.854870000000005				2	1	3,808E-08	dRep_bin317_ABPHNCOD_00312;dRep_bin299_AKNBKJGM_02111;dRep_bin230_NINMBMKB_01134	dRep_bin317_ABPHNCOD_00312;dRep_bin299_AKNBKJGM_02111;dRep_bin230_NINMBMKB_01134	>dRep_bin317_ABPHNCOD_00312 Bifunctional protein FolD protein;>dRep_bin299_AKNBKJGM_02111 Bifunctional protein FolD protein;>dRep_bin230_NINMBMKB_01134 Bifunctional protein FolD protein	dRep_bin230_NINMBMKB_01134	CDS	folD		Bifunctional protein FolD protein
NINMBMKB_01513				24.131320000000002								1	1	0,00097929	dRep_bin267_LJCFMAFA_00727;dRep_bin230_NINMBMKB_01513;dRep_bin184_MBMMJHKO_00311	dRep_bin267_LJCFMAFA_00727;dRep_bin230_NINMBMKB_01513;dRep_bin184_MBMMJHKO_00311	>dRep_bin267_LJCFMAFA_00727 50S ribosomal protein L27;>dRep_bin230_NINMBMKB_01513 50S ribosomal protein L27;>dRep_bin184_MBMMJHKO_00311 50S ribosomal protein L27	dRep_bin230_NINMBMKB_01513	CDS	rpmA		50S ribosomal protein L27
NINMBMKB_01557	27.40981	27.54826	27.38977	28.62965	28.621570000000002	28.97665	27.64712	28.10064				7	3	7,1372E-65	dRep_bin285_IPHKFJAN_00838;dRep_bin008_MNDMJLEI_00369;dRep_bin230_NINMBMKB_01557;dRep_bin267_LJCFMAFA_00090	dRep_bin285_IPHKFJAN_00838	>dRep_bin285_IPHKFJAN_00838 2,3-bisphosphoglycerate-independent phosphoglycerate mutase	dRep_bin230_NINMBMKB_01557	CDS	gpmI	5.4.2.12	2,3-bisphosphoglycerate-independent phosphoglycerate mutase
