GBprotID	LFQ intensity CtrPig1	LFQ intensity CtrPig2	LFQ intensity CtrPig3	LFQ intensity CtrPig4	LFQ intensity MannanPig1	LFQ intensity MannanPig2	LFQ intensity MannanPig3	LFQ intensity MannanPig4	Only identified by site	Reverse	Contaminant	Peptides	Unique peptides	PEP	Protein IDs	Majority protein IDs	Fasta headers	IDcomb	ftype	gene	EC_number	product
CFOLMJBA_00061								26.72949				2	1	9,0759E-07	dRep_bin293_MEPKGOAN_00097;dRep_bin047_IFFANOMN_00065;dRep_bin269_PNILGKPH_00704;dRep_bin238_OLNFACLE_01472;dRep_bin124_HIHDFGCL_00696;dRep_bin105_AAEIHAFF_01124;dRep_bin079_GAOGCKND_01577;dRep_bin056_EMNHHOJA_01381;dRep_bin321_EJNAAGJG_00783;dRep_bin257_JHFDCHCB_00230;dRep_bin143_PFLDJMPF_01136;dRep_bin340_OFLHNGJM_01032;dRep_bin277_MIPNGEJE_01470;dRep_bin231_CFOLMJBA_00061	dRep_bin293_MEPKGOAN_00097;dRep_bin047_IFFANOMN_00065;dRep_bin269_PNILGKPH_00704;dRep_bin238_OLNFACLE_01472;dRep_bin124_HIHDFGCL_00696;dRep_bin105_AAEIHAFF_01124;dRep_bin079_GAOGCKND_01577;dRep_bin056_EMNHHOJA_01381;dRep_bin321_EJNAAGJG_00783;dRep_bin257_JHFDCHCB_00230;dRep_bin143_PFLDJMPF_01136;dRep_bin340_OFLHNGJM_01032;dRep_bin277_MIPNGEJE_01470;dRep_bin231_CFOLMJBA_00061	>dRep_bin293_MEPKGOAN_00097 30S ribosomal protein S9;>dRep_bin047_IFFANOMN_00065 30S ribosomal protein S9;>dRep_bin269_PNILGKPH_00704 30S ribosomal protein S9;>dRep_bin238_OLNFACLE_01472 30S ribosomal protein S9;>dRep_bin124_HIHDFGCL_00696 30S ribosomal pr	dRep_bin231_CFOLMJBA_00061	CDS	rpsI		30S ribosomal protein S9
CFOLMJBA_00071	28.440749999999998	26.74445	27.761419999999998	26.12353	26.900579999999998	27.43404	28.44285	27.463339999999995				15	2	7,7615E-91	dRep_bin231_CFOLMJBA_00071	dRep_bin231_CFOLMJBA_00071	>dRep_bin231_CFOLMJBA_00071 Oleate hydratase	dRep_bin231_CFOLMJBA_00071	CDS		4.2.1.53	Oleate hydratase
CFOLMJBA_00136					25.616020000000002	23.6184	23.54922					4	1	1,9799E-33	dRep_bin260_HELEPKJL_01845;dRep_bin201_OLKDIBOK_00112;dRep_bin303_DDDNDJCF_00142;dRep_bin287_DONBGKDH_01854;dRep_bin322_OJELOJOF_01184;dRep_bin257_JHFDCHCB_00967;dRep_bin169_PNICKJKO_00877;A0A287A8P8;dRep_bin051_HIEIDCID_00151;dRep_bin086_HHEJBMCP_00386;dRep_bin122_JHMJFODI_00063;dRep_bin023_HGFJFKAI_00771;dRep_bin181_MKGPMPIA_00103;dRep_bin066_AJACLPEE_00701;dRep_bin259_IFIOODLK_02454;dRep_bin180_JMFOHHIL_00810;dRep_bin176_DLEJNGKN_00496;dRep_bin102_ICFDHPGB_00705;dRep_bin054_NNOKONMC_00274;dRep_bin141_GMCOOECB_00272;dRep_bin081_JDPCKDNP_01556;dRep_bin191_NGFJMLOL_01066;dRep_bin347_EKGCMFPD_00368;dRep_bin258_DAMEHFEK_00953;dRep_bin207_OHNPDPFI_00730;dRep_bin155_CLHNKEHA_00341;dRep_bin147_EJLBNEBE_00007;dRep_bin003_GOBBLOGO_01064;dRep_bin001_GHHJMDAL_00643;dRep_bin178_FLGBGGJB_01411;dRep_bin161_JMKPMHCO_00287;dRep_bin096_GNHMEKPF_00190;dRep_bin074_EHAOMODJ_00071;dRep_bin059_OOBKFNPP_00877;dRep_bin009_KMMEHEKA_00693;dRep_bin308_JBPDGLPP_01578;dRep_bin276_EHNFLEBP_00798;dRep_bin337_FHKPNFDB_01542;dRep_bin273_FGAEBHNP_00709;dRep_bin167_BLMEBMNN_01919;dRep_bin114_FJHJKHGL_00074;dRep_bin085_MBHLGCDB_00354;dRep_bin058_GJKCICJN_00485;A0A287B9S9;dRep_bin342_BMMENEMP_00811;dRep_bin341_NBEGOKEF_00144;dRep_bin231_CFOLMJBA_00136;dRep_bin095_HOBNOEEF_01465;dRep_bin236_BNONDECB_00582;dRep_bin168_HKDILBFE_01225;dRep_bin099_DNDAGJEJ_01201;dRep_bin024_OLHDGABE_00735;dRep_bin006_HPJGJCAG_01680;I3LL84;dRep_bin332_KAOPCDPF_00242;dRep_bin336_MPGOKPOL_00237;A0A287BIW1;dRep_bin319_PBDBJGCJ_00470	dRep_bin260_HELEPKJL_01845;dRep_bin201_OLKDIBOK_00112;dRep_bin303_DDDNDJCF_00142;dRep_bin287_DONBGKDH_01854	>dRep_bin260_HELEPKJL_01845 UDP-glucose 4-epimerase;>dRep_bin201_OLKDIBOK_00112 UDP-glucose 4-epimerase;>dRep_bin303_DDDNDJCF_00142 UDP-glucose 4-epimerase;>dRep_bin287_DONBGKDH_01854 UDP-glucose 4-epimerase	dRep_bin231_CFOLMJBA_00136	CDS	lnpD	5.1.3.2	UDP-glucose 4-epimerase
CFOLMJBA_00266	26.34094	25.807840000000002	26.02158	26.39236								5	2	1,2541E-39	dRep_bin231_CFOLMJBA_00266;dRep_bin126_PPDNCIBN_01503	dRep_bin231_CFOLMJBA_00266	>dRep_bin231_CFOLMJBA_00266 Chaperone protein DnaK	dRep_bin231_CFOLMJBA_00266	CDS	dnaK		Chaperone protein DnaK
CFOLMJBA_00378					25.37812		27.18026	25.844050000000003				2	2	0,00039487	dRep_bin058_GJKCICJN_00268;dRep_bin100_CODMOHGB_01266;dRep_bin044_IPFKHAEF_01203;dRep_bin185_OOOLKACK_00254;dRep_bin142_NDNPJBEM_01439;dRep_bin332_KAOPCDPF_00210;dRep_bin193_GDMDPNNM_01660;dRep_bin215_ABBFGCAF_00629;dRep_bin268_LKMHIMLG_00104;dRep_bin164_KHMELCCL_01838;dRep_bin006_HPJGJCAG_01440;dRep_bin193_GDMDPNNM_00137;dRep_bin172_ALNHGLMD_01430;dRep_bin270_GEJAHNCN_01086;dRep_bin109_MJABCPAK_01283;dRep_bin059_OOBKFNPP_00443;dRep_bin126_PPDNCIBN_01623;dRep_bin231_CFOLMJBA_00378;dRep_bin286_OEMIJKMC_00470;dRep_bin126_PPDNCIBN_01274	dRep_bin058_GJKCICJN_00268;dRep_bin100_CODMOHGB_01266;dRep_bin044_IPFKHAEF_01203;dRep_bin185_OOOLKACK_00254;dRep_bin142_NDNPJBEM_01439;dRep_bin332_KAOPCDPF_00210;dRep_bin193_GDMDPNNM_01660;dRep_bin215_ABBFGCAF_00629;dRep_bin268_LKMHIMLG_00104;dRep_bin164_KHMELCCL_01838;dRep_bin006_HPJGJCAG_01440;dRep_bin193_GDMDPNNM_00137;dRep_bin172_ALNHGLMD_01430;dRep_bin270_GEJAHNCN_01086;dRep_bin109_MJABCPAK_01283;dRep_bin059_OOBKFNPP_00443;dRep_bin126_PPDNCIBN_01623;dRep_bin231_CFOLMJBA_00378;dRep_bin286_OEMIJKMC_00470;dRep_bin126_PPDNCIBN_01274	>dRep_bin058_GJKCICJN_00268 Pyrophosphate--fructose 6-phosphate 1-phosphotransferase;>dRep_bin100_CODMOHGB_01266 Pyrophosphate--fructose 6-phosphate 1-phosphotransferase;>dRep_bin044_IPFKHAEF_01203 Pyrophosphate--fructose 6-phosphate 1-phosphotransferase;>	dRep_bin231_CFOLMJBA_00378	CDS	pfp	2.7.1.90	Pyrophosphate--fructose 6-phosphate 1-phosphotransferase
CFOLMJBA_00379	25.862539999999996	25.86816	27.082529999999995	26.6554		26.275439999999996		26.083629999999996				7	2	7,2473E-58	dRep_bin287_DONBGKDH_00177;dRep_bin266_JFOCEDAE_00333;dRep_bin231_CFOLMJBA_00379;dRep_bin010_MFFFGEGD_02454;dRep_bin003_GOBBLOGO_00458;dRep_bin337_FHKPNFDB_01691;dRep_bin262_LLCGOPIE_00287;dRep_bin200_JJGKEOHI_00802;dRep_bin086_HHEJBMCP_00081;dRep_bin044_IPFKHAEF_01202;dRep_bin189_AHHEHGDL_00588;dRep_bin210_AGEDAEIA_00618;dRep_bin162_JBGCCDIN_00738;dRep_bin205_LKIOOBKC_00492;dRep_bin159_ADJJGPBG_01487;dRep_bin011_KOGMKLNO_00445;dRep_bin314_KCHFPLIP_00100	dRep_bin287_DONBGKDH_00177;dRep_bin266_JFOCEDAE_00333	>dRep_bin287_DONBGKDH_00177 Fructose-bisphosphate aldolase;>dRep_bin266_JFOCEDAE_00333 Fructose-bisphosphate aldolase	dRep_bin231_CFOLMJBA_00379	CDS	fba	4.1.2.13	Fructose-bisphosphate aldolase
CFOLMJBA_00436								24.33272				2	2	0,00046459	dRep_bin029_LFMGBBEC_00364;dRep_bin286_OEMIJKMC_00210;dRep_bin231_CFOLMJBA_00436;dRep_bin164_KHMELCCL_00895;dRep_bin126_PPDNCIBN_01113;dRep_bin354_MMOALAFN_00676;dRep_bin321_EJNAAGJG_00153;dRep_bin273_FGAEBHNP_00022;dRep_bin257_JHFDCHCB_01607;dRep_bin185_OOOLKACK_00892;dRep_bin221_LMGNIMOJ_00573	dRep_bin029_LFMGBBEC_00364;dRep_bin286_OEMIJKMC_00210;dRep_bin231_CFOLMJBA_00436;dRep_bin164_KHMELCCL_00895;dRep_bin126_PPDNCIBN_01113;dRep_bin354_MMOALAFN_00676;dRep_bin321_EJNAAGJG_00153;dRep_bin273_FGAEBHNP_00022;dRep_bin257_JHFDCHCB_01607;dRep_bin185_OOOLKACK_00892;dRep_bin221_LMGNIMOJ_00573	>dRep_bin029_LFMGBBEC_00364 Ribosome-recycling factor;>dRep_bin286_OEMIJKMC_00210 Ribosome-recycling factor;>dRep_bin231_CFOLMJBA_00436 Ribosome-recycling factor;>dRep_bin164_KHMELCCL_00895 Ribosome-recycling factor;>dRep_bin126_PPDNCIBN_01113 Ribosome-rec	dRep_bin231_CFOLMJBA_00436	CDS	frr		Ribosome-recycling factor
CFOLMJBA_00446					26.69259	26.46382	24.862639999999995	25.452619999999996				7	2	1,4139E-30	dRep_bin272_LGBDGEIM_01228;dRep_bin354_MMOALAFN_01246;dRep_bin166_DFIAJFEC_00700;dRep_bin309_BIOHLCGG_00463;dRep_bin277_MIPNGEJE_01155;dRep_bin286_OEMIJKMC_00557;dRep_bin126_PPDNCIBN_00953;dRep_bin131_HLFNHDGI_01712;dRep_bin059_OOBKFNPP_00024;dRep_bin085_MBHLGCDB_00444;dRep_bin349_AMCJEEEG_00683;dRep_bin049_MNFBDPNO_00397;dRep_bin231_CFOLMJBA_00446;dRep_bin304_JDNJGFKH_01037;dRep_bin120_EKLBOPNC_00637;dRep_bin115_IFKGOGCL_02607;dRep_bin083_OCBADPJJ_01445;dRep_bin205_LKIOOBKC_01850;dRep_bin090_IPGNHCBJ_01246;dRep_bin058_GJKCICJN_00624;dRep_bin247_EKGBJCBM_01564	dRep_bin272_LGBDGEIM_01228	>dRep_bin272_LGBDGEIM_01228 Inosine-5-monophosphate dehydrogenase	dRep_bin231_CFOLMJBA_00446	CDS	guaB	1.1.1.205	Inosine-5'-monophosphate dehydrogenase
CFOLMJBA_00464				21.86884								3	1	1,3797E-13	dRep_bin021_AJDDCGJC_00051;dRep_bin252_NDAKLAGD_00826;dRep_bin317_ABPHNCOD_01131;dRep_bin216_JNJMCPHB_01076;dRep_bin272_LGBDGEIM_00618;dRep_bin097_CBBLIPAN_01579;dRep_bin053_OMGNPOOB_00833;dRep_bin337_FHKPNFDB_00090;dRep_bin052_PGOOKKFH_01594;dRep_bin168_HKDILBFE_01015;dRep_bin322_OJELOJOF_01622;dRep_bin220_PILICLLL_01543;dRep_bin055_IBMMJAEE_00610;dRep_bin061_ONFGDLGO_01234;dRep_bin168_HKDILBFE_00368;dRep_bin055_IBMMJAEE_00168;dRep_bin261_FJICAFFM_00490;dRep_bin017_FGFLFOPJ_00414;dRep_bin115_IFKGOGCL_01280;dRep_bin257_JHFDCHCB_01406;dRep_bin323_FBBLPLCG_01600;dRep_bin007_LNLEAAAN_00766;dRep_bin049_MNFBDPNO_00781;dRep_bin333_EFOKIBLA_01149;dRep_bin279_IAEFEPEN_01471;dRep_bin234_ECABPBME_01515;dRep_bin179_HFEIPPPA_02108;dRep_bin023_HGFJFKAI_01527;dRep_bin335_JIOGNAPG_00787;dRep_bin250_NMCAMJIO_00423;dRep_bin158_OGFICEAP_00549;dRep_bin100_CODMOHGB_01341;dRep_bin089_PAJFOJBN_02515;dRep_bin088_DNGPPFDK_01371;dRep_bin081_JDPCKDNP_00684;dRep_bin324_IPNHOHFK_01454;dRep_bin300_MJPPENNL_01260;dRep_bin292_JIBLDOOH_01593;dRep_bin284_DEHKNOBF_00281;dRep_bin282_PKAAPBFP_00934;dRep_bin279_IAEFEPEN_01275;dRep_bin269_PNILGKPH_00152;dRep_bin240_LDBBGJKG_01257;dRep_bin226_NLNLHLLD_00367;dRep_bin209_NKIHFCEN_01541;dRep_bin203_CLFNNOCF_01928;dRep_bin179_HFEIPPPA_00359;dRep_bin167_BLMEBMNN_00233;dRep_bin160_EFKMPBOM_02132;dRep_bin154_JGOKHKLI_02775;dRep_bin133_NOBPDBPA_00727;dRep_bin114_FJHJKHGL_00838;dRep_bin095_HOBNOEEF_00822;dRep_bin075_EPEMMOCL_00939;dRep_bin074_EHAOMODJ_00291;dRep_bin065_DFABHCBI_01203;dRep_bin347_EKGCMFPD_00625;dRep_bin325_EIIGOGHN_00612;dRep_bin310_IMBAFDIF_01359;dRep_bin308_JBPDGLPP_00545;dRep_bin306_FGHMKMMP_01018;dRep_bin297_EDHEEICA_01903;dRep_bin201_OLKDIBOK_00335;dRep_bin186_HJAAFFNP_00409;dRep_bin173_BEBNCADL_00242;dRep_bin169_PNICKJKO_00103;dRep_bin145_KMJJJOEJ_01348;dRep_bin135_HHKACLPM_00566;dRep_bin101_BNDDLDCL_00036;dRep_bin069_EGGEOGDC_01480;dRep_bin062_BOFBFLDA_00487;dRep_bin047_IFFANOMN_01271;dRep_bin042_MMFCLHOO_00308;dRep_bin041_OPKGAAAG_00762;dRep_bin024_OLHDGABE_00679;dRep_bin016_JLGAHGOJ_01831;dRep_bin001_GHHJMDAL_00660;dRep_bin349_AMCJEEEG_00131;dRep_bin312_MJFEFHMP_00833;dRep_bin264_DNFFGNEG_00100;dRep_bin246_MMFBABHK_00297;dRep_bin219_HGPEELLF_00003;dRep_bin174_LJJOKEME_01103;dRep_bin129_GADIAMAA_01409;dRep_bin127_FIPNHBCH_00703;dRep_bin077_DNNBMPMC_01278;dRep_bin030_OGPDLGOC_01790;dRep_bin004_OCHNPJPO_01519;dRep_bin218_ACMPALGF_00968;dRep_bin185_OOOLKACK_00657;dRep_bin181_MKGPMPIA_00538;dRep_bin148_NAJFKJMD_01090;dRep_bin058_GJKCICJN_01056;dRep_bin291_EILOACJB_00579;dRep_bin244_LBFMHLBI_01277;dRep_bin223_PIMCDKJI_01006;dRep_bin204_INMOGLDN_01473;dRep_bin184_MBMMJHKO_00222;dRep_bin302_AHDEPDKG_00621;dRep_bin265_LFKFBJPC_00590;dRep_bin233_BAGKKAOB_00885;dRep_bin188_EJILNMPE_01053;dRep_bin081_JDPCKDNP_01324;dRep_bin318_IEDEJOFJ_00724;dRep_bin144_NPHACCKF_00221;dRep_bin096_GNHMEKPF_00086;dRep_bin344_CJJBDGAA_01489;dRep_bin295_EJGKDKNE_00851;dRep_bin048_PABMBHAL_01507;dRep_bin303_DDDNDJCF_00663;dRep_bin283_NLJJFFAC_01754;dRep_bin201_OLKDIBOK_00523;dRep_bin139_KGAJINND_01276;dRep_bin134_HIAPAODO_01158;dRep_bin094_LBLICAAO_00942;dRep_bin062_BOFBFLDA_00417;dRep_bin336_MPGOKPOL_02385;dRep_bin082_HBEFABJN_00650;dRep_bin125_FADLGGII_00540;dRep_bin334_NAPFFNLD_01195;dRep_bin217_MJCEAEPB_00530;dRep_bin195_DDMDFNOK_00971;dRep_bin060_HNFNENOI_00088;dRep_bin328_GIGKNKPJ_00426;dRep_bin281_OGHLKMAI_01076;dRep_bin197_NHLBHFEI_00626;dRep_bin103_IGJBLKMC_00726;dRep_bin116_CLFDBMOF_00455;dRep_bin332_KAOPCDPF_00448;dRep_bin345_GLPJDLOI_00589;dRep_bin314_KCHFPLIP_00788;dRep_bin128_JPBBHEMA_00693;dRep_bin073_AKBCEHHO_01462;dRep_bin045_GJACFFBC_00428;dRep_bin329_GDOHKPBL_01522;dRep_bin316_FNLHDNEO_00349;dRep_bin307_AOCKHIKF_00400;dRep_bin294_EHJINIDK_01408;dRep_bin289_KALDCNNP_01327;dRep_bin183_FPGIOKBG_00622;dRep_bin098_DDEBHDKK_01308;dRep_bin165_HMDFFMMM_01247;dRep_bin037_GEAOEKHA_01212;dRep_bin256_KEMNAOBC_00113;dRep_bin092_OOJCPDEA_01143;dRep_bin126_PPDNCIBN_00264;dRep_bin090_IPGNHCBJ_00911;dRep_bin215_ABBFGCAF_00280;dRep_bin005_CNDFPKJG_00629;dRep_bin270_GEJAHNCN_01426;dRep_bin116_CLFDBMOF_00686;dRep_bin069_EGGEOGDC_00857;dRep_bin007_LNLEAAAN_01604;dRep_bin057_BNCFHBBO_01159;dRep_bin038_EIGFILKG_00229;dRep_bin114_FJHJKHGL_00934;dRep_bin152_LJMCIADF_00045;dRep_bin322_OJELOJOF_00826;dRep_bin266_JFOCEDAE_00030;dRep_bin194_MEPDOGGJ_01235;dRep_bin079_GAOGCKND_01437;dRep_bin068_ENOLAELK_01387;dRep_bin025_CBEJJMLE_00917;dRep_bin240_LDBBGJKG_00802;dRep_bin347_EKGCMFPD_01498;dRep_bin167_BLMEBMNN_00596;dRep_bin160_EFKMPBOM_02114;dRep_bin260_HELEPKJL_02017;dRep_bin091_MAFACGAD_00797;dRep_bin099_DNDAGJEJ_01471;dRep_bin278_BFCONKOE_01179;dRep_bin168_HKDILBFE_00397;dRep_bin284_DEHKNOBF_00737;dRep_bin001_GHHJMDAL_01209;dRep_bin236_BNONDECB_00531;dRep_bin286_OEMIJKMC_01078;dRep_bin231_CFOLMJBA_00464;dRep_bin193_GDMDPNNM_00224;dRep_bin172_ALNHGLMD_01787;dRep_bin182_EMCFODCD_00065;dRep_bin044_IPFKHAEF_00183	dRep_bin021_AJDDCGJC_00051;dRep_bin252_NDAKLAGD_00826;dRep_bin317_ABPHNCOD_01131;dRep_bin216_JNJMCPHB_01076;dRep_bin272_LGBDGEIM_00618;dRep_bin097_CBBLIPAN_01579;dRep_bin053_OMGNPOOB_00833;dRep_bin337_FHKPNFDB_00090;dRep_bin052_PGOOKKFH_01594	>dRep_bin021_AJDDCGJC_00051 ATP synthase subunit alpha;>dRep_bin252_NDAKLAGD_00826 ATP synthase subunit alpha;>dRep_bin317_ABPHNCOD_01131 ATP synthase subunit alpha;>dRep_bin216_JNJMCPHB_01076 ATP synthase subunit alpha;>dRep_bin272_LGBDGEIM_00618 ATP synt	dRep_bin231_CFOLMJBA_00464	CDS	atpA	3.6.3.14	ATP synthase subunit alpha
CFOLMJBA_00507							22.120860000000004					1	1	0,0010855	dRep_bin231_CFOLMJBA_00507;dRep_bin126_PPDNCIBN_01013	dRep_bin231_CFOLMJBA_00507;dRep_bin126_PPDNCIBN_01013	>dRep_bin231_CFOLMJBA_00507 (R)-phenyllactyl-CoA dehydratase beta subunit;>dRep_bin126_PPDNCIBN_01013 (R)-phenyllactyl-CoA dehydratase beta subunit	dRep_bin231_CFOLMJBA_00507	CDS	fldC_1	4.2.1.-	(R)-phenyllactyl-CoA dehydratase beta subunit
CFOLMJBA_00511							26.29516					2	2	3,1733E-13	dRep_bin231_CFOLMJBA_00511	dRep_bin231_CFOLMJBA_00511	>dRep_bin231_CFOLMJBA_00511 (R)-phenyllactyl-CoA dehydratase beta subunit	dRep_bin231_CFOLMJBA_00511	CDS	fldC_2	4.2.1.-	(R)-phenyllactyl-CoA dehydratase beta subunit
CFOLMJBA_00566	27.73505	28.516270000000002	28.86847	27.089619999999996								8	7	6,9901E-67	dRep_bin013_IODPEDPB_00032;dRep_bin247_EKGBJCBM_01427;dRep_bin012_KEBBILMO_00044;dRep_bin231_CFOLMJBA_00566;dRep_bin286_OEMIJKMC_00338	dRep_bin013_IODPEDPB_00032	>dRep_bin013_IODPEDPB_00032 Serine hydroxymethyltransferase	dRep_bin231_CFOLMJBA_00566	CDS	glyA	2.1.2.1	Serine hydroxymethyltransferase
CFOLMJBA_00669	28.193850000000005	28.14768	27.303910000000002	27.76768	28.068509999999996	26.66166	28.189519999999998	26.82953				6	2	4,91E-21	dRep_bin201_OLKDIBOK_00096;dRep_bin226_NLNLHLLD_00643;dRep_bin157_JPNIKEKI_01428;dRep_bin220_PILICLLL_00420;dRep_bin209_NKIHFCEN_01063;dRep_bin139_KGAJINND_00432;dRep_bin344_CJJBDGAA_01155;dRep_bin260_HELEPKJL_00811;dRep_bin075_EPEMMOCL_01973;dRep_bin303_DDDNDJCF_01370;dRep_bin206_OIIBOIAK_00890;dRep_bin282_PKAAPBFP_00013;dRep_bin027_OFJCHLJJ_00660;dRep_bin248_CCDFPECI_00213;dRep_bin231_CFOLMJBA_00669;dRep_bin134_HIAPAODO_01486	dRep_bin201_OLKDIBOK_00096;dRep_bin226_NLNLHLLD_00643;dRep_bin157_JPNIKEKI_01428;dRep_bin220_PILICLLL_00420;dRep_bin209_NKIHFCEN_01063;dRep_bin139_KGAJINND_00432;dRep_bin344_CJJBDGAA_01155;dRep_bin260_HELEPKJL_00811;dRep_bin075_EPEMMOCL_01973;dRep_bin303_DDDNDJCF_01370	>dRep_bin201_OLKDIBOK_00096 Peptidyl-prolyl cis-trans isomerase B;>dRep_bin226_NLNLHLLD_00643 putative peptidyl-prolyl cis-trans isomerase;>dRep_bin157_JPNIKEKI_01428 Putative peptidyl-prolyl cis-trans isomerase;>dRep_bin220_PILICLLL_00420 Peptidyl-prolyl	dRep_bin231_CFOLMJBA_00669	CDS	ppiB	5.2.1.8	putative peptidyl-prolyl cis-trans isomerase
CFOLMJBA_00683								25.1715				18	0	3,4967E-264	dRep_bin231_CFOLMJBA_00683	dRep_bin231_CFOLMJBA_00683	>dRep_bin231_CFOLMJBA_00683 Pyruvate, phosphate dikinase	dRep_bin231_CFOLMJBA_00683	CDS	ppdK	2.7.9.1	Pyruvate, phosphate dikinase
CFOLMJBA_00707					24.60546		26.3415	24.35501				12	5	3,1558E-64	dRep_bin231_CFOLMJBA_00707	dRep_bin231_CFOLMJBA_00707	>dRep_bin231_CFOLMJBA_00707 NADP-specific glutamate dehydrogenase	dRep_bin231_CFOLMJBA_00707	CDS	gdh	1.4.1.4	NADP-specific glutamate dehydrogenase
CFOLMJBA_00732					23.00606	23.896980000000003						2	1	8,6813E-10	dRep_bin324_IPNHOHFK_01144;dRep_bin297_EDHEEICA_00687;dRep_bin292_JIBLDOOH_02195;dRep_bin261_FJICAFFM_00057;dRep_bin226_NLNLHLLD_01357;dRep_bin209_NKIHFCEN_00791;dRep_bin203_CLFNNOCF_00406;dRep_bin179_HFEIPPPA_00190;dRep_bin157_JPNIKEKI_00583;dRep_bin133_NOBPDBPA_01168;dRep_bin041_OPKGAAAG_01275;dRep_bin168_HKDILBFE_01397;dRep_bin130_OIFFANPF_00962;dRep_bin083_OCBADPJJ_00812;dRep_bin169_PNICKJKO_00385;dRep_bin319_PBDBJGCJ_01796;dRep_bin109_MJABCPAK_00038;dRep_bin106_BKDHGPBE_00849;dRep_bin216_JNJMCPHB_01613;dRep_bin299_AKNBKJGM_00580;dRep_bin100_CODMOHGB_00911;dRep_bin317_ABPHNCOD_01390;dRep_bin272_LGBDGEIM_00788;dRep_bin249_OFIIEIDJ_00467;dRep_bin066_AJACLPEE_01038;dRep_bin335_JIOGNAPG_00681;dRep_bin234_ECABPBME_00227;dRep_bin088_DNGPPFDK_01237;dRep_bin303_DDDNDJCF_00797;dRep_bin300_MJPPENNL_00671;dRep_bin279_IAEFEPEN_01368;dRep_bin278_BFCONKOE_00336;dRep_bin269_PNILGKPH_01089;dRep_bin260_HELEPKJL_01496;dRep_bin089_PAJFOJBN_00528;dRep_bin027_OFJCHLJJ_00828;dRep_bin019_MOJEPLJF_01606;dRep_bin116_CLFDBMOF_00536;dRep_bin057_BNCFHBBO_00059;dRep_bin134_HIAPAODO_00123;dRep_bin322_OJELOJOF_01583;dRep_bin270_GEJAHNCN_00957;dRep_bin348_LCLFDNEE_00829;dRep_bin295_EJGKDKNE_00315;dRep_bin277_MIPNGEJE_01644;dRep_bin166_DFIAJFEC_00192;dRep_bin264_DNFFGNEG_00340;dRep_bin153_JGABJFBF_01236;dRep_bin114_FJHJKHGL_00133;dRep_bin111_FPJIHFKE_00195;dRep_bin252_NDAKLAGD_00473;dRep_bin247_EKGBJCBM_00710;dRep_bin035_JBNPBOKG_01025;dRep_bin026_HNPIIINL_00916;dRep_bin085_MBHLGCDB_01217;dRep_bin068_ENOLAELK_00657;dRep_bin049_MNFBDPNO_00064;dRep_bin038_EIGFILKG_00881;dRep_bin152_LJMCIADF_01515;dRep_bin079_GAOGCKND_00762;dRep_bin231_CFOLMJBA_00732;dRep_bin126_PPDNCIBN_00705;dRep_bin333_EFOKIBLA_00857;dRep_bin123_PJKBFKBB_00290;dRep_bin185_OOOLKACK_01362;dRep_bin305_FCIEFIHE_01147;dRep_bin070_EMBHKIOF_00605;dRep_bin006_HPJGJCAG_01539;dRep_bin101_BNDDLDCL_00049;dRep_bin331_HPKAPHAF_00752;dRep_bin301_NJFJIJGA_00013;dRep_bin037_GEAOEKHA_01146;dRep_bin087_FCLGAPPI_00654;dRep_bin159_ADJJGPBG_01916;dRep_bin304_JDNJGFKH_01533;dRep_bin120_EKLBOPNC_00943;dRep_bin162_JBGCCDIN_00762;dRep_bin072_JOBJPCGA_01185;dRep_bin320_LDBKCCKL_00985;dRep_bin245_MBCFLKOF_00867;dRep_bin010_MFFFGEGD_00116;dRep_bin205_LKIOOBKC_01048;dRep_bin043_KLAFNACO_01234;dRep_bin011_KOGMKLNO_01366;dRep_bin189_AHHEHGDL_01620;dRep_bin222_GGCAJABB_00316;dRep_bin208_DHPGEIBC_01479;dRep_bin130_OIFFANPF_00887	dRep_bin324_IPNHOHFK_01144;dRep_bin297_EDHEEICA_00687;dRep_bin292_JIBLDOOH_02195;dRep_bin261_FJICAFFM_00057;dRep_bin226_NLNLHLLD_01357;dRep_bin209_NKIHFCEN_00791;dRep_bin203_CLFNNOCF_00406;dRep_bin179_HFEIPPPA_00190;dRep_bin157_JPNIKEKI_00583;dRep_bin133_NOBPDBPA_01168;dRep_bin041_OPKGAAAG_01275;dRep_bin168_HKDILBFE_01397;dRep_bin130_OIFFANPF_00962;dRep_bin083_OCBADPJJ_00812;dRep_bin169_PNICKJKO_00385;dRep_bin319_PBDBJGCJ_01796;dRep_bin109_MJABCPAK_00038;dRep_bin106_BKDHGPBE_00849;dRep_bin216_JNJMCPHB_01613;dRep_bin299_AKNBKJGM_00580;dRep_bin100_CODMOHGB_00911;dRep_bin317_ABPHNCOD_01390;dRep_bin272_LGBDGEIM_00788;dRep_bin249_OFIIEIDJ_00467;dRep_bin066_AJACLPEE_01038;dRep_bin335_JIOGNAPG_00681;dRep_bin234_ECABPBME_00227;dRep_bin088_DNGPPFDK_01237;dRep_bin303_DDDNDJCF_00797;dRep_bin300_MJPPENNL_00671;dRep_bin279_IAEFEPEN_01368;dRep_bin278_BFCONKOE_00336;dRep_bin269_PNILGKPH_01089;dRep_bin260_HELEPKJL_01496;dRep_bin089_PAJFOJBN_00528;dRep_bin027_OFJCHLJJ_00828;dRep_bin019_MOJEPLJF_01606;dRep_bin116_CLFDBMOF_00536;dRep_bin057_BNCFHBBO_00059;dRep_bin134_HIAPAODO_00123;dRep_bin322_OJELOJOF_01583;dRep_bin270_GEJAHNCN_00957;dRep_bin348_LCLFDNEE_00829;dRep_bin295_EJGKDKNE_00315;dRep_bin277_MIPNGEJE_01644;dRep_bin166_DFIAJFEC_00192;dRep_bin264_DNFFGNEG_00340;dRep_bin153_JGABJFBF_01236;dRep_bin114_FJHJKHGL_00133;dRep_bin111_FPJIHFKE_00195;dRep_bin252_NDAKLAGD_00473;dRep_bin247_EKGBJCBM_00710;dRep_bin035_JBNPBOKG_01025;dRep_bin026_HNPIIINL_00916;dRep_bin085_MBHLGCDB_01217;dRep_bin068_ENOLAELK_00657;dRep_bin049_MNFBDPNO_00064;dRep_bin038_EIGFILKG_00881;dRep_bin152_LJMCIADF_01515;dRep_bin079_GAOGCKND_00762;dRep_bin231_CFOLMJBA_00732;dRep_bin126_PPDNCIBN_00705;dRep_bin333_EFOKIBLA_00857;dRep_bin123_PJKBFKBB_00290;dRep_bin185_OOOLKACK_01362;dRep_bin305_FCIEFIHE_01147;dRep_bin070_EMBHKIOF_00605;dRep_bin006_HPJGJCAG_01539;dRep_bin101_BNDDLDCL_00049;dRep_bin331_HPKAPHAF_00752;dRep_bin301_NJFJIJGA_00013;dRep_bin037_GEAOEKHA_01146;dRep_bin087_FCLGAPPI_00654;dRep_bin159_ADJJGPBG_01916;dRep_bin304_JDNJGFKH_01533;dRep_bin120_EKLBOPNC_00943;dRep_bin162_JBGCCDIN_00762;dRep_bin072_JOBJPCGA_01185;dRep_bin320_LDBKCCKL_00985;dRep_bin245_MBCFLKOF_00867;dRep_bin010_MFFFGEGD_00116;dRep_bin205_LKIOOBKC_01048;dRep_bin043_KLAFNACO_01234;dRep_bin011_KOGMKLNO_01366;dRep_bin189_AHHEHGDL_01620;dRep_bin222_GGCAJABB_00316;dRep_bin208_DHPGEIBC_01479;dRep_bin130_OIFFANPF_00887	>dRep_bin324_IPNHOHFK_01144 Glutaconyl-CoA decarboxylase subunit beta;>dRep_bin297_EDHEEICA_00687 Glutaconyl-CoA decarboxylase subunit beta;>dRep_bin292_JIBLDOOH_02195 Glutaconyl-CoA decarboxylase subunit beta;>dRep_bin261_FJICAFFM_00057 Glutaconyl-CoA dec	dRep_bin231_CFOLMJBA_00732	CDS	gcdB	4.1.1.70	Glutaconyl-CoA decarboxylase subunit beta
CFOLMJBA_00763							26.42805					3	3	5,1326E-11	dRep_bin231_CFOLMJBA_00763;dRep_bin126_PPDNCIBN_01488;dRep_bin029_LFMGBBEC_00173;dRep_bin148_NAJFKJMD_00472;dRep_bin114_FJHJKHGL_00993;dRep_bin273_FGAEBHNP_00344;dRep_bin240_LDBBGJKG_01100;dRep_bin125_FADLGGII_00592;dRep_bin238_OLNFACLE_01812	dRep_bin231_CFOLMJBA_00763	>dRep_bin231_CFOLMJBA_00763 Membrane lipoprotein TmpC	dRep_bin231_CFOLMJBA_00763	CDS	tmpC		Membrane lipoprotein TmpC
CFOLMJBA_00777	24.345639999999996			25.525519999999997								4	2	3,1443E-17	dRep_bin108_BPNCDINP_00657;dRep_bin286_OEMIJKMC_00335;dRep_bin231_CFOLMJBA_00777;dRep_bin193_GDMDPNNM_00585;dRep_bin126_PPDNCIBN_00325	dRep_bin108_BPNCDINP_00657;dRep_bin286_OEMIJKMC_00335;dRep_bin231_CFOLMJBA_00777;dRep_bin193_GDMDPNNM_00585;dRep_bin126_PPDNCIBN_00325	>dRep_bin108_BPNCDINP_00657 Phosphate acetyltransferase;>dRep_bin286_OEMIJKMC_00335 Phosphate acetyltransferase;>dRep_bin231_CFOLMJBA_00777 Phosphate acetyltransferase;>dRep_bin193_GDMDPNNM_00585 Phosphate acetyltransferase;>dRep_bin126_PPDNCIBN_00325 Phos	dRep_bin231_CFOLMJBA_00777	CDS	pta	2.3.1.8	Phosphate acetyltransferase
CFOLMJBA_00795												1	1	0,00013355	dRep_bin286_OEMIJKMC_01473;dRep_bin231_CFOLMJBA_00795;dRep_bin126_PPDNCIBN_00366	dRep_bin286_OEMIJKMC_01473;dRep_bin231_CFOLMJBA_00795;dRep_bin126_PPDNCIBN_00366	>dRep_bin286_OEMIJKMC_01473 Cysteine desulfurase IscS;>dRep_bin231_CFOLMJBA_00795 Cysteine desulfurase IscS;>dRep_bin126_PPDNCIBN_00366 Cysteine desulfurase IscS	dRep_bin231_CFOLMJBA_00795	CDS	iscS_1	2.8.1.7	Cysteine desulfurase IscS
CFOLMJBA_00875					23.20216							9	2	3,5724E-104	dRep_bin231_CFOLMJBA_00875	dRep_bin231_CFOLMJBA_00875	>dRep_bin231_CFOLMJBA_00875 Elongation factor Tu	dRep_bin231_CFOLMJBA_00875	CDS	tuf		Elongation factor Tu
CFOLMJBA_00876	26.64952	25.240229999999997	25.337290000000003	25.657150000000005	27.67047	25.973709999999997	25.722779999999997	26.342				7	1	3,8422E-19	dRep_bin270_GEJAHNCN_01747;dRep_bin231_CFOLMJBA_00876;dRep_bin046_GKEJLOEK_00337	dRep_bin270_GEJAHNCN_01747	>dRep_bin270_GEJAHNCN_01747 Elongation factor G	dRep_bin231_CFOLMJBA_00876	CDS	fus		Elongation factor G
CFOLMJBA_00878			28.77903	29.416960000000003	27.236439999999998	27.457870000000003	26.988259999999997	26.782069999999997				3	1	5,5654E-46	dRep_bin005_CNDFPKJG_00512;dRep_bin135_HHKACLPM_00996;dRep_bin007_LNLEAAAN_00555;dRep_bin303_DDDNDJCF_00538;dRep_bin328_GIGKNKPJ_00724;dRep_bin308_JBPDGLPP_01472;dRep_bin292_JIBLDOOH_00033;dRep_bin278_BFCONKOE_00439;dRep_bin269_PNILGKPH_00427;dRep_bin179_HFEIPPPA_01854;dRep_bin133_NOBPDBPA_03738;dRep_bin127_FIPNHBCH_00184;dRep_bin065_DFABHCBI_01543;dRep_bin039_IJNOFOJK_00835;dRep_bin031_BNHMFOII_01289;dRep_bin024_OLHDGABE_00632;dRep_bin001_GHHJMDAL_01042;dRep_bin027_OFJCHLJJ_01571;dRep_bin134_HIAPAODO_00757;dRep_bin339_DBNBAHDK_00274;dRep_bin268_LKMHIMLG_00767;dRep_bin215_ABBFGCAF_00889;dRep_bin142_NDNPJBEM_01236;dRep_bin347_EKGCMFPD_01033;dRep_bin325_EIIGOGHN_00650;dRep_bin310_IMBAFDIF_01183;dRep_bin293_MEPKGOAN_00730;dRep_bin282_PKAAPBFP_00286;dRep_bin100_CODMOHGB_00949;dRep_bin091_MAFACGAD_00437;dRep_bin079_GAOGCKND_00310;dRep_bin323_FBBLPLCG_01106;dRep_bin322_OJELOJOF_01654;dRep_bin273_FGAEBHNP_01366;dRep_bin266_JFOCEDAE_01192;dRep_bin231_CFOLMJBA_00878;dRep_bin194_MEPDOGGJ_01303;dRep_bin182_EMCFODCD_01258;dRep_bin169_PNICKJKO_01164;dRep_bin158_OGFICEAP_00873;dRep_bin115_IFKGOGCL_01307;dRep_bin108_BPNCDINP_01062;dRep_bin087_FCLGAPPI_00927;dRep_bin056_EMNHHOJA_01448;dRep_bin047_IFFANOMN_00919;dRep_bin044_IPFKHAEF_00004;dRep_bin026_HNPIIINL_00567;dRep_bin025_CBEJJMLE_00162;dRep_bin336_MPGOKPOL_00656;dRep_bin277_MIPNGEJE_00938;dRep_bin257_JHFDCHCB_01267;dRep_bin172_ALNHGLMD_01450;dRep_bin166_DFIAJFEC_00114;dRep_bin147_EJLBNEBE_01610;dRep_bin105_AAEIHAFF_01928	dRep_bin005_CNDFPKJG_00512;dRep_bin135_HHKACLPM_00996;dRep_bin007_LNLEAAAN_00555;dRep_bin303_DDDNDJCF_00538;dRep_bin328_GIGKNKPJ_00724;dRep_bin308_JBPDGLPP_01472;dRep_bin292_JIBLDOOH_00033;dRep_bin278_BFCONKOE_00439;dRep_bin269_PNILGKPH_00427;dRep_bin179_HFEIPPPA_01854;dRep_bin133_NOBPDBPA_03738;dRep_bin127_FIPNHBCH_00184;dRep_bin065_DFABHCBI_01543;dRep_bin039_IJNOFOJK_00835;dRep_bin031_BNHMFOII_01289;dRep_bin024_OLHDGABE_00632;dRep_bin001_GHHJMDAL_01042;dRep_bin027_OFJCHLJJ_01571	>dRep_bin005_CNDFPKJG_00512 30S ribosomal protein S12;>dRep_bin135_HHKACLPM_00996 30S ribosomal protein S12;>dRep_bin007_LNLEAAAN_00555 30S ribosomal protein S12;>dRep_bin303_DDDNDJCF_00538 30S ribosomal protein S12;>dRep_bin328_GIGKNKPJ_00724 30S ribosoma	dRep_bin231_CFOLMJBA_00878	CDS	rpsL		30S ribosomal protein S12
CFOLMJBA_00879	24.55637	23.9105	25.01848	24.325599999999998								12	0	3,5589E-49	dRep_bin344_CJJBDGAA_00304;dRep_bin231_CFOLMJBA_00879;dRep_bin126_PPDNCIBN_00385;dRep_bin172_ALNHGLMD_01464	dRep_bin344_CJJBDGAA_00304;dRep_bin231_CFOLMJBA_00879;dRep_bin126_PPDNCIBN_00385	>dRep_bin344_CJJBDGAA_00304 DNA-directed RNA polymerase subunit beta;>dRep_bin231_CFOLMJBA_00879 DNA-directed RNA polymerase subunit beta;>dRep_bin126_PPDNCIBN_00385 DNA-directed RNA polymerase subunit beta	dRep_bin231_CFOLMJBA_00879	CDS	rpoC	2.7.7.6	DNA-directed RNA polymerase subunit beta'
CFOLMJBA_00953					25.06357							5	1	3,6059E-73	dRep_bin203_CLFNNOCF_01682;dRep_bin347_EKGCMFPD_01504;dRep_bin284_DEHKNOBF_01057;dRep_bin260_HELEPKJL_00015;dRep_bin310_IMBAFDIF_00287;dRep_bin134_HIAPAODO_00846;dRep_bin062_BOFBFLDA_01435;dRep_bin300_MJPPENNL_01196;dRep_bin201_OLKDIBOK_02047;dRep_bin105_AAEIHAFF_01478;dRep_bin100_CODMOHGB_01221;dRep_bin088_DNGPPFDK_00866;dRep_bin277_MIPNGEJE_00690;dRep_bin166_DFIAJFEC_00146;dRep_bin161_JMKPMHCO_01114;dRep_bin059_OOBKFNPP_00125;dRep_bin046_GKEJLOEK_01062;dRep_bin091_MAFACGAD_00248;dRep_bin017_FGFLFOPJ_00727;dRep_bin354_MMOALAFN_00741;dRep_bin324_IPNHOHFK_00313;dRep_bin323_FBBLPLCG_01264;dRep_bin309_BIOHLCGG_01306;dRep_bin273_FGAEBHNP_00470;dRep_bin261_FJICAFFM_01100;dRep_bin148_NAJFKJMD_00795;dRep_bin115_IFKGOGCL_00123;dRep_bin069_EGGEOGDC_01056;dRep_bin344_CJJBDGAA_01161;dRep_bin249_OFIIEIDJ_00715;dRep_bin220_PILICLLL_00990;dRep_bin134_HIAPAODO_01436;dRep_bin065_DFABHCBI_00344;dRep_bin032_PPNIGLME_00203;dRep_bin270_GEJAHNCN_01587;dRep_bin065_DFABHCBI_00249;dRep_bin278_BFCONKOE_01054;dRep_bin016_JLGAHGOJ_00641;dRep_bin328_GIGKNKPJ_01462;dRep_bin308_JBPDGLPP_01172;dRep_bin303_DDDNDJCF_01320;dRep_bin254_GJDPFAEA_00870;dRep_bin234_ECABPBME_00536;dRep_bin186_HJAAFFNP_01789;dRep_bin167_BLMEBMNN_01296;dRep_bin107_EFNBPDOP_00511;dRep_bin077_DNNBMPMC_01864;dRep_bin066_AJACLPEE_01033;dRep_bin047_IFFANOMN_00697;dRep_bin135_HHKACLPM_00107;dRep_bin303_DDDNDJCF_00377;dRep_bin306_FGHMKMMP_01595;dRep_bin211_LGJEFJIK_00450;dRep_bin007_LNLEAAAN_01312;dRep_bin344_CJJBDGAA_01611;dRep_bin031_BNHMFOII_01628;dRep_bin353_PPDHLNJB_02118;dRep_bin254_GJDPFAEA_00869;dRep_bin094_LBLICAAO_00342;dRep_bin047_IFFANOMN_01357;dRep_bin120_EKLBOPNC_01832;dRep_bin168_HKDILBFE_01442;dRep_bin099_DNDAGJEJ_00392;dRep_bin215_ABBFGCAF_00798;dRep_bin029_LFMGBBEC_01628;dRep_bin240_LDBBGJKG_01094;dRep_bin279_IAEFEPEN_01491;dRep_bin130_OIFFANPF_01666;dRep_bin319_PBDBJGCJ_00268;dRep_bin017_FGFLFOPJ_00820;dRep_bin082_HBEFABJN_01328;dRep_bin245_MBCFLKOF_01762;dRep_bin027_OFJCHLJJ_00790;dRep_bin108_BPNCDINP_00911;dRep_bin308_JBPDGLPP_01750;dRep_bin193_GDMDPNNM_00480;dRep_bin344_CJJBDGAA_02078;dRep_bin049_MNFBDPNO_01413;dRep_bin096_GNHMEKPF_00097;dRep_bin104_EGLEJOLM_01934;dRep_bin339_DBNBAHDK_02499;dRep_bin321_EJNAAGJG_00755;dRep_bin273_FGAEBHNP_00835;dRep_bin250_NMCAMJIO_00087;dRep_bin247_EKGBJCBM_00317;dRep_bin148_NAJFKJMD_01189;dRep_bin337_FHKPNFDB_01633;dRep_bin320_LDBKCCKL_01786;dRep_bin304_JDNJGFKH_01982;dRep_bin286_OEMIJKMC_01141;dRep_bin231_CFOLMJBA_00953;dRep_bin162_JBGCCDIN_01636;dRep_bin126_PPDNCIBN_01067;dRep_bin109_MJABCPAK_00317;dRep_bin057_BNCFHBBO_00597;dRep_bin288_KOIAAABN_00012;dRep_bin263_OLEFOGIJ_00295;dRep_bin304_JDNJGFKH_00179;dRep_bin208_DHPGEIBC_00457;dRep_bin189_AHHEHGDL_01282;dRep_bin177_HLHGKLFL_00741;dRep_bin140_ACFAKGIL_00319;dRep_bin105_AAEIHAFF_01411;dRep_bin082_HBEFABJN_00692;dRep_bin010_MFFFGEGD_00717;dRep_bin005_CNDFPKJG_01705;dRep_bin287_DONBGKDH_01836;dRep_bin094_LBLICAAO_00388;dRep_bin058_GJKCICJN_00227;dRep_bin293_MEPKGOAN_00829;dRep_bin218_ACMPALGF_00229;dRep_bin205_LKIOOBKC_00417;dRep_bin172_ALNHGLMD_01439;dRep_bin159_ADJJGPBG_01342;dRep_bin143_PFLDJMPF_01248;dRep_bin101_BNDDLDCL_01982;dRep_bin091_MAFACGAD_01619;dRep_bin072_JOBJPCGA_00130;dRep_bin011_KOGMKLNO_01272;dRep_bin164_KHMELCCL_01402;dRep_bin305_FCIEFIHE_00371;dRep_bin222_GGCAJABB_00745;dRep_bin006_HPJGJCAG_01874;dRep_bin286_OEMIJKMC_01354;dRep_bin126_PPDNCIBN_00282;dRep_bin185_OOOLKACK_00819;dRep_bin043_KLAFNACO_00900;dRep_bin231_CFOLMJBA_01529;dRep_bin237_KJDLIPND_00869;dRep_bin147_EJLBNEBE_00138;dRep_bin186_HJAAFFNP_01790;dRep_bin081_JDPCKDNP_00172;dRep_bin069_EGGEOGDC_00890;dRep_bin282_PKAAPBFP_00016;dRep_bin206_OIIBOIAK_00984;dRep_bin161_JMKPMHCO_00782;dRep_bin278_BFCONKOE_00310;dRep_bin260_HELEPKJL_01944;dRep_bin336_MPGOKPOL_00897	dRep_bin203_CLFNNOCF_01682;dRep_bin347_EKGCMFPD_01504;dRep_bin284_DEHKNOBF_01057;dRep_bin260_HELEPKJL_00015;dRep_bin310_IMBAFDIF_00287;dRep_bin134_HIAPAODO_00846;dRep_bin062_BOFBFLDA_01435	>dRep_bin203_CLFNNOCF_01682 Glutamine synthetase;>dRep_bin347_EKGCMFPD_01504 Glutamine synthetase;>dRep_bin284_DEHKNOBF_01057 Glutamine synthetase;>dRep_bin260_HELEPKJL_00015 Glutamine synthetase;>dRep_bin310_IMBAFDIF_00287 Glutamine synthetase;>dRep_bin13	dRep_bin231_CFOLMJBA_00953	CDS	glnA_1	6.3.1.2	Glutamine synthetase
CFOLMJBA_00960							25.381890000000002					2	1	4,3166E-05	dRep_bin334_NAPFFNLD_00035;dRep_bin274_DBJHKLDG_01032;dRep_bin008_MNDMJLEI_00090;dRep_bin101_BNDDLDCL_01207;dRep_bin213_HHHELMFN_00597;dRep_bin126_PPDNCIBN_01035;dRep_bin231_CFOLMJBA_00960;dRep_bin286_OEMIJKMC_00392;dRep_bin172_ALNHGLMD_01600;dRep_bin108_BPNCDINP_00887;dRep_bin217_MJCEAEPB_00017;dRep_bin060_HNFNENOI_00909;dRep_bin059_OOBKFNPP_00477;dRep_bin111_FPJIHFKE_00906;dRep_bin267_LJCFMAFA_01025;dRep_bin161_JMKPMHCO_00371;dRep_bin184_MBMMJHKO_00057;dRep_bin355_KJEFNADK_01062;dRep_bin351_CKFFBPHM_00990;dRep_bin195_DDMDFNOK_01354;dRep_bin118_FGIOKLBC_00994;dRep_bin210_AGEDAEIA_00037;dRep_bin028_GKEJLBAM_01078;dRep_bin022_BOEAFNDE_00877;dRep_bin241_LMMMGDNI_00858	dRep_bin334_NAPFFNLD_00035;dRep_bin274_DBJHKLDG_01032;dRep_bin008_MNDMJLEI_00090;dRep_bin101_BNDDLDCL_01207;dRep_bin213_HHHELMFN_00597;dRep_bin126_PPDNCIBN_01035;dRep_bin231_CFOLMJBA_00960;dRep_bin286_OEMIJKMC_00392;dRep_bin172_ALNHGLMD_01600;dRep_bin108_BPNCDINP_00887;dRep_bin217_MJCEAEPB_00017;dRep_bin060_HNFNENOI_00909;dRep_bin059_OOBKFNPP_00477;dRep_bin111_FPJIHFKE_00906;dRep_bin267_LJCFMAFA_01025;dRep_bin161_JMKPMHCO_00371;dRep_bin184_MBMMJHKO_00057;dRep_bin355_KJEFNADK_01062;dRep_bin351_CKFFBPHM_00990;dRep_bin195_DDMDFNOK_01354;dRep_bin118_FGIOKLBC_00994;dRep_bin210_AGEDAEIA_00037;dRep_bin028_GKEJLBAM_01078;dRep_bin022_BOEAFNDE_00877;dRep_bin241_LMMMGDNI_00858	>dRep_bin334_NAPFFNLD_00035 Translation initiation factor IF-2;>dRep_bin274_DBJHKLDG_01032 Translation initiation factor IF-2;>dRep_bin008_MNDMJLEI_00090 Translation initiation factor IF-2;>dRep_bin101_BNDDLDCL_01207 Translation initiation factor IF-2;>dRe	dRep_bin231_CFOLMJBA_00960	CDS	infB		Translation initiation factor IF-2
CFOLMJBA_00984								24.445939999999997				3	1	1,2536E-20	dRep_bin193_GDMDPNNM_01335;dRep_bin194_MEPDOGGJ_00909;dRep_bin152_LJMCIADF_01136;dRep_bin124_HIHDFGCL_01283;dRep_bin101_BNDDLDCL_01786;dRep_bin079_GAOGCKND_00249;dRep_bin068_ENOLAELK_01480;dRep_bin038_EIGFILKG_00281;dRep_bin025_CBEJJMLE_00745;dRep_bin286_OEMIJKMC_00443;dRep_bin231_CFOLMJBA_00984;dRep_bin172_ALNHGLMD_00252;dRep_bin142_NDNPJBEM_00885;dRep_bin126_PPDNCIBN_01642;dRep_bin090_IPGNHCBJ_00359;dRep_bin321_EJNAAGJG_00108;dRep_bin273_FGAEBHNP_01040;dRep_bin323_FBBLPLCG_00442;dRep_bin309_BIOHLCGG_00720;dRep_bin268_LKMHIMLG_00991;dRep_bin166_DFIAJFEC_01338;dRep_bin143_PFLDJMPF_01113;dRep_bin108_BPNCDINP_00985;dRep_bin056_EMNHHOJA_01394;dRep_bin026_HNPIIINL_00248;dRep_bin006_HPJGJCAG_00021;dRep_bin340_OFLHNGJM_01045;dRep_bin270_GEJAHNCN_00054;dRep_bin182_EMCFODCD_00202;dRep_bin044_IPFKHAEF_00804;dRep_bin354_MMOALAFN_00312;dRep_bin253_CPMOAOBJ_00594;dRep_bin074_EHAOMODJ_00802;dRep_bin049_MNFBDPNO_00646;dRep_bin257_JHFDCHCB_00163;dRep_bin336_MPGOKPOL_00030;dRep_bin169_PNICKJKO_01093;dRep_bin147_EJLBNEBE_00336;dRep_bin123_PJKBFKBB_00356;dRep_bin032_PPNIGLME_01273;dRep_bin293_MEPKGOAN_00625	dRep_bin193_GDMDPNNM_01335;dRep_bin194_MEPDOGGJ_00909;dRep_bin152_LJMCIADF_01136;dRep_bin124_HIHDFGCL_01283;dRep_bin101_BNDDLDCL_01786;dRep_bin079_GAOGCKND_00249;dRep_bin068_ENOLAELK_01480;dRep_bin038_EIGFILKG_00281;dRep_bin025_CBEJJMLE_00745;dRep_bin286_OEMIJKMC_00443;dRep_bin231_CFOLMJBA_00984;dRep_bin172_ALNHGLMD_00252;dRep_bin142_NDNPJBEM_00885;dRep_bin126_PPDNCIBN_01642;dRep_bin090_IPGNHCBJ_00359	>dRep_bin193_GDMDPNNM_01335 HPr-like protein Crh;>dRep_bin194_MEPDOGGJ_00909 HPr-like protein Crh;>dRep_bin152_LJMCIADF_01136 HPr-like protein Crh;>dRep_bin124_HIHDFGCL_01283 HPr-like protein Crh;>dRep_bin101_BNDDLDCL_01786 HPr-like protein Crh;>dRep_bin07	dRep_bin231_CFOLMJBA_00984	CDS	crh		HPr-like protein Crh
CFOLMJBA_01022			19.766519999999996									1	1	0,001202	dRep_bin005_CNDFPKJG_00879;dRep_bin058_GJKCICJN_00903;dRep_bin348_LCLFDNEE_00948;dRep_bin243_JDMELKLC_00966;dRep_bin286_OEMIJKMC_00274;dRep_bin231_CFOLMJBA_01022;dRep_bin126_PPDNCIBN_00779;dRep_bin166_DFIAJFEC_00308	dRep_bin005_CNDFPKJG_00879;dRep_bin058_GJKCICJN_00903;dRep_bin348_LCLFDNEE_00948;dRep_bin243_JDMELKLC_00966;dRep_bin286_OEMIJKMC_00274;dRep_bin231_CFOLMJBA_01022;dRep_bin126_PPDNCIBN_00779;dRep_bin166_DFIAJFEC_00308	>dRep_bin005_CNDFPKJG_00879 Glycine--tRNA ligase;>dRep_bin058_GJKCICJN_00903 Glycine--tRNA ligase;>dRep_bin348_LCLFDNEE_00948 Glycine--tRNA ligase;>dRep_bin243_JDMELKLC_00966 Glycine--tRNA ligase;>dRep_bin286_OEMIJKMC_00274 Glycine--tRNA ligase;>dRep_bin23	dRep_bin231_CFOLMJBA_01022	CDS	glyQS	6.1.1.14	Glycine--tRNA ligase
CFOLMJBA_01036		23.23771	23.20127									2	1	0,00017256	dRep_bin035_JBNPBOKG_01195;dRep_bin126_PPDNCIBN_01018;dRep_bin305_FCIEFIHE_00446;dRep_bin231_CFOLMJBA_01036;dRep_bin114_FJHJKHGL_01424;dRep_bin105_AAEIHAFF_01699;dRep_bin268_LKMHIMLG_01117;dRep_bin031_BNHMFOII_01346;dRep_bin321_EJNAAGJG_01026;dRep_bin324_IPNHOHFK_01645;dRep_bin236_BNONDECB_01150;dRep_bin055_IBMMJAEE_00573;dRep_bin340_OFLHNGJM_00320;dRep_bin076_GLAOFBEC_01385;dRep_bin343_JCMCKBGF_00786	dRep_bin035_JBNPBOKG_01195;dRep_bin126_PPDNCIBN_01018;dRep_bin305_FCIEFIHE_00446;dRep_bin231_CFOLMJBA_01036;dRep_bin114_FJHJKHGL_01424;dRep_bin105_AAEIHAFF_01699;dRep_bin268_LKMHIMLG_01117;dRep_bin031_BNHMFOII_01346;dRep_bin321_EJNAAGJG_01026;dRep_bin324_IPNHOHFK_01645;dRep_bin236_BNONDECB_01150;dRep_bin055_IBMMJAEE_00573;dRep_bin340_OFLHNGJM_00320;dRep_bin076_GLAOFBEC_01385;dRep_bin343_JCMCKBGF_00786	>dRep_bin035_JBNPBOKG_01195 Pseudouridine-5-phosphate glycosidase;>dRep_bin126_PPDNCIBN_01018 Pseudouridine-5-phosphate glycosidase;>dRep_bin305_FCIEFIHE_00446 Pseudouridine-5-phosphate glycosidase;>dRep_bin231_CFOLMJBA_01036 Pseudouridine-5-phosphate	dRep_bin231_CFOLMJBA_01036	CDS	psuG	4.2.1.70	Pseudouridine-5'-phosphate glycosidase
CFOLMJBA_01056							24.95757	24.02149				6	1	7,2707E-47	dRep_bin248_CCDFPECI_01517;dRep_bin095_HOBNOEEF_01190;dRep_bin269_PNILGKPH_01796;dRep_bin240_LDBBGJKG_00146;dRep_bin225_FLBKEJIP_00866;dRep_bin100_CODMOHGB_00292;dRep_bin044_IPFKHAEF_00946;dRep_bin325_EIIGOGHN_00062;dRep_bin091_MAFACGAD_01165;dRep_bin016_JLGAHGOJ_00453;dRep_bin211_LGJEFJIK_00348;dRep_bin135_HHKACLPM_00457;dRep_bin075_EPEMMOCL_00485;dRep_bin306_FGHMKMMP_00321;dRep_bin107_EFNBPDOP_00109;dRep_bin077_DNNBMPMC_01424;dRep_bin282_PKAAPBFP_00462;dRep_bin181_MKGPMPIA_00362;dRep_bin349_AMCJEEEG_00053;dRep_bin286_OEMIJKMC_00055;dRep_bin231_CFOLMJBA_01056;dRep_bin182_EMCFODCD_00166;dRep_bin172_ALNHGLMD_00138;dRep_bin270_GEJAHNCN_00840;dRep_bin169_PNICKJKO_00787;dRep_bin085_MBHLGCDB_00687;dRep_bin143_PFLDJMPF_00820;dRep_bin074_EHAOMODJ_01303;dRep_bin059_OOBKFNPP_00785;dRep_bin005_CNDFPKJG_00735;dRep_bin299_AKNBKJGM_01258;dRep_bin321_EJNAAGJG_00978;dRep_bin273_FGAEBHNP_00355;dRep_bin049_MNFBDPNO_01410	dRep_bin248_CCDFPECI_01517;dRep_bin095_HOBNOEEF_01190;dRep_bin269_PNILGKPH_01796;dRep_bin240_LDBBGJKG_00146	>dRep_bin248_CCDFPECI_01517 DNA-directed RNA polymerase subunit alpha;>dRep_bin095_HOBNOEEF_01190 DNA-directed RNA polymerase subunit alpha;>dRep_bin269_PNILGKPH_01796 DNA-directed RNA polymerase subunit alpha;>dRep_bin240_LDBBGJKG_00146 DNA-directed RNA p	dRep_bin231_CFOLMJBA_01056	CDS	rpoA	2.7.7.6	DNA-directed RNA polymerase subunit alpha
CFOLMJBA_01066	26.15812	25.268239999999995	26.514350000000004	26.3556	25.612910000000003	25.23356	25.33064	25.88029				2	2	6,2921E-05	dRep_bin182_EMCFODCD_00177;dRep_bin044_IPFKHAEF_00957;dRep_bin100_CODMOHGB_00096;dRep_bin286_OEMIJKMC_00066;dRep_bin231_CFOLMJBA_01066;dRep_bin200_JJGKEOHI_01031	dRep_bin182_EMCFODCD_00177;dRep_bin044_IPFKHAEF_00957;dRep_bin100_CODMOHGB_00096;dRep_bin286_OEMIJKMC_00066;dRep_bin231_CFOLMJBA_01066;dRep_bin200_JJGKEOHI_01031	>dRep_bin182_EMCFODCD_00177 30S ribosomal protein S5;>dRep_bin044_IPFKHAEF_00957 30S ribosomal protein S5;>dRep_bin100_CODMOHGB_00096 30S ribosomal protein S5;>dRep_bin286_OEMIJKMC_00066 30S ribosomal protein S5;>dRep_bin231_CFOLMJBA_01066 30S ribosomal pr	dRep_bin231_CFOLMJBA_01066	CDS	rpsE		30S ribosomal protein S5
CFOLMJBA_01077	26.32024	25.762249999999998	25.92628	25.658950000000004	25.55529	25.504850000000005		25.82065				1	1	1,2037E-05	dRep_bin253_CPMOAOBJ_00211;dRep_bin231_CFOLMJBA_01077;dRep_bin182_EMCFODCD_00188;dRep_bin044_IPFKHAEF_01458;dRep_bin286_OEMIJKMC_00077	dRep_bin253_CPMOAOBJ_00211;dRep_bin231_CFOLMJBA_01077;dRep_bin182_EMCFODCD_00188;dRep_bin044_IPFKHAEF_01458;dRep_bin286_OEMIJKMC_00077	>dRep_bin253_CPMOAOBJ_00211 30S ribosomal protein S3;>dRep_bin231_CFOLMJBA_01077 30S ribosomal protein S3;>dRep_bin182_EMCFODCD_00188 30S ribosomal protein S3;>dRep_bin044_IPFKHAEF_01458 30S ribosomal protein S3;>dRep_bin286_OEMIJKMC_00077 30S ribosomal pr	dRep_bin231_CFOLMJBA_01077	CDS	rpsC		30S ribosomal protein S3
CFOLMJBA_01079							27.04145					8	0	3,6665E-54	dRep_bin135_HHKACLPM_00482;dRep_bin308_JBPDGLPP_01108;dRep_bin186_HJAAFFNP_00336;dRep_bin127_FIPNHBCH_00030;dRep_bin328_GIGKNKPJ_01343;dRep_bin065_DFABHCBI_01275;dRep_bin001_GHHJMDAL_00750;dRep_bin062_BOFBFLDA_00727;dRep_bin158_OGFICEAP_00611;dRep_bin211_LGJEFJIK_00743;dRep_bin260_HELEPKJL_01348;dRep_bin234_ECABPBME_00125;dRep_bin115_IFKGOGCL_00642;dRep_bin088_DNGPPFDK_00693;dRep_bin001_GHHJMDAL_01427;dRep_bin253_CPMOAOBJ_00213;dRep_bin150_HCDEOBMH_00592;dRep_bin057_BNCFHBBO_00183;dRep_bin299_AKNBKJGM_01127;dRep_bin216_JNJMCPHB_00024;dRep_bin085_MBHLGCDB_00710;dRep_bin286_OEMIJKMC_00079;dRep_bin231_CFOLMJBA_01079;dRep_bin172_ALNHGLMD_00777;dRep_bin182_EMCFODCD_00190;dRep_bin058_GJKCICJN_00161;dRep_bin044_IPFKHAEF_01460;dRep_bin283_NLJJFFAC_00217	dRep_bin135_HHKACLPM_00482;dRep_bin308_JBPDGLPP_01108;dRep_bin186_HJAAFFNP_00336;dRep_bin127_FIPNHBCH_00030;dRep_bin328_GIGKNKPJ_01343;dRep_bin065_DFABHCBI_01275;dRep_bin001_GHHJMDAL_00750;dRep_bin062_BOFBFLDA_00727;dRep_bin158_OGFICEAP_00611;dRep_bin211_LGJEFJIK_00743	>dRep_bin135_HHKACLPM_00482 30S ribosomal protein S19;>dRep_bin308_JBPDGLPP_01108 30S ribosomal protein S19;>dRep_bin186_HJAAFFNP_00336 30S ribosomal protein S19;>dRep_bin127_FIPNHBCH_00030 30S ribosomal protein S19;>dRep_bin328_GIGKNKPJ_01343 30S ribosoma	dRep_bin231_CFOLMJBA_01079	CDS	rpsS		30S ribosomal protein S19
CFOLMJBA_01138					25.769289999999998	24.859890000000004		25.928409999999996				3	2	5,145E-11	dRep_bin148_NAJFKJMD_01412;dRep_bin029_LFMGBBEC_00729;dRep_bin268_LKMHIMLG_01506;dRep_bin193_GDMDPNNM_01470;dRep_bin172_ALNHGLMD_01214;dRep_bin238_OLNFACLE_00183;dRep_bin231_CFOLMJBA_01138;dRep_bin126_PPDNCIBN_00461;dRep_bin251_FGNGCJDD_00775;dRep_bin286_OEMIJKMC_01107;dRep_bin182_EMCFODCD_00319;dRep_bin044_IPFKHAEF_00473	dRep_bin148_NAJFKJMD_01412;dRep_bin029_LFMGBBEC_00729;dRep_bin268_LKMHIMLG_01506	>dRep_bin148_NAJFKJMD_01412 Elongation factor P;>dRep_bin029_LFMGBBEC_00729 Elongation factor P;>dRep_bin268_LKMHIMLG_01506 Elongation factor P	dRep_bin231_CFOLMJBA_01138	CDS	efp		Elongation factor P
CFOLMJBA_01152		21.842109999999998										1	1	0,001506	dRep_bin182_EMCFODCD_01320;dRep_bin126_PPDNCIBN_00296;dRep_bin340_OFLHNGJM_01438;dRep_bin268_LKMHIMLG_01003;dRep_bin193_GDMDPNNM_00555;dRep_bin172_ALNHGLMD_00077;dRep_bin286_OEMIJKMC_00286;dRep_bin231_CFOLMJBA_01152;dRep_bin148_NAJFKJMD_01267;dRep_bin305_FCIEFIHE_00295;dRep_bin108_BPNCDINP_00973;dRep_bin058_GJKCICJN_01045;dRep_bin044_IPFKHAEF_01163;dRep_bin270_GEJAHNCN_01642;dRep_bin029_LFMGBBEC_00524;dRep_bin006_HPJGJCAG_00599;dRep_bin215_ABBFGCAF_00316;dRep_bin142_NDNPJBEM_00128	dRep_bin182_EMCFODCD_01320;dRep_bin126_PPDNCIBN_00296;dRep_bin340_OFLHNGJM_01438;dRep_bin268_LKMHIMLG_01003;dRep_bin193_GDMDPNNM_00555;dRep_bin172_ALNHGLMD_00077;dRep_bin286_OEMIJKMC_00286;dRep_bin231_CFOLMJBA_01152;dRep_bin148_NAJFKJMD_01267;dRep_bin305_FCIEFIHE_00295;dRep_bin108_BPNCDINP_00973;dRep_bin058_GJKCICJN_01045;dRep_bin044_IPFKHAEF_01163;dRep_bin270_GEJAHNCN_01642;dRep_bin029_LFMGBBEC_00524;dRep_bin006_HPJGJCAG_00599;dRep_bin215_ABBFGCAF_00316;dRep_bin142_NDNPJBEM_00128	>dRep_bin182_EMCFODCD_01320 Transcriptional regulatory protein SrrA;>dRep_bin126_PPDNCIBN_00296 Transcriptional regulatory protein SrrA;>dRep_bin340_OFLHNGJM_01438 Transcriptional regulatory protein SrrA;>dRep_bin268_LKMHIMLG_01003 Transcriptional regulato	dRep_bin231_CFOLMJBA_01152	CDS	srrA		Transcriptional regulatory protein SrrA
CFOLMJBA_01154						24.319550000000003	25.307750000000002					2	2	0,0045729	dRep_bin019_MOJEPLJF_01001;dRep_bin075_EPEMMOCL_02014;dRep_bin299_AKNBKJGM_00858;dRep_bin348_LCLFDNEE_00031;dRep_bin323_FBBLPLCG_00975;dRep_bin319_PBDBJGCJ_00640;dRep_bin309_BIOHLCGG_00515;dRep_bin305_FCIEFIHE_00671;dRep_bin303_DDDNDJCF_01037;dRep_bin287_DONBGKDH_00333;dRep_bin282_PKAAPBFP_00617;dRep_bin268_LKMHIMLG_01351;dRep_bin247_EKGBJCBM_00905;dRep_bin238_OLNFACLE_01015;dRep_bin231_CFOLMJBA_01154;dRep_bin160_EFKMPBOM_01371;dRep_bin154_JGOKHKLI_02392;dRep_bin125_FADLGGII_00296;dRep_bin101_BNDDLDCL_01882;dRep_bin090_IPGNHCBJ_01262;dRep_bin047_IFFANOMN_01426;dRep_bin039_IJNOFOJK_00310;dRep_bin286_OEMIJKMC_00282;dRep_bin126_PPDNCIBN_01192	dRep_bin019_MOJEPLJF_01001;dRep_bin075_EPEMMOCL_02014;dRep_bin299_AKNBKJGM_00858;dRep_bin348_LCLFDNEE_00031;dRep_bin323_FBBLPLCG_00975;dRep_bin319_PBDBJGCJ_00640;dRep_bin309_BIOHLCGG_00515;dRep_bin305_FCIEFIHE_00671;dRep_bin303_DDDNDJCF_01037;dRep_bin287_DONBGKDH_00333;dRep_bin282_PKAAPBFP_00617;dRep_bin268_LKMHIMLG_01351;dRep_bin247_EKGBJCBM_00905;dRep_bin238_OLNFACLE_01015;dRep_bin231_CFOLMJBA_01154;dRep_bin160_EFKMPBOM_01371;dRep_bin154_JGOKHKLI_02392;dRep_bin125_FADLGGII_00296;dRep_bin101_BNDDLDCL_01882;dRep_bin090_IPGNHCBJ_01262;dRep_bin047_IFFANOMN_01426;dRep_bin039_IJNOFOJK_00310;dRep_bin286_OEMIJKMC_00282;dRep_bin126_PPDNCIBN_01192	>dRep_bin019_MOJEPLJF_01001 10 kDa chaperonin;>dRep_bin075_EPEMMOCL_02014 10 kDa chaperonin;>dRep_bin299_AKNBKJGM_00858 10 kDa chaperonin;>dRep_bin348_LCLFDNEE_00031 10 kDa chaperonin;>dRep_bin323_FBBLPLCG_00975 10 kDa chaperonin;>dRep_bin319_PBDBJGCJ_0064	dRep_bin231_CFOLMJBA_01154	CDS	groS		10 kDa chaperonin
CFOLMJBA_01155			23.068119999999997	23.95394	24.43078	26.412950000000002	22.41093					6	2	7,6835E-79	dRep_bin231_CFOLMJBA_01155	dRep_bin231_CFOLMJBA_01155	>dRep_bin231_CFOLMJBA_01155 60 kDa chaperonin	dRep_bin231_CFOLMJBA_01155	CDS	groL		60 kDa chaperonin
CFOLMJBA_01266				22.516960000000005								3	0	1,9495E-13	dRep_bin308_JBPDGLPP_01513;dRep_bin240_LDBBGJKG_00416;dRep_bin024_OLHDGABE_01128;dRep_bin179_HFEIPPPA_00093;dRep_bin310_IMBAFDIF_00061;dRep_bin126_PPDNCIBN_00973;dRep_bin286_OEMIJKMC_00194;dRep_bin172_ALNHGLMD_01791;dRep_bin231_CFOLMJBA_01266;dRep_bin193_GDMDPNNM_00645;dRep_bin006_HPJGJCAG_00372;dRep_bin237_KJDLIPND_00743	dRep_bin308_JBPDGLPP_01513;dRep_bin240_LDBBGJKG_00416;dRep_bin024_OLHDGABE_01128;dRep_bin179_HFEIPPPA_00093	>dRep_bin308_JBPDGLPP_01513 Glutamate synthase [NADPH] small chain;>dRep_bin240_LDBBGJKG_00416 Glutamate synthase [NADPH] small chain;>dRep_bin024_OLHDGABE_01128 Glutamate synthase [NADPH] small chain;>dRep_bin179_HFEIPPPA_00093 Glutamate synthase [NADPH]	dRep_bin231_CFOLMJBA_01266	CDS	gltD_1	1.4.1.13	Glutamate synthase [NADPH] small chain
CFOLMJBA_01278							27.989289999999997					3	3	1,0399E-07	dRep_bin231_CFOLMJBA_01278	dRep_bin231_CFOLMJBA_01278	>dRep_bin231_CFOLMJBA_01278 hypothetical protein	dRep_bin231_CFOLMJBA_01278	CDS			hypothetical protein
CFOLMJBA_01358	26.79749	27.34951	27.24889	27.36645								6	3	9,5867E-25	dRep_bin133_NOBPDBPA_02043;dRep_bin203_CLFNNOCF_02569;dRep_bin282_PKAAPBFP_00815;dRep_bin266_JFOCEDAE_00111;dRep_bin186_HJAAFFNP_01254;dRep_bin019_MOJEPLJF_01874;dRep_bin090_IPGNHCBJ_01102;dRep_bin024_OLHDGABE_00752;dRep_bin209_NKIHFCEN_01056;dRep_bin247_EKGBJCBM_00163;dRep_bin160_EFKMPBOM_02860;dRep_bin286_OEMIJKMC_00794;dRep_bin253_CPMOAOBJ_00134;dRep_bin231_CFOLMJBA_01358;dRep_bin172_ALNHGLMD_01268;dRep_bin126_PPDNCIBN_00019;dRep_bin087_FCLGAPPI_00893;dRep_bin154_JGOKHKLI_00814;dRep_bin182_EMCFODCD_00040;dRep_bin044_IPFKHAEF_00841;dRep_bin281_OGHLKMAI_01086;dRep_bin197_NHLBHFEI_00440;dRep_bin103_IGJBLKMC_00804;dRep_bin017_FGFLFOPJ_01043;dRep_bin214_HHFOEIGG_00990;dRep_bin193_GDMDPNNM_00598;dRep_bin268_LKMHIMLG_01535;dRep_bin287_DONBGKDH_00348;dRep_bin100_CODMOHGB_00221;dRep_bin305_FCIEFIHE_01334;dRep_bin266_JFOCEDAE_01639;dRep_bin132_FAPBDCMG_00906	dRep_bin133_NOBPDBPA_02043;dRep_bin203_CLFNNOCF_02569;dRep_bin282_PKAAPBFP_00815;dRep_bin266_JFOCEDAE_00111;dRep_bin186_HJAAFFNP_01254;dRep_bin019_MOJEPLJF_01874;dRep_bin090_IPGNHCBJ_01102;dRep_bin024_OLHDGABE_00752;dRep_bin209_NKIHFCEN_01056;dRep_bin247_EKGBJCBM_00163;dRep_bin160_EFKMPBOM_02860;dRep_bin286_OEMIJKMC_00794;dRep_bin253_CPMOAOBJ_00134;dRep_bin231_CFOLMJBA_01358;dRep_bin172_ALNHGLMD_01268;dRep_bin126_PPDNCIBN_00019;dRep_bin087_FCLGAPPI_00893;dRep_bin154_JGOKHKLI_00814;dRep_bin182_EMCFODCD_00040;dRep_bin044_IPFKHAEF_00841	>dRep_bin133_NOBPDBPA_02043 Aspartate--tRNA(Asp/Asn) ligase;>dRep_bin203_CLFNNOCF_02569 Aspartate--tRNA(Asp/Asn) ligase;>dRep_bin282_PKAAPBFP_00815 Aspartate--tRNA(Asp/Asn) ligase;>dRep_bin266_JFOCEDAE_00111 Aspartate--tRNA(Asp/Asn) ligase;>dRep_bin186_HJA	dRep_bin231_CFOLMJBA_01358	CDS	aspS	6.1.1.23	Aspartate--tRNA(Asp/Asn) ligase
CFOLMJBA_01394					25.211890000000004	25.339260000000003	26.12879	25.574070000000003				3	1	2,9195E-08	dRep_bin286_OEMIJKMC_01056;dRep_bin231_CFOLMJBA_01394;dRep_bin126_PPDNCIBN_01281;dRep_bin182_EMCFODCD_00271;dRep_bin044_IPFKHAEF_01245;dRep_bin143_PFLDJMPF_00478;dRep_bin193_GDMDPNNM_00467;dRep_bin172_ALNHGLMD_00257;dRep_bin257_JHFDCHCB_01356;dRep_bin166_DFIAJFEC_00278;dRep_bin101_BNDDLDCL_00093;dRep_bin309_BIOHLCGG_01620;dRep_bin293_MEPKGOAN_01598;dRep_bin056_EMNHHOJA_00250;dRep_bin026_HNPIIINL_00271;dRep_bin253_CPMOAOBJ_00737;dRep_bin161_JMKPMHCO_00827	dRep_bin286_OEMIJKMC_01056;dRep_bin231_CFOLMJBA_01394;dRep_bin126_PPDNCIBN_01281;dRep_bin182_EMCFODCD_00271;dRep_bin044_IPFKHAEF_01245;dRep_bin143_PFLDJMPF_00478;dRep_bin193_GDMDPNNM_00467;dRep_bin172_ALNHGLMD_00257;dRep_bin257_JHFDCHCB_01356;dRep_bin166_DFIAJFEC_00278;dRep_bin101_BNDDLDCL_00093;dRep_bin309_BIOHLCGG_01620;dRep_bin293_MEPKGOAN_01598;dRep_bin056_EMNHHOJA_00250;dRep_bin026_HNPIIINL_00271;dRep_bin253_CPMOAOBJ_00737	>dRep_bin286_OEMIJKMC_01056 Acetate kinase;>dRep_bin231_CFOLMJBA_01394 Acetate kinase;>dRep_bin126_PPDNCIBN_01281 Acetate kinase;>dRep_bin182_EMCFODCD_00271 Acetate kinase;>dRep_bin044_IPFKHAEF_01245 Acetate kinase;>dRep_bin143_PFLDJMPF_00478 Acetate kinas	dRep_bin231_CFOLMJBA_01394	CDS	ackA	2.7.2.1	Acetate kinase
CFOLMJBA_01396				26.365229999999997								1	1	0,006465	dRep_bin286_OEMIJKMC_01058;dRep_bin231_CFOLMJBA_01396;dRep_bin193_GDMDPNNM_00992;dRep_bin182_EMCFODCD_00270;dRep_bin172_ALNHGLMD_00215;dRep_bin044_IPFKHAEF_01118	dRep_bin286_OEMIJKMC_01058;dRep_bin231_CFOLMJBA_01396;dRep_bin193_GDMDPNNM_00992;dRep_bin182_EMCFODCD_00270;dRep_bin172_ALNHGLMD_00215;dRep_bin044_IPFKHAEF_01118	>dRep_bin286_OEMIJKMC_01058 50S ribosomal protein L21;>dRep_bin231_CFOLMJBA_01396 50S ribosomal protein L21;>dRep_bin193_GDMDPNNM_00992 50S ribosomal protein L21;>dRep_bin182_EMCFODCD_00270 50S ribosomal protein L21;>dRep_bin172_ALNHGLMD_00215 50S ribosoma	dRep_bin231_CFOLMJBA_01396	CDS	rplU		50S ribosomal protein L21
CFOLMJBA_01408	26.315900000000003											4	2	3,4178E-19	dRep_bin231_CFOLMJBA_01408;dRep_bin286_OEMIJKMC_01180	dRep_bin231_CFOLMJBA_01408;dRep_bin286_OEMIJKMC_01180	>dRep_bin231_CFOLMJBA_01408 2-oxoglutarate oxidoreductase subunit KorB;>dRep_bin286_OEMIJKMC_01180 2-oxoglutarate oxidoreductase subunit KorB	dRep_bin231_CFOLMJBA_01408	CDS	korB	1.2.7.3	2-oxoglutarate oxidoreductase subunit KorB
CFOLMJBA_01414						22.99108						1	1	0,0016435	dRep_bin231_CFOLMJBA_01414;dRep_bin193_GDMDPNNM_00581;dRep_bin182_EMCFODCD_01155;dRep_bin044_IPFKHAEF_01129	dRep_bin231_CFOLMJBA_01414;dRep_bin193_GDMDPNNM_00581;dRep_bin182_EMCFODCD_01155;dRep_bin044_IPFKHAEF_01129	>dRep_bin231_CFOLMJBA_01414 Enolase;>dRep_bin193_GDMDPNNM_00581 Enolase;>dRep_bin182_EMCFODCD_01155 Enolase;>dRep_bin044_IPFKHAEF_01129 Enolase	dRep_bin231_CFOLMJBA_01414	CDS	eno	4.2.1.11	Enolase
CFOLMJBA_01417	25.371660000000002	26.462789999999995	23.96296	24.763499999999997								4	1	3,6774E-70	dRep_bin182_EMCFODCD_01290;dRep_bin044_IPFKHAEF_01132;dRep_bin231_CFOLMJBA_01417	dRep_bin182_EMCFODCD_01290;dRep_bin044_IPFKHAEF_01132	>dRep_bin182_EMCFODCD_01290 Phosphoglycerate kinase;>dRep_bin044_IPFKHAEF_01132 Phosphoglycerate kinase	dRep_bin231_CFOLMJBA_01417	CDS	pgk	2.7.2.3	Phosphoglycerate kinase
CFOLMJBA_01589								23.510150000000003				1	1	0,0066444	dRep_bin182_EMCFODCD_01011;dRep_bin044_IPFKHAEF_01091;dRep_bin231_CFOLMJBA_01589	dRep_bin182_EMCFODCD_01011;dRep_bin044_IPFKHAEF_01091;dRep_bin231_CFOLMJBA_01589	>dRep_bin182_EMCFODCD_01011 2-dehydropantoate 2-reductase;>dRep_bin044_IPFKHAEF_01091 2-dehydropantoate 2-reductase;>dRep_bin231_CFOLMJBA_01589 2-dehydropantoate 2-reductase	dRep_bin231_CFOLMJBA_01589	CDS	panE	1.1.1.169	2-dehydropantoate 2-reductase
