GBprotID	LFQ intensity CtrPig1	LFQ intensity CtrPig2	LFQ intensity CtrPig3	LFQ intensity CtrPig4	LFQ intensity MannanPig1	LFQ intensity MannanPig2	LFQ intensity MannanPig3	LFQ intensity MannanPig4	Only identified by site	Reverse	Contaminant	Peptides	Unique peptides	PEP	Protein IDs	Majority protein IDs	Fasta headers	IDcomb	ftype	gene	EC_number	product
BAGKKAOB_00021	26.29112	24.712139999999998	26.585489999999997	27.38665	27.820980000000002	28.725529999999996	27.419890000000002	28.01579				21	0	5,2146E-220	dRep_bin137_NABPABPB_00328;dRep_bin183_FPGIOKBG_01645;dRep_bin092_OOJCPDEA_02023;dRep_bin128_JPBBHEMA_00863;dRep_bin227_IJODGBOI_00750;dRep_bin117_PMEMANMD_00289;dRep_bin208_DHPGEIBC_00903;dRep_bin174_LJJOKEME_00547;dRep_bin121_BHOOLFKN_00466;dRep_bin204_INMOGLDN_00195;dRep_bin129_GADIAMAA_00128;dRep_bin264_DNFFGNEG_01421;dRep_bin233_BAGKKAOB_00021;dRep_bin116_CLFDBMOF_01083;dRep_bin119_AKFBCGDO_01000;dRep_bin342_BMMENEMP_00957;dRep_bin076_GLAOFBEC_00340;dRep_bin197_NHLBHFEI_00890;dRep_bin195_DDMDFNOK_01688;dRep_bin241_LMMMGDNI_01612;dRep_bin334_NAPFFNLD_00133;dRep_bin008_MNDMJLEI_00893	dRep_bin137_NABPABPB_00328	>dRep_bin137_NABPABPB_00328 DNA-directed RNA polymerase subunit beta	dRep_bin233_BAGKKAOB_00021	CDS	rpoC_1	2.7.7.6	DNA-directed RNA polymerase subunit beta'
BAGKKAOB_00022	29.02205	26.64774	28.488269999999996	26.88704	26.77982	27.614700000000003	27.778689999999997	26.602439999999998				19	14	1,2429E-80	dRep_bin228_CECEDMJG_00554;dRep_bin050_FBECOHCI_00265;dRep_bin004_OCHNPJPO_01366;dRep_bin202_HEPPALPH_01060;dRep_bin233_BAGKKAOB_00022;dRep_bin129_GADIAMAA_00127;dRep_bin153_JGABJFBF_01535;dRep_bin174_LJJOKEME_00548;dRep_bin204_INMOGLDN_00196;dRep_bin251_FGNGCJDD_00618	dRep_bin228_CECEDMJG_00554	>dRep_bin228_CECEDMJG_00554 DNA-directed RNA polymerase subunit beta	dRep_bin233_BAGKKAOB_00022	CDS	rpoC_2	2.7.7.6	DNA-directed RNA polymerase subunit beta'
BAGKKAOB_00067					26.11662			27.45136				3	1	2,0455E-07	dRep_bin233_BAGKKAOB_00067;dRep_bin219_HGPEELLF_00478;dRep_bin061_ONFGDLGO_00678;dRep_bin351_CKFFBPHM_00241;dRep_bin244_LBFMHLBI_00960;dRep_bin004_OCHNPJPO_00797;dRep_bin030_OGPDLGOC_00585;dRep_bin018_ILOONPIC_01210	dRep_bin233_BAGKKAOB_00067;dRep_bin219_HGPEELLF_00478;dRep_bin061_ONFGDLGO_00678	>dRep_bin233_BAGKKAOB_00067 Pyruvate, phosphate dikinase;>dRep_bin219_HGPEELLF_00478 Pyruvate, phosphate dikinase;>dRep_bin061_ONFGDLGO_00678 Pyruvate, phosphate dikinase	dRep_bin233_BAGKKAOB_00067	CDS	ppdK	2.7.9.1	Pyruvate, phosphate dikinase
BAGKKAOB_00098				19.95305								3	1	7,8662E-22	dRep_bin233_BAGKKAOB_00098;dRep_bin252_NDAKLAGD_00664;dRep_bin153_JGABJFBF_01491	dRep_bin233_BAGKKAOB_00098;dRep_bin252_NDAKLAGD_00664;dRep_bin153_JGABJFBF_01491	>dRep_bin233_BAGKKAOB_00098 Phosphoenolpyruvate carboxykinase (ATP);>dRep_bin252_NDAKLAGD_00664 Phosphoenolpyruvate carboxykinase (ATP);>dRep_bin153_JGABJFBF_01491 Phosphoenolpyruvate carboxykinase (ATP)	dRep_bin233_BAGKKAOB_00098	CDS	pckA	4.1.1.49	Phosphoenolpyruvate carboxykinase (ATP)
BAGKKAOB_00161								21.504800000000003				5	1	3,9803E-89	dRep_bin260_HELEPKJL_01435;dRep_bin135_HHKACLPM_00878;dRep_bin279_IAEFEPEN_00125;dRep_bin139_KGAJINND_00653;dRep_bin047_IFFANOMN_00833;dRep_bin220_PILICLLL_01353;dRep_bin062_BOFBFLDA_00870;dRep_bin027_OFJCHLJJ_01114;dRep_bin145_KMJJJOEJ_00674;dRep_bin300_MJPPENNL_01153;dRep_bin282_PKAAPBFP_00002;dRep_bin091_MAFACGAD_00478;dRep_bin116_CLFDBMOF_00810;dRep_bin347_EKGCMFPD_00673;dRep_bin322_OJELOJOF_01660;dRep_bin335_JIOGNAPG_01578;dRep_bin201_OLKDIBOK_02525;dRep_bin160_EFKMPBOM_02349;dRep_bin077_DNNBMPMC_01926;dRep_bin246_MMFBABHK_00869;dRep_bin219_HGPEELLF_00755;dRep_bin174_LJJOKEME_01393;dRep_bin312_MJFEFHMP_00102;dRep_bin129_GADIAMAA_01507;dRep_bin030_OGPDLGOC_00490;dRep_bin004_OCHNPJPO_00897;dRep_bin061_ONFGDLGO_00219;dRep_bin264_DNFFGNEG_00399;dRep_bin153_JGABJFBF_00375;dRep_bin244_LBFMHLBI_00924;dRep_bin204_INMOGLDN_00439;dRep_bin050_FBECOHCI_00117;dRep_bin202_HEPPALPH_01023;dRep_bin223_PIMCDKJI_00571;dRep_bin233_BAGKKAOB_00161;dRep_bin336_MPGOKPOL_01196;dRep_bin333_EFOKIBLA_00139;dRep_bin303_DDDNDJCF_00008;dRep_bin095_HOBNOEEF_01151;dRep_bin249_OFIIEIDJ_00631;dRep_bin007_LNLEAAAN_00381;dRep_bin328_GIGKNKPJ_00383;dRep_bin081_JDPCKDNP_00006;dRep_bin078_GKFCBAEI_00579;dRep_bin325_EIIGOGHN_00717;dRep_bin319_PBDBJGCJ_01544;dRep_bin306_FGHMKMMP_01785;dRep_bin181_MKGPMPIA_01340;dRep_bin127_FIPNHBCH_01090;dRep_bin066_AJACLPEE_01002;dRep_bin024_OLHDGABE_01294;dRep_bin220_PILICLLL_00488;dRep_bin078_GKFCBAEI_00372;dRep_bin006_HPJGJCAG_01324;dRep_bin142_NDNPJBEM_00465;dRep_bin350_EKOOEEGH_00689;dRep_bin228_CECEDMJG_00916;dRep_bin218_ACMPALGF_00396;dRep_bin164_KHMELCCL_00939;dRep_bin173_BEBNCADL_00342;dRep_bin058_GJKCICJN_00554;dRep_bin268_LKMHIMLG_00442;dRep_bin237_KJDLIPND_00262;dRep_bin251_FGNGCJDD_00443;dRep_bin192_GCMBELNN_00009	dRep_bin260_HELEPKJL_01435;dRep_bin135_HHKACLPM_00878;dRep_bin279_IAEFEPEN_00125;dRep_bin139_KGAJINND_00653;dRep_bin047_IFFANOMN_00833	>dRep_bin260_HELEPKJL_01435 Trehalose import ATP-binding protein SugC;>dRep_bin135_HHKACLPM_00878 Trehalose import ATP-binding protein SugC;>dRep_bin279_IAEFEPEN_00125 Trehalose import ATP-binding protein SugC;>dRep_bin139_KGAJINND_00653 Trehalose import A	dRep_bin233_BAGKKAOB_00161	CDS	ugpC	3.6.3.20	sn-glycerol-3-phosphate import ATP-binding protein UgpC
BAGKKAOB_00179					25.21771							2	2	2,2918E-05	dRep_bin129_GADIAMAA_00380;dRep_bin233_BAGKKAOB_00179;dRep_bin223_PIMCDKJI_00300;dRep_bin204_INMOGLDN_00327	dRep_bin129_GADIAMAA_00380;dRep_bin233_BAGKKAOB_00179;dRep_bin223_PIMCDKJI_00300;dRep_bin204_INMOGLDN_00327	>dRep_bin129_GADIAMAA_00380 Pyruvate synthase;>dRep_bin233_BAGKKAOB_00179 Pyruvate synthase;>dRep_bin223_PIMCDKJI_00300 Pyruvate synthase;>dRep_bin204_INMOGLDN_00327 Pyruvate synthase	dRep_bin233_BAGKKAOB_00179	CDS	por	1.2.7.1	Pyruvate synthase
BAGKKAOB_00353					28.791629999999998	28.398850000000003	27.502709999999997	27.89076				15	9	7,7669E-111	dRep_bin048_PABMBHAL_01181;dRep_bin233_BAGKKAOB_00353	dRep_bin048_PABMBHAL_01181	>dRep_bin048_PABMBHAL_01181 Ketol-acid reductoisomerase (NADP(+))	dRep_bin233_BAGKKAOB_00353	CDS	ilvC	1.1.1.86	Ketol-acid reductoisomerase (NADP(+))
BAGKKAOB_00356	31.14394	31.282009999999996	31.15243	31.989219999999996	31.86975	31.89012	32.00959	31.941499999999998				12	1	0	dRep_bin170_LICLFCFF_01829;dRep_bin224_NFENHJGB_01186;dRep_bin247_EKGBJCBM_00156;dRep_bin199_JBCGANNF_01554;dRep_bin114_FJHJKHGL_00796;dRep_bin079_GAOGCKND_01272;dRep_bin005_CNDFPKJG_00102;dRep_bin312_MJFEFHMP_00467;dRep_bin295_EJGKDKNE_00450;dRep_bin244_LBFMHLBI_00694;dRep_bin233_BAGKKAOB_00356;dRep_bin223_PIMCDKJI_00904;dRep_bin204_INMOGLDN_00435;dRep_bin153_JGABJFBF_00753;dRep_bin129_GADIAMAA_01156;dRep_bin061_ONFGDLGO_01272;dRep_bin264_DNFFGNEG_00768;dRep_bin246_MMFBABHK_00504;dRep_bin030_OGPDLGOC_00593	dRep_bin170_LICLFCFF_01829;dRep_bin224_NFENHJGB_01186	>dRep_bin170_LICLFCFF_01829 hypothetical protein;>dRep_bin224_NFENHJGB_01186 hypothetical protein	dRep_bin233_BAGKKAOB_00356	CDS			hypothetical protein
BAGKKAOB_00513					26.19434	24.922749999999997	25.433329999999998	25.27721				3	1	9,4492E-07	dRep_bin312_MJFEFHMP_00078;dRep_bin202_HEPPALPH_00150;dRep_bin264_DNFFGNEG_01242;dRep_bin233_BAGKKAOB_00513;dRep_bin030_OGPDLGOC_00709;dRep_bin244_LBFMHLBI_00697;dRep_bin223_PIMCDKJI_00906;dRep_bin204_INMOGLDN_00167;dRep_bin050_FBECOHCI_00399	dRep_bin312_MJFEFHMP_00078;dRep_bin202_HEPPALPH_00150;dRep_bin264_DNFFGNEG_01242;dRep_bin233_BAGKKAOB_00513;dRep_bin030_OGPDLGOC_00709;dRep_bin244_LBFMHLBI_00697;dRep_bin223_PIMCDKJI_00906;dRep_bin204_INMOGLDN_00167;dRep_bin050_FBECOHCI_00399	>dRep_bin312_MJFEFHMP_00078 Phosphoglycerate kinase;>dRep_bin202_HEPPALPH_00150 Phosphoglycerate kinase;>dRep_bin264_DNFFGNEG_01242 Phosphoglycerate kinase;>dRep_bin233_BAGKKAOB_00513 Phosphoglycerate kinase;>dRep_bin030_OGPDLGOC_00709 Phosphoglycerate kin	dRep_bin233_BAGKKAOB_00513	CDS	pgk	2.7.2.3	Phosphoglycerate kinase
BAGKKAOB_00739	28.53823	29.014680000000002	28.25809	28.187970000000004	29.77135	27.7293	29.03034	28.794890000000002				13	1	1,1449E-117	dRep_bin264_DNFFGNEG_01109;dRep_bin233_BAGKKAOB_00739;dRep_bin004_OCHNPJPO_00326;dRep_bin312_MJFEFHMP_01770	dRep_bin264_DNFFGNEG_01109;dRep_bin233_BAGKKAOB_00739	>dRep_bin264_DNFFGNEG_01109 Elongation factor Tu;>dRep_bin233_BAGKKAOB_00739 Elongation factor Tu	dRep_bin233_BAGKKAOB_00739	CDS	tuf		Elongation factor Tu
BAGKKAOB_00746	24.77228	24.299850000000003	24.30334	24.336060000000003	25.579	23.330470000000002	25.02141	23.461139999999997				2	2	1,8361E-08	dRep_bin233_BAGKKAOB_00746;dRep_bin061_ONFGDLGO_01373;dRep_bin312_MJFEFHMP_00813;dRep_bin264_DNFFGNEG_00471;dRep_bin246_MMFBABHK_00404;dRep_bin174_LJJOKEME_01574;dRep_bin129_GADIAMAA_00340;dRep_bin004_OCHNPJPO_00534;dRep_bin153_JGABJFBF_00777;dRep_bin223_PIMCDKJI_01532;dRep_bin219_HGPEELLF_00562;dRep_bin030_OGPDLGOC_00652	dRep_bin233_BAGKKAOB_00746;dRep_bin061_ONFGDLGO_01373;dRep_bin312_MJFEFHMP_00813;dRep_bin264_DNFFGNEG_00471;dRep_bin246_MMFBABHK_00404;dRep_bin174_LJJOKEME_01574;dRep_bin129_GADIAMAA_00340;dRep_bin004_OCHNPJPO_00534;dRep_bin153_JGABJFBF_00777;dRep_bin223_PIMCDKJI_01532;dRep_bin219_HGPEELLF_00562;dRep_bin030_OGPDLGOC_00652	>dRep_bin233_BAGKKAOB_00746 Polyribonucleotide nucleotidyltransferase;>dRep_bin061_ONFGDLGO_01373 Polyribonucleotide nucleotidyltransferase;>dRep_bin312_MJFEFHMP_00813 Polyribonucleotide nucleotidyltransferase;>dRep_bin264_DNFFGNEG_00471 Polyribonucleotide	dRep_bin233_BAGKKAOB_00746	CDS	pnp	2.7.7.8	Polyribonucleotide nucleotidyltransferase
BAGKKAOB_00885				21.86884								3	1	1,3797E-13	dRep_bin021_AJDDCGJC_00051;dRep_bin252_NDAKLAGD_00826;dRep_bin317_ABPHNCOD_01131;dRep_bin216_JNJMCPHB_01076;dRep_bin272_LGBDGEIM_00618;dRep_bin097_CBBLIPAN_01579;dRep_bin053_OMGNPOOB_00833;dRep_bin337_FHKPNFDB_00090;dRep_bin052_PGOOKKFH_01594;dRep_bin168_HKDILBFE_01015;dRep_bin322_OJELOJOF_01622;dRep_bin220_PILICLLL_01543;dRep_bin055_IBMMJAEE_00610;dRep_bin061_ONFGDLGO_01234;dRep_bin168_HKDILBFE_00368;dRep_bin055_IBMMJAEE_00168;dRep_bin261_FJICAFFM_00490;dRep_bin017_FGFLFOPJ_00414;dRep_bin115_IFKGOGCL_01280;dRep_bin257_JHFDCHCB_01406;dRep_bin323_FBBLPLCG_01600;dRep_bin007_LNLEAAAN_00766;dRep_bin049_MNFBDPNO_00781;dRep_bin333_EFOKIBLA_01149;dRep_bin279_IAEFEPEN_01471;dRep_bin234_ECABPBME_01515;dRep_bin179_HFEIPPPA_02108;dRep_bin023_HGFJFKAI_01527;dRep_bin335_JIOGNAPG_00787;dRep_bin250_NMCAMJIO_00423;dRep_bin158_OGFICEAP_00549;dRep_bin100_CODMOHGB_01341;dRep_bin089_PAJFOJBN_02515;dRep_bin088_DNGPPFDK_01371;dRep_bin081_JDPCKDNP_00684;dRep_bin324_IPNHOHFK_01454;dRep_bin300_MJPPENNL_01260;dRep_bin292_JIBLDOOH_01593;dRep_bin284_DEHKNOBF_00281;dRep_bin282_PKAAPBFP_00934;dRep_bin279_IAEFEPEN_01275;dRep_bin269_PNILGKPH_00152;dRep_bin240_LDBBGJKG_01257;dRep_bin226_NLNLHLLD_00367;dRep_bin209_NKIHFCEN_01541;dRep_bin203_CLFNNOCF_01928;dRep_bin179_HFEIPPPA_00359;dRep_bin167_BLMEBMNN_00233;dRep_bin160_EFKMPBOM_02132;dRep_bin154_JGOKHKLI_02775;dRep_bin133_NOBPDBPA_00727;dRep_bin114_FJHJKHGL_00838;dRep_bin095_HOBNOEEF_00822;dRep_bin075_EPEMMOCL_00939;dRep_bin074_EHAOMODJ_00291;dRep_bin065_DFABHCBI_01203;dRep_bin347_EKGCMFPD_00625;dRep_bin325_EIIGOGHN_00612;dRep_bin310_IMBAFDIF_01359;dRep_bin308_JBPDGLPP_00545;dRep_bin306_FGHMKMMP_01018;dRep_bin297_EDHEEICA_01903;dRep_bin201_OLKDIBOK_00335;dRep_bin186_HJAAFFNP_00409;dRep_bin173_BEBNCADL_00242;dRep_bin169_PNICKJKO_00103;dRep_bin145_KMJJJOEJ_01348;dRep_bin135_HHKACLPM_00566;dRep_bin101_BNDDLDCL_00036;dRep_bin069_EGGEOGDC_01480;dRep_bin062_BOFBFLDA_00487;dRep_bin047_IFFANOMN_01271;dRep_bin042_MMFCLHOO_00308;dRep_bin041_OPKGAAAG_00762;dRep_bin024_OLHDGABE_00679;dRep_bin016_JLGAHGOJ_01831;dRep_bin001_GHHJMDAL_00660;dRep_bin349_AMCJEEEG_00131;dRep_bin312_MJFEFHMP_00833;dRep_bin264_DNFFGNEG_00100;dRep_bin246_MMFBABHK_00297;dRep_bin219_HGPEELLF_00003;dRep_bin174_LJJOKEME_01103;dRep_bin129_GADIAMAA_01409;dRep_bin127_FIPNHBCH_00703;dRep_bin077_DNNBMPMC_01278;dRep_bin030_OGPDLGOC_01790;dRep_bin004_OCHNPJPO_01519;dRep_bin218_ACMPALGF_00968;dRep_bin185_OOOLKACK_00657;dRep_bin181_MKGPMPIA_00538;dRep_bin148_NAJFKJMD_01090;dRep_bin058_GJKCICJN_01056;dRep_bin291_EILOACJB_00579;dRep_bin244_LBFMHLBI_01277;dRep_bin223_PIMCDKJI_01006;dRep_bin204_INMOGLDN_01473;dRep_bin184_MBMMJHKO_00222;dRep_bin302_AHDEPDKG_00621;dRep_bin265_LFKFBJPC_00590;dRep_bin233_BAGKKAOB_00885;dRep_bin188_EJILNMPE_01053;dRep_bin081_JDPCKDNP_01324;dRep_bin318_IEDEJOFJ_00724;dRep_bin144_NPHACCKF_00221;dRep_bin096_GNHMEKPF_00086;dRep_bin344_CJJBDGAA_01489;dRep_bin295_EJGKDKNE_00851;dRep_bin048_PABMBHAL_01507;dRep_bin303_DDDNDJCF_00663;dRep_bin283_NLJJFFAC_01754;dRep_bin201_OLKDIBOK_00523;dRep_bin139_KGAJINND_01276;dRep_bin134_HIAPAODO_01158;dRep_bin094_LBLICAAO_00942;dRep_bin062_BOFBFLDA_00417;dRep_bin336_MPGOKPOL_02385;dRep_bin082_HBEFABJN_00650;dRep_bin125_FADLGGII_00540;dRep_bin334_NAPFFNLD_01195;dRep_bin217_MJCEAEPB_00530;dRep_bin195_DDMDFNOK_00971;dRep_bin060_HNFNENOI_00088;dRep_bin328_GIGKNKPJ_00426;dRep_bin281_OGHLKMAI_01076;dRep_bin197_NHLBHFEI_00626;dRep_bin103_IGJBLKMC_00726;dRep_bin116_CLFDBMOF_00455;dRep_bin332_KAOPCDPF_00448;dRep_bin345_GLPJDLOI_00589;dRep_bin314_KCHFPLIP_00788;dRep_bin128_JPBBHEMA_00693;dRep_bin073_AKBCEHHO_01462;dRep_bin045_GJACFFBC_00428;dRep_bin329_GDOHKPBL_01522;dRep_bin316_FNLHDNEO_00349;dRep_bin307_AOCKHIKF_00400;dRep_bin294_EHJINIDK_01408;dRep_bin289_KALDCNNP_01327;dRep_bin183_FPGIOKBG_00622;dRep_bin098_DDEBHDKK_01308;dRep_bin165_HMDFFMMM_01247;dRep_bin037_GEAOEKHA_01212;dRep_bin256_KEMNAOBC_00113;dRep_bin092_OOJCPDEA_01143;dRep_bin126_PPDNCIBN_00264;dRep_bin090_IPGNHCBJ_00911;dRep_bin215_ABBFGCAF_00280;dRep_bin005_CNDFPKJG_00629;dRep_bin270_GEJAHNCN_01426;dRep_bin116_CLFDBMOF_00686;dRep_bin069_EGGEOGDC_00857;dRep_bin007_LNLEAAAN_01604;dRep_bin057_BNCFHBBO_01159;dRep_bin038_EIGFILKG_00229;dRep_bin114_FJHJKHGL_00934;dRep_bin152_LJMCIADF_00045;dRep_bin322_OJELOJOF_00826;dRep_bin266_JFOCEDAE_00030;dRep_bin194_MEPDOGGJ_01235;dRep_bin079_GAOGCKND_01437;dRep_bin068_ENOLAELK_01387;dRep_bin025_CBEJJMLE_00917;dRep_bin240_LDBBGJKG_00802;dRep_bin347_EKGCMFPD_01498;dRep_bin167_BLMEBMNN_00596;dRep_bin160_EFKMPBOM_02114;dRep_bin260_HELEPKJL_02017;dRep_bin091_MAFACGAD_00797;dRep_bin099_DNDAGJEJ_01471;dRep_bin278_BFCONKOE_01179;dRep_bin168_HKDILBFE_00397;dRep_bin284_DEHKNOBF_00737;dRep_bin001_GHHJMDAL_01209;dRep_bin236_BNONDECB_00531;dRep_bin286_OEMIJKMC_01078;dRep_bin231_CFOLMJBA_00464;dRep_bin193_GDMDPNNM_00224;dRep_bin172_ALNHGLMD_01787;dRep_bin182_EMCFODCD_00065;dRep_bin044_IPFKHAEF_00183	dRep_bin021_AJDDCGJC_00051;dRep_bin252_NDAKLAGD_00826;dRep_bin317_ABPHNCOD_01131;dRep_bin216_JNJMCPHB_01076;dRep_bin272_LGBDGEIM_00618;dRep_bin097_CBBLIPAN_01579;dRep_bin053_OMGNPOOB_00833;dRep_bin337_FHKPNFDB_00090;dRep_bin052_PGOOKKFH_01594	>dRep_bin021_AJDDCGJC_00051 ATP synthase subunit alpha;>dRep_bin252_NDAKLAGD_00826 ATP synthase subunit alpha;>dRep_bin317_ABPHNCOD_01131 ATP synthase subunit alpha;>dRep_bin216_JNJMCPHB_01076 ATP synthase subunit alpha;>dRep_bin272_LGBDGEIM_00618 ATP synt	dRep_bin233_BAGKKAOB_00885	CDS	atpA	3.6.3.14	ATP synthase subunit alpha
BAGKKAOB_01126	28.869739999999997	29.851760000000002	29.18723	29.134350000000005	28.805039999999998	27.600950000000005	29.695050000000002	28.952469999999998				12	9	1,7872E-84	dRep_bin013_IODPEDPB_00856;dRep_bin042_MMFCLHOO_00940;dRep_bin228_CECEDMJG_01309;dRep_bin264_DNFFGNEG_00042;dRep_bin202_HEPPALPH_01238;dRep_bin353_PPDHLNJB_01390;dRep_bin246_MMFBABHK_00596;dRep_bin204_INMOGLDN_01192;dRep_bin174_LJJOKEME_00530;dRep_bin050_FBECOHCI_00884;dRep_bin030_OGPDLGOC_00805;dRep_bin327_EPEGNBAG_00851;dRep_bin252_NDAKLAGD_01622;dRep_bin233_BAGKKAOB_01126;dRep_bin216_JNJMCPHB_01306;dRep_bin021_AJDDCGJC_00514;dRep_bin317_ABPHNCOD_01653;dRep_bin153_JGABJFBF_00649;dRep_bin223_PIMCDKJI_01347;dRep_bin244_LBFMHLBI_00087	dRep_bin013_IODPEDPB_00856	>dRep_bin013_IODPEDPB_00856 Glycine--tRNA ligase alpha subunit	dRep_bin233_BAGKKAOB_01126	CDS	glyQ	6.1.1.14	Glycine--tRNA ligase alpha subunit
BAGKKAOB_01466					24.619130000000002							5	2	8,9067E-15	dRep_bin318_IEDEJOFJ_01633;dRep_bin233_BAGKKAOB_01466	dRep_bin318_IEDEJOFJ_01633;dRep_bin233_BAGKKAOB_01466	>dRep_bin318_IEDEJOFJ_01633 Formate acetyltransferase;>dRep_bin233_BAGKKAOB_01466 Formate acetyltransferase	dRep_bin233_BAGKKAOB_01466	CDS	pflB_2	2.3.1.54	Formate acetyltransferase
BAGKKAOB_01477					23.73304		23.00139	22.83364				3	2	2,0564E-50	dRep_bin129_GADIAMAA_00550;dRep_bin219_HGPEELLF_00621;dRep_bin233_BAGKKAOB_01477;dRep_bin004_OCHNPJPO_00663;dRep_bin174_LJJOKEME_00370;dRep_bin030_OGPDLGOC_01761;dRep_bin061_ONFGDLGO_01701	dRep_bin129_GADIAMAA_00550;dRep_bin219_HGPEELLF_00621;dRep_bin233_BAGKKAOB_01477;dRep_bin004_OCHNPJPO_00663;dRep_bin174_LJJOKEME_00370;dRep_bin030_OGPDLGOC_01761	>dRep_bin129_GADIAMAA_00550 Elongation factor G;>dRep_bin219_HGPEELLF_00621 Elongation factor G;>dRep_bin233_BAGKKAOB_01477 Elongation factor G;>dRep_bin004_OCHNPJPO_00663 Elongation factor G;>dRep_bin174_LJJOKEME_00370 Elongation factor G;>dRep_bin030_OGP	dRep_bin233_BAGKKAOB_01477	CDS	fusA		Elongation factor G
BAGKKAOB_01574	28.62954	29.354750000000003	29.992399999999996	30.023139999999998	30.21083	30.89937	29.70792	30.0531				20	3	1,2194E-156	dRep_bin191_NGFJMLOL_01259;dRep_bin296_FDMPKPOH_00205;dRep_bin210_AGEDAEIA_00766;dRep_bin195_DDMDFNOK_00108;dRep_bin334_NAPFFNLD_01038;dRep_bin211_LGJEFJIK_01419;dRep_bin295_EJGKDKNE_00091;dRep_bin341_NBEGOKEF_00239;dRep_bin020_JCCELPIE_00888;dRep_bin283_NLJJFFAC_01280;dRep_bin274_DBJHKLDG_00956;dRep_bin016_JLGAHGOJ_01458;dRep_bin108_BPNCDINP_01604;dRep_bin008_MNDMJLEI_00335;dRep_bin270_GEJAHNCN_01137;dRep_bin005_CNDFPKJG_01352;dRep_bin060_HNFNENOI_00669;dRep_bin146_LCCIBLJG_00571;dRep_bin326_CEEAIPKF_00877;dRep_bin333_EFOKIBLA_00153;dRep_bin168_HKDILBFE_01558;dRep_bin244_LBFMHLBI_01599;dRep_bin096_GNHMEKPF_00231;dRep_bin237_KJDLIPND_00220;dRep_bin188_EJILNMPE_01240;dRep_bin251_FGNGCJDD_00076;dRep_bin227_IJODGBOI_00103;dRep_bin151_AHBJLMBI_00923;dRep_bin116_CLFDBMOF_00729;dRep_bin141_GMCOOECB_00805;dRep_bin350_EKOOEEGH_00925;dRep_bin132_FAPBDCMG_00754;dRep_bin080_CBEBHNNK_00317;dRep_bin051_HIEIDCID_00971;dRep_bin228_CECEDMJG_00643;dRep_bin009_KMMEHEKA_00811;dRep_bin318_IEDEJOFJ_01292;dRep_bin207_OHNPDPFI_00717;dRep_bin345_GLPJDLOI_00471;dRep_bin144_NPHACCKF_01507;dRep_bin118_FGIOKLBC_00082;dRep_bin355_KJEFNADK_00986;dRep_bin293_MEPKGOAN_00544;dRep_bin230_NINMBMKB_00674;dRep_bin014_CHIHIMAN_00029;dRep_bin218_ACMPALGF_00178;dRep_bin165_HMDFFMMM_01108;dRep_bin094_LBLICAAO_00513;dRep_bin076_GLAOFBEC_01428;dRep_bin267_LJCFMAFA_00110;dRep_bin048_PABMBHAL_00321;dRep_bin147_EJLBNEBE_02032;dRep_bin128_JPBBHEMA_00007;dRep_bin042_MMFCLHOO_01063;dRep_bin351_CKFFBPHM_00913;dRep_bin123_PJKBFKBB_00095;dRep_bin330_CODAKHDJ_00708;dRep_bin252_NDAKLAGD_01294;dRep_bin233_BAGKKAOB_01574;dRep_bin217_MJCEAEPB_00244;dRep_bin110_JGOEJECF_00272;dRep_bin109_MJABCPAK_00670;dRep_bin101_BNDDLDCL_01055;dRep_bin092_OOJCPDEA_00344;dRep_bin074_EHAOMODJ_00824;dRep_bin336_MPGOKPOL_02107;dRep_bin290_OIOJKBNK_01058;dRep_bin264_DNFFGNEG_00269;dRep_bin256_KEMNAOBC_01330;dRep_bin246_MMFBABHK_01553;dRep_bin166_DFIAJFEC_00041;dRep_bin153_JGABJFBF_00098;dRep_bin143_PFLDJMPF_00060;dRep_bin106_BKDHGPBE_01156;dRep_bin071_JHMCIJPE_01039;dRep_bin250_NMCAMJIO_00472;dRep_bin312_MJFEFHMP_01194;dRep_bin194_MEPDOGGJ_00657;dRep_bin129_GADIAMAA_01832;dRep_bin061_ONFGDLGO_01341;dRep_bin030_OGPDLGOC_01109;dRep_bin025_CBEJJMLE_00255;dRep_bin223_PIMCDKJI_01311;dRep_bin204_INMOGLDN_00399;dRep_bin202_HEPPALPH_00661;dRep_bin105_AAEIHAFF_01590;dRep_bin056_EMNHHOJA_01586;dRep_bin174_LJJOKEME_01552;dRep_bin057_BNCFHBBO_00981;dRep_bin348_LCLFDNEE_01410;dRep_bin339_DBNBAHDK_00024;dRep_bin321_EJNAAGJG_00897;dRep_bin273_FGAEBHNP_01096;dRep_bin248_CCDFPECI_01765;dRep_bin124_HIHDFGCL_01059;dRep_bin068_ENOLAELK_01049;dRep_bin038_EIGFILKG_00020;dRep_bin276_EHNFLEBP_00417;dRep_bin152_LJMCIADF_00769;dRep_bin115_IFKGOGCL_00005;dRep_bin099_DNDAGJEJ_00435;dRep_bin085_MBHLGCDB_01722;dRep_bin079_GAOGCKND_00892;dRep_bin026_HNPIIINL_00985;dRep_bin353_PPDHLNJB_01438;dRep_bin319_PBDBJGCJ_01331;dRep_bin291_EILOACJB_00194;dRep_bin241_LMMMGDNI_00361;dRep_bin091_MAFACGAD_00751;dRep_bin303_DDDNDJCF_01255;dRep_bin216_JNJMCPHB_01481;dRep_bin184_MBMMJHKO_01167;dRep_bin161_JMKPMHCO_00103;dRep_bin021_AJDDCGJC_01597;dRep_bin095_HOBNOEEF_00033;dRep_bin059_OOBKFNPP_00633;dRep_bin018_ILOONPIC_00093;dRep_bin306_FGHMKMMP_00476;dRep_bin175_HANCENAK_00082;dRep_bin040_EIFLLDOA_01832;dRep_bin166_DFIAJFEC_00288;dRep_bin085_MBHLGCDB_01583	dRep_bin191_NGFJMLOL_01259	>dRep_bin191_NGFJMLOL_01259 Aspartate--tRNA ligase	dRep_bin233_BAGKKAOB_01574	CDS	aspS	6.1.1.12	Aspartate--tRNA ligase
BAGKKAOB_01648					28.68465	26.883319999999998		27.97585				13	0	6,364E-130	dRep_bin170_LICLFCFF_01486;dRep_bin131_HLFNHDGI_00110;dRep_bin118_FGIOKLBC_00922;dRep_bin210_AGEDAEIA_00351;dRep_bin290_OIOJKBNK_00599;dRep_bin264_DNFFGNEG_00559;dRep_bin174_LJJOKEME_01164;dRep_bin030_OGPDLGOC_01583;dRep_bin252_NDAKLAGD_00740;dRep_bin246_MMFBABHK_01095;dRep_bin312_MJFEFHMP_01137;dRep_bin219_HGPEELLF_01025;dRep_bin153_JGABJFBF_00263;dRep_bin061_ONFGDLGO_01740;dRep_bin004_OCHNPJPO_01456;dRep_bin129_GADIAMAA_00644;dRep_bin233_BAGKKAOB_01648	dRep_bin170_LICLFCFF_01486	>dRep_bin170_LICLFCFF_01486 Adenylosuccinate synthetase	dRep_bin233_BAGKKAOB_01648	CDS	purA	6.3.4.4	Adenylosuccinate synthetase
