GBprotID	LFQ intensity CtrPig1	LFQ intensity CtrPig2	LFQ intensity CtrPig3	LFQ intensity CtrPig4	LFQ intensity MannanPig1	LFQ intensity MannanPig2	LFQ intensity MannanPig3	LFQ intensity MannanPig4	Only identified by site	Reverse	Contaminant	Peptides	Unique peptides	PEP	Protein IDs	Majority protein IDs	Fasta headers	IDcomb	ftype	gene	EC_number	product
FGNGCJDD_00076	28.62954	29.354750000000003	29.992399999999996	30.023139999999998	30.21083	30.89937	29.70792	30.0531				20	3	1,2194E-156	dRep_bin191_NGFJMLOL_01259;dRep_bin296_FDMPKPOH_00205;dRep_bin210_AGEDAEIA_00766;dRep_bin195_DDMDFNOK_00108;dRep_bin334_NAPFFNLD_01038;dRep_bin211_LGJEFJIK_01419;dRep_bin295_EJGKDKNE_00091;dRep_bin341_NBEGOKEF_00239;dRep_bin020_JCCELPIE_00888;dRep_bin283_NLJJFFAC_01280;dRep_bin274_DBJHKLDG_00956;dRep_bin016_JLGAHGOJ_01458;dRep_bin108_BPNCDINP_01604;dRep_bin008_MNDMJLEI_00335;dRep_bin270_GEJAHNCN_01137;dRep_bin005_CNDFPKJG_01352;dRep_bin060_HNFNENOI_00669;dRep_bin146_LCCIBLJG_00571;dRep_bin326_CEEAIPKF_00877;dRep_bin333_EFOKIBLA_00153;dRep_bin168_HKDILBFE_01558;dRep_bin244_LBFMHLBI_01599;dRep_bin096_GNHMEKPF_00231;dRep_bin237_KJDLIPND_00220;dRep_bin188_EJILNMPE_01240;dRep_bin251_FGNGCJDD_00076;dRep_bin227_IJODGBOI_00103;dRep_bin151_AHBJLMBI_00923;dRep_bin116_CLFDBMOF_00729;dRep_bin141_GMCOOECB_00805;dRep_bin350_EKOOEEGH_00925;dRep_bin132_FAPBDCMG_00754;dRep_bin080_CBEBHNNK_00317;dRep_bin051_HIEIDCID_00971;dRep_bin228_CECEDMJG_00643;dRep_bin009_KMMEHEKA_00811;dRep_bin318_IEDEJOFJ_01292;dRep_bin207_OHNPDPFI_00717;dRep_bin345_GLPJDLOI_00471;dRep_bin144_NPHACCKF_01507;dRep_bin118_FGIOKLBC_00082;dRep_bin355_KJEFNADK_00986;dRep_bin293_MEPKGOAN_00544;dRep_bin230_NINMBMKB_00674;dRep_bin014_CHIHIMAN_00029;dRep_bin218_ACMPALGF_00178;dRep_bin165_HMDFFMMM_01108;dRep_bin094_LBLICAAO_00513;dRep_bin076_GLAOFBEC_01428;dRep_bin267_LJCFMAFA_00110;dRep_bin048_PABMBHAL_00321;dRep_bin147_EJLBNEBE_02032;dRep_bin128_JPBBHEMA_00007;dRep_bin042_MMFCLHOO_01063;dRep_bin351_CKFFBPHM_00913;dRep_bin123_PJKBFKBB_00095;dRep_bin330_CODAKHDJ_00708;dRep_bin252_NDAKLAGD_01294;dRep_bin233_BAGKKAOB_01574;dRep_bin217_MJCEAEPB_00244;dRep_bin110_JGOEJECF_00272;dRep_bin109_MJABCPAK_00670;dRep_bin101_BNDDLDCL_01055;dRep_bin092_OOJCPDEA_00344;dRep_bin074_EHAOMODJ_00824;dRep_bin336_MPGOKPOL_02107;dRep_bin290_OIOJKBNK_01058;dRep_bin264_DNFFGNEG_00269;dRep_bin256_KEMNAOBC_01330;dRep_bin246_MMFBABHK_01553;dRep_bin166_DFIAJFEC_00041;dRep_bin153_JGABJFBF_00098;dRep_bin143_PFLDJMPF_00060;dRep_bin106_BKDHGPBE_01156;dRep_bin071_JHMCIJPE_01039;dRep_bin250_NMCAMJIO_00472;dRep_bin312_MJFEFHMP_01194;dRep_bin194_MEPDOGGJ_00657;dRep_bin129_GADIAMAA_01832;dRep_bin061_ONFGDLGO_01341;dRep_bin030_OGPDLGOC_01109;dRep_bin025_CBEJJMLE_00255;dRep_bin223_PIMCDKJI_01311;dRep_bin204_INMOGLDN_00399;dRep_bin202_HEPPALPH_00661;dRep_bin105_AAEIHAFF_01590;dRep_bin056_EMNHHOJA_01586;dRep_bin174_LJJOKEME_01552;dRep_bin057_BNCFHBBO_00981;dRep_bin348_LCLFDNEE_01410;dRep_bin339_DBNBAHDK_00024;dRep_bin321_EJNAAGJG_00897;dRep_bin273_FGAEBHNP_01096;dRep_bin248_CCDFPECI_01765;dRep_bin124_HIHDFGCL_01059;dRep_bin068_ENOLAELK_01049;dRep_bin038_EIGFILKG_00020;dRep_bin276_EHNFLEBP_00417;dRep_bin152_LJMCIADF_00769;dRep_bin115_IFKGOGCL_00005;dRep_bin099_DNDAGJEJ_00435;dRep_bin085_MBHLGCDB_01722;dRep_bin079_GAOGCKND_00892;dRep_bin026_HNPIIINL_00985;dRep_bin353_PPDHLNJB_01438;dRep_bin319_PBDBJGCJ_01331;dRep_bin291_EILOACJB_00194;dRep_bin241_LMMMGDNI_00361;dRep_bin091_MAFACGAD_00751;dRep_bin303_DDDNDJCF_01255;dRep_bin216_JNJMCPHB_01481;dRep_bin184_MBMMJHKO_01167;dRep_bin161_JMKPMHCO_00103;dRep_bin021_AJDDCGJC_01597;dRep_bin095_HOBNOEEF_00033;dRep_bin059_OOBKFNPP_00633;dRep_bin018_ILOONPIC_00093;dRep_bin306_FGHMKMMP_00476;dRep_bin175_HANCENAK_00082;dRep_bin040_EIFLLDOA_01832;dRep_bin166_DFIAJFEC_00288;dRep_bin085_MBHLGCDB_01583	dRep_bin191_NGFJMLOL_01259	>dRep_bin191_NGFJMLOL_01259 Aspartate--tRNA ligase	dRep_bin251_FGNGCJDD_00076	CDS	aspS	6.1.1.12	Aspartate--tRNA ligase
FGNGCJDD_00242					20.66084	20.19075						6	1	4,1576E-39	dRep_bin346_JKFDGFHC_00049;dRep_bin271_NGFBCHKH_01432;dRep_bin170_LICLFCFF_00076;dRep_bin113_LIFKCGBF_00665;dRep_bin036_DOKCEIDH_00273;dRep_bin034_MEBMFDLL_01305;dRep_bin285_IPHKFJAN_00808;dRep_bin298_EIPJCOMF_01620;dRep_bin289_KALDCNNP_01320;dRep_bin196_BIELHBNH_01057;dRep_bin138_EJGHNBMI_00590;dRep_bin064_CMDDCDKG_01375;dRep_bin183_FPGIOKBG_00615;dRep_bin073_AKBCEHHO_01469;dRep_bin323_FBBLPLCG_01598;dRep_bin101_BNDDLDCL_00033;dRep_bin049_MNFBDPNO_00783;dRep_bin087_FCLGAPPI_00381;dRep_bin281_OGHLKMAI_01074;dRep_bin210_AGEDAEIA_01693;dRep_bin118_FGIOKLBC_01781;dRep_bin022_BOEAFNDE_01420;dRep_bin131_HLFNHDGI_01253;dRep_bin002_CFBNDKDN_00034;dRep_bin014_CHIHIMAN_01271;dRep_bin329_GDOHKPBL_01515;dRep_bin314_KCHFPLIP_00795;dRep_bin307_AOCKHIKF_00407;dRep_bin098_DDEBHDKK_01315;dRep_bin306_FGHMKMMP_00477;dRep_bin153_JGABJFBF_01420;dRep_bin172_ALNHGLMD_01785;dRep_bin286_OEMIJKMC_01076;dRep_bin182_EMCFODCD_00063;dRep_bin126_PPDNCIBN_00262;dRep_bin044_IPFKHAEF_00185;dRep_bin283_NLJJFFAC_01756;dRep_bin203_CLFNNOCF_01930;dRep_bin179_HFEIPPPA_00361;dRep_bin218_ACMPALGF_01344;dRep_bin144_NPHACCKF_00223;dRep_bin094_LBLICAAO_00940;dRep_bin032_PPNIGLME_01008;dRep_bin027_OFJCHLJJ_00625;dRep_bin096_GNHMEKPF_00088;dRep_bin257_JHFDCHCB_01408;dRep_bin190_MOGDLGIN_00302;dRep_bin114_FJHJKHGL_00840;dRep_bin055_IBMMJAEE_00170;dRep_bin048_PABMBHAL_01509;dRep_bin318_IEDEJOFJ_00726;dRep_bin264_DNFFGNEG_00422;dRep_bin244_LBFMHLBI_01058;dRep_bin223_PIMCDKJI_01107;dRep_bin202_HEPPALPH_00196;dRep_bin242_LKAIBGGJ_00303;dRep_bin204_INMOGLDN_01542;dRep_bin174_LJJOKEME_00810;dRep_bin080_CBEBHNNK_00066;dRep_bin312_MJFEFHMP_00588;dRep_bin246_MMFBABHK_00194;dRep_bin116_CLFDBMOF_00457;dRep_bin061_ONFGDLGO_01437;dRep_bin030_OGPDLGOC_00261;dRep_bin004_OCHNPJPO_01274;dRep_bin251_FGNGCJDD_00242;dRep_bin219_HGPEELLF_01206;dRep_bin129_GADIAMAA_00806;dRep_bin076_GLAOFBEC_00429;dRep_bin188_EJILNMPE_01055;dRep_bin252_NDAKLAGD_01289;dRep_bin352_KFNHGNFC_00642;dRep_bin206_OIIBOIAK_00292;dRep_bin078_GKFCBAEI_00119;dRep_bin301_NJFJIJGA_00585;dRep_bin275_NIDIBBDA_00034;dRep_bin040_EIFLLDOA_01203;dRep_bin028_GKEJLBAM_00163;dRep_bin149_GABCHCDI_00012;dRep_bin093_PGADNPMG_00427;dRep_bin345_GLPJDLOI_00001;dRep_bin296_FDMPKPOH_01296;dRep_bin316_FNLHDNEO_00355;dRep_bin256_KEMNAOBC_01607;dRep_bin071_JHMCIJPE_01347;dRep_bin128_JPBBHEMA_00687;dRep_bin165_HMDFFMMM_01254;dRep_bin351_CKFFBPHM_01191;dRep_bin092_OOJCPDEA_01149	dRep_bin346_JKFDGFHC_00049;dRep_bin271_NGFBCHKH_01432;dRep_bin170_LICLFCFF_00076;dRep_bin113_LIFKCGBF_00665;dRep_bin036_DOKCEIDH_00273;dRep_bin034_MEBMFDLL_01305;dRep_bin285_IPHKFJAN_00808;dRep_bin298_EIPJCOMF_01620;dRep_bin289_KALDCNNP_01320;dRep_bin196_BIELHBNH_01057;dRep_bin138_EJGHNBMI_00590;dRep_bin064_CMDDCDKG_01375;dRep_bin183_FPGIOKBG_00615;dRep_bin073_AKBCEHHO_01469	>dRep_bin346_JKFDGFHC_00049 ATP synthase subunit beta, sodium ion specific;>dRep_bin271_NGFBCHKH_01432 ATP synthase subunit beta;>dRep_bin170_LICLFCFF_00076 ATP synthase subunit beta, sodium ion specific;>dRep_bin113_LIFKCGBF_00665 ATP synthase subunit bet	dRep_bin251_FGNGCJDD_00242	CDS	atpD	3.6.3.14	ATP synthase subunit beta
FGNGCJDD_00443								21.504800000000003				5	1	3,9803E-89	dRep_bin260_HELEPKJL_01435;dRep_bin135_HHKACLPM_00878;dRep_bin279_IAEFEPEN_00125;dRep_bin139_KGAJINND_00653;dRep_bin047_IFFANOMN_00833;dRep_bin220_PILICLLL_01353;dRep_bin062_BOFBFLDA_00870;dRep_bin027_OFJCHLJJ_01114;dRep_bin145_KMJJJOEJ_00674;dRep_bin300_MJPPENNL_01153;dRep_bin282_PKAAPBFP_00002;dRep_bin091_MAFACGAD_00478;dRep_bin116_CLFDBMOF_00810;dRep_bin347_EKGCMFPD_00673;dRep_bin322_OJELOJOF_01660;dRep_bin335_JIOGNAPG_01578;dRep_bin201_OLKDIBOK_02525;dRep_bin160_EFKMPBOM_02349;dRep_bin077_DNNBMPMC_01926;dRep_bin246_MMFBABHK_00869;dRep_bin219_HGPEELLF_00755;dRep_bin174_LJJOKEME_01393;dRep_bin312_MJFEFHMP_00102;dRep_bin129_GADIAMAA_01507;dRep_bin030_OGPDLGOC_00490;dRep_bin004_OCHNPJPO_00897;dRep_bin061_ONFGDLGO_00219;dRep_bin264_DNFFGNEG_00399;dRep_bin153_JGABJFBF_00375;dRep_bin244_LBFMHLBI_00924;dRep_bin204_INMOGLDN_00439;dRep_bin050_FBECOHCI_00117;dRep_bin202_HEPPALPH_01023;dRep_bin223_PIMCDKJI_00571;dRep_bin233_BAGKKAOB_00161;dRep_bin336_MPGOKPOL_01196;dRep_bin333_EFOKIBLA_00139;dRep_bin303_DDDNDJCF_00008;dRep_bin095_HOBNOEEF_01151;dRep_bin249_OFIIEIDJ_00631;dRep_bin007_LNLEAAAN_00381;dRep_bin328_GIGKNKPJ_00383;dRep_bin081_JDPCKDNP_00006;dRep_bin078_GKFCBAEI_00579;dRep_bin325_EIIGOGHN_00717;dRep_bin319_PBDBJGCJ_01544;dRep_bin306_FGHMKMMP_01785;dRep_bin181_MKGPMPIA_01340;dRep_bin127_FIPNHBCH_01090;dRep_bin066_AJACLPEE_01002;dRep_bin024_OLHDGABE_01294;dRep_bin220_PILICLLL_00488;dRep_bin078_GKFCBAEI_00372;dRep_bin006_HPJGJCAG_01324;dRep_bin142_NDNPJBEM_00465;dRep_bin350_EKOOEEGH_00689;dRep_bin228_CECEDMJG_00916;dRep_bin218_ACMPALGF_00396;dRep_bin164_KHMELCCL_00939;dRep_bin173_BEBNCADL_00342;dRep_bin058_GJKCICJN_00554;dRep_bin268_LKMHIMLG_00442;dRep_bin237_KJDLIPND_00262;dRep_bin251_FGNGCJDD_00443;dRep_bin192_GCMBELNN_00009	dRep_bin260_HELEPKJL_01435;dRep_bin135_HHKACLPM_00878;dRep_bin279_IAEFEPEN_00125;dRep_bin139_KGAJINND_00653;dRep_bin047_IFFANOMN_00833	>dRep_bin260_HELEPKJL_01435 Trehalose import ATP-binding protein SugC;>dRep_bin135_HHKACLPM_00878 Trehalose import ATP-binding protein SugC;>dRep_bin279_IAEFEPEN_00125 Trehalose import ATP-binding protein SugC;>dRep_bin139_KGAJINND_00653 Trehalose import A	dRep_bin251_FGNGCJDD_00443	CDS	sugC_2	3.6.3.-	Trehalose import ATP-binding protein SugC
FGNGCJDD_00444					23.877180000000003							2	1	6,3487E-08	dRep_bin354_MMOALAFN_00890;dRep_bin096_GNHMEKPF_00957;dRep_bin075_EPEMMOCL_01679;dRep_bin236_BNONDECB_00140;dRep_bin085_MBHLGCDB_00090;dRep_bin187_CLPDGDBG_00022;dRep_bin206_OIIBOIAK_00679;dRep_bin206_OIIBOIAK_00466;dRep_bin251_FGNGCJDD_00444;dRep_bin187_CLPDGDBG_00463;dRep_bin251_FGNGCJDD_00111;dRep_bin188_EJILNMPE_00797	dRep_bin354_MMOALAFN_00890;dRep_bin096_GNHMEKPF_00957;dRep_bin075_EPEMMOCL_01679;dRep_bin236_BNONDECB_00140;dRep_bin085_MBHLGCDB_00090;dRep_bin187_CLPDGDBG_00022;dRep_bin206_OIIBOIAK_00679;dRep_bin206_OIIBOIAK_00466;dRep_bin251_FGNGCJDD_00444;dRep_bin187_CLPDGDBG_00463;dRep_bin251_FGNGCJDD_00111;dRep_bin188_EJILNMPE_00797	>dRep_bin354_MMOALAFN_00890 Trehalose import ATP-binding protein SugC;>dRep_bin096_GNHMEKPF_00957 Trehalose import ATP-binding protein SugC;>dRep_bin075_EPEMMOCL_01679 Trehalose import ATP-binding protein SugC;>dRep_bin236_BNONDECB_00140 Trehalose import A	dRep_bin251_FGNGCJDD_00444	CDS	sugC_3	3.6.3.-	Trehalose import ATP-binding protein SugC
FGNGCJDD_00570		24.760559999999998										18	1	0	dRep_bin251_FGNGCJDD_00570	dRep_bin251_FGNGCJDD_00570	>dRep_bin251_FGNGCJDD_00570 Phosphoenolpyruvate carboxykinase (ATP)	dRep_bin251_FGNGCJDD_00570	CDS	pckA	4.1.1.49	Phosphoenolpyruvate carboxykinase (ATP)
FGNGCJDD_00614	29.12679	28.332060000000002	29.53973	30.099739999999997	29.755860000000002	30.49905	29.25158	29.17453				6	3	1,993E-49	dRep_bin251_FGNGCJDD_00614;dRep_bin080_CBEBHNNK_00994;dRep_bin206_OIIBOIAK_00898	dRep_bin251_FGNGCJDD_00614	>dRep_bin251_FGNGCJDD_00614 Elongation factor Tu	dRep_bin251_FGNGCJDD_00614	CDS	tuf		Elongation factor Tu
FGNGCJDD_00615						26.7506	25.29684	25.30869				21	1	1,7537E-107	dRep_bin154_JGOKHKLI_00877;dRep_bin005_CNDFPKJG_00510;dRep_bin078_GKFCBAEI_00660;dRep_bin342_BMMENEMP_00951;dRep_bin313_CJFGINPI_00384;dRep_bin114_FJHJKHGL_00469;dRep_bin076_GLAOFBEC_00007;dRep_bin251_FGNGCJDD_00615	dRep_bin154_JGOKHKLI_00877	>dRep_bin154_JGOKHKLI_00877 Elongation factor G	dRep_bin251_FGNGCJDD_00615	CDS	fusA		Elongation factor G
FGNGCJDD_00618	29.02205	26.64774	28.488269999999996	26.88704	26.77982	27.614700000000003	27.778689999999997	26.602439999999998				19	14	1,2429E-80	dRep_bin228_CECEDMJG_00554;dRep_bin050_FBECOHCI_00265;dRep_bin004_OCHNPJPO_01366;dRep_bin202_HEPPALPH_01060;dRep_bin233_BAGKKAOB_00022;dRep_bin129_GADIAMAA_00127;dRep_bin153_JGABJFBF_01535;dRep_bin174_LJJOKEME_00548;dRep_bin204_INMOGLDN_00196;dRep_bin251_FGNGCJDD_00618	dRep_bin228_CECEDMJG_00554	>dRep_bin228_CECEDMJG_00554 DNA-directed RNA polymerase subunit beta	dRep_bin251_FGNGCJDD_00618	CDS	rpoC	2.7.7.6	DNA-directed RNA polymerase subunit beta'
FGNGCJDD_00775					25.769289999999998	24.859890000000004		25.928409999999996				3	2	5,145E-11	dRep_bin148_NAJFKJMD_01412;dRep_bin029_LFMGBBEC_00729;dRep_bin268_LKMHIMLG_01506;dRep_bin193_GDMDPNNM_01470;dRep_bin172_ALNHGLMD_01214;dRep_bin238_OLNFACLE_00183;dRep_bin231_CFOLMJBA_01138;dRep_bin126_PPDNCIBN_00461;dRep_bin251_FGNGCJDD_00775;dRep_bin286_OEMIJKMC_01107;dRep_bin182_EMCFODCD_00319;dRep_bin044_IPFKHAEF_00473	dRep_bin148_NAJFKJMD_01412;dRep_bin029_LFMGBBEC_00729;dRep_bin268_LKMHIMLG_01506	>dRep_bin148_NAJFKJMD_01412 Elongation factor P;>dRep_bin029_LFMGBBEC_00729 Elongation factor P;>dRep_bin268_LKMHIMLG_01506 Elongation factor P	dRep_bin251_FGNGCJDD_00775	CDS	efp		Elongation factor P
FGNGCJDD_00892			25.323990000000002									22	3	1,0795E-199	dRep_bin029_LFMGBBEC_00594;dRep_bin033_DLABHNFE_01126;dRep_bin051_HIEIDCID_00673;dRep_bin132_FAPBDCMG_00118;dRep_bin031_BNHMFOII_01629;dRep_bin251_FGNGCJDD_00892;dRep_bin080_CBEBHNNK_00186;dRep_bin197_NHLBHFEI_00874;dRep_bin103_IGJBLKMC_00522	dRep_bin029_LFMGBBEC_00594	>dRep_bin029_LFMGBBEC_00594 Pyruvate, phosphate dikinase	dRep_bin251_FGNGCJDD_00892	CDS	ppdK	2.7.9.1	Pyruvate, phosphate dikinase
FGNGCJDD_01001	30.806860000000004	28.64227	31.13369	28.375880000000002	27.5932	30.17343	28.278039999999997	28.29728				27	12	0	dRep_bin228_CECEDMJG_00958;dRep_bin258_DAMEHFEK_00510;dRep_bin311_NPLECLAD_00160;dRep_bin163_EBDOGNGI_00465;dRep_bin213_HHHELMFN_00873;dRep_bin155_CLHNKEHA_00585;dRep_bin009_KMMEHEKA_00837;dRep_bin096_GNHMEKPF_00461;dRep_bin229_FFOBPPJI_01697;dRep_bin326_CEEAIPKF_00109;dRep_bin033_DLABHNFE_00658;dRep_bin012_KEBBILMO_01023;dRep_bin080_CBEBHNNK_00581;dRep_bin188_EJILNMPE_00518;dRep_bin251_FGNGCJDD_01001;dRep_bin237_KJDLIPND_00177;dRep_bin177_HLHGKLFL_01362;dRep_bin140_ACFAKGIL_00158;dRep_bin040_EIFLLDOA_00777	dRep_bin228_CECEDMJG_00958	>dRep_bin228_CECEDMJG_00958 Chaperone protein DnaK	dRep_bin251_FGNGCJDD_01001	CDS	dnaK		Chaperone protein DnaK
FGNGCJDD_01070	28.515970000000003	28.41671	28.426019999999998	27.148609999999998	27.67526	27.92065	28.272	28.173460000000002				15	9	4,9493E-79	dRep_bin225_FLBKEJIP_01173;dRep_bin251_FGNGCJDD_01070;dRep_bin237_KJDLIPND_01290;dRep_bin206_OIIBOIAK_00625;dRep_bin172_ALNHGLMD_00009;dRep_bin031_BNHMFOII_01700;dRep_bin181_MKGPMPIA_00935;dRep_bin089_PAJFOJBN_02615;dRep_bin027_OFJCHLJJ_01041;dRep_bin308_JBPDGLPP_00001;dRep_bin220_PILICLLL_01148;dRep_bin062_BOFBFLDA_00453	dRep_bin225_FLBKEJIP_01173	>dRep_bin225_FLBKEJIP_01173 GMP synthase [glutamine-hydrolyzing]	dRep_bin251_FGNGCJDD_01070	CDS	guaA	6.3.5.2	GMP synthase [glutamine-hydrolyzing]
