GBprotID	LFQ intensity CtrPig1	LFQ intensity CtrPig2	LFQ intensity CtrPig3	LFQ intensity CtrPig4	LFQ intensity MannanPig1	LFQ intensity MannanPig2	LFQ intensity MannanPig3	LFQ intensity MannanPig4	Only identified by site	Reverse	Contaminant	Peptides	Unique peptides	PEP	Protein IDs	Majority protein IDs	Fasta headers	IDcomb	ftype	gene	EC_number	product
CPMOAOBJ_00134	26.79749	27.34951	27.24889	27.36645								6	3	9,5867E-25	dRep_bin133_NOBPDBPA_02043;dRep_bin203_CLFNNOCF_02569;dRep_bin282_PKAAPBFP_00815;dRep_bin266_JFOCEDAE_00111;dRep_bin186_HJAAFFNP_01254;dRep_bin019_MOJEPLJF_01874;dRep_bin090_IPGNHCBJ_01102;dRep_bin024_OLHDGABE_00752;dRep_bin209_NKIHFCEN_01056;dRep_bin247_EKGBJCBM_00163;dRep_bin160_EFKMPBOM_02860;dRep_bin286_OEMIJKMC_00794;dRep_bin253_CPMOAOBJ_00134;dRep_bin231_CFOLMJBA_01358;dRep_bin172_ALNHGLMD_01268;dRep_bin126_PPDNCIBN_00019;dRep_bin087_FCLGAPPI_00893;dRep_bin154_JGOKHKLI_00814;dRep_bin182_EMCFODCD_00040;dRep_bin044_IPFKHAEF_00841;dRep_bin281_OGHLKMAI_01086;dRep_bin197_NHLBHFEI_00440;dRep_bin103_IGJBLKMC_00804;dRep_bin017_FGFLFOPJ_01043;dRep_bin214_HHFOEIGG_00990;dRep_bin193_GDMDPNNM_00598;dRep_bin268_LKMHIMLG_01535;dRep_bin287_DONBGKDH_00348;dRep_bin100_CODMOHGB_00221;dRep_bin305_FCIEFIHE_01334;dRep_bin266_JFOCEDAE_01639;dRep_bin132_FAPBDCMG_00906	dRep_bin133_NOBPDBPA_02043;dRep_bin203_CLFNNOCF_02569;dRep_bin282_PKAAPBFP_00815;dRep_bin266_JFOCEDAE_00111;dRep_bin186_HJAAFFNP_01254;dRep_bin019_MOJEPLJF_01874;dRep_bin090_IPGNHCBJ_01102;dRep_bin024_OLHDGABE_00752;dRep_bin209_NKIHFCEN_01056;dRep_bin247_EKGBJCBM_00163;dRep_bin160_EFKMPBOM_02860;dRep_bin286_OEMIJKMC_00794;dRep_bin253_CPMOAOBJ_00134;dRep_bin231_CFOLMJBA_01358;dRep_bin172_ALNHGLMD_01268;dRep_bin126_PPDNCIBN_00019;dRep_bin087_FCLGAPPI_00893;dRep_bin154_JGOKHKLI_00814;dRep_bin182_EMCFODCD_00040;dRep_bin044_IPFKHAEF_00841	>dRep_bin133_NOBPDBPA_02043 Aspartate--tRNA(Asp/Asn) ligase;>dRep_bin203_CLFNNOCF_02569 Aspartate--tRNA(Asp/Asn) ligase;>dRep_bin282_PKAAPBFP_00815 Aspartate--tRNA(Asp/Asn) ligase;>dRep_bin266_JFOCEDAE_00111 Aspartate--tRNA(Asp/Asn) ligase;>dRep_bin186_HJA	dRep_bin253_CPMOAOBJ_00134	CDS	aspS	6.1.1.23	Aspartate--tRNA(Asp/Asn) ligase
CPMOAOBJ_00150					24.423099999999998							10	2	2,3099E-133	dRep_bin253_CPMOAOBJ_00150	dRep_bin253_CPMOAOBJ_00150	>dRep_bin253_CPMOAOBJ_00150 hypothetical protein	dRep_bin253_CPMOAOBJ_00150	CDS			hypothetical protein
CPMOAOBJ_00188	29.2999	29.566509999999997	30.05931	29.04828	28.991699999999998	28.57391	29.705099999999998	29.51452				9	6	1,4542E-37	dRep_bin013_IODPEDPB_00467;dRep_bin247_EKGBJCBM_00057;dRep_bin161_JMKPMHCO_00432;dRep_bin105_AAEIHAFF_01723;dRep_bin277_MIPNGEJE_00757;dRep_bin023_HGFJFKAI_00810;dRep_bin166_DFIAJFEC_00239;dRep_bin253_CPMOAOBJ_00188;dRep_bin339_DBNBAHDK_00879	dRep_bin013_IODPEDPB_00467	>dRep_bin013_IODPEDPB_00467 DNA-directed RNA polymerase subunit alpha	dRep_bin253_CPMOAOBJ_00188	CDS	rpoA	2.7.7.6	DNA-directed RNA polymerase subunit alpha
CPMOAOBJ_00205				26.06402								3	0	5,8449E-07	dRep_bin262_LLCGOPIE_01347;dRep_bin054_NNOKONMC_00047;dRep_bin176_DLEJNGKN_01632;dRep_bin340_OFLHNGJM_00819;dRep_bin253_CPMOAOBJ_00205;dRep_bin086_HHEJBMCP_00617;dRep_bin074_EHAOMODJ_01288;dRep_bin006_HPJGJCAG_00135;dRep_bin057_BNCFHBBO_00191	dRep_bin262_LLCGOPIE_01347;dRep_bin054_NNOKONMC_00047;dRep_bin176_DLEJNGKN_01632;dRep_bin340_OFLHNGJM_00819;dRep_bin253_CPMOAOBJ_00205;dRep_bin086_HHEJBMCP_00617;dRep_bin074_EHAOMODJ_01288;dRep_bin006_HPJGJCAG_00135	>dRep_bin262_LLCGOPIE_01347 50S ribosomal protein L5;>dRep_bin054_NNOKONMC_00047 50S ribosomal protein L5;>dRep_bin176_DLEJNGKN_01632 50S ribosomal protein L5;>dRep_bin340_OFLHNGJM_00819 50S ribosomal protein L5;>dRep_bin253_CPMOAOBJ_00205 50S ribosomal pr	dRep_bin253_CPMOAOBJ_00205	CDS	rplE		50S ribosomal protein L5
CPMOAOBJ_00211	26.32024	25.762249999999998	25.92628	25.658950000000004	25.55529	25.504850000000005		25.82065				1	1	1,2037E-05	dRep_bin253_CPMOAOBJ_00211;dRep_bin231_CFOLMJBA_01077;dRep_bin182_EMCFODCD_00188;dRep_bin044_IPFKHAEF_01458;dRep_bin286_OEMIJKMC_00077	dRep_bin253_CPMOAOBJ_00211;dRep_bin231_CFOLMJBA_01077;dRep_bin182_EMCFODCD_00188;dRep_bin044_IPFKHAEF_01458;dRep_bin286_OEMIJKMC_00077	>dRep_bin253_CPMOAOBJ_00211 30S ribosomal protein S3;>dRep_bin231_CFOLMJBA_01077 30S ribosomal protein S3;>dRep_bin182_EMCFODCD_00188 30S ribosomal protein S3;>dRep_bin044_IPFKHAEF_01458 30S ribosomal protein S3;>dRep_bin286_OEMIJKMC_00077 30S ribosomal pr	dRep_bin253_CPMOAOBJ_00211	CDS	rpsC		30S ribosomal protein S3
CPMOAOBJ_00213							27.04145					8	0	3,6665E-54	dRep_bin135_HHKACLPM_00482;dRep_bin308_JBPDGLPP_01108;dRep_bin186_HJAAFFNP_00336;dRep_bin127_FIPNHBCH_00030;dRep_bin328_GIGKNKPJ_01343;dRep_bin065_DFABHCBI_01275;dRep_bin001_GHHJMDAL_00750;dRep_bin062_BOFBFLDA_00727;dRep_bin158_OGFICEAP_00611;dRep_bin211_LGJEFJIK_00743;dRep_bin260_HELEPKJL_01348;dRep_bin234_ECABPBME_00125;dRep_bin115_IFKGOGCL_00642;dRep_bin088_DNGPPFDK_00693;dRep_bin001_GHHJMDAL_01427;dRep_bin253_CPMOAOBJ_00213;dRep_bin150_HCDEOBMH_00592;dRep_bin057_BNCFHBBO_00183;dRep_bin299_AKNBKJGM_01127;dRep_bin216_JNJMCPHB_00024;dRep_bin085_MBHLGCDB_00710;dRep_bin286_OEMIJKMC_00079;dRep_bin231_CFOLMJBA_01079;dRep_bin172_ALNHGLMD_00777;dRep_bin182_EMCFODCD_00190;dRep_bin058_GJKCICJN_00161;dRep_bin044_IPFKHAEF_01460;dRep_bin283_NLJJFFAC_00217	dRep_bin135_HHKACLPM_00482;dRep_bin308_JBPDGLPP_01108;dRep_bin186_HJAAFFNP_00336;dRep_bin127_FIPNHBCH_00030;dRep_bin328_GIGKNKPJ_01343;dRep_bin065_DFABHCBI_01275;dRep_bin001_GHHJMDAL_00750;dRep_bin062_BOFBFLDA_00727;dRep_bin158_OGFICEAP_00611;dRep_bin211_LGJEFJIK_00743	>dRep_bin135_HHKACLPM_00482 30S ribosomal protein S19;>dRep_bin308_JBPDGLPP_01108 30S ribosomal protein S19;>dRep_bin186_HJAAFFNP_00336 30S ribosomal protein S19;>dRep_bin127_FIPNHBCH_00030 30S ribosomal protein S19;>dRep_bin328_GIGKNKPJ_01343 30S ribosoma	dRep_bin253_CPMOAOBJ_00213	CDS	rpsS		30S ribosomal protein S19
CPMOAOBJ_00214					25.860719999999997							2	1	4,7283E-09	dRep_bin253_CPMOAOBJ_00214	dRep_bin253_CPMOAOBJ_00214	>dRep_bin253_CPMOAOBJ_00214 50S ribosomal protein L2	dRep_bin253_CPMOAOBJ_00214	CDS	rplB		50S ribosomal protein L2
CPMOAOBJ_00269	26.37744	25.97399	26.81323	26.86124	27.34866	27.342399999999998	27.334750000000003	27.569499999999998				5	1	5,0378E-27	dRep_bin143_PFLDJMPF_00290;dRep_bin293_MEPKGOAN_01524;dRep_bin347_EKGCMFPD_01183;dRep_bin201_OLKDIBOK_00232;dRep_bin031_BNHMFOII_00394;dRep_bin344_CJJBDGAA_02115;dRep_bin303_DDDNDJCF_01571;dRep_bin027_OFJCHLJJ_00404;dRep_bin339_DBNBAHDK_00300;dRep_bin049_MNFBDPNO_01583;dRep_bin350_EKOOEEGH_01042;dRep_bin277_MIPNGEJE_00279;dRep_bin309_BIOHLCGG_01215;dRep_bin247_EKGBJCBM_01321;dRep_bin115_IFKGOGCL_01117;dRep_bin056_EMNHHOJA_00506;dRep_bin048_PABMBHAL_01302;dRep_bin253_CPMOAOBJ_00269;dRep_bin335_JIOGNAPG_01506;dRep_bin310_IMBAFDIF_00163;dRep_bin139_KGAJINND_00868;dRep_bin019_MOJEPLJF_01034;dRep_bin005_CNDFPKJG_00855;dRep_bin144_NPHACCKF_00198;dRep_bin094_LBLICAAO_01300;dRep_bin278_BFCONKOE_00967	dRep_bin143_PFLDJMPF_00290;dRep_bin293_MEPKGOAN_01524;dRep_bin347_EKGCMFPD_01183;dRep_bin201_OLKDIBOK_00232;dRep_bin031_BNHMFOII_00394;dRep_bin344_CJJBDGAA_02115;dRep_bin303_DDDNDJCF_01571;dRep_bin027_OFJCHLJJ_00404;dRep_bin339_DBNBAHDK_00300;dRep_bin049_MNFBDPNO_01583	>dRep_bin143_PFLDJMPF_00290 Serine--tRNA ligase;>dRep_bin293_MEPKGOAN_01524 Serine--tRNA ligase;>dRep_bin347_EKGCMFPD_01183 Serine--tRNA ligase;>dRep_bin201_OLKDIBOK_00232 Serine--tRNA ligase;>dRep_bin031_BNHMFOII_00394 Serine--tRNA ligase;>dRep_bin344_CJJ	dRep_bin253_CPMOAOBJ_00269	CDS	serS	6.1.1.11	Serine--tRNA ligase
CPMOAOBJ_00272					22.60361	20.743119999999998		20.7275				2	2	5,0518E-07	dRep_bin253_CPMOAOBJ_00272	dRep_bin253_CPMOAOBJ_00272	>dRep_bin253_CPMOAOBJ_00272 Oligopeptide-binding protein OppA	dRep_bin253_CPMOAOBJ_00272	CDS	oppA		Oligopeptide-binding protein OppA
CPMOAOBJ_00330					24.331010000000003	22.71773	24.458009999999998	24.37584				2	2	1,2703E-16	dRep_bin253_CPMOAOBJ_00330	dRep_bin253_CPMOAOBJ_00330	>dRep_bin253_CPMOAOBJ_00330 Inosose dehydratase	dRep_bin253_CPMOAOBJ_00330	CDS	iolE_1	4.2.1.44	Inosose dehydratase
CPMOAOBJ_00336					24.154910000000005							1	1	4,8228E-07	dRep_bin253_CPMOAOBJ_00336	dRep_bin253_CPMOAOBJ_00336	>dRep_bin253_CPMOAOBJ_00336 Inosose dehydratase	dRep_bin253_CPMOAOBJ_00336	CDS	iolE_2	4.2.1.44	Inosose dehydratase
CPMOAOBJ_00337	27.845119999999998		25.760559999999998	27.35052	28.472779999999997	27.343329999999998	28.95424	27.936739999999997				9	8	1,3054E-289	dRep_bin253_CPMOAOBJ_00337;dRep_bin166_DFIAJFEC_01122	dRep_bin253_CPMOAOBJ_00337	>dRep_bin253_CPMOAOBJ_00337 Glucose--fructose oxidoreductase	dRep_bin253_CPMOAOBJ_00337	CDS	gfo_1	1.1.99.28	Glucose--fructose oxidoreductase
CPMOAOBJ_00364	24.3765											1	1	9,3926E-06	dRep_bin253_CPMOAOBJ_00364	dRep_bin253_CPMOAOBJ_00364	>dRep_bin253_CPMOAOBJ_00364 Enolase	dRep_bin253_CPMOAOBJ_00364	CDS	eno	4.2.1.11	Enolase
CPMOAOBJ_00365					23.96737							1	1	1,9054E-48	dRep_bin253_CPMOAOBJ_00365	dRep_bin253_CPMOAOBJ_00365	>dRep_bin253_CPMOAOBJ_00365 Inosose dehydratase	dRep_bin253_CPMOAOBJ_00365	CDS	iolE_3	4.2.1.44	Inosose dehydratase
CPMOAOBJ_00404						24.440759999999997		25.269739999999995				3	3	7,2828E-05	dRep_bin053_OMGNPOOB_00621;dRep_bin299_AKNBKJGM_01067;dRep_bin272_LGBDGEIM_00184;dRep_bin021_AJDDCGJC_01140;dRep_bin216_JNJMCPHB_01827;dRep_bin317_ABPHNCOD_01209;dRep_bin160_EFKMPBOM_02597;dRep_bin154_JGOKHKLI_02624;dRep_bin097_CBBLIPAN_00573;dRep_bin337_FHKPNFDB_00161;dRep_bin282_PKAAPBFP_01348;dRep_bin143_PFLDJMPF_00993;dRep_bin169_PNICKJKO_00207;dRep_bin032_PPNIGLME_00759;dRep_bin005_CNDFPKJG_01409;dRep_bin116_CLFDBMOF_00895;dRep_bin150_HCDEOBMH_00869;dRep_bin253_CPMOAOBJ_00404	dRep_bin053_OMGNPOOB_00621;dRep_bin299_AKNBKJGM_01067;dRep_bin272_LGBDGEIM_00184;dRep_bin021_AJDDCGJC_01140;dRep_bin216_JNJMCPHB_01827	>dRep_bin053_OMGNPOOB_00621 Argininosuccinate synthase;>dRep_bin299_AKNBKJGM_01067 Argininosuccinate synthase;>dRep_bin272_LGBDGEIM_00184 Argininosuccinate synthase;>dRep_bin021_AJDDCGJC_01140 Argininosuccinate synthase;>dRep_bin216_JNJMCPHB_01827 Arginino	dRep_bin253_CPMOAOBJ_00404	CDS	argG	6.3.4.5	Argininosuccinate synthase
CPMOAOBJ_00411						25.601300000000002						3	1	6,8547E-10	dRep_bin082_HBEFABJN_00977;dRep_bin253_CPMOAOBJ_00411;dRep_bin318_IEDEJOFJ_01183;dRep_bin102_ICFDHPGB_01117;dRep_bin349_AMCJEEEG_01437;dRep_bin277_MIPNGEJE_00445;dRep_bin116_CLFDBMOF_00363;dRep_bin242_LKAIBGGJ_01155	dRep_bin082_HBEFABJN_00977;dRep_bin253_CPMOAOBJ_00411;dRep_bin318_IEDEJOFJ_01183	>dRep_bin082_HBEFABJN_00977 Chaperone protein HtpG;>dRep_bin253_CPMOAOBJ_00411 Chaperone protein HtpG;>dRep_bin318_IEDEJOFJ_01183 Chaperone protein HtpG	dRep_bin253_CPMOAOBJ_00411	CDS	htpG		Chaperone protein HtpG
CPMOAOBJ_00433					26.191460000000003							2	1	3,5291E-06	dRep_bin253_CPMOAOBJ_00433	dRep_bin253_CPMOAOBJ_00433	>dRep_bin253_CPMOAOBJ_00433 Phosphoenolpyruvate carboxykinase [GTP]	dRep_bin253_CPMOAOBJ_00433	CDS	pckG	4.1.1.32	Phosphoenolpyruvate carboxykinase [GTP]
CPMOAOBJ_00442		24.760609999999996										1	1	1,3462E-05	dRep_bin253_CPMOAOBJ_00442	dRep_bin253_CPMOAOBJ_00442	>dRep_bin253_CPMOAOBJ_00442 putative peptidyl-prolyl cis-trans isomerase	dRep_bin253_CPMOAOBJ_00442	CDS	ppiB	5.2.1.8	putative peptidyl-prolyl cis-trans isomerase
CPMOAOBJ_00446	23.339190000000002			25.50018	26.857210000000002	25.17154	25.03069	24.31576				4	4	2,4798E-16	dRep_bin201_OLKDIBOK_00002;dRep_bin260_HELEPKJL_01692;dRep_bin194_MEPDOGGJ_00071;dRep_bin124_HIHDFGCL_00655;dRep_bin025_CBEJJMLE_00037;dRep_bin181_MKGPMPIA_01164;dRep_bin127_FIPNHBCH_01402;dRep_bin056_EMNHHOJA_01420;dRep_bin026_HNPIIINL_00980;dRep_bin253_CPMOAOBJ_00446;dRep_bin248_CCDFPECI_00832;dRep_bin016_JLGAHGOJ_01875	dRep_bin201_OLKDIBOK_00002;dRep_bin260_HELEPKJL_01692	>dRep_bin201_OLKDIBOK_00002 Intracellular exo-alpha-(1->5)-L-arabinofuranosidase;>dRep_bin260_HELEPKJL_01692 Intracellular exo-alpha-(1->5)-L-arabinofuranosidase	dRep_bin253_CPMOAOBJ_00446	CDS		3.2.1.55	Intracellular exo-alpha-(1->5)-L-arabinofuranosidase
CPMOAOBJ_00452					23.40015							1	1	2,6642E-05	dRep_bin253_CPMOAOBJ_00452	dRep_bin253_CPMOAOBJ_00452	>dRep_bin253_CPMOAOBJ_00452 2-iminobutanoate/2-iminopropanoate deaminase	dRep_bin253_CPMOAOBJ_00452	CDS	yabJ	3.5.99.10	2-iminobutanoate/2-iminopropanoate deaminase
CPMOAOBJ_00469					23.07164			22.39034				2	2	0,00059594	dRep_bin253_CPMOAOBJ_00469	dRep_bin253_CPMOAOBJ_00469	>dRep_bin253_CPMOAOBJ_00469 putative oxidoreductase/MSMEI_2347	dRep_bin253_CPMOAOBJ_00469	CDS		1.-.-.-	putative oxidoreductase/MSMEI_2347
CPMOAOBJ_00549		26.583769999999998	26.63256	26.92897	27.759639999999997	28.188529999999997	26.748299999999997	26.963339999999995				5	2	2,6716E-44	dRep_bin253_CPMOAOBJ_00549	dRep_bin253_CPMOAOBJ_00549	>dRep_bin253_CPMOAOBJ_00549 Bifunctional purine biosynthesis protein PurH	dRep_bin253_CPMOAOBJ_00549	CDS	purH		Bifunctional purine biosynthesis protein PurH
CPMOAOBJ_00594								24.445939999999997				3	1	1,2536E-20	dRep_bin193_GDMDPNNM_01335;dRep_bin194_MEPDOGGJ_00909;dRep_bin152_LJMCIADF_01136;dRep_bin124_HIHDFGCL_01283;dRep_bin101_BNDDLDCL_01786;dRep_bin079_GAOGCKND_00249;dRep_bin068_ENOLAELK_01480;dRep_bin038_EIGFILKG_00281;dRep_bin025_CBEJJMLE_00745;dRep_bin286_OEMIJKMC_00443;dRep_bin231_CFOLMJBA_00984;dRep_bin172_ALNHGLMD_00252;dRep_bin142_NDNPJBEM_00885;dRep_bin126_PPDNCIBN_01642;dRep_bin090_IPGNHCBJ_00359;dRep_bin321_EJNAAGJG_00108;dRep_bin273_FGAEBHNP_01040;dRep_bin323_FBBLPLCG_00442;dRep_bin309_BIOHLCGG_00720;dRep_bin268_LKMHIMLG_00991;dRep_bin166_DFIAJFEC_01338;dRep_bin143_PFLDJMPF_01113;dRep_bin108_BPNCDINP_00985;dRep_bin056_EMNHHOJA_01394;dRep_bin026_HNPIIINL_00248;dRep_bin006_HPJGJCAG_00021;dRep_bin340_OFLHNGJM_01045;dRep_bin270_GEJAHNCN_00054;dRep_bin182_EMCFODCD_00202;dRep_bin044_IPFKHAEF_00804;dRep_bin354_MMOALAFN_00312;dRep_bin253_CPMOAOBJ_00594;dRep_bin074_EHAOMODJ_00802;dRep_bin049_MNFBDPNO_00646;dRep_bin257_JHFDCHCB_00163;dRep_bin336_MPGOKPOL_00030;dRep_bin169_PNICKJKO_01093;dRep_bin147_EJLBNEBE_00336;dRep_bin123_PJKBFKBB_00356;dRep_bin032_PPNIGLME_01273;dRep_bin293_MEPKGOAN_00625	dRep_bin193_GDMDPNNM_01335;dRep_bin194_MEPDOGGJ_00909;dRep_bin152_LJMCIADF_01136;dRep_bin124_HIHDFGCL_01283;dRep_bin101_BNDDLDCL_01786;dRep_bin079_GAOGCKND_00249;dRep_bin068_ENOLAELK_01480;dRep_bin038_EIGFILKG_00281;dRep_bin025_CBEJJMLE_00745;dRep_bin286_OEMIJKMC_00443;dRep_bin231_CFOLMJBA_00984;dRep_bin172_ALNHGLMD_00252;dRep_bin142_NDNPJBEM_00885;dRep_bin126_PPDNCIBN_01642;dRep_bin090_IPGNHCBJ_00359	>dRep_bin193_GDMDPNNM_01335 HPr-like protein Crh;>dRep_bin194_MEPDOGGJ_00909 HPr-like protein Crh;>dRep_bin152_LJMCIADF_01136 HPr-like protein Crh;>dRep_bin124_HIHDFGCL_01283 HPr-like protein Crh;>dRep_bin101_BNDDLDCL_01786 HPr-like protein Crh;>dRep_bin07	dRep_bin253_CPMOAOBJ_00594	CDS	crh		HPr-like protein Crh
CPMOAOBJ_00601	23.498749999999998	23.41377	23.664050000000003	25.007910000000003								4	3	8,0566E-12	dRep_bin292_JIBLDOOH_01418;dRep_bin303_DDDNDJCF_00505;dRep_bin077_DNNBMPMC_00941;dRep_bin152_LJMCIADF_01123;dRep_bin124_HIHDFGCL_00335;dRep_bin079_GAOGCKND_00643;dRep_bin068_ENOLAELK_01078;dRep_bin038_EIGFILKG_00380;dRep_bin309_BIOHLCGG_00617;dRep_bin194_MEPDOGGJ_00286;dRep_bin025_CBEJJMLE_00539;dRep_bin247_EKGBJCBM_00804;dRep_bin253_CPMOAOBJ_00601;dRep_bin169_PNICKJKO_01110;dRep_bin123_PJKBFKBB_01254;dRep_bin306_FGHMKMMP_00717;dRep_bin293_MEPKGOAN_00676;dRep_bin257_JHFDCHCB_01083;dRep_bin249_OFIIEIDJ_00213;dRep_bin157_JPNIKEKI_01818;dRep_bin085_MBHLGCDB_01586;dRep_bin319_PBDBJGCJ_01316;dRep_bin300_MJPPENNL_01694;dRep_bin282_PKAAPBFP_01497;dRep_bin220_PILICLLL_01502;dRep_bin209_NKIHFCEN_00711;dRep_bin179_HFEIPPPA_01156;dRep_bin166_DFIAJFEC_01129;dRep_bin160_EFKMPBOM_01097;dRep_bin154_JGOKHKLI_00129;dRep_bin088_DNGPPFDK_00244;dRep_bin075_EPEMMOCL_01534;dRep_bin069_EGGEOGDC_00523;dRep_bin344_CJJBDGAA_01343;dRep_bin324_IPNHOHFK_02132;dRep_bin310_IMBAFDIF_01633;dRep_bin297_EDHEEICA_00782;dRep_bin269_PNILGKPH_01786;dRep_bin248_CCDFPECI_00995;dRep_bin226_NLNLHLLD_00535;dRep_bin203_CLFNNOCF_00636;dRep_bin168_HKDILBFE_00313;dRep_bin139_KGAJINND_00724;dRep_bin133_NOBPDBPA_02650;dRep_bin099_DNDAGJEJ_01464;dRep_bin091_MAFACGAD_00915;dRep_bin007_LNLEAAAN_01209;dRep_bin260_HELEPKJL_00482;dRep_bin186_HJAAFFNP_01391;dRep_bin115_IFKGOGCL_02481;dRep_bin039_IJNOFOJK_00485;dRep_bin354_MMOALAFN_01391;dRep_bin261_FJICAFFM_01132;dRep_bin336_MPGOKPOL_01187;dRep_bin095_HOBNOEEF_00148;dRep_bin348_LCLFDNEE_00586;dRep_bin125_FADLGGII_01253;dRep_bin089_PAJFOJBN_00918;dRep_bin277_MIPNGEJE_00466	dRep_bin292_JIBLDOOH_01418;dRep_bin303_DDDNDJCF_00505	>dRep_bin292_JIBLDOOH_01418 Putative aminotransferase/MSMEI_6121;>dRep_bin303_DDDNDJCF_00505 Putative aminotransferase/MSMEI_6121	dRep_bin253_CPMOAOBJ_00601	CDS			Putative aminotransferase/MSMEI_6121
CPMOAOBJ_00729					25.76729							6	0	4,3301E-298	dRep_bin253_CPMOAOBJ_00729;dRep_bin321_EJNAAGJG_00882;dRep_bin354_MMOALAFN_00452	dRep_bin253_CPMOAOBJ_00729	>dRep_bin253_CPMOAOBJ_00729 NifU_clost: FeS cluster assembly scaffold protein NifU	dRep_bin253_CPMOAOBJ_00729	CDS			NifU_clost: FeS cluster assembly scaffold protein NifU
CPMOAOBJ_00730					25.458579999999998		25.27427	25.078139999999998				8	3	5,7236E-31	dRep_bin253_CPMOAOBJ_00730	dRep_bin253_CPMOAOBJ_00730	>dRep_bin253_CPMOAOBJ_00730 GGGtGRT protein	dRep_bin253_CPMOAOBJ_00730	CDS			GGGtGRT protein
CPMOAOBJ_00737					25.211890000000004	25.339260000000003	26.12879	25.574070000000003				3	1	2,9195E-08	dRep_bin286_OEMIJKMC_01056;dRep_bin231_CFOLMJBA_01394;dRep_bin126_PPDNCIBN_01281;dRep_bin182_EMCFODCD_00271;dRep_bin044_IPFKHAEF_01245;dRep_bin143_PFLDJMPF_00478;dRep_bin193_GDMDPNNM_00467;dRep_bin172_ALNHGLMD_00257;dRep_bin257_JHFDCHCB_01356;dRep_bin166_DFIAJFEC_00278;dRep_bin101_BNDDLDCL_00093;dRep_bin309_BIOHLCGG_01620;dRep_bin293_MEPKGOAN_01598;dRep_bin056_EMNHHOJA_00250;dRep_bin026_HNPIIINL_00271;dRep_bin253_CPMOAOBJ_00737;dRep_bin161_JMKPMHCO_00827	dRep_bin286_OEMIJKMC_01056;dRep_bin231_CFOLMJBA_01394;dRep_bin126_PPDNCIBN_01281;dRep_bin182_EMCFODCD_00271;dRep_bin044_IPFKHAEF_01245;dRep_bin143_PFLDJMPF_00478;dRep_bin193_GDMDPNNM_00467;dRep_bin172_ALNHGLMD_00257;dRep_bin257_JHFDCHCB_01356;dRep_bin166_DFIAJFEC_00278;dRep_bin101_BNDDLDCL_00093;dRep_bin309_BIOHLCGG_01620;dRep_bin293_MEPKGOAN_01598;dRep_bin056_EMNHHOJA_00250;dRep_bin026_HNPIIINL_00271;dRep_bin253_CPMOAOBJ_00737	>dRep_bin286_OEMIJKMC_01056 Acetate kinase;>dRep_bin231_CFOLMJBA_01394 Acetate kinase;>dRep_bin126_PPDNCIBN_01281 Acetate kinase;>dRep_bin182_EMCFODCD_00271 Acetate kinase;>dRep_bin044_IPFKHAEF_01245 Acetate kinase;>dRep_bin143_PFLDJMPF_00478 Acetate kinas	dRep_bin253_CPMOAOBJ_00737	CDS	ackA	2.7.2.1	Acetate kinase
CPMOAOBJ_00796					27.061880000000002	23.999719999999996	26.1412	24.621480000000002				5	4	2,6144E-19	dRep_bin253_CPMOAOBJ_00796	dRep_bin253_CPMOAOBJ_00796	>dRep_bin253_CPMOAOBJ_00796 Phosphoglycerate kinase	dRep_bin253_CPMOAOBJ_00796	CDS	pgk	2.7.2.3	Phosphoglycerate kinase
CPMOAOBJ_00803					24.291719999999998		23.77666	23.521810000000002				4	3	2,6155E-11	dRep_bin253_CPMOAOBJ_00803	dRep_bin253_CPMOAOBJ_00803	>dRep_bin253_CPMOAOBJ_00803 putative D,D-dipeptide-binding periplasmic protein DdpA	dRep_bin253_CPMOAOBJ_00803	CDS	ddpA		putative D,D-dipeptide-binding periplasmic protein DdpA
CPMOAOBJ_00833					23.945209999999996		23.41712	22.874460000000003				3	3	9,6682E-08	dRep_bin253_CPMOAOBJ_00833	dRep_bin253_CPMOAOBJ_00833	>dRep_bin253_CPMOAOBJ_00833 Glucose-6-phosphate isomerase B	dRep_bin253_CPMOAOBJ_00833	CDS	pgiB	5.3.1.9	Glucose-6-phosphate isomerase B
CPMOAOBJ_00875	26.357850000000006	26.35671	26.91056	27.442689999999995	27.565649999999998	26.268909999999998	27.855729999999998	26.992369999999998				6	0	1,6744E-13	dRep_bin220_PILICLLL_00989;dRep_bin016_JLGAHGOJ_00301;dRep_bin260_HELEPKJL_01949;dRep_bin024_OLHDGABE_01286;dRep_bin068_ENOLAELK_00820;dRep_bin056_EMNHHOJA_00968;dRep_bin026_HNPIIINL_01362;dRep_bin253_CPMOAOBJ_00875;dRep_bin145_KMJJJOEJ_00851;dRep_bin344_CJJBDGAA_02006;dRep_bin278_BFCONKOE_01078;dRep_bin269_PNILGKPH_01415;dRep_bin240_LDBBGJKG_01602;dRep_bin065_DFABHCBI_01421;dRep_bin158_OGFICEAP_01010	dRep_bin220_PILICLLL_00989;dRep_bin016_JLGAHGOJ_00301	>dRep_bin220_PILICLLL_00989 Elongation factor G;>dRep_bin016_JLGAHGOJ_00301 Elongation factor G	dRep_bin253_CPMOAOBJ_00875	CDS	fus		Elongation factor G
CPMOAOBJ_00994	28.672970000000003	27.38936	26.40028	28.005599999999998	27.604980000000005	26.492639999999994	27.41756	26.285489999999996				6	1	4,2764E-135	dRep_bin253_CPMOAOBJ_00994;dRep_bin282_PKAAPBFP_00014;dRep_bin339_DBNBAHDK_01270	dRep_bin253_CPMOAOBJ_00994	>dRep_bin253_CPMOAOBJ_00994 Fructose-bisphosphate aldolase	dRep_bin253_CPMOAOBJ_00994	CDS	fba	4.1.2.13	Fructose-bisphosphate aldolase
CPMOAOBJ_01057								20.52736				1	1	6,7921E-05	dRep_bin253_CPMOAOBJ_01057	dRep_bin253_CPMOAOBJ_01057	>dRep_bin253_CPMOAOBJ_01057 hypothetical protein	dRep_bin253_CPMOAOBJ_01057	CDS			hypothetical protein
CPMOAOBJ_01069	22.016990000000003											2	1	3,602E-07	dRep_bin253_CPMOAOBJ_01069	dRep_bin253_CPMOAOBJ_01069	>dRep_bin253_CPMOAOBJ_01069 Formate acetyltransferase	dRep_bin253_CPMOAOBJ_01069	CDS	pflB	2.3.1.54	Formate acetyltransferase
CPMOAOBJ_01120					20.400519999999997							1	1	0,0074778	dRep_bin266_JFOCEDAE_00832;dRep_bin201_OLKDIBOK_00919;dRep_bin134_HIAPAODO_01516;dRep_bin062_BOFBFLDA_00036;dRep_bin047_IFFANOMN_01224;dRep_bin016_JLGAHGOJ_01130;dRep_bin253_CPMOAOBJ_01120;dRep_bin027_OFJCHLJJ_00760	dRep_bin266_JFOCEDAE_00832;dRep_bin201_OLKDIBOK_00919;dRep_bin134_HIAPAODO_01516;dRep_bin062_BOFBFLDA_00036;dRep_bin047_IFFANOMN_01224;dRep_bin016_JLGAHGOJ_01130;dRep_bin253_CPMOAOBJ_01120;dRep_bin027_OFJCHLJJ_00760	>dRep_bin266_JFOCEDAE_00832 Anaerobic sulfite reductase subunit B;>dRep_bin201_OLKDIBOK_00919 Anaerobic sulfite reductase subunit B;>dRep_bin134_HIAPAODO_01516 Anaerobic sulfite reductase subunit B;>dRep_bin062_BOFBFLDA_00036 Anaerobic sulfite reductase su	dRep_bin253_CPMOAOBJ_01120	CDS	asrB		Anaerobic sulfite reductase subunit B
CPMOAOBJ_01191	22.442129999999995		23.827260000000003	22.52984	24.373910000000002	23.1697	24.233810000000002	23.283759999999997				3	2	1,2032E-19	dRep_bin201_OLKDIBOK_02152;dRep_bin303_DDDNDJCF_00821;dRep_bin134_HIAPAODO_01657;dRep_bin287_DONBGKDH_00415;dRep_bin158_OGFICEAP_00108;dRep_bin257_JHFDCHCB_00470;dRep_bin323_FBBLPLCG_00211;dRep_bin169_PNICKJKO_00577;dRep_bin056_EMNHHOJA_00890;dRep_bin024_OLHDGABE_01284;dRep_bin066_AJACLPEE_00551;dRep_bin254_GJDPFAEA_01693;dRep_bin207_OHNPDPFI_01049;dRep_bin151_AHBJLMBI_00266;dRep_bin119_AKFBCGDO_00602;dRep_bin081_JDPCKDNP_00442;dRep_bin027_OFJCHLJJ_00341;dRep_bin009_KMMEHEKA_00446;dRep_bin322_OJELOJOF_01023;dRep_bin321_EJNAAGJG_00651;dRep_bin282_PKAAPBFP_01369;dRep_bin273_FGAEBHNP_01231;dRep_bin016_JLGAHGOJ_00303;dRep_bin147_EJLBNEBE_01876;dRep_bin026_HNPIIINL_01011;dRep_bin309_BIOHLCGG_00817;dRep_bin253_CPMOAOBJ_01191;dRep_bin278_BFCONKOE_00460;dRep_bin227_IJODGBOI_00814;dRep_bin220_PILICLLL_00789	dRep_bin201_OLKDIBOK_02152;dRep_bin303_DDDNDJCF_00821;dRep_bin134_HIAPAODO_01657;dRep_bin287_DONBGKDH_00415;dRep_bin158_OGFICEAP_00108;dRep_bin257_JHFDCHCB_00470;dRep_bin323_FBBLPLCG_00211;dRep_bin169_PNICKJKO_00577;dRep_bin056_EMNHHOJA_00890;dRep_bin024_OLHDGABE_01284	>dRep_bin201_OLKDIBOK_02152 Leucine--tRNA ligase;>dRep_bin303_DDDNDJCF_00821 Leucine--tRNA ligase;>dRep_bin134_HIAPAODO_01657 Leucine--tRNA ligase;>dRep_bin287_DONBGKDH_00415 Leucine--tRNA ligase;>dRep_bin158_OGFICEAP_00108 Leucine--tRNA ligase;>dRep_bin25	dRep_bin253_CPMOAOBJ_01191	CDS	leuS	6.1.1.4	Leucine--tRNA ligase
CPMOAOBJ_01227					23.054820000000003			22.761519999999997				8	1	9,0927E-144	dRep_bin253_CPMOAOBJ_01227	dRep_bin253_CPMOAOBJ_01227	>dRep_bin253_CPMOAOBJ_01227 Ketol-acid reductoisomerase (NADP(+))	dRep_bin253_CPMOAOBJ_01227	CDS	ilvC	1.1.1.86	Ketol-acid reductoisomerase (NADP(+))
CPMOAOBJ_01318					25.34028							2	1	0,0002105	dRep_bin253_CPMOAOBJ_01318	dRep_bin253_CPMOAOBJ_01318	>dRep_bin253_CPMOAOBJ_01318 Phosphoserine aminotransferase	dRep_bin253_CPMOAOBJ_01318	CDS	serC	2.6.1.52	Phosphoserine aminotransferase
CPMOAOBJ_01324					20.0547							2	1	5,6781E-06	dRep_bin253_CPMOAOBJ_01324	dRep_bin253_CPMOAOBJ_01324	>dRep_bin253_CPMOAOBJ_01324 Aspartate-semialdehyde dehydrogenase 2	dRep_bin253_CPMOAOBJ_01324	CDS	asd2	1.2.1.11	Aspartate-semialdehyde dehydrogenase 2
CPMOAOBJ_01331		21.25603			22.842589999999998			22.8121				2	1	4,0939E-88	dRep_bin240_LDBBGJKG_00098;dRep_bin031_BNHMFOII_01241;dRep_bin142_NDNPJBEM_01312;dRep_bin248_CCDFPECI_01700;dRep_bin169_PNICKJKO_01291;dRep_bin257_JHFDCHCB_00613;dRep_bin322_OJELOJOF_00807;dRep_bin193_GDMDPNNM_00140;dRep_bin124_HIHDFGCL_00177;dRep_bin079_GAOGCKND_00330;dRep_bin068_ENOLAELK_00170;dRep_bin266_JFOCEDAE_01509;dRep_bin160_EFKMPBOM_01717;dRep_bin154_JGOKHKLI_02113;dRep_bin019_MOJEPLJF_00503;dRep_bin253_CPMOAOBJ_01331;dRep_bin056_EMNHHOJA_00831;dRep_bin335_JIOGNAPG_01465;dRep_bin152_LJMCIADF_01179;dRep_bin148_NAJFKJMD_01045;dRep_bin095_HOBNOEEF_01511;dRep_bin038_EIGFILKG_00469;dRep_bin243_JDMELKLC_00643;dRep_bin029_LFMGBBEC_01605;dRep_bin300_MJPPENNL_00271;dRep_bin279_IAEFEPEN_00816;dRep_bin159_ADJJGPBG_00093;dRep_bin143_PFLDJMPF_00341;dRep_bin205_LKIOOBKC_01861;dRep_bin135_HHKACLPM_01695	dRep_bin240_LDBBGJKG_00098;dRep_bin031_BNHMFOII_01241;dRep_bin142_NDNPJBEM_01312;dRep_bin248_CCDFPECI_01700;dRep_bin169_PNICKJKO_01291;dRep_bin257_JHFDCHCB_00613;dRep_bin322_OJELOJOF_00807;dRep_bin193_GDMDPNNM_00140;dRep_bin124_HIHDFGCL_00177;dRep_bin079_GAOGCKND_00330;dRep_bin068_ENOLAELK_00170;dRep_bin266_JFOCEDAE_01509;dRep_bin160_EFKMPBOM_01717;dRep_bin154_JGOKHKLI_02113;dRep_bin019_MOJEPLJF_00503;dRep_bin253_CPMOAOBJ_01331;dRep_bin056_EMNHHOJA_00831;dRep_bin335_JIOGNAPG_01465;dRep_bin152_LJMCIADF_01179;dRep_bin148_NAJFKJMD_01045;dRep_bin095_HOBNOEEF_01511;dRep_bin038_EIGFILKG_00469;dRep_bin243_JDMELKLC_00643;dRep_bin029_LFMGBBEC_01605;dRep_bin300_MJPPENNL_00271;dRep_bin279_IAEFEPEN_00816;dRep_bin159_ADJJGPBG_00093;dRep_bin143_PFLDJMPF_00341;dRep_bin205_LKIOOBKC_01861;dRep_bin135_HHKACLPM_01695	>dRep_bin240_LDBBGJKG_00098 Galactose-1-phosphate uridylyltransferase;>dRep_bin031_BNHMFOII_01241 Galactose-1-phosphate uridylyltransferase;>dRep_bin142_NDNPJBEM_01312 Galactose-1-phosphate uridylyltransferase;>dRep_bin248_CCDFPECI_01700 Galactose-1-phosph	dRep_bin253_CPMOAOBJ_01331	CDS	galT	2.7.7.12	Galactose-1-phosphate uridylyltransferase
CPMOAOBJ_01349								19.30779				1	1	0,001657	dRep_bin253_CPMOAOBJ_01349	dRep_bin253_CPMOAOBJ_01349	>dRep_bin253_CPMOAOBJ_01349 Transglutaminase-like superfamily protein	dRep_bin253_CPMOAOBJ_01349	CDS			Transglutaminase-like superfamily protein
CPMOAOBJ_01368							24.52946					1	1	0,00029514	dRep_bin253_CPMOAOBJ_01368	dRep_bin253_CPMOAOBJ_01368	>dRep_bin253_CPMOAOBJ_01368 Cold shock-like protein CspA	dRep_bin253_CPMOAOBJ_01368	CDS	cspA		Cold shock-like protein CspA
CPMOAOBJ_01374	27.56136	26.02718	27.366860000000003	27.54141	26.69591	27.25178	26.91365	25.956529999999997				9	3	1,4442E-123	dRep_bin253_CPMOAOBJ_01374	dRep_bin253_CPMOAOBJ_01374	>dRep_bin253_CPMOAOBJ_01374 60 kDa chaperonin	dRep_bin253_CPMOAOBJ_01374	CDS	groL		60 kDa chaperonin
CPMOAOBJ_01381					26.0053		26.22826					1	1	0,00013335	dRep_bin253_CPMOAOBJ_01381	dRep_bin253_CPMOAOBJ_01381	>dRep_bin253_CPMOAOBJ_01381 Thioredoxin-like [2Fe-2S] ferredoxin	dRep_bin253_CPMOAOBJ_01381	CDS			Thioredoxin-like [2Fe-2S] ferredoxin
CPMOAOBJ_01393					24.83268	25.958789999999997	25.005599999999998					2	2	9,5407E-14	dRep_bin344_CJJBDGAA_00523;dRep_bin057_BNCFHBBO_00358;dRep_bin019_MOJEPLJF_01089;dRep_bin269_PNILGKPH_01721;dRep_bin095_HOBNOEEF_00325;dRep_bin179_HFEIPPPA_00543;dRep_bin292_JIBLDOOH_01198;dRep_bin203_CLFNNOCF_02014;dRep_bin322_OJELOJOF_00079;dRep_bin243_JDMELKLC_00639;dRep_bin029_LFMGBBEC_00202;dRep_bin167_BLMEBMNN_00528;dRep_bin268_LKMHIMLG_00933;dRep_bin325_EIIGOGHN_00136;dRep_bin253_CPMOAOBJ_01393;dRep_bin248_CCDFPECI_01736;dRep_bin279_IAEFEPEN_01247;dRep_bin266_JFOCEDAE_01546;dRep_bin278_BFCONKOE_00220;dRep_bin041_OPKGAAAG_00997;dRep_bin127_FIPNHBCH_00169	dRep_bin344_CJJBDGAA_00523;dRep_bin057_BNCFHBBO_00358;dRep_bin019_MOJEPLJF_01089;dRep_bin269_PNILGKPH_01721;dRep_bin095_HOBNOEEF_00325;dRep_bin179_HFEIPPPA_00543;dRep_bin292_JIBLDOOH_01198;dRep_bin203_CLFNNOCF_02014;dRep_bin322_OJELOJOF_00079;dRep_bin243_JDMELKLC_00639;dRep_bin029_LFMGBBEC_00202;dRep_bin167_BLMEBMNN_00528;dRep_bin268_LKMHIMLG_00933;dRep_bin325_EIIGOGHN_00136;dRep_bin253_CPMOAOBJ_01393;dRep_bin248_CCDFPECI_01736;dRep_bin279_IAEFEPEN_01247;dRep_bin266_JFOCEDAE_01546;dRep_bin278_BFCONKOE_00220;dRep_bin041_OPKGAAAG_00997;dRep_bin127_FIPNHBCH_00169	>dRep_bin344_CJJBDGAA_00523 Sirohydrochlorin cobaltochelatase;>dRep_bin057_BNCFHBBO_00358 Sirohydrochlorin cobaltochelatase;>dRep_bin019_MOJEPLJF_01089 Sirohydrochlorin cobaltochelatase;>dRep_bin269_PNILGKPH_01721 Sirohydrochlorin cobaltochelatase;>dRep_bi	dRep_bin253_CPMOAOBJ_01393	CDS	cbiK	4.99.1.3	Sirohydrochlorin cobaltochelatase
CPMOAOBJ_01445					26.09945	25.333950000000005	26.02745					2	2	7,4273E-07	dRep_bin253_CPMOAOBJ_01445	dRep_bin253_CPMOAOBJ_01445	>dRep_bin253_CPMOAOBJ_01445 Beta-1,4-mannooligosaccharide phosphorylase	dRep_bin253_CPMOAOBJ_01445	CDS		2.4.1.319	Beta-1,4-mannooligosaccharide phosphorylase
CPMOAOBJ_01532					26.7366	25.45466	25.41848	25.60003				3	1	2,6269E-12	dRep_bin269_PNILGKPH_01424;dRep_bin209_NKIHFCEN_01710;dRep_bin253_CPMOAOBJ_01532;dRep_bin087_FCLGAPPI_00738	dRep_bin269_PNILGKPH_01424;dRep_bin209_NKIHFCEN_01710	>dRep_bin269_PNILGKPH_01424 Aldehyde-alcohol dehydrogenase;>dRep_bin209_NKIHFCEN_01710 Aldehyde-alcohol dehydrogenase	dRep_bin253_CPMOAOBJ_01532	CDS	adhE		Aldehyde-alcohol dehydrogenase
CPMOAOBJ_01534	27.22656	25.469639999999995	27.139560000000003	26.76989								3	0	2,5341E-17	dRep_bin074_EHAOMODJ_00357;dRep_bin335_JIOGNAPG_00060;dRep_bin234_ECABPBME_00543;dRep_bin185_OOOLKACK_00415;dRep_bin095_HOBNOEEF_01010;dRep_bin194_MEPDOGGJ_00068;dRep_bin025_CBEJJMLE_00034;dRep_bin282_PKAAPBFP_01136;dRep_bin260_HELEPKJL_01581;dRep_bin135_HHKACLPM_00020;dRep_bin047_IFFANOMN_01119;dRep_bin049_MNFBDPNO_00067;dRep_bin268_LKMHIMLG_00651;dRep_bin303_DDDNDJCF_00095;dRep_bin248_CCDFPECI_00722;dRep_bin243_JDMELKLC_00605;dRep_bin340_OFLHNGJM_00522;dRep_bin109_MJABCPAK_00884;dRep_bin087_FCLGAPPI_00696;dRep_bin160_EFKMPBOM_01056;dRep_bin154_JGOKHKLI_00096;dRep_bin354_MMOALAFN_01723;dRep_bin349_AMCJEEEG_01213;dRep_bin116_CLFDBMOF_00907;dRep_bin347_EKGCMFPD_01393;dRep_bin001_GHHJMDAL_01273;dRep_bin247_EKGBJCBM_00529;dRep_bin254_GJDPFAEA_00457;dRep_bin145_KMJJJOEJ_01456;dRep_bin322_OJELOJOF_01191;dRep_bin336_MPGOKPOL_00223;dRep_bin147_EJLBNEBE_01602;dRep_bin134_HIAPAODO_02129;dRep_bin062_BOFBFLDA_00221;dRep_bin332_KAOPCDPF_00824;dRep_bin253_CPMOAOBJ_01534;dRep_bin114_FJHJKHGL_01331;dRep_bin352_KFNHGNFC_00409;dRep_bin192_GCMBELNN_00663;dRep_bin187_CLPDGDBG_00783	dRep_bin074_EHAOMODJ_00357;dRep_bin335_JIOGNAPG_00060;dRep_bin234_ECABPBME_00543;dRep_bin185_OOOLKACK_00415;dRep_bin095_HOBNOEEF_01010;dRep_bin194_MEPDOGGJ_00068;dRep_bin025_CBEJJMLE_00034;dRep_bin282_PKAAPBFP_01136;dRep_bin260_HELEPKJL_01581;dRep_bin135_HHKACLPM_00020;dRep_bin047_IFFANOMN_01119;dRep_bin049_MNFBDPNO_00067;dRep_bin268_LKMHIMLG_00651;dRep_bin303_DDDNDJCF_00095;dRep_bin248_CCDFPECI_00722;dRep_bin243_JDMELKLC_00605;dRep_bin340_OFLHNGJM_00522;dRep_bin109_MJABCPAK_00884;dRep_bin087_FCLGAPPI_00696;dRep_bin160_EFKMPBOM_01056;dRep_bin154_JGOKHKLI_00096;dRep_bin354_MMOALAFN_01723	>dRep_bin074_EHAOMODJ_00357 Glutamate synthase [NADPH] small chain;>dRep_bin335_JIOGNAPG_00060 Glutamate synthase [NADPH] small chain;>dRep_bin234_ECABPBME_00543 Glutamate synthase [NADPH] small chain;>dRep_bin185_OOOLKACK_00415 Glutamate synthase [NADPH]	dRep_bin253_CPMOAOBJ_01534	CDS	gltD	1.4.1.13	Glutamate synthase [NADPH] small chain
CPMOAOBJ_01593					21.717910000000003							11	2	6,8239E-43	dRep_bin253_CPMOAOBJ_01593	dRep_bin253_CPMOAOBJ_01593	>dRep_bin253_CPMOAOBJ_01593 NADP-specific glutamate dehydrogenase	dRep_bin253_CPMOAOBJ_01593	CDS	gdh	1.4.1.4	NADP-specific glutamate dehydrogenase
CPMOAOBJ_01632					24.968509999999995		23.44493					2	2	2,1244E-06	dRep_bin253_CPMOAOBJ_01632	dRep_bin253_CPMOAOBJ_01632	>dRep_bin253_CPMOAOBJ_01632 Phosphate propanoyltransferase	dRep_bin253_CPMOAOBJ_01632	CDS	pduL	2.3.1.222	Phosphate propanoyltransferase
