GBprotID	LFQ intensity CtrPig1	LFQ intensity CtrPig2	LFQ intensity CtrPig3	LFQ intensity CtrPig4	LFQ intensity MannanPig1	LFQ intensity MannanPig2	LFQ intensity MannanPig3	LFQ intensity MannanPig4	Only identified by site	Reverse	Contaminant	Peptides	Unique peptides	PEP	Protein IDs	Majority protein IDs	Fasta headers	IDcomb	ftype	gene	EC_number	product
IFIOODLK_00471	23.36453											11	1	6,9931E-146	dRep_bin075_EPEMMOCL_01439;dRep_bin218_ACMPALGF_00797;dRep_bin273_FGAEBHNP_00761;dRep_bin259_IFIOODLK_00471;dRep_bin262_LLCGOPIE_00724	dRep_bin075_EPEMMOCL_01439	>dRep_bin075_EPEMMOCL_01439 Phosphoglycerate kinase	dRep_bin259_IFIOODLK_00471	CDS	pgk/tpi		Bifunctional PGK/TIM
IFIOODLK_00472		23.401980000000002										1	1	0,0077434	dRep_bin259_IFIOODLK_00472;dRep_bin086_HHEJBMCP_01170;dRep_bin003_GOBBLOGO_00949	dRep_bin259_IFIOODLK_00472;dRep_bin086_HHEJBMCP_01170;dRep_bin003_GOBBLOGO_00949	>dRep_bin259_IFIOODLK_00472 Triosephosphate isomerase;>dRep_bin086_HHEJBMCP_01170 Triosephosphate isomerase;>dRep_bin003_GOBBLOGO_00949 Triosephosphate isomerase	dRep_bin259_IFIOODLK_00472	CDS	tpiA	5.3.1.1	Triosephosphate isomerase
IFIOODLK_00475								22.12902				3	1	1,346E-97	dRep_bin259_IFIOODLK_00475;dRep_bin054_NNOKONMC_00946;dRep_bin086_HHEJBMCP_00893	dRep_bin259_IFIOODLK_00475;dRep_bin054_NNOKONMC_00946;dRep_bin086_HHEJBMCP_00893	>dRep_bin259_IFIOODLK_00475 hypothetical protein;>dRep_bin054_NNOKONMC_00946 hypothetical protein;>dRep_bin086_HHEJBMCP_00893 hypothetical protein	dRep_bin259_IFIOODLK_00475	CDS			hypothetical protein
IFIOODLK_00476					25.92475		25.87394	25.464850000000002				9	0	1,346E-86	dRep_bin054_NNOKONMC_00945;dRep_bin259_IFIOODLK_00476	dRep_bin054_NNOKONMC_00945;dRep_bin259_IFIOODLK_00476	>dRep_bin054_NNOKONMC_00945 GGGtGRT protein;>dRep_bin259_IFIOODLK_00476 GGGtGRT protein	dRep_bin259_IFIOODLK_00476	CDS			GGGtGRT protein
IFIOODLK_00485								21.643810000000002				9	0	4,6207E-36	dRep_bin143_PFLDJMPF_01162;dRep_bin074_EHAOMODJ_00197;dRep_bin152_LJMCIADF_00840;dRep_bin079_GAOGCKND_00311;dRep_bin068_ENOLAELK_00990;dRep_bin124_HIHDFGCL_00318;dRep_bin272_LGBDGEIM_00728;dRep_bin337_FHKPNFDB_00324;dRep_bin056_EMNHHOJA_01446;dRep_bin054_NNOKONMC_00657;dRep_bin102_ICFDHPGB_00342;dRep_bin259_IFIOODLK_00485;dRep_bin086_HHEJBMCP_01132;dRep_bin054_NNOKONMC_00873;dRep_bin161_JMKPMHCO_00072;dRep_bin044_IPFKHAEF_00005;dRep_bin085_MBHLGCDB_01101;dRep_bin059_OOBKFNPP_00481;dRep_bin171_FIDMCACI_00747;dRep_bin012_KEBBILMO_00314;dRep_bin212_IEMJENOD_00204;dRep_bin257_JHFDCHCB_01099;dRep_bin277_MIPNGEJE_00939;dRep_bin238_OLNFACLE_01881;dRep_bin200_JJGKEOHI_00480;dRep_bin144_NPHACCKF_01932;dRep_bin321_EJNAAGJG_00384;dRep_bin333_EFOKIBLA_00721;dRep_bin273_FGAEBHNP_01365;dRep_bin280_IMCGLKKG_00438;dRep_bin171_FIDMCACI_00165;dRep_bin051_HIEIDCID_00833;dRep_bin141_GMCOOECB_01065;dRep_bin122_JHMJFODI_00609;dRep_bin155_CLHNKEHA_00697;dRep_bin313_CJFGINPI_00865;dRep_bin213_HHHELMFN_00711;dRep_bin258_DAMEHFEK_00926;dRep_bin169_PNICKJKO_00880;dRep_bin055_IBMMJAEE_00781;dRep_bin096_GNHMEKPF_00270;dRep_bin082_HBEFABJN_01176;dRep_bin094_LBLICAAO_01798;dRep_bin052_PGOOKKFH_00001;dRep_bin178_FLGBGGJB_00429;dRep_bin123_PJKBFKBB_00530;dRep_bin046_GKEJLOEK_00533;dRep_bin270_GEJAHNCN_00559;dRep_bin087_FCLGAPPI_00749;dRep_bin317_ABPHNCOD_01524;dRep_bin354_MMOALAFN_01090;dRep_bin221_LMGNIMOJ_00256;dRep_bin005_CNDFPKJG_00513;dRep_bin144_NPHACCKF_01674;dRep_bin215_ABBFGCAF_00891;dRep_bin024_OLHDGABE_01486;dRep_bin207_OHNPDPFI_01006;dRep_bin109_MJABCPAK_00005;dRep_bin121_BHOOLFKN_00138;dRep_bin144_NPHACCKF_01593;dRep_bin236_BNONDECB_00589;dRep_bin166_DFIAJFEC_00113;dRep_bin352_KFNHGNFC_00788;dRep_bin187_CLPDGDBG_00447;dRep_bin192_GCMBELNN_00637;dRep_bin206_OIIBOIAK_00839;dRep_bin173_BEBNCADL_00299;dRep_bin080_CBEBHNNK_00392;dRep_bin237_KJDLIPND_00675	dRep_bin143_PFLDJMPF_01162;dRep_bin074_EHAOMODJ_00197;dRep_bin152_LJMCIADF_00840;dRep_bin079_GAOGCKND_00311;dRep_bin068_ENOLAELK_00990;dRep_bin124_HIHDFGCL_00318;dRep_bin272_LGBDGEIM_00728;dRep_bin337_FHKPNFDB_00324;dRep_bin056_EMNHHOJA_01446;dRep_bin054_NNOKONMC_00657;dRep_bin102_ICFDHPGB_00342;dRep_bin259_IFIOODLK_00485;dRep_bin086_HHEJBMCP_01132;dRep_bin054_NNOKONMC_00873;dRep_bin161_JMKPMHCO_00072;dRep_bin044_IPFKHAEF_00005;dRep_bin085_MBHLGCDB_01101	>dRep_bin143_PFLDJMPF_01162 DNA-directed RNA polymerase subunit beta;>dRep_bin074_EHAOMODJ_00197 DNA-directed RNA polymerase subunit beta;>dRep_bin152_LJMCIADF_00840 DNA-directed RNA polymerase subunit beta;>dRep_bin079_GAOGCKND_00311 DNA-directed RNA p	dRep_bin259_IFIOODLK_00485	CDS	rpoC	2.7.7.6	DNA-directed RNA polymerase subunit beta'
IFIOODLK_00803			26.420129999999997	25.02606	26.754550000000002	25.28447	26.51363	26.121550000000003				4	2	1,0784E-33	dRep_bin243_JDMELKLC_00048;dRep_bin125_FADLGGII_00907;dRep_bin178_FLGBGGJB_00476;dRep_bin259_IFIOODLK_00803;dRep_bin194_MEPDOGGJ_00234;dRep_bin025_CBEJJMLE_00493;dRep_bin172_ALNHGLMD_00611;dRep_bin176_DLEJNGKN_01018;dRep_bin215_ABBFGCAF_01336	dRep_bin243_JDMELKLC_00048;dRep_bin125_FADLGGII_00907;dRep_bin178_FLGBGGJB_00476;dRep_bin259_IFIOODLK_00803;dRep_bin194_MEPDOGGJ_00234;dRep_bin025_CBEJJMLE_00493;dRep_bin172_ALNHGLMD_00611;dRep_bin176_DLEJNGKN_01018;dRep_bin215_ABBFGCAF_01336	>dRep_bin243_JDMELKLC_00048 Leucine--tRNA ligase;>dRep_bin125_FADLGGII_00907 Leucine--tRNA ligase;>dRep_bin178_FLGBGGJB_00476 Leucine--tRNA ligase;>dRep_bin259_IFIOODLK_00803 Leucine--tRNA ligase;>dRep_bin194_MEPDOGGJ_00234 Leucine--tRNA ligase;>dRep_bin02	dRep_bin259_IFIOODLK_00803	CDS	leuS_1	6.1.1.4	Leucine--tRNA ligase
IFIOODLK_00858	25.14324	25.89502	30.53612	25.09567								2	2	0,00060533	dRep_bin259_IFIOODLK_00858	dRep_bin259_IFIOODLK_00858	>dRep_bin259_IFIOODLK_00858 hypothetical protein	dRep_bin259_IFIOODLK_00858	CDS			hypothetical protein
IFIOODLK_00959	25.58947	25.920619999999996	25.71937	25.621010000000002								3	1	1,0308E-07	dRep_bin259_IFIOODLK_00959;dRep_bin102_ICFDHPGB_00514;dRep_bin003_GOBBLOGO_00306;dRep_bin217_MJCEAEPB_00223	dRep_bin259_IFIOODLK_00959;dRep_bin102_ICFDHPGB_00514;dRep_bin003_GOBBLOGO_00306	>dRep_bin259_IFIOODLK_00959 Formate acetyltransferase;>dRep_bin102_ICFDHPGB_00514 Formate acetyltransferase;>dRep_bin003_GOBBLOGO_00306 Formate acetyltransferase	dRep_bin259_IFIOODLK_00959	CDS	pflB	2.3.1.54	Formate acetyltransferase
IFIOODLK_01095					22.10002	22.505309999999998	23.34408	22.72484				3	2	3,9931E-07	dRep_bin090_IPGNHCBJ_00293;dRep_bin277_MIPNGEJE_00462;dRep_bin259_IFIOODLK_01095	dRep_bin090_IPGNHCBJ_00293	>dRep_bin090_IPGNHCBJ_00293 Polyribonucleotide nucleotidyltransferase	dRep_bin259_IFIOODLK_01095	CDS	pnp	2.7.7.8	Polyribonucleotide nucleotidyltransferase
IFIOODLK_01268						19.60063						1	1	1,5198E-08	dRep_bin259_IFIOODLK_01268	dRep_bin259_IFIOODLK_01268	>dRep_bin259_IFIOODLK_01268 Lactaldehyde reductase	dRep_bin259_IFIOODLK_01268	CDS	fucO	1.1.1.77	Lactaldehyde reductase
IFIOODLK_01513	29.02889	28.520509999999998	28.935029999999998	29.496389999999998	29.266619999999996	29.54237	28.59722	28.9161				4	2	5,8411E-90	dRep_bin088_DNGPPFDK_00695;dRep_bin127_FIPNHBCH_00032;dRep_bin203_CLFNNOCF_02129;dRep_bin016_JLGAHGOJ_00431;dRep_bin139_KGAJINND_01528;dRep_bin047_IFFANOMN_00243;dRep_bin065_DFABHCBI_01273;dRep_bin001_GHHJMDAL_00752;dRep_bin261_FJICAFFM_00374;dRep_bin154_JGOKHKLI_00797;dRep_bin089_PAJFOJBN_02078;dRep_bin211_LGJEFJIK_00745;dRep_bin234_ECABPBME_00123;dRep_bin160_EFKMPBOM_01984;dRep_bin328_GIGKNKPJ_01341;dRep_bin001_GHHJMDAL_01070;dRep_bin266_JFOCEDAE_01009;dRep_bin259_IFIOODLK_01513;dRep_bin200_JJGKEOHI_00186;dRep_bin031_BNHMFOII_00541;dRep_bin282_PKAAPBFP_00485;dRep_bin200_JJGKEOHI_01014;dRep_bin086_HHEJBMCP_00611;dRep_bin135_HHKACLPM_00480;dRep_bin277_MIPNGEJE_00780;dRep_bin123_PJKBFKBB_00849;dRep_bin330_CODAKHDJ_00380;dRep_bin218_ACMPALGF_00064	dRep_bin088_DNGPPFDK_00695;dRep_bin127_FIPNHBCH_00032;dRep_bin203_CLFNNOCF_02129;dRep_bin016_JLGAHGOJ_00431;dRep_bin139_KGAJINND_01528;dRep_bin047_IFFANOMN_00243;dRep_bin065_DFABHCBI_01273;dRep_bin001_GHHJMDAL_00752;dRep_bin261_FJICAFFM_00374;dRep_bin154_JGOKHKLI_00797;dRep_bin089_PAJFOJBN_02078;dRep_bin211_LGJEFJIK_00745;dRep_bin234_ECABPBME_00123;dRep_bin160_EFKMPBOM_01984;dRep_bin328_GIGKNKPJ_01341;dRep_bin001_GHHJMDAL_01070	>dRep_bin088_DNGPPFDK_00695 30S ribosomal protein S3;>dRep_bin127_FIPNHBCH_00032 30S ribosomal protein S3;>dRep_bin203_CLFNNOCF_02129 30S ribosomal protein S3;>dRep_bin016_JLGAHGOJ_00431 30S ribosomal protein S3;>dRep_bin139_KGAJINND_01528 30S ribosomal pr	dRep_bin259_IFIOODLK_01513	CDS	rpsC		30S ribosomal protein S3
IFIOODLK_01610	25.90336	27.15663	26.37539	28.16677	27.70068	28.498839999999998	26.90426	26.50331				8	2	8,6877E-79	dRep_bin259_IFIOODLK_01610;dRep_bin176_DLEJNGKN_00881;dRep_bin178_FLGBGGJB_00554	dRep_bin259_IFIOODLK_01610;dRep_bin176_DLEJNGKN_00881;dRep_bin178_FLGBGGJB_00554	>dRep_bin259_IFIOODLK_01610 Chaperone protein DnaK;>dRep_bin176_DLEJNGKN_00881 Chaperone protein DnaK;>dRep_bin178_FLGBGGJB_00554 Chaperone protein DnaK	dRep_bin259_IFIOODLK_01610	CDS	dnaK		Chaperone protein DnaK
IFIOODLK_01829						22.53657						1	1	0,00070976	dRep_bin259_IFIOODLK_01829;dRep_bin102_ICFDHPGB_00569	dRep_bin259_IFIOODLK_01829;dRep_bin102_ICFDHPGB_00569	>dRep_bin259_IFIOODLK_01829 putative M18 family aminopeptidase 1;>dRep_bin102_ICFDHPGB_00569 putative M18 family aminopeptidase 1	dRep_bin259_IFIOODLK_01829	CDS	apeA	3.4.11.-	putative M18 family aminopeptidase 1
IFIOODLK_01913	23.39767	25.586489999999998	24.01903	23.53517								3	2	1,9168E-12	dRep_bin336_MPGOKPOL_01585;dRep_bin259_IFIOODLK_01913;dRep_bin017_FGFLFOPJ_00688	dRep_bin336_MPGOKPOL_01585	>dRep_bin336_MPGOKPOL_01585 4-hydroxy-tetrahydrodipicolinate synthase	dRep_bin259_IFIOODLK_01913	CDS	dapA_1	4.3.3.7	4-hydroxy-tetrahydrodipicolinate synthase
IFIOODLK_01921	26.02041	26.075	25.110920000000004	27.8951	27.786129999999996	27.054550000000003	26.37831	27.1335				4	2	1,679E-13	dRep_bin259_IFIOODLK_01921;dRep_bin003_GOBBLOGO_01184;dRep_bin086_HHEJBMCP_01215;dRep_bin262_LLCGOPIE_01313	dRep_bin259_IFIOODLK_01921;dRep_bin003_GOBBLOGO_01184	>dRep_bin259_IFIOODLK_01921 Putative septation protein SpoVG;>dRep_bin003_GOBBLOGO_01184 Putative septation protein SpoVG	dRep_bin259_IFIOODLK_01921	CDS	spoVG		Putative septation protein SpoVG
IFIOODLK_02058						24.09434						4	2	2,9122E-20	dRep_bin259_IFIOODLK_02058	dRep_bin259_IFIOODLK_02058	>dRep_bin259_IFIOODLK_02058 60 kDa chaperonin	dRep_bin259_IFIOODLK_02058	CDS	groL_2		60 kDa chaperonin
IFIOODLK_02068					26.123639999999998	24.636880000000005	24.850810000000003	24.69663				2	2	0,00047658	dRep_bin259_IFIOODLK_02068;dRep_bin178_FLGBGGJB_01505;dRep_bin176_DLEJNGKN_01348;dRep_bin200_JJGKEOHI_00610;dRep_bin003_GOBBLOGO_00193;dRep_bin102_ICFDHPGB_00459	dRep_bin259_IFIOODLK_02068;dRep_bin178_FLGBGGJB_01505;dRep_bin176_DLEJNGKN_01348;dRep_bin200_JJGKEOHI_00610;dRep_bin003_GOBBLOGO_00193;dRep_bin102_ICFDHPGB_00459	>dRep_bin259_IFIOODLK_02068 50S ribosomal protein L19;>dRep_bin178_FLGBGGJB_01505 50S ribosomal protein L19;>dRep_bin176_DLEJNGKN_01348 50S ribosomal protein L19;>dRep_bin200_JJGKEOHI_00610 50S ribosomal protein L19;>dRep_bin003_GOBBLOGO_00193 50S ribosoma	dRep_bin259_IFIOODLK_02068	CDS	rplS		50S ribosomal protein L19
IFIOODLK_02073					23.534100000000002	22.225089999999998		22.685689999999997				2	1	4,4559E-06	dRep_bin238_OLNFACLE_00398;dRep_bin057_BNCFHBBO_01480;dRep_bin166_DFIAJFEC_01273;dRep_bin335_JIOGNAPG_00083;dRep_bin085_MBHLGCDB_00001;dRep_bin100_CODMOHGB_00507;dRep_bin293_MEPKGOAN_01486;dRep_bin216_JNJMCPHB_00814;dRep_bin052_PGOOKKFH_01423;dRep_bin207_OHNPDPFI_00321;dRep_bin151_AHBJLMBI_01464;dRep_bin117_PMEMANMD_00592;dRep_bin009_KMMEHEKA_00219;dRep_bin259_IFIOODLK_02073;dRep_bin102_ICFDHPGB_00079;dRep_bin003_GOBBLOGO_00201;dRep_bin021_AJDDCGJC_00106;dRep_bin247_EKGBJCBM_00561;dRep_bin049_MNFBDPNO_01629;dRep_bin213_HHHELMFN_00639;dRep_bin265_LFKFBJPC_01443;dRep_bin109_MJABCPAK_01407;dRep_bin257_JHFDCHCB_01026;dRep_bin032_PPNIGLME_00869;dRep_bin079_GAOGCKND_01412;dRep_bin068_ENOLAELK_01548;dRep_bin025_CBEJJMLE_00266;dRep_bin152_LJMCIADF_01534;dRep_bin124_HIHDFGCL_01183;dRep_bin194_MEPDOGGJ_00641;dRep_bin339_DBNBAHDK_01337;dRep_bin283_NLJJFFAC_00380	dRep_bin238_OLNFACLE_00398;dRep_bin057_BNCFHBBO_01480;dRep_bin166_DFIAJFEC_01273;dRep_bin335_JIOGNAPG_00083;dRep_bin085_MBHLGCDB_00001;dRep_bin100_CODMOHGB_00507;dRep_bin293_MEPKGOAN_01486;dRep_bin216_JNJMCPHB_00814;dRep_bin052_PGOOKKFH_01423;dRep_bin207_OHNPDPFI_00321;dRep_bin151_AHBJLMBI_01464;dRep_bin117_PMEMANMD_00592;dRep_bin009_KMMEHEKA_00219;dRep_bin259_IFIOODLK_02073;dRep_bin102_ICFDHPGB_00079;dRep_bin003_GOBBLOGO_00201;dRep_bin021_AJDDCGJC_00106;dRep_bin247_EKGBJCBM_00561;dRep_bin049_MNFBDPNO_01629;dRep_bin213_HHHELMFN_00639;dRep_bin265_LFKFBJPC_01443;dRep_bin109_MJABCPAK_01407;dRep_bin257_JHFDCHCB_01026;dRep_bin032_PPNIGLME_00869;dRep_bin079_GAOGCKND_01412;dRep_bin068_ENOLAELK_01548;dRep_bin025_CBEJJMLE_00266;dRep_bin152_LJMCIADF_01534;dRep_bin124_HIHDFGCL_01183;dRep_bin194_MEPDOGGJ_00641;dRep_bin339_DBNBAHDK_01337;dRep_bin283_NLJJFFAC_00380	>dRep_bin238_OLNFACLE_00398 Lysine--tRNA ligase;>dRep_bin057_BNCFHBBO_01480 Lysine--tRNA ligase;>dRep_bin166_DFIAJFEC_01273 Lysine--tRNA ligase;>dRep_bin335_JIOGNAPG_00083 Lysine--tRNA ligase;>dRep_bin085_MBHLGCDB_00001 Lysine--tRNA ligase;>dRep_bin100_COD	dRep_bin259_IFIOODLK_02073	CDS	lysS	6.1.1.6	Lysine--tRNA ligase
IFIOODLK_02231	26.36088	23.79759	26.94782		22.987409999999997	23.131700000000002	31.168	26.842539999999996				5	5	1,1349E-39	dRep_bin013_IODPEDPB_00655;dRep_bin175_HANCENAK_01060;dRep_bin349_AMCJEEEG_00761;dRep_bin342_BMMENEMP_01129;dRep_bin259_IFIOODLK_02231	dRep_bin013_IODPEDPB_00655;dRep_bin175_HANCENAK_01060	>dRep_bin013_IODPEDPB_00655 Elongation factor P;>dRep_bin175_HANCENAK_01060 Elongation factor P	dRep_bin259_IFIOODLK_02231	CDS	efp		Elongation factor P
IFIOODLK_02454					25.616020000000002	23.6184	23.54922					4	1	1,9799E-33	dRep_bin260_HELEPKJL_01845;dRep_bin201_OLKDIBOK_00112;dRep_bin303_DDDNDJCF_00142;dRep_bin287_DONBGKDH_01854;dRep_bin322_OJELOJOF_01184;dRep_bin257_JHFDCHCB_00967;dRep_bin169_PNICKJKO_00877;A0A287A8P8;dRep_bin051_HIEIDCID_00151;dRep_bin086_HHEJBMCP_00386;dRep_bin122_JHMJFODI_00063;dRep_bin023_HGFJFKAI_00771;dRep_bin181_MKGPMPIA_00103;dRep_bin066_AJACLPEE_00701;dRep_bin259_IFIOODLK_02454;dRep_bin180_JMFOHHIL_00810;dRep_bin176_DLEJNGKN_00496;dRep_bin102_ICFDHPGB_00705;dRep_bin054_NNOKONMC_00274;dRep_bin141_GMCOOECB_00272;dRep_bin081_JDPCKDNP_01556;dRep_bin191_NGFJMLOL_01066;dRep_bin347_EKGCMFPD_00368;dRep_bin258_DAMEHFEK_00953;dRep_bin207_OHNPDPFI_00730;dRep_bin155_CLHNKEHA_00341;dRep_bin147_EJLBNEBE_00007;dRep_bin003_GOBBLOGO_01064;dRep_bin001_GHHJMDAL_00643;dRep_bin178_FLGBGGJB_01411;dRep_bin161_JMKPMHCO_00287;dRep_bin096_GNHMEKPF_00190;dRep_bin074_EHAOMODJ_00071;dRep_bin059_OOBKFNPP_00877;dRep_bin009_KMMEHEKA_00693;dRep_bin308_JBPDGLPP_01578;dRep_bin276_EHNFLEBP_00798;dRep_bin337_FHKPNFDB_01542;dRep_bin273_FGAEBHNP_00709;dRep_bin167_BLMEBMNN_01919;dRep_bin114_FJHJKHGL_00074;dRep_bin085_MBHLGCDB_00354;dRep_bin058_GJKCICJN_00485;A0A287B9S9;dRep_bin342_BMMENEMP_00811;dRep_bin341_NBEGOKEF_00144;dRep_bin231_CFOLMJBA_00136;dRep_bin095_HOBNOEEF_01465;dRep_bin236_BNONDECB_00582;dRep_bin168_HKDILBFE_01225;dRep_bin099_DNDAGJEJ_01201;dRep_bin024_OLHDGABE_00735;dRep_bin006_HPJGJCAG_01680;I3LL84;dRep_bin332_KAOPCDPF_00242;dRep_bin336_MPGOKPOL_00237;A0A287BIW1;dRep_bin319_PBDBJGCJ_00470	dRep_bin260_HELEPKJL_01845;dRep_bin201_OLKDIBOK_00112;dRep_bin303_DDDNDJCF_00142;dRep_bin287_DONBGKDH_01854	>dRep_bin260_HELEPKJL_01845 UDP-glucose 4-epimerase;>dRep_bin201_OLKDIBOK_00112 UDP-glucose 4-epimerase;>dRep_bin303_DDDNDJCF_00142 UDP-glucose 4-epimerase;>dRep_bin287_DONBGKDH_01854 UDP-glucose 4-epimerase	dRep_bin259_IFIOODLK_02454	CDS	lnpD	5.1.3.2	UDP-glucose 4-epimerase
