GBprotID	LFQ intensity CtrPig1	LFQ intensity CtrPig2	LFQ intensity CtrPig3	LFQ intensity CtrPig4	LFQ intensity MannanPig1	LFQ intensity MannanPig2	LFQ intensity MannanPig3	LFQ intensity MannanPig4	Only identified by site	Reverse	Contaminant	Peptides	Unique peptides	PEP	Protein IDs	Majority protein IDs	Fasta headers	IDcomb	ftype	gene	EC_number	product
FJICAFFM_00017					25.68008	27.02411	25.38281	25.32165				3	3	7,9156E-15	dRep_bin226_NLNLHLLD_00501;dRep_bin041_OPKGAAAG_00618;dRep_bin297_EDHEEICA_00183;dRep_bin269_PNILGKPH_01725;dRep_bin179_HFEIPPPA_00805;dRep_bin157_JPNIKEKI_00808;dRep_bin209_NKIHFCEN_00924;dRep_bin039_IJNOFOJK_00290;dRep_bin344_CJJBDGAA_00560;dRep_bin324_IPNHOHFK_01905;dRep_bin310_IMBAFDIF_00509;dRep_bin303_DDDNDJCF_00255;dRep_bin292_JIBLDOOH_00721;dRep_bin248_CCDFPECI_01503;dRep_bin220_PILICLLL_01871;dRep_bin203_CLFNNOCF_01497;dRep_bin201_OLKDIBOK_01842;dRep_bin158_OGFICEAP_00351;dRep_bin145_KMJJJOEJ_00076;dRep_bin133_NOBPDBPA_03150;dRep_bin115_IFKGOGCL_00616;dRep_bin095_HOBNOEEF_01083;dRep_bin279_IAEFEPEN_01129;dRep_bin306_FGHMKMMP_00759;dRep_bin282_PKAAPBFP_00753;dRep_bin016_JLGAHGOJ_01160;dRep_bin261_FJICAFFM_00017;dRep_bin031_BNHMFOII_01497;dRep_bin325_EIIGOGHN_00625;dRep_bin168_HKDILBFE_01177;dRep_bin099_DNDAGJEJ_00278;dRep_bin335_JIOGNAPG_00120;dRep_bin308_JBPDGLPP_00959;dRep_bin234_ECABPBME_01000;dRep_bin240_LDBBGJKG_01894;dRep_bin167_BLMEBMNN_00117	dRep_bin226_NLNLHLLD_00501;dRep_bin041_OPKGAAAG_00618;dRep_bin297_EDHEEICA_00183;dRep_bin269_PNILGKPH_01725;dRep_bin179_HFEIPPPA_00805;dRep_bin157_JPNIKEKI_00808	>dRep_bin226_NLNLHLLD_00501 ATP-dependent Clp protease proteolytic subunit;>dRep_bin041_OPKGAAAG_00618 ATP-dependent Clp protease proteolytic subunit;>dRep_bin297_EDHEEICA_00183 ATP-dependent Clp protease proteolytic subunit;>dRep_bin269_PNILGKPH_01725 ATP	dRep_bin261_FJICAFFM_00017	CDS	clpP	3.4.21.92	ATP-dependent Clp protease proteolytic subunit
FJICAFFM_00034	28.738789999999998	28.75124	29.01084	29.3506	29.64461	30.02168	29.81859	30.104370000000003				12	4	1,026E-72	dRep_bin191_NGFJMLOL_01578;dRep_bin070_EMBHKIOF_00129;dRep_bin154_JGOKHKLI_00366;dRep_bin055_IBMMJAEE_00161;dRep_bin328_GIGKNKPJ_00645;dRep_bin047_IFFANOMN_00612;dRep_bin027_OFJCHLJJ_00977;dRep_bin005_CNDFPKJG_01432;dRep_bin278_BFCONKOE_00469;dRep_bin282_PKAAPBFP_00320;dRep_bin284_DEHKNOBF_00421;dRep_bin303_DDDNDJCF_00133;dRep_bin287_DONBGKDH_00272;dRep_bin220_PILICLLL_00145;dRep_bin107_EFNBPDOP_01320;dRep_bin158_OGFICEAP_01424;dRep_bin323_FBBLPLCG_01090;dRep_bin318_IEDEJOFJ_00395;dRep_bin308_JBPDGLPP_01660;dRep_bin306_FGHMKMMP_01032;dRep_bin261_FJICAFFM_00034;dRep_bin240_LDBBGJKG_01385;dRep_bin234_ECABPBME_00209;dRep_bin181_MKGPMPIA_00707;dRep_bin077_DNNBMPMC_00629;dRep_bin066_AJACLPEE_00619;dRep_bin065_DFABHCBI_01813;dRep_bin023_HGFJFKAI_00570;dRep_bin235_EGJBMLPF_00465;dRep_bin186_HJAAFFNP_00454;dRep_bin145_KMJJJOEJ_01616;dRep_bin095_HOBNOEEF_00383	dRep_bin191_NGFJMLOL_01578;dRep_bin070_EMBHKIOF_00129	>dRep_bin191_NGFJMLOL_01578 hypothetical protein;>dRep_bin070_EMBHKIOF_00129 hypothetical protein	dRep_bin261_FJICAFFM_00034	CDS			hypothetical protein
FJICAFFM_00056						26.7618						1	1	6,3895E-11	dRep_bin095_HOBNOEEF_02030;dRep_bin203_CLFNNOCF_00407;dRep_bin135_HHKACLPM_01560;dRep_bin005_CNDFPKJG_00657;dRep_bin322_OJELOJOF_01582;dRep_bin310_IMBAFDIF_01593;dRep_bin269_PNILGKPH_01090;dRep_bin134_HIAPAODO_00124;dRep_bin075_EPEMMOCL_02033;dRep_bin248_CCDFPECI_01608;dRep_bin158_OGFICEAP_01624;dRep_bin115_IFKGOGCL_00555;dRep_bin324_IPNHOHFK_01145;dRep_bin297_EDHEEICA_00686;dRep_bin282_PKAAPBFP_00656;dRep_bin179_HFEIPPPA_00189;dRep_bin168_HKDILBFE_01398;dRep_bin041_OPKGAAAG_01276;dRep_bin292_JIBLDOOH_02196;dRep_bin261_FJICAFFM_00056;dRep_bin226_NLNLHLLD_01358;dRep_bin209_NKIHFCEN_00790;dRep_bin157_JPNIKEKI_00582	dRep_bin095_HOBNOEEF_02030;dRep_bin203_CLFNNOCF_00407;dRep_bin135_HHKACLPM_01560;dRep_bin005_CNDFPKJG_00657;dRep_bin322_OJELOJOF_01582;dRep_bin310_IMBAFDIF_01593;dRep_bin269_PNILGKPH_01090;dRep_bin134_HIAPAODO_00124;dRep_bin075_EPEMMOCL_02033;dRep_bin248_CCDFPECI_01608;dRep_bin158_OGFICEAP_01624;dRep_bin115_IFKGOGCL_00555;dRep_bin324_IPNHOHFK_01145;dRep_bin297_EDHEEICA_00686;dRep_bin282_PKAAPBFP_00656;dRep_bin179_HFEIPPPA_00189;dRep_bin168_HKDILBFE_01398;dRep_bin041_OPKGAAAG_01276;dRep_bin292_JIBLDOOH_02196;dRep_bin261_FJICAFFM_00056;dRep_bin226_NLNLHLLD_01358;dRep_bin209_NKIHFCEN_00790;dRep_bin157_JPNIKEKI_00582	>dRep_bin095_HOBNOEEF_02030 Methylmalonyl-CoA carboxyltransferase 5S subunit;>dRep_bin203_CLFNNOCF_00407 Methylmalonyl-CoA carboxyltransferase 5S subunit;>dRep_bin135_HHKACLPM_01560 Methylmalonyl-CoA carboxyltransferase 5S subunit;>dRep_bin005_CNDFPKJG_006	dRep_bin261_FJICAFFM_00056	CDS		2.1.3.1	Methylmalonyl-CoA carboxyltransferase 5S subunit
FJICAFFM_00057					23.00606	23.896980000000003						2	1	8,6813E-10	dRep_bin324_IPNHOHFK_01144;dRep_bin297_EDHEEICA_00687;dRep_bin292_JIBLDOOH_02195;dRep_bin261_FJICAFFM_00057;dRep_bin226_NLNLHLLD_01357;dRep_bin209_NKIHFCEN_00791;dRep_bin203_CLFNNOCF_00406;dRep_bin179_HFEIPPPA_00190;dRep_bin157_JPNIKEKI_00583;dRep_bin133_NOBPDBPA_01168;dRep_bin041_OPKGAAAG_01275;dRep_bin168_HKDILBFE_01397;dRep_bin130_OIFFANPF_00962;dRep_bin083_OCBADPJJ_00812;dRep_bin169_PNICKJKO_00385;dRep_bin319_PBDBJGCJ_01796;dRep_bin109_MJABCPAK_00038;dRep_bin106_BKDHGPBE_00849;dRep_bin216_JNJMCPHB_01613;dRep_bin299_AKNBKJGM_00580;dRep_bin100_CODMOHGB_00911;dRep_bin317_ABPHNCOD_01390;dRep_bin272_LGBDGEIM_00788;dRep_bin249_OFIIEIDJ_00467;dRep_bin066_AJACLPEE_01038;dRep_bin335_JIOGNAPG_00681;dRep_bin234_ECABPBME_00227;dRep_bin088_DNGPPFDK_01237;dRep_bin303_DDDNDJCF_00797;dRep_bin300_MJPPENNL_00671;dRep_bin279_IAEFEPEN_01368;dRep_bin278_BFCONKOE_00336;dRep_bin269_PNILGKPH_01089;dRep_bin260_HELEPKJL_01496;dRep_bin089_PAJFOJBN_00528;dRep_bin027_OFJCHLJJ_00828;dRep_bin019_MOJEPLJF_01606;dRep_bin116_CLFDBMOF_00536;dRep_bin057_BNCFHBBO_00059;dRep_bin134_HIAPAODO_00123;dRep_bin322_OJELOJOF_01583;dRep_bin270_GEJAHNCN_00957;dRep_bin348_LCLFDNEE_00829;dRep_bin295_EJGKDKNE_00315;dRep_bin277_MIPNGEJE_01644;dRep_bin166_DFIAJFEC_00192;dRep_bin264_DNFFGNEG_00340;dRep_bin153_JGABJFBF_01236;dRep_bin114_FJHJKHGL_00133;dRep_bin111_FPJIHFKE_00195;dRep_bin252_NDAKLAGD_00473;dRep_bin247_EKGBJCBM_00710;dRep_bin035_JBNPBOKG_01025;dRep_bin026_HNPIIINL_00916;dRep_bin085_MBHLGCDB_01217;dRep_bin068_ENOLAELK_00657;dRep_bin049_MNFBDPNO_00064;dRep_bin038_EIGFILKG_00881;dRep_bin152_LJMCIADF_01515;dRep_bin079_GAOGCKND_00762;dRep_bin231_CFOLMJBA_00732;dRep_bin126_PPDNCIBN_00705;dRep_bin333_EFOKIBLA_00857;dRep_bin123_PJKBFKBB_00290;dRep_bin185_OOOLKACK_01362;dRep_bin305_FCIEFIHE_01147;dRep_bin070_EMBHKIOF_00605;dRep_bin006_HPJGJCAG_01539;dRep_bin101_BNDDLDCL_00049;dRep_bin331_HPKAPHAF_00752;dRep_bin301_NJFJIJGA_00013;dRep_bin037_GEAOEKHA_01146;dRep_bin087_FCLGAPPI_00654;dRep_bin159_ADJJGPBG_01916;dRep_bin304_JDNJGFKH_01533;dRep_bin120_EKLBOPNC_00943;dRep_bin162_JBGCCDIN_00762;dRep_bin072_JOBJPCGA_01185;dRep_bin320_LDBKCCKL_00985;dRep_bin245_MBCFLKOF_00867;dRep_bin010_MFFFGEGD_00116;dRep_bin205_LKIOOBKC_01048;dRep_bin043_KLAFNACO_01234;dRep_bin011_KOGMKLNO_01366;dRep_bin189_AHHEHGDL_01620;dRep_bin222_GGCAJABB_00316;dRep_bin208_DHPGEIBC_01479;dRep_bin130_OIFFANPF_00887	dRep_bin324_IPNHOHFK_01144;dRep_bin297_EDHEEICA_00687;dRep_bin292_JIBLDOOH_02195;dRep_bin261_FJICAFFM_00057;dRep_bin226_NLNLHLLD_01357;dRep_bin209_NKIHFCEN_00791;dRep_bin203_CLFNNOCF_00406;dRep_bin179_HFEIPPPA_00190;dRep_bin157_JPNIKEKI_00583;dRep_bin133_NOBPDBPA_01168;dRep_bin041_OPKGAAAG_01275;dRep_bin168_HKDILBFE_01397;dRep_bin130_OIFFANPF_00962;dRep_bin083_OCBADPJJ_00812;dRep_bin169_PNICKJKO_00385;dRep_bin319_PBDBJGCJ_01796;dRep_bin109_MJABCPAK_00038;dRep_bin106_BKDHGPBE_00849;dRep_bin216_JNJMCPHB_01613;dRep_bin299_AKNBKJGM_00580;dRep_bin100_CODMOHGB_00911;dRep_bin317_ABPHNCOD_01390;dRep_bin272_LGBDGEIM_00788;dRep_bin249_OFIIEIDJ_00467;dRep_bin066_AJACLPEE_01038;dRep_bin335_JIOGNAPG_00681;dRep_bin234_ECABPBME_00227;dRep_bin088_DNGPPFDK_01237;dRep_bin303_DDDNDJCF_00797;dRep_bin300_MJPPENNL_00671;dRep_bin279_IAEFEPEN_01368;dRep_bin278_BFCONKOE_00336;dRep_bin269_PNILGKPH_01089;dRep_bin260_HELEPKJL_01496;dRep_bin089_PAJFOJBN_00528;dRep_bin027_OFJCHLJJ_00828;dRep_bin019_MOJEPLJF_01606;dRep_bin116_CLFDBMOF_00536;dRep_bin057_BNCFHBBO_00059;dRep_bin134_HIAPAODO_00123;dRep_bin322_OJELOJOF_01583;dRep_bin270_GEJAHNCN_00957;dRep_bin348_LCLFDNEE_00829;dRep_bin295_EJGKDKNE_00315;dRep_bin277_MIPNGEJE_01644;dRep_bin166_DFIAJFEC_00192;dRep_bin264_DNFFGNEG_00340;dRep_bin153_JGABJFBF_01236;dRep_bin114_FJHJKHGL_00133;dRep_bin111_FPJIHFKE_00195;dRep_bin252_NDAKLAGD_00473;dRep_bin247_EKGBJCBM_00710;dRep_bin035_JBNPBOKG_01025;dRep_bin026_HNPIIINL_00916;dRep_bin085_MBHLGCDB_01217;dRep_bin068_ENOLAELK_00657;dRep_bin049_MNFBDPNO_00064;dRep_bin038_EIGFILKG_00881;dRep_bin152_LJMCIADF_01515;dRep_bin079_GAOGCKND_00762;dRep_bin231_CFOLMJBA_00732;dRep_bin126_PPDNCIBN_00705;dRep_bin333_EFOKIBLA_00857;dRep_bin123_PJKBFKBB_00290;dRep_bin185_OOOLKACK_01362;dRep_bin305_FCIEFIHE_01147;dRep_bin070_EMBHKIOF_00605;dRep_bin006_HPJGJCAG_01539;dRep_bin101_BNDDLDCL_00049;dRep_bin331_HPKAPHAF_00752;dRep_bin301_NJFJIJGA_00013;dRep_bin037_GEAOEKHA_01146;dRep_bin087_FCLGAPPI_00654;dRep_bin159_ADJJGPBG_01916;dRep_bin304_JDNJGFKH_01533;dRep_bin120_EKLBOPNC_00943;dRep_bin162_JBGCCDIN_00762;dRep_bin072_JOBJPCGA_01185;dRep_bin320_LDBKCCKL_00985;dRep_bin245_MBCFLKOF_00867;dRep_bin010_MFFFGEGD_00116;dRep_bin205_LKIOOBKC_01048;dRep_bin043_KLAFNACO_01234;dRep_bin011_KOGMKLNO_01366;dRep_bin189_AHHEHGDL_01620;dRep_bin222_GGCAJABB_00316;dRep_bin208_DHPGEIBC_01479;dRep_bin130_OIFFANPF_00887	>dRep_bin324_IPNHOHFK_01144 Glutaconyl-CoA decarboxylase subunit beta;>dRep_bin297_EDHEEICA_00687 Glutaconyl-CoA decarboxylase subunit beta;>dRep_bin292_JIBLDOOH_02195 Glutaconyl-CoA decarboxylase subunit beta;>dRep_bin261_FJICAFFM_00057 Glutaconyl-CoA dec	dRep_bin261_FJICAFFM_00057	CDS	gcdB	4.1.1.70	Glutaconyl-CoA decarboxylase subunit beta
FJICAFFM_00065	24.465689999999995	26.260689999999997	25.31261	25.246119999999998								9	2	1,0106E-26	dRep_bin133_NOBPDBPA_01176;dRep_bin179_HFEIPPPA_00199;dRep_bin203_CLFNNOCF_00399;dRep_bin145_KMJJJOEJ_01160;dRep_bin027_OFJCHLJJ_01925;dRep_bin325_EIIGOGHN_01404;dRep_bin310_IMBAFDIF_00767;dRep_bin211_LGJEFJIK_00541;dRep_bin115_IFKGOGCL_00023;dRep_bin328_GIGKNKPJ_00117;dRep_bin017_FGFLFOPJ_00444;dRep_bin261_FJICAFFM_00065;dRep_bin282_PKAAPBFP_01129;dRep_bin005_CNDFPKJG_00647;dRep_bin332_KAOPCDPF_00563;dRep_bin249_OFIIEIDJ_00155;dRep_bin001_GHHJMDAL_01332;dRep_bin127_FIPNHBCH_01505;dRep_bin077_DNNBMPMC_01412;dRep_bin075_EPEMMOCL_00769;dRep_bin188_EJILNMPE_00165;dRep_bin096_GNHMEKPF_00442;dRep_bin055_IBMMJAEE_00646;dRep_bin094_LBLICAAO_00410;dRep_bin144_NPHACCKF_00825;dRep_bin283_NLJJFFAC_01601	dRep_bin133_NOBPDBPA_01176;dRep_bin179_HFEIPPPA_00199;dRep_bin203_CLFNNOCF_00399	>dRep_bin133_NOBPDBPA_01176 Polyribonucleotide nucleotidyltransferase;>dRep_bin179_HFEIPPPA_00199 Polyribonucleotide nucleotidyltransferase;>dRep_bin203_CLFNNOCF_00399 Polyribonucleotide nucleotidyltransferase	dRep_bin261_FJICAFFM_00065	CDS	pnp	2.7.7.8	Polyribonucleotide nucleotidyltransferase
FJICAFFM_00103	26.52603	26.24737	25.76727	26.110060000000004	27.157880000000006	25.639920000000004	26.47638	26.34983				4	1	8,2438E-31	dRep_bin065_DFABHCBI_00265;dRep_bin261_FJICAFFM_00103	dRep_bin065_DFABHCBI_00265	>dRep_bin065_DFABHCBI_00265 Xylulose kinase	dRep_bin261_FJICAFFM_00103	CDS	xylB	2.7.1.17	Xylulose kinase
FJICAFFM_00104								24.046429999999997				11	1	2,3949E-175	dRep_bin261_FJICAFFM_00104;dRep_bin205_LKIOOBKC_01139	dRep_bin261_FJICAFFM_00104	>dRep_bin261_FJICAFFM_00104 hypothetical protein	dRep_bin261_FJICAFFM_00104	CDS			hypothetical protein
FJICAFFM_00138	26.006539999999998	26.268279999999997	26.69219	26.088589999999996	24.97412	24.5981	24.64014	24.882689999999997				3	3	1,2232E-06	dRep_bin179_HFEIPPPA_01138;dRep_bin133_NOBPDBPA_03606;dRep_bin209_NKIHFCEN_01032;dRep_bin157_JPNIKEKI_00670;dRep_bin041_OPKGAAAG_01317;dRep_bin292_JIBLDOOH_00688;dRep_bin261_FJICAFFM_00138;dRep_bin226_NLNLHLLD_01388;dRep_bin328_GIGKNKPJ_00242;dRep_bin344_CJJBDGAA_00969;dRep_bin220_PILICLLL_00069;dRep_bin249_OFIIEIDJ_00359;dRep_bin324_IPNHOHFK_00446;dRep_bin303_DDDNDJCF_00610;dRep_bin269_PNILGKPH_01850;dRep_bin260_HELEPKJL_00807;dRep_bin211_LGJEFJIK_01183;dRep_bin139_KGAJINND_01384;dRep_bin039_IJNOFOJK_00920;dRep_bin310_IMBAFDIF_00714;dRep_bin254_GJDPFAEA_00378;dRep_bin019_MOJEPLJF_01144;dRep_bin186_HJAAFFNP_00163;dRep_bin300_MJPPENNL_00484;dRep_bin279_IAEFEPEN_00580;dRep_bin069_EGGEOGDC_01257;dRep_bin127_FIPNHBCH_00608;dRep_bin065_DFABHCBI_02316;dRep_bin240_LDBBGJKG_01460;dRep_bin134_HIAPAODO_01900;dRep_bin186_HJAAFFNP_01258;dRep_bin203_CLFNNOCF_01535	dRep_bin179_HFEIPPPA_01138;dRep_bin133_NOBPDBPA_03606;dRep_bin209_NKIHFCEN_01032;dRep_bin157_JPNIKEKI_00670;dRep_bin041_OPKGAAAG_01317;dRep_bin292_JIBLDOOH_00688;dRep_bin261_FJICAFFM_00138;dRep_bin226_NLNLHLLD_01388	>dRep_bin179_HFEIPPPA_01138 Single-stranded DNA-binding protein B;>dRep_bin133_NOBPDBPA_03606 Single-stranded DNA-binding protein A;>dRep_bin209_NKIHFCEN_01032 Single-stranded DNA-binding protein B;>dRep_bin157_JPNIKEKI_00670 Single-stranded DNA-binding pr	dRep_bin261_FJICAFFM_00138	CDS	ssbA		Single-stranded DNA-binding protein A
FJICAFFM_00139		25.73967										1	1	0,003645	dRep_bin300_MJPPENNL_00482;dRep_bin279_IAEFEPEN_00582;dRep_bin261_FJICAFFM_00139;dRep_bin254_GJDPFAEA_00380	dRep_bin300_MJPPENNL_00482;dRep_bin279_IAEFEPEN_00582;dRep_bin261_FJICAFFM_00139;dRep_bin254_GJDPFAEA_00380	>dRep_bin300_MJPPENNL_00482 4-hydroxy-tetrahydrodipicolinate synthase;>dRep_bin279_IAEFEPEN_00582 4-hydroxy-tetrahydrodipicolinate synthase;>dRep_bin261_FJICAFFM_00139 4-hydroxy-tetrahydrodipicolinate synthase;>dRep_bin254_GJDPFAEA_00380 4-hydroxy-tetrahyd	dRep_bin261_FJICAFFM_00139	CDS	dapA_1	4.3.3.7	4-hydroxy-tetrahydrodipicolinate synthase
FJICAFFM_00231						24.67971		24.857000000000003				8	0	1,3699E-25	dRep_bin292_JIBLDOOH_01683;dRep_bin209_NKIHFCEN_01847;dRep_bin300_MJPPENNL_01104;dRep_bin297_EDHEEICA_01589;dRep_bin158_OGFICEAP_00645;dRep_bin145_KMJJJOEJ_01481;dRep_bin075_EPEMMOCL_01001;dRep_bin279_IAEFEPEN_00173;dRep_bin261_FJICAFFM_00231;dRep_bin203_CLFNNOCF_01942;dRep_bin180_JMFOHHIL_00474;dRep_bin344_CJJBDGAA_00237;dRep_bin115_IFKGOGCL_02756;dRep_bin248_CCDFPECI_01893;dRep_bin095_HOBNOEEF_01556;dRep_bin069_EGGEOGDC_00965;dRep_bin017_FGFLFOPJ_00592;dRep_bin016_JLGAHGOJ_00202;dRep_bin007_LNLEAAAN_00807;dRep_bin047_IFFANOMN_01298;dRep_bin306_FGHMKMMP_01230;dRep_bin308_JBPDGLPP_00751;dRep_bin160_EFKMPBOM_00970;dRep_bin349_AMCJEEEG_00332;dRep_bin260_HELEPKJL_02007;dRep_bin107_EFNBPDOP_01388;dRep_bin135_HHKACLPM_01683;dRep_bin039_IJNOFOJK_01477;dRep_bin027_OFJCHLJJ_00143;dRep_bin046_GKEJLOEK_00472;dRep_bin325_EIIGOGHN_00365;dRep_bin322_OJELOJOF_00229;dRep_bin077_DNNBMPMC_00896;dRep_bin220_PILICLLL_01164;dRep_bin282_PKAAPBFP_01479;dRep_bin081_JDPCKDNP_01848;dRep_bin249_OFIIEIDJ_01249;dRep_bin091_MAFACGAD_00528;dRep_bin319_PBDBJGCJ_00293;dRep_bin284_DEHKNOBF_00825;dRep_bin154_JGOKHKLI_01489;dRep_bin186_HJAAFFNP_01555;dRep_bin332_KAOPCDPF_00765	dRep_bin292_JIBLDOOH_01683;dRep_bin209_NKIHFCEN_01847;dRep_bin300_MJPPENNL_01104;dRep_bin297_EDHEEICA_01589	>dRep_bin292_JIBLDOOH_01683 Methionine--tRNA ligase;>dRep_bin209_NKIHFCEN_01847 Methionine--tRNA ligase;>dRep_bin300_MJPPENNL_01104 Methionine--tRNA ligase;>dRep_bin297_EDHEEICA_01589 Methionine--tRNA ligase	dRep_bin261_FJICAFFM_00231	CDS	metG	6.1.1.10	Methionine--tRNA ligase
FJICAFFM_00251				23.942349999999998								2	2	2,7879E-08	dRep_bin292_JIBLDOOH_01122;dRep_bin203_CLFNNOCF_00722;dRep_bin226_NLNLHLLD_01344;dRep_bin179_HFEIPPPA_01251;dRep_bin324_IPNHOHFK_02066;dRep_bin209_NKIHFCEN_00300;dRep_bin157_JPNIKEKI_00205;dRep_bin133_NOBPDBPA_00611;dRep_bin261_FJICAFFM_00251;dRep_bin041_OPKGAAAG_00795	dRep_bin292_JIBLDOOH_01122;dRep_bin203_CLFNNOCF_00722;dRep_bin226_NLNLHLLD_01344;dRep_bin179_HFEIPPPA_01251;dRep_bin324_IPNHOHFK_02066;dRep_bin209_NKIHFCEN_00300;dRep_bin157_JPNIKEKI_00205;dRep_bin133_NOBPDBPA_00611;dRep_bin261_FJICAFFM_00251;dRep_bin041_OPKGAAAG_00795	>dRep_bin292_JIBLDOOH_01122 NAD-dependent malic enzyme;>dRep_bin203_CLFNNOCF_00722 NAD-dependent malic enzyme;>dRep_bin226_NLNLHLLD_01344 NAD-dependent malic enzyme;>dRep_bin179_HFEIPPPA_01251 NAD-dependent malic enzyme;>dRep_bin324_IPNHOHFK_02066 NAD-depe	dRep_bin261_FJICAFFM_00251	CDS		1.1.1.38	NAD-dependent malic enzyme
FJICAFFM_00289		24.66324										1	1	0,0022109	dRep_bin261_FJICAFFM_00289	dRep_bin261_FJICAFFM_00289	>dRep_bin261_FJICAFFM_00289 Cellobiose phosphorylase	dRep_bin261_FJICAFFM_00289	CDS	cbpA_1	2.4.1.20	Cellobiose phosphorylase
FJICAFFM_00295	25.929329999999997	25.80334	28.56587	25.608739999999997	28.330830000000002	28.851180000000003	29.565199999999997	28.06394				23	21	2,0039E-260	dRep_bin053_OMGNPOOB_01278;dRep_bin302_AHDEPDKG_00299;dRep_bin238_OLNFACLE_00618;dRep_bin125_FADLGGII_00735;dRep_bin097_CBBLIPAN_01892;dRep_bin134_HIAPAODO_01198;dRep_bin261_FJICAFFM_00295;dRep_bin282_PKAAPBFP_01577;dRep_bin074_EHAOMODJ_00946;dRep_bin347_EKGCMFPD_01776;dRep_bin127_FIPNHBCH_01523;dRep_bin075_EPEMMOCL_00770;dRep_bin201_OLKDIBOK_02470;dRep_bin323_FBBLPLCG_00116;dRep_bin242_LKAIBGGJ_01298;dRep_bin029_LFMGBBEC_01403;dRep_bin250_NMCAMJIO_00064;dRep_bin049_MNFBDPNO_00772;dRep_bin309_BIOHLCGG_00465;dRep_bin193_GDMDPNNM_00894;dRep_bin106_BKDHGPBE_01007;dRep_bin243_JDMELKLC_00010;dRep_bin057_BNCFHBBO_00002;dRep_bin026_HNPIIINL_00319;dRep_bin085_MBHLGCDB_00395;dRep_bin140_ACFAKGIL_00161;dRep_bin150_HCDEOBMH_00480;dRep_bin177_HLHGKLFL_01057;dRep_bin260_HELEPKJL_01297;dRep_bin159_ADJJGPBG_00428	dRep_bin053_OMGNPOOB_01278	>dRep_bin053_OMGNPOOB_01278 Phosphoribosylformylglycinamidine synthase	dRep_bin261_FJICAFFM_00295	CDS	purQ	6.3.5.3	Phosphoribosylformylglycinamidine synthase subunit PurQ
FJICAFFM_00297			25.972219999999997									7	0	1,9829E-39	dRep_bin269_PNILGKPH_02238;dRep_bin261_FJICAFFM_00297;dRep_bin039_IJNOFOJK_00325;dRep_bin308_JBPDGLPP_01370;dRep_bin167_BLMEBMNN_00665;dRep_bin095_HOBNOEEF_02107	dRep_bin269_PNILGKPH_02238;dRep_bin261_FJICAFFM_00297;dRep_bin039_IJNOFOJK_00325;dRep_bin308_JBPDGLPP_01370;dRep_bin167_BLMEBMNN_00665;dRep_bin095_HOBNOEEF_02107	>dRep_bin269_PNILGKPH_02238 Glyceraldehyde-3-phosphate dehydrogenase;>dRep_bin261_FJICAFFM_00297 Glyceraldehyde-3-phosphate dehydrogenase;>dRep_bin039_IJNOFOJK_00325 Glyceraldehyde-3-phosphate dehydrogenase;>dRep_bin308_JBPDGLPP_01370 Glyceraldehyde-3-phos	dRep_bin261_FJICAFFM_00297	CDS	gap	1.2.1.12	Glyceraldehyde-3-phosphate dehydrogenase
FJICAFFM_00298			25.01555									12	0	1,0872E-71	dRep_bin261_FJICAFFM_00298	dRep_bin261_FJICAFFM_00298	>dRep_bin261_FJICAFFM_00298 Phosphoglycerate kinase	dRep_bin261_FJICAFFM_00298	CDS	pgk	2.7.2.3	Phosphoglycerate kinase
FJICAFFM_00311				22.2012								1	1	0,0009925	dRep_bin261_FJICAFFM_00311	dRep_bin261_FJICAFFM_00311	>dRep_bin261_FJICAFFM_00311 hypothetical protein	dRep_bin261_FJICAFFM_00311	CDS			hypothetical protein
FJICAFFM_00340			21.20006									5	0	5,09E-90	dRep_bin261_FJICAFFM_00340	dRep_bin261_FJICAFFM_00340	>dRep_bin261_FJICAFFM_00340 Formate acetyltransferase	dRep_bin261_FJICAFFM_00340	CDS	pflB	2.3.1.54	Formate acetyltransferase
FJICAFFM_00341			19.70065									1	1	0,00094842	dRep_bin019_MOJEPLJF_01253;dRep_bin322_OJELOJOF_00998;dRep_bin266_JFOCEDAE_01255;dRep_bin203_CLFNNOCF_01667;dRep_bin179_HFEIPPPA_01487;dRep_bin062_BOFBFLDA_00482;dRep_bin335_JIOGNAPG_01394;dRep_bin325_EIIGOGHN_00716;dRep_bin300_MJPPENNL_01210;dRep_bin287_DONBGKDH_01487;dRep_bin282_PKAAPBFP_00060;dRep_bin279_IAEFEPEN_01206;dRep_bin269_PNILGKPH_01047;dRep_bin261_FJICAFFM_00341;dRep_bin249_OFIIEIDJ_00793;dRep_bin220_PILICLLL_00785;dRep_bin201_OLKDIBOK_02285;dRep_bin168_HKDILBFE_00870;dRep_bin160_EFKMPBOM_02348;dRep_bin158_OGFICEAP_00078;dRep_bin154_JGOKHKLI_02345;dRep_bin145_KMJJJOEJ_00681;dRep_bin139_KGAJINND_00935;dRep_bin135_HHKACLPM_01083;dRep_bin134_HIAPAODO_01183;dRep_bin133_NOBPDBPA_03238;dRep_bin099_DNDAGJEJ_00384;dRep_bin095_HOBNOEEF_02248;dRep_bin091_MAFACGAD_00479;dRep_bin081_JDPCKDNP_01979;dRep_bin039_IJNOFOJK_00775;dRep_bin023_HGFJFKAI_00522;dRep_bin324_IPNHOHFK_00121;dRep_bin278_BFCONKOE_01329;dRep_bin234_ECABPBME_01690;dRep_bin027_OFJCHLJJ_00792;dRep_bin024_OLHDGABE_00305;dRep_bin005_CNDFPKJG_01369;dRep_bin088_DNGPPFDK_01526;dRep_bin077_DNNBMPMC_01927;dRep_bin310_IMBAFDIF_00406	dRep_bin019_MOJEPLJF_01253;dRep_bin322_OJELOJOF_00998;dRep_bin266_JFOCEDAE_01255;dRep_bin203_CLFNNOCF_01667;dRep_bin179_HFEIPPPA_01487;dRep_bin062_BOFBFLDA_00482;dRep_bin335_JIOGNAPG_01394;dRep_bin325_EIIGOGHN_00716;dRep_bin300_MJPPENNL_01210;dRep_bin287_DONBGKDH_01487;dRep_bin282_PKAAPBFP_00060;dRep_bin279_IAEFEPEN_01206;dRep_bin269_PNILGKPH_01047;dRep_bin261_FJICAFFM_00341;dRep_bin249_OFIIEIDJ_00793;dRep_bin220_PILICLLL_00785;dRep_bin201_OLKDIBOK_02285;dRep_bin168_HKDILBFE_00870;dRep_bin160_EFKMPBOM_02348;dRep_bin158_OGFICEAP_00078;dRep_bin154_JGOKHKLI_02345;dRep_bin145_KMJJJOEJ_00681;dRep_bin139_KGAJINND_00935;dRep_bin135_HHKACLPM_01083;dRep_bin134_HIAPAODO_01183;dRep_bin133_NOBPDBPA_03238;dRep_bin099_DNDAGJEJ_00384;dRep_bin095_HOBNOEEF_02248;dRep_bin091_MAFACGAD_00479;dRep_bin081_JDPCKDNP_01979;dRep_bin039_IJNOFOJK_00775;dRep_bin023_HGFJFKAI_00522;dRep_bin324_IPNHOHFK_00121;dRep_bin278_BFCONKOE_01329;dRep_bin234_ECABPBME_01690;dRep_bin027_OFJCHLJJ_00792;dRep_bin024_OLHDGABE_00305;dRep_bin005_CNDFPKJG_01369;dRep_bin088_DNGPPFDK_01526;dRep_bin077_DNNBMPMC_01927;dRep_bin310_IMBAFDIF_00406	>dRep_bin019_MOJEPLJF_01253 Purine catabolism regulatory protein;>dRep_bin322_OJELOJOF_00998 Purine catabolism regulatory protein;>dRep_bin266_JFOCEDAE_01255 Purine catabolism regulatory protein;>dRep_bin203_CLFNNOCF_01667 Carbohydrate diacid regulator;>dR	dRep_bin261_FJICAFFM_00341	CDS	pucR_1		Purine catabolism regulatory protein
FJICAFFM_00349				24.52409								3	1	3,0363E-62	dRep_bin157_JPNIKEKI_01307;dRep_bin039_IJNOFOJK_01899;dRep_bin186_HJAAFFNP_00774;dRep_bin318_IEDEJOFJ_01639;dRep_bin164_KHMELCCL_00132;dRep_bin328_GIGKNKPJ_01195;dRep_bin260_HELEPKJL_01523;dRep_bin287_DONBGKDH_01508;dRep_bin158_OGFICEAP_02168;dRep_bin127_FIPNHBCH_00569;dRep_bin115_IFKGOGCL_02347;dRep_bin099_DNDAGJEJ_00641;dRep_bin308_JBPDGLPP_01860;dRep_bin333_EFOKIBLA_01083;dRep_bin321_EJNAAGJG_00266;dRep_bin273_FGAEBHNP_00052;dRep_bin299_AKNBKJGM_00308;dRep_bin216_JNJMCPHB_01326;dRep_bin094_LBLICAAO_00532;dRep_bin295_EJGKDKNE_01389;dRep_bin021_AJDDCGJC_00388;dRep_bin336_MPGOKPOL_01887;dRep_bin147_EJLBNEBE_01158;dRep_bin091_MAFACGAD_00923;dRep_bin261_FJICAFFM_00349;dRep_bin203_CLFNNOCF_01032;dRep_bin292_JIBLDOOH_00170;dRep_bin324_IPNHOHFK_01855;dRep_bin133_NOBPDBPA_02057;dRep_bin179_HFEIPPPA_01406;dRep_bin297_EDHEEICA_01152;dRep_bin005_CNDFPKJG_00713	dRep_bin157_JPNIKEKI_01307;dRep_bin039_IJNOFOJK_01899;dRep_bin186_HJAAFFNP_00774;dRep_bin318_IEDEJOFJ_01639;dRep_bin164_KHMELCCL_00132;dRep_bin328_GIGKNKPJ_01195;dRep_bin260_HELEPKJL_01523;dRep_bin287_DONBGKDH_01508;dRep_bin158_OGFICEAP_02168;dRep_bin127_FIPNHBCH_00569;dRep_bin115_IFKGOGCL_02347;dRep_bin099_DNDAGJEJ_00641;dRep_bin308_JBPDGLPP_01860;dRep_bin333_EFOKIBLA_01083;dRep_bin321_EJNAAGJG_00266;dRep_bin273_FGAEBHNP_00052;dRep_bin299_AKNBKJGM_00308;dRep_bin216_JNJMCPHB_01326;dRep_bin094_LBLICAAO_00532;dRep_bin295_EJGKDKNE_01389;dRep_bin021_AJDDCGJC_00388;dRep_bin336_MPGOKPOL_01887;dRep_bin147_EJLBNEBE_01158;dRep_bin091_MAFACGAD_00923;dRep_bin261_FJICAFFM_00349;dRep_bin203_CLFNNOCF_01032;dRep_bin292_JIBLDOOH_00170;dRep_bin324_IPNHOHFK_01855;dRep_bin133_NOBPDBPA_02057;dRep_bin179_HFEIPPPA_01406;dRep_bin297_EDHEEICA_01152;dRep_bin005_CNDFPKJG_00713	>dRep_bin157_JPNIKEKI_01307 Galactose-1-phosphate uridylyltransferase;>dRep_bin039_IJNOFOJK_01899 Galactose-1-phosphate uridylyltransferase;>dRep_bin186_HJAAFFNP_00774 Galactose-1-phosphate uridylyltransferase;>dRep_bin318_IEDEJOFJ_01639 Galactose-1-phosph	dRep_bin261_FJICAFFM_00349	CDS	galT	2.7.7.12	Galactose-1-phosphate uridylyltransferase
FJICAFFM_00359												1	1	2,6533E-06	dRep_bin261_FJICAFFM_00359;dRep_bin209_NKIHFCEN_01518;dRep_bin133_NOBPDBPA_00701;dRep_bin041_OPKGAAAG_00707	dRep_bin261_FJICAFFM_00359;dRep_bin209_NKIHFCEN_01518;dRep_bin133_NOBPDBPA_00701;dRep_bin041_OPKGAAAG_00707	>dRep_bin261_FJICAFFM_00359 30S ribosomal protein S6;>dRep_bin209_NKIHFCEN_01518 30S ribosomal protein S6;>dRep_bin133_NOBPDBPA_00701 30S ribosomal protein S6;>dRep_bin041_OPKGAAAG_00707 30S ribosomal protein S6	dRep_bin261_FJICAFFM_00359	CDS	rpsF		30S ribosomal protein S6
FJICAFFM_00361	24.642789999999998											1	1	0,0053536	dRep_bin203_CLFNNOCF_01849;dRep_bin179_HFEIPPPA_02085;dRep_bin269_PNILGKPH_00177;dRep_bin254_GJDPFAEA_02076;dRep_bin039_IJNOFOJK_01524;dRep_bin324_IPNHOHFK_01389;dRep_bin308_JBPDGLPP_01586;dRep_bin297_EDHEEICA_00582;dRep_bin261_FJICAFFM_00361;dRep_bin127_FIPNHBCH_00822;dRep_bin065_DFABHCBI_01669	dRep_bin203_CLFNNOCF_01849;dRep_bin179_HFEIPPPA_02085;dRep_bin269_PNILGKPH_00177;dRep_bin254_GJDPFAEA_02076;dRep_bin039_IJNOFOJK_01524;dRep_bin324_IPNHOHFK_01389;dRep_bin308_JBPDGLPP_01586;dRep_bin297_EDHEEICA_00582;dRep_bin261_FJICAFFM_00361;dRep_bin127_FIPNHBCH_00822;dRep_bin065_DFABHCBI_01669	>dRep_bin203_CLFNNOCF_01849 30S ribosomal protein S18;>dRep_bin179_HFEIPPPA_02085 30S ribosomal protein S18;>dRep_bin269_PNILGKPH_00177 30S ribosomal protein S18;>dRep_bin254_GJDPFAEA_02076 30S ribosomal protein S18;>dRep_bin039_IJNOFOJK_01524 30S ribosoma	dRep_bin261_FJICAFFM_00361	CDS	rpsR		30S ribosomal protein S18
FJICAFFM_00363		21.70016										3	1	2,7649E-07	dRep_bin261_FJICAFFM_00363;dRep_bin300_MJPPENNL_00251;dRep_bin269_PNILGKPH_01526;dRep_bin297_EDHEEICA_01349;dRep_bin324_IPNHOHFK_01470;dRep_bin287_DONBGKDH_00051;dRep_bin322_OJELOJOF_00954;dRep_bin248_CCDFPECI_01142;dRep_bin007_LNLEAAAN_01237;dRep_bin095_HOBNOEEF_01161;dRep_bin016_JLGAHGOJ_00534;dRep_bin220_PILICLLL_00631;dRep_bin344_CJJBDGAA_00160;dRep_bin248_CCDFPECI_00818;dRep_bin145_KMJJJOEJ_00875;dRep_bin134_HIAPAODO_01713	dRep_bin261_FJICAFFM_00363;dRep_bin300_MJPPENNL_00251;dRep_bin269_PNILGKPH_01526;dRep_bin297_EDHEEICA_01349;dRep_bin324_IPNHOHFK_01470	>dRep_bin261_FJICAFFM_00363 Modulator of FtsH protease HflC;>dRep_bin300_MJPPENNL_00251 Modulator of FtsH protease HflK;>dRep_bin269_PNILGKPH_01526 Modulator of FtsH protease HflK;>dRep_bin297_EDHEEICA_01349 Modulator of FtsH protease HflK;>dRep_bin324_IPN	dRep_bin261_FJICAFFM_00363	CDS	hflC		Modulator of FtsH protease HflC
FJICAFFM_00373	26.627290000000002	26.448759999999996	26.68325	26.600450000000002								2	2	3,9693E-06	dRep_bin261_FJICAFFM_00373;dRep_bin047_IFFANOMN_01727;dRep_bin186_HJAAFFNP_00339;dRep_bin328_GIGKNKPJ_01340;dRep_bin260_HELEPKJL_01351;dRep_bin234_ECABPBME_00122;dRep_bin203_CLFNNOCF_02128;dRep_bin167_BLMEBMNN_01080;dRep_bin127_FIPNHBCH_00033;dRep_bin115_IFKGOGCL_00639;dRep_bin089_PAJFOJBN_02079;dRep_bin088_DNGPPFDK_00696;dRep_bin081_JDPCKDNP_01237;dRep_bin047_IFFANOMN_00242;dRep_bin266_JFOCEDAE_01008	dRep_bin261_FJICAFFM_00373;dRep_bin047_IFFANOMN_01727;dRep_bin186_HJAAFFNP_00339;dRep_bin328_GIGKNKPJ_01340;dRep_bin260_HELEPKJL_01351;dRep_bin234_ECABPBME_00122;dRep_bin203_CLFNNOCF_02128;dRep_bin167_BLMEBMNN_01080;dRep_bin127_FIPNHBCH_00033;dRep_bin115_IFKGOGCL_00639;dRep_bin089_PAJFOJBN_02079;dRep_bin088_DNGPPFDK_00696;dRep_bin081_JDPCKDNP_01237;dRep_bin047_IFFANOMN_00242;dRep_bin266_JFOCEDAE_01008	>dRep_bin261_FJICAFFM_00373 50S ribosomal protein L16;>dRep_bin047_IFFANOMN_01727 50S ribosomal protein L16;>dRep_bin186_HJAAFFNP_00339 50S ribosomal protein L16;>dRep_bin328_GIGKNKPJ_01340 50S ribosomal protein L16;>dRep_bin260_HELEPKJL_01351 50S ribosoma	dRep_bin261_FJICAFFM_00373	CDS	rplP		50S ribosomal protein L16
FJICAFFM_00374	29.02889	28.520509999999998	28.935029999999998	29.496389999999998	29.266619999999996	29.54237	28.59722	28.9161				4	2	5,8411E-90	dRep_bin088_DNGPPFDK_00695;dRep_bin127_FIPNHBCH_00032;dRep_bin203_CLFNNOCF_02129;dRep_bin016_JLGAHGOJ_00431;dRep_bin139_KGAJINND_01528;dRep_bin047_IFFANOMN_00243;dRep_bin065_DFABHCBI_01273;dRep_bin001_GHHJMDAL_00752;dRep_bin261_FJICAFFM_00374;dRep_bin154_JGOKHKLI_00797;dRep_bin089_PAJFOJBN_02078;dRep_bin211_LGJEFJIK_00745;dRep_bin234_ECABPBME_00123;dRep_bin160_EFKMPBOM_01984;dRep_bin328_GIGKNKPJ_01341;dRep_bin001_GHHJMDAL_01070;dRep_bin266_JFOCEDAE_01009;dRep_bin259_IFIOODLK_01513;dRep_bin200_JJGKEOHI_00186;dRep_bin031_BNHMFOII_00541;dRep_bin282_PKAAPBFP_00485;dRep_bin200_JJGKEOHI_01014;dRep_bin086_HHEJBMCP_00611;dRep_bin135_HHKACLPM_00480;dRep_bin277_MIPNGEJE_00780;dRep_bin123_PJKBFKBB_00849;dRep_bin330_CODAKHDJ_00380;dRep_bin218_ACMPALGF_00064	dRep_bin088_DNGPPFDK_00695;dRep_bin127_FIPNHBCH_00032;dRep_bin203_CLFNNOCF_02129;dRep_bin016_JLGAHGOJ_00431;dRep_bin139_KGAJINND_01528;dRep_bin047_IFFANOMN_00243;dRep_bin065_DFABHCBI_01273;dRep_bin001_GHHJMDAL_00752;dRep_bin261_FJICAFFM_00374;dRep_bin154_JGOKHKLI_00797;dRep_bin089_PAJFOJBN_02078;dRep_bin211_LGJEFJIK_00745;dRep_bin234_ECABPBME_00123;dRep_bin160_EFKMPBOM_01984;dRep_bin328_GIGKNKPJ_01341;dRep_bin001_GHHJMDAL_01070	>dRep_bin088_DNGPPFDK_00695 30S ribosomal protein S3;>dRep_bin127_FIPNHBCH_00032 30S ribosomal protein S3;>dRep_bin203_CLFNNOCF_02129 30S ribosomal protein S3;>dRep_bin016_JLGAHGOJ_00431 30S ribosomal protein S3;>dRep_bin139_KGAJINND_01528 30S ribosomal pr	dRep_bin261_FJICAFFM_00374	CDS	rpsC		30S ribosomal protein S3
FJICAFFM_00375	26.979779999999998	27.086589999999998	28.52955	30.15641								4	2	1,0225E-08	dRep_bin203_CLFNNOCF_02130;dRep_bin261_FJICAFFM_00375;dRep_bin027_OFJCHLJJ_00119	dRep_bin203_CLFNNOCF_02130;dRep_bin261_FJICAFFM_00375;dRep_bin027_OFJCHLJJ_00119	>dRep_bin203_CLFNNOCF_02130 50S ribosomal protein L22;>dRep_bin261_FJICAFFM_00375 50S ribosomal protein L22;>dRep_bin027_OFJCHLJJ_00119 50S ribosomal protein L22	dRep_bin261_FJICAFFM_00375	CDS	rplV		50S ribosomal protein L22
FJICAFFM_00376		24.228539999999995		25.783139999999996								6	0	2,226E-19	dRep_bin016_JLGAHGOJ_00429;dRep_bin211_LGJEFJIK_01523;dRep_bin160_EFKMPBOM_01986;dRep_bin001_GHHJMDAL_01068;dRep_bin310_IMBAFDIF_00080;dRep_bin023_HGFJFKAI_00761;dRep_bin261_FJICAFFM_00376	dRep_bin016_JLGAHGOJ_00429;dRep_bin211_LGJEFJIK_01523;dRep_bin160_EFKMPBOM_01986;dRep_bin001_GHHJMDAL_01068;dRep_bin310_IMBAFDIF_00080;dRep_bin023_HGFJFKAI_00761	>dRep_bin016_JLGAHGOJ_00429 30S ribosomal protein S19;>dRep_bin211_LGJEFJIK_01523 30S ribosomal protein S19;>dRep_bin160_EFKMPBOM_01986 30S ribosomal protein S19;>dRep_bin001_GHHJMDAL_01068 30S ribosomal protein S19;>dRep_bin310_IMBAFDIF_00080 30S ribosoma	dRep_bin261_FJICAFFM_00376	CDS	rpsS		30S ribosomal protein S19
FJICAFFM_00378	24.54734	24.70767	26.50335	29.17174								2	1	2,7267E-18	dRep_bin292_JIBLDOOH_00003;dRep_bin261_FJICAFFM_00378;dRep_bin203_CLFNNOCF_02133;dRep_bin347_EKGCMFPD_01516;dRep_bin328_GIGKNKPJ_01345;dRep_bin308_JBPDGLPP_01106;dRep_bin303_DDDNDJCF_00709;dRep_bin211_LGJEFJIK_01521;dRep_bin167_BLMEBMNN_01075;dRep_bin154_JGOKHKLI_00801;dRep_bin135_HHKACLPM_00484	dRep_bin292_JIBLDOOH_00003;dRep_bin261_FJICAFFM_00378;dRep_bin203_CLFNNOCF_02133;dRep_bin347_EKGCMFPD_01516;dRep_bin328_GIGKNKPJ_01345;dRep_bin308_JBPDGLPP_01106;dRep_bin303_DDDNDJCF_00709;dRep_bin211_LGJEFJIK_01521;dRep_bin167_BLMEBMNN_01075;dRep_bin154_JGOKHKLI_00801;dRep_bin135_HHKACLPM_00484	>dRep_bin292_JIBLDOOH_00003 50S ribosomal protein L23;>dRep_bin261_FJICAFFM_00378 50S ribosomal protein L23;>dRep_bin203_CLFNNOCF_02133 50S ribosomal protein L23;>dRep_bin347_EKGCMFPD_01516 50S ribosomal protein L23;>dRep_bin328_GIGKNKPJ_01345 50S ribosoma	dRep_bin261_FJICAFFM_00378	CDS	rplW		50S ribosomal protein L23
FJICAFFM_00380				27.911990000000003								4	1	5,0598E-24	dRep_bin261_FJICAFFM_00380;dRep_bin062_BOFBFLDA_00731;dRep_bin220_PILICLLL_00213;dRep_bin332_KAOPCDPF_01345;dRep_bin287_DONBGKDH_01240;dRep_bin266_JFOCEDAE_01015	dRep_bin261_FJICAFFM_00380	>dRep_bin261_FJICAFFM_00380 50S ribosomal protein L3	dRep_bin261_FJICAFFM_00380	CDS	rplC		50S ribosomal protein L3
FJICAFFM_00387					24.448529999999995	23.15033	23.262129999999996	23.47816				5	1	9,3914E-26	dRep_bin201_OLKDIBOK_00669;dRep_bin081_JDPCKDNP_02088;dRep_bin133_NOBPDBPA_03966;dRep_bin335_JIOGNAPG_01044;dRep_bin292_JIBLDOOH_01869;dRep_bin240_LDBBGJKG_02054;dRep_bin220_PILICLLL_00565;dRep_bin261_FJICAFFM_00387;dRep_bin257_JHFDCHCB_02440;dRep_bin019_MOJEPLJF_01205;dRep_bin201_OLKDIBOK_01983	dRep_bin201_OLKDIBOK_00669;dRep_bin081_JDPCKDNP_02088;dRep_bin133_NOBPDBPA_03966;dRep_bin335_JIOGNAPG_01044	>dRep_bin201_OLKDIBOK_00669 Hydroxylamine reductase;>dRep_bin081_JDPCKDNP_02088 Hydroxylamine reductase;>dRep_bin133_NOBPDBPA_03966 Hydroxylamine reductase;>dRep_bin335_JIOGNAPG_01044 Hydroxylamine reductase	dRep_bin261_FJICAFFM_00387	CDS	hcp	1.7.99.1	Hydroxylamine reductase
FJICAFFM_00391				26.25452								10	1	3,7657E-68	dRep_bin261_FJICAFFM_00391	dRep_bin261_FJICAFFM_00391	>dRep_bin261_FJICAFFM_00391 Pyruvate synthase	dRep_bin261_FJICAFFM_00391	CDS	por	1.2.7.1	Pyruvate synthase
FJICAFFM_00403								23.62778				4	1	3,6641E-10	dRep_bin139_KGAJINND_00546;dRep_bin344_CJJBDGAA_00504;dRep_bin269_PNILGKPH_01782;dRep_bin186_HJAAFFNP_01230;dRep_bin160_EFKMPBOM_02028;dRep_bin154_JGOKHKLI_01570;dRep_bin027_OFJCHLJJ_01704;dRep_bin019_MOJEPLJF_00393;dRep_bin095_HOBNOEEF_01900;dRep_bin007_LNLEAAAN_01664;dRep_bin134_HIAPAODO_02032;dRep_bin220_PILICLLL_00626;dRep_bin201_OLKDIBOK_01146;dRep_bin158_OGFICEAP_00831;dRep_bin261_FJICAFFM_00403;dRep_bin347_EKGCMFPD_01461;dRep_bin328_GIGKNKPJ_00617;dRep_bin308_JBPDGLPP_01735;dRep_bin284_DEHKNOBF_00839;dRep_bin254_GJDPFAEA_01844;dRep_bin127_FIPNHBCH_00020;dRep_bin081_JDPCKDNP_00351;dRep_bin065_DFABHCBI_01741;dRep_bin001_GHHJMDAL_00049;dRep_bin335_JIOGNAPG_00092;dRep_bin282_PKAAPBFP_00201;dRep_bin260_HELEPKJL_01120;dRep_bin039_IJNOFOJK_00928;dRep_bin088_DNGPPFDK_00468;dRep_bin248_CCDFPECI_00111;dRep_bin107_EFNBPDOP_01463;dRep_bin077_DNNBMPMC_00533;dRep_bin300_MJPPENNL_00852;dRep_bin279_IAEFEPEN_01391;dRep_bin145_KMJJJOEJ_01298;dRep_bin062_BOFBFLDA_00998;dRep_bin016_JLGAHGOJ_00540;dRep_bin310_IMBAFDIF_00139;dRep_bin115_IFKGOGCL_00786;dRep_bin158_OGFICEAP_00832;dRep_bin066_AJACLPEE_00773;dRep_bin249_OFIIEIDJ_01720;dRep_bin324_IPNHOHFK_00378;dRep_bin287_DONBGKDH_00056;dRep_bin186_HJAAFFNP_01363;dRep_bin181_MKGPMPIA_00052;dRep_bin319_PBDBJGCJ_00396;dRep_bin278_BFCONKOE_00395;dRep_bin024_OLHDGABE_00254;dRep_bin135_HHKACLPM_01039	dRep_bin139_KGAJINND_00546;dRep_bin344_CJJBDGAA_00504;dRep_bin269_PNILGKPH_01782;dRep_bin186_HJAAFFNP_01230;dRep_bin160_EFKMPBOM_02028;dRep_bin154_JGOKHKLI_01570;dRep_bin027_OFJCHLJJ_01704;dRep_bin019_MOJEPLJF_00393;dRep_bin095_HOBNOEEF_01900;dRep_bin007_LNLEAAAN_01664;dRep_bin134_HIAPAODO_02032;dRep_bin220_PILICLLL_00626;dRep_bin201_OLKDIBOK_01146;dRep_bin158_OGFICEAP_00831;dRep_bin261_FJICAFFM_00403;dRep_bin347_EKGCMFPD_01461;dRep_bin328_GIGKNKPJ_00617;dRep_bin308_JBPDGLPP_01735;dRep_bin284_DEHKNOBF_00839;dRep_bin254_GJDPFAEA_01844;dRep_bin127_FIPNHBCH_00020;dRep_bin081_JDPCKDNP_00351;dRep_bin065_DFABHCBI_01741;dRep_bin001_GHHJMDAL_00049;dRep_bin335_JIOGNAPG_00092;dRep_bin282_PKAAPBFP_00201;dRep_bin260_HELEPKJL_01120;dRep_bin039_IJNOFOJK_00928;dRep_bin088_DNGPPFDK_00468;dRep_bin248_CCDFPECI_00111;dRep_bin107_EFNBPDOP_01463;dRep_bin077_DNNBMPMC_00533;dRep_bin300_MJPPENNL_00852;dRep_bin279_IAEFEPEN_01391;dRep_bin145_KMJJJOEJ_01298;dRep_bin062_BOFBFLDA_00998;dRep_bin016_JLGAHGOJ_00540;dRep_bin310_IMBAFDIF_00139	>dRep_bin139_KGAJINND_00546 ATP-dependent 6-phosphofructokinase;>dRep_bin344_CJJBDGAA_00504 ATP-dependent 6-phosphofructokinase;>dRep_bin269_PNILGKPH_01782 ATP-dependent 6-phosphofructokinase;>dRep_bin186_HJAAFFNP_01230 ATP-dependent 6-phosphofructokinase;	dRep_bin261_FJICAFFM_00403	CDS	pfkA	2.7.1.11	ATP-dependent 6-phosphofructokinase
FJICAFFM_00427	26.576719999999998				26.68177	28.0503	28.01063	27.38113				11	11	1,911E-66	dRep_bin133_NOBPDBPA_05005;dRep_bin065_DFABHCBI_01760;dRep_bin328_GIGKNKPJ_00769;dRep_bin261_FJICAFFM_00427;dRep_bin203_CLFNNOCF_02491	dRep_bin133_NOBPDBPA_05005;dRep_bin065_DFABHCBI_01760	>dRep_bin133_NOBPDBPA_05005 NADP-dependent 7-alpha-hydroxysteroid dehydrogenase;>dRep_bin065_DFABHCBI_01760 NADP-dependent 7-alpha-hydroxysteroid dehydrogenase	dRep_bin261_FJICAFFM_00427	CDS		1.1.1.-	NADP-dependent 7-alpha-hydroxysteroid dehydrogenase
FJICAFFM_00490				21.86884								3	1	1,3797E-13	dRep_bin021_AJDDCGJC_00051;dRep_bin252_NDAKLAGD_00826;dRep_bin317_ABPHNCOD_01131;dRep_bin216_JNJMCPHB_01076;dRep_bin272_LGBDGEIM_00618;dRep_bin097_CBBLIPAN_01579;dRep_bin053_OMGNPOOB_00833;dRep_bin337_FHKPNFDB_00090;dRep_bin052_PGOOKKFH_01594;dRep_bin168_HKDILBFE_01015;dRep_bin322_OJELOJOF_01622;dRep_bin220_PILICLLL_01543;dRep_bin055_IBMMJAEE_00610;dRep_bin061_ONFGDLGO_01234;dRep_bin168_HKDILBFE_00368;dRep_bin055_IBMMJAEE_00168;dRep_bin261_FJICAFFM_00490;dRep_bin017_FGFLFOPJ_00414;dRep_bin115_IFKGOGCL_01280;dRep_bin257_JHFDCHCB_01406;dRep_bin323_FBBLPLCG_01600;dRep_bin007_LNLEAAAN_00766;dRep_bin049_MNFBDPNO_00781;dRep_bin333_EFOKIBLA_01149;dRep_bin279_IAEFEPEN_01471;dRep_bin234_ECABPBME_01515;dRep_bin179_HFEIPPPA_02108;dRep_bin023_HGFJFKAI_01527;dRep_bin335_JIOGNAPG_00787;dRep_bin250_NMCAMJIO_00423;dRep_bin158_OGFICEAP_00549;dRep_bin100_CODMOHGB_01341;dRep_bin089_PAJFOJBN_02515;dRep_bin088_DNGPPFDK_01371;dRep_bin081_JDPCKDNP_00684;dRep_bin324_IPNHOHFK_01454;dRep_bin300_MJPPENNL_01260;dRep_bin292_JIBLDOOH_01593;dRep_bin284_DEHKNOBF_00281;dRep_bin282_PKAAPBFP_00934;dRep_bin279_IAEFEPEN_01275;dRep_bin269_PNILGKPH_00152;dRep_bin240_LDBBGJKG_01257;dRep_bin226_NLNLHLLD_00367;dRep_bin209_NKIHFCEN_01541;dRep_bin203_CLFNNOCF_01928;dRep_bin179_HFEIPPPA_00359;dRep_bin167_BLMEBMNN_00233;dRep_bin160_EFKMPBOM_02132;dRep_bin154_JGOKHKLI_02775;dRep_bin133_NOBPDBPA_00727;dRep_bin114_FJHJKHGL_00838;dRep_bin095_HOBNOEEF_00822;dRep_bin075_EPEMMOCL_00939;dRep_bin074_EHAOMODJ_00291;dRep_bin065_DFABHCBI_01203;dRep_bin347_EKGCMFPD_00625;dRep_bin325_EIIGOGHN_00612;dRep_bin310_IMBAFDIF_01359;dRep_bin308_JBPDGLPP_00545;dRep_bin306_FGHMKMMP_01018;dRep_bin297_EDHEEICA_01903;dRep_bin201_OLKDIBOK_00335;dRep_bin186_HJAAFFNP_00409;dRep_bin173_BEBNCADL_00242;dRep_bin169_PNICKJKO_00103;dRep_bin145_KMJJJOEJ_01348;dRep_bin135_HHKACLPM_00566;dRep_bin101_BNDDLDCL_00036;dRep_bin069_EGGEOGDC_01480;dRep_bin062_BOFBFLDA_00487;dRep_bin047_IFFANOMN_01271;dRep_bin042_MMFCLHOO_00308;dRep_bin041_OPKGAAAG_00762;dRep_bin024_OLHDGABE_00679;dRep_bin016_JLGAHGOJ_01831;dRep_bin001_GHHJMDAL_00660;dRep_bin349_AMCJEEEG_00131;dRep_bin312_MJFEFHMP_00833;dRep_bin264_DNFFGNEG_00100;dRep_bin246_MMFBABHK_00297;dRep_bin219_HGPEELLF_00003;dRep_bin174_LJJOKEME_01103;dRep_bin129_GADIAMAA_01409;dRep_bin127_FIPNHBCH_00703;dRep_bin077_DNNBMPMC_01278;dRep_bin030_OGPDLGOC_01790;dRep_bin004_OCHNPJPO_01519;dRep_bin218_ACMPALGF_00968;dRep_bin185_OOOLKACK_00657;dRep_bin181_MKGPMPIA_00538;dRep_bin148_NAJFKJMD_01090;dRep_bin058_GJKCICJN_01056;dRep_bin291_EILOACJB_00579;dRep_bin244_LBFMHLBI_01277;dRep_bin223_PIMCDKJI_01006;dRep_bin204_INMOGLDN_01473;dRep_bin184_MBMMJHKO_00222;dRep_bin302_AHDEPDKG_00621;dRep_bin265_LFKFBJPC_00590;dRep_bin233_BAGKKAOB_00885;dRep_bin188_EJILNMPE_01053;dRep_bin081_JDPCKDNP_01324;dRep_bin318_IEDEJOFJ_00724;dRep_bin144_NPHACCKF_00221;dRep_bin096_GNHMEKPF_00086;dRep_bin344_CJJBDGAA_01489;dRep_bin295_EJGKDKNE_00851;dRep_bin048_PABMBHAL_01507;dRep_bin303_DDDNDJCF_00663;dRep_bin283_NLJJFFAC_01754;dRep_bin201_OLKDIBOK_00523;dRep_bin139_KGAJINND_01276;dRep_bin134_HIAPAODO_01158;dRep_bin094_LBLICAAO_00942;dRep_bin062_BOFBFLDA_00417;dRep_bin336_MPGOKPOL_02385;dRep_bin082_HBEFABJN_00650;dRep_bin125_FADLGGII_00540;dRep_bin334_NAPFFNLD_01195;dRep_bin217_MJCEAEPB_00530;dRep_bin195_DDMDFNOK_00971;dRep_bin060_HNFNENOI_00088;dRep_bin328_GIGKNKPJ_00426;dRep_bin281_OGHLKMAI_01076;dRep_bin197_NHLBHFEI_00626;dRep_bin103_IGJBLKMC_00726;dRep_bin116_CLFDBMOF_00455;dRep_bin332_KAOPCDPF_00448;dRep_bin345_GLPJDLOI_00589;dRep_bin314_KCHFPLIP_00788;dRep_bin128_JPBBHEMA_00693;dRep_bin073_AKBCEHHO_01462;dRep_bin045_GJACFFBC_00428;dRep_bin329_GDOHKPBL_01522;dRep_bin316_FNLHDNEO_00349;dRep_bin307_AOCKHIKF_00400;dRep_bin294_EHJINIDK_01408;dRep_bin289_KALDCNNP_01327;dRep_bin183_FPGIOKBG_00622;dRep_bin098_DDEBHDKK_01308;dRep_bin165_HMDFFMMM_01247;dRep_bin037_GEAOEKHA_01212;dRep_bin256_KEMNAOBC_00113;dRep_bin092_OOJCPDEA_01143;dRep_bin126_PPDNCIBN_00264;dRep_bin090_IPGNHCBJ_00911;dRep_bin215_ABBFGCAF_00280;dRep_bin005_CNDFPKJG_00629;dRep_bin270_GEJAHNCN_01426;dRep_bin116_CLFDBMOF_00686;dRep_bin069_EGGEOGDC_00857;dRep_bin007_LNLEAAAN_01604;dRep_bin057_BNCFHBBO_01159;dRep_bin038_EIGFILKG_00229;dRep_bin114_FJHJKHGL_00934;dRep_bin152_LJMCIADF_00045;dRep_bin322_OJELOJOF_00826;dRep_bin266_JFOCEDAE_00030;dRep_bin194_MEPDOGGJ_01235;dRep_bin079_GAOGCKND_01437;dRep_bin068_ENOLAELK_01387;dRep_bin025_CBEJJMLE_00917;dRep_bin240_LDBBGJKG_00802;dRep_bin347_EKGCMFPD_01498;dRep_bin167_BLMEBMNN_00596;dRep_bin160_EFKMPBOM_02114;dRep_bin260_HELEPKJL_02017;dRep_bin091_MAFACGAD_00797;dRep_bin099_DNDAGJEJ_01471;dRep_bin278_BFCONKOE_01179;dRep_bin168_HKDILBFE_00397;dRep_bin284_DEHKNOBF_00737;dRep_bin001_GHHJMDAL_01209;dRep_bin236_BNONDECB_00531;dRep_bin286_OEMIJKMC_01078;dRep_bin231_CFOLMJBA_00464;dRep_bin193_GDMDPNNM_00224;dRep_bin172_ALNHGLMD_01787;dRep_bin182_EMCFODCD_00065;dRep_bin044_IPFKHAEF_00183	dRep_bin021_AJDDCGJC_00051;dRep_bin252_NDAKLAGD_00826;dRep_bin317_ABPHNCOD_01131;dRep_bin216_JNJMCPHB_01076;dRep_bin272_LGBDGEIM_00618;dRep_bin097_CBBLIPAN_01579;dRep_bin053_OMGNPOOB_00833;dRep_bin337_FHKPNFDB_00090;dRep_bin052_PGOOKKFH_01594	>dRep_bin021_AJDDCGJC_00051 ATP synthase subunit alpha;>dRep_bin252_NDAKLAGD_00826 ATP synthase subunit alpha;>dRep_bin317_ABPHNCOD_01131 ATP synthase subunit alpha;>dRep_bin216_JNJMCPHB_01076 ATP synthase subunit alpha;>dRep_bin272_LGBDGEIM_00618 ATP synt	dRep_bin261_FJICAFFM_00490	CDS	atpA	3.6.3.14	ATP synthase subunit alpha
FJICAFFM_00492								22.391840000000002				2	2	0,0012784	dRep_bin292_JIBLDOOH_01455;dRep_bin297_EDHEEICA_00460;dRep_bin260_HELEPKJL_01994;dRep_bin134_HIAPAODO_01228;dRep_bin115_IFKGOGCL_01262;dRep_bin062_BOFBFLDA_00625;dRep_bin269_PNILGKPH_00784;dRep_bin145_KMJJJOEJ_00869;dRep_bin310_IMBAFDIF_00687;dRep_bin226_NLNLHLLD_01228;dRep_bin209_NKIHFCEN_00359;dRep_bin158_OGFICEAP_01380;dRep_bin157_JPNIKEKI_00889;dRep_bin127_FIPNHBCH_01213;dRep_bin186_HJAAFFNP_00787;dRep_bin167_BLMEBMNN_01301;dRep_bin069_EGGEOGDC_00481;dRep_bin016_JLGAHGOJ_01259;dRep_bin065_DFABHCBI_00254;dRep_bin039_IJNOFOJK_01684;dRep_bin322_OJELOJOF_00527;dRep_bin261_FJICAFFM_00492;dRep_bin220_PILICLLL_01235;dRep_bin201_OLKDIBOK_02013;dRep_bin303_DDDNDJCF_00579	dRep_bin292_JIBLDOOH_01455;dRep_bin297_EDHEEICA_00460;dRep_bin260_HELEPKJL_01994;dRep_bin134_HIAPAODO_01228;dRep_bin115_IFKGOGCL_01262;dRep_bin062_BOFBFLDA_00625;dRep_bin269_PNILGKPH_00784;dRep_bin145_KMJJJOEJ_00869;dRep_bin310_IMBAFDIF_00687;dRep_bin226_NLNLHLLD_01228;dRep_bin209_NKIHFCEN_00359;dRep_bin158_OGFICEAP_01380;dRep_bin157_JPNIKEKI_00889;dRep_bin127_FIPNHBCH_01213;dRep_bin186_HJAAFFNP_00787;dRep_bin167_BLMEBMNN_01301;dRep_bin069_EGGEOGDC_00481;dRep_bin016_JLGAHGOJ_01259;dRep_bin065_DFABHCBI_00254;dRep_bin039_IJNOFOJK_01684;dRep_bin322_OJELOJOF_00527;dRep_bin261_FJICAFFM_00492;dRep_bin220_PILICLLL_01235;dRep_bin201_OLKDIBOK_02013;dRep_bin303_DDDNDJCF_00579	>dRep_bin292_JIBLDOOH_01455 Ribonuclease J1;>dRep_bin297_EDHEEICA_00460 Ribonuclease J1;>dRep_bin260_HELEPKJL_01994 Ribonuclease J1;>dRep_bin134_HIAPAODO_01228 Ribonuclease J1;>dRep_bin115_IFKGOGCL_01262 Ribonuclease J1;>dRep_bin062_BOFBFLDA_00625 Ribonucl	dRep_bin261_FJICAFFM_00492	CDS	rnjA	3.1.-.-	Ribonuclease J1
FJICAFFM_00523								24.316380000000002				2	0	4,2516E-41	dRep_bin056_EMNHHOJA_00074;dRep_bin048_PABMBHAL_00466;dRep_bin261_FJICAFFM_00523;dRep_bin206_OIIBOIAK_00489	dRep_bin056_EMNHHOJA_00074;dRep_bin048_PABMBHAL_00466;dRep_bin261_FJICAFFM_00523;dRep_bin206_OIIBOIAK_00489	>dRep_bin056_EMNHHOJA_00074 Lactaldehyde reductase;>dRep_bin048_PABMBHAL_00466 Lactaldehyde reductase;>dRep_bin261_FJICAFFM_00523 Lactaldehyde reductase;>dRep_bin206_OIIBOIAK_00489 Lactaldehyde reductase	dRep_bin261_FJICAFFM_00523	CDS	fucO	1.1.1.77	Lactaldehyde reductase
FJICAFFM_00533						23.31202						2	2	1,6059E-07	dRep_bin041_OPKGAAAG_00968;dRep_bin157_JPNIKEKI_01842;dRep_bin269_PNILGKPH_00625;dRep_bin039_IJNOFOJK_00614;dRep_bin287_DONBGKDH_00196;dRep_bin226_NLNLHLLD_00341;dRep_bin292_JIBLDOOH_01894;dRep_bin261_FJICAFFM_00533;dRep_bin209_NKIHFCEN_01892;dRep_bin324_IPNHOHFK_01704	dRep_bin041_OPKGAAAG_00968;dRep_bin157_JPNIKEKI_01842;dRep_bin269_PNILGKPH_00625;dRep_bin039_IJNOFOJK_00614;dRep_bin287_DONBGKDH_00196;dRep_bin226_NLNLHLLD_00341;dRep_bin292_JIBLDOOH_01894;dRep_bin261_FJICAFFM_00533;dRep_bin209_NKIHFCEN_01892;dRep_bin324_IPNHOHFK_01704	>dRep_bin041_OPKGAAAG_00968 Serine/threonine-protein kinase PrkC;>dRep_bin157_JPNIKEKI_01842 Serine/threonine-protein kinase PrkC;>dRep_bin269_PNILGKPH_00625 Serine/threonine-protein kinase PrkC;>dRep_bin039_IJNOFOJK_00614 Serine/threonine-protein kinase P	dRep_bin261_FJICAFFM_00533	CDS	prkC_1	2.7.11.1	Serine/threonine-protein kinase PrkC
FJICAFFM_00542				21.153070000000003								5	0	2,1735E-43	dRep_bin209_NKIHFCEN_01902;dRep_bin261_FJICAFFM_00542;dRep_bin157_JPNIKEKI_00870;dRep_bin297_EDHEEICA_01824;dRep_bin100_CODMOHGB_00455;dRep_bin309_BIOHLCGG_00473	dRep_bin209_NKIHFCEN_01902;dRep_bin261_FJICAFFM_00542;dRep_bin157_JPNIKEKI_00870;dRep_bin297_EDHEEICA_01824	>dRep_bin209_NKIHFCEN_01902 Aspartate carbamoyltransferase catalytic subunit;>dRep_bin261_FJICAFFM_00542 Aspartate carbamoyltransferase;>dRep_bin157_JPNIKEKI_00870 Aspartate carbamoyltransferase catalytic subunit;>dRep_bin297_EDHEEICA_01824 Aspartate carba	dRep_bin261_FJICAFFM_00542	CDS	pyrB	2.1.3.2	Aspartate carbamoyltransferase
FJICAFFM_00572			21.70235									2	1	1,3269E-05	dRep_bin226_NLNLHLLD_00943;dRep_bin297_EDHEEICA_00652;dRep_bin292_JIBLDOOH_00434;dRep_bin209_NKIHFCEN_00184;dRep_bin203_CLFNNOCF_00778;dRep_bin133_NOBPDBPA_00588;dRep_bin041_OPKGAAAG_01382;dRep_bin303_DDDNDJCF_01779;dRep_bin324_IPNHOHFK_00420;dRep_bin261_FJICAFFM_00572;dRep_bin134_HIAPAODO_00275;dRep_bin104_EGLEJOLM_01650;dRep_bin062_BOFBFLDA_00901;dRep_bin047_IFFANOMN_00330;dRep_bin024_OLHDGABE_01501;dRep_bin017_FGFLFOPJ_01145;dRep_bin300_MJPPENNL_01317;dRep_bin279_IAEFEPEN_01067;dRep_bin269_PNILGKPH_00957;dRep_bin039_IJNOFOJK_01473;dRep_bin266_JFOCEDAE_01133;dRep_bin077_DNNBMPMC_01163;dRep_bin254_GJDPFAEA_01965;dRep_bin167_BLMEBMNN_01484;dRep_bin127_FIPNHBCH_01375;dRep_bin308_JBPDGLPP_00717;dRep_bin005_CNDFPKJG_01429;dRep_bin081_JDPCKDNP_01004	dRep_bin226_NLNLHLLD_00943;dRep_bin297_EDHEEICA_00652;dRep_bin292_JIBLDOOH_00434;dRep_bin209_NKIHFCEN_00184;dRep_bin203_CLFNNOCF_00778;dRep_bin133_NOBPDBPA_00588;dRep_bin041_OPKGAAAG_01382;dRep_bin303_DDDNDJCF_01779;dRep_bin324_IPNHOHFK_00420;dRep_bin261_FJICAFFM_00572;dRep_bin134_HIAPAODO_00275;dRep_bin104_EGLEJOLM_01650;dRep_bin062_BOFBFLDA_00901;dRep_bin047_IFFANOMN_00330;dRep_bin024_OLHDGABE_01501;dRep_bin017_FGFLFOPJ_01145;dRep_bin300_MJPPENNL_01317;dRep_bin279_IAEFEPEN_01067;dRep_bin269_PNILGKPH_00957;dRep_bin039_IJNOFOJK_01473;dRep_bin266_JFOCEDAE_01133;dRep_bin077_DNNBMPMC_01163;dRep_bin254_GJDPFAEA_01965;dRep_bin167_BLMEBMNN_01484;dRep_bin127_FIPNHBCH_01375;dRep_bin308_JBPDGLPP_00717;dRep_bin005_CNDFPKJG_01429;dRep_bin081_JDPCKDNP_01004	>dRep_bin226_NLNLHLLD_00943 L-threonine ammonia-lyase;>dRep_bin297_EDHEEICA_00652 L-threonine ammonia-lyase;>dRep_bin292_JIBLDOOH_00434 L-threonine ammonia-lyase;>dRep_bin209_NKIHFCEN_00184 L-threonine ammonia-lyase;>dRep_bin203_CLFNNOCF_00778 L-threonine	dRep_bin261_FJICAFFM_00572	CDS	tdcB	4.3.1.19	L-threonine ammonia-lyase
FJICAFFM_00631	26.4163	25.460549999999998	26.53008	26.49732	26.423599999999997	25.75333	25.065749999999998	25.73836				5	3	3,3835E-24	dRep_bin158_OGFICEAP_00726;dRep_bin167_BLMEBMNN_01750;dRep_bin293_MEPKGOAN_00037;dRep_bin269_PNILGKPH_00249;dRep_bin270_GEJAHNCN_01115;dRep_bin257_JHFDCHCB_01631;dRep_bin297_EDHEEICA_00546;dRep_bin292_JIBLDOOH_02221;dRep_bin279_IAEFEPEN_01088;dRep_bin261_FJICAFFM_00631;dRep_bin249_OFIIEIDJ_00413;dRep_bin226_NLNLHLLD_00580;dRep_bin186_HJAAFFNP_01497;dRep_bin039_IJNOFOJK_01088;dRep_bin007_LNLEAAAN_00542;dRep_bin081_JDPCKDNP_01127;dRep_bin203_CLFNNOCF_00307;dRep_bin133_NOBPDBPA_02253;dRep_bin127_FIPNHBCH_01161;dRep_bin143_PFLDJMPF_00057;dRep_bin139_KGAJINND_01783;dRep_bin348_LCLFDNEE_00131	dRep_bin158_OGFICEAP_00726	>dRep_bin158_OGFICEAP_00726 Glutamate synthase [NADPH] small chain	dRep_bin261_FJICAFFM_00631	CDS	gltD	1.4.1.13	Glutamate synthase [NADPH] small chain
FJICAFFM_00651	27.81201	27.62178	27.502489999999998	27.902649999999998	27.641890000000004	26.87373	27.733890000000002	27.32268				4	0	9,2841E-12	dRep_bin266_JFOCEDAE_00469;dRep_bin158_OGFICEAP_02077;dRep_bin167_BLMEBMNN_01111;dRep_bin344_CJJBDGAA_01931;dRep_bin324_IPNHOHFK_00198;dRep_bin269_PNILGKPH_01184;dRep_bin297_EDHEEICA_00055;dRep_bin145_KMJJJOEJ_01157;dRep_bin107_EFNBPDOP_01472;dRep_bin310_IMBAFDIF_01195;dRep_bin300_MJPPENNL_00128;dRep_bin115_IFKGOGCL_01978;dRep_bin308_JBPDGLPP_01709;dRep_bin075_EPEMMOCL_01920;dRep_bin047_IFFANOMN_01370;dRep_bin089_PAJFOJBN_01930;dRep_bin261_FJICAFFM_00651;dRep_bin303_DDDNDJCF_01187;dRep_bin226_NLNLHLLD_00115;dRep_bin127_FIPNHBCH_00340;dRep_bin017_FGFLFOPJ_00355;dRep_bin077_DNNBMPMC_01598;dRep_bin039_IJNOFOJK_01428;dRep_bin186_HJAAFFNP_01660;dRep_bin065_DFABHCBI_00103;dRep_bin220_PILICLLL_01833;dRep_bin134_HIAPAODO_00139;dRep_bin135_HHKACLPM_00006;dRep_bin143_PFLDJMPF_00573;dRep_bin325_EIIGOGHN_00632;dRep_bin099_DNDAGJEJ_00069;dRep_bin293_MEPKGOAN_01336;dRep_bin074_EHAOMODJ_00677;dRep_bin335_JIOGNAPG_01692;dRep_bin260_HELEPKJL_01142;dRep_bin319_PBDBJGCJ_00729;dRep_bin211_LGJEFJIK_00866;dRep_bin168_HKDILBFE_00717;dRep_bin091_MAFACGAD_00274;dRep_bin248_CCDFPECI_01081;dRep_bin240_LDBBGJKG_00905;dRep_bin095_HOBNOEEF_01654;dRep_bin306_FGHMKMMP_00881;dRep_bin282_PKAAPBFP_01110;dRep_bin249_OFIIEIDJ_01129;dRep_bin347_EKGCMFPD_00530;dRep_bin284_DEHKNOBF_01449;dRep_bin001_GHHJMDAL_00488;dRep_bin181_MKGPMPIA_00635	dRep_bin266_JFOCEDAE_00469;dRep_bin158_OGFICEAP_02077;dRep_bin167_BLMEBMNN_01111;dRep_bin344_CJJBDGAA_01931;dRep_bin324_IPNHOHFK_00198;dRep_bin269_PNILGKPH_01184;dRep_bin297_EDHEEICA_00055;dRep_bin145_KMJJJOEJ_01157;dRep_bin107_EFNBPDOP_01472;dRep_bin310_IMBAFDIF_01195;dRep_bin300_MJPPENNL_00128;dRep_bin115_IFKGOGCL_01978;dRep_bin308_JBPDGLPP_01709;dRep_bin075_EPEMMOCL_01920;dRep_bin047_IFFANOMN_01370;dRep_bin089_PAJFOJBN_01930;dRep_bin261_FJICAFFM_00651;dRep_bin303_DDDNDJCF_01187;dRep_bin226_NLNLHLLD_00115;dRep_bin127_FIPNHBCH_00340;dRep_bin017_FGFLFOPJ_00355;dRep_bin077_DNNBMPMC_01598;dRep_bin039_IJNOFOJK_01428;dRep_bin186_HJAAFFNP_01660;dRep_bin065_DFABHCBI_00103;dRep_bin220_PILICLLL_01833;dRep_bin134_HIAPAODO_00139;dRep_bin135_HHKACLPM_00006	>dRep_bin266_JFOCEDAE_00469 Phosphoribosylamine--glycine ligase;>dRep_bin158_OGFICEAP_02077 Phosphoribosylamine--glycine ligase;>dRep_bin167_BLMEBMNN_01111 Phosphoribosylamine--glycine ligase;>dRep_bin344_CJJBDGAA_01931 Phosphoribosylamine--glycine ligase;	dRep_bin261_FJICAFFM_00651	CDS	purD	6.3.4.13	Phosphoribosylamine--glycine ligase
FJICAFFM_00652		25.59346										2	2	3,2981E-11	dRep_bin039_IJNOFOJK_01429;dRep_bin179_HFEIPPPA_01750;dRep_bin261_FJICAFFM_00652;dRep_bin091_MAFACGAD_00273;dRep_bin240_LDBBGJKG_00904;dRep_bin328_GIGKNKPJ_00458;dRep_bin254_GJDPFAEA_01539;dRep_bin157_JPNIKEKI_00686;dRep_bin145_KMJJJOEJ_00143;dRep_bin135_HHKACLPM_00007;dRep_bin127_FIPNHBCH_00339;dRep_bin324_IPNHOHFK_00197;dRep_bin269_PNILGKPH_01185;dRep_bin300_MJPPENNL_00127;dRep_bin292_JIBLDOOH_00667;dRep_bin279_IAEFEPEN_01212;dRep_bin209_NKIHFCEN_00751;dRep_bin139_KGAJINND_00495;dRep_bin041_OPKGAAAG_00838;dRep_bin344_CJJBDGAA_01932;dRep_bin226_NLNLHLLD_00116;dRep_bin133_NOBPDBPA_02511;dRep_bin203_CLFNNOCF_01554	dRep_bin039_IJNOFOJK_01429;dRep_bin179_HFEIPPPA_01750;dRep_bin261_FJICAFFM_00652;dRep_bin091_MAFACGAD_00273;dRep_bin240_LDBBGJKG_00904;dRep_bin328_GIGKNKPJ_00458;dRep_bin254_GJDPFAEA_01539;dRep_bin157_JPNIKEKI_00686;dRep_bin145_KMJJJOEJ_00143;dRep_bin135_HHKACLPM_00007;dRep_bin127_FIPNHBCH_00339;dRep_bin324_IPNHOHFK_00197;dRep_bin269_PNILGKPH_01185;dRep_bin300_MJPPENNL_00127;dRep_bin292_JIBLDOOH_00667;dRep_bin279_IAEFEPEN_01212;dRep_bin209_NKIHFCEN_00751;dRep_bin139_KGAJINND_00495;dRep_bin041_OPKGAAAG_00838;dRep_bin344_CJJBDGAA_01932;dRep_bin226_NLNLHLLD_00116;dRep_bin133_NOBPDBPA_02511;dRep_bin203_CLFNNOCF_01554	>dRep_bin039_IJNOFOJK_01429 Phosphoribosylglycinamide formyltransferase;>dRep_bin179_HFEIPPPA_01750 Phosphoribosylglycinamide formyltransferase;>dRep_bin261_FJICAFFM_00652 Phosphoribosylglycinamide formyltransferase;>dRep_bin091_MAFACGAD_00273 Phosphoribos	dRep_bin261_FJICAFFM_00652	CDS	purN	2.1.2.2	Phosphoribosylglycinamide formyltransferase
FJICAFFM_00655				24.889850000000003								2	1	1,7697E-06	dRep_bin292_JIBLDOOH_00181;dRep_bin157_JPNIKEKI_01295;dRep_bin324_IPNHOHFK_00413;dRep_bin261_FJICAFFM_00655;dRep_bin041_OPKGAAAG_01604;dRep_bin209_NKIHFCEN_01650;dRep_bin203_CLFNNOCF_01349	dRep_bin292_JIBLDOOH_00181;dRep_bin157_JPNIKEKI_01295;dRep_bin324_IPNHOHFK_00413;dRep_bin261_FJICAFFM_00655;dRep_bin041_OPKGAAAG_01604;dRep_bin209_NKIHFCEN_01650;dRep_bin203_CLFNNOCF_01349	>dRep_bin292_JIBLDOOH_00181 Anaerobic ribonucleoside-triphosphate reductase;>dRep_bin157_JPNIKEKI_01295 Anaerobic ribonucleoside-triphosphate reductase;>dRep_bin324_IPNHOHFK_00413 Anaerobic ribonucleoside-triphosphate reductase;>dRep_bin261_FJICAFFM_00655	dRep_bin261_FJICAFFM_00655	CDS	nrdD	1.17.4.2	Anaerobic ribonucleoside-triphosphate reductase
FJICAFFM_00746					26.447219999999998	26.119970000000006	25.865519999999997	26.523619999999998				4	3	1,0238E-09	dRep_bin191_NGFJMLOL_00731;dRep_bin261_FJICAFFM_00746	dRep_bin191_NGFJMLOL_00731	>dRep_bin191_NGFJMLOL_00731 GTP cyclohydrolase 1	dRep_bin261_FJICAFFM_00746	CDS	folE	3.5.4.16	GTP cyclohydrolase 1
FJICAFFM_00756			24.877360000000003	25.02357								21	1	0	dRep_bin261_FJICAFFM_00756	dRep_bin261_FJICAFFM_00756	>dRep_bin261_FJICAFFM_00756 Chaperone protein DnaK	dRep_bin261_FJICAFFM_00756	CDS	dnaK		Chaperone protein DnaK
FJICAFFM_00778				24.354940000000003								9	1	3,7383E-82	dRep_bin133_NOBPDBPA_02407;dRep_bin319_PBDBJGCJ_01738;dRep_bin066_AJACLPEE_00162;dRep_bin077_DNNBMPMC_01718;dRep_bin181_MKGPMPIA_01194;dRep_bin260_HELEPKJL_01076;dRep_bin107_EFNBPDOP_00499;dRep_bin240_LDBBGJKG_00163;dRep_bin328_GIGKNKPJ_00321;dRep_bin347_EKGCMFPD_00479;dRep_bin088_DNGPPFDK_00287;dRep_bin135_HHKACLPM_00514;dRep_bin145_KMJJJOEJ_01002;dRep_bin335_JIOGNAPG_00895;dRep_bin234_ECABPBME_01768;dRep_bin134_HIAPAODO_01302;dRep_bin261_FJICAFFM_00778;dRep_bin019_MOJEPLJF_00883;dRep_bin166_DFIAJFEC_01066;dRep_bin105_AAEIHAFF_00721;dRep_bin142_NDNPJBEM_00168;dRep_bin169_PNICKJKO_01185;dRep_bin007_LNLEAAAN_00243;dRep_bin325_EIIGOGHN_01426;dRep_bin027_OFJCHLJJ_00581;dRep_bin333_EFOKIBLA_00453;dRep_bin049_MNFBDPNO_01275;dRep_bin293_MEPKGOAN_01477;dRep_bin148_NAJFKJMD_01296;dRep_bin008_MNDMJLEI_00823;dRep_bin270_GEJAHNCN_00044;dRep_bin031_BNHMFOII_00682;dRep_bin006_HPJGJCAG_00004;dRep_bin048_PABMBHAL_00541;dRep_bin143_PFLDJMPF_00665	dRep_bin133_NOBPDBPA_02407;dRep_bin319_PBDBJGCJ_01738;dRep_bin066_AJACLPEE_00162;dRep_bin077_DNNBMPMC_01718	>dRep_bin133_NOBPDBPA_02407 Dihydroxy-acid dehydratase;>dRep_bin319_PBDBJGCJ_01738 Dihydroxy-acid dehydratase;>dRep_bin066_AJACLPEE_00162 Dihydroxy-acid dehydratase;>dRep_bin077_DNNBMPMC_01718 Dihydroxy-acid dehydratase	dRep_bin261_FJICAFFM_00778	CDS	ilvD	4.2.1.9	Dihydroxy-acid dehydratase
FJICAFFM_00864				28.50635								2	0	0,025352	dRep_bin344_CJJBDGAA_01515;dRep_bin211_LGJEFJIK_00737;dRep_bin226_NLNLHLLD_00459;dRep_bin117_PMEMANMD_00232;dRep_bin266_JFOCEDAE_01199;dRep_bin261_FJICAFFM_00864;dRep_bin220_PILICLLL_01139;dRep_bin209_NKIHFCEN_01468;dRep_bin324_IPNHOHFK_01744;dRep_bin297_EDHEEICA_00326;dRep_bin203_CLFNNOCF_02519;dRep_bin157_JPNIKEKI_01354;dRep_bin133_NOBPDBPA_04374;dRep_bin041_OPKGAAAG_01974;dRep_bin091_MAFACGAD_01060;dRep_bin027_OFJCHLJJ_01238;dRep_bin322_OJELOJOF_00186;dRep_bin287_DONBGKDH_00550;dRep_bin081_JDPCKDNP_01704;dRep_bin249_OFIIEIDJ_00125;dRep_bin168_HKDILBFE_00610;dRep_bin135_HHKACLPM_01538;dRep_bin099_DNDAGJEJ_00403;dRep_bin089_PAJFOJBN_01181;dRep_bin005_CNDFPKJG_00525;dRep_bin260_HELEPKJL_01304;dRep_bin220_PILICLLL_01333;dRep_bin201_OLKDIBOK_00115;dRep_bin151_AHBJLMBI_00748;dRep_bin139_KGAJINND_00205;dRep_bin075_EPEMMOCL_00657;dRep_bin088_DNGPPFDK_00476;dRep_bin134_HIAPAODO_01442;dRep_bin310_IMBAFDIF_00699	dRep_bin344_CJJBDGAA_01515;dRep_bin211_LGJEFJIK_00737;dRep_bin226_NLNLHLLD_00459;dRep_bin117_PMEMANMD_00232;dRep_bin266_JFOCEDAE_01199;dRep_bin261_FJICAFFM_00864;dRep_bin220_PILICLLL_01139;dRep_bin209_NKIHFCEN_01468;dRep_bin324_IPNHOHFK_01744;dRep_bin297_EDHEEICA_00326;dRep_bin203_CLFNNOCF_02519;dRep_bin157_JPNIKEKI_01354;dRep_bin133_NOBPDBPA_04374;dRep_bin041_OPKGAAAG_01974;dRep_bin091_MAFACGAD_01060;dRep_bin027_OFJCHLJJ_01238;dRep_bin322_OJELOJOF_00186;dRep_bin287_DONBGKDH_00550;dRep_bin081_JDPCKDNP_01704;dRep_bin249_OFIIEIDJ_00125;dRep_bin168_HKDILBFE_00610;dRep_bin135_HHKACLPM_01538;dRep_bin099_DNDAGJEJ_00403;dRep_bin089_PAJFOJBN_01181;dRep_bin005_CNDFPKJG_00525;dRep_bin260_HELEPKJL_01304;dRep_bin220_PILICLLL_01333;dRep_bin201_OLKDIBOK_00115;dRep_bin151_AHBJLMBI_00748;dRep_bin139_KGAJINND_00205;dRep_bin075_EPEMMOCL_00657;dRep_bin088_DNGPPFDK_00476;dRep_bin134_HIAPAODO_01442;dRep_bin310_IMBAFDIF_00699	>dRep_bin344_CJJBDGAA_01515 Putative septation protein SpoVG;>dRep_bin211_LGJEFJIK_00737 Putative septation protein SpoVG;>dRep_bin226_NLNLHLLD_00459 Putative septation protein SpoVG;>dRep_bin117_PMEMANMD_00232 Putative septation protein SpoVG;>dRep_bin266	dRep_bin261_FJICAFFM_00864	CDS	spoVG		Putative septation protein SpoVG
FJICAFFM_00866								22.71578				1	1	0,0044387	dRep_bin249_OFIIEIDJ_00122;dRep_bin041_OPKGAAAG_01976;dRep_bin269_PNILGKPH_00694;dRep_bin324_IPNHOHFK_01746;dRep_bin139_KGAJINND_00203;dRep_bin134_HIAPAODO_01440;dRep_bin310_IMBAFDIF_01190;dRep_bin297_EDHEEICA_00324;dRep_bin292_JIBLDOOH_01248;dRep_bin287_DONBGKDH_00552;dRep_bin284_DEHKNOBF_01431;dRep_bin282_PKAAPBFP_01594;dRep_bin248_CCDFPECI_00349;dRep_bin226_NLNLHLLD_00457;dRep_bin209_NKIHFCEN_01470;dRep_bin201_OLKDIBOK_00113;dRep_bin158_OGFICEAP_00289;dRep_bin154_JGOKHKLI_02118;dRep_bin145_KMJJJOEJ_01273;dRep_bin133_NOBPDBPA_04372;dRep_bin095_HOBNOEEF_01401;dRep_bin039_IJNOFOJK_00110;dRep_bin220_PILICLLL_01331;dRep_bin027_OFJCHLJJ_01236;dRep_bin266_JFOCEDAE_00675;dRep_bin001_GHHJMDAL_01115;dRep_bin160_EFKMPBOM_01722;dRep_bin261_FJICAFFM_00866;dRep_bin203_CLFNNOCF_02521;dRep_bin322_OJELOJOF_00188	dRep_bin249_OFIIEIDJ_00122;dRep_bin041_OPKGAAAG_01976;dRep_bin269_PNILGKPH_00694;dRep_bin324_IPNHOHFK_01746;dRep_bin139_KGAJINND_00203;dRep_bin134_HIAPAODO_01440;dRep_bin310_IMBAFDIF_01190;dRep_bin297_EDHEEICA_00324;dRep_bin292_JIBLDOOH_01248;dRep_bin287_DONBGKDH_00552;dRep_bin284_DEHKNOBF_01431;dRep_bin282_PKAAPBFP_01594;dRep_bin248_CCDFPECI_00349;dRep_bin226_NLNLHLLD_00457;dRep_bin209_NKIHFCEN_01470;dRep_bin201_OLKDIBOK_00113;dRep_bin158_OGFICEAP_00289;dRep_bin154_JGOKHKLI_02118;dRep_bin145_KMJJJOEJ_01273;dRep_bin133_NOBPDBPA_04372;dRep_bin095_HOBNOEEF_01401;dRep_bin039_IJNOFOJK_00110;dRep_bin220_PILICLLL_01331;dRep_bin027_OFJCHLJJ_01236;dRep_bin266_JFOCEDAE_00675;dRep_bin001_GHHJMDAL_01115;dRep_bin160_EFKMPBOM_01722;dRep_bin261_FJICAFFM_00866;dRep_bin203_CLFNNOCF_02521;dRep_bin322_OJELOJOF_00188	>dRep_bin249_OFIIEIDJ_00122 Glucose-1-phosphate adenylyltransferase;>dRep_bin041_OPKGAAAG_01976 Glucose-1-phosphate adenylyltransferase;>dRep_bin269_PNILGKPH_00694 Glucose-1-phosphate adenylyltransferase;>dRep_bin324_IPNHOHFK_01746 Glucose-1-phosphate aden	dRep_bin261_FJICAFFM_00866	CDS	glgC_2	2.7.7.27	Glucose-1-phosphate adenylyltransferase
FJICAFFM_00911	24.241619999999998											3	1	4,2691E-06	dRep_bin226_NLNLHLLD_00269;dRep_bin041_OPKGAAAG_02003;dRep_bin157_JPNIKEKI_01443;dRep_bin297_EDHEEICA_01638;dRep_bin133_NOBPDBPA_04691;dRep_bin209_NKIHFCEN_00952;dRep_bin300_MJPPENNL_01091;dRep_bin261_FJICAFFM_00911;dRep_bin179_HFEIPPPA_00830;dRep_bin328_GIGKNKPJ_00889;dRep_bin057_BNCFHBBO_01681;dRep_bin282_PKAAPBFP_01161;dRep_bin168_HKDILBFE_01014;dRep_bin100_CODMOHGB_01404;dRep_bin167_BLMEBMNN_01981;dRep_bin099_DNDAGJEJ_00066;dRep_bin186_HJAAFFNP_01989;dRep_bin160_EFKMPBOM_01929;dRep_bin154_JGOKHKLI_01404;dRep_bin101_BNDDLDCL_01035;dRep_bin065_DFABHCBI_02141;dRep_bin203_CLFNNOCF_01292;dRep_bin127_FIPNHBCH_01399;dRep_bin005_CNDFPKJG_01259;dRep_bin147_EJLBNEBE_00612;dRep_bin336_MPGOKPOL_01981	dRep_bin226_NLNLHLLD_00269;dRep_bin041_OPKGAAAG_02003;dRep_bin157_JPNIKEKI_01443;dRep_bin297_EDHEEICA_01638;dRep_bin133_NOBPDBPA_04691;dRep_bin209_NKIHFCEN_00952	>dRep_bin226_NLNLHLLD_00269 Cyclomaltodextrinase;>dRep_bin041_OPKGAAAG_02003 Cyclomaltodextrinase;>dRep_bin157_JPNIKEKI_01443 Cyclomaltodextrinase;>dRep_bin297_EDHEEICA_01638 Cyclomaltodextrinase;>dRep_bin133_NOBPDBPA_04691 Cyclomaltodextrinase;>dRep_bin20	dRep_bin261_FJICAFFM_00911	CDS		3.2.1.54	Cyclomaltodextrinase
FJICAFFM_00974					24.1321	26.18916	23.77153	24.113860000000006				3	3	5,9941E-12	dRep_bin041_OPKGAAAG_01624;dRep_bin226_NLNLHLLD_01058;dRep_bin203_CLFNNOCF_01696;dRep_bin157_JPNIKEKI_01609;dRep_bin279_IAEFEPEN_00382;dRep_bin075_EPEMMOCL_02379;dRep_bin324_IPNHOHFK_00140;dRep_bin292_JIBLDOOH_01962;dRep_bin209_NKIHFCEN_00432;dRep_bin179_HFEIPPPA_01039;dRep_bin133_NOBPDBPA_02951;dRep_bin039_IJNOFOJK_01861;dRep_bin269_PNILGKPH_01145;dRep_bin261_FJICAFFM_00974;dRep_bin283_NLJJFFAC_01146	dRep_bin041_OPKGAAAG_01624;dRep_bin226_NLNLHLLD_01058;dRep_bin203_CLFNNOCF_01696;dRep_bin157_JPNIKEKI_01609	>dRep_bin041_OPKGAAAG_01624 HPr kinase/phosphorylase;>dRep_bin226_NLNLHLLD_01058 HPr kinase/phosphorylase;>dRep_bin203_CLFNNOCF_01696 HPr kinase/phosphorylase;>dRep_bin157_JPNIKEKI_01609 HPr kinase/phosphorylase	dRep_bin261_FJICAFFM_00974	CDS	hprK	2.7.11.-	HPr kinase/phosphorylase
FJICAFFM_00978						22.313180000000003						2	1	2,0345E-05	dRep_bin041_OPKGAAAG_01980;dRep_bin292_JIBLDOOH_01252;dRep_bin226_NLNLHLLD_00453;dRep_bin209_NKIHFCEN_01474;dRep_bin157_JPNIKEKI_00175;dRep_bin261_FJICAFFM_00978	dRep_bin041_OPKGAAAG_01980;dRep_bin292_JIBLDOOH_01252;dRep_bin226_NLNLHLLD_00453;dRep_bin209_NKIHFCEN_01474;dRep_bin157_JPNIKEKI_00175;dRep_bin261_FJICAFFM_00978	>dRep_bin041_OPKGAAAG_01980 Ribose-phosphate pyrophosphokinase;>dRep_bin292_JIBLDOOH_01252 Ribose-phosphate pyrophosphokinase;>dRep_bin226_NLNLHLLD_00453 Ribose-phosphate pyrophosphokinase;>dRep_bin209_NKIHFCEN_01474 Ribose-phosphate pyrophosphokinase;>dRe	dRep_bin261_FJICAFFM_00978	CDS	prs	2.7.6.1	Ribose-phosphate pyrophosphokinase
FJICAFFM_01011				26.79984								17	2	3,6365E-192	dRep_bin261_FJICAFFM_01011	dRep_bin261_FJICAFFM_01011	>dRep_bin261_FJICAFFM_01011 hypothetical protein	dRep_bin261_FJICAFFM_01011	CDS			hypothetical protein
FJICAFFM_01041	27.52275	26.53459	26.272129999999997	27.955429999999996								5	2	3,2697E-16	dRep_bin292_JIBLDOOH_00241;dRep_bin041_OPKGAAAG_00719;dRep_bin203_CLFNNOCF_01123;dRep_bin261_FJICAFFM_01041	dRep_bin292_JIBLDOOH_00241;dRep_bin041_OPKGAAAG_00719;dRep_bin203_CLFNNOCF_01123	>dRep_bin292_JIBLDOOH_00241 L-ribulose-5-phosphate 4-epimerase UlaF;>dRep_bin041_OPKGAAAG_00719 L-ribulose-5-phosphate 4-epimerase UlaF;>dRep_bin203_CLFNNOCF_01123 L-ribulose-5-phosphate 4-epimerase UlaF	dRep_bin261_FJICAFFM_01041	CDS	ulaF	5.1.3.4	L-ribulose-5-phosphate 4-epimerase UlaF
FJICAFFM_01048	27.21965	25.56421	25.73221	28.316010000000002	27.39901	28.593519999999998	26.463749999999997	27.80021				16	4	4,267E-89	dRep_bin041_OPKGAAAG_02175;dRep_bin261_FJICAFFM_01048	dRep_bin041_OPKGAAAG_02175	>dRep_bin041_OPKGAAAG_02175 Cellobiose phosphorylase	dRep_bin261_FJICAFFM_01048	CDS	cbpA_2	2.4.1.20	Cellobiose phosphorylase
FJICAFFM_01097			27.17122	28.798379999999998								2	1	2,5389E-19	dRep_bin292_JIBLDOOH_01367;dRep_bin324_IPNHOHFK_01431;dRep_bin261_FJICAFFM_01097;dRep_bin209_NKIHFCEN_01395;dRep_bin203_CLFNNOCF_01094;dRep_bin133_NOBPDBPA_02300;dRep_bin242_LKAIBGGJ_01031;dRep_bin179_HFEIPPPA_01213;dRep_bin077_DNNBMPMC_01432;dRep_bin308_JBPDGLPP_01140;dRep_bin297_EDHEEICA_00844;dRep_bin218_ACMPALGF_00453	dRep_bin292_JIBLDOOH_01367;dRep_bin324_IPNHOHFK_01431;dRep_bin261_FJICAFFM_01097;dRep_bin209_NKIHFCEN_01395;dRep_bin203_CLFNNOCF_01094;dRep_bin133_NOBPDBPA_02300;dRep_bin242_LKAIBGGJ_01031;dRep_bin179_HFEIPPPA_01213;dRep_bin077_DNNBMPMC_01432;dRep_bin308_JBPDGLPP_01140;dRep_bin297_EDHEEICA_00844;dRep_bin218_ACMPALGF_00453	>dRep_bin292_JIBLDOOH_01367 50S ribosomal protein L13;>dRep_bin324_IPNHOHFK_01431 50S ribosomal protein L13;>dRep_bin261_FJICAFFM_01097 50S ribosomal protein L13;>dRep_bin209_NKIHFCEN_01395 50S ribosomal protein L13;>dRep_bin203_CLFNNOCF_01094 50S ribosoma	dRep_bin261_FJICAFFM_01097	CDS	rplM		50S ribosomal protein L13
FJICAFFM_01098			25.794890000000002	26.007830000000002								1	1	0,002462	dRep_bin344_CJJBDGAA_01648;dRep_bin324_IPNHOHFK_01432;dRep_bin300_MJPPENNL_01728;dRep_bin261_FJICAFFM_01098;dRep_bin209_NKIHFCEN_01394;dRep_bin179_HFEIPPPA_01212;dRep_bin133_NOBPDBPA_02301;dRep_bin041_OPKGAAAG_01930;dRep_bin260_HELEPKJL_00151;dRep_bin203_CLFNNOCF_01093;dRep_bin200_JJGKEOHI_00464	dRep_bin344_CJJBDGAA_01648;dRep_bin324_IPNHOHFK_01432;dRep_bin300_MJPPENNL_01728;dRep_bin261_FJICAFFM_01098;dRep_bin209_NKIHFCEN_01394;dRep_bin179_HFEIPPPA_01212;dRep_bin133_NOBPDBPA_02301;dRep_bin041_OPKGAAAG_01930;dRep_bin260_HELEPKJL_00151;dRep_bin203_CLFNNOCF_01093;dRep_bin200_JJGKEOHI_00464	>dRep_bin344_CJJBDGAA_01648 30S ribosomal protein S9;>dRep_bin324_IPNHOHFK_01432 30S ribosomal protein S9;>dRep_bin300_MJPPENNL_01728 30S ribosomal protein S9;>dRep_bin261_FJICAFFM_01098 30S ribosomal protein S9;>dRep_bin209_NKIHFCEN_01394 30S ribosomal pr	dRep_bin261_FJICAFFM_01098	CDS	rpsI		30S ribosomal protein S9
FJICAFFM_01100					25.06357							5	1	3,6059E-73	dRep_bin203_CLFNNOCF_01682;dRep_bin347_EKGCMFPD_01504;dRep_bin284_DEHKNOBF_01057;dRep_bin260_HELEPKJL_00015;dRep_bin310_IMBAFDIF_00287;dRep_bin134_HIAPAODO_00846;dRep_bin062_BOFBFLDA_01435;dRep_bin300_MJPPENNL_01196;dRep_bin201_OLKDIBOK_02047;dRep_bin105_AAEIHAFF_01478;dRep_bin100_CODMOHGB_01221;dRep_bin088_DNGPPFDK_00866;dRep_bin277_MIPNGEJE_00690;dRep_bin166_DFIAJFEC_00146;dRep_bin161_JMKPMHCO_01114;dRep_bin059_OOBKFNPP_00125;dRep_bin046_GKEJLOEK_01062;dRep_bin091_MAFACGAD_00248;dRep_bin017_FGFLFOPJ_00727;dRep_bin354_MMOALAFN_00741;dRep_bin324_IPNHOHFK_00313;dRep_bin323_FBBLPLCG_01264;dRep_bin309_BIOHLCGG_01306;dRep_bin273_FGAEBHNP_00470;dRep_bin261_FJICAFFM_01100;dRep_bin148_NAJFKJMD_00795;dRep_bin115_IFKGOGCL_00123;dRep_bin069_EGGEOGDC_01056;dRep_bin344_CJJBDGAA_01161;dRep_bin249_OFIIEIDJ_00715;dRep_bin220_PILICLLL_00990;dRep_bin134_HIAPAODO_01436;dRep_bin065_DFABHCBI_00344;dRep_bin032_PPNIGLME_00203;dRep_bin270_GEJAHNCN_01587;dRep_bin065_DFABHCBI_00249;dRep_bin278_BFCONKOE_01054;dRep_bin016_JLGAHGOJ_00641;dRep_bin328_GIGKNKPJ_01462;dRep_bin308_JBPDGLPP_01172;dRep_bin303_DDDNDJCF_01320;dRep_bin254_GJDPFAEA_00870;dRep_bin234_ECABPBME_00536;dRep_bin186_HJAAFFNP_01789;dRep_bin167_BLMEBMNN_01296;dRep_bin107_EFNBPDOP_00511;dRep_bin077_DNNBMPMC_01864;dRep_bin066_AJACLPEE_01033;dRep_bin047_IFFANOMN_00697;dRep_bin135_HHKACLPM_00107;dRep_bin303_DDDNDJCF_00377;dRep_bin306_FGHMKMMP_01595;dRep_bin211_LGJEFJIK_00450;dRep_bin007_LNLEAAAN_01312;dRep_bin344_CJJBDGAA_01611;dRep_bin031_BNHMFOII_01628;dRep_bin353_PPDHLNJB_02118;dRep_bin254_GJDPFAEA_00869;dRep_bin094_LBLICAAO_00342;dRep_bin047_IFFANOMN_01357;dRep_bin120_EKLBOPNC_01832;dRep_bin168_HKDILBFE_01442;dRep_bin099_DNDAGJEJ_00392;dRep_bin215_ABBFGCAF_00798;dRep_bin029_LFMGBBEC_01628;dRep_bin240_LDBBGJKG_01094;dRep_bin279_IAEFEPEN_01491;dRep_bin130_OIFFANPF_01666;dRep_bin319_PBDBJGCJ_00268;dRep_bin017_FGFLFOPJ_00820;dRep_bin082_HBEFABJN_01328;dRep_bin245_MBCFLKOF_01762;dRep_bin027_OFJCHLJJ_00790;dRep_bin108_BPNCDINP_00911;dRep_bin308_JBPDGLPP_01750;dRep_bin193_GDMDPNNM_00480;dRep_bin344_CJJBDGAA_02078;dRep_bin049_MNFBDPNO_01413;dRep_bin096_GNHMEKPF_00097;dRep_bin104_EGLEJOLM_01934;dRep_bin339_DBNBAHDK_02499;dRep_bin321_EJNAAGJG_00755;dRep_bin273_FGAEBHNP_00835;dRep_bin250_NMCAMJIO_00087;dRep_bin247_EKGBJCBM_00317;dRep_bin148_NAJFKJMD_01189;dRep_bin337_FHKPNFDB_01633;dRep_bin320_LDBKCCKL_01786;dRep_bin304_JDNJGFKH_01982;dRep_bin286_OEMIJKMC_01141;dRep_bin231_CFOLMJBA_00953;dRep_bin162_JBGCCDIN_01636;dRep_bin126_PPDNCIBN_01067;dRep_bin109_MJABCPAK_00317;dRep_bin057_BNCFHBBO_00597;dRep_bin288_KOIAAABN_00012;dRep_bin263_OLEFOGIJ_00295;dRep_bin304_JDNJGFKH_00179;dRep_bin208_DHPGEIBC_00457;dRep_bin189_AHHEHGDL_01282;dRep_bin177_HLHGKLFL_00741;dRep_bin140_ACFAKGIL_00319;dRep_bin105_AAEIHAFF_01411;dRep_bin082_HBEFABJN_00692;dRep_bin010_MFFFGEGD_00717;dRep_bin005_CNDFPKJG_01705;dRep_bin287_DONBGKDH_01836;dRep_bin094_LBLICAAO_00388;dRep_bin058_GJKCICJN_00227;dRep_bin293_MEPKGOAN_00829;dRep_bin218_ACMPALGF_00229;dRep_bin205_LKIOOBKC_00417;dRep_bin172_ALNHGLMD_01439;dRep_bin159_ADJJGPBG_01342;dRep_bin143_PFLDJMPF_01248;dRep_bin101_BNDDLDCL_01982;dRep_bin091_MAFACGAD_01619;dRep_bin072_JOBJPCGA_00130;dRep_bin011_KOGMKLNO_01272;dRep_bin164_KHMELCCL_01402;dRep_bin305_FCIEFIHE_00371;dRep_bin222_GGCAJABB_00745;dRep_bin006_HPJGJCAG_01874;dRep_bin286_OEMIJKMC_01354;dRep_bin126_PPDNCIBN_00282;dRep_bin185_OOOLKACK_00819;dRep_bin043_KLAFNACO_00900;dRep_bin231_CFOLMJBA_01529;dRep_bin237_KJDLIPND_00869;dRep_bin147_EJLBNEBE_00138;dRep_bin186_HJAAFFNP_01790;dRep_bin081_JDPCKDNP_00172;dRep_bin069_EGGEOGDC_00890;dRep_bin282_PKAAPBFP_00016;dRep_bin206_OIIBOIAK_00984;dRep_bin161_JMKPMHCO_00782;dRep_bin278_BFCONKOE_00310;dRep_bin260_HELEPKJL_01944;dRep_bin336_MPGOKPOL_00897	dRep_bin203_CLFNNOCF_01682;dRep_bin347_EKGCMFPD_01504;dRep_bin284_DEHKNOBF_01057;dRep_bin260_HELEPKJL_00015;dRep_bin310_IMBAFDIF_00287;dRep_bin134_HIAPAODO_00846;dRep_bin062_BOFBFLDA_01435	>dRep_bin203_CLFNNOCF_01682 Glutamine synthetase;>dRep_bin347_EKGCMFPD_01504 Glutamine synthetase;>dRep_bin284_DEHKNOBF_01057 Glutamine synthetase;>dRep_bin260_HELEPKJL_00015 Glutamine synthetase;>dRep_bin310_IMBAFDIF_00287 Glutamine synthetase;>dRep_bin13	dRep_bin261_FJICAFFM_01100	CDS	glnA_1	6.3.1.2	Glutamine synthetase
FJICAFFM_01111		24.118070000000003										5	0	1,7205E-28	dRep_bin133_NOBPDBPA_01437;dRep_bin203_CLFNNOCF_02090;dRep_bin297_EDHEEICA_01350;dRep_bin300_MJPPENNL_00252;dRep_bin211_LGJEFJIK_00506;dRep_bin261_FJICAFFM_01111;dRep_bin341_NBEGOKEF_00104;dRep_bin274_DBJHKLDG_00309;dRep_bin060_HNFNENOI_00946;dRep_bin020_JCCELPIE_00479;dRep_bin269_PNILGKPH_01525;dRep_bin308_JBPDGLPP_01741	dRep_bin133_NOBPDBPA_01437;dRep_bin203_CLFNNOCF_02090	>dRep_bin133_NOBPDBPA_01437 Ornithine carbamoyltransferase;>dRep_bin203_CLFNNOCF_02090 Ornithine carbamoyltransferase	dRep_bin261_FJICAFFM_01111	CDS	argF	2.1.3.3	Ornithine carbamoyltransferase
FJICAFFM_01132	23.498749999999998	23.41377	23.664050000000003	25.007910000000003								4	3	8,0566E-12	dRep_bin292_JIBLDOOH_01418;dRep_bin303_DDDNDJCF_00505;dRep_bin077_DNNBMPMC_00941;dRep_bin152_LJMCIADF_01123;dRep_bin124_HIHDFGCL_00335;dRep_bin079_GAOGCKND_00643;dRep_bin068_ENOLAELK_01078;dRep_bin038_EIGFILKG_00380;dRep_bin309_BIOHLCGG_00617;dRep_bin194_MEPDOGGJ_00286;dRep_bin025_CBEJJMLE_00539;dRep_bin247_EKGBJCBM_00804;dRep_bin253_CPMOAOBJ_00601;dRep_bin169_PNICKJKO_01110;dRep_bin123_PJKBFKBB_01254;dRep_bin306_FGHMKMMP_00717;dRep_bin293_MEPKGOAN_00676;dRep_bin257_JHFDCHCB_01083;dRep_bin249_OFIIEIDJ_00213;dRep_bin157_JPNIKEKI_01818;dRep_bin085_MBHLGCDB_01586;dRep_bin319_PBDBJGCJ_01316;dRep_bin300_MJPPENNL_01694;dRep_bin282_PKAAPBFP_01497;dRep_bin220_PILICLLL_01502;dRep_bin209_NKIHFCEN_00711;dRep_bin179_HFEIPPPA_01156;dRep_bin166_DFIAJFEC_01129;dRep_bin160_EFKMPBOM_01097;dRep_bin154_JGOKHKLI_00129;dRep_bin088_DNGPPFDK_00244;dRep_bin075_EPEMMOCL_01534;dRep_bin069_EGGEOGDC_00523;dRep_bin344_CJJBDGAA_01343;dRep_bin324_IPNHOHFK_02132;dRep_bin310_IMBAFDIF_01633;dRep_bin297_EDHEEICA_00782;dRep_bin269_PNILGKPH_01786;dRep_bin248_CCDFPECI_00995;dRep_bin226_NLNLHLLD_00535;dRep_bin203_CLFNNOCF_00636;dRep_bin168_HKDILBFE_00313;dRep_bin139_KGAJINND_00724;dRep_bin133_NOBPDBPA_02650;dRep_bin099_DNDAGJEJ_01464;dRep_bin091_MAFACGAD_00915;dRep_bin007_LNLEAAAN_01209;dRep_bin260_HELEPKJL_00482;dRep_bin186_HJAAFFNP_01391;dRep_bin115_IFKGOGCL_02481;dRep_bin039_IJNOFOJK_00485;dRep_bin354_MMOALAFN_01391;dRep_bin261_FJICAFFM_01132;dRep_bin336_MPGOKPOL_01187;dRep_bin095_HOBNOEEF_00148;dRep_bin348_LCLFDNEE_00586;dRep_bin125_FADLGGII_01253;dRep_bin089_PAJFOJBN_00918;dRep_bin277_MIPNGEJE_00466	dRep_bin292_JIBLDOOH_01418;dRep_bin303_DDDNDJCF_00505	>dRep_bin292_JIBLDOOH_01418 Putative aminotransferase/MSMEI_6121;>dRep_bin303_DDDNDJCF_00505 Putative aminotransferase/MSMEI_6121	dRep_bin261_FJICAFFM_01132	CDS			Putative aminotransferase/MSMEI_6121
FJICAFFM_01134					24.24887	26.77128	24.69339	24.025629999999996				3	1	5,593E-12	dRep_bin139_KGAJINND_01577;dRep_bin344_CJJBDGAA_01807;dRep_bin300_MJPPENNL_01697;dRep_bin324_IPNHOHFK_02134;dRep_bin261_FJICAFFM_01134;dRep_bin303_DDDNDJCF_01519;dRep_bin297_EDHEEICA_00415;dRep_bin209_NKIHFCEN_00709;dRep_bin167_BLMEBMNN_00621;dRep_bin157_JPNIKEKI_01820;dRep_bin133_NOBPDBPA_02652;dRep_bin016_JLGAHGOJ_01099;dRep_bin292_JIBLDOOH_01420;dRep_bin127_FIPNHBCH_01248;dRep_bin062_BOFBFLDA_01336;dRep_bin115_IFKGOGCL_01923;dRep_bin269_PNILGKPH_02213;dRep_bin208_DHPGEIBC_01209;dRep_bin347_EKGCMFPD_00714;dRep_bin266_JFOCEDAE_00751;dRep_bin211_LGJEFJIK_00719;dRep_bin316_FNLHDNEO_01427;dRep_bin065_DFABHCBI_00784;dRep_bin319_PBDBJGCJ_00028;dRep_bin077_DNNBMPMC_00009;dRep_bin006_HPJGJCAG_01885;dRep_bin066_AJACLPEE_00266;dRep_bin279_IAEFEPEN_00114;dRep_bin254_GJDPFAEA_01714;dRep_bin035_JBNPBOKG_00265;dRep_bin092_OOJCPDEA_01135;dRep_bin173_BEBNCADL_00932;dRep_bin261_FJICAFFM_01422;dRep_bin288_KOIAAABN_01088;dRep_bin263_OLEFOGIJ_00124;dRep_bin099_DNDAGJEJ_00022;dRep_bin325_EIIGOGHN_01093;dRep_bin076_GLAOFBEC_01169;dRep_bin089_PAJFOJBN_00283;dRep_bin287_DONBGKDH_01271;dRep_bin162_JBGCCDIN_01770;dRep_bin135_HHKACLPM_00267;dRep_bin332_KAOPCDPF_00441;dRep_bin310_IMBAFDIF_00637;dRep_bin304_JDNJGFKH_01711;dRep_bin222_GGCAJABB_01248;dRep_bin159_ADJJGPBG_01860;dRep_bin043_KLAFNACO_01408;dRep_bin023_HGFJFKAI_00653;dRep_bin189_AHHEHGDL_01147;dRep_bin328_GIGKNKPJ_01484;dRep_bin282_PKAAPBFP_01012;dRep_bin229_FFOBPPJI_01006;dRep_bin203_CLFNNOCF_00634;dRep_bin102_ICFDHPGB_01107;dRep_bin072_JOBJPCGA_00187;dRep_bin029_LFMGBBEC_00768;dRep_bin017_FGFLFOPJ_00988;dRep_bin195_DDMDFNOK_00791;dRep_bin120_EKLBOPNC_01828;dRep_bin058_GJKCICJN_00813;dRep_bin046_GKEJLOEK_00003;dRep_bin186_HJAAFFNP_01596;dRep_bin349_AMCJEEEG_00676;dRep_bin200_JJGKEOHI_00578;dRep_bin027_OFJCHLJJ_00701;dRep_bin161_JMKPMHCO_01186;dRep_bin160_EFKMPBOM_00139;dRep_bin154_JGOKHKLI_00533;dRep_bin083_OCBADPJJ_00750;dRep_bin049_MNFBDPNO_00757;dRep_bin008_MNDMJLEI_00707;dRep_bin158_OGFICEAP_00389;dRep_bin334_NAPFFNLD_00463;dRep_bin339_DBNBAHDK_00481;dRep_bin241_LMMMGDNI_00312;dRep_bin179_HFEIPPPA_00773;dRep_bin245_MBCFLKOF_01292;dRep_bin010_MFFFGEGD_00549	dRep_bin139_KGAJINND_01577;dRep_bin344_CJJBDGAA_01807;dRep_bin300_MJPPENNL_01697;dRep_bin324_IPNHOHFK_02134;dRep_bin261_FJICAFFM_01134;dRep_bin303_DDDNDJCF_01519;dRep_bin297_EDHEEICA_00415;dRep_bin209_NKIHFCEN_00709;dRep_bin167_BLMEBMNN_00621;dRep_bin157_JPNIKEKI_01820;dRep_bin133_NOBPDBPA_02652;dRep_bin016_JLGAHGOJ_01099;dRep_bin292_JIBLDOOH_01420;dRep_bin127_FIPNHBCH_01248;dRep_bin062_BOFBFLDA_01336;dRep_bin115_IFKGOGCL_01923;dRep_bin269_PNILGKPH_02213	>dRep_bin139_KGAJINND_01577 Chaperone protein ClpB 1;>dRep_bin344_CJJBDGAA_01807 Chaperone protein ClpB;>dRep_bin300_MJPPENNL_01697 Chaperone protein ClpB;>dRep_bin324_IPNHOHFK_02134 Chaperone protein ClpB;>dRep_bin261_FJICAFFM_01134 Chaperone protein ClpB	dRep_bin261_FJICAFFM_01134	CDS	clpB		Chaperone protein ClpB
FJICAFFM_01163				21.40997								7	0	2,6741E-22	dRep_bin261_FJICAFFM_01163;dRep_bin312_MJFEFHMP_01332	dRep_bin261_FJICAFFM_01163	>dRep_bin261_FJICAFFM_01163 Branched-chain-amino-acid aminotransferase	dRep_bin261_FJICAFFM_01163	CDS	ilvE	2.6.1.42	Branched-chain-amino-acid aminotransferase
FJICAFFM_01168			25.532639999999997									24	0	0	dRep_bin261_FJICAFFM_01168	dRep_bin261_FJICAFFM_01168	>dRep_bin261_FJICAFFM_01168 Phosphoenolpyruvate carboxykinase (ATP)	dRep_bin261_FJICAFFM_01168	CDS	pckA	4.1.1.49	Phosphoenolpyruvate carboxykinase (ATP)
FJICAFFM_01188	30.00772	30.85631	30.04609	30.825860000000002	29.556160000000002	29.941399999999998	28.321910000000003	30.008119999999998				10	2	5,1573E-210	dRep_bin133_NOBPDBPA_00563;dRep_bin261_FJICAFFM_01188	dRep_bin133_NOBPDBPA_00563	>dRep_bin133_NOBPDBPA_00563 Trehalose import ATP-binding protein SugC	dRep_bin261_FJICAFFM_01188	CDS	sugC	3.6.3.-	Trehalose import ATP-binding protein SugC
FJICAFFM_01217					23.21232	23.59742		22.883699999999997				2	2	5,8061E-07	dRep_bin041_OPKGAAAG_02192;dRep_bin261_FJICAFFM_01217;dRep_bin179_HFEIPPPA_00530;dRep_bin157_JPNIKEKI_00708;dRep_bin226_NLNLHLLD_00886	dRep_bin041_OPKGAAAG_02192;dRep_bin261_FJICAFFM_01217;dRep_bin179_HFEIPPPA_00530;dRep_bin157_JPNIKEKI_00708;dRep_bin226_NLNLHLLD_00886	>dRep_bin041_OPKGAAAG_02192 Acetylglutamate kinase;>dRep_bin261_FJICAFFM_01217 Acetylglutamate kinase;>dRep_bin179_HFEIPPPA_00530 Acetylglutamate kinase;>dRep_bin157_JPNIKEKI_00708 Acetylglutamate kinase;>dRep_bin226_NLNLHLLD_00886 Acetylglutamate kinase	dRep_bin261_FJICAFFM_01217	CDS	argB	2.7.2.8	Acetylglutamate kinase
FJICAFFM_01223								22.59612				2	2	0,00065072	dRep_bin039_IJNOFOJK_00482;dRep_bin240_LDBBGJKG_01120;dRep_bin181_MKGPMPIA_00094;dRep_bin139_KGAJINND_01431;dRep_bin261_FJICAFFM_01223;dRep_bin017_FGFLFOPJ_00978;dRep_bin203_CLFNNOCF_01423;dRep_bin007_LNLEAAAN_00426	dRep_bin039_IJNOFOJK_00482;dRep_bin240_LDBBGJKG_01120;dRep_bin181_MKGPMPIA_00094;dRep_bin139_KGAJINND_01431;dRep_bin261_FJICAFFM_01223;dRep_bin017_FGFLFOPJ_00978;dRep_bin203_CLFNNOCF_01423;dRep_bin007_LNLEAAAN_00426	>dRep_bin039_IJNOFOJK_00482 Oligosaccharide 4-alpha-D-glucosyltransferase;>dRep_bin240_LDBBGJKG_01120 Oligosaccharide 4-alpha-D-glucosyltransferase;>dRep_bin181_MKGPMPIA_00094 Oligosaccharide 4-alpha-D-glucosyltransferase;>dRep_bin139_KGAJINND_01431 Oligos	dRep_bin261_FJICAFFM_01223	CDS		2.4.1.161	Oligosaccharide 4-alpha-D-glucosyltransferase
FJICAFFM_01232						26.09545						6	0	6,9329E-51	dRep_bin261_FJICAFFM_01232;dRep_bin249_OFIIEIDJ_00111;dRep_bin072_JOBJPCGA_01126;dRep_bin031_BNHMFOII_01268;dRep_bin172_ALNHGLMD_01185;dRep_bin106_BKDHGPBE_00606;dRep_bin060_HNFNENOI_01215;dRep_bin221_LMGNIMOJ_00064;dRep_bin079_GAOGCKND_01433;dRep_bin101_BNDDLDCL_01832;dRep_bin088_DNGPPFDK_01375;dRep_bin278_BFCONKOE_01417;dRep_bin324_IPNHOHFK_00152;dRep_bin257_JHFDCHCB_00881;dRep_bin060_HNFNENOI_00001;dRep_bin078_GKFCBAEI_00769;dRep_bin220_PILICLLL_02004	dRep_bin261_FJICAFFM_01232	>dRep_bin261_FJICAFFM_01232 Rubrerythrin-1	dRep_bin261_FJICAFFM_01232	CDS	rbr1	1.11.1.1	Rubrerythrin-1
FJICAFFM_01242			23.262129999999996									1	1	1,124E-05	dRep_bin325_EIIGOGHN_00455;dRep_bin287_DONBGKDH_01891;dRep_bin260_HELEPKJL_00793;dRep_bin095_HOBNOEEF_02183;dRep_bin023_HGFJFKAI_00898;dRep_bin226_NLNLHLLD_01485;dRep_bin041_OPKGAAAG_02051;dRep_bin062_BOFBFLDA_01385;dRep_bin181_MKGPMPIA_01332;dRep_bin269_PNILGKPH_01447;dRep_bin282_PKAAPBFP_01100;dRep_bin261_FJICAFFM_01242;dRep_bin203_CLFNNOCF_00622;dRep_bin234_ECABPBME_01964;dRep_bin007_LNLEAAAN_01741;dRep_bin335_JIOGNAPG_00799;dRep_bin309_BIOHLCGG_01161;dRep_bin160_EFKMPBOM_00129;dRep_bin154_JGOKHKLI_00545;dRep_bin133_NOBPDBPA_03678;dRep_bin089_PAJFOJBN_00292;dRep_bin019_MOJEPLJF_01283;dRep_bin134_HIAPAODO_00643;dRep_bin024_OLHDGABE_01143;dRep_bin005_CNDFPKJG_01361;dRep_bin209_NKIHFCEN_00699;dRep_bin179_HFEIPPPA_01887;dRep_bin157_JPNIKEKI_01833;dRep_bin107_EFNBPDOP_00671;dRep_bin077_DNNBMPMC_00160;dRep_bin039_IJNOFOJK_00262;dRep_bin016_JLGAHGOJ_00401;dRep_bin344_CJJBDGAA_00564;dRep_bin324_IPNHOHFK_02103;dRep_bin249_OFIIEIDJ_01493;dRep_bin139_KGAJINND_00448;dRep_bin081_JDPCKDNP_01186;dRep_bin319_PBDBJGCJ_01293;dRep_bin279_IAEFEPEN_01252;dRep_bin220_PILICLLL_00969;dRep_bin201_OLKDIBOK_00798;dRep_bin293_MEPKGOAN_01317;dRep_bin292_JIBLDOOH_01431;dRep_bin027_OFJCHLJJ_01511;dRep_bin347_EKGCMFPD_00408;dRep_bin211_LGJEFJIK_00568	dRep_bin325_EIIGOGHN_00455;dRep_bin287_DONBGKDH_01891;dRep_bin260_HELEPKJL_00793;dRep_bin095_HOBNOEEF_02183;dRep_bin023_HGFJFKAI_00898;dRep_bin226_NLNLHLLD_01485;dRep_bin041_OPKGAAAG_02051;dRep_bin062_BOFBFLDA_01385;dRep_bin181_MKGPMPIA_01332;dRep_bin269_PNILGKPH_01447;dRep_bin282_PKAAPBFP_01100;dRep_bin261_FJICAFFM_01242;dRep_bin203_CLFNNOCF_00622;dRep_bin234_ECABPBME_01964;dRep_bin007_LNLEAAAN_01741;dRep_bin335_JIOGNAPG_00799;dRep_bin309_BIOHLCGG_01161;dRep_bin160_EFKMPBOM_00129;dRep_bin154_JGOKHKLI_00545;dRep_bin133_NOBPDBPA_03678;dRep_bin089_PAJFOJBN_00292;dRep_bin019_MOJEPLJF_01283;dRep_bin134_HIAPAODO_00643;dRep_bin024_OLHDGABE_01143;dRep_bin005_CNDFPKJG_01361;dRep_bin209_NKIHFCEN_00699;dRep_bin179_HFEIPPPA_01887;dRep_bin157_JPNIKEKI_01833;dRep_bin107_EFNBPDOP_00671;dRep_bin077_DNNBMPMC_00160;dRep_bin039_IJNOFOJK_00262;dRep_bin016_JLGAHGOJ_00401;dRep_bin344_CJJBDGAA_00564;dRep_bin324_IPNHOHFK_02103;dRep_bin249_OFIIEIDJ_01493;dRep_bin139_KGAJINND_00448;dRep_bin081_JDPCKDNP_01186;dRep_bin319_PBDBJGCJ_01293;dRep_bin279_IAEFEPEN_01252;dRep_bin220_PILICLLL_00969;dRep_bin201_OLKDIBOK_00798;dRep_bin293_MEPKGOAN_01317;dRep_bin292_JIBLDOOH_01431;dRep_bin027_OFJCHLJJ_01511;dRep_bin347_EKGCMFPD_00408;dRep_bin211_LGJEFJIK_00568	>dRep_bin325_EIIGOGHN_00455 Valine--tRNA ligase;>dRep_bin287_DONBGKDH_01891 Valine--tRNA ligase;>dRep_bin260_HELEPKJL_00793 Valine--tRNA ligase;>dRep_bin095_HOBNOEEF_02183 Valine--tRNA ligase;>dRep_bin023_HGFJFKAI_00898 Valine--tRNA ligase;>dRep_bin226_NLN	dRep_bin261_FJICAFFM_01242	CDS	valS	6.1.1.9	Valine--tRNA ligase
FJICAFFM_01264				23.58428								4	1	7,2101E-29	dRep_bin335_JIOGNAPG_01499;dRep_bin234_ECABPBME_02155;dRep_bin324_IPNHOHFK_01534;dRep_bin240_LDBBGJKG_00419;dRep_bin261_FJICAFFM_01264	dRep_bin335_JIOGNAPG_01499;dRep_bin234_ECABPBME_02155;dRep_bin324_IPNHOHFK_01534;dRep_bin240_LDBBGJKG_00419;dRep_bin261_FJICAFFM_01264	>dRep_bin335_JIOGNAPG_01499 Formate--tetrahydrofolate ligase;>dRep_bin234_ECABPBME_02155 Formate--tetrahydrofolate ligase;>dRep_bin324_IPNHOHFK_01534 Formate--tetrahydrofolate ligase;>dRep_bin240_LDBBGJKG_00419 Formate--tetrahydrofolate ligase;>dRep_bin261	dRep_bin261_FJICAFFM_01264	CDS	fhs	6.3.4.3	Formate--tetrahydrofolate ligase
FJICAFFM_01288			26.67801	27.304960000000005								8	3	9,6573E-27	dRep_bin292_JIBLDOOH_01989;dRep_bin261_FJICAFFM_01288;dRep_bin203_CLFNNOCF_01742;dRep_bin325_EIIGOGHN_01531	dRep_bin292_JIBLDOOH_01989	>dRep_bin292_JIBLDOOH_01989 Flavo-diiron protein FprA1	dRep_bin261_FJICAFFM_01288	CDS	fprA1	1.6.3.4	Flavo-diiron protein FprA1
FJICAFFM_01311				21.162139999999997								4	1	3,3139E-14	dRep_bin179_HFEIPPPA_00231;dRep_bin089_PAJFOJBN_01287;dRep_bin261_FJICAFFM_01311;dRep_bin269_PNILGKPH_02079;dRep_bin203_CLFNNOCF_00182;dRep_bin284_DEHKNOBF_00011;dRep_bin166_DFIAJFEC_01553	dRep_bin179_HFEIPPPA_00231;dRep_bin089_PAJFOJBN_01287;dRep_bin261_FJICAFFM_01311;dRep_bin269_PNILGKPH_02079;dRep_bin203_CLFNNOCF_00182	>dRep_bin179_HFEIPPPA_00231 Isocitrate dehydrogenase [NADP];>dRep_bin089_PAJFOJBN_01287 Isocitrate dehydrogenase [NADP];>dRep_bin261_FJICAFFM_01311 Isocitrate dehydrogenase [NADP];>dRep_bin269_PNILGKPH_02079 Isocitrate dehydrogenase [NADP];>dRep_bin203_CLF	dRep_bin261_FJICAFFM_01311	CDS	icd	1.1.1.42	Isocitrate dehydrogenase [NADP]
FJICAFFM_01321					24.236880000000003							5	0	7,16E-48	dRep_bin226_NLNLHLLD_00025;dRep_bin261_FJICAFFM_01321	dRep_bin226_NLNLHLLD_00025;dRep_bin261_FJICAFFM_01321	>dRep_bin226_NLNLHLLD_00025 Fructose-bisphosphate aldolase;>dRep_bin261_FJICAFFM_01321 Fructose-bisphosphate aldolase	dRep_bin261_FJICAFFM_01321	CDS	fba	4.1.2.13	Fructose-bisphosphate aldolase
FJICAFFM_01349								24.791980000000002				8	1	1,1329E-29	dRep_bin179_HFEIPPPA_01469;dRep_bin261_FJICAFFM_01349;dRep_bin240_LDBBGJKG_00715;dRep_bin089_PAJFOJBN_00997;dRep_bin075_EPEMMOCL_01320	dRep_bin179_HFEIPPPA_01469;dRep_bin261_FJICAFFM_01349	>dRep_bin179_HFEIPPPA_01469 Caffeyl-CoA reductase-Etf complex subunit CarD;>dRep_bin261_FJICAFFM_01349 Caffeyl-CoA reductase-Etf complex subunit CarD	dRep_bin261_FJICAFFM_01349	CDS	carD	1.3.1.108	Caffeyl-CoA reductase-Etf complex subunit CarD
FJICAFFM_01384	23.69838	23.84642	23.07827	23.73944	25.0899	23.39441	23.0737	24.86948				14	2	3,2937E-229	dRep_bin261_FJICAFFM_01384;dRep_bin065_DFABHCBI_02387	dRep_bin261_FJICAFFM_01384	>dRep_bin261_FJICAFFM_01384 Ketol-acid reductoisomerase (NADP(+))	dRep_bin261_FJICAFFM_01384	CDS	ilvC	1.1.1.86	Ketol-acid reductoisomerase (NADP(+))
FJICAFFM_01398	27.128	26.988689999999995	27.236900000000002	28.111530000000002	27.50711	27.2272	27.033810000000003	27.06476				16	2	5,0445E-77	dRep_bin292_JIBLDOOH_01280;dRep_bin261_FJICAFFM_01398;dRep_bin287_DONBGKDH_01177;dRep_bin328_GIGKNKPJ_00737;dRep_bin089_PAJFOJBN_01239;dRep_bin282_PKAAPBFP_00307	dRep_bin292_JIBLDOOH_01280	>dRep_bin292_JIBLDOOH_01280 Glycogen phosphorylase	dRep_bin261_FJICAFFM_01398	CDS	glgP_2	2.4.1.1	Glycogen phosphorylase
FJICAFFM_01444	26.842539999999996		26.77656	27.525	26.973339999999997	27.195729999999998	27.93691	26.51602				4	0	6,6505E-17	dRep_bin344_CJJBDGAA_00300;dRep_bin203_CLFNNOCF_02316;dRep_bin179_HFEIPPPA_01857;dRep_bin001_GHHJMDAL_00882;dRep_bin167_BLMEBMNN_01851;dRep_bin261_FJICAFFM_01444;dRep_bin335_JIOGNAPG_00371;dRep_bin306_FGHMKMMP_01103;dRep_bin234_ECABPBME_00984;dRep_bin254_GJDPFAEA_01725	dRep_bin344_CJJBDGAA_00300;dRep_bin203_CLFNNOCF_02316;dRep_bin179_HFEIPPPA_01857;dRep_bin001_GHHJMDAL_00882;dRep_bin167_BLMEBMNN_01851;dRep_bin261_FJICAFFM_01444	>dRep_bin344_CJJBDGAA_00300 50S ribosomal protein L7/L12;>dRep_bin203_CLFNNOCF_02316 50S ribosomal protein L7/L12;>dRep_bin179_HFEIPPPA_01857 50S ribosomal protein L7/L12;>dRep_bin001_GHHJMDAL_00882 50S ribosomal protein L7/L12;>dRep_bin167_BLMEBMNN_01851	dRep_bin261_FJICAFFM_01444	CDS	rplL		50S ribosomal protein L7/L12
FJICAFFM_01448				23.129060000000003								17	0	0	dRep_bin261_FJICAFFM_01448	dRep_bin261_FJICAFFM_01448	>dRep_bin261_FJICAFFM_01448 3-hydroxybutyryl-CoA dehydrogenase	dRep_bin261_FJICAFFM_01448	CDS	hbd	1.1.1.157	3-hydroxybutyryl-CoA dehydrogenase
FJICAFFM_01473	25.05556	25.61532	26.92694	28.13021	28.02295	28.31924	26.19712	26.54137				14	4	1,4527E-99	dRep_bin041_OPKGAAAG_02298;dRep_bin133_NOBPDBPA_02940;dRep_bin297_EDHEEICA_00524;dRep_bin248_CCDFPECI_01398;dRep_bin269_PNILGKPH_01152;dRep_bin095_HOBNOEEF_00617;dRep_bin158_OGFICEAP_00426;dRep_bin016_JLGAHGOJ_00457;dRep_bin279_IAEFEPEN_00390;dRep_bin261_FJICAFFM_01473;dRep_bin133_NOBPDBPA_02941;dRep_bin354_MMOALAFN_00040	dRep_bin041_OPKGAAAG_02298;dRep_bin133_NOBPDBPA_02940	>dRep_bin041_OPKGAAAG_02298 Glutamine synthetase;>dRep_bin133_NOBPDBPA_02940 Glutamine synthetase	dRep_bin261_FJICAFFM_01473	CDS	glnA_2	6.3.1.2	Glutamine synthetase
FJICAFFM_01506		26.56719		26.56683								2	2	3,7291E-06	dRep_bin203_CLFNNOCF_00774;dRep_bin344_CJJBDGAA_01060;dRep_bin287_DONBGKDH_01736;dRep_bin261_FJICAFFM_01506;dRep_bin133_NOBPDBPA_00592;dRep_bin179_HFEIPPPA_01290;dRep_bin041_OPKGAAAG_01378;dRep_bin324_IPNHOHFK_00424	dRep_bin203_CLFNNOCF_00774;dRep_bin344_CJJBDGAA_01060;dRep_bin287_DONBGKDH_01736;dRep_bin261_FJICAFFM_01506;dRep_bin133_NOBPDBPA_00592;dRep_bin179_HFEIPPPA_01290;dRep_bin041_OPKGAAAG_01378;dRep_bin324_IPNHOHFK_00424	>dRep_bin203_CLFNNOCF_00774 Acyl carrier protein;>dRep_bin344_CJJBDGAA_01060 Acyl carrier protein;>dRep_bin287_DONBGKDH_01736 Acyl carrier protein;>dRep_bin261_FJICAFFM_01506 Acyl carrier protein;>dRep_bin133_NOBPDBPA_00592 Acyl carrier protein;>dRep_bin17	dRep_bin261_FJICAFFM_01506	CDS	acpP		Acyl carrier protein
