GBprotID	LFQ intensity CtrPig1	LFQ intensity CtrPig2	LFQ intensity CtrPig3	LFQ intensity CtrPig4	LFQ intensity MannanPig1	LFQ intensity MannanPig2	LFQ intensity MannanPig3	LFQ intensity MannanPig4	Only identified by site	Reverse	Contaminant	Peptides	Unique peptides	PEP	Protein IDs	Majority protein IDs	Fasta headers	IDcomb	ftype	gene	EC_number	product
NIDIBBDA_00034					20.66084	20.19075						6	1	4,1576E-39	dRep_bin346_JKFDGFHC_00049;dRep_bin271_NGFBCHKH_01432;dRep_bin170_LICLFCFF_00076;dRep_bin113_LIFKCGBF_00665;dRep_bin036_DOKCEIDH_00273;dRep_bin034_MEBMFDLL_01305;dRep_bin285_IPHKFJAN_00808;dRep_bin298_EIPJCOMF_01620;dRep_bin289_KALDCNNP_01320;dRep_bin196_BIELHBNH_01057;dRep_bin138_EJGHNBMI_00590;dRep_bin064_CMDDCDKG_01375;dRep_bin183_FPGIOKBG_00615;dRep_bin073_AKBCEHHO_01469;dRep_bin323_FBBLPLCG_01598;dRep_bin101_BNDDLDCL_00033;dRep_bin049_MNFBDPNO_00783;dRep_bin087_FCLGAPPI_00381;dRep_bin281_OGHLKMAI_01074;dRep_bin210_AGEDAEIA_01693;dRep_bin118_FGIOKLBC_01781;dRep_bin022_BOEAFNDE_01420;dRep_bin131_HLFNHDGI_01253;dRep_bin002_CFBNDKDN_00034;dRep_bin014_CHIHIMAN_01271;dRep_bin329_GDOHKPBL_01515;dRep_bin314_KCHFPLIP_00795;dRep_bin307_AOCKHIKF_00407;dRep_bin098_DDEBHDKK_01315;dRep_bin306_FGHMKMMP_00477;dRep_bin153_JGABJFBF_01420;dRep_bin172_ALNHGLMD_01785;dRep_bin286_OEMIJKMC_01076;dRep_bin182_EMCFODCD_00063;dRep_bin126_PPDNCIBN_00262;dRep_bin044_IPFKHAEF_00185;dRep_bin283_NLJJFFAC_01756;dRep_bin203_CLFNNOCF_01930;dRep_bin179_HFEIPPPA_00361;dRep_bin218_ACMPALGF_01344;dRep_bin144_NPHACCKF_00223;dRep_bin094_LBLICAAO_00940;dRep_bin032_PPNIGLME_01008;dRep_bin027_OFJCHLJJ_00625;dRep_bin096_GNHMEKPF_00088;dRep_bin257_JHFDCHCB_01408;dRep_bin190_MOGDLGIN_00302;dRep_bin114_FJHJKHGL_00840;dRep_bin055_IBMMJAEE_00170;dRep_bin048_PABMBHAL_01509;dRep_bin318_IEDEJOFJ_00726;dRep_bin264_DNFFGNEG_00422;dRep_bin244_LBFMHLBI_01058;dRep_bin223_PIMCDKJI_01107;dRep_bin202_HEPPALPH_00196;dRep_bin242_LKAIBGGJ_00303;dRep_bin204_INMOGLDN_01542;dRep_bin174_LJJOKEME_00810;dRep_bin080_CBEBHNNK_00066;dRep_bin312_MJFEFHMP_00588;dRep_bin246_MMFBABHK_00194;dRep_bin116_CLFDBMOF_00457;dRep_bin061_ONFGDLGO_01437;dRep_bin030_OGPDLGOC_00261;dRep_bin004_OCHNPJPO_01274;dRep_bin251_FGNGCJDD_00242;dRep_bin219_HGPEELLF_01206;dRep_bin129_GADIAMAA_00806;dRep_bin076_GLAOFBEC_00429;dRep_bin188_EJILNMPE_01055;dRep_bin252_NDAKLAGD_01289;dRep_bin352_KFNHGNFC_00642;dRep_bin206_OIIBOIAK_00292;dRep_bin078_GKFCBAEI_00119;dRep_bin301_NJFJIJGA_00585;dRep_bin275_NIDIBBDA_00034;dRep_bin040_EIFLLDOA_01203;dRep_bin028_GKEJLBAM_00163;dRep_bin149_GABCHCDI_00012;dRep_bin093_PGADNPMG_00427;dRep_bin345_GLPJDLOI_00001;dRep_bin296_FDMPKPOH_01296;dRep_bin316_FNLHDNEO_00355;dRep_bin256_KEMNAOBC_01607;dRep_bin071_JHMCIJPE_01347;dRep_bin128_JPBBHEMA_00687;dRep_bin165_HMDFFMMM_01254;dRep_bin351_CKFFBPHM_01191;dRep_bin092_OOJCPDEA_01149	dRep_bin346_JKFDGFHC_00049;dRep_bin271_NGFBCHKH_01432;dRep_bin170_LICLFCFF_00076;dRep_bin113_LIFKCGBF_00665;dRep_bin036_DOKCEIDH_00273;dRep_bin034_MEBMFDLL_01305;dRep_bin285_IPHKFJAN_00808;dRep_bin298_EIPJCOMF_01620;dRep_bin289_KALDCNNP_01320;dRep_bin196_BIELHBNH_01057;dRep_bin138_EJGHNBMI_00590;dRep_bin064_CMDDCDKG_01375;dRep_bin183_FPGIOKBG_00615;dRep_bin073_AKBCEHHO_01469	>dRep_bin346_JKFDGFHC_00049 ATP synthase subunit beta, sodium ion specific;>dRep_bin271_NGFBCHKH_01432 ATP synthase subunit beta;>dRep_bin170_LICLFCFF_00076 ATP synthase subunit beta, sodium ion specific;>dRep_bin113_LIFKCGBF_00665 ATP synthase subunit bet	dRep_bin275_NIDIBBDA_00034	CDS	atpD	3.6.3.14	ATP synthase subunit beta
NIDIBBDA_00191					23.21826	22.74098		23.155810000000002				2	2	3,7249E-06	dRep_bin275_NIDIBBDA_00191	dRep_bin275_NIDIBBDA_00191	>dRep_bin275_NIDIBBDA_00191 hypothetical protein	dRep_bin275_NIDIBBDA_00191	CDS			hypothetical protein
NIDIBBDA_00205						25.65237						2	2	4,6301E-07	dRep_bin275_NIDIBBDA_00205	dRep_bin275_NIDIBBDA_00205	>dRep_bin275_NIDIBBDA_00205 Acyl carrier protein AcpP	dRep_bin275_NIDIBBDA_00205	CDS	acpP_1		Acyl carrier protein AcpP
NIDIBBDA_00206								20.2314				1	1	6,3831E-06	dRep_bin275_NIDIBBDA_00206	dRep_bin275_NIDIBBDA_00206	>dRep_bin275_NIDIBBDA_00206 3-oxoacyl-[acyl-carrier-protein] synthase 2	dRep_bin275_NIDIBBDA_00206	CDS	fabF_1	2.3.1.179	3-oxoacyl-[acyl-carrier-protein] synthase 2
NIDIBBDA_00266						23.485169999999997						2	2	0,00012694	dRep_bin275_NIDIBBDA_00266	dRep_bin275_NIDIBBDA_00266	>dRep_bin275_NIDIBBDA_00266 TonB-dependent receptor SusC	dRep_bin275_NIDIBBDA_00266	CDS	susC_3		TonB-dependent receptor SusC
NIDIBBDA_00292					26.768379999999997							3	1	2,9563E-09	dRep_bin183_FPGIOKBG_01973;dRep_bin034_MEBMFDLL_01112;dRep_bin063_PJANDMAH_00033;dRep_bin104_EGLEJOLM_00236;dRep_bin331_HPKAPHAF_00401;dRep_bin037_GEAOEKHA_01236;dRep_bin276_EHNFLEBP_00896;dRep_bin159_ADJJGPBG_01036;dRep_bin083_OCBADPJJ_00248;dRep_bin120_EKLBOPNC_01937;dRep_bin210_AGEDAEIA_00563;dRep_bin296_FDMPKPOH_01992;dRep_bin002_CFBNDKDN_00667;dRep_bin110_JGOEJECF_00717;dRep_bin314_KCHFPLIP_00736;dRep_bin346_JKFDGFHC_01012;dRep_bin307_AOCKHIKF_00964;dRep_bin113_LIFKCGBF_00231;dRep_bin301_NJFJIJGA_00693;dRep_bin295_EJGKDKNE_01558;dRep_bin118_FGIOKLBC_00221;dRep_bin070_EMBHKIOF_01275;dRep_bin037_GEAOEKHA_00935;dRep_bin022_BOEAFNDE_00846;dRep_bin275_NIDIBBDA_00292;dRep_bin346_JKFDGFHC_01402;dRep_bin331_HPKAPHAF_00660;dRep_bin198_GMLJKALI_01178;dRep_bin165_HMDFFMMM_00173;dRep_bin084_CGBIKHBH_01220;dRep_bin002_CFBNDKDN_00154;dRep_bin036_DOKCEIDH_00528;dRep_bin045_GJACFFBC_00872;dRep_bin034_MEBMFDLL_01631;dRep_bin137_NABPABPB_01490;dRep_bin113_LIFKCGBF_00697;dRep_bin298_EIPJCOMF_00317;dRep_bin036_DOKCEIDH_01142;dRep_bin196_BIELHBNH_01084	dRep_bin183_FPGIOKBG_01973;dRep_bin034_MEBMFDLL_01112	>dRep_bin183_FPGIOKBG_01973 4-alpha-glucanotransferase;>dRep_bin034_MEBMFDLL_01112 4-alpha-glucanotransferase	dRep_bin275_NIDIBBDA_00292	CDS	malQ	2.4.1.25	4-alpha-glucanotransferase
NIDIBBDA_00322	28.615830000000003	28.18546	29.82558	29.92139	30.37161	30.505309999999998	29.835990000000002	30.137000000000004				19	11	0	dRep_bin191_NGFJMLOL_01017;dRep_bin307_AOCKHIKF_00836;dRep_bin232_JGAEDAFA_01923;dRep_bin098_DDEBHDKK_00570;dRep_bin073_AKBCEHHO_00429;dRep_bin329_GDOHKPBL_00208;dRep_bin289_KALDCNNP_00441;dRep_bin219_HGPEELLF_00854;dRep_bin047_IFFANOMN_01143;dRep_bin354_MMOALAFN_00793;dRep_bin093_PGADNPMG_00569;dRep_bin327_EPEGNBAG_00694;dRep_bin123_PJKBFKBB_01119;dRep_bin325_EIIGOGHN_01520;dRep_bin335_JIOGNAPG_00036;dRep_bin082_HBEFABJN_00133;dRep_bin204_INMOGLDN_01573;dRep_bin174_LJJOKEME_01467;dRep_bin050_FBECOHCI_00562;dRep_bin264_DNFFGNEG_01376;dRep_bin252_NDAKLAGD_00172;dRep_bin246_MMFBABHK_01476;dRep_bin202_HEPPALPH_01125;dRep_bin004_OCHNPJPO_00139;dRep_bin318_IEDEJOFJ_00360;dRep_bin244_LBFMHLBI_01421;dRep_bin223_PIMCDKJI_00814;dRep_bin186_HJAAFFNP_00783;dRep_bin133_NOBPDBPA_02278;dRep_bin105_AAEIHAFF_01501;dRep_bin005_CNDFPKJG_01278;dRep_bin317_ABPHNCOD_01283;dRep_bin007_LNLEAAAN_00664;dRep_bin312_MJFEFHMP_01049;dRep_bin129_GADIAMAA_00560;dRep_bin065_DFABHCBI_00478;dRep_bin287_DONBGKDH_00800;dRep_bin238_OLNFACLE_00723;dRep_bin179_HFEIPPPA_01221;dRep_bin167_BLMEBMNN_00475;dRep_bin125_FADLGGII_00749;dRep_bin103_IGJBLKMC_00712;dRep_bin088_DNGPPFDK_00743;dRep_bin048_PABMBHAL_01780;dRep_bin348_LCLFDNEE_00919;dRep_bin278_BFCONKOE_00886;dRep_bin097_CBBLIPAN_00374;dRep_bin081_JDPCKDNP_01011;dRep_bin032_PPNIGLME_00057;dRep_bin272_LGBDGEIM_01074;dRep_bin049_MNFBDPNO_01322;dRep_bin013_IODPEDPB_01734;dRep_bin299_AKNBKJGM_01764;dRep_bin266_JFOCEDAE_00776;dRep_bin216_JNJMCPHB_01258;dRep_bin021_AJDDCGJC_00529;dRep_bin316_FNLHDNEO_00493;dRep_bin314_KCHFPLIP_01715;dRep_bin296_FDMPKPOH_01763;dRep_bin275_NIDIBBDA_00322;dRep_bin118_FGIOKLBC_00279;dRep_bin037_GEAOEKHA_00835;dRep_bin028_GKEJLBAM_01763;dRep_bin331_HPKAPHAF_00024;dRep_bin301_NJFJIJGA_01995;dRep_bin149_GABCHCDI_01177;dRep_bin057_BNCFHBBO_00918;dRep_bin040_EIFLLDOA_01272;dRep_bin265_LFKFBJPC_01505;dRep_bin022_BOEAFNDE_00753;dRep_bin210_AGEDAEIA_00448	dRep_bin191_NGFJMLOL_01017	>dRep_bin191_NGFJMLOL_01017 Aspartate aminotransferase	dRep_bin275_NIDIBBDA_00322	CDS		2.6.1.1	Aspartate aminotransferase
NIDIBBDA_00334	27.59776	27.5037	27.953329999999998	28.57369	29.08413	29.469509999999996	28.83575	29.12918				12	6	0	dRep_bin191_NGFJMLOL_00197;dRep_bin080_CBEBHNNK_00054;dRep_bin224_NFENHJGB_00542;dRep_bin275_NIDIBBDA_00334;dRep_bin045_GJACFFBC_01137	dRep_bin191_NGFJMLOL_00197	>dRep_bin191_NGFJMLOL_00197 Xaa-Pro aminopeptidase	dRep_bin275_NIDIBBDA_00334	CDS	pepP	3.4.11.9	Xaa-Pro aminopeptidase
NIDIBBDA_00359						22.93276						5	0	4,7821E-13	dRep_bin294_EHJINIDK_00428;dRep_bin149_GABCHCDI_00125;dRep_bin275_NIDIBBDA_00359;dRep_bin035_JBNPBOKG_00161;dRep_bin183_FPGIOKBG_00485	dRep_bin294_EHJINIDK_00428;dRep_bin149_GABCHCDI_00125	>dRep_bin294_EHJINIDK_00428 Arginine--tRNA ligase;>dRep_bin149_GABCHCDI_00125 Arginine--tRNA ligase	dRep_bin275_NIDIBBDA_00359	CDS	argS	6.1.1.19	Arginine--tRNA ligase
NIDIBBDA_00401					23.149870000000004	23.9649		24.962429999999994				5	3	3,9517E-09	dRep_bin275_NIDIBBDA_00401	dRep_bin275_NIDIBBDA_00401	>dRep_bin275_NIDIBBDA_00401 TonB-dependent receptor SusC	dRep_bin275_NIDIBBDA_00401	CDS	susC_5		TonB-dependent receptor SusC
NIDIBBDA_00434	28.57618	28.73908	28.601940000000003	29.525329999999997	29.361539999999998	29.35947	29.47117	28.94081				13	7	2,1177E-64	dRep_bin191_NGFJMLOL_01183;dRep_bin170_LICLFCFF_01189;dRep_bin198_GMLJKALI_01270;dRep_bin064_CMDDCDKG_00041;dRep_bin137_NABPABPB_00428;dRep_bin289_KALDCNNP_00317;dRep_bin183_FPGIOKBG_00493;dRep_bin224_NFENHJGB_01634;dRep_bin314_KCHFPLIP_00994;dRep_bin285_IPHKFJAN_01105;dRep_bin294_EHJINIDK_00253;dRep_bin002_CFBNDKDN_01884;dRep_bin229_FFOBPPJI_00639;dRep_bin318_IEDEJOFJ_01051;dRep_bin355_KJEFNADK_00398;dRep_bin267_LJCFMAFA_00932;dRep_bin230_NINMBMKB_00343;dRep_bin249_OFIIEIDJ_01003;dRep_bin007_LNLEAAAN_00258;dRep_bin037_GEAOEKHA_00979;dRep_bin346_JKFDGFHC_00518;dRep_bin196_BIELHBNH_00928;dRep_bin063_PJANDMAH_01542;dRep_bin045_GJACFFBC_02082;dRep_bin036_DOKCEIDH_00964;dRep_bin034_MEBMFDLL_02139;dRep_bin329_GDOHKPBL_01390;dRep_bin345_GLPJDLOI_00615;dRep_bin307_AOCKHIKF_00674;dRep_bin098_DDEBHDKK_00690;dRep_bin301_NJFJIJGA_01580;dRep_bin275_NIDIBBDA_00434;dRep_bin149_GABCHCDI_00617;dRep_bin093_PGADNPMG_01618;dRep_bin014_CHIHIMAN_00183;dRep_bin073_AKBCEHHO_01560;dRep_bin210_AGEDAEIA_00697;dRep_bin084_CGBIKHBH_01547;dRep_bin070_EMBHKIOF_00966;dRep_bin022_BOEAFNDE_00824;dRep_bin256_KEMNAOBC_01139;dRep_bin071_JHMCIJPE_00028;dRep_bin165_HMDFFMMM_00871;dRep_bin118_FGIOKLBC_00537;dRep_bin110_JGOEJECF_01108;dRep_bin316_FNLHDNEO_00330;dRep_bin296_FDMPKPOH_01624;dRep_bin232_JGAEDAFA_01628;dRep_bin290_OIOJKBNK_00304	dRep_bin191_NGFJMLOL_01183	>dRep_bin191_NGFJMLOL_01183 S-adenosylmethionine synthase	dRep_bin275_NIDIBBDA_00434	CDS	metK	2.5.1.6	S-adenosylmethionine synthase
NIDIBBDA_00528						26.491699999999998		26.52148				2	2	1,2224E-13	dRep_bin275_NIDIBBDA_00528	dRep_bin275_NIDIBBDA_00528	>dRep_bin275_NIDIBBDA_00528 OsmC-like protein	dRep_bin275_NIDIBBDA_00528	CDS			OsmC-like protein
NIDIBBDA_00536								25.759339999999998				5	1	5,6756E-37	dRep_bin275_NIDIBBDA_00536;dRep_bin028_GKEJLBAM_01777;dRep_bin076_GLAOFBEC_02255	dRep_bin275_NIDIBBDA_00536	>dRep_bin275_NIDIBBDA_00536 Fructose-bisphosphate aldolase	dRep_bin275_NIDIBBDA_00536	CDS	fda	4.1.2.13	Fructose-bisphosphate aldolase
NIDIBBDA_00580					27.68866	28.85067	26.93146	27.22683				5	1	2,0271E-61	dRep_bin071_JHMCIJPE_00774;dRep_bin271_NGFBCHKH_00710;dRep_bin063_PJANDMAH_00185;dRep_bin034_MEBMFDLL_00247;dRep_bin084_CGBIKHBH_01287;dRep_bin307_AOCKHIKF_01139;dRep_bin098_DDEBHDKK_01407;dRep_bin290_OIOJKBNK_01581;dRep_bin165_HMDFFMMM_00576;dRep_bin351_CKFFBPHM_00569;dRep_bin229_FFOBPPJI_00495;dRep_bin070_EMBHKIOF_00542;dRep_bin136_NAIECEIF_01032;dRep_bin073_AKBCEHHO_01226;dRep_bin014_CHIHIMAN_00024;dRep_bin289_KALDCNNP_00248;dRep_bin199_JBCGANNF_00237;dRep_bin244_LBFMHLBI_01073;dRep_bin036_DOKCEIDH_00668;dRep_bin004_OCHNPJPO_00478;dRep_bin329_GDOHKPBL_00723;dRep_bin316_FNLHDNEO_01012;dRep_bin256_KEMNAOBC_01521;dRep_bin198_GMLJKALI_00058;dRep_bin092_OOJCPDEA_01022;dRep_bin318_IEDEJOFJ_00455;dRep_bin301_NJFJIJGA_00149;dRep_bin183_FPGIOKBG_00223;dRep_bin149_GABCHCDI_01562;dRep_bin022_BOEAFNDE_00838;dRep_bin345_GLPJDLOI_00727;dRep_bin275_NIDIBBDA_00580;dRep_bin096_GNHMEKPF_01251;dRep_bin314_KCHFPLIP_01102;dRep_bin272_LGBDGEIM_00187;dRep_bin118_FGIOKLBC_01064;dRep_bin055_IBMMJAEE_00565;dRep_bin331_HPKAPHAF_01667;dRep_bin028_GKEJLBAM_00501;dRep_bin012_KEBBILMO_00805	dRep_bin071_JHMCIJPE_00774	>dRep_bin071_JHMCIJPE_00774 Glucose-1-phosphate thymidylyltransferase 2	dRep_bin275_NIDIBBDA_00580	CDS	rmlA	2.7.7.24	Glucose-1-phosphate thymidylyltransferase
NIDIBBDA_00628						23.38667		23.347870000000004				2	2	2,6651E-08	dRep_bin275_NIDIBBDA_00628	dRep_bin275_NIDIBBDA_00628	>dRep_bin275_NIDIBBDA_00628 Phosphate-selective porin O and P	dRep_bin275_NIDIBBDA_00628	CDS			Phosphate-selective porin O and P
NIDIBBDA_00658				26.19963								5	1	1,0498E-43	dRep_bin112_NDMGAKCH_01045;dRep_bin002_CFBNDKDN_02029;dRep_bin113_LIFKCGBF_00318;dRep_bin183_FPGIOKBG_02443;dRep_bin028_GKEJLBAM_00452;dRep_bin301_NJFJIJGA_01273;dRep_bin296_FDMPKPOH_00653;dRep_bin149_GABCHCDI_00371;dRep_bin035_JBNPBOKG_01412;dRep_bin275_NIDIBBDA_00658;dRep_bin229_FFOBPPJI_01260;dRep_bin210_AGEDAEIA_01442;dRep_bin131_HLFNHDGI_00539;dRep_bin118_FGIOKLBC_01258;dRep_bin093_PGADNPMG_00804;dRep_bin022_BOEAFNDE_00155	dRep_bin112_NDMGAKCH_01045;dRep_bin002_CFBNDKDN_02029;dRep_bin113_LIFKCGBF_00318;dRep_bin183_FPGIOKBG_02443	>dRep_bin112_NDMGAKCH_01045 30S ribosomal protein S7;>dRep_bin002_CFBNDKDN_02029 30S ribosomal protein S7;>dRep_bin113_LIFKCGBF_00318 30S ribosomal protein S7;>dRep_bin183_FPGIOKBG_02443 30S ribosomal protein S7	dRep_bin275_NIDIBBDA_00658	CDS	rpsG		30S ribosomal protein S7
NIDIBBDA_00690								23.12877				1	1	0,00092512	dRep_bin275_NIDIBBDA_00690	dRep_bin275_NIDIBBDA_00690	>dRep_bin275_NIDIBBDA_00690 putative zinc protease	dRep_bin275_NIDIBBDA_00690	CDS		3.4.24.-	putative zinc protease
NIDIBBDA_00691					25.57508	26.73776	25.131480000000003	25.210739999999998				3	3	2,6068E-10	dRep_bin191_NGFJMLOL_00154;dRep_bin045_GJACFFBC_00079;dRep_bin111_FPJIHFKE_00406;dRep_bin138_EJGHNBMI_01064;dRep_bin285_IPHKFJAN_00515;dRep_bin196_BIELHBNH_01025;dRep_bin224_NFENHJGB_01269;dRep_bin296_FDMPKPOH_01413;dRep_bin128_JPBBHEMA_00518;dRep_bin073_AKBCEHHO_01705;dRep_bin232_JGAEDAFA_01214;dRep_bin110_JGOEJECF_00385;dRep_bin307_AOCKHIKF_01479;dRep_bin098_DDEBHDKK_01514;dRep_bin018_ILOONPIC_00305;dRep_bin170_LICLFCFF_00331;dRep_bin035_JBNPBOKG_00057;dRep_bin034_MEBMFDLL_01539;dRep_bin346_JKFDGFHC_00885;dRep_bin298_EIPJCOMF_00371;dRep_bin165_HMDFFMMM_00204;dRep_bin028_GKEJLBAM_01477;dRep_bin229_FFOBPPJI_00453;dRep_bin275_NIDIBBDA_00691;dRep_bin118_FGIOKLBC_01843;dRep_bin113_LIFKCGBF_00471;dRep_bin084_CGBIKHBH_01308;dRep_bin329_GDOHKPBL_00694;dRep_bin131_HLFNHDGI_00779;dRep_bin036_DOKCEIDH_00191;dRep_bin137_NABPABPB_00552;dRep_bin210_AGEDAEIA_00804;dRep_bin022_BOEAFNDE_00719;dRep_bin294_EHJINIDK_00312;dRep_bin093_PGADNPMG_01602;dRep_bin289_KALDCNNP_00932;dRep_bin040_EIFLLDOA_00160;dRep_bin183_FPGIOKBG_00710	dRep_bin191_NGFJMLOL_00154;dRep_bin045_GJACFFBC_00079;dRep_bin111_FPJIHFKE_00406;dRep_bin138_EJGHNBMI_01064;dRep_bin285_IPHKFJAN_00515;dRep_bin196_BIELHBNH_01025;dRep_bin224_NFENHJGB_01269	>dRep_bin191_NGFJMLOL_00154 Protein translocase subunit SecA;>dRep_bin045_GJACFFBC_00079 Protein translocase subunit SecA;>dRep_bin111_FPJIHFKE_00406 Protein translocase subunit SecA;>dRep_bin138_EJGHNBMI_01064 Protein translocase subunit SecA;>dRep_bin285	dRep_bin275_NIDIBBDA_00691	CDS	secA		Protein translocase subunit SecA
NIDIBBDA_00784					25.10809	25.969719999999995	24.91255	24.8436				7	4	3,4733E-103	dRep_bin285_IPHKFJAN_00356;dRep_bin294_EHJINIDK_00334;dRep_bin275_NIDIBBDA_00784;dRep_bin002_CFBNDKDN_00133;dRep_bin073_AKBCEHHO_00987;dRep_bin045_GJACFFBC_01321;dRep_bin114_FJHJKHGL_01126;dRep_bin014_CHIHIMAN_01002;dRep_bin028_GKEJLBAM_01235;F1RMH5;dRep_bin040_EIFLLDOA_01438;dRep_bin317_ABPHNCOD_01176;dRep_bin018_ILOONPIC_01491;dRep_bin092_OOJCPDEA_01473;A0A287BPN5;dRep_bin071_JHMCIJPE_00860;dRep_bin136_NAIECEIF_00009	dRep_bin285_IPHKFJAN_00356;dRep_bin294_EHJINIDK_00334	>dRep_bin285_IPHKFJAN_00356 Urocanate hydratase;>dRep_bin294_EHJINIDK_00334 Urocanate hydratase	dRep_bin275_NIDIBBDA_00784	CDS	hutU	4.2.1.49	Urocanate hydratase
NIDIBBDA_00785						21.25747						1	1	0,00041322	dRep_bin170_LICLFCFF_00014;dRep_bin113_LIFKCGBF_00882;dRep_bin073_AKBCEHHO_00988;dRep_bin022_BOEAFNDE_00905;dRep_bin275_NIDIBBDA_00785;dRep_bin045_GJACFFBC_01320	dRep_bin170_LICLFCFF_00014;dRep_bin113_LIFKCGBF_00882;dRep_bin073_AKBCEHHO_00988;dRep_bin022_BOEAFNDE_00905;dRep_bin275_NIDIBBDA_00785;dRep_bin045_GJACFFBC_01320	>dRep_bin170_LICLFCFF_00014 Histidine ammonia-lyase;>dRep_bin113_LIFKCGBF_00882 Histidine ammonia-lyase;>dRep_bin073_AKBCEHHO_00988 Histidine ammonia-lyase;>dRep_bin022_BOEAFNDE_00905 Histidine ammonia-lyase;>dRep_bin275_NIDIBBDA_00785 Histidine ammonia-ly	dRep_bin275_NIDIBBDA_00785	CDS	hutH	4.3.1.3	Histidine ammonia-lyase
NIDIBBDA_00818								19.5691				1	1	0,0023405	dRep_bin275_NIDIBBDA_00818	dRep_bin275_NIDIBBDA_00818	>dRep_bin275_NIDIBBDA_00818 Aminopeptidase C	dRep_bin275_NIDIBBDA_00818	CDS	pepC	3.4.22.40	Aminopeptidase C
NIDIBBDA_00880					24.77605	24.65622	25.04402	24.9878				12	0	2,2743E-54	dRep_bin275_NIDIBBDA_00880	dRep_bin275_NIDIBBDA_00880	>dRep_bin275_NIDIBBDA_00880 DNA-directed RNA polymerase subunit beta	dRep_bin275_NIDIBBDA_00880	CDS	rpoC	2.7.7.6	DNA-directed RNA polymerase subunit beta'
NIDIBBDA_00881	27.45113	26.289139999999996	27.94598	28.37024	29.08889	29.41667	28.280339999999995	28.78625				33	1	0	dRep_bin112_NDMGAKCH_01028;dRep_bin275_NIDIBBDA_00881;dRep_bin113_LIFKCGBF_00973;dRep_bin110_JGOEJECF_00463	dRep_bin112_NDMGAKCH_01028	>dRep_bin112_NDMGAKCH_01028 DNA-directed RNA polymerase subunit beta	dRep_bin275_NIDIBBDA_00881	CDS	rpoB	2.7.7.6	DNA-directed RNA polymerase subunit beta
NIDIBBDA_00900						20.71883						3	1	3,1452E-13	dRep_bin210_AGEDAEIA_00862;dRep_bin301_NJFJIJGA_00018;dRep_bin093_PGADNPMG_00713;dRep_bin275_NIDIBBDA_00900;dRep_bin022_BOEAFNDE_00521	dRep_bin210_AGEDAEIA_00862;dRep_bin301_NJFJIJGA_00018;dRep_bin093_PGADNPMG_00713;dRep_bin275_NIDIBBDA_00900;dRep_bin022_BOEAFNDE_00521	>dRep_bin210_AGEDAEIA_00862 Chaperone protein DnaK;>dRep_bin301_NJFJIJGA_00018 Chaperone protein DnaK;>dRep_bin093_PGADNPMG_00713 Chaperone protein DnaK;>dRep_bin275_NIDIBBDA_00900 Chaperone protein dnaK2;>dRep_bin022_BOEAFNDE_00521 Chaperone protein DnaK	dRep_bin275_NIDIBBDA_00900	CDS	dnaK2_1		Chaperone protein dnaK2
NIDIBBDA_00907						24.55818		24.39598				6	2	9,3406E-17	dRep_bin275_NIDIBBDA_00907	dRep_bin275_NIDIBBDA_00907	>dRep_bin275_NIDIBBDA_00907 Methylmalonyl-CoA mutase large subunit	dRep_bin275_NIDIBBDA_00907	CDS	mutB	5.4.99.2	Methylmalonyl-CoA mutase large subunit
NIDIBBDA_00968	31.014450000000004	31.29691	31.331970000000005	32.09874000000001	32.089859999999994	32.06542	31.638840000000002	32.18172				19	9	2,7204E-240	dRep_bin191_NGFJMLOL_00956;dRep_bin183_FPGIOKBG_00414;dRep_bin275_NIDIBBDA_00968	dRep_bin191_NGFJMLOL_00956	>dRep_bin191_NGFJMLOL_00956 hypothetical protein	dRep_bin275_NIDIBBDA_00968	CDS			Arch_glmU: UDP-N-acetylglucosamine diphosphorylase/glucosamine-1-phosphate N-acetyltransferase
NIDIBBDA_01042						25.9249		25.545039999999997				5	5	6,8521E-25	dRep_bin275_NIDIBBDA_01042	dRep_bin275_NIDIBBDA_01042	>dRep_bin275_NIDIBBDA_01042 hypothetical protein	dRep_bin275_NIDIBBDA_01042	CDS			hypothetical protein
NIDIBBDA_01070						22.12133						5	1	3,3368E-12	dRep_bin045_GJACFFBC_01247;dRep_bin331_HPKAPHAF_00027;dRep_bin037_GEAOEKHA_00174;dRep_bin014_CHIHIMAN_00074;dRep_bin345_GLPJDLOI_01333;dRep_bin131_HLFNHDGI_00087;dRep_bin040_EIFLLDOA_00096;dRep_bin301_NJFJIJGA_00754;dRep_bin229_FFOBPPJI_00315;dRep_bin149_GABCHCDI_00178;dRep_bin022_BOEAFNDE_01263;dRep_bin210_AGEDAEIA_00584;dRep_bin118_FGIOKLBC_00311;dRep_bin110_JGOEJECF_00092;dRep_bin275_NIDIBBDA_01070	dRep_bin045_GJACFFBC_01247	>dRep_bin045_GJACFFBC_01247 Bifunctional purine biosynthesis protein PurH	dRep_bin275_NIDIBBDA_01070	CDS	purH		Bifunctional purine biosynthesis protein PurH
NIDIBBDA_01106	25.0411	25.054990000000004	25.84776	25.456789999999998	26.569219999999998	28.331550000000004	27.013930000000002	28.268159999999998				6	6	1,5578E-56	dRep_bin113_LIFKCGBF_00989;dRep_bin275_NIDIBBDA_01106	dRep_bin113_LIFKCGBF_00989	>dRep_bin113_LIFKCGBF_00989 Outer membrane protein beta-barrel domain protein	dRep_bin275_NIDIBBDA_01106	CDS			Outer membrane protein beta-barrel domain protein
NIDIBBDA_01144	26.90713	27.16394	29.35527	28.894460000000002	30.282069999999997	30.30856	30.05103	30.039960000000004				17	12	5,593E-256	dRep_bin191_NGFJMLOL_00980;dRep_bin165_HMDFFMMM_01127;dRep_bin301_NJFJIJGA_01168;dRep_bin210_AGEDAEIA_01494;dRep_bin275_NIDIBBDA_01144;dRep_bin022_BOEAFNDE_01167;dRep_bin296_FDMPKPOH_00081;dRep_bin035_JBNPBOKG_00194;dRep_bin294_EHJINIDK_01919;dRep_bin040_EIFLLDOA_01765	dRep_bin191_NGFJMLOL_00980	>dRep_bin191_NGFJMLOL_00980 Glycine--tRNA ligase	dRep_bin275_NIDIBBDA_01144	CDS	glyQS	6.1.1.14	Glycine--tRNA ligase
NIDIBBDA_01168	26.55941	26.928069999999998	25.14511	26.383689999999998	25.376170000000002	26.71411	25.097800000000003	25.14934				6	2	2,5907E-72	dRep_bin034_MEBMFDLL_00253;dRep_bin063_PJANDMAH_00191;dRep_bin271_NGFBCHKH_00428;dRep_bin346_JKFDGFHC_00112;dRep_bin289_KALDCNNP_00733;dRep_bin198_GMLJKALI_00215;dRep_bin112_NDMGAKCH_00157;dRep_bin036_DOKCEIDH_00854;dRep_bin329_GDOHKPBL_00018;dRep_bin275_NIDIBBDA_01168;dRep_bin301_NJFJIJGA_01635;dRep_bin138_EJGHNBMI_01955;dRep_bin002_CFBNDKDN_00057;dRep_bin084_CGBIKHBH_00320	dRep_bin034_MEBMFDLL_00253;dRep_bin063_PJANDMAH_00191;dRep_bin271_NGFBCHKH_00428;dRep_bin346_JKFDGFHC_00112;dRep_bin289_KALDCNNP_00733;dRep_bin198_GMLJKALI_00215	>dRep_bin034_MEBMFDLL_00253 Malonyl CoA-acyl carrier protein transacylase;>dRep_bin063_PJANDMAH_00191 Malonyl CoA-acyl carrier protein transacylase;>dRep_bin271_NGFBCHKH_00428 Malonyl CoA-acyl carrier protein transacylase;>dRep_bin346_JKFDGFHC_00112 Malony	dRep_bin275_NIDIBBDA_01168	CDS	fabD	2.3.1.39	Malonyl CoA-acyl carrier protein transacylase
NIDIBBDA_01180						25.25075		25.480099999999997				7	7	1,1633E-32	dRep_bin275_NIDIBBDA_01180	dRep_bin275_NIDIBBDA_01180	>dRep_bin275_NIDIBBDA_01180 putative zinc protease	dRep_bin275_NIDIBBDA_01180	CDS		3.4.24.-	putative zinc protease
NIDIBBDA_01208	27.25917	26.877480000000002	26.34758	26.536050000000003	26.12975	27.243539999999996		25.59443				4	2	2,0514E-53	dRep_bin034_MEBMFDLL_00698;dRep_bin063_PJANDMAH_00812;dRep_bin036_DOKCEIDH_00364;dRep_bin138_EJGHNBMI_00820;dRep_bin198_GMLJKALI_00084;dRep_bin298_EIPJCOMF_00448;dRep_bin113_LIFKCGBF_01435;dRep_bin314_KCHFPLIP_01654;dRep_bin330_CODAKHDJ_00291;dRep_bin275_NIDIBBDA_01208	dRep_bin034_MEBMFDLL_00698;dRep_bin063_PJANDMAH_00812;dRep_bin036_DOKCEIDH_00364;dRep_bin138_EJGHNBMI_00820;dRep_bin198_GMLJKALI_00084;dRep_bin298_EIPJCOMF_00448;dRep_bin113_LIFKCGBF_01435	>dRep_bin034_MEBMFDLL_00698 Purine nucleoside phosphorylase 1;>dRep_bin063_PJANDMAH_00812 Purine nucleoside phosphorylase 1;>dRep_bin036_DOKCEIDH_00364 Purine nucleoside phosphorylase 1;>dRep_bin138_EJGHNBMI_00820 Purine nucleoside phosphorylase 1;>dRep_bi	dRep_bin275_NIDIBBDA_01208	CDS	punA	2.4.2.1	Purine nucleoside phosphorylase 1
NIDIBBDA_01228		24.614310000000003	27.88885		28.70757	28.35132	28.171930000000003	28.87804				19	12	2,2441E-86	dRep_bin191_NGFJMLOL_00358;dRep_bin113_LIFKCGBF_00829;dRep_bin329_GDOHKPBL_01071;dRep_bin196_BIELHBNH_00577;dRep_bin170_LICLFCFF_00911;dRep_bin137_NABPABPB_01569;dRep_bin271_NGFBCHKH_00604;dRep_bin138_EJGHNBMI_00187;dRep_bin298_EIPJCOMF_00668;dRep_bin112_NDMGAKCH_01400;dRep_bin294_EHJINIDK_01508;dRep_bin289_KALDCNNP_01396;dRep_bin036_DOKCEIDH_01336;dRep_bin034_MEBMFDLL_00299;dRep_bin224_NFENHJGB_00174;dRep_bin198_GMLJKALI_01279;dRep_bin275_NIDIBBDA_01228;dRep_bin149_GABCHCDI_00916;dRep_bin064_CMDDCDKG_00631;dRep_bin063_PJANDMAH_01637;dRep_bin118_FGIOKLBC_01615;dRep_bin331_HPKAPHAF_01876;dRep_bin002_CFBNDKDN_00097;dRep_bin232_JGAEDAFA_00433;dRep_bin073_AKBCEHHO_00632	dRep_bin191_NGFJMLOL_00358;dRep_bin113_LIFKCGBF_00829	>dRep_bin191_NGFJMLOL_00358 Lysine--tRNA ligase;>dRep_bin113_LIFKCGBF_00829 Lysine--tRNA ligase	dRep_bin275_NIDIBBDA_01228	CDS	lysS	6.1.1.6	Lysine--tRNA ligase
NIDIBBDA_01236								23.883619999999997				1	1	3,928E-06	dRep_bin275_NIDIBBDA_01236	dRep_bin275_NIDIBBDA_01236	>dRep_bin275_NIDIBBDA_01236 Hydroxypyruvate reductase	dRep_bin275_NIDIBBDA_01236	CDS		1.1.1.81	Hydroxypyruvate reductase
NIDIBBDA_01237					23.851770000000002	26.326	23.814600000000002	26.96455				6	5	6,3503E-17	dRep_bin275_NIDIBBDA_01237	dRep_bin275_NIDIBBDA_01237	>dRep_bin275_NIDIBBDA_01237 Phosphoserine aminotransferase	dRep_bin275_NIDIBBDA_01237	CDS	serC	2.6.1.52	Phosphoserine aminotransferase
NIDIBBDA_01296					26.232499999999998	27.402509999999996	25.30152	24.62171				5	2	1,2269E-270	dRep_bin170_LICLFCFF_01998;dRep_bin113_LIFKCGBF_01389;dRep_bin112_NDMGAKCH_01560;dRep_bin329_GDOHKPBL_00400;dRep_bin070_EMBHKIOF_01282;dRep_bin275_NIDIBBDA_01296;dRep_bin183_FPGIOKBG_01237	dRep_bin170_LICLFCFF_01998;dRep_bin113_LIFKCGBF_01389;dRep_bin112_NDMGAKCH_01560;dRep_bin329_GDOHKPBL_00400	>dRep_bin170_LICLFCFF_01998 L-methionine gamma-lyase;>dRep_bin113_LIFKCGBF_01389 L-methionine gamma-lyase;>dRep_bin112_NDMGAKCH_01560 L-methionine gamma-lyase;>dRep_bin329_GDOHKPBL_00400 L-methionine gamma-lyase	dRep_bin275_NIDIBBDA_01296	CDS	mgl	4.4.1.11	L-methionine gamma-lyase
NIDIBBDA_01303					25.900119999999998	27.46987	26.849950000000003	26.325139999999998				4	0	3,2743E-28	dRep_bin307_AOCKHIKF_00160;dRep_bin098_DDEBHDKK_00652;dRep_bin183_FPGIOKBG_00590;dRep_bin128_JPBBHEMA_00391;dRep_bin137_NABPABPB_01015;dRep_bin198_GMLJKALI_00983;dRep_bin112_NDMGAKCH_00558;dRep_bin073_AKBCEHHO_00630;dRep_bin111_FPJIHFKE_01146;dRep_bin064_CMDDCDKG_00952;dRep_bin070_EMBHKIOF_00143;dRep_bin037_GEAOEKHA_00627;dRep_bin314_KCHFPLIP_01340;dRep_bin232_JGAEDAFA_00436;dRep_bin290_OIOJKBNK_01502;dRep_bin136_NAIECEIF_00125;dRep_bin018_ILOONPIC_00511;dRep_bin110_JGOEJECF_00059;dRep_bin092_OOJCPDEA_01586;dRep_bin271_NGFBCHKH_00234;dRep_bin224_NFENHJGB_01651;dRep_bin084_CGBIKHBH_01000;dRep_bin346_JKFDGFHC_00749;dRep_bin036_DOKCEIDH_01514;dRep_bin002_CFBNDKDN_00078;dRep_bin351_CKFFBPHM_00883;dRep_bin289_KALDCNNP_01019;dRep_bin298_EIPJCOMF_00289;dRep_bin229_FFOBPPJI_00563;dRep_bin275_NIDIBBDA_01303;dRep_bin210_AGEDAEIA_00620;dRep_bin104_EGLEJOLM_00781;dRep_bin257_JHFDCHCB_01689;dRep_bin097_CBBLIPAN_01153;dRep_bin337_FHKPNFDB_01364;dRep_bin335_JIOGNAPG_00046;dRep_bin282_PKAAPBFP_01042;dRep_bin234_ECABPBME_00099;dRep_bin135_HHKACLPM_00078;dRep_bin089_PAJFOJBN_00724;dRep_bin088_DNGPPFDK_00540;dRep_bin075_EPEMMOCL_00011;dRep_bin035_JBNPBOKG_00075;dRep_bin093_PGADNPMG_00660;dRep_bin169_PNICKJKO_01447;dRep_bin230_NINMBMKB_00368;dRep_bin294_EHJINIDK_00696;dRep_bin028_GKEJLBAM_00575;dRep_bin014_CHIHIMAN_01200;dRep_bin355_KJEFNADK_00480;dRep_bin063_PJANDMAH_00595;dRep_bin034_MEBMFDLL_01871;dRep_bin320_LDBKCCKL_00526;dRep_bin301_NJFJIJGA_01347;dRep_bin149_GABCHCDI_01402;dRep_bin310_IMBAFDIF_01474;dRep_bin242_LKAIBGGJ_00169;dRep_bin181_MKGPMPIA_00142;dRep_bin267_LJCFMAFA_00611;dRep_bin306_FGHMKMMP_00339;dRep_bin150_HCDEOBMH_01051;dRep_bin091_MAFACGAD_01386;dRep_bin040_EIFLLDOA_01982;dRep_bin005_CNDFPKJG_00382;dRep_bin333_EFOKIBLA_01313;dRep_bin317_ABPHNCOD_01616;dRep_bin081_JDPCKDNP_00758;dRep_bin138_EJGHNBMI_00536;dRep_bin162_JBGCCDIN_00612;dRep_bin272_LGBDGEIM_00307;dRep_bin168_HKDILBFE_01242;dRep_bin118_FGIOKLBC_01317	dRep_bin307_AOCKHIKF_00160;dRep_bin098_DDEBHDKK_00652;dRep_bin183_FPGIOKBG_00590;dRep_bin128_JPBBHEMA_00391;dRep_bin137_NABPABPB_01015;dRep_bin198_GMLJKALI_00983;dRep_bin112_NDMGAKCH_00558;dRep_bin073_AKBCEHHO_00630;dRep_bin111_FPJIHFKE_01146;dRep_bin064_CMDDCDKG_00952;dRep_bin070_EMBHKIOF_00143;dRep_bin037_GEAOEKHA_00627;dRep_bin314_KCHFPLIP_01340;dRep_bin232_JGAEDAFA_00436;dRep_bin290_OIOJKBNK_01502;dRep_bin136_NAIECEIF_00125;dRep_bin018_ILOONPIC_00511;dRep_bin110_JGOEJECF_00059;dRep_bin092_OOJCPDEA_01586;dRep_bin271_NGFBCHKH_00234;dRep_bin224_NFENHJGB_01651;dRep_bin084_CGBIKHBH_01000;dRep_bin346_JKFDGFHC_00749;dRep_bin036_DOKCEIDH_01514;dRep_bin002_CFBNDKDN_00078;dRep_bin351_CKFFBPHM_00883;dRep_bin289_KALDCNNP_01019;dRep_bin298_EIPJCOMF_00289;dRep_bin229_FFOBPPJI_00563;dRep_bin275_NIDIBBDA_01303;dRep_bin210_AGEDAEIA_00620;dRep_bin104_EGLEJOLM_00781;dRep_bin257_JHFDCHCB_01689;dRep_bin097_CBBLIPAN_01153;dRep_bin337_FHKPNFDB_01364;dRep_bin335_JIOGNAPG_00046;dRep_bin282_PKAAPBFP_01042;dRep_bin234_ECABPBME_00099;dRep_bin135_HHKACLPM_00078;dRep_bin089_PAJFOJBN_00724;dRep_bin088_DNGPPFDK_00540;dRep_bin075_EPEMMOCL_00011;dRep_bin035_JBNPBOKG_00075;dRep_bin093_PGADNPMG_00660	>dRep_bin307_AOCKHIKF_00160 NADPH-dependent 7-cyano-7-deazaguanine reductase;>dRep_bin098_DDEBHDKK_00652 NADPH-dependent 7-cyano-7-deazaguanine reductase;>dRep_bin183_FPGIOKBG_00590 NADPH-dependent 7-cyano-7-deazaguanine reductase;>dRep_bin128_JPBBHEMA_003	dRep_bin275_NIDIBBDA_01303	CDS	queF	1.7.1.13	NADPH-dependent 7-cyano-7-deazaguanine reductase
NIDIBBDA_01328					25.226229999999997	26.69312	25.311670000000003	25.455599999999997				2	2	7,8089E-07	dRep_bin191_NGFJMLOL_01951;dRep_bin183_FPGIOKBG_02235;dRep_bin329_GDOHKPBL_00967;dRep_bin070_EMBHKIOF_01126;dRep_bin037_GEAOEKHA_00001;dRep_bin285_IPHKFJAN_00651;dRep_bin275_NIDIBBDA_01328;dRep_bin271_NGFBCHKH_00183;dRep_bin138_EJGHNBMI_01453;dRep_bin045_GJACFFBC_01915;dRep_bin036_DOKCEIDH_00607;dRep_bin346_JKFDGFHC_00407;dRep_bin113_LIFKCGBF_00770;dRep_bin112_NDMGAKCH_00687;dRep_bin064_CMDDCDKG_00963;dRep_bin296_FDMPKPOH_01345;dRep_bin165_HMDFFMMM_00181	dRep_bin191_NGFJMLOL_01951;dRep_bin183_FPGIOKBG_02235;dRep_bin329_GDOHKPBL_00967;dRep_bin070_EMBHKIOF_01126;dRep_bin037_GEAOEKHA_00001;dRep_bin285_IPHKFJAN_00651;dRep_bin275_NIDIBBDA_01328;dRep_bin271_NGFBCHKH_00183;dRep_bin138_EJGHNBMI_01453;dRep_bin045_GJACFFBC_01915;dRep_bin036_DOKCEIDH_00607;dRep_bin346_JKFDGFHC_00407;dRep_bin113_LIFKCGBF_00770;dRep_bin112_NDMGAKCH_00687;dRep_bin064_CMDDCDKG_00963;dRep_bin296_FDMPKPOH_01345;dRep_bin165_HMDFFMMM_00181	>dRep_bin191_NGFJMLOL_01951 Aspartate 1-decarboxylase;>dRep_bin183_FPGIOKBG_02235 Aspartate 1-decarboxylase;>dRep_bin329_GDOHKPBL_00967 Aspartate 1-decarboxylase;>dRep_bin070_EMBHKIOF_01126 Aspartate 1-decarboxylase;>dRep_bin037_GEAOEKHA_00001 Aspartate 1-	dRep_bin275_NIDIBBDA_01328	CDS	panD	4.1.1.11	Aspartate 1-decarboxylase
NIDIBBDA_01330					26.097860000000004	26.81531	25.77651	26.07731				7	2	1,7304E-42	dRep_bin034_MEBMFDLL_00454;dRep_bin045_GJACFFBC_00091;dRep_bin346_JKFDGFHC_00532;dRep_bin329_GDOHKPBL_00125;dRep_bin298_EIPJCOMF_00459;dRep_bin110_JGOEJECF_00445;dRep_bin118_FGIOKLBC_01426;dRep_bin210_AGEDAEIA_00608;dRep_bin040_EIFLLDOA_00388;dRep_bin022_BOEAFNDE_00953;dRep_bin301_NJFJIJGA_01868;dRep_bin275_NIDIBBDA_01330;dRep_bin028_GKEJLBAM_01454	dRep_bin034_MEBMFDLL_00454;dRep_bin045_GJACFFBC_00091	>dRep_bin034_MEBMFDLL_00454 Glutamine--tRNA ligase;>dRep_bin045_GJACFFBC_00091 Glutamine--tRNA ligase	dRep_bin275_NIDIBBDA_01330	CDS	glnS	6.1.1.18	Glutamine--tRNA ligase
NIDIBBDA_01350	28.72611	29.289599999999997	29.5258	28.677410000000002	28.746439999999996	28.10174	28.90693	28.88591				20	16	8,3592E-185	dRep_bin158_OGFICEAP_01428;dRep_bin254_GJDPFAEA_00108;dRep_bin326_CEEAIPKF_00144;dRep_bin122_JHMJFODI_00778;dRep_bin207_OHNPDPFI_00238;dRep_bin276_EHNFLEBP_00969;dRep_bin180_JMFOHHIL_00772;dRep_bin329_GDOHKPBL_01560;dRep_bin076_GLAOFBEC_02388;dRep_bin035_JBNPBOKG_01458;dRep_bin012_KEBBILMO_01041;dRep_bin070_EMBHKIOF_01360;dRep_bin229_FFOBPPJI_00960;dRep_bin210_AGEDAEIA_01389;dRep_bin354_MMOALAFN_00639;dRep_bin345_GLPJDLOI_00473;dRep_bin123_PJKBFKBB_01063;dRep_bin111_FPJIHFKE_00154;dRep_bin045_GJACFFBC_01941;dRep_bin040_EIFLLDOA_00889;dRep_bin333_EFOKIBLA_01013;dRep_bin131_HLFNHDGI_01012;dRep_bin022_BOEAFNDE_01446;dRep_bin301_NJFJIJGA_00142;dRep_bin275_NIDIBBDA_01350;dRep_bin149_GABCHCDI_01079;dRep_bin138_EJGHNBMI_00344;dRep_bin049_MNFBDPNO_00104;dRep_bin032_PPNIGLME_00241;dRep_bin343_JCMCKBGF_01571;dRep_bin118_FGIOKLBC_01793;dRep_bin093_PGADNPMG_00211;dRep_bin085_MBHLGCDB_01455;dRep_bin018_ILOONPIC_01183;dRep_bin323_FBBLPLCG_01525;dRep_bin265_LFKFBJPC_01879;dRep_bin121_BHOOLFKN_01093;dRep_bin122_JHMJFODI_01227	dRep_bin158_OGFICEAP_01428	>dRep_bin158_OGFICEAP_01428 Acetate kinase	dRep_bin275_NIDIBBDA_01350	CDS	ackA	2.7.2.1	Acetate kinase
NIDIBBDA_01396					22.01414	23.004450000000002		22.976960000000002				3	3	1,0164E-08	dRep_bin275_NIDIBBDA_01396	dRep_bin275_NIDIBBDA_01396	>dRep_bin275_NIDIBBDA_01396 Cytosol non-specific dipeptidase	dRep_bin275_NIDIBBDA_01396	CDS	pepD_2	3.4.13.18	Cytosol non-specific dipeptidase
NIDIBBDA_01413					24.95207	26.15871	24.805139999999998	24.792129999999997				9	2	7,9169E-38	dRep_bin285_IPHKFJAN_00266;dRep_bin294_EHJINIDK_01658;dRep_bin045_GJACFFBC_00460;dRep_bin111_FPJIHFKE_00791;dRep_bin275_NIDIBBDA_01413;dRep_bin345_GLPJDLOI_00616	dRep_bin285_IPHKFJAN_00266;dRep_bin294_EHJINIDK_01658;dRep_bin045_GJACFFBC_00460	>dRep_bin285_IPHKFJAN_00266 Methionine--tRNA ligase;>dRep_bin294_EHJINIDK_01658 Methionine--tRNA ligase;>dRep_bin045_GJACFFBC_00460 Methionine--tRNA ligase	dRep_bin275_NIDIBBDA_01413	CDS	metG	6.1.1.10	Methionine--tRNA ligase
NIDIBBDA_01419				24.68683								5	1	5,1157E-12	dRep_bin275_NIDIBBDA_01419	dRep_bin275_NIDIBBDA_01419	>dRep_bin275_NIDIBBDA_01419 Phosphoribosylaminoimidazole-succinocarboxamide synthase	dRep_bin275_NIDIBBDA_01419	CDS	purC	6.3.2.6	Phosphoribosylaminoimidazole-succinocarboxamide synthase
NIDIBBDA_01445					25.05743							6	0	2,9791E-48	dRep_bin191_NGFJMLOL_01698;dRep_bin073_AKBCEHHO_00698;dRep_bin138_EJGHNBMI_00387;dRep_bin040_EIFLLDOA_01536;dRep_bin275_NIDIBBDA_01445	dRep_bin191_NGFJMLOL_01698	>dRep_bin191_NGFJMLOL_01698 GTP-binding protein TypA/BipA	dRep_bin275_NIDIBBDA_01445	CDS	typA		GTP-binding protein TypA/BipA
NIDIBBDA_01465	26.50867	26.004060000000003	26.770519999999998	26.88646	27.19714	27.88646	27.862129999999997	27.33833				7	1	4,6614E-23	dRep_bin191_NGFJMLOL_00953;dRep_bin198_GMLJKALI_01453;dRep_bin301_NJFJIJGA_02017;dRep_bin289_KALDCNNP_00242;dRep_bin034_MEBMFDLL_01247;dRep_bin064_CMDDCDKG_00712;dRep_bin275_NIDIBBDA_01465;dRep_bin045_GJACFFBC_01835;dRep_bin170_LICLFCFF_00788	dRep_bin191_NGFJMLOL_00953	>dRep_bin191_NGFJMLOL_00953 Phosphomannomutase/phosphoglucomutase	dRep_bin275_NIDIBBDA_01465	CDS	algC	5.4.2.2	Phosphomannomutase/phosphoglucomutase
NIDIBBDA_01478						23.19969						4	0	2,4012E-12	dRep_bin112_NDMGAKCH_00731;dRep_bin289_KALDCNNP_00011;dRep_bin113_LIFKCGBF_00608;dRep_bin137_NABPABPB_00033;dRep_bin002_CFBNDKDN_00319;dRep_bin329_GDOHKPBL_01539;dRep_bin063_PJANDMAH_01116;dRep_bin136_NAIECEIF_00598;dRep_bin071_JHMCIJPE_00513;dRep_bin275_NIDIBBDA_01478;dRep_bin283_NLJJFFAC_00658;dRep_bin316_FNLHDNEO_00538;dRep_bin016_JLGAHGOJ_01021;dRep_bin093_PGADNPMG_00614;dRep_bin128_JPBBHEMA_01235;dRep_bin196_BIELHBNH_00516;dRep_bin018_ILOONPIC_00864;dRep_bin298_EIPJCOMF_01408;dRep_bin290_OIOJKBNK_00725;dRep_bin256_KEMNAOBC_00377;dRep_bin345_GLPJDLOI_01426;dRep_bin089_PAJFOJBN_01916;dRep_bin027_OFJCHLJJ_01931;dRep_bin328_GIGKNKPJ_01061;dRep_bin091_MAFACGAD_00821;dRep_bin352_KFNHGNFC_00965;dRep_bin096_GNHMEKPF_00111;dRep_bin065_DFABHCBI_02359;dRep_bin048_PABMBHAL_00218;dRep_bin240_LDBBGJKG_00200;dRep_bin094_LBLICAAO_01774;dRep_bin186_HJAAFFNP_01716;dRep_bin160_EFKMPBOM_00295;dRep_bin344_CJJBDGAA_01885;dRep_bin081_JDPCKDNP_02127;dRep_bin062_BOFBFLDA_01458;dRep_bin279_IAEFEPEN_00039;dRep_bin088_DNGPPFDK_00119;dRep_bin335_JIOGNAPG_01546;dRep_bin287_DONBGKDH_00294;dRep_bin150_HCDEOBMH_01332;dRep_bin310_IMBAFDIF_00761;dRep_bin300_MJPPENNL_00654;dRep_bin041_OPKGAAAG_01259;dRep_bin024_OLHDGABE_00962;dRep_bin322_OJELOJOF_01437;dRep_bin017_FGFLFOPJ_00437;dRep_bin158_OGFICEAP_00004;dRep_bin303_DDDNDJCF_01152;dRep_bin310_IMBAFDIF_00173;dRep_bin248_CCDFPECI_00143;dRep_bin131_HLFNHDGI_00101;dRep_bin301_NJFJIJGA_00544;dRep_bin167_BLMEBMNN_01000;dRep_bin134_HIAPAODO_00464;dRep_bin260_HELEPKJL_00441;dRep_bin220_PILICLLL_00077;dRep_bin007_LNLEAAAN_01436;dRep_bin127_FIPNHBCH_00505;dRep_bin014_CHIHIMAN_00797	dRep_bin112_NDMGAKCH_00731;dRep_bin289_KALDCNNP_00011;dRep_bin113_LIFKCGBF_00608;dRep_bin137_NABPABPB_00033;dRep_bin002_CFBNDKDN_00319;dRep_bin329_GDOHKPBL_01539;dRep_bin063_PJANDMAH_01116;dRep_bin136_NAIECEIF_00598;dRep_bin071_JHMCIJPE_00513;dRep_bin275_NIDIBBDA_01478;dRep_bin283_NLJJFFAC_00658;dRep_bin316_FNLHDNEO_00538;dRep_bin016_JLGAHGOJ_01021;dRep_bin093_PGADNPMG_00614;dRep_bin128_JPBBHEMA_01235;dRep_bin196_BIELHBNH_00516;dRep_bin018_ILOONPIC_00864;dRep_bin298_EIPJCOMF_01408;dRep_bin290_OIOJKBNK_00725;dRep_bin256_KEMNAOBC_00377;dRep_bin345_GLPJDLOI_01426	>dRep_bin112_NDMGAKCH_00731 Translation initiation factor IF-2;>dRep_bin289_KALDCNNP_00011 Translation initiation factor IF-2;>dRep_bin113_LIFKCGBF_00608 Translation initiation factor IF-2;>dRep_bin137_NABPABPB_00033 Translation initiation factor IF-2;>dRe	dRep_bin275_NIDIBBDA_01478	CDS	infB		Translation initiation factor IF-2
NIDIBBDA_01482						23.996709999999997						2	2	0,00021994	dRep_bin275_NIDIBBDA_01482;dRep_bin275_NIDIBBDA_01483	dRep_bin275_NIDIBBDA_01482;dRep_bin275_NIDIBBDA_01483	>dRep_bin275_NIDIBBDA_01482 hypothetical protein;>dRep_bin275_NIDIBBDA_01483 hypothetical protein	dRep_bin275_NIDIBBDA_01482	CDS			hypothetical protein
NIDIBBDA_01490					23.494729999999997	24.14055		25.76177				3	3	5,5008E-10	dRep_bin275_NIDIBBDA_01490	dRep_bin275_NIDIBBDA_01490	>dRep_bin275_NIDIBBDA_01490 Carboxypeptidase regulatory-like domain protein	dRep_bin275_NIDIBBDA_01490	CDS			Carboxypeptidase regulatory-like domain protein
NIDIBBDA_01500			22.88437									1	1	2,4696E-05	dRep_bin331_HPKAPHAF_00086;dRep_bin314_KCHFPLIP_00958;dRep_bin070_EMBHKIOF_00448;dRep_bin275_NIDIBBDA_01500;dRep_bin149_GABCHCDI_01078	dRep_bin331_HPKAPHAF_00086;dRep_bin314_KCHFPLIP_00958;dRep_bin070_EMBHKIOF_00448;dRep_bin275_NIDIBBDA_01500;dRep_bin149_GABCHCDI_01078	>dRep_bin331_HPKAPHAF_00086 50S ribosomal protein L13;>dRep_bin314_KCHFPLIP_00958 50S ribosomal protein L13;>dRep_bin070_EMBHKIOF_00448 50S ribosomal protein L13;>dRep_bin275_NIDIBBDA_01500 50S ribosomal protein L13;>dRep_bin149_GABCHCDI_01078 50S ribosoma	dRep_bin275_NIDIBBDA_01500	CDS	rplM		50S ribosomal protein L13
NIDIBBDA_01502	27.03612		27.08335		27.92128	28.50684	26.835810000000002	27.86667				4	3	3,6073E-16	dRep_bin137_NABPABPB_00600;dRep_bin112_NDMGAKCH_01343;dRep_bin285_IPHKFJAN_01350;dRep_bin294_EHJINIDK_00848;dRep_bin002_CFBNDKDN_00366;dRep_bin229_FFOBPPJI_00505;dRep_bin314_KCHFPLIP_00960;dRep_bin196_BIELHBNH_00748;dRep_bin149_GABCHCDI_01076;dRep_bin084_CGBIKHBH_01143;dRep_bin232_JGAEDAFA_01057;dRep_bin111_FPJIHFKE_00361;dRep_bin118_FGIOKLBC_00159;dRep_bin301_NJFJIJGA_00146;dRep_bin296_FDMPKPOH_00698;dRep_bin198_GMLJKALI_00381;dRep_bin093_PGADNPMG_01219;dRep_bin131_HLFNHDGI_00129;dRep_bin165_HMDFFMMM_00670;dRep_bin138_EJGHNBMI_00753;dRep_bin035_JBNPBOKG_01000;dRep_bin307_AOCKHIKF_01322;dRep_bin098_DDEBHDKK_00252;dRep_bin064_CMDDCDKG_00072;dRep_bin210_AGEDAEIA_01699;dRep_bin028_GKEJLBAM_01652;dRep_bin040_EIFLLDOA_00629;dRep_bin045_GJACFFBC_00472;dRep_bin022_BOEAFNDE_00176;dRep_bin275_NIDIBBDA_01502;dRep_bin183_FPGIOKBG_01873	dRep_bin137_NABPABPB_00600;dRep_bin112_NDMGAKCH_01343;dRep_bin285_IPHKFJAN_01350;dRep_bin294_EHJINIDK_00848;dRep_bin002_CFBNDKDN_00366;dRep_bin229_FFOBPPJI_00505;dRep_bin314_KCHFPLIP_00960;dRep_bin196_BIELHBNH_00748	>dRep_bin137_NABPABPB_00600 30S ribosomal protein S2;>dRep_bin112_NDMGAKCH_01343 30S ribosomal protein S2;>dRep_bin285_IPHKFJAN_01350 30S ribosomal protein S2;>dRep_bin294_EHJINIDK_00848 30S ribosomal protein S2;>dRep_bin002_CFBNDKDN_00366 30S ribosomal pr	dRep_bin275_NIDIBBDA_01502	CDS	rpsB		30S ribosomal protein S2
NIDIBBDA_01505						21.833990000000004						6	1	6,6359E-21	dRep_bin275_NIDIBBDA_01505	dRep_bin275_NIDIBBDA_01505	>dRep_bin275_NIDIBBDA_01505 Myo-inositol-1-phosphate synthase	dRep_bin275_NIDIBBDA_01505	CDS			Myo-inositol-1-phosphate synthase
NIDIBBDA_01542					24.604160000000004	26.07936	24.68635	25.928359999999998				5	5	1,7183E-13	dRep_bin191_NGFJMLOL_01112;dRep_bin112_NDMGAKCH_00659;dRep_bin170_LICLFCFF_00593;dRep_bin137_NABPABPB_00710;dRep_bin113_LIFKCGBF_00660;dRep_bin084_CGBIKHBH_01151;dRep_bin138_EJGHNBMI_01114;dRep_bin224_NFENHJGB_00372;dRep_bin289_KALDCNNP_00187;dRep_bin063_PJANDMAH_00387;dRep_bin036_DOKCEIDH_01537;dRep_bin002_CFBNDKDN_01934;dRep_bin285_IPHKFJAN_01401;dRep_bin034_MEBMFDLL_00310;dRep_bin271_NGFBCHKH_00933;dRep_bin110_JGOEJECF_00456;dRep_bin301_NJFJIJGA_01039;dRep_bin275_NIDIBBDA_01542;dRep_bin149_GABCHCDI_01137;dRep_bin165_HMDFFMMM_01354;dRep_bin040_EIFLLDOA_00227;dRep_bin118_FGIOKLBC_00339;dRep_bin093_PGADNPMG_01233;dRep_bin196_BIELHBNH_01098;dRep_bin296_FDMPKPOH_01862;dRep_bin298_EIPJCOMF_01495;dRep_bin346_JKFDGFHC_00784;dRep_bin329_GDOHKPBL_00990;dRep_bin198_GMLJKALI_01301;dRep_bin314_KCHFPLIP_00150;dRep_bin183_FPGIOKBG_01741;dRep_bin331_HPKAPHAF_00653	dRep_bin191_NGFJMLOL_01112;dRep_bin112_NDMGAKCH_00659;dRep_bin170_LICLFCFF_00593	>dRep_bin191_NGFJMLOL_01112 Aspartate carbamoyltransferase catalytic subunit;>dRep_bin112_NDMGAKCH_00659 Aspartate carbamoyltransferase catalytic subunit;>dRep_bin170_LICLFCFF_00593 Aspartate carbamoyltransferase catalytic subunit	dRep_bin275_NIDIBBDA_01542	CDS	pyrB	2.1.3.2	Aspartate carbamoyltransferase
NIDIBBDA_01579					23.806860000000004	26.12313	23.68368	23.973950000000002				3	3	5,8081E-18	dRep_bin191_NGFJMLOL_01771;dRep_bin098_DDEBHDKK_00677;dRep_bin093_PGADNPMG_00651;dRep_bin131_HLFNHDGI_00094;dRep_bin314_KCHFPLIP_01516;dRep_bin307_AOCKHIKF_00686;dRep_bin301_NJFJIJGA_01803;dRep_bin210_AGEDAEIA_00852;dRep_bin165_HMDFFMMM_00740;dRep_bin084_CGBIKHBH_00717;dRep_bin040_EIFLLDOA_00725;dRep_bin022_BOEAFNDE_01413;dRep_bin149_GABCHCDI_00860;dRep_bin296_FDMPKPOH_00239;dRep_bin275_NIDIBBDA_01579;dRep_bin070_EMBHKIOF_00909;dRep_bin028_GKEJLBAM_01401;dRep_bin037_GEAOEKHA_00039;dRep_bin198_GMLJKALI_00522;dRep_bin064_CMDDCDKG_00367;dRep_bin329_GDOHKPBL_01436;dRep_bin298_EIPJCOMF_00534;dRep_bin271_NGFBCHKH_00476;dRep_bin063_PJANDMAH_01150;dRep_bin034_MEBMFDLL_02063;dRep_bin289_KALDCNNP_00290;dRep_bin224_NFENHJGB_01682;dRep_bin170_LICLFCFF_00703;dRep_bin137_NABPABPB_01253;dRep_bin113_LIFKCGBF_00300;dRep_bin112_NDMGAKCH_00365;dRep_bin196_BIELHBNH_00991;dRep_bin346_JKFDGFHC_00217;dRep_bin036_DOKCEIDH_00774;dRep_bin045_GJACFFBC_00639;dRep_bin002_CFBNDKDN_00144;dRep_bin138_EJGHNBMI_00383;dRep_bin183_FPGIOKBG_02177;dRep_bin294_EHJINIDK_01108	dRep_bin191_NGFJMLOL_01771	>dRep_bin191_NGFJMLOL_01771 S-adenosylmethionine:tRNA ribosyltransferase-isomerase	dRep_bin275_NIDIBBDA_01579	CDS	queA_2	2.4.99.17	S-adenosylmethionine:tRNA ribosyltransferase-isomerase
NIDIBBDA_01656					25.293619999999997	25.00299		25.67271				4	4	1,2227E-06	dRep_bin275_NIDIBBDA_01656	dRep_bin275_NIDIBBDA_01656	>dRep_bin275_NIDIBBDA_01656 Outer membrane protein 40	dRep_bin275_NIDIBBDA_01656	CDS			Outer membrane protein 40
NIDIBBDA_01660	24.62204	27.0502	24.411450000000002	24.13579								9	4	1,748E-53	dRep_bin329_GDOHKPBL_01232;dRep_bin131_HLFNHDGI_00754;dRep_bin331_HPKAPHAF_00629;dRep_bin229_FFOBPPJI_01139;dRep_bin118_FGIOKLBC_00295;dRep_bin314_KCHFPLIP_01144;dRep_bin301_NJFJIJGA_01193;dRep_bin149_GABCHCDI_00521;dRep_bin070_EMBHKIOF_00666;dRep_bin022_BOEAFNDE_01194;dRep_bin210_AGEDAEIA_00398;dRep_bin275_NIDIBBDA_01660;dRep_bin128_JPBBHEMA_00659;dRep_bin018_ILOONPIC_01318;dRep_bin136_NAIECEIF_00973;dRep_bin290_OIOJKBNK_00409;dRep_bin316_FNLHDNEO_01155;dRep_bin071_JHMCIJPE_01263;dRep_bin256_KEMNAOBC_00999;dRep_bin110_JGOEJECF_01178;dRep_bin345_GLPJDLOI_00146;dRep_bin351_CKFFBPHM_01156	dRep_bin329_GDOHKPBL_01232	>dRep_bin329_GDOHKPBL_01232 hypothetical protein	dRep_bin275_NIDIBBDA_01660	CDS			hypothetical protein
NIDIBBDA_01694						24.637930000000004		23.308				1	1	2,2198E-08	dRep_bin232_JGAEDAFA_00172;dRep_bin111_FPJIHFKE_00023;dRep_bin110_JGOEJECF_00828;dRep_bin035_JBNPBOKG_00349;dRep_bin275_NIDIBBDA_01694	dRep_bin232_JGAEDAFA_00172;dRep_bin111_FPJIHFKE_00023;dRep_bin110_JGOEJECF_00828;dRep_bin035_JBNPBOKG_00349;dRep_bin275_NIDIBBDA_01694	>dRep_bin232_JGAEDAFA_00172 Na(+)-translocating NADH-quinone reductase subunit F;>dRep_bin111_FPJIHFKE_00023 Na(+)-translocating NADH-quinone reductase subunit F;>dRep_bin110_JGOEJECF_00828 Na(+)-translocating NADH-quinone reductase subunit F;>dRep_bin035_	dRep_bin275_NIDIBBDA_01694	CDS	nqrF	1.6.5.8	Na(+)-translocating NADH-quinone reductase subunit F
NIDIBBDA_01704					24.37577	28.19803		25.287679999999998				8	1	2,382E-44	dRep_bin045_GJACFFBC_00862;dRep_bin275_NIDIBBDA_01704	dRep_bin045_GJACFFBC_00862;dRep_bin275_NIDIBBDA_01704	>dRep_bin045_GJACFFBC_00862 Glyceraldehyde-3-phosphate dehydrogenase;>dRep_bin275_NIDIBBDA_01704 Glyceraldehyde-3-phosphate dehydrogenase	dRep_bin275_NIDIBBDA_01704	CDS	gap	1.2.1.12	Glyceraldehyde-3-phosphate dehydrogenase
NIDIBBDA_01754	29.749699999999997	28.765659999999997	28.925839999999997	28.399870000000004	29.290639999999996	28.902079999999998	29.90282	30.13614				8	4	0	dRep_bin131_HLFNHDGI_01494;dRep_bin275_NIDIBBDA_01754;dRep_bin188_EJILNMPE_00077	dRep_bin131_HLFNHDGI_01494	>dRep_bin131_HLFNHDGI_01494 hypothetical protein	dRep_bin275_NIDIBBDA_01754	CDS			hypothetical protein
NIDIBBDA_01792	29.00051	28.14472	28.103800000000003	28.875519999999998	28.852639999999997	29.086539999999996	28.33641	28.728939999999998				25	6	0	dRep_bin165_HMDFFMMM_01423;dRep_bin275_NIDIBBDA_01792	dRep_bin165_HMDFFMMM_01423	>dRep_bin165_HMDFFMMM_01423 Pyruvate synthase	dRep_bin275_NIDIBBDA_01792	CDS	por	1.2.7.1	Pyruvate synthase
NIDIBBDA_01820						25.40445	23.94887	24.39826				3	2	6,4934E-08	dRep_bin198_GMLJKALI_00616;dRep_bin275_NIDIBBDA_01820	dRep_bin198_GMLJKALI_00616;dRep_bin275_NIDIBBDA_01820	>dRep_bin198_GMLJKALI_00616 Isocitrate dehydrogenase [NADP];>dRep_bin275_NIDIBBDA_01820 Isocitrate dehydrogenase [NADP]	dRep_bin275_NIDIBBDA_01820	CDS	icd	1.1.1.42	Isocitrate dehydrogenase [NADP]
NIDIBBDA_01822					26.138250000000003		26.50118	25.82379				3	1	3,9211E-13	dRep_bin196_BIELHBNH_00173;dRep_bin191_NGFJMLOL_00016;dRep_bin113_LIFKCGBF_00426;dRep_bin183_FPGIOKBG_01964;dRep_bin045_GJACFFBC_01161;dRep_bin036_DOKCEIDH_00128;dRep_bin138_EJGHNBMI_00869;dRep_bin289_KALDCNNP_00768;dRep_bin137_NABPABPB_00386;dRep_bin301_NJFJIJGA_00903;dRep_bin307_AOCKHIKF_01369;dRep_bin232_JGAEDAFA_01196;dRep_bin198_GMLJKALI_00654;dRep_bin112_NDMGAKCH_00435;dRep_bin098_DDEBHDKK_01101;dRep_bin073_AKBCEHHO_00727;dRep_bin063_PJANDMAH_00085;dRep_bin034_MEBMFDLL_00429;dRep_bin064_CMDDCDKG_00924;dRep_bin296_FDMPKPOH_02041;dRep_bin070_EMBHKIOF_00446;dRep_bin294_EHJINIDK_00220;dRep_bin170_LICLFCFF_00114;dRep_bin002_CFBNDKDN_00923;dRep_bin331_HPKAPHAF_00956;dRep_bin298_EIPJCOMF_00504;dRep_bin275_NIDIBBDA_01822;dRep_bin229_FFOBPPJI_01199;dRep_bin224_NFENHJGB_00678;dRep_bin131_HLFNHDGI_00746;dRep_bin118_FGIOKLBC_01299;dRep_bin314_KCHFPLIP_00579;dRep_bin040_EIFLLDOA_01380	dRep_bin196_BIELHBNH_00173;dRep_bin191_NGFJMLOL_00016;dRep_bin113_LIFKCGBF_00426;dRep_bin183_FPGIOKBG_01964;dRep_bin045_GJACFFBC_01161;dRep_bin036_DOKCEIDH_00128;dRep_bin138_EJGHNBMI_00869;dRep_bin289_KALDCNNP_00768;dRep_bin137_NABPABPB_00386;dRep_bin301_NJFJIJGA_00903;dRep_bin307_AOCKHIKF_01369;dRep_bin232_JGAEDAFA_01196;dRep_bin198_GMLJKALI_00654;dRep_bin112_NDMGAKCH_00435;dRep_bin098_DDEBHDKK_01101;dRep_bin073_AKBCEHHO_00727;dRep_bin063_PJANDMAH_00085;dRep_bin034_MEBMFDLL_00429;dRep_bin064_CMDDCDKG_00924;dRep_bin296_FDMPKPOH_02041	>dRep_bin196_BIELHBNH_00173 Phosphoribosylformylglycinamidine cyclo-ligase;>dRep_bin191_NGFJMLOL_00016 Phosphoribosylformylglycinamidine cyclo-ligase;>dRep_bin113_LIFKCGBF_00426 Phosphoribosylformylglycinamidine cyclo-ligase;>dRep_bin183_FPGIOKBG_01964 Pho	dRep_bin275_NIDIBBDA_01822	CDS	purM	6.3.3.1	Phosphoribosylformylglycinamidine cyclo-ligase
NIDIBBDA_01827					26.505789999999998	27.152870000000004	26.645539999999997	26.35266				3	2	9,6681E-13	dRep_bin170_LICLFCFF_01206;dRep_bin198_GMLJKALI_01082;dRep_bin137_NABPABPB_00526;dRep_bin064_CMDDCDKG_00575;dRep_bin329_GDOHKPBL_01569;dRep_bin063_PJANDMAH_00877;dRep_bin034_MEBMFDLL_00417;dRep_bin020_JCCELPIE_01345;dRep_bin224_NFENHJGB_00780;dRep_bin290_OIOJKBNK_01101;dRep_bin256_KEMNAOBC_00921;dRep_bin110_JGOEJECF_00051;dRep_bin071_JHMCIJPE_00142;dRep_bin331_HPKAPHAF_01066;dRep_bin301_NJFJIJGA_02025;dRep_bin275_NIDIBBDA_01827;dRep_bin229_FFOBPPJI_00669;dRep_bin210_AGEDAEIA_00501;dRep_bin093_PGADNPMG_01225;dRep_bin040_EIFLLDOA_00178;dRep_bin022_BOEAFNDE_01075;dRep_bin346_JKFDGFHC_00277;dRep_bin298_EIPJCOMF_00030;dRep_bin294_EHJINIDK_01694;dRep_bin289_KALDCNNP_01781;dRep_bin285_IPHKFJAN_00717;dRep_bin271_NGFBCHKH_00532;dRep_bin196_BIELHBNH_00507;dRep_bin183_FPGIOKBG_00975;dRep_bin149_GABCHCDI_01048;dRep_bin138_EJGHNBMI_01361;dRep_bin112_NDMGAKCH_01493;dRep_bin070_EMBHKIOF_00378;dRep_bin045_GJACFFBC_01787;dRep_bin037_GEAOEKHA_00609;dRep_bin316_FNLHDNEO_00534;dRep_bin341_NBEGOKEF_00847;dRep_bin296_FDMPKPOH_02061;dRep_bin241_LMMMGDNI_01154;dRep_bin002_CFBNDKDN_01978;dRep_bin343_JCMCKBGF_01979;dRep_bin008_MNDMJLEI_00764;dRep_bin217_MJCEAEPB_01322;dRep_bin131_HLFNHDGI_00045;dRep_bin036_DOKCEIDH_01834;dRep_bin195_DDMDFNOK_01232	dRep_bin170_LICLFCFF_01206;dRep_bin198_GMLJKALI_01082;dRep_bin137_NABPABPB_00526;dRep_bin064_CMDDCDKG_00575;dRep_bin329_GDOHKPBL_01569;dRep_bin063_PJANDMAH_00877;dRep_bin034_MEBMFDLL_00417	>dRep_bin170_LICLFCFF_01206 Adenylosuccinate lyase;>dRep_bin198_GMLJKALI_01082 Adenylosuccinate lyase;>dRep_bin137_NABPABPB_00526 Adenylosuccinate lyase;>dRep_bin064_CMDDCDKG_00575 Adenylosuccinate lyase;>dRep_bin329_GDOHKPBL_01569 Adenylosuccinate lyase;>	dRep_bin275_NIDIBBDA_01827	CDS	purB	4.3.2.2	Adenylosuccinate lyase
NIDIBBDA_01840						21.133580000000002						4	1	2,0533E-13	dRep_bin064_CMDDCDKG_00303;dRep_bin198_GMLJKALI_00990;dRep_bin112_NDMGAKCH_00125;dRep_bin275_NIDIBBDA_01840;dRep_bin037_GEAOEKHA_00262;dRep_bin210_AGEDAEIA_00793;dRep_bin229_FFOBPPJI_01208;dRep_bin149_GABCHCDI_00843;dRep_bin118_FGIOKLBC_00691;dRep_bin093_PGADNPMG_00184;dRep_bin040_EIFLLDOA_01790;dRep_bin022_BOEAFNDE_00318;dRep_bin314_KCHFPLIP_01749;dRep_bin070_EMBHKIOF_00653	dRep_bin064_CMDDCDKG_00303;dRep_bin198_GMLJKALI_00990;dRep_bin112_NDMGAKCH_00125	>dRep_bin064_CMDDCDKG_00303 Peptidase T;>dRep_bin198_GMLJKALI_00990 Peptidase T;>dRep_bin112_NDMGAKCH_00125 Peptidase T	dRep_bin275_NIDIBBDA_01840	CDS	pepT	3.4.11.4	Peptidase T
NIDIBBDA_01857	26.68325	27.44285	26.219150000000003	26.73518	26.615970000000004	26.76711						7	5	3,8489E-41	dRep_bin063_PJANDMAH_01240;dRep_bin034_MEBMFDLL_02102;dRep_bin275_NIDIBBDA_01857;dRep_bin298_EIPJCOMF_00666;dRep_bin183_FPGIOKBG_02116;dRep_bin271_NGFBCHKH_01395;dRep_bin346_JKFDGFHC_00412;dRep_bin198_GMLJKALI_01728;dRep_bin036_DOKCEIDH_00469;dRep_bin118_FGIOKLBC_00788;dRep_bin028_GKEJLBAM_00772	dRep_bin063_PJANDMAH_01240;dRep_bin034_MEBMFDLL_02102	>dRep_bin063_PJANDMAH_01240 Glucokinase;>dRep_bin034_MEBMFDLL_02102 Glucokinase	dRep_bin275_NIDIBBDA_01857	CDS	glcK	2.7.1.2	Glucokinase
NIDIBBDA_01873		24.57519	24.613410000000002									4	4	1,17E-09	dRep_bin329_GDOHKPBL_01497;dRep_bin275_NIDIBBDA_01873	dRep_bin329_GDOHKPBL_01497	>dRep_bin329_GDOHKPBL_01497 Beta-glucosidase BoGH3B	dRep_bin275_NIDIBBDA_01873	CDS		3.2.1.21	Beta-glucosidase BoGH3B
NIDIBBDA_01879								23.44607				1	1	0,00019695	dRep_bin275_NIDIBBDA_01879	dRep_bin275_NIDIBBDA_01879	>dRep_bin275_NIDIBBDA_01879 5-nucleotidase SurE	dRep_bin275_NIDIBBDA_01879	CDS	surE	3.1.3.5	5'-nucleotidase SurE
NIDIBBDA_01880						24.9711						2	2	2,3706E-10	dRep_bin045_GJACFFBC_01442;dRep_bin275_NIDIBBDA_01880	dRep_bin045_GJACFFBC_01442;dRep_bin275_NIDIBBDA_01880	>dRep_bin045_GJACFFBC_01442 hypothetical protein;>dRep_bin275_NIDIBBDA_01880 hypothetical protein	dRep_bin275_NIDIBBDA_01880	CDS			hypothetical protein
NIDIBBDA_01888					26.78756							4	1	3,6767E-34	dRep_bin329_GDOHKPBL_00873;dRep_bin131_HLFNHDGI_01410;dRep_bin149_GABCHCDI_01123;dRep_bin346_JKFDGFHC_00265;dRep_bin294_EHJINIDK_01022;dRep_bin063_PJANDMAH_00322;dRep_bin034_MEBMFDLL_01671;dRep_bin014_CHIHIMAN_01364;dRep_bin002_CFBNDKDN_01693;dRep_bin018_ILOONPIC_00037;dRep_bin092_OOJCPDEA_00392;dRep_bin301_NJFJIJGA_01709;dRep_bin035_JBNPBOKG_01199;dRep_bin275_NIDIBBDA_01888	dRep_bin329_GDOHKPBL_00873;dRep_bin131_HLFNHDGI_01410	>dRep_bin329_GDOHKPBL_00873 Glucosamine-6-phosphate deaminase;>dRep_bin131_HLFNHDGI_01410 Glucosamine-6-phosphate deaminase	dRep_bin275_NIDIBBDA_01888	CDS	nagB	3.5.99.6	Glucosamine-6-phosphate deaminase
NIDIBBDA_01919	27.39934	27.20284	27.51367	28.789179999999998	28.795199999999998	29.042629999999996	28.76645	28.513820000000003				24	2	2,383E-158	dRep_bin289_KALDCNNP_01529;dRep_bin314_KCHFPLIP_00420;dRep_bin040_EIFLLDOA_00982;dRep_bin084_CGBIKHBH_01617;dRep_bin093_PGADNPMG_00321;dRep_bin022_BOEAFNDE_00260;dRep_bin070_EMBHKIOF_00644;dRep_bin118_FGIOKLBC_00801;dRep_bin014_CHIHIMAN_00866;dRep_bin275_NIDIBBDA_01919;dRep_bin110_JGOEJECF_01180	dRep_bin289_KALDCNNP_01529	>dRep_bin289_KALDCNNP_01529 Phosphoribosylformylglycinamidine synthase	dRep_bin275_NIDIBBDA_01919	CDS	purL	6.3.5.3	Phosphoribosylformylglycinamidine synthase
