GBprotID	LFQ intensity CtrPig1	LFQ intensity CtrPig2	LFQ intensity CtrPig3	LFQ intensity CtrPig4	LFQ intensity MannanPig1	LFQ intensity MannanPig2	LFQ intensity MannanPig3	LFQ intensity MannanPig4	Only identified by site	Reverse	Contaminant	Peptides	Unique peptides	PEP	Protein IDs	Majority protein IDs	Fasta headers	IDcomb	ftype	gene	EC_number	product
MIPNGEJE_00039								23.822309999999998				2	1	8,1262E-06	dRep_bin277_MIPNGEJE_00039	dRep_bin277_MIPNGEJE_00039	>dRep_bin277_MIPNGEJE_00039 Phosphoenolpyruvate carboxykinase [GTP]	dRep_bin277_MIPNGEJE_00039	CDS	pckG	4.1.1.32	Phosphoenolpyruvate carboxykinase [GTP]
MIPNGEJE_00089	29.801160000000003	29.97076	29.57333	29.62359								15	1	4,8335E-114	dRep_bin277_MIPNGEJE_00089	dRep_bin277_MIPNGEJE_00089	>dRep_bin277_MIPNGEJE_00089 Pyruvate, phosphate dikinase	dRep_bin277_MIPNGEJE_00089	CDS	ppdK	2.7.9.1	Pyruvate, phosphate dikinase
MIPNGEJE_00098		25.028039999999997										7	1	4,6296E-84	dRep_bin277_MIPNGEJE_00098	dRep_bin277_MIPNGEJE_00098	>dRep_bin277_MIPNGEJE_00098 Phosphoglycerate kinase	dRep_bin277_MIPNGEJE_00098	CDS	pgk	2.7.2.3	Phosphoglycerate kinase
MIPNGEJE_00107					27.69551	26.73647	28.803539999999998	26.756719999999998				13	8	7,5848E-36	dRep_bin095_HOBNOEEF_02146;dRep_bin344_CJJBDGAA_00010;dRep_bin257_JHFDCHCB_01336;dRep_bin284_DEHKNOBF_00528;dRep_bin347_EKGCMFPD_01713;dRep_bin300_MJPPENNL_01266;dRep_bin078_GKFCBAEI_00853;dRep_bin277_MIPNGEJE_00107;dRep_bin282_PKAAPBFP_00957;dRep_bin328_GIGKNKPJ_01683;dRep_bin324_IPNHOHFK_00096;dRep_bin157_JPNIKEKI_00049;dRep_bin133_NOBPDBPA_03446;dRep_bin019_MOJEPLJF_00699;dRep_bin046_GKEJLOEK_00562;dRep_bin024_OLHDGABE_00401;dRep_bin203_CLFNNOCF_00605;dRep_bin179_HFEIPPPA_01869;dRep_bin005_CNDFPKJG_00925;dRep_bin088_DNGPPFDK_00832	dRep_bin095_HOBNOEEF_02146	>dRep_bin095_HOBNOEEF_02146 Phosphoglucomutase	dRep_bin277_MIPNGEJE_00107	CDS	pgcA	5.4.2.2	Phosphoglucomutase
MIPNGEJE_00165			21.9329									7	1	6,8773E-74	dRep_bin002_CFBNDKDN_00438;dRep_bin277_MIPNGEJE_00165;dRep_bin006_HPJGJCAG_01437;dRep_bin090_IPGNHCBJ_00732;dRep_bin031_BNHMFOII_01636;dRep_bin309_BIOHLCGG_00467;dRep_bin056_EMNHHOJA_01154	dRep_bin002_CFBNDKDN_00438	>dRep_bin002_CFBNDKDN_00438 Bifunctional purine biosynthesis protein PurH	dRep_bin277_MIPNGEJE_00165	CDS	purH		Bifunctional purine biosynthesis protein PurH
MIPNGEJE_00216			22.460569999999997									2	1	2,4794E-10	dRep_bin135_HHKACLPM_01315;dRep_bin249_OFIIEIDJ_01934;dRep_bin284_DEHKNOBF_00489;dRep_bin001_GHHJMDAL_00077;dRep_bin300_MJPPENNL_01366;dRep_bin306_FGHMKMMP_00653;dRep_bin023_HGFJFKAI_00503;dRep_bin332_KAOPCDPF_01288;dRep_bin344_CJJBDGAA_01850;dRep_bin310_IMBAFDIF_00279;dRep_bin288_KOIAAABN_00684;dRep_bin248_CCDFPECI_01334;dRep_bin254_GJDPFAEA_02026;dRep_bin277_MIPNGEJE_00216;dRep_bin293_MEPKGOAN_00506;dRep_bin075_EPEMMOCL_01819;dRep_bin286_OEMIJKMC_00231;dRep_bin115_IFKGOGCL_01177;dRep_bin005_CNDFPKJG_01656;dRep_bin095_HOBNOEEF_00899;dRep_bin197_NHLBHFEI_00443;dRep_bin281_OGHLKMAI_00140;dRep_bin058_GJKCICJN_01024;dRep_bin263_OLEFOGIJ_00135;dRep_bin189_AHHEHGDL_00535;dRep_bin103_IGJBLKMC_00221;dRep_bin205_LKIOOBKC_01773;dRep_bin011_KOGMKLNO_00247;dRep_bin304_JDNJGFKH_00846;dRep_bin120_EKLBOPNC_01967;dRep_bin083_OCBADPJJ_00857	dRep_bin135_HHKACLPM_01315;dRep_bin249_OFIIEIDJ_01934;dRep_bin284_DEHKNOBF_00489;dRep_bin001_GHHJMDAL_00077;dRep_bin300_MJPPENNL_01366;dRep_bin306_FGHMKMMP_00653;dRep_bin023_HGFJFKAI_00503;dRep_bin332_KAOPCDPF_01288;dRep_bin344_CJJBDGAA_01850;dRep_bin310_IMBAFDIF_00279;dRep_bin288_KOIAAABN_00684;dRep_bin248_CCDFPECI_01334;dRep_bin254_GJDPFAEA_02026;dRep_bin277_MIPNGEJE_00216;dRep_bin293_MEPKGOAN_00506;dRep_bin075_EPEMMOCL_01819;dRep_bin286_OEMIJKMC_00231;dRep_bin115_IFKGOGCL_01177;dRep_bin005_CNDFPKJG_01656;dRep_bin095_HOBNOEEF_00899;dRep_bin197_NHLBHFEI_00443;dRep_bin281_OGHLKMAI_00140;dRep_bin058_GJKCICJN_01024;dRep_bin263_OLEFOGIJ_00135;dRep_bin189_AHHEHGDL_00535;dRep_bin103_IGJBLKMC_00221;dRep_bin205_LKIOOBKC_01773;dRep_bin011_KOGMKLNO_00247;dRep_bin304_JDNJGFKH_00846;dRep_bin120_EKLBOPNC_01967;dRep_bin083_OCBADPJJ_00857	>dRep_bin135_HHKACLPM_01315 Leucine--tRNA ligase;>dRep_bin249_OFIIEIDJ_01934 Leucine--tRNA ligase;>dRep_bin284_DEHKNOBF_00489 Leucine--tRNA ligase;>dRep_bin001_GHHJMDAL_00077 Leucine--tRNA ligase;>dRep_bin300_MJPPENNL_01366 Leucine--tRNA ligase;>dRep_bin30	dRep_bin277_MIPNGEJE_00216	CDS	leuS	6.1.1.4	Leucine--tRNA ligase
MIPNGEJE_00279	26.37744	25.97399	26.81323	26.86124	27.34866	27.342399999999998	27.334750000000003	27.569499999999998				5	1	5,0378E-27	dRep_bin143_PFLDJMPF_00290;dRep_bin293_MEPKGOAN_01524;dRep_bin347_EKGCMFPD_01183;dRep_bin201_OLKDIBOK_00232;dRep_bin031_BNHMFOII_00394;dRep_bin344_CJJBDGAA_02115;dRep_bin303_DDDNDJCF_01571;dRep_bin027_OFJCHLJJ_00404;dRep_bin339_DBNBAHDK_00300;dRep_bin049_MNFBDPNO_01583;dRep_bin350_EKOOEEGH_01042;dRep_bin277_MIPNGEJE_00279;dRep_bin309_BIOHLCGG_01215;dRep_bin247_EKGBJCBM_01321;dRep_bin115_IFKGOGCL_01117;dRep_bin056_EMNHHOJA_00506;dRep_bin048_PABMBHAL_01302;dRep_bin253_CPMOAOBJ_00269;dRep_bin335_JIOGNAPG_01506;dRep_bin310_IMBAFDIF_00163;dRep_bin139_KGAJINND_00868;dRep_bin019_MOJEPLJF_01034;dRep_bin005_CNDFPKJG_00855;dRep_bin144_NPHACCKF_00198;dRep_bin094_LBLICAAO_01300;dRep_bin278_BFCONKOE_00967	dRep_bin143_PFLDJMPF_00290;dRep_bin293_MEPKGOAN_01524;dRep_bin347_EKGCMFPD_01183;dRep_bin201_OLKDIBOK_00232;dRep_bin031_BNHMFOII_00394;dRep_bin344_CJJBDGAA_02115;dRep_bin303_DDDNDJCF_01571;dRep_bin027_OFJCHLJJ_00404;dRep_bin339_DBNBAHDK_00300;dRep_bin049_MNFBDPNO_01583	>dRep_bin143_PFLDJMPF_00290 Serine--tRNA ligase;>dRep_bin293_MEPKGOAN_01524 Serine--tRNA ligase;>dRep_bin347_EKGCMFPD_01183 Serine--tRNA ligase;>dRep_bin201_OLKDIBOK_00232 Serine--tRNA ligase;>dRep_bin031_BNHMFOII_00394 Serine--tRNA ligase;>dRep_bin344_CJJ	dRep_bin277_MIPNGEJE_00279	CDS	serS	6.1.1.11	Serine--tRNA ligase
MIPNGEJE_00364								23.626450000000002				1	1	0,0022617	dRep_bin220_PILICLLL_02039;dRep_bin096_GNHMEKPF_01213;dRep_bin277_MIPNGEJE_00364;dRep_bin082_HBEFABJN_00419;dRep_bin018_ILOONPIC_00390	dRep_bin220_PILICLLL_02039;dRep_bin096_GNHMEKPF_01213;dRep_bin277_MIPNGEJE_00364;dRep_bin082_HBEFABJN_00419;dRep_bin018_ILOONPIC_00390	>dRep_bin220_PILICLLL_02039 Electron transport complex subunit RsxB;>dRep_bin096_GNHMEKPF_01213 Electron transport complex subunit RsxB;>dRep_bin277_MIPNGEJE_00364 Electron transport complex subunit RsxB;>dRep_bin082_HBEFABJN_00419 Electron transport compl	dRep_bin277_MIPNGEJE_00364	CDS	rsxB_1		Electron transport complex subunit RsxB
MIPNGEJE_00428	24.158920000000002		25.063399999999998	24.11553								2	2	3,5621E-24	dRep_bin302_AHDEPDKG_00039;dRep_bin339_DBNBAHDK_01074;dRep_bin336_MPGOKPOL_02459;dRep_bin323_FBBLPLCG_00639;dRep_bin277_MIPNGEJE_00428;dRep_bin147_EJLBNEBE_00244;dRep_bin057_BNCFHBBO_00244;dRep_bin166_DFIAJFEC_00506;dRep_bin105_AAEIHAFF_01659	dRep_bin302_AHDEPDKG_00039;dRep_bin339_DBNBAHDK_01074;dRep_bin336_MPGOKPOL_02459;dRep_bin323_FBBLPLCG_00639;dRep_bin277_MIPNGEJE_00428;dRep_bin147_EJLBNEBE_00244;dRep_bin057_BNCFHBBO_00244;dRep_bin166_DFIAJFEC_00506;dRep_bin105_AAEIHAFF_01659	>dRep_bin302_AHDEPDKG_00039 putative zinc-ribbon domain protein;>dRep_bin339_DBNBAHDK_01074 putative zinc-ribbon domain protein;>dRep_bin336_MPGOKPOL_02459 putative zinc-ribbon domain protein;>dRep_bin323_FBBLPLCG_00639 putative zinc-ribbon domain protein;	dRep_bin277_MIPNGEJE_00428	CDS			putative zinc-ribbon domain protein
MIPNGEJE_00445						25.601300000000002						3	1	6,8547E-10	dRep_bin082_HBEFABJN_00977;dRep_bin253_CPMOAOBJ_00411;dRep_bin318_IEDEJOFJ_01183;dRep_bin102_ICFDHPGB_01117;dRep_bin349_AMCJEEEG_01437;dRep_bin277_MIPNGEJE_00445;dRep_bin116_CLFDBMOF_00363;dRep_bin242_LKAIBGGJ_01155	dRep_bin082_HBEFABJN_00977;dRep_bin253_CPMOAOBJ_00411;dRep_bin318_IEDEJOFJ_01183	>dRep_bin082_HBEFABJN_00977 Chaperone protein HtpG;>dRep_bin253_CPMOAOBJ_00411 Chaperone protein HtpG;>dRep_bin318_IEDEJOFJ_01183 Chaperone protein HtpG	dRep_bin277_MIPNGEJE_00445	CDS	htpG		Chaperone protein HtpG
MIPNGEJE_00462					22.10002	22.505309999999998	23.34408	22.72484				3	2	3,9931E-07	dRep_bin090_IPGNHCBJ_00293;dRep_bin277_MIPNGEJE_00462;dRep_bin259_IFIOODLK_01095	dRep_bin090_IPGNHCBJ_00293	>dRep_bin090_IPGNHCBJ_00293 Polyribonucleotide nucleotidyltransferase	dRep_bin277_MIPNGEJE_00462	CDS	pnp_1	2.7.7.8	Polyribonucleotide nucleotidyltransferase
MIPNGEJE_00465				23.544629999999998								6	0	5,3172E-30	dRep_bin181_MKGPMPIA_01503;dRep_bin277_MIPNGEJE_00465;dRep_bin107_EFNBPDOP_00562;dRep_bin145_KMJJJOEJ_01674	dRep_bin181_MKGPMPIA_01503	>dRep_bin181_MKGPMPIA_01503 Fructose-bisphosphate aldolase	dRep_bin277_MIPNGEJE_00465	CDS	fba	4.1.2.13	Fructose-bisphosphate aldolase
MIPNGEJE_00466	23.498749999999998	23.41377	23.664050000000003	25.007910000000003								4	3	8,0566E-12	dRep_bin292_JIBLDOOH_01418;dRep_bin303_DDDNDJCF_00505;dRep_bin077_DNNBMPMC_00941;dRep_bin152_LJMCIADF_01123;dRep_bin124_HIHDFGCL_00335;dRep_bin079_GAOGCKND_00643;dRep_bin068_ENOLAELK_01078;dRep_bin038_EIGFILKG_00380;dRep_bin309_BIOHLCGG_00617;dRep_bin194_MEPDOGGJ_00286;dRep_bin025_CBEJJMLE_00539;dRep_bin247_EKGBJCBM_00804;dRep_bin253_CPMOAOBJ_00601;dRep_bin169_PNICKJKO_01110;dRep_bin123_PJKBFKBB_01254;dRep_bin306_FGHMKMMP_00717;dRep_bin293_MEPKGOAN_00676;dRep_bin257_JHFDCHCB_01083;dRep_bin249_OFIIEIDJ_00213;dRep_bin157_JPNIKEKI_01818;dRep_bin085_MBHLGCDB_01586;dRep_bin319_PBDBJGCJ_01316;dRep_bin300_MJPPENNL_01694;dRep_bin282_PKAAPBFP_01497;dRep_bin220_PILICLLL_01502;dRep_bin209_NKIHFCEN_00711;dRep_bin179_HFEIPPPA_01156;dRep_bin166_DFIAJFEC_01129;dRep_bin160_EFKMPBOM_01097;dRep_bin154_JGOKHKLI_00129;dRep_bin088_DNGPPFDK_00244;dRep_bin075_EPEMMOCL_01534;dRep_bin069_EGGEOGDC_00523;dRep_bin344_CJJBDGAA_01343;dRep_bin324_IPNHOHFK_02132;dRep_bin310_IMBAFDIF_01633;dRep_bin297_EDHEEICA_00782;dRep_bin269_PNILGKPH_01786;dRep_bin248_CCDFPECI_00995;dRep_bin226_NLNLHLLD_00535;dRep_bin203_CLFNNOCF_00636;dRep_bin168_HKDILBFE_00313;dRep_bin139_KGAJINND_00724;dRep_bin133_NOBPDBPA_02650;dRep_bin099_DNDAGJEJ_01464;dRep_bin091_MAFACGAD_00915;dRep_bin007_LNLEAAAN_01209;dRep_bin260_HELEPKJL_00482;dRep_bin186_HJAAFFNP_01391;dRep_bin115_IFKGOGCL_02481;dRep_bin039_IJNOFOJK_00485;dRep_bin354_MMOALAFN_01391;dRep_bin261_FJICAFFM_01132;dRep_bin336_MPGOKPOL_01187;dRep_bin095_HOBNOEEF_00148;dRep_bin348_LCLFDNEE_00586;dRep_bin125_FADLGGII_01253;dRep_bin089_PAJFOJBN_00918;dRep_bin277_MIPNGEJE_00466	dRep_bin292_JIBLDOOH_01418;dRep_bin303_DDDNDJCF_00505	>dRep_bin292_JIBLDOOH_01418 Putative aminotransferase/MSMEI_6121;>dRep_bin303_DDDNDJCF_00505 Putative aminotransferase/MSMEI_6121	dRep_bin277_MIPNGEJE_00466	CDS			Putative aminotransferase/MSMEI_6121
MIPNGEJE_00613								25.1812				4	1	1,3127E-12	dRep_bin277_MIPNGEJE_00613	dRep_bin277_MIPNGEJE_00613	>dRep_bin277_MIPNGEJE_00613 Chaperone protein DnaK	dRep_bin277_MIPNGEJE_00613	CDS	dnaK		Chaperone protein DnaK
MIPNGEJE_00690					25.06357							5	1	3,6059E-73	dRep_bin203_CLFNNOCF_01682;dRep_bin347_EKGCMFPD_01504;dRep_bin284_DEHKNOBF_01057;dRep_bin260_HELEPKJL_00015;dRep_bin310_IMBAFDIF_00287;dRep_bin134_HIAPAODO_00846;dRep_bin062_BOFBFLDA_01435;dRep_bin300_MJPPENNL_01196;dRep_bin201_OLKDIBOK_02047;dRep_bin105_AAEIHAFF_01478;dRep_bin100_CODMOHGB_01221;dRep_bin088_DNGPPFDK_00866;dRep_bin277_MIPNGEJE_00690;dRep_bin166_DFIAJFEC_00146;dRep_bin161_JMKPMHCO_01114;dRep_bin059_OOBKFNPP_00125;dRep_bin046_GKEJLOEK_01062;dRep_bin091_MAFACGAD_00248;dRep_bin017_FGFLFOPJ_00727;dRep_bin354_MMOALAFN_00741;dRep_bin324_IPNHOHFK_00313;dRep_bin323_FBBLPLCG_01264;dRep_bin309_BIOHLCGG_01306;dRep_bin273_FGAEBHNP_00470;dRep_bin261_FJICAFFM_01100;dRep_bin148_NAJFKJMD_00795;dRep_bin115_IFKGOGCL_00123;dRep_bin069_EGGEOGDC_01056;dRep_bin344_CJJBDGAA_01161;dRep_bin249_OFIIEIDJ_00715;dRep_bin220_PILICLLL_00990;dRep_bin134_HIAPAODO_01436;dRep_bin065_DFABHCBI_00344;dRep_bin032_PPNIGLME_00203;dRep_bin270_GEJAHNCN_01587;dRep_bin065_DFABHCBI_00249;dRep_bin278_BFCONKOE_01054;dRep_bin016_JLGAHGOJ_00641;dRep_bin328_GIGKNKPJ_01462;dRep_bin308_JBPDGLPP_01172;dRep_bin303_DDDNDJCF_01320;dRep_bin254_GJDPFAEA_00870;dRep_bin234_ECABPBME_00536;dRep_bin186_HJAAFFNP_01789;dRep_bin167_BLMEBMNN_01296;dRep_bin107_EFNBPDOP_00511;dRep_bin077_DNNBMPMC_01864;dRep_bin066_AJACLPEE_01033;dRep_bin047_IFFANOMN_00697;dRep_bin135_HHKACLPM_00107;dRep_bin303_DDDNDJCF_00377;dRep_bin306_FGHMKMMP_01595;dRep_bin211_LGJEFJIK_00450;dRep_bin007_LNLEAAAN_01312;dRep_bin344_CJJBDGAA_01611;dRep_bin031_BNHMFOII_01628;dRep_bin353_PPDHLNJB_02118;dRep_bin254_GJDPFAEA_00869;dRep_bin094_LBLICAAO_00342;dRep_bin047_IFFANOMN_01357;dRep_bin120_EKLBOPNC_01832;dRep_bin168_HKDILBFE_01442;dRep_bin099_DNDAGJEJ_00392;dRep_bin215_ABBFGCAF_00798;dRep_bin029_LFMGBBEC_01628;dRep_bin240_LDBBGJKG_01094;dRep_bin279_IAEFEPEN_01491;dRep_bin130_OIFFANPF_01666;dRep_bin319_PBDBJGCJ_00268;dRep_bin017_FGFLFOPJ_00820;dRep_bin082_HBEFABJN_01328;dRep_bin245_MBCFLKOF_01762;dRep_bin027_OFJCHLJJ_00790;dRep_bin108_BPNCDINP_00911;dRep_bin308_JBPDGLPP_01750;dRep_bin193_GDMDPNNM_00480;dRep_bin344_CJJBDGAA_02078;dRep_bin049_MNFBDPNO_01413;dRep_bin096_GNHMEKPF_00097;dRep_bin104_EGLEJOLM_01934;dRep_bin339_DBNBAHDK_02499;dRep_bin321_EJNAAGJG_00755;dRep_bin273_FGAEBHNP_00835;dRep_bin250_NMCAMJIO_00087;dRep_bin247_EKGBJCBM_00317;dRep_bin148_NAJFKJMD_01189;dRep_bin337_FHKPNFDB_01633;dRep_bin320_LDBKCCKL_01786;dRep_bin304_JDNJGFKH_01982;dRep_bin286_OEMIJKMC_01141;dRep_bin231_CFOLMJBA_00953;dRep_bin162_JBGCCDIN_01636;dRep_bin126_PPDNCIBN_01067;dRep_bin109_MJABCPAK_00317;dRep_bin057_BNCFHBBO_00597;dRep_bin288_KOIAAABN_00012;dRep_bin263_OLEFOGIJ_00295;dRep_bin304_JDNJGFKH_00179;dRep_bin208_DHPGEIBC_00457;dRep_bin189_AHHEHGDL_01282;dRep_bin177_HLHGKLFL_00741;dRep_bin140_ACFAKGIL_00319;dRep_bin105_AAEIHAFF_01411;dRep_bin082_HBEFABJN_00692;dRep_bin010_MFFFGEGD_00717;dRep_bin005_CNDFPKJG_01705;dRep_bin287_DONBGKDH_01836;dRep_bin094_LBLICAAO_00388;dRep_bin058_GJKCICJN_00227;dRep_bin293_MEPKGOAN_00829;dRep_bin218_ACMPALGF_00229;dRep_bin205_LKIOOBKC_00417;dRep_bin172_ALNHGLMD_01439;dRep_bin159_ADJJGPBG_01342;dRep_bin143_PFLDJMPF_01248;dRep_bin101_BNDDLDCL_01982;dRep_bin091_MAFACGAD_01619;dRep_bin072_JOBJPCGA_00130;dRep_bin011_KOGMKLNO_01272;dRep_bin164_KHMELCCL_01402;dRep_bin305_FCIEFIHE_00371;dRep_bin222_GGCAJABB_00745;dRep_bin006_HPJGJCAG_01874;dRep_bin286_OEMIJKMC_01354;dRep_bin126_PPDNCIBN_00282;dRep_bin185_OOOLKACK_00819;dRep_bin043_KLAFNACO_00900;dRep_bin231_CFOLMJBA_01529;dRep_bin237_KJDLIPND_00869;dRep_bin147_EJLBNEBE_00138;dRep_bin186_HJAAFFNP_01790;dRep_bin081_JDPCKDNP_00172;dRep_bin069_EGGEOGDC_00890;dRep_bin282_PKAAPBFP_00016;dRep_bin206_OIIBOIAK_00984;dRep_bin161_JMKPMHCO_00782;dRep_bin278_BFCONKOE_00310;dRep_bin260_HELEPKJL_01944;dRep_bin336_MPGOKPOL_00897	dRep_bin203_CLFNNOCF_01682;dRep_bin347_EKGCMFPD_01504;dRep_bin284_DEHKNOBF_01057;dRep_bin260_HELEPKJL_00015;dRep_bin310_IMBAFDIF_00287;dRep_bin134_HIAPAODO_00846;dRep_bin062_BOFBFLDA_01435	>dRep_bin203_CLFNNOCF_01682 Glutamine synthetase;>dRep_bin347_EKGCMFPD_01504 Glutamine synthetase;>dRep_bin284_DEHKNOBF_01057 Glutamine synthetase;>dRep_bin260_HELEPKJL_00015 Glutamine synthetase;>dRep_bin310_IMBAFDIF_00287 Glutamine synthetase;>dRep_bin13	dRep_bin277_MIPNGEJE_00690	CDS	glnA	6.3.1.2	Glutamine synthetase
MIPNGEJE_00718	27.31847	27.06147	26.750980000000002	27.07102	27.5809	27.13271	26.86738	27.54665				6	0	2,1427E-175	dRep_bin057_BNCFHBBO_01225;dRep_bin277_MIPNGEJE_00718;dRep_bin242_LKAIBGGJ_01354;dRep_bin174_LJJOKEME_00157;dRep_bin339_DBNBAHDK_01137	dRep_bin057_BNCFHBBO_01225	>dRep_bin057_BNCFHBBO_01225 hypothetical protein	dRep_bin277_MIPNGEJE_00718	CDS			hypothetical protein
MIPNGEJE_00757	29.2999	29.566509999999997	30.05931	29.04828	28.991699999999998	28.57391	29.705099999999998	29.51452				9	6	1,4542E-37	dRep_bin013_IODPEDPB_00467;dRep_bin247_EKGBJCBM_00057;dRep_bin161_JMKPMHCO_00432;dRep_bin105_AAEIHAFF_01723;dRep_bin277_MIPNGEJE_00757;dRep_bin023_HGFJFKAI_00810;dRep_bin166_DFIAJFEC_00239;dRep_bin253_CPMOAOBJ_00188;dRep_bin339_DBNBAHDK_00879	dRep_bin013_IODPEDPB_00467	>dRep_bin013_IODPEDPB_00467 DNA-directed RNA polymerase subunit alpha	dRep_bin277_MIPNGEJE_00757	CDS	rpoA	2.7.7.6	DNA-directed RNA polymerase subunit alpha
MIPNGEJE_00780	29.02889	28.520509999999998	28.935029999999998	29.496389999999998	29.266619999999996	29.54237	28.59722	28.9161				4	2	5,8411E-90	dRep_bin088_DNGPPFDK_00695;dRep_bin127_FIPNHBCH_00032;dRep_bin203_CLFNNOCF_02129;dRep_bin016_JLGAHGOJ_00431;dRep_bin139_KGAJINND_01528;dRep_bin047_IFFANOMN_00243;dRep_bin065_DFABHCBI_01273;dRep_bin001_GHHJMDAL_00752;dRep_bin261_FJICAFFM_00374;dRep_bin154_JGOKHKLI_00797;dRep_bin089_PAJFOJBN_02078;dRep_bin211_LGJEFJIK_00745;dRep_bin234_ECABPBME_00123;dRep_bin160_EFKMPBOM_01984;dRep_bin328_GIGKNKPJ_01341;dRep_bin001_GHHJMDAL_01070;dRep_bin266_JFOCEDAE_01009;dRep_bin259_IFIOODLK_01513;dRep_bin200_JJGKEOHI_00186;dRep_bin031_BNHMFOII_00541;dRep_bin282_PKAAPBFP_00485;dRep_bin200_JJGKEOHI_01014;dRep_bin086_HHEJBMCP_00611;dRep_bin135_HHKACLPM_00480;dRep_bin277_MIPNGEJE_00780;dRep_bin123_PJKBFKBB_00849;dRep_bin330_CODAKHDJ_00380;dRep_bin218_ACMPALGF_00064	dRep_bin088_DNGPPFDK_00695;dRep_bin127_FIPNHBCH_00032;dRep_bin203_CLFNNOCF_02129;dRep_bin016_JLGAHGOJ_00431;dRep_bin139_KGAJINND_01528;dRep_bin047_IFFANOMN_00243;dRep_bin065_DFABHCBI_01273;dRep_bin001_GHHJMDAL_00752;dRep_bin261_FJICAFFM_00374;dRep_bin154_JGOKHKLI_00797;dRep_bin089_PAJFOJBN_02078;dRep_bin211_LGJEFJIK_00745;dRep_bin234_ECABPBME_00123;dRep_bin160_EFKMPBOM_01984;dRep_bin328_GIGKNKPJ_01341;dRep_bin001_GHHJMDAL_01070	>dRep_bin088_DNGPPFDK_00695 30S ribosomal protein S3;>dRep_bin127_FIPNHBCH_00032 30S ribosomal protein S3;>dRep_bin203_CLFNNOCF_02129 30S ribosomal protein S3;>dRep_bin016_JLGAHGOJ_00431 30S ribosomal protein S3;>dRep_bin139_KGAJINND_01528 30S ribosomal pr	dRep_bin277_MIPNGEJE_00780	CDS	rpsC		30S ribosomal protein S3
MIPNGEJE_00782				25.44683								3	0	5,505E-13	dRep_bin277_MIPNGEJE_00782	dRep_bin277_MIPNGEJE_00782	>dRep_bin277_MIPNGEJE_00782 30S ribosomal protein S19	dRep_bin277_MIPNGEJE_00782	CDS	rpsS		30S ribosomal protein S19
MIPNGEJE_00824						25.37859						4	2	2,2689E-13	dRep_bin157_JPNIKEKI_00942;dRep_bin065_DFABHCBI_01945;dRep_bin282_PKAAPBFP_01707;dRep_bin075_EPEMMOCL_01191;dRep_bin089_PAJFOJBN_02054;dRep_bin269_PNILGKPH_01091;dRep_bin039_IJNOFOJK_01301;dRep_bin023_HGFJFKAI_00483;dRep_bin167_BLMEBMNN_01800;dRep_bin074_EHAOMODJ_01079;dRep_bin005_CNDFPKJG_00576;dRep_bin277_MIPNGEJE_00824;dRep_bin143_PFLDJMPF_00484;dRep_bin091_MAFACGAD_00708;dRep_bin335_JIOGNAPG_01712;dRep_bin308_JBPDGLPP_01394;dRep_bin306_FGHMKMMP_00157;dRep_bin200_JJGKEOHI_00644;dRep_bin160_EFKMPBOM_01770;dRep_bin154_JGOKHKLI_01254;dRep_bin088_DNGPPFDK_00607;dRep_bin081_JDPCKDNP_00472;dRep_bin234_ECABPBME_00056;dRep_bin101_BNDDLDCL_01417;dRep_bin250_NMCAMJIO_00706;dRep_bin041_OPKGAAAG_01876;dRep_bin240_LDBBGJKG_00488;dRep_bin001_GHHJMDAL_00373;dRep_bin315_AGEMOMDG_00838;dRep_bin239_JIMDAIOF_00250;dRep_bin313_CJFGINPI_01381;dRep_bin163_EBDOGNGI_00300;dRep_bin280_IMCGLKKG_00217;dRep_bin012_KEBBILMO_00361;dRep_bin347_EKGCMFPD_00218;dRep_bin102_ICFDHPGB_00448;dRep_bin178_FLGBGGJB_00789;dRep_bin156_GFIMJAAC_00472	dRep_bin157_JPNIKEKI_00942;dRep_bin065_DFABHCBI_01945;dRep_bin282_PKAAPBFP_01707;dRep_bin075_EPEMMOCL_01191;dRep_bin089_PAJFOJBN_02054;dRep_bin269_PNILGKPH_01091;dRep_bin039_IJNOFOJK_01301;dRep_bin023_HGFJFKAI_00483;dRep_bin167_BLMEBMNN_01800;dRep_bin074_EHAOMODJ_01079;dRep_bin005_CNDFPKJG_00576;dRep_bin277_MIPNGEJE_00824;dRep_bin143_PFLDJMPF_00484;dRep_bin091_MAFACGAD_00708;dRep_bin335_JIOGNAPG_01712;dRep_bin308_JBPDGLPP_01394;dRep_bin306_FGHMKMMP_00157;dRep_bin200_JJGKEOHI_00644;dRep_bin160_EFKMPBOM_01770;dRep_bin154_JGOKHKLI_01254;dRep_bin088_DNGPPFDK_00607;dRep_bin081_JDPCKDNP_00472;dRep_bin234_ECABPBME_00056;dRep_bin101_BNDDLDCL_01417;dRep_bin250_NMCAMJIO_00706	>dRep_bin157_JPNIKEKI_00942 Aspartate--tRNA ligase;>dRep_bin065_DFABHCBI_01945 Aspartate--tRNA ligase;>dRep_bin282_PKAAPBFP_01707 Aspartate--tRNA ligase;>dRep_bin075_EPEMMOCL_01191 Aspartate--tRNA ligase;>dRep_bin089_PAJFOJBN_02054 Aspartate--tRNA ligase;>	dRep_bin277_MIPNGEJE_00824	CDS	aspS	6.1.1.23	Aspartate--tRNA(Asp/Asn) ligase
MIPNGEJE_00892	26.66817	26.76989	25.66164	26.54704		26.818360000000002		24.56825				4	1	7,7057E-48	dRep_bin277_MIPNGEJE_00892	dRep_bin277_MIPNGEJE_00892	>dRep_bin277_MIPNGEJE_00892 Reverse rubrerythrin-1	dRep_bin277_MIPNGEJE_00892	CDS	rbr3A	1.11.1.1	Reverse rubrerythrin-1
MIPNGEJE_00900				25.51713								3	1	2,6906E-08	dRep_bin277_MIPNGEJE_00900;dRep_bin031_BNHMFOII_00574;dRep_bin339_DBNBAHDK_01057	dRep_bin277_MIPNGEJE_00900;dRep_bin031_BNHMFOII_00574;dRep_bin339_DBNBAHDK_01057	>dRep_bin277_MIPNGEJE_00900 Glyceraldehyde-3-phosphate dehydrogenase 1;>dRep_bin031_BNHMFOII_00574 Glyceraldehyde-3-phosphate dehydrogenase A;>dRep_bin339_DBNBAHDK_01057 Glyceraldehyde-3-phosphate dehydrogenase A	dRep_bin277_MIPNGEJE_00900	CDS	gap1	1.2.1.12	Glyceraldehyde-3-phosphate dehydrogenase 1
MIPNGEJE_00935		25.60877	26.79315	25.83733	24.845319999999997	24.211260000000003	24.74088	24.288209999999996				13	1	8,1302E-155	dRep_bin277_MIPNGEJE_00935	dRep_bin277_MIPNGEJE_00935	>dRep_bin277_MIPNGEJE_00935 Elongation factor Tu	dRep_bin277_MIPNGEJE_00935	CDS	tuf		Elongation factor Tu
MIPNGEJE_00938			28.77903	29.416960000000003	27.236439999999998	27.457870000000003	26.988259999999997	26.782069999999997				3	1	5,5654E-46	dRep_bin005_CNDFPKJG_00512;dRep_bin135_HHKACLPM_00996;dRep_bin007_LNLEAAAN_00555;dRep_bin303_DDDNDJCF_00538;dRep_bin328_GIGKNKPJ_00724;dRep_bin308_JBPDGLPP_01472;dRep_bin292_JIBLDOOH_00033;dRep_bin278_BFCONKOE_00439;dRep_bin269_PNILGKPH_00427;dRep_bin179_HFEIPPPA_01854;dRep_bin133_NOBPDBPA_03738;dRep_bin127_FIPNHBCH_00184;dRep_bin065_DFABHCBI_01543;dRep_bin039_IJNOFOJK_00835;dRep_bin031_BNHMFOII_01289;dRep_bin024_OLHDGABE_00632;dRep_bin001_GHHJMDAL_01042;dRep_bin027_OFJCHLJJ_01571;dRep_bin134_HIAPAODO_00757;dRep_bin339_DBNBAHDK_00274;dRep_bin268_LKMHIMLG_00767;dRep_bin215_ABBFGCAF_00889;dRep_bin142_NDNPJBEM_01236;dRep_bin347_EKGCMFPD_01033;dRep_bin325_EIIGOGHN_00650;dRep_bin310_IMBAFDIF_01183;dRep_bin293_MEPKGOAN_00730;dRep_bin282_PKAAPBFP_00286;dRep_bin100_CODMOHGB_00949;dRep_bin091_MAFACGAD_00437;dRep_bin079_GAOGCKND_00310;dRep_bin323_FBBLPLCG_01106;dRep_bin322_OJELOJOF_01654;dRep_bin273_FGAEBHNP_01366;dRep_bin266_JFOCEDAE_01192;dRep_bin231_CFOLMJBA_00878;dRep_bin194_MEPDOGGJ_01303;dRep_bin182_EMCFODCD_01258;dRep_bin169_PNICKJKO_01164;dRep_bin158_OGFICEAP_00873;dRep_bin115_IFKGOGCL_01307;dRep_bin108_BPNCDINP_01062;dRep_bin087_FCLGAPPI_00927;dRep_bin056_EMNHHOJA_01448;dRep_bin047_IFFANOMN_00919;dRep_bin044_IPFKHAEF_00004;dRep_bin026_HNPIIINL_00567;dRep_bin025_CBEJJMLE_00162;dRep_bin336_MPGOKPOL_00656;dRep_bin277_MIPNGEJE_00938;dRep_bin257_JHFDCHCB_01267;dRep_bin172_ALNHGLMD_01450;dRep_bin166_DFIAJFEC_00114;dRep_bin147_EJLBNEBE_01610;dRep_bin105_AAEIHAFF_01928	dRep_bin005_CNDFPKJG_00512;dRep_bin135_HHKACLPM_00996;dRep_bin007_LNLEAAAN_00555;dRep_bin303_DDDNDJCF_00538;dRep_bin328_GIGKNKPJ_00724;dRep_bin308_JBPDGLPP_01472;dRep_bin292_JIBLDOOH_00033;dRep_bin278_BFCONKOE_00439;dRep_bin269_PNILGKPH_00427;dRep_bin179_HFEIPPPA_01854;dRep_bin133_NOBPDBPA_03738;dRep_bin127_FIPNHBCH_00184;dRep_bin065_DFABHCBI_01543;dRep_bin039_IJNOFOJK_00835;dRep_bin031_BNHMFOII_01289;dRep_bin024_OLHDGABE_00632;dRep_bin001_GHHJMDAL_01042;dRep_bin027_OFJCHLJJ_01571	>dRep_bin005_CNDFPKJG_00512 30S ribosomal protein S12;>dRep_bin135_HHKACLPM_00996 30S ribosomal protein S12;>dRep_bin007_LNLEAAAN_00555 30S ribosomal protein S12;>dRep_bin303_DDDNDJCF_00538 30S ribosomal protein S12;>dRep_bin328_GIGKNKPJ_00724 30S ribosoma	dRep_bin277_MIPNGEJE_00938	CDS	rpsL		30S ribosomal protein S12
MIPNGEJE_00939								21.643810000000002				9	0	4,6207E-36	dRep_bin143_PFLDJMPF_01162;dRep_bin074_EHAOMODJ_00197;dRep_bin152_LJMCIADF_00840;dRep_bin079_GAOGCKND_00311;dRep_bin068_ENOLAELK_00990;dRep_bin124_HIHDFGCL_00318;dRep_bin272_LGBDGEIM_00728;dRep_bin337_FHKPNFDB_00324;dRep_bin056_EMNHHOJA_01446;dRep_bin054_NNOKONMC_00657;dRep_bin102_ICFDHPGB_00342;dRep_bin259_IFIOODLK_00485;dRep_bin086_HHEJBMCP_01132;dRep_bin054_NNOKONMC_00873;dRep_bin161_JMKPMHCO_00072;dRep_bin044_IPFKHAEF_00005;dRep_bin085_MBHLGCDB_01101;dRep_bin059_OOBKFNPP_00481;dRep_bin171_FIDMCACI_00747;dRep_bin012_KEBBILMO_00314;dRep_bin212_IEMJENOD_00204;dRep_bin257_JHFDCHCB_01099;dRep_bin277_MIPNGEJE_00939;dRep_bin238_OLNFACLE_01881;dRep_bin200_JJGKEOHI_00480;dRep_bin144_NPHACCKF_01932;dRep_bin321_EJNAAGJG_00384;dRep_bin333_EFOKIBLA_00721;dRep_bin273_FGAEBHNP_01365;dRep_bin280_IMCGLKKG_00438;dRep_bin171_FIDMCACI_00165;dRep_bin051_HIEIDCID_00833;dRep_bin141_GMCOOECB_01065;dRep_bin122_JHMJFODI_00609;dRep_bin155_CLHNKEHA_00697;dRep_bin313_CJFGINPI_00865;dRep_bin213_HHHELMFN_00711;dRep_bin258_DAMEHFEK_00926;dRep_bin169_PNICKJKO_00880;dRep_bin055_IBMMJAEE_00781;dRep_bin096_GNHMEKPF_00270;dRep_bin082_HBEFABJN_01176;dRep_bin094_LBLICAAO_01798;dRep_bin052_PGOOKKFH_00001;dRep_bin178_FLGBGGJB_00429;dRep_bin123_PJKBFKBB_00530;dRep_bin046_GKEJLOEK_00533;dRep_bin270_GEJAHNCN_00559;dRep_bin087_FCLGAPPI_00749;dRep_bin317_ABPHNCOD_01524;dRep_bin354_MMOALAFN_01090;dRep_bin221_LMGNIMOJ_00256;dRep_bin005_CNDFPKJG_00513;dRep_bin144_NPHACCKF_01674;dRep_bin215_ABBFGCAF_00891;dRep_bin024_OLHDGABE_01486;dRep_bin207_OHNPDPFI_01006;dRep_bin109_MJABCPAK_00005;dRep_bin121_BHOOLFKN_00138;dRep_bin144_NPHACCKF_01593;dRep_bin236_BNONDECB_00589;dRep_bin166_DFIAJFEC_00113;dRep_bin352_KFNHGNFC_00788;dRep_bin187_CLPDGDBG_00447;dRep_bin192_GCMBELNN_00637;dRep_bin206_OIIBOIAK_00839;dRep_bin173_BEBNCADL_00299;dRep_bin080_CBEBHNNK_00392;dRep_bin237_KJDLIPND_00675	dRep_bin143_PFLDJMPF_01162;dRep_bin074_EHAOMODJ_00197;dRep_bin152_LJMCIADF_00840;dRep_bin079_GAOGCKND_00311;dRep_bin068_ENOLAELK_00990;dRep_bin124_HIHDFGCL_00318;dRep_bin272_LGBDGEIM_00728;dRep_bin337_FHKPNFDB_00324;dRep_bin056_EMNHHOJA_01446;dRep_bin054_NNOKONMC_00657;dRep_bin102_ICFDHPGB_00342;dRep_bin259_IFIOODLK_00485;dRep_bin086_HHEJBMCP_01132;dRep_bin054_NNOKONMC_00873;dRep_bin161_JMKPMHCO_00072;dRep_bin044_IPFKHAEF_00005;dRep_bin085_MBHLGCDB_01101	>dRep_bin143_PFLDJMPF_01162 DNA-directed RNA polymerase subunit beta;>dRep_bin074_EHAOMODJ_00197 DNA-directed RNA polymerase subunit beta;>dRep_bin152_LJMCIADF_00840 DNA-directed RNA polymerase subunit beta;>dRep_bin079_GAOGCKND_00311 DNA-directed RNA p	dRep_bin277_MIPNGEJE_00939	CDS	rpoC	2.7.7.6	DNA-directed RNA polymerase subunit beta'
MIPNGEJE_01155					26.69259	26.46382	24.862639999999995	25.452619999999996				7	2	1,4139E-30	dRep_bin272_LGBDGEIM_01228;dRep_bin354_MMOALAFN_01246;dRep_bin166_DFIAJFEC_00700;dRep_bin309_BIOHLCGG_00463;dRep_bin277_MIPNGEJE_01155;dRep_bin286_OEMIJKMC_00557;dRep_bin126_PPDNCIBN_00953;dRep_bin131_HLFNHDGI_01712;dRep_bin059_OOBKFNPP_00024;dRep_bin085_MBHLGCDB_00444;dRep_bin349_AMCJEEEG_00683;dRep_bin049_MNFBDPNO_00397;dRep_bin231_CFOLMJBA_00446;dRep_bin304_JDNJGFKH_01037;dRep_bin120_EKLBOPNC_00637;dRep_bin115_IFKGOGCL_02607;dRep_bin083_OCBADPJJ_01445;dRep_bin205_LKIOOBKC_01850;dRep_bin090_IPGNHCBJ_01246;dRep_bin058_GJKCICJN_00624;dRep_bin247_EKGBJCBM_01564	dRep_bin272_LGBDGEIM_01228	>dRep_bin272_LGBDGEIM_01228 Inosine-5-monophosphate dehydrogenase	dRep_bin277_MIPNGEJE_01155	CDS	guaB	1.1.1.205	Inosine-5'-monophosphate dehydrogenase
MIPNGEJE_01218								23.06406				2	1	0,00013013	dRep_bin333_EFOKIBLA_01006;dRep_bin277_MIPNGEJE_01218	dRep_bin333_EFOKIBLA_01006;dRep_bin277_MIPNGEJE_01218	>dRep_bin333_EFOKIBLA_01006 hypothetical protein;>dRep_bin277_MIPNGEJE_01218 hypothetical protein	dRep_bin277_MIPNGEJE_01218	CDS			hypothetical protein
MIPNGEJE_01247								24.93809				3	0	1,9818E-71	dRep_bin277_MIPNGEJE_01247;dRep_bin049_MNFBDPNO_01166;dRep_bin321_EJNAAGJG_00232;dRep_bin273_FGAEBHNP_00291	dRep_bin277_MIPNGEJE_01247;dRep_bin049_MNFBDPNO_01166;dRep_bin321_EJNAAGJG_00232;dRep_bin273_FGAEBHNP_00291	>dRep_bin277_MIPNGEJE_01247 sn-glycerol-3-phosphate import ATP-binding protein UgpC;>dRep_bin049_MNFBDPNO_01166 Trehalose import ATP-binding protein SugC;>dRep_bin321_EJNAAGJG_00232 Trehalose import ATP-binding protein SugC;>dRep_bin273_FGAEBHNP_00291 Treh	dRep_bin277_MIPNGEJE_01247	CDS	ugpC	3.6.3.20	sn-glycerol-3-phosphate import ATP-binding protein UgpC
MIPNGEJE_01407	24.9173		24.33565	24.0878								8	1	3,2668E-153	dRep_bin277_MIPNGEJE_01407	dRep_bin277_MIPNGEJE_01407	>dRep_bin277_MIPNGEJE_01407 60 kDa chaperonin	dRep_bin277_MIPNGEJE_01407	CDS	groL		60 kDa chaperonin
MIPNGEJE_01440						26.150060000000003						5	1	6,0058E-93	dRep_bin302_AHDEPDKG_00272;dRep_bin348_LCLFDNEE_00630;dRep_bin105_AAEIHAFF_01274;dRep_bin339_DBNBAHDK_01619;dRep_bin277_MIPNGEJE_01440	dRep_bin302_AHDEPDKG_00272;dRep_bin348_LCLFDNEE_00630;dRep_bin105_AAEIHAFF_01274	>dRep_bin302_AHDEPDKG_00272 HPr-like protein Crh;>dRep_bin348_LCLFDNEE_00630 HPr-like protein Crh;>dRep_bin105_AAEIHAFF_01274 HPr-like protein Crh	dRep_bin277_MIPNGEJE_01440	CDS	crh		HPr-like protein Crh
MIPNGEJE_01470								26.72949				2	1	9,0759E-07	dRep_bin293_MEPKGOAN_00097;dRep_bin047_IFFANOMN_00065;dRep_bin269_PNILGKPH_00704;dRep_bin238_OLNFACLE_01472;dRep_bin124_HIHDFGCL_00696;dRep_bin105_AAEIHAFF_01124;dRep_bin079_GAOGCKND_01577;dRep_bin056_EMNHHOJA_01381;dRep_bin321_EJNAAGJG_00783;dRep_bin257_JHFDCHCB_00230;dRep_bin143_PFLDJMPF_01136;dRep_bin340_OFLHNGJM_01032;dRep_bin277_MIPNGEJE_01470;dRep_bin231_CFOLMJBA_00061	dRep_bin293_MEPKGOAN_00097;dRep_bin047_IFFANOMN_00065;dRep_bin269_PNILGKPH_00704;dRep_bin238_OLNFACLE_01472;dRep_bin124_HIHDFGCL_00696;dRep_bin105_AAEIHAFF_01124;dRep_bin079_GAOGCKND_01577;dRep_bin056_EMNHHOJA_01381;dRep_bin321_EJNAAGJG_00783;dRep_bin257_JHFDCHCB_00230;dRep_bin143_PFLDJMPF_01136;dRep_bin340_OFLHNGJM_01032;dRep_bin277_MIPNGEJE_01470;dRep_bin231_CFOLMJBA_00061	>dRep_bin293_MEPKGOAN_00097 30S ribosomal protein S9;>dRep_bin047_IFFANOMN_00065 30S ribosomal protein S9;>dRep_bin269_PNILGKPH_00704 30S ribosomal protein S9;>dRep_bin238_OLNFACLE_01472 30S ribosomal protein S9;>dRep_bin124_HIHDFGCL_00696 30S ribosomal pr	dRep_bin277_MIPNGEJE_01470	CDS	rpsI		30S ribosomal protein S9
MIPNGEJE_01594							26.286319999999996					1	1	2,9288E-05	dRep_bin277_MIPNGEJE_01594	dRep_bin277_MIPNGEJE_01594	>dRep_bin277_MIPNGEJE_01594 Bile acid 7-dehydroxylase 1/3	dRep_bin277_MIPNGEJE_01594	CDS	baiA1	1.1.1.395	Bile acid 7-dehydroxylase 1/3
MIPNGEJE_01644					23.00606	23.896980000000003						2	1	8,6813E-10	dRep_bin324_IPNHOHFK_01144;dRep_bin297_EDHEEICA_00687;dRep_bin292_JIBLDOOH_02195;dRep_bin261_FJICAFFM_00057;dRep_bin226_NLNLHLLD_01357;dRep_bin209_NKIHFCEN_00791;dRep_bin203_CLFNNOCF_00406;dRep_bin179_HFEIPPPA_00190;dRep_bin157_JPNIKEKI_00583;dRep_bin133_NOBPDBPA_01168;dRep_bin041_OPKGAAAG_01275;dRep_bin168_HKDILBFE_01397;dRep_bin130_OIFFANPF_00962;dRep_bin083_OCBADPJJ_00812;dRep_bin169_PNICKJKO_00385;dRep_bin319_PBDBJGCJ_01796;dRep_bin109_MJABCPAK_00038;dRep_bin106_BKDHGPBE_00849;dRep_bin216_JNJMCPHB_01613;dRep_bin299_AKNBKJGM_00580;dRep_bin100_CODMOHGB_00911;dRep_bin317_ABPHNCOD_01390;dRep_bin272_LGBDGEIM_00788;dRep_bin249_OFIIEIDJ_00467;dRep_bin066_AJACLPEE_01038;dRep_bin335_JIOGNAPG_00681;dRep_bin234_ECABPBME_00227;dRep_bin088_DNGPPFDK_01237;dRep_bin303_DDDNDJCF_00797;dRep_bin300_MJPPENNL_00671;dRep_bin279_IAEFEPEN_01368;dRep_bin278_BFCONKOE_00336;dRep_bin269_PNILGKPH_01089;dRep_bin260_HELEPKJL_01496;dRep_bin089_PAJFOJBN_00528;dRep_bin027_OFJCHLJJ_00828;dRep_bin019_MOJEPLJF_01606;dRep_bin116_CLFDBMOF_00536;dRep_bin057_BNCFHBBO_00059;dRep_bin134_HIAPAODO_00123;dRep_bin322_OJELOJOF_01583;dRep_bin270_GEJAHNCN_00957;dRep_bin348_LCLFDNEE_00829;dRep_bin295_EJGKDKNE_00315;dRep_bin277_MIPNGEJE_01644;dRep_bin166_DFIAJFEC_00192;dRep_bin264_DNFFGNEG_00340;dRep_bin153_JGABJFBF_01236;dRep_bin114_FJHJKHGL_00133;dRep_bin111_FPJIHFKE_00195;dRep_bin252_NDAKLAGD_00473;dRep_bin247_EKGBJCBM_00710;dRep_bin035_JBNPBOKG_01025;dRep_bin026_HNPIIINL_00916;dRep_bin085_MBHLGCDB_01217;dRep_bin068_ENOLAELK_00657;dRep_bin049_MNFBDPNO_00064;dRep_bin038_EIGFILKG_00881;dRep_bin152_LJMCIADF_01515;dRep_bin079_GAOGCKND_00762;dRep_bin231_CFOLMJBA_00732;dRep_bin126_PPDNCIBN_00705;dRep_bin333_EFOKIBLA_00857;dRep_bin123_PJKBFKBB_00290;dRep_bin185_OOOLKACK_01362;dRep_bin305_FCIEFIHE_01147;dRep_bin070_EMBHKIOF_00605;dRep_bin006_HPJGJCAG_01539;dRep_bin101_BNDDLDCL_00049;dRep_bin331_HPKAPHAF_00752;dRep_bin301_NJFJIJGA_00013;dRep_bin037_GEAOEKHA_01146;dRep_bin087_FCLGAPPI_00654;dRep_bin159_ADJJGPBG_01916;dRep_bin304_JDNJGFKH_01533;dRep_bin120_EKLBOPNC_00943;dRep_bin162_JBGCCDIN_00762;dRep_bin072_JOBJPCGA_01185;dRep_bin320_LDBKCCKL_00985;dRep_bin245_MBCFLKOF_00867;dRep_bin010_MFFFGEGD_00116;dRep_bin205_LKIOOBKC_01048;dRep_bin043_KLAFNACO_01234;dRep_bin011_KOGMKLNO_01366;dRep_bin189_AHHEHGDL_01620;dRep_bin222_GGCAJABB_00316;dRep_bin208_DHPGEIBC_01479;dRep_bin130_OIFFANPF_00887	dRep_bin324_IPNHOHFK_01144;dRep_bin297_EDHEEICA_00687;dRep_bin292_JIBLDOOH_02195;dRep_bin261_FJICAFFM_00057;dRep_bin226_NLNLHLLD_01357;dRep_bin209_NKIHFCEN_00791;dRep_bin203_CLFNNOCF_00406;dRep_bin179_HFEIPPPA_00190;dRep_bin157_JPNIKEKI_00583;dRep_bin133_NOBPDBPA_01168;dRep_bin041_OPKGAAAG_01275;dRep_bin168_HKDILBFE_01397;dRep_bin130_OIFFANPF_00962;dRep_bin083_OCBADPJJ_00812;dRep_bin169_PNICKJKO_00385;dRep_bin319_PBDBJGCJ_01796;dRep_bin109_MJABCPAK_00038;dRep_bin106_BKDHGPBE_00849;dRep_bin216_JNJMCPHB_01613;dRep_bin299_AKNBKJGM_00580;dRep_bin100_CODMOHGB_00911;dRep_bin317_ABPHNCOD_01390;dRep_bin272_LGBDGEIM_00788;dRep_bin249_OFIIEIDJ_00467;dRep_bin066_AJACLPEE_01038;dRep_bin335_JIOGNAPG_00681;dRep_bin234_ECABPBME_00227;dRep_bin088_DNGPPFDK_01237;dRep_bin303_DDDNDJCF_00797;dRep_bin300_MJPPENNL_00671;dRep_bin279_IAEFEPEN_01368;dRep_bin278_BFCONKOE_00336;dRep_bin269_PNILGKPH_01089;dRep_bin260_HELEPKJL_01496;dRep_bin089_PAJFOJBN_00528;dRep_bin027_OFJCHLJJ_00828;dRep_bin019_MOJEPLJF_01606;dRep_bin116_CLFDBMOF_00536;dRep_bin057_BNCFHBBO_00059;dRep_bin134_HIAPAODO_00123;dRep_bin322_OJELOJOF_01583;dRep_bin270_GEJAHNCN_00957;dRep_bin348_LCLFDNEE_00829;dRep_bin295_EJGKDKNE_00315;dRep_bin277_MIPNGEJE_01644;dRep_bin166_DFIAJFEC_00192;dRep_bin264_DNFFGNEG_00340;dRep_bin153_JGABJFBF_01236;dRep_bin114_FJHJKHGL_00133;dRep_bin111_FPJIHFKE_00195;dRep_bin252_NDAKLAGD_00473;dRep_bin247_EKGBJCBM_00710;dRep_bin035_JBNPBOKG_01025;dRep_bin026_HNPIIINL_00916;dRep_bin085_MBHLGCDB_01217;dRep_bin068_ENOLAELK_00657;dRep_bin049_MNFBDPNO_00064;dRep_bin038_EIGFILKG_00881;dRep_bin152_LJMCIADF_01515;dRep_bin079_GAOGCKND_00762;dRep_bin231_CFOLMJBA_00732;dRep_bin126_PPDNCIBN_00705;dRep_bin333_EFOKIBLA_00857;dRep_bin123_PJKBFKBB_00290;dRep_bin185_OOOLKACK_01362;dRep_bin305_FCIEFIHE_01147;dRep_bin070_EMBHKIOF_00605;dRep_bin006_HPJGJCAG_01539;dRep_bin101_BNDDLDCL_00049;dRep_bin331_HPKAPHAF_00752;dRep_bin301_NJFJIJGA_00013;dRep_bin037_GEAOEKHA_01146;dRep_bin087_FCLGAPPI_00654;dRep_bin159_ADJJGPBG_01916;dRep_bin304_JDNJGFKH_01533;dRep_bin120_EKLBOPNC_00943;dRep_bin162_JBGCCDIN_00762;dRep_bin072_JOBJPCGA_01185;dRep_bin320_LDBKCCKL_00985;dRep_bin245_MBCFLKOF_00867;dRep_bin010_MFFFGEGD_00116;dRep_bin205_LKIOOBKC_01048;dRep_bin043_KLAFNACO_01234;dRep_bin011_KOGMKLNO_01366;dRep_bin189_AHHEHGDL_01620;dRep_bin222_GGCAJABB_00316;dRep_bin208_DHPGEIBC_01479;dRep_bin130_OIFFANPF_00887	>dRep_bin324_IPNHOHFK_01144 Glutaconyl-CoA decarboxylase subunit beta;>dRep_bin297_EDHEEICA_00687 Glutaconyl-CoA decarboxylase subunit beta;>dRep_bin292_JIBLDOOH_02195 Glutaconyl-CoA decarboxylase subunit beta;>dRep_bin261_FJICAFFM_00057 Glutaconyl-CoA dec	dRep_bin277_MIPNGEJE_01644	CDS	gcdB	4.1.1.70	Glutaconyl-CoA decarboxylase subunit beta
MIPNGEJE_01649	23.363860000000003	23.292629999999996	21.831090000000003	21.80349	22.67334	21.34711	22.654210000000003	22.26382				2	2	1,6009E-05	dRep_bin277_MIPNGEJE_01649	dRep_bin277_MIPNGEJE_01649	>dRep_bin277_MIPNGEJE_01649 Fructosamine deglycase FrlB	dRep_bin277_MIPNGEJE_01649	CDS	frlB_5	3.5.-.-	Fructosamine deglycase FrlB
