GBprotID	LFQ intensity CtrPig1	LFQ intensity CtrPig2	LFQ intensity CtrPig3	LFQ intensity CtrPig4	LFQ intensity MannanPig1	LFQ intensity MannanPig2	LFQ intensity MannanPig3	LFQ intensity MannanPig4	Only identified by site	Reverse	Contaminant	Peptides	Unique peptides	PEP	Protein IDs	Majority protein IDs	Fasta headers	IDcomb	ftype	gene	EC_number	product
BFCONKOE_00004		24.334360000000004										1	1	3,7295E-05	dRep_bin335_JIOGNAPG_01584;dRep_bin322_OJELOJOF_01326;dRep_bin287_DONBGKDH_00517;dRep_bin135_HHKACLPM_00736;dRep_bin145_KMJJJOEJ_01374;dRep_bin075_EPEMMOCL_00326;dRep_bin278_BFCONKOE_00004	dRep_bin335_JIOGNAPG_01584;dRep_bin322_OJELOJOF_01326;dRep_bin287_DONBGKDH_00517;dRep_bin135_HHKACLPM_00736;dRep_bin145_KMJJJOEJ_01374;dRep_bin075_EPEMMOCL_00326;dRep_bin278_BFCONKOE_00004	>dRep_bin335_JIOGNAPG_01584 Acetylornithine aminotransferase;>dRep_bin322_OJELOJOF_01326 Acetylornithine aminotransferase;>dRep_bin287_DONBGKDH_00517 Acetylornithine aminotransferase;>dRep_bin135_HHKACLPM_00736 Acetylornithine aminotransferase;>dRep_bin145	dRep_bin278_BFCONKOE_00004	CDS	argD	2.6.1.11	Acetylornithine aminotransferase
BFCONKOE_00029	25.94682	27.41659	26.45161	27.553990000000002								12	1	1,9517E-56	dRep_bin133_NOBPDBPA_02405;dRep_bin278_BFCONKOE_00029	dRep_bin133_NOBPDBPA_02405	>dRep_bin133_NOBPDBPA_02405 Phosphoserine aminotransferase	dRep_bin278_BFCONKOE_00029	CDS	serC	2.6.1.52	Phosphoserine aminotransferase
BFCONKOE_00058			23.969829999999998									1	1	0,0044287	dRep_bin278_BFCONKOE_00058	dRep_bin278_BFCONKOE_00058	>dRep_bin278_BFCONKOE_00058 Phosphoribosylaminoimidazole-succinocarboxamide synthase	dRep_bin278_BFCONKOE_00058	CDS	purC	6.3.2.6	Phosphoribosylaminoimidazole-succinocarboxamide synthase
BFCONKOE_00123		24.89731										5	2	6,2208E-39	dRep_bin278_BFCONKOE_00123;dRep_bin029_LFMGBBEC_01676;dRep_bin349_AMCJEEEG_00957;dRep_bin312_MJFEFHMP_01073;dRep_bin195_DDMDFNOK_00825;dRep_bin188_EJILNMPE_00129;dRep_bin298_EIPJCOMF_01432	dRep_bin278_BFCONKOE_00123	>dRep_bin278_BFCONKOE_00123 Rubrerythrin-1	dRep_bin278_BFCONKOE_00123	CDS	rbr1	1.11.1.1	Rubrerythrin-1
BFCONKOE_00151								24.333880000000004				5	1	4,9304E-33	dRep_bin165_HMDFFMMM_00401;dRep_bin354_MMOALAFN_01035;dRep_bin278_BFCONKOE_00151;dRep_bin049_MNFBDPNO_00770	dRep_bin165_HMDFFMMM_00401	>dRep_bin165_HMDFFMMM_00401 Bifunctional purine biosynthesis protein PurH	dRep_bin278_BFCONKOE_00151	CDS	purH		Bifunctional purine biosynthesis protein PurH
BFCONKOE_00220					24.83268	25.958789999999997	25.005599999999998					2	2	9,5407E-14	dRep_bin344_CJJBDGAA_00523;dRep_bin057_BNCFHBBO_00358;dRep_bin019_MOJEPLJF_01089;dRep_bin269_PNILGKPH_01721;dRep_bin095_HOBNOEEF_00325;dRep_bin179_HFEIPPPA_00543;dRep_bin292_JIBLDOOH_01198;dRep_bin203_CLFNNOCF_02014;dRep_bin322_OJELOJOF_00079;dRep_bin243_JDMELKLC_00639;dRep_bin029_LFMGBBEC_00202;dRep_bin167_BLMEBMNN_00528;dRep_bin268_LKMHIMLG_00933;dRep_bin325_EIIGOGHN_00136;dRep_bin253_CPMOAOBJ_01393;dRep_bin248_CCDFPECI_01736;dRep_bin279_IAEFEPEN_01247;dRep_bin266_JFOCEDAE_01546;dRep_bin278_BFCONKOE_00220;dRep_bin041_OPKGAAAG_00997;dRep_bin127_FIPNHBCH_00169	dRep_bin344_CJJBDGAA_00523;dRep_bin057_BNCFHBBO_00358;dRep_bin019_MOJEPLJF_01089;dRep_bin269_PNILGKPH_01721;dRep_bin095_HOBNOEEF_00325;dRep_bin179_HFEIPPPA_00543;dRep_bin292_JIBLDOOH_01198;dRep_bin203_CLFNNOCF_02014;dRep_bin322_OJELOJOF_00079;dRep_bin243_JDMELKLC_00639;dRep_bin029_LFMGBBEC_00202;dRep_bin167_BLMEBMNN_00528;dRep_bin268_LKMHIMLG_00933;dRep_bin325_EIIGOGHN_00136;dRep_bin253_CPMOAOBJ_01393;dRep_bin248_CCDFPECI_01736;dRep_bin279_IAEFEPEN_01247;dRep_bin266_JFOCEDAE_01546;dRep_bin278_BFCONKOE_00220;dRep_bin041_OPKGAAAG_00997;dRep_bin127_FIPNHBCH_00169	>dRep_bin344_CJJBDGAA_00523 Sirohydrochlorin cobaltochelatase;>dRep_bin057_BNCFHBBO_00358 Sirohydrochlorin cobaltochelatase;>dRep_bin019_MOJEPLJF_01089 Sirohydrochlorin cobaltochelatase;>dRep_bin269_PNILGKPH_01721 Sirohydrochlorin cobaltochelatase;>dRep_bi	dRep_bin278_BFCONKOE_00220	CDS	cbiK	4.99.1.3	Sirohydrochlorin cobaltochelatase
BFCONKOE_00221			23.21944	23.824830000000002								17	2	0	dRep_bin278_BFCONKOE_00221	dRep_bin278_BFCONKOE_00221	>dRep_bin278_BFCONKOE_00221 Phosphoenolpyruvate carboxykinase (ATP)	dRep_bin278_BFCONKOE_00221	CDS	pckA	4.1.1.49	Phosphoenolpyruvate carboxykinase (ATP)
BFCONKOE_00319	31.130870000000005	28.64478	30.193900000000003	28.856170000000002	28.45509	29.71892	28.53208	28.98785				2	1	1,6218E-06	dRep_bin278_BFCONKOE_00319	dRep_bin278_BFCONKOE_00319	>dRep_bin278_BFCONKOE_00319 Glyceraldehyde-3-phosphate dehydrogenase	dRep_bin278_BFCONKOE_00319	CDS	gap	1.2.1.12	Glyceraldehyde-3-phosphate dehydrogenase
BFCONKOE_00320				23.06191								8	1	5,4456E-252	dRep_bin278_BFCONKOE_00320	dRep_bin278_BFCONKOE_00320	>dRep_bin278_BFCONKOE_00320 Bifunctional PGK/TIM	dRep_bin278_BFCONKOE_00320	CDS	pgk/tpi		Bifunctional PGK/TIM
BFCONKOE_00321	28.378529999999998	28.74996	26.408139999999996	26.60837	26.500439999999998	26.78781						2	2	9,2888E-142	dRep_bin278_BFCONKOE_00321	dRep_bin278_BFCONKOE_00321	>dRep_bin278_BFCONKOE_00321 Triosephosphate isomerase	dRep_bin278_BFCONKOE_00321	CDS	tpiA	5.3.1.1	Triosephosphate isomerase
BFCONKOE_00336					23.00606	23.896980000000003						2	1	8,6813E-10	dRep_bin324_IPNHOHFK_01144;dRep_bin297_EDHEEICA_00687;dRep_bin292_JIBLDOOH_02195;dRep_bin261_FJICAFFM_00057;dRep_bin226_NLNLHLLD_01357;dRep_bin209_NKIHFCEN_00791;dRep_bin203_CLFNNOCF_00406;dRep_bin179_HFEIPPPA_00190;dRep_bin157_JPNIKEKI_00583;dRep_bin133_NOBPDBPA_01168;dRep_bin041_OPKGAAAG_01275;dRep_bin168_HKDILBFE_01397;dRep_bin130_OIFFANPF_00962;dRep_bin083_OCBADPJJ_00812;dRep_bin169_PNICKJKO_00385;dRep_bin319_PBDBJGCJ_01796;dRep_bin109_MJABCPAK_00038;dRep_bin106_BKDHGPBE_00849;dRep_bin216_JNJMCPHB_01613;dRep_bin299_AKNBKJGM_00580;dRep_bin100_CODMOHGB_00911;dRep_bin317_ABPHNCOD_01390;dRep_bin272_LGBDGEIM_00788;dRep_bin249_OFIIEIDJ_00467;dRep_bin066_AJACLPEE_01038;dRep_bin335_JIOGNAPG_00681;dRep_bin234_ECABPBME_00227;dRep_bin088_DNGPPFDK_01237;dRep_bin303_DDDNDJCF_00797;dRep_bin300_MJPPENNL_00671;dRep_bin279_IAEFEPEN_01368;dRep_bin278_BFCONKOE_00336;dRep_bin269_PNILGKPH_01089;dRep_bin260_HELEPKJL_01496;dRep_bin089_PAJFOJBN_00528;dRep_bin027_OFJCHLJJ_00828;dRep_bin019_MOJEPLJF_01606;dRep_bin116_CLFDBMOF_00536;dRep_bin057_BNCFHBBO_00059;dRep_bin134_HIAPAODO_00123;dRep_bin322_OJELOJOF_01583;dRep_bin270_GEJAHNCN_00957;dRep_bin348_LCLFDNEE_00829;dRep_bin295_EJGKDKNE_00315;dRep_bin277_MIPNGEJE_01644;dRep_bin166_DFIAJFEC_00192;dRep_bin264_DNFFGNEG_00340;dRep_bin153_JGABJFBF_01236;dRep_bin114_FJHJKHGL_00133;dRep_bin111_FPJIHFKE_00195;dRep_bin252_NDAKLAGD_00473;dRep_bin247_EKGBJCBM_00710;dRep_bin035_JBNPBOKG_01025;dRep_bin026_HNPIIINL_00916;dRep_bin085_MBHLGCDB_01217;dRep_bin068_ENOLAELK_00657;dRep_bin049_MNFBDPNO_00064;dRep_bin038_EIGFILKG_00881;dRep_bin152_LJMCIADF_01515;dRep_bin079_GAOGCKND_00762;dRep_bin231_CFOLMJBA_00732;dRep_bin126_PPDNCIBN_00705;dRep_bin333_EFOKIBLA_00857;dRep_bin123_PJKBFKBB_00290;dRep_bin185_OOOLKACK_01362;dRep_bin305_FCIEFIHE_01147;dRep_bin070_EMBHKIOF_00605;dRep_bin006_HPJGJCAG_01539;dRep_bin101_BNDDLDCL_00049;dRep_bin331_HPKAPHAF_00752;dRep_bin301_NJFJIJGA_00013;dRep_bin037_GEAOEKHA_01146;dRep_bin087_FCLGAPPI_00654;dRep_bin159_ADJJGPBG_01916;dRep_bin304_JDNJGFKH_01533;dRep_bin120_EKLBOPNC_00943;dRep_bin162_JBGCCDIN_00762;dRep_bin072_JOBJPCGA_01185;dRep_bin320_LDBKCCKL_00985;dRep_bin245_MBCFLKOF_00867;dRep_bin010_MFFFGEGD_00116;dRep_bin205_LKIOOBKC_01048;dRep_bin043_KLAFNACO_01234;dRep_bin011_KOGMKLNO_01366;dRep_bin189_AHHEHGDL_01620;dRep_bin222_GGCAJABB_00316;dRep_bin208_DHPGEIBC_01479;dRep_bin130_OIFFANPF_00887	dRep_bin324_IPNHOHFK_01144;dRep_bin297_EDHEEICA_00687;dRep_bin292_JIBLDOOH_02195;dRep_bin261_FJICAFFM_00057;dRep_bin226_NLNLHLLD_01357;dRep_bin209_NKIHFCEN_00791;dRep_bin203_CLFNNOCF_00406;dRep_bin179_HFEIPPPA_00190;dRep_bin157_JPNIKEKI_00583;dRep_bin133_NOBPDBPA_01168;dRep_bin041_OPKGAAAG_01275;dRep_bin168_HKDILBFE_01397;dRep_bin130_OIFFANPF_00962;dRep_bin083_OCBADPJJ_00812;dRep_bin169_PNICKJKO_00385;dRep_bin319_PBDBJGCJ_01796;dRep_bin109_MJABCPAK_00038;dRep_bin106_BKDHGPBE_00849;dRep_bin216_JNJMCPHB_01613;dRep_bin299_AKNBKJGM_00580;dRep_bin100_CODMOHGB_00911;dRep_bin317_ABPHNCOD_01390;dRep_bin272_LGBDGEIM_00788;dRep_bin249_OFIIEIDJ_00467;dRep_bin066_AJACLPEE_01038;dRep_bin335_JIOGNAPG_00681;dRep_bin234_ECABPBME_00227;dRep_bin088_DNGPPFDK_01237;dRep_bin303_DDDNDJCF_00797;dRep_bin300_MJPPENNL_00671;dRep_bin279_IAEFEPEN_01368;dRep_bin278_BFCONKOE_00336;dRep_bin269_PNILGKPH_01089;dRep_bin260_HELEPKJL_01496;dRep_bin089_PAJFOJBN_00528;dRep_bin027_OFJCHLJJ_00828;dRep_bin019_MOJEPLJF_01606;dRep_bin116_CLFDBMOF_00536;dRep_bin057_BNCFHBBO_00059;dRep_bin134_HIAPAODO_00123;dRep_bin322_OJELOJOF_01583;dRep_bin270_GEJAHNCN_00957;dRep_bin348_LCLFDNEE_00829;dRep_bin295_EJGKDKNE_00315;dRep_bin277_MIPNGEJE_01644;dRep_bin166_DFIAJFEC_00192;dRep_bin264_DNFFGNEG_00340;dRep_bin153_JGABJFBF_01236;dRep_bin114_FJHJKHGL_00133;dRep_bin111_FPJIHFKE_00195;dRep_bin252_NDAKLAGD_00473;dRep_bin247_EKGBJCBM_00710;dRep_bin035_JBNPBOKG_01025;dRep_bin026_HNPIIINL_00916;dRep_bin085_MBHLGCDB_01217;dRep_bin068_ENOLAELK_00657;dRep_bin049_MNFBDPNO_00064;dRep_bin038_EIGFILKG_00881;dRep_bin152_LJMCIADF_01515;dRep_bin079_GAOGCKND_00762;dRep_bin231_CFOLMJBA_00732;dRep_bin126_PPDNCIBN_00705;dRep_bin333_EFOKIBLA_00857;dRep_bin123_PJKBFKBB_00290;dRep_bin185_OOOLKACK_01362;dRep_bin305_FCIEFIHE_01147;dRep_bin070_EMBHKIOF_00605;dRep_bin006_HPJGJCAG_01539;dRep_bin101_BNDDLDCL_00049;dRep_bin331_HPKAPHAF_00752;dRep_bin301_NJFJIJGA_00013;dRep_bin037_GEAOEKHA_01146;dRep_bin087_FCLGAPPI_00654;dRep_bin159_ADJJGPBG_01916;dRep_bin304_JDNJGFKH_01533;dRep_bin120_EKLBOPNC_00943;dRep_bin162_JBGCCDIN_00762;dRep_bin072_JOBJPCGA_01185;dRep_bin320_LDBKCCKL_00985;dRep_bin245_MBCFLKOF_00867;dRep_bin010_MFFFGEGD_00116;dRep_bin205_LKIOOBKC_01048;dRep_bin043_KLAFNACO_01234;dRep_bin011_KOGMKLNO_01366;dRep_bin189_AHHEHGDL_01620;dRep_bin222_GGCAJABB_00316;dRep_bin208_DHPGEIBC_01479;dRep_bin130_OIFFANPF_00887	>dRep_bin324_IPNHOHFK_01144 Glutaconyl-CoA decarboxylase subunit beta;>dRep_bin297_EDHEEICA_00687 Glutaconyl-CoA decarboxylase subunit beta;>dRep_bin292_JIBLDOOH_02195 Glutaconyl-CoA decarboxylase subunit beta;>dRep_bin261_FJICAFFM_00057 Glutaconyl-CoA dec	dRep_bin278_BFCONKOE_00336	CDS	gcdB_1	4.1.1.70	Glutaconyl-CoA decarboxylase subunit beta
BFCONKOE_00362								21.18235				1	1	0,0021403	dRep_bin278_BFCONKOE_00362	dRep_bin278_BFCONKOE_00362	>dRep_bin278_BFCONKOE_00362 3-hydroxy-5-phosphonooxypentane-2,4-dione thiolase	dRep_bin278_BFCONKOE_00362	CDS	lsrF	2.3.1.245	3-hydroxy-5-phosphonooxypentane-2,4-dione thiolase
BFCONKOE_00375					21.57773							2	1	0,00032742	dRep_bin278_BFCONKOE_00375	dRep_bin278_BFCONKOE_00375	>dRep_bin278_BFCONKOE_00375 Branched-chain-amino-acid aminotransferase	dRep_bin278_BFCONKOE_00375	CDS	ilvE	2.6.1.42	Branched-chain-amino-acid aminotransferase
BFCONKOE_00391	24.54681		24.82556	24.07912	25.68075	24.960489999999997	25.71652	24.847850000000005				4	2	6,1747E-25	dRep_bin201_OLKDIBOK_01863;dRep_bin310_IMBAFDIF_00705;dRep_bin143_PFLDJMPF_00140;dRep_bin319_PBDBJGCJ_00958;dRep_bin135_HHKACLPM_01053;dRep_bin344_CJJBDGAA_00153;dRep_bin306_FGHMKMMP_01802;dRep_bin234_ECABPBME_01586;dRep_bin089_PAJFOJBN_01484;dRep_bin254_GJDPFAEA_01912;dRep_bin321_EJNAAGJG_00130;dRep_bin273_FGAEBHNP_01256;dRep_bin323_FBBLPLCG_00944;dRep_bin336_MPGOKPOL_02018;dRep_bin147_EJLBNEBE_01335;dRep_bin269_PNILGKPH_01519;dRep_bin287_DONBGKDH_01452;dRep_bin300_MJPPENNL_00258;dRep_bin065_DFABHCBI_01106;dRep_bin017_FGFLFOPJ_00960;dRep_bin226_NLNLHLLD_00912;dRep_bin160_EFKMPBOM_02042;dRep_bin047_IFFANOMN_00584;dRep_bin016_JLGAHGOJ_00526;dRep_bin309_BIOHLCGG_00717;dRep_bin278_BFCONKOE_00391;dRep_bin172_ALNHGLMD_01390	dRep_bin201_OLKDIBOK_01863;dRep_bin310_IMBAFDIF_00705;dRep_bin143_PFLDJMPF_00140;dRep_bin319_PBDBJGCJ_00958;dRep_bin135_HHKACLPM_01053;dRep_bin344_CJJBDGAA_00153;dRep_bin306_FGHMKMMP_01802;dRep_bin234_ECABPBME_01586;dRep_bin089_PAJFOJBN_01484;dRep_bin254_GJDPFAEA_01912;dRep_bin321_EJNAAGJG_00130;dRep_bin273_FGAEBHNP_01256;dRep_bin323_FBBLPLCG_00944;dRep_bin336_MPGOKPOL_02018;dRep_bin147_EJLBNEBE_01335;dRep_bin269_PNILGKPH_01519;dRep_bin287_DONBGKDH_01452;dRep_bin300_MJPPENNL_00258;dRep_bin065_DFABHCBI_01106;dRep_bin017_FGFLFOPJ_00960;dRep_bin226_NLNLHLLD_00912;dRep_bin160_EFKMPBOM_02042;dRep_bin047_IFFANOMN_00584;dRep_bin016_JLGAHGOJ_00526;dRep_bin309_BIOHLCGG_00717;dRep_bin278_BFCONKOE_00391	>dRep_bin201_OLKDIBOK_01863 Lysine--tRNA ligase;>dRep_bin310_IMBAFDIF_00705 Lysine--tRNA ligase;>dRep_bin143_PFLDJMPF_00140 Lysine--tRNA ligase;>dRep_bin319_PBDBJGCJ_00958 Lysine--tRNA ligase;>dRep_bin135_HHKACLPM_01053 Lysine--tRNA ligase;>dRep_bin344_CJJ	dRep_bin278_BFCONKOE_00391	CDS	lysS	6.1.1.6	Lysine--tRNA ligase
BFCONKOE_00395								23.62778				4	1	3,6641E-10	dRep_bin139_KGAJINND_00546;dRep_bin344_CJJBDGAA_00504;dRep_bin269_PNILGKPH_01782;dRep_bin186_HJAAFFNP_01230;dRep_bin160_EFKMPBOM_02028;dRep_bin154_JGOKHKLI_01570;dRep_bin027_OFJCHLJJ_01704;dRep_bin019_MOJEPLJF_00393;dRep_bin095_HOBNOEEF_01900;dRep_bin007_LNLEAAAN_01664;dRep_bin134_HIAPAODO_02032;dRep_bin220_PILICLLL_00626;dRep_bin201_OLKDIBOK_01146;dRep_bin158_OGFICEAP_00831;dRep_bin261_FJICAFFM_00403;dRep_bin347_EKGCMFPD_01461;dRep_bin328_GIGKNKPJ_00617;dRep_bin308_JBPDGLPP_01735;dRep_bin284_DEHKNOBF_00839;dRep_bin254_GJDPFAEA_01844;dRep_bin127_FIPNHBCH_00020;dRep_bin081_JDPCKDNP_00351;dRep_bin065_DFABHCBI_01741;dRep_bin001_GHHJMDAL_00049;dRep_bin335_JIOGNAPG_00092;dRep_bin282_PKAAPBFP_00201;dRep_bin260_HELEPKJL_01120;dRep_bin039_IJNOFOJK_00928;dRep_bin088_DNGPPFDK_00468;dRep_bin248_CCDFPECI_00111;dRep_bin107_EFNBPDOP_01463;dRep_bin077_DNNBMPMC_00533;dRep_bin300_MJPPENNL_00852;dRep_bin279_IAEFEPEN_01391;dRep_bin145_KMJJJOEJ_01298;dRep_bin062_BOFBFLDA_00998;dRep_bin016_JLGAHGOJ_00540;dRep_bin310_IMBAFDIF_00139;dRep_bin115_IFKGOGCL_00786;dRep_bin158_OGFICEAP_00832;dRep_bin066_AJACLPEE_00773;dRep_bin249_OFIIEIDJ_01720;dRep_bin324_IPNHOHFK_00378;dRep_bin287_DONBGKDH_00056;dRep_bin186_HJAAFFNP_01363;dRep_bin181_MKGPMPIA_00052;dRep_bin319_PBDBJGCJ_00396;dRep_bin278_BFCONKOE_00395;dRep_bin024_OLHDGABE_00254;dRep_bin135_HHKACLPM_01039	dRep_bin139_KGAJINND_00546;dRep_bin344_CJJBDGAA_00504;dRep_bin269_PNILGKPH_01782;dRep_bin186_HJAAFFNP_01230;dRep_bin160_EFKMPBOM_02028;dRep_bin154_JGOKHKLI_01570;dRep_bin027_OFJCHLJJ_01704;dRep_bin019_MOJEPLJF_00393;dRep_bin095_HOBNOEEF_01900;dRep_bin007_LNLEAAAN_01664;dRep_bin134_HIAPAODO_02032;dRep_bin220_PILICLLL_00626;dRep_bin201_OLKDIBOK_01146;dRep_bin158_OGFICEAP_00831;dRep_bin261_FJICAFFM_00403;dRep_bin347_EKGCMFPD_01461;dRep_bin328_GIGKNKPJ_00617;dRep_bin308_JBPDGLPP_01735;dRep_bin284_DEHKNOBF_00839;dRep_bin254_GJDPFAEA_01844;dRep_bin127_FIPNHBCH_00020;dRep_bin081_JDPCKDNP_00351;dRep_bin065_DFABHCBI_01741;dRep_bin001_GHHJMDAL_00049;dRep_bin335_JIOGNAPG_00092;dRep_bin282_PKAAPBFP_00201;dRep_bin260_HELEPKJL_01120;dRep_bin039_IJNOFOJK_00928;dRep_bin088_DNGPPFDK_00468;dRep_bin248_CCDFPECI_00111;dRep_bin107_EFNBPDOP_01463;dRep_bin077_DNNBMPMC_00533;dRep_bin300_MJPPENNL_00852;dRep_bin279_IAEFEPEN_01391;dRep_bin145_KMJJJOEJ_01298;dRep_bin062_BOFBFLDA_00998;dRep_bin016_JLGAHGOJ_00540;dRep_bin310_IMBAFDIF_00139	>dRep_bin139_KGAJINND_00546 ATP-dependent 6-phosphofructokinase;>dRep_bin344_CJJBDGAA_00504 ATP-dependent 6-phosphofructokinase;>dRep_bin269_PNILGKPH_01782 ATP-dependent 6-phosphofructokinase;>dRep_bin186_HJAAFFNP_01230 ATP-dependent 6-phosphofructokinase;	dRep_bin278_BFCONKOE_00395	CDS	pfkA	2.7.1.11	ATP-dependent 6-phosphofructokinase
BFCONKOE_00417	23.81255	25.22457	23.542619999999996	24.362589999999997	23.70409	24.5583	24.057050000000004	24.01078				11	1	2,275E-49	dRep_bin041_OPKGAAAG_01266;dRep_bin278_BFCONKOE_00417;dRep_bin218_ACMPALGF_00295	dRep_bin041_OPKGAAAG_01266	>dRep_bin041_OPKGAAAG_01266 Polyribonucleotide nucleotidyltransferase	dRep_bin278_BFCONKOE_00417	CDS	pnp	2.7.7.8	Polyribonucleotide nucleotidyltransferase
BFCONKOE_00437							23.26026					5	1	2,4588E-13	dRep_bin278_BFCONKOE_00437	dRep_bin278_BFCONKOE_00437	>dRep_bin278_BFCONKOE_00437 Elongation factor G	dRep_bin278_BFCONKOE_00437	CDS	fusA_1		Elongation factor G
BFCONKOE_00439			28.77903	29.416960000000003	27.236439999999998	27.457870000000003	26.988259999999997	26.782069999999997				3	1	5,5654E-46	dRep_bin005_CNDFPKJG_00512;dRep_bin135_HHKACLPM_00996;dRep_bin007_LNLEAAAN_00555;dRep_bin303_DDDNDJCF_00538;dRep_bin328_GIGKNKPJ_00724;dRep_bin308_JBPDGLPP_01472;dRep_bin292_JIBLDOOH_00033;dRep_bin278_BFCONKOE_00439;dRep_bin269_PNILGKPH_00427;dRep_bin179_HFEIPPPA_01854;dRep_bin133_NOBPDBPA_03738;dRep_bin127_FIPNHBCH_00184;dRep_bin065_DFABHCBI_01543;dRep_bin039_IJNOFOJK_00835;dRep_bin031_BNHMFOII_01289;dRep_bin024_OLHDGABE_00632;dRep_bin001_GHHJMDAL_01042;dRep_bin027_OFJCHLJJ_01571;dRep_bin134_HIAPAODO_00757;dRep_bin339_DBNBAHDK_00274;dRep_bin268_LKMHIMLG_00767;dRep_bin215_ABBFGCAF_00889;dRep_bin142_NDNPJBEM_01236;dRep_bin347_EKGCMFPD_01033;dRep_bin325_EIIGOGHN_00650;dRep_bin310_IMBAFDIF_01183;dRep_bin293_MEPKGOAN_00730;dRep_bin282_PKAAPBFP_00286;dRep_bin100_CODMOHGB_00949;dRep_bin091_MAFACGAD_00437;dRep_bin079_GAOGCKND_00310;dRep_bin323_FBBLPLCG_01106;dRep_bin322_OJELOJOF_01654;dRep_bin273_FGAEBHNP_01366;dRep_bin266_JFOCEDAE_01192;dRep_bin231_CFOLMJBA_00878;dRep_bin194_MEPDOGGJ_01303;dRep_bin182_EMCFODCD_01258;dRep_bin169_PNICKJKO_01164;dRep_bin158_OGFICEAP_00873;dRep_bin115_IFKGOGCL_01307;dRep_bin108_BPNCDINP_01062;dRep_bin087_FCLGAPPI_00927;dRep_bin056_EMNHHOJA_01448;dRep_bin047_IFFANOMN_00919;dRep_bin044_IPFKHAEF_00004;dRep_bin026_HNPIIINL_00567;dRep_bin025_CBEJJMLE_00162;dRep_bin336_MPGOKPOL_00656;dRep_bin277_MIPNGEJE_00938;dRep_bin257_JHFDCHCB_01267;dRep_bin172_ALNHGLMD_01450;dRep_bin166_DFIAJFEC_00114;dRep_bin147_EJLBNEBE_01610;dRep_bin105_AAEIHAFF_01928	dRep_bin005_CNDFPKJG_00512;dRep_bin135_HHKACLPM_00996;dRep_bin007_LNLEAAAN_00555;dRep_bin303_DDDNDJCF_00538;dRep_bin328_GIGKNKPJ_00724;dRep_bin308_JBPDGLPP_01472;dRep_bin292_JIBLDOOH_00033;dRep_bin278_BFCONKOE_00439;dRep_bin269_PNILGKPH_00427;dRep_bin179_HFEIPPPA_01854;dRep_bin133_NOBPDBPA_03738;dRep_bin127_FIPNHBCH_00184;dRep_bin065_DFABHCBI_01543;dRep_bin039_IJNOFOJK_00835;dRep_bin031_BNHMFOII_01289;dRep_bin024_OLHDGABE_00632;dRep_bin001_GHHJMDAL_01042;dRep_bin027_OFJCHLJJ_01571	>dRep_bin005_CNDFPKJG_00512 30S ribosomal protein S12;>dRep_bin135_HHKACLPM_00996 30S ribosomal protein S12;>dRep_bin007_LNLEAAAN_00555 30S ribosomal protein S12;>dRep_bin303_DDDNDJCF_00538 30S ribosomal protein S12;>dRep_bin328_GIGKNKPJ_00724 30S ribosoma	dRep_bin278_BFCONKOE_00439	CDS	rpsL		30S ribosomal protein S12
BFCONKOE_00441			23.64229	23.74684				24.48296				18	3	3,8972E-149	dRep_bin220_PILICLLL_02028;dRep_bin278_BFCONKOE_00441;dRep_bin081_JDPCKDNP_00377;dRep_bin322_OJELOJOF_00804;dRep_bin248_CCDFPECI_00079;dRep_bin106_BKDHGPBE_00283;dRep_bin144_NPHACCKF_01724;dRep_bin122_JHMJFODI_00608;dRep_bin141_GMCOOECB_01066;dRep_bin213_HHHELMFN_00712;dRep_bin109_MJABCPAK_00085;dRep_bin085_MBHLGCDB_01100;dRep_bin024_OLHDGABE_00645;dRep_bin127_FIPNHBCH_00373;dRep_bin318_IEDEJOFJ_00277;dRep_bin155_CLHNKEHA_00696;dRep_bin218_ACMPALGF_01353;dRep_bin119_AKFBCGDO_01001;dRep_bin146_LCCIBLJG_00301;dRep_bin354_MMOALAFN_01658;dRep_bin347_EKGCMFPD_01037;dRep_bin227_IJODGBOI_00749;dRep_bin132_FAPBDCMG_00320;dRep_bin313_CJFGINPI_00866;dRep_bin156_GFIMJAAC_00888;dRep_bin342_BMMENEMP_00958;dRep_bin280_IMCGLKKG_00439;dRep_bin197_NHLBHFEI_00889;dRep_bin281_OGHLKMAI_00400;dRep_bin276_EHNFLEBP_02113;dRep_bin104_EGLEJOLM_01406;dRep_bin207_OHNPDPFI_01068;dRep_bin121_BHOOLFKN_00245;dRep_bin008_MNDMJLEI_00892;dRep_bin054_NNOKONMC_00872;dRep_bin011_KOGMKLNO_00879;dRep_bin142_NDNPJBEM_01584;dRep_bin333_EFOKIBLA_00720;dRep_bin223_PIMCDKJI_01633;dRep_bin120_EKLBOPNC_00731;dRep_bin177_HLHGKLFL_00449;dRep_bin140_ACFAKGIL_00447;dRep_bin304_JDNJGFKH_00598;dRep_bin245_MBCFLKOF_00047;dRep_bin208_DHPGEIBC_00902;dRep_bin010_MFFFGEGD_00183;dRep_bin083_OCBADPJJ_01145;dRep_bin222_GGCAJABB_00479;dRep_bin205_LKIOOBKC_01169;dRep_bin320_LDBKCCKL_00573;dRep_bin162_JBGCCDIN_01242;dRep_bin159_ADJJGPBG_01729;dRep_bin033_DLABHNFE_00633;dRep_bin012_KEBBILMO_00315;dRep_bin350_EKOOEEGH_01215;dRep_bin121_BHOOLFKN_01088;dRep_bin212_IEMJENOD_00205;dRep_bin161_JMKPMHCO_00073;dRep_bin353_PPDHLNJB_01811;dRep_bin195_DDMDFNOK_01689;dRep_bin327_EPEGNBAG_00663;dRep_bin241_LMMMGDNI_01611;dRep_bin334_NAPFFNLD_00132	dRep_bin220_PILICLLL_02028	>dRep_bin220_PILICLLL_02028 DNA-directed RNA polymerase subunit beta	dRep_bin278_BFCONKOE_00441	CDS	rpoB	2.7.7.6	DNA-directed RNA polymerase subunit beta
BFCONKOE_00457	30.39968	29.67538	30.44717	30.425219999999996	31.260639999999995	30.57172	30.795209999999997	30.47431				23	12	0	dRep_bin201_OLKDIBOK_00892;dRep_bin278_BFCONKOE_00457	dRep_bin201_OLKDIBOK_00892	>dRep_bin201_OLKDIBOK_00892 Pyruvate synthase	dRep_bin278_BFCONKOE_00457	CDS	por_1	1.2.7.1	Pyruvate synthase
BFCONKOE_00460	22.442129999999995		23.827260000000003	22.52984	24.373910000000002	23.1697	24.233810000000002	23.283759999999997				3	2	1,2032E-19	dRep_bin201_OLKDIBOK_02152;dRep_bin303_DDDNDJCF_00821;dRep_bin134_HIAPAODO_01657;dRep_bin287_DONBGKDH_00415;dRep_bin158_OGFICEAP_00108;dRep_bin257_JHFDCHCB_00470;dRep_bin323_FBBLPLCG_00211;dRep_bin169_PNICKJKO_00577;dRep_bin056_EMNHHOJA_00890;dRep_bin024_OLHDGABE_01284;dRep_bin066_AJACLPEE_00551;dRep_bin254_GJDPFAEA_01693;dRep_bin207_OHNPDPFI_01049;dRep_bin151_AHBJLMBI_00266;dRep_bin119_AKFBCGDO_00602;dRep_bin081_JDPCKDNP_00442;dRep_bin027_OFJCHLJJ_00341;dRep_bin009_KMMEHEKA_00446;dRep_bin322_OJELOJOF_01023;dRep_bin321_EJNAAGJG_00651;dRep_bin282_PKAAPBFP_01369;dRep_bin273_FGAEBHNP_01231;dRep_bin016_JLGAHGOJ_00303;dRep_bin147_EJLBNEBE_01876;dRep_bin026_HNPIIINL_01011;dRep_bin309_BIOHLCGG_00817;dRep_bin253_CPMOAOBJ_01191;dRep_bin278_BFCONKOE_00460;dRep_bin227_IJODGBOI_00814;dRep_bin220_PILICLLL_00789	dRep_bin201_OLKDIBOK_02152;dRep_bin303_DDDNDJCF_00821;dRep_bin134_HIAPAODO_01657;dRep_bin287_DONBGKDH_00415;dRep_bin158_OGFICEAP_00108;dRep_bin257_JHFDCHCB_00470;dRep_bin323_FBBLPLCG_00211;dRep_bin169_PNICKJKO_00577;dRep_bin056_EMNHHOJA_00890;dRep_bin024_OLHDGABE_01284	>dRep_bin201_OLKDIBOK_02152 Leucine--tRNA ligase;>dRep_bin303_DDDNDJCF_00821 Leucine--tRNA ligase;>dRep_bin134_HIAPAODO_01657 Leucine--tRNA ligase;>dRep_bin287_DONBGKDH_00415 Leucine--tRNA ligase;>dRep_bin158_OGFICEAP_00108 Leucine--tRNA ligase;>dRep_bin25	dRep_bin278_BFCONKOE_00460	CDS	leuS	6.1.1.4	Leucine--tRNA ligase
BFCONKOE_00465	27.93888	28.08055	28.59623	29.10584	28.738960000000002	28.662789999999998	28.481319999999997	27.92139				4	3	3,9674E-10	dRep_bin278_BFCONKOE_00465	dRep_bin278_BFCONKOE_00465	>dRep_bin278_BFCONKOE_00465 Acetate kinase	dRep_bin278_BFCONKOE_00465	CDS	ackA	2.7.2.1	Acetate kinase
BFCONKOE_00469	28.738789999999998	28.75124	29.01084	29.3506	29.64461	30.02168	29.81859	30.104370000000003				12	4	1,026E-72	dRep_bin191_NGFJMLOL_01578;dRep_bin070_EMBHKIOF_00129;dRep_bin154_JGOKHKLI_00366;dRep_bin055_IBMMJAEE_00161;dRep_bin328_GIGKNKPJ_00645;dRep_bin047_IFFANOMN_00612;dRep_bin027_OFJCHLJJ_00977;dRep_bin005_CNDFPKJG_01432;dRep_bin278_BFCONKOE_00469;dRep_bin282_PKAAPBFP_00320;dRep_bin284_DEHKNOBF_00421;dRep_bin303_DDDNDJCF_00133;dRep_bin287_DONBGKDH_00272;dRep_bin220_PILICLLL_00145;dRep_bin107_EFNBPDOP_01320;dRep_bin158_OGFICEAP_01424;dRep_bin323_FBBLPLCG_01090;dRep_bin318_IEDEJOFJ_00395;dRep_bin308_JBPDGLPP_01660;dRep_bin306_FGHMKMMP_01032;dRep_bin261_FJICAFFM_00034;dRep_bin240_LDBBGJKG_01385;dRep_bin234_ECABPBME_00209;dRep_bin181_MKGPMPIA_00707;dRep_bin077_DNNBMPMC_00629;dRep_bin066_AJACLPEE_00619;dRep_bin065_DFABHCBI_01813;dRep_bin023_HGFJFKAI_00570;dRep_bin235_EGJBMLPF_00465;dRep_bin186_HJAAFFNP_00454;dRep_bin145_KMJJJOEJ_01616;dRep_bin095_HOBNOEEF_00383	dRep_bin191_NGFJMLOL_01578;dRep_bin070_EMBHKIOF_00129	>dRep_bin191_NGFJMLOL_01578 hypothetical protein;>dRep_bin070_EMBHKIOF_00129 hypothetical protein	dRep_bin278_BFCONKOE_00469	CDS			hypothetical protein
BFCONKOE_00476		26.39522										1	1	1,4996E-17	dRep_bin278_BFCONKOE_00476	dRep_bin278_BFCONKOE_00476	>dRep_bin278_BFCONKOE_00476 hypothetical protein	dRep_bin278_BFCONKOE_00476	CDS			hypothetical protein
BFCONKOE_00536						23.423679999999997						3	1	1,2501E-12	dRep_bin278_BFCONKOE_00536	dRep_bin278_BFCONKOE_00536	>dRep_bin278_BFCONKOE_00536 Transaldolase	dRep_bin278_BFCONKOE_00536	CDS	tal	2.2.1.2	Transaldolase
BFCONKOE_00571	25.8986	25.973339999999997	26.19903	26.281	26.514310000000002	26.59049	25.7571	26.25906				4	1	4,6283E-12	dRep_bin145_KMJJJOEJ_01258;dRep_bin242_LKAIBGGJ_00691;dRep_bin081_JDPCKDNP_01525;dRep_bin317_ABPHNCOD_01232;dRep_bin347_EKGCMFPD_00789;dRep_bin282_PKAAPBFP_00053;dRep_bin039_IJNOFOJK_00980;dRep_bin001_GHHJMDAL_00862;dRep_bin272_LGBDGEIM_01970;dRep_bin186_HJAAFFNP_02184;dRep_bin005_CNDFPKJG_01374;dRep_bin332_KAOPCDPF_00412;dRep_bin167_BLMEBMNN_01248;dRep_bin260_HELEPKJL_00916;dRep_bin160_EFKMPBOM_00919;dRep_bin209_NKIHFCEN_00567;dRep_bin158_OGFICEAP_02130;dRep_bin283_NLJJFFAC_01508;dRep_bin278_BFCONKOE_00571;dRep_bin325_EIIGOGHN_00662;dRep_bin218_ACMPALGF_01369;dRep_bin094_LBLICAAO_00052;dRep_bin299_AKNBKJGM_01021;dRep_bin157_JPNIKEKI_01309;dRep_bin075_EPEMMOCL_02359;dRep_bin055_IBMMJAEE_00109;dRep_bin306_FGHMKMMP_00327;dRep_bin216_JNJMCPHB_00254;dRep_bin292_JIBLDOOH_01625;dRep_bin179_HFEIPPPA_02175;dRep_bin133_NOBPDBPA_01803;dRep_bin088_DNGPPFDK_01392;dRep_bin024_OLHDGABE_00503;dRep_bin324_IPNHOHFK_01870;dRep_bin203_CLFNNOCF_00851;dRep_bin017_FGFLFOPJ_00925;dRep_bin065_DFABHCBI_01998;dRep_bin192_GCMBELNN_00043;dRep_bin310_IMBAFDIF_01495;dRep_bin218_ACMPALGF_00670	dRep_bin145_KMJJJOEJ_01258;dRep_bin242_LKAIBGGJ_00691;dRep_bin081_JDPCKDNP_01525;dRep_bin317_ABPHNCOD_01232;dRep_bin347_EKGCMFPD_00789;dRep_bin282_PKAAPBFP_00053;dRep_bin039_IJNOFOJK_00980;dRep_bin001_GHHJMDAL_00862;dRep_bin272_LGBDGEIM_01970;dRep_bin186_HJAAFFNP_02184;dRep_bin005_CNDFPKJG_01374;dRep_bin332_KAOPCDPF_00412;dRep_bin167_BLMEBMNN_01248;dRep_bin260_HELEPKJL_00916;dRep_bin160_EFKMPBOM_00919;dRep_bin209_NKIHFCEN_00567;dRep_bin158_OGFICEAP_02130;dRep_bin283_NLJJFFAC_01508;dRep_bin278_BFCONKOE_00571;dRep_bin325_EIIGOGHN_00662;dRep_bin218_ACMPALGF_01369;dRep_bin094_LBLICAAO_00052;dRep_bin299_AKNBKJGM_01021;dRep_bin157_JPNIKEKI_01309;dRep_bin075_EPEMMOCL_02359;dRep_bin055_IBMMJAEE_00109;dRep_bin306_FGHMKMMP_00327;dRep_bin216_JNJMCPHB_00254;dRep_bin292_JIBLDOOH_01625;dRep_bin179_HFEIPPPA_02175;dRep_bin133_NOBPDBPA_01803;dRep_bin088_DNGPPFDK_01392;dRep_bin024_OLHDGABE_00503;dRep_bin324_IPNHOHFK_01870;dRep_bin203_CLFNNOCF_00851;dRep_bin017_FGFLFOPJ_00925;dRep_bin065_DFABHCBI_01998	>dRep_bin145_KMJJJOEJ_01258 GMP synthase [glutamine-hydrolyzing];>dRep_bin242_LKAIBGGJ_00691 GMP synthase [glutamine-hydrolyzing];>dRep_bin081_JDPCKDNP_01525 GMP synthase [glutamine-hydrolyzing];>dRep_bin317_ABPHNCOD_01232 GMP synthase [glutamine-hydrolyzi	dRep_bin278_BFCONKOE_00571	CDS	guaA	6.3.5.2	GMP synthase [glutamine-hydrolyzing]
BFCONKOE_00740					23.62333	23.07401		24.25068				4	3	4,4157E-47	dRep_bin243_JDMELKLC_00712;dRep_bin023_HGFJFKAI_01368;dRep_bin095_HOBNOEEF_01225;dRep_bin260_HELEPKJL_01732;dRep_bin283_NLJJFFAC_01319;dRep_bin310_IMBAFDIF_01399;dRep_bin240_LDBBGJKG_00021;dRep_bin278_BFCONKOE_00740	dRep_bin243_JDMELKLC_00712	>dRep_bin243_JDMELKLC_00712 Bacterial extracellular solute-binding protein	dRep_bin278_BFCONKOE_00740	CDS			Bacterial extracellular solute-binding protein
BFCONKOE_00741	25.51953	25.944789999999998	25.77731	25.34048	26.717380000000002	26.122539999999997	25.729639999999996	26.24182				7	4	5,2076E-21	dRep_bin243_JDMELKLC_00935;dRep_bin238_OLNFACLE_00704;dRep_bin278_BFCONKOE_00741;dRep_bin027_OFJCHLJJ_00098	dRep_bin243_JDMELKLC_00935;dRep_bin238_OLNFACLE_00704	>dRep_bin243_JDMELKLC_00935 Maltodextrin phosphorylase;>dRep_bin238_OLNFACLE_00704 Glycogen phosphorylase	dRep_bin278_BFCONKOE_00741	CDS	malP_2	2.4.1.1	Maltodextrin phosphorylase
BFCONKOE_00805								20.22835				1	1	0,0009145	dRep_bin278_BFCONKOE_00805	dRep_bin278_BFCONKOE_00805	>dRep_bin278_BFCONKOE_00805 4-hydroxy-tetrahydrodipicolinate synthase	dRep_bin278_BFCONKOE_00805	CDS	dapA_2	4.3.3.7	4-hydroxy-tetrahydrodipicolinate synthase
BFCONKOE_00806	25.30424	22.845519999999997	24.41035	26.131320000000002	27.01201	25.30581	25.9102	25.127150000000004				5	5	1,3492E-35	dRep_bin278_BFCONKOE_00806	dRep_bin278_BFCONKOE_00806	>dRep_bin278_BFCONKOE_00806 2-hydroxy-3-oxopropionate reductase	dRep_bin278_BFCONKOE_00806	CDS	garR	1.1.1.60	2-hydroxy-3-oxopropionate reductase
BFCONKOE_00849	26.137880000000006	26.153870000000005	26.6047	25.65832	27.066409999999998	25.619500000000002	24.885109999999997	28.94757				8	8	2,1222E-91	dRep_bin243_JDMELKLC_00422;dRep_bin278_BFCONKOE_00849	dRep_bin243_JDMELKLC_00422	>dRep_bin243_JDMELKLC_00422 Solute-binding protein	dRep_bin278_BFCONKOE_00849	CDS			Solute-binding protein
BFCONKOE_00877	27.765789999999996	27.931739999999998	27.52141	27.65349								12	2	6,6927E-63	dRep_bin047_IFFANOMN_01034;dRep_bin269_PNILGKPH_02104;dRep_bin075_EPEMMOCL_00354;dRep_bin242_LKAIBGGJ_01117;dRep_bin218_ACMPALGF_00111;dRep_bin027_OFJCHLJJ_01339;dRep_bin278_BFCONKOE_00877;dRep_bin049_MNFBDPNO_01162	dRep_bin047_IFFANOMN_01034;dRep_bin269_PNILGKPH_02104	>dRep_bin047_IFFANOMN_01034 Aspartate-semialdehyde dehydrogenase 2;>dRep_bin269_PNILGKPH_02104 Aspartate-semialdehyde dehydrogenase	dRep_bin278_BFCONKOE_00877	CDS	asd	1.2.1.11	Aspartate-semialdehyde dehydrogenase
BFCONKOE_00886	28.615830000000003	28.18546	29.82558	29.92139	30.37161	30.505309999999998	29.835990000000002	30.137000000000004				19	11	0	dRep_bin191_NGFJMLOL_01017;dRep_bin307_AOCKHIKF_00836;dRep_bin232_JGAEDAFA_01923;dRep_bin098_DDEBHDKK_00570;dRep_bin073_AKBCEHHO_00429;dRep_bin329_GDOHKPBL_00208;dRep_bin289_KALDCNNP_00441;dRep_bin219_HGPEELLF_00854;dRep_bin047_IFFANOMN_01143;dRep_bin354_MMOALAFN_00793;dRep_bin093_PGADNPMG_00569;dRep_bin327_EPEGNBAG_00694;dRep_bin123_PJKBFKBB_01119;dRep_bin325_EIIGOGHN_01520;dRep_bin335_JIOGNAPG_00036;dRep_bin082_HBEFABJN_00133;dRep_bin204_INMOGLDN_01573;dRep_bin174_LJJOKEME_01467;dRep_bin050_FBECOHCI_00562;dRep_bin264_DNFFGNEG_01376;dRep_bin252_NDAKLAGD_00172;dRep_bin246_MMFBABHK_01476;dRep_bin202_HEPPALPH_01125;dRep_bin004_OCHNPJPO_00139;dRep_bin318_IEDEJOFJ_00360;dRep_bin244_LBFMHLBI_01421;dRep_bin223_PIMCDKJI_00814;dRep_bin186_HJAAFFNP_00783;dRep_bin133_NOBPDBPA_02278;dRep_bin105_AAEIHAFF_01501;dRep_bin005_CNDFPKJG_01278;dRep_bin317_ABPHNCOD_01283;dRep_bin007_LNLEAAAN_00664;dRep_bin312_MJFEFHMP_01049;dRep_bin129_GADIAMAA_00560;dRep_bin065_DFABHCBI_00478;dRep_bin287_DONBGKDH_00800;dRep_bin238_OLNFACLE_00723;dRep_bin179_HFEIPPPA_01221;dRep_bin167_BLMEBMNN_00475;dRep_bin125_FADLGGII_00749;dRep_bin103_IGJBLKMC_00712;dRep_bin088_DNGPPFDK_00743;dRep_bin048_PABMBHAL_01780;dRep_bin348_LCLFDNEE_00919;dRep_bin278_BFCONKOE_00886;dRep_bin097_CBBLIPAN_00374;dRep_bin081_JDPCKDNP_01011;dRep_bin032_PPNIGLME_00057;dRep_bin272_LGBDGEIM_01074;dRep_bin049_MNFBDPNO_01322;dRep_bin013_IODPEDPB_01734;dRep_bin299_AKNBKJGM_01764;dRep_bin266_JFOCEDAE_00776;dRep_bin216_JNJMCPHB_01258;dRep_bin021_AJDDCGJC_00529;dRep_bin316_FNLHDNEO_00493;dRep_bin314_KCHFPLIP_01715;dRep_bin296_FDMPKPOH_01763;dRep_bin275_NIDIBBDA_00322;dRep_bin118_FGIOKLBC_00279;dRep_bin037_GEAOEKHA_00835;dRep_bin028_GKEJLBAM_01763;dRep_bin331_HPKAPHAF_00024;dRep_bin301_NJFJIJGA_01995;dRep_bin149_GABCHCDI_01177;dRep_bin057_BNCFHBBO_00918;dRep_bin040_EIFLLDOA_01272;dRep_bin265_LFKFBJPC_01505;dRep_bin022_BOEAFNDE_00753;dRep_bin210_AGEDAEIA_00448	dRep_bin191_NGFJMLOL_01017	>dRep_bin191_NGFJMLOL_01017 Aspartate aminotransferase	dRep_bin278_BFCONKOE_00886	CDS	patA_2	2.6.1.-	Putative N-acetyl-LL-diaminopimelate aminotransferase
BFCONKOE_00892				23.63312								4	0	1,2226E-09	dRep_bin167_BLMEBMNN_00598;dRep_bin303_DDDNDJCF_00238;dRep_bin201_OLKDIBOK_00333;dRep_bin123_PJKBFKBB_00889;dRep_bin278_BFCONKOE_00892;dRep_bin243_JDMELKLC_00672;dRep_bin114_FJHJKHGL_00936	dRep_bin167_BLMEBMNN_00598;dRep_bin303_DDDNDJCF_00238;dRep_bin201_OLKDIBOK_00333;dRep_bin123_PJKBFKBB_00889;dRep_bin278_BFCONKOE_00892;dRep_bin243_JDMELKLC_00672;dRep_bin114_FJHJKHGL_00936	>dRep_bin167_BLMEBMNN_00598 ATP synthase subunit beta;>dRep_bin303_DDDNDJCF_00238 ATP synthase subunit beta;>dRep_bin201_OLKDIBOK_00333 ATP synthase subunit beta;>dRep_bin123_PJKBFKBB_00889 ATP synthase subunit beta;>dRep_bin278_BFCONKOE_00892 ATP synthase	dRep_bin278_BFCONKOE_00892	CDS	atpD_2	3.6.3.14	ATP synthase subunit beta
BFCONKOE_00947	26.362289999999998	26.546529999999997	25.72208									5	1	4,2755E-39	dRep_bin348_LCLFDNEE_01023;dRep_bin278_BFCONKOE_00947;dRep_bin201_OLKDIBOK_02468;dRep_bin057_BNCFHBBO_00677	dRep_bin348_LCLFDNEE_01023	>dRep_bin348_LCLFDNEE_01023 Glycerol kinase	dRep_bin278_BFCONKOE_00947	CDS	glpK	2.7.1.30	Glycerol kinase
BFCONKOE_00967	26.37744	25.97399	26.81323	26.86124	27.34866	27.342399999999998	27.334750000000003	27.569499999999998				5	1	5,0378E-27	dRep_bin143_PFLDJMPF_00290;dRep_bin293_MEPKGOAN_01524;dRep_bin347_EKGCMFPD_01183;dRep_bin201_OLKDIBOK_00232;dRep_bin031_BNHMFOII_00394;dRep_bin344_CJJBDGAA_02115;dRep_bin303_DDDNDJCF_01571;dRep_bin027_OFJCHLJJ_00404;dRep_bin339_DBNBAHDK_00300;dRep_bin049_MNFBDPNO_01583;dRep_bin350_EKOOEEGH_01042;dRep_bin277_MIPNGEJE_00279;dRep_bin309_BIOHLCGG_01215;dRep_bin247_EKGBJCBM_01321;dRep_bin115_IFKGOGCL_01117;dRep_bin056_EMNHHOJA_00506;dRep_bin048_PABMBHAL_01302;dRep_bin253_CPMOAOBJ_00269;dRep_bin335_JIOGNAPG_01506;dRep_bin310_IMBAFDIF_00163;dRep_bin139_KGAJINND_00868;dRep_bin019_MOJEPLJF_01034;dRep_bin005_CNDFPKJG_00855;dRep_bin144_NPHACCKF_00198;dRep_bin094_LBLICAAO_01300;dRep_bin278_BFCONKOE_00967	dRep_bin143_PFLDJMPF_00290;dRep_bin293_MEPKGOAN_01524;dRep_bin347_EKGCMFPD_01183;dRep_bin201_OLKDIBOK_00232;dRep_bin031_BNHMFOII_00394;dRep_bin344_CJJBDGAA_02115;dRep_bin303_DDDNDJCF_01571;dRep_bin027_OFJCHLJJ_00404;dRep_bin339_DBNBAHDK_00300;dRep_bin049_MNFBDPNO_01583	>dRep_bin143_PFLDJMPF_00290 Serine--tRNA ligase;>dRep_bin293_MEPKGOAN_01524 Serine--tRNA ligase;>dRep_bin347_EKGCMFPD_01183 Serine--tRNA ligase;>dRep_bin201_OLKDIBOK_00232 Serine--tRNA ligase;>dRep_bin031_BNHMFOII_00394 Serine--tRNA ligase;>dRep_bin344_CJJ	dRep_bin278_BFCONKOE_00967	CDS	serS	6.1.1.11	Serine--tRNA ligase
BFCONKOE_00986					24.301870000000005		25.681990000000003	24.651850000000007				7	3	1,0652E-21	dRep_bin139_KGAJINND_01153;dRep_bin120_EKLBOPNC_00101;dRep_bin083_OCBADPJJ_00780;dRep_bin159_ADJJGPBG_00139;dRep_bin011_KOGMKLNO_01053;dRep_bin234_ECABPBME_00237;dRep_bin205_LKIOOBKC_00002;dRep_bin278_BFCONKOE_00986;dRep_bin335_JIOGNAPG_00454;dRep_bin189_AHHEHGDL_00148;dRep_bin168_HKDILBFE_01166;dRep_bin099_DNDAGJEJ_01458;dRep_bin208_DHPGEIBC_00208;dRep_bin304_JDNJGFKH_00703;dRep_bin320_LDBKCCKL_00918;dRep_bin167_BLMEBMNN_01289;dRep_bin222_GGCAJABB_00547	dRep_bin139_KGAJINND_01153	>dRep_bin139_KGAJINND_01153 Glycogen phosphorylase	dRep_bin278_BFCONKOE_00986	CDS	glgP	2.4.1.1	Glycogen phosphorylase
BFCONKOE_01006						22.335900000000002						2	1	3,5802E-08	dRep_bin278_BFCONKOE_01006	dRep_bin278_BFCONKOE_01006	>dRep_bin278_BFCONKOE_01006 Elongation factor Ts	dRep_bin278_BFCONKOE_01006	CDS	tsf		Elongation factor Ts
BFCONKOE_01030	29.566519999999997	29.568679999999997	28.55943	28.435239999999997	27.85976	27.72358	27.95382	27.70114				15	0	0	dRep_bin287_DONBGKDH_01482;dRep_bin107_EFNBPDOP_01392;dRep_bin278_BFCONKOE_01030;dRep_bin168_HKDILBFE_01198;dRep_bin140_ACFAKGIL_00910;dRep_bin099_DNDAGJEJ_00420;dRep_bin349_AMCJEEEG_01505;dRep_bin279_IAEFEPEN_00072;dRep_bin249_OFIIEIDJ_01057;dRep_bin135_HHKACLPM_00365;dRep_bin096_GNHMEKPF_00596;dRep_bin075_EPEMMOCL_00452;dRep_bin026_HNPIIINL_00211;dRep_bin019_MOJEPLJF_01655	dRep_bin287_DONBGKDH_01482	>dRep_bin287_DONBGKDH_01482 Formate--tetrahydrofolate ligase	dRep_bin278_BFCONKOE_01030	CDS	fhs	6.3.4.3	Formate--tetrahydrofolate ligase
BFCONKOE_01054					25.06357							5	1	3,6059E-73	dRep_bin203_CLFNNOCF_01682;dRep_bin347_EKGCMFPD_01504;dRep_bin284_DEHKNOBF_01057;dRep_bin260_HELEPKJL_00015;dRep_bin310_IMBAFDIF_00287;dRep_bin134_HIAPAODO_00846;dRep_bin062_BOFBFLDA_01435;dRep_bin300_MJPPENNL_01196;dRep_bin201_OLKDIBOK_02047;dRep_bin105_AAEIHAFF_01478;dRep_bin100_CODMOHGB_01221;dRep_bin088_DNGPPFDK_00866;dRep_bin277_MIPNGEJE_00690;dRep_bin166_DFIAJFEC_00146;dRep_bin161_JMKPMHCO_01114;dRep_bin059_OOBKFNPP_00125;dRep_bin046_GKEJLOEK_01062;dRep_bin091_MAFACGAD_00248;dRep_bin017_FGFLFOPJ_00727;dRep_bin354_MMOALAFN_00741;dRep_bin324_IPNHOHFK_00313;dRep_bin323_FBBLPLCG_01264;dRep_bin309_BIOHLCGG_01306;dRep_bin273_FGAEBHNP_00470;dRep_bin261_FJICAFFM_01100;dRep_bin148_NAJFKJMD_00795;dRep_bin115_IFKGOGCL_00123;dRep_bin069_EGGEOGDC_01056;dRep_bin344_CJJBDGAA_01161;dRep_bin249_OFIIEIDJ_00715;dRep_bin220_PILICLLL_00990;dRep_bin134_HIAPAODO_01436;dRep_bin065_DFABHCBI_00344;dRep_bin032_PPNIGLME_00203;dRep_bin270_GEJAHNCN_01587;dRep_bin065_DFABHCBI_00249;dRep_bin278_BFCONKOE_01054;dRep_bin016_JLGAHGOJ_00641;dRep_bin328_GIGKNKPJ_01462;dRep_bin308_JBPDGLPP_01172;dRep_bin303_DDDNDJCF_01320;dRep_bin254_GJDPFAEA_00870;dRep_bin234_ECABPBME_00536;dRep_bin186_HJAAFFNP_01789;dRep_bin167_BLMEBMNN_01296;dRep_bin107_EFNBPDOP_00511;dRep_bin077_DNNBMPMC_01864;dRep_bin066_AJACLPEE_01033;dRep_bin047_IFFANOMN_00697;dRep_bin135_HHKACLPM_00107;dRep_bin303_DDDNDJCF_00377;dRep_bin306_FGHMKMMP_01595;dRep_bin211_LGJEFJIK_00450;dRep_bin007_LNLEAAAN_01312;dRep_bin344_CJJBDGAA_01611;dRep_bin031_BNHMFOII_01628;dRep_bin353_PPDHLNJB_02118;dRep_bin254_GJDPFAEA_00869;dRep_bin094_LBLICAAO_00342;dRep_bin047_IFFANOMN_01357;dRep_bin120_EKLBOPNC_01832;dRep_bin168_HKDILBFE_01442;dRep_bin099_DNDAGJEJ_00392;dRep_bin215_ABBFGCAF_00798;dRep_bin029_LFMGBBEC_01628;dRep_bin240_LDBBGJKG_01094;dRep_bin279_IAEFEPEN_01491;dRep_bin130_OIFFANPF_01666;dRep_bin319_PBDBJGCJ_00268;dRep_bin017_FGFLFOPJ_00820;dRep_bin082_HBEFABJN_01328;dRep_bin245_MBCFLKOF_01762;dRep_bin027_OFJCHLJJ_00790;dRep_bin108_BPNCDINP_00911;dRep_bin308_JBPDGLPP_01750;dRep_bin193_GDMDPNNM_00480;dRep_bin344_CJJBDGAA_02078;dRep_bin049_MNFBDPNO_01413;dRep_bin096_GNHMEKPF_00097;dRep_bin104_EGLEJOLM_01934;dRep_bin339_DBNBAHDK_02499;dRep_bin321_EJNAAGJG_00755;dRep_bin273_FGAEBHNP_00835;dRep_bin250_NMCAMJIO_00087;dRep_bin247_EKGBJCBM_00317;dRep_bin148_NAJFKJMD_01189;dRep_bin337_FHKPNFDB_01633;dRep_bin320_LDBKCCKL_01786;dRep_bin304_JDNJGFKH_01982;dRep_bin286_OEMIJKMC_01141;dRep_bin231_CFOLMJBA_00953;dRep_bin162_JBGCCDIN_01636;dRep_bin126_PPDNCIBN_01067;dRep_bin109_MJABCPAK_00317;dRep_bin057_BNCFHBBO_00597;dRep_bin288_KOIAAABN_00012;dRep_bin263_OLEFOGIJ_00295;dRep_bin304_JDNJGFKH_00179;dRep_bin208_DHPGEIBC_00457;dRep_bin189_AHHEHGDL_01282;dRep_bin177_HLHGKLFL_00741;dRep_bin140_ACFAKGIL_00319;dRep_bin105_AAEIHAFF_01411;dRep_bin082_HBEFABJN_00692;dRep_bin010_MFFFGEGD_00717;dRep_bin005_CNDFPKJG_01705;dRep_bin287_DONBGKDH_01836;dRep_bin094_LBLICAAO_00388;dRep_bin058_GJKCICJN_00227;dRep_bin293_MEPKGOAN_00829;dRep_bin218_ACMPALGF_00229;dRep_bin205_LKIOOBKC_00417;dRep_bin172_ALNHGLMD_01439;dRep_bin159_ADJJGPBG_01342;dRep_bin143_PFLDJMPF_01248;dRep_bin101_BNDDLDCL_01982;dRep_bin091_MAFACGAD_01619;dRep_bin072_JOBJPCGA_00130;dRep_bin011_KOGMKLNO_01272;dRep_bin164_KHMELCCL_01402;dRep_bin305_FCIEFIHE_00371;dRep_bin222_GGCAJABB_00745;dRep_bin006_HPJGJCAG_01874;dRep_bin286_OEMIJKMC_01354;dRep_bin126_PPDNCIBN_00282;dRep_bin185_OOOLKACK_00819;dRep_bin043_KLAFNACO_00900;dRep_bin231_CFOLMJBA_01529;dRep_bin237_KJDLIPND_00869;dRep_bin147_EJLBNEBE_00138;dRep_bin186_HJAAFFNP_01790;dRep_bin081_JDPCKDNP_00172;dRep_bin069_EGGEOGDC_00890;dRep_bin282_PKAAPBFP_00016;dRep_bin206_OIIBOIAK_00984;dRep_bin161_JMKPMHCO_00782;dRep_bin278_BFCONKOE_00310;dRep_bin260_HELEPKJL_01944;dRep_bin336_MPGOKPOL_00897	dRep_bin203_CLFNNOCF_01682;dRep_bin347_EKGCMFPD_01504;dRep_bin284_DEHKNOBF_01057;dRep_bin260_HELEPKJL_00015;dRep_bin310_IMBAFDIF_00287;dRep_bin134_HIAPAODO_00846;dRep_bin062_BOFBFLDA_01435	>dRep_bin203_CLFNNOCF_01682 Glutamine synthetase;>dRep_bin347_EKGCMFPD_01504 Glutamine synthetase;>dRep_bin284_DEHKNOBF_01057 Glutamine synthetase;>dRep_bin260_HELEPKJL_00015 Glutamine synthetase;>dRep_bin310_IMBAFDIF_00287 Glutamine synthetase;>dRep_bin13	dRep_bin278_BFCONKOE_01054	CDS	glnA_2	6.3.1.2	Glutamine synthetase
BFCONKOE_01078	26.357850000000006	26.35671	26.91056	27.442689999999995	27.565649999999998	26.268909999999998	27.855729999999998	26.992369999999998				6	0	1,6744E-13	dRep_bin220_PILICLLL_00989;dRep_bin016_JLGAHGOJ_00301;dRep_bin260_HELEPKJL_01949;dRep_bin024_OLHDGABE_01286;dRep_bin068_ENOLAELK_00820;dRep_bin056_EMNHHOJA_00968;dRep_bin026_HNPIIINL_01362;dRep_bin253_CPMOAOBJ_00875;dRep_bin145_KMJJJOEJ_00851;dRep_bin344_CJJBDGAA_02006;dRep_bin278_BFCONKOE_01078;dRep_bin269_PNILGKPH_01415;dRep_bin240_LDBBGJKG_01602;dRep_bin065_DFABHCBI_01421;dRep_bin158_OGFICEAP_01010	dRep_bin220_PILICLLL_00989;dRep_bin016_JLGAHGOJ_00301	>dRep_bin220_PILICLLL_00989 Elongation factor G;>dRep_bin016_JLGAHGOJ_00301 Elongation factor G	dRep_bin278_BFCONKOE_01078	CDS	fusA_2		Elongation factor G
BFCONKOE_01117	25.0124	24.281639999999996	23.849	23.79461								13	0	1,1632E-233	dRep_bin260_HELEPKJL_00611;dRep_bin278_BFCONKOE_01117	dRep_bin260_HELEPKJL_00611	>dRep_bin260_HELEPKJL_00611 GGGtGRT protein	dRep_bin278_BFCONKOE_01117	CDS			GGGtGRT protein
BFCONKOE_01132	21.58426											3	3	3,9667E-12	dRep_bin238_OLNFACLE_01393;dRep_bin278_BFCONKOE_01132;dRep_bin221_LMGNIMOJ_00814;dRep_bin206_OIIBOIAK_01149	dRep_bin238_OLNFACLE_01393	>dRep_bin238_OLNFACLE_01393 2,4-diaminopentanoate dehydrogenase	dRep_bin278_BFCONKOE_01132	CDS	ord	1.4.1.12	2,4-diaminopentanoate dehydrogenase
BFCONKOE_01171	23.43441	22.00919	22.90465	23.36119	23.28193	23.93247	23.86722	24.07178				8	1	1,2049E-27	dRep_bin278_BFCONKOE_01171	dRep_bin278_BFCONKOE_01171	>dRep_bin278_BFCONKOE_01171 60 kDa chaperonin	dRep_bin278_BFCONKOE_01171	CDS	groL		60 kDa chaperonin
BFCONKOE_01179				21.86884								3	1	1,3797E-13	dRep_bin021_AJDDCGJC_00051;dRep_bin252_NDAKLAGD_00826;dRep_bin317_ABPHNCOD_01131;dRep_bin216_JNJMCPHB_01076;dRep_bin272_LGBDGEIM_00618;dRep_bin097_CBBLIPAN_01579;dRep_bin053_OMGNPOOB_00833;dRep_bin337_FHKPNFDB_00090;dRep_bin052_PGOOKKFH_01594;dRep_bin168_HKDILBFE_01015;dRep_bin322_OJELOJOF_01622;dRep_bin220_PILICLLL_01543;dRep_bin055_IBMMJAEE_00610;dRep_bin061_ONFGDLGO_01234;dRep_bin168_HKDILBFE_00368;dRep_bin055_IBMMJAEE_00168;dRep_bin261_FJICAFFM_00490;dRep_bin017_FGFLFOPJ_00414;dRep_bin115_IFKGOGCL_01280;dRep_bin257_JHFDCHCB_01406;dRep_bin323_FBBLPLCG_01600;dRep_bin007_LNLEAAAN_00766;dRep_bin049_MNFBDPNO_00781;dRep_bin333_EFOKIBLA_01149;dRep_bin279_IAEFEPEN_01471;dRep_bin234_ECABPBME_01515;dRep_bin179_HFEIPPPA_02108;dRep_bin023_HGFJFKAI_01527;dRep_bin335_JIOGNAPG_00787;dRep_bin250_NMCAMJIO_00423;dRep_bin158_OGFICEAP_00549;dRep_bin100_CODMOHGB_01341;dRep_bin089_PAJFOJBN_02515;dRep_bin088_DNGPPFDK_01371;dRep_bin081_JDPCKDNP_00684;dRep_bin324_IPNHOHFK_01454;dRep_bin300_MJPPENNL_01260;dRep_bin292_JIBLDOOH_01593;dRep_bin284_DEHKNOBF_00281;dRep_bin282_PKAAPBFP_00934;dRep_bin279_IAEFEPEN_01275;dRep_bin269_PNILGKPH_00152;dRep_bin240_LDBBGJKG_01257;dRep_bin226_NLNLHLLD_00367;dRep_bin209_NKIHFCEN_01541;dRep_bin203_CLFNNOCF_01928;dRep_bin179_HFEIPPPA_00359;dRep_bin167_BLMEBMNN_00233;dRep_bin160_EFKMPBOM_02132;dRep_bin154_JGOKHKLI_02775;dRep_bin133_NOBPDBPA_00727;dRep_bin114_FJHJKHGL_00838;dRep_bin095_HOBNOEEF_00822;dRep_bin075_EPEMMOCL_00939;dRep_bin074_EHAOMODJ_00291;dRep_bin065_DFABHCBI_01203;dRep_bin347_EKGCMFPD_00625;dRep_bin325_EIIGOGHN_00612;dRep_bin310_IMBAFDIF_01359;dRep_bin308_JBPDGLPP_00545;dRep_bin306_FGHMKMMP_01018;dRep_bin297_EDHEEICA_01903;dRep_bin201_OLKDIBOK_00335;dRep_bin186_HJAAFFNP_00409;dRep_bin173_BEBNCADL_00242;dRep_bin169_PNICKJKO_00103;dRep_bin145_KMJJJOEJ_01348;dRep_bin135_HHKACLPM_00566;dRep_bin101_BNDDLDCL_00036;dRep_bin069_EGGEOGDC_01480;dRep_bin062_BOFBFLDA_00487;dRep_bin047_IFFANOMN_01271;dRep_bin042_MMFCLHOO_00308;dRep_bin041_OPKGAAAG_00762;dRep_bin024_OLHDGABE_00679;dRep_bin016_JLGAHGOJ_01831;dRep_bin001_GHHJMDAL_00660;dRep_bin349_AMCJEEEG_00131;dRep_bin312_MJFEFHMP_00833;dRep_bin264_DNFFGNEG_00100;dRep_bin246_MMFBABHK_00297;dRep_bin219_HGPEELLF_00003;dRep_bin174_LJJOKEME_01103;dRep_bin129_GADIAMAA_01409;dRep_bin127_FIPNHBCH_00703;dRep_bin077_DNNBMPMC_01278;dRep_bin030_OGPDLGOC_01790;dRep_bin004_OCHNPJPO_01519;dRep_bin218_ACMPALGF_00968;dRep_bin185_OOOLKACK_00657;dRep_bin181_MKGPMPIA_00538;dRep_bin148_NAJFKJMD_01090;dRep_bin058_GJKCICJN_01056;dRep_bin291_EILOACJB_00579;dRep_bin244_LBFMHLBI_01277;dRep_bin223_PIMCDKJI_01006;dRep_bin204_INMOGLDN_01473;dRep_bin184_MBMMJHKO_00222;dRep_bin302_AHDEPDKG_00621;dRep_bin265_LFKFBJPC_00590;dRep_bin233_BAGKKAOB_00885;dRep_bin188_EJILNMPE_01053;dRep_bin081_JDPCKDNP_01324;dRep_bin318_IEDEJOFJ_00724;dRep_bin144_NPHACCKF_00221;dRep_bin096_GNHMEKPF_00086;dRep_bin344_CJJBDGAA_01489;dRep_bin295_EJGKDKNE_00851;dRep_bin048_PABMBHAL_01507;dRep_bin303_DDDNDJCF_00663;dRep_bin283_NLJJFFAC_01754;dRep_bin201_OLKDIBOK_00523;dRep_bin139_KGAJINND_01276;dRep_bin134_HIAPAODO_01158;dRep_bin094_LBLICAAO_00942;dRep_bin062_BOFBFLDA_00417;dRep_bin336_MPGOKPOL_02385;dRep_bin082_HBEFABJN_00650;dRep_bin125_FADLGGII_00540;dRep_bin334_NAPFFNLD_01195;dRep_bin217_MJCEAEPB_00530;dRep_bin195_DDMDFNOK_00971;dRep_bin060_HNFNENOI_00088;dRep_bin328_GIGKNKPJ_00426;dRep_bin281_OGHLKMAI_01076;dRep_bin197_NHLBHFEI_00626;dRep_bin103_IGJBLKMC_00726;dRep_bin116_CLFDBMOF_00455;dRep_bin332_KAOPCDPF_00448;dRep_bin345_GLPJDLOI_00589;dRep_bin314_KCHFPLIP_00788;dRep_bin128_JPBBHEMA_00693;dRep_bin073_AKBCEHHO_01462;dRep_bin045_GJACFFBC_00428;dRep_bin329_GDOHKPBL_01522;dRep_bin316_FNLHDNEO_00349;dRep_bin307_AOCKHIKF_00400;dRep_bin294_EHJINIDK_01408;dRep_bin289_KALDCNNP_01327;dRep_bin183_FPGIOKBG_00622;dRep_bin098_DDEBHDKK_01308;dRep_bin165_HMDFFMMM_01247;dRep_bin037_GEAOEKHA_01212;dRep_bin256_KEMNAOBC_00113;dRep_bin092_OOJCPDEA_01143;dRep_bin126_PPDNCIBN_00264;dRep_bin090_IPGNHCBJ_00911;dRep_bin215_ABBFGCAF_00280;dRep_bin005_CNDFPKJG_00629;dRep_bin270_GEJAHNCN_01426;dRep_bin116_CLFDBMOF_00686;dRep_bin069_EGGEOGDC_00857;dRep_bin007_LNLEAAAN_01604;dRep_bin057_BNCFHBBO_01159;dRep_bin038_EIGFILKG_00229;dRep_bin114_FJHJKHGL_00934;dRep_bin152_LJMCIADF_00045;dRep_bin322_OJELOJOF_00826;dRep_bin266_JFOCEDAE_00030;dRep_bin194_MEPDOGGJ_01235;dRep_bin079_GAOGCKND_01437;dRep_bin068_ENOLAELK_01387;dRep_bin025_CBEJJMLE_00917;dRep_bin240_LDBBGJKG_00802;dRep_bin347_EKGCMFPD_01498;dRep_bin167_BLMEBMNN_00596;dRep_bin160_EFKMPBOM_02114;dRep_bin260_HELEPKJL_02017;dRep_bin091_MAFACGAD_00797;dRep_bin099_DNDAGJEJ_01471;dRep_bin278_BFCONKOE_01179;dRep_bin168_HKDILBFE_00397;dRep_bin284_DEHKNOBF_00737;dRep_bin001_GHHJMDAL_01209;dRep_bin236_BNONDECB_00531;dRep_bin286_OEMIJKMC_01078;dRep_bin231_CFOLMJBA_00464;dRep_bin193_GDMDPNNM_00224;dRep_bin172_ALNHGLMD_01787;dRep_bin182_EMCFODCD_00065;dRep_bin044_IPFKHAEF_00183	dRep_bin021_AJDDCGJC_00051;dRep_bin252_NDAKLAGD_00826;dRep_bin317_ABPHNCOD_01131;dRep_bin216_JNJMCPHB_01076;dRep_bin272_LGBDGEIM_00618;dRep_bin097_CBBLIPAN_01579;dRep_bin053_OMGNPOOB_00833;dRep_bin337_FHKPNFDB_00090;dRep_bin052_PGOOKKFH_01594	>dRep_bin021_AJDDCGJC_00051 ATP synthase subunit alpha;>dRep_bin252_NDAKLAGD_00826 ATP synthase subunit alpha;>dRep_bin317_ABPHNCOD_01131 ATP synthase subunit alpha;>dRep_bin216_JNJMCPHB_01076 ATP synthase subunit alpha;>dRep_bin272_LGBDGEIM_00618 ATP synt	dRep_bin278_BFCONKOE_01179	CDS	atpA	3.6.3.14	ATP synthase subunit alpha
BFCONKOE_01329			19.70065									1	1	0,00094842	dRep_bin019_MOJEPLJF_01253;dRep_bin322_OJELOJOF_00998;dRep_bin266_JFOCEDAE_01255;dRep_bin203_CLFNNOCF_01667;dRep_bin179_HFEIPPPA_01487;dRep_bin062_BOFBFLDA_00482;dRep_bin335_JIOGNAPG_01394;dRep_bin325_EIIGOGHN_00716;dRep_bin300_MJPPENNL_01210;dRep_bin287_DONBGKDH_01487;dRep_bin282_PKAAPBFP_00060;dRep_bin279_IAEFEPEN_01206;dRep_bin269_PNILGKPH_01047;dRep_bin261_FJICAFFM_00341;dRep_bin249_OFIIEIDJ_00793;dRep_bin220_PILICLLL_00785;dRep_bin201_OLKDIBOK_02285;dRep_bin168_HKDILBFE_00870;dRep_bin160_EFKMPBOM_02348;dRep_bin158_OGFICEAP_00078;dRep_bin154_JGOKHKLI_02345;dRep_bin145_KMJJJOEJ_00681;dRep_bin139_KGAJINND_00935;dRep_bin135_HHKACLPM_01083;dRep_bin134_HIAPAODO_01183;dRep_bin133_NOBPDBPA_03238;dRep_bin099_DNDAGJEJ_00384;dRep_bin095_HOBNOEEF_02248;dRep_bin091_MAFACGAD_00479;dRep_bin081_JDPCKDNP_01979;dRep_bin039_IJNOFOJK_00775;dRep_bin023_HGFJFKAI_00522;dRep_bin324_IPNHOHFK_00121;dRep_bin278_BFCONKOE_01329;dRep_bin234_ECABPBME_01690;dRep_bin027_OFJCHLJJ_00792;dRep_bin024_OLHDGABE_00305;dRep_bin005_CNDFPKJG_01369;dRep_bin088_DNGPPFDK_01526;dRep_bin077_DNNBMPMC_01927;dRep_bin310_IMBAFDIF_00406	dRep_bin019_MOJEPLJF_01253;dRep_bin322_OJELOJOF_00998;dRep_bin266_JFOCEDAE_01255;dRep_bin203_CLFNNOCF_01667;dRep_bin179_HFEIPPPA_01487;dRep_bin062_BOFBFLDA_00482;dRep_bin335_JIOGNAPG_01394;dRep_bin325_EIIGOGHN_00716;dRep_bin300_MJPPENNL_01210;dRep_bin287_DONBGKDH_01487;dRep_bin282_PKAAPBFP_00060;dRep_bin279_IAEFEPEN_01206;dRep_bin269_PNILGKPH_01047;dRep_bin261_FJICAFFM_00341;dRep_bin249_OFIIEIDJ_00793;dRep_bin220_PILICLLL_00785;dRep_bin201_OLKDIBOK_02285;dRep_bin168_HKDILBFE_00870;dRep_bin160_EFKMPBOM_02348;dRep_bin158_OGFICEAP_00078;dRep_bin154_JGOKHKLI_02345;dRep_bin145_KMJJJOEJ_00681;dRep_bin139_KGAJINND_00935;dRep_bin135_HHKACLPM_01083;dRep_bin134_HIAPAODO_01183;dRep_bin133_NOBPDBPA_03238;dRep_bin099_DNDAGJEJ_00384;dRep_bin095_HOBNOEEF_02248;dRep_bin091_MAFACGAD_00479;dRep_bin081_JDPCKDNP_01979;dRep_bin039_IJNOFOJK_00775;dRep_bin023_HGFJFKAI_00522;dRep_bin324_IPNHOHFK_00121;dRep_bin278_BFCONKOE_01329;dRep_bin234_ECABPBME_01690;dRep_bin027_OFJCHLJJ_00792;dRep_bin024_OLHDGABE_00305;dRep_bin005_CNDFPKJG_01369;dRep_bin088_DNGPPFDK_01526;dRep_bin077_DNNBMPMC_01927;dRep_bin310_IMBAFDIF_00406	>dRep_bin019_MOJEPLJF_01253 Purine catabolism regulatory protein;>dRep_bin322_OJELOJOF_00998 Purine catabolism regulatory protein;>dRep_bin266_JFOCEDAE_01255 Purine catabolism regulatory protein;>dRep_bin203_CLFNNOCF_01667 Carbohydrate diacid regulator;>dR	dRep_bin278_BFCONKOE_01329	CDS	cdaR_2		Carbohydrate diacid regulator
BFCONKOE_01330	27.092039999999997	27.25593	27.97635	27.22113	26.946479999999998	27.241639999999997	26.610060000000004	26.85816				4	1	1,1953E-24	dRep_bin278_BFCONKOE_01330;dRep_bin335_JIOGNAPG_00052;dRep_bin234_ECABPBME_01691	dRep_bin278_BFCONKOE_01330;dRep_bin335_JIOGNAPG_00052;dRep_bin234_ECABPBME_01691	>dRep_bin278_BFCONKOE_01330 Trehalose import ATP-binding protein SugC;>dRep_bin335_JIOGNAPG_00052 Trehalose import ATP-binding protein SugC;>dRep_bin234_ECABPBME_01691 Trehalose import ATP-binding protein SugC	dRep_bin278_BFCONKOE_01330	CDS	sugC	3.6.3.-	Trehalose import ATP-binding protein SugC
BFCONKOE_01375	22.00724	21.80467	23.19277	23.707150000000002	23.463389999999997	22.301450000000003		22.98287				3	2	0,00024016	dRep_bin125_FADLGGII_00739;dRep_bin278_BFCONKOE_01375;dRep_bin094_LBLICAAO_01898;dRep_bin177_HLHGKLFL_01330;dRep_bin140_ACFAKGIL_00541	dRep_bin125_FADLGGII_00739;dRep_bin278_BFCONKOE_01375;dRep_bin094_LBLICAAO_01898;dRep_bin177_HLHGKLFL_01330;dRep_bin140_ACFAKGIL_00541	>dRep_bin125_FADLGGII_00739 PTS system N-acetylglucosamine-specific EIICBA component;>dRep_bin278_BFCONKOE_01375 PTS system N-acetylglucosamine-specific EIICBA component;>dRep_bin094_LBLICAAO_01898 PTS system N-acetylglucosamine-specific EIICBA component;>	dRep_bin278_BFCONKOE_01375	CDS	nagE		PTS system N-acetylglucosamine-specific EIICBA component
BFCONKOE_01417						26.09545						6	0	6,9329E-51	dRep_bin261_FJICAFFM_01232;dRep_bin249_OFIIEIDJ_00111;dRep_bin072_JOBJPCGA_01126;dRep_bin031_BNHMFOII_01268;dRep_bin172_ALNHGLMD_01185;dRep_bin106_BKDHGPBE_00606;dRep_bin060_HNFNENOI_01215;dRep_bin221_LMGNIMOJ_00064;dRep_bin079_GAOGCKND_01433;dRep_bin101_BNDDLDCL_01832;dRep_bin088_DNGPPFDK_01375;dRep_bin278_BFCONKOE_01417;dRep_bin324_IPNHOHFK_00152;dRep_bin257_JHFDCHCB_00881;dRep_bin060_HNFNENOI_00001;dRep_bin078_GKFCBAEI_00769;dRep_bin220_PILICLLL_02004	dRep_bin261_FJICAFFM_01232	>dRep_bin261_FJICAFFM_01232 Rubrerythrin-1	dRep_bin278_BFCONKOE_01417	CDS	hrb		High molecular weight rubredoxin
