GBprotID	LFQ intensity CtrPig1	LFQ intensity CtrPig2	LFQ intensity CtrPig3	LFQ intensity CtrPig4	LFQ intensity MannanPig1	LFQ intensity MannanPig2	LFQ intensity MannanPig3	LFQ intensity MannanPig4	Only identified by site	Reverse	Contaminant	Peptides	Unique peptides	PEP	Protein IDs	Majority protein IDs	Fasta headers	IDcomb	ftype	gene	EC_number	product
DEHKNOBF_00011				21.162139999999997								4	1	3,3139E-14	dRep_bin179_HFEIPPPA_00231;dRep_bin089_PAJFOJBN_01287;dRep_bin261_FJICAFFM_01311;dRep_bin269_PNILGKPH_02079;dRep_bin203_CLFNNOCF_00182;dRep_bin284_DEHKNOBF_00011;dRep_bin166_DFIAJFEC_01553	dRep_bin179_HFEIPPPA_00231;dRep_bin089_PAJFOJBN_01287;dRep_bin261_FJICAFFM_01311;dRep_bin269_PNILGKPH_02079;dRep_bin203_CLFNNOCF_00182	>dRep_bin179_HFEIPPPA_00231 Isocitrate dehydrogenase [NADP];>dRep_bin089_PAJFOJBN_01287 Isocitrate dehydrogenase [NADP];>dRep_bin261_FJICAFFM_01311 Isocitrate dehydrogenase [NADP];>dRep_bin269_PNILGKPH_02079 Isocitrate dehydrogenase [NADP];>dRep_bin203_CLF	dRep_bin284_DEHKNOBF_00011	CDS	icd	1.1.1.42	Isocitrate dehydrogenase [NADP]
DEHKNOBF_00066					23.50906	24.058709999999998						4	1	4,5754E-21	dRep_bin284_DEHKNOBF_00066	dRep_bin284_DEHKNOBF_00066	>dRep_bin284_DEHKNOBF_00066 Pyruvate synthase	dRep_bin284_DEHKNOBF_00066	CDS	por	1.2.7.1	Pyruvate synthase
DEHKNOBF_00125				27.87226								2	1	4,8064E-08	dRep_bin209_NKIHFCEN_01164;dRep_bin284_DEHKNOBF_00125;dRep_bin186_HJAAFFNP_00318;dRep_bin179_HFEIPPPA_00432;dRep_bin322_OJELOJOF_00068;dRep_bin292_JIBLDOOH_02071;dRep_bin287_DONBGKDH_00018;dRep_bin266_JFOCEDAE_00763;dRep_bin157_JPNIKEKI_01021;dRep_bin134_HIAPAODO_00354;dRep_bin335_JIOGNAPG_00565	dRep_bin209_NKIHFCEN_01164;dRep_bin284_DEHKNOBF_00125;dRep_bin186_HJAAFFNP_00318;dRep_bin179_HFEIPPPA_00432;dRep_bin322_OJELOJOF_00068;dRep_bin292_JIBLDOOH_02071;dRep_bin287_DONBGKDH_00018;dRep_bin266_JFOCEDAE_00763;dRep_bin157_JPNIKEKI_01021;dRep_bin134_HIAPAODO_00354;dRep_bin335_JIOGNAPG_00565	>dRep_bin209_NKIHFCEN_01164 3-oxoacyl-[acyl-carrier-protein] synthase 2;>dRep_bin284_DEHKNOBF_00125 3-oxoacyl-[acyl-carrier-protein] synthase 2;>dRep_bin186_HJAAFFNP_00318 3-oxoacyl-[acyl-carrier-protein] synthase 2;>dRep_bin179_HFEIPPPA_00432 3-oxoacyl-[a	dRep_bin284_DEHKNOBF_00125	CDS	fabF	2.3.1.179	3-oxoacyl-[acyl-carrier-protein] synthase 2
DEHKNOBF_00142	23.72307		24.786309999999997	26.83207								10	0	5,8139E-87	dRep_bin089_PAJFOJBN_02377;dRep_bin088_DNGPPFDK_00798;dRep_bin284_DEHKNOBF_00142;dRep_bin240_LDBBGJKG_01436;dRep_bin005_CNDFPKJG_00806	dRep_bin089_PAJFOJBN_02377;dRep_bin088_DNGPPFDK_00798	>dRep_bin089_PAJFOJBN_02377 Bifunctional purine biosynthesis protein PurH;>dRep_bin088_DNGPPFDK_00798 Bifunctional purine biosynthesis protein PurH	dRep_bin284_DEHKNOBF_00142	CDS	purH		Bifunctional purine biosynthesis protein PurH
DEHKNOBF_00254						22.306860000000004						3	1	6,3831E-08	dRep_bin041_OPKGAAAG_00367;dRep_bin284_DEHKNOBF_00254;dRep_bin319_PBDBJGCJ_00655;dRep_bin203_CLFNNOCF_01297;dRep_bin181_MKGPMPIA_00407;dRep_bin179_HFEIPPPA_00842;dRep_bin139_KGAJINND_00918;dRep_bin133_NOBPDBPA_02473;dRep_bin066_AJACLPEE_00004;dRep_bin194_MEPDOGGJ_00508;dRep_bin152_LJMCIADF_01431;dRep_bin068_ENOLAELK_01095;dRep_bin038_EIGFILKG_01028;dRep_bin025_CBEJJMLE_01384;dRep_bin324_IPNHOHFK_01934;dRep_bin023_HGFJFKAI_01643;dRep_bin209_NKIHFCEN_00957;dRep_bin157_JPNIKEKI_01504;dRep_bin297_EDHEEICA_00667;dRep_bin226_NLNLHLLD_00265;dRep_bin306_FGHMKMMP_01756;dRep_bin005_CNDFPKJG_00040;dRep_bin158_OGFICEAP_01238;dRep_bin303_DDDNDJCF_00102;dRep_bin299_AKNBKJGM_01304;dRep_bin248_CCDFPECI_01165;dRep_bin145_KMJJJOEJ_00716;dRep_bin095_HOBNOEEF_01829;dRep_bin081_JDPCKDNP_01870;dRep_bin053_OMGNPOOB_00265;dRep_bin310_IMBAFDIF_00723;dRep_bin077_DNNBMPMC_01957;dRep_bin201_OLKDIBOK_00147;dRep_bin124_HIHDFGCL_01069;dRep_bin079_GAOGCKND_00667;dRep_bin107_EFNBPDOP_00920	dRep_bin041_OPKGAAAG_00367;dRep_bin284_DEHKNOBF_00254;dRep_bin319_PBDBJGCJ_00655;dRep_bin203_CLFNNOCF_01297;dRep_bin181_MKGPMPIA_00407;dRep_bin179_HFEIPPPA_00842;dRep_bin139_KGAJINND_00918;dRep_bin133_NOBPDBPA_02473;dRep_bin066_AJACLPEE_00004;dRep_bin194_MEPDOGGJ_00508;dRep_bin152_LJMCIADF_01431;dRep_bin068_ENOLAELK_01095;dRep_bin038_EIGFILKG_01028;dRep_bin025_CBEJJMLE_01384;dRep_bin324_IPNHOHFK_01934;dRep_bin023_HGFJFKAI_01643;dRep_bin209_NKIHFCEN_00957;dRep_bin157_JPNIKEKI_01504;dRep_bin297_EDHEEICA_00667;dRep_bin226_NLNLHLLD_00265;dRep_bin306_FGHMKMMP_01756;dRep_bin005_CNDFPKJG_00040	>dRep_bin041_OPKGAAAG_00367 Nicotinate-nucleotide pyrophosphorylase [carboxylating];>dRep_bin284_DEHKNOBF_00254 Nicotinate-nucleotide pyrophosphorylase [carboxylating];>dRep_bin319_PBDBJGCJ_00655 putative nicotinate-nucleotide pyrophosphorylase [carboxylat	dRep_bin284_DEHKNOBF_00254	CDS	nadC	2.4.2.19	Nicotinate-nucleotide pyrophosphorylase [carboxylating]
DEHKNOBF_00281				21.86884								3	1	1,3797E-13	dRep_bin021_AJDDCGJC_00051;dRep_bin252_NDAKLAGD_00826;dRep_bin317_ABPHNCOD_01131;dRep_bin216_JNJMCPHB_01076;dRep_bin272_LGBDGEIM_00618;dRep_bin097_CBBLIPAN_01579;dRep_bin053_OMGNPOOB_00833;dRep_bin337_FHKPNFDB_00090;dRep_bin052_PGOOKKFH_01594;dRep_bin168_HKDILBFE_01015;dRep_bin322_OJELOJOF_01622;dRep_bin220_PILICLLL_01543;dRep_bin055_IBMMJAEE_00610;dRep_bin061_ONFGDLGO_01234;dRep_bin168_HKDILBFE_00368;dRep_bin055_IBMMJAEE_00168;dRep_bin261_FJICAFFM_00490;dRep_bin017_FGFLFOPJ_00414;dRep_bin115_IFKGOGCL_01280;dRep_bin257_JHFDCHCB_01406;dRep_bin323_FBBLPLCG_01600;dRep_bin007_LNLEAAAN_00766;dRep_bin049_MNFBDPNO_00781;dRep_bin333_EFOKIBLA_01149;dRep_bin279_IAEFEPEN_01471;dRep_bin234_ECABPBME_01515;dRep_bin179_HFEIPPPA_02108;dRep_bin023_HGFJFKAI_01527;dRep_bin335_JIOGNAPG_00787;dRep_bin250_NMCAMJIO_00423;dRep_bin158_OGFICEAP_00549;dRep_bin100_CODMOHGB_01341;dRep_bin089_PAJFOJBN_02515;dRep_bin088_DNGPPFDK_01371;dRep_bin081_JDPCKDNP_00684;dRep_bin324_IPNHOHFK_01454;dRep_bin300_MJPPENNL_01260;dRep_bin292_JIBLDOOH_01593;dRep_bin284_DEHKNOBF_00281;dRep_bin282_PKAAPBFP_00934;dRep_bin279_IAEFEPEN_01275;dRep_bin269_PNILGKPH_00152;dRep_bin240_LDBBGJKG_01257;dRep_bin226_NLNLHLLD_00367;dRep_bin209_NKIHFCEN_01541;dRep_bin203_CLFNNOCF_01928;dRep_bin179_HFEIPPPA_00359;dRep_bin167_BLMEBMNN_00233;dRep_bin160_EFKMPBOM_02132;dRep_bin154_JGOKHKLI_02775;dRep_bin133_NOBPDBPA_00727;dRep_bin114_FJHJKHGL_00838;dRep_bin095_HOBNOEEF_00822;dRep_bin075_EPEMMOCL_00939;dRep_bin074_EHAOMODJ_00291;dRep_bin065_DFABHCBI_01203;dRep_bin347_EKGCMFPD_00625;dRep_bin325_EIIGOGHN_00612;dRep_bin310_IMBAFDIF_01359;dRep_bin308_JBPDGLPP_00545;dRep_bin306_FGHMKMMP_01018;dRep_bin297_EDHEEICA_01903;dRep_bin201_OLKDIBOK_00335;dRep_bin186_HJAAFFNP_00409;dRep_bin173_BEBNCADL_00242;dRep_bin169_PNICKJKO_00103;dRep_bin145_KMJJJOEJ_01348;dRep_bin135_HHKACLPM_00566;dRep_bin101_BNDDLDCL_00036;dRep_bin069_EGGEOGDC_01480;dRep_bin062_BOFBFLDA_00487;dRep_bin047_IFFANOMN_01271;dRep_bin042_MMFCLHOO_00308;dRep_bin041_OPKGAAAG_00762;dRep_bin024_OLHDGABE_00679;dRep_bin016_JLGAHGOJ_01831;dRep_bin001_GHHJMDAL_00660;dRep_bin349_AMCJEEEG_00131;dRep_bin312_MJFEFHMP_00833;dRep_bin264_DNFFGNEG_00100;dRep_bin246_MMFBABHK_00297;dRep_bin219_HGPEELLF_00003;dRep_bin174_LJJOKEME_01103;dRep_bin129_GADIAMAA_01409;dRep_bin127_FIPNHBCH_00703;dRep_bin077_DNNBMPMC_01278;dRep_bin030_OGPDLGOC_01790;dRep_bin004_OCHNPJPO_01519;dRep_bin218_ACMPALGF_00968;dRep_bin185_OOOLKACK_00657;dRep_bin181_MKGPMPIA_00538;dRep_bin148_NAJFKJMD_01090;dRep_bin058_GJKCICJN_01056;dRep_bin291_EILOACJB_00579;dRep_bin244_LBFMHLBI_01277;dRep_bin223_PIMCDKJI_01006;dRep_bin204_INMOGLDN_01473;dRep_bin184_MBMMJHKO_00222;dRep_bin302_AHDEPDKG_00621;dRep_bin265_LFKFBJPC_00590;dRep_bin233_BAGKKAOB_00885;dRep_bin188_EJILNMPE_01053;dRep_bin081_JDPCKDNP_01324;dRep_bin318_IEDEJOFJ_00724;dRep_bin144_NPHACCKF_00221;dRep_bin096_GNHMEKPF_00086;dRep_bin344_CJJBDGAA_01489;dRep_bin295_EJGKDKNE_00851;dRep_bin048_PABMBHAL_01507;dRep_bin303_DDDNDJCF_00663;dRep_bin283_NLJJFFAC_01754;dRep_bin201_OLKDIBOK_00523;dRep_bin139_KGAJINND_01276;dRep_bin134_HIAPAODO_01158;dRep_bin094_LBLICAAO_00942;dRep_bin062_BOFBFLDA_00417;dRep_bin336_MPGOKPOL_02385;dRep_bin082_HBEFABJN_00650;dRep_bin125_FADLGGII_00540;dRep_bin334_NAPFFNLD_01195;dRep_bin217_MJCEAEPB_00530;dRep_bin195_DDMDFNOK_00971;dRep_bin060_HNFNENOI_00088;dRep_bin328_GIGKNKPJ_00426;dRep_bin281_OGHLKMAI_01076;dRep_bin197_NHLBHFEI_00626;dRep_bin103_IGJBLKMC_00726;dRep_bin116_CLFDBMOF_00455;dRep_bin332_KAOPCDPF_00448;dRep_bin345_GLPJDLOI_00589;dRep_bin314_KCHFPLIP_00788;dRep_bin128_JPBBHEMA_00693;dRep_bin073_AKBCEHHO_01462;dRep_bin045_GJACFFBC_00428;dRep_bin329_GDOHKPBL_01522;dRep_bin316_FNLHDNEO_00349;dRep_bin307_AOCKHIKF_00400;dRep_bin294_EHJINIDK_01408;dRep_bin289_KALDCNNP_01327;dRep_bin183_FPGIOKBG_00622;dRep_bin098_DDEBHDKK_01308;dRep_bin165_HMDFFMMM_01247;dRep_bin037_GEAOEKHA_01212;dRep_bin256_KEMNAOBC_00113;dRep_bin092_OOJCPDEA_01143;dRep_bin126_PPDNCIBN_00264;dRep_bin090_IPGNHCBJ_00911;dRep_bin215_ABBFGCAF_00280;dRep_bin005_CNDFPKJG_00629;dRep_bin270_GEJAHNCN_01426;dRep_bin116_CLFDBMOF_00686;dRep_bin069_EGGEOGDC_00857;dRep_bin007_LNLEAAAN_01604;dRep_bin057_BNCFHBBO_01159;dRep_bin038_EIGFILKG_00229;dRep_bin114_FJHJKHGL_00934;dRep_bin152_LJMCIADF_00045;dRep_bin322_OJELOJOF_00826;dRep_bin266_JFOCEDAE_00030;dRep_bin194_MEPDOGGJ_01235;dRep_bin079_GAOGCKND_01437;dRep_bin068_ENOLAELK_01387;dRep_bin025_CBEJJMLE_00917;dRep_bin240_LDBBGJKG_00802;dRep_bin347_EKGCMFPD_01498;dRep_bin167_BLMEBMNN_00596;dRep_bin160_EFKMPBOM_02114;dRep_bin260_HELEPKJL_02017;dRep_bin091_MAFACGAD_00797;dRep_bin099_DNDAGJEJ_01471;dRep_bin278_BFCONKOE_01179;dRep_bin168_HKDILBFE_00397;dRep_bin284_DEHKNOBF_00737;dRep_bin001_GHHJMDAL_01209;dRep_bin236_BNONDECB_00531;dRep_bin286_OEMIJKMC_01078;dRep_bin231_CFOLMJBA_00464;dRep_bin193_GDMDPNNM_00224;dRep_bin172_ALNHGLMD_01787;dRep_bin182_EMCFODCD_00065;dRep_bin044_IPFKHAEF_00183	dRep_bin021_AJDDCGJC_00051;dRep_bin252_NDAKLAGD_00826;dRep_bin317_ABPHNCOD_01131;dRep_bin216_JNJMCPHB_01076;dRep_bin272_LGBDGEIM_00618;dRep_bin097_CBBLIPAN_01579;dRep_bin053_OMGNPOOB_00833;dRep_bin337_FHKPNFDB_00090;dRep_bin052_PGOOKKFH_01594	>dRep_bin021_AJDDCGJC_00051 ATP synthase subunit alpha;>dRep_bin252_NDAKLAGD_00826 ATP synthase subunit alpha;>dRep_bin317_ABPHNCOD_01131 ATP synthase subunit alpha;>dRep_bin216_JNJMCPHB_01076 ATP synthase subunit alpha;>dRep_bin272_LGBDGEIM_00618 ATP synt	dRep_bin284_DEHKNOBF_00281	CDS	atpA_1	3.6.3.14	ATP synthase subunit alpha
DEHKNOBF_00300	27.598329999999997	25.482719999999993	26.17653									11	1	1,5954E-65	dRep_bin284_DEHKNOBF_00300;dRep_bin347_EKGCMFPD_01790;dRep_bin124_HIHDFGCL_00314;dRep_bin236_BNONDECB_00048	dRep_bin284_DEHKNOBF_00300	>dRep_bin284_DEHKNOBF_00300 60 kDa chaperonin	dRep_bin284_DEHKNOBF_00300	CDS	groL_1		60 kDa chaperonin
DEHKNOBF_00331								25.607550000000003				2	2	0,0001669	dRep_bin201_OLKDIBOK_00470;dRep_bin167_BLMEBMNN_00889;dRep_bin203_CLFNNOCF_00231;dRep_bin335_JIOGNAPG_01017;dRep_bin284_DEHKNOBF_00331;dRep_bin220_PILICLLL_01670;dRep_bin139_KGAJINND_00985;dRep_bin160_EFKMPBOM_00479;dRep_bin154_JGOKHKLI_00231;dRep_bin310_IMBAFDIF_01111	dRep_bin201_OLKDIBOK_00470;dRep_bin167_BLMEBMNN_00889;dRep_bin203_CLFNNOCF_00231;dRep_bin335_JIOGNAPG_01017;dRep_bin284_DEHKNOBF_00331;dRep_bin220_PILICLLL_01670;dRep_bin139_KGAJINND_00985;dRep_bin160_EFKMPBOM_00479;dRep_bin154_JGOKHKLI_00231;dRep_bin310_IMBAFDIF_01111	>dRep_bin201_OLKDIBOK_00470 Cytidylate kinase;>dRep_bin167_BLMEBMNN_00889 Cytidylate kinase;>dRep_bin203_CLFNNOCF_00231 Cytidylate kinase;>dRep_bin335_JIOGNAPG_01017 Cytidylate kinase;>dRep_bin284_DEHKNOBF_00331 Cytidylate kinase;>dRep_bin220_PILICLLL_0167	dRep_bin284_DEHKNOBF_00331	CDS	cmk_1	2.7.4.25	Cytidylate kinase
DEHKNOBF_00333	26.994419999999998	26.63464	27.34925	27.54429								8	3	1,5706E-66	dRep_bin196_BIELHBNH_00015;dRep_bin137_NABPABPB_01412;dRep_bin298_EIPJCOMF_00014;dRep_bin271_NGFBCHKH_01102;dRep_bin198_GMLJKALI_00749;dRep_bin064_CMDDCDKG_00564;dRep_bin329_GDOHKPBL_00934;dRep_bin296_FDMPKPOH_00350;dRep_bin037_GEAOEKHA_01499;dRep_bin347_EKGCMFPD_00147;dRep_bin284_DEHKNOBF_00333;dRep_bin131_HLFNHDGI_01179;dRep_bin022_BOEAFNDE_00771;dRep_bin346_JKFDGFHC_00525;dRep_bin288_KOIAAABN_00570;dRep_bin063_PJANDMAH_00650;dRep_bin036_DOKCEIDH_00956;dRep_bin034_MEBMFDLL_01721;dRep_bin007_LNLEAAAN_00850;dRep_bin183_FPGIOKBG_00464	dRep_bin196_BIELHBNH_00015;dRep_bin137_NABPABPB_01412;dRep_bin298_EIPJCOMF_00014;dRep_bin271_NGFBCHKH_01102;dRep_bin198_GMLJKALI_00749	>dRep_bin196_BIELHBNH_00015 Gluconate 5-dehydrogenase;>dRep_bin137_NABPABPB_01412 Gluconate 5-dehydrogenase;>dRep_bin298_EIPJCOMF_00014 Gluconate 5-dehydrogenase;>dRep_bin271_NGFBCHKH_01102 Gluconate 5-dehydrogenase;>dRep_bin198_GMLJKALI_00749 Gluconate 5-	dRep_bin284_DEHKNOBF_00333	CDS	gno	1.1.1.69	Gluconate 5-dehydrogenase
DEHKNOBF_00340			23.286019999999997	23.610880000000005								4	1	5,7789E-14	dRep_bin133_NOBPDBPA_01467;dRep_bin209_NKIHFCEN_01581;dRep_bin179_HFEIPPPA_02264;dRep_bin226_NLNLHLLD_01531;dRep_bin324_IPNHOHFK_01023;dRep_bin335_JIOGNAPG_00849;dRep_bin297_EDHEEICA_01086;dRep_bin308_JBPDGLPP_01561;dRep_bin249_OFIIEIDJ_01347;dRep_bin024_OLHDGABE_00861;dRep_bin248_CCDFPECI_00398;dRep_bin095_HOBNOEEF_00461;dRep_bin168_HKDILBFE_01532;dRep_bin099_DNDAGJEJ_00152;dRep_bin091_MAFACGAD_01498;dRep_bin053_OMGNPOOB_00496;dRep_bin347_EKGCMFPD_00942;dRep_bin017_FGFLFOPJ_00104;dRep_bin001_GHHJMDAL_00099;dRep_bin260_HELEPKJL_01156;dRep_bin139_KGAJINND_00655;dRep_bin284_DEHKNOBF_00340;dRep_bin158_OGFICEAP_00774;dRep_bin115_IFKGOGCL_00685;dRep_bin023_HGFJFKAI_00316;dRep_bin127_FIPNHBCH_00146;dRep_bin254_GJDPFAEA_01402;dRep_bin167_BLMEBMNN_01288;dRep_bin328_GIGKNKPJ_00098;dRep_bin065_DFABHCBI_00298	dRep_bin133_NOBPDBPA_01467;dRep_bin209_NKIHFCEN_01581;dRep_bin179_HFEIPPPA_02264;dRep_bin226_NLNLHLLD_01531;dRep_bin324_IPNHOHFK_01023;dRep_bin335_JIOGNAPG_00849;dRep_bin297_EDHEEICA_01086	>dRep_bin133_NOBPDBPA_01467 2,3-dimethylmalate dehydratase large subunit;>dRep_bin209_NKIHFCEN_01581 2,3-dimethylmalate dehydratase large subunit;>dRep_bin179_HFEIPPPA_02264 2,3-dimethylmalate dehydratase large subunit;>dRep_bin226_NLNLHLLD_01531 Homoaconi	dRep_bin284_DEHKNOBF_00340	CDS	dmdA_1	4.2.1.85	2,3-dimethylmalate dehydratase large subunit
DEHKNOBF_00375		25.748829999999998										4	0	8,0699E-06	dRep_bin337_FHKPNFDB_01408;dRep_bin152_LJMCIADF_00667;dRep_bin068_ENOLAELK_01178;dRep_bin245_MBCFLKOF_01649;dRep_bin010_MFFFGEGD_00454;dRep_bin319_PBDBJGCJ_00942;dRep_bin194_MEPDOGGJ_01294;dRep_bin123_PJKBFKBB_00399;dRep_bin109_MJABCPAK_00221;dRep_bin025_CBEJJMLE_00844;dRep_bin025_CBEJJMLE_00391;dRep_bin299_AKNBKJGM_01456;dRep_bin284_DEHKNOBF_00375;dRep_bin106_BKDHGPBE_00581;dRep_bin038_EIGFILKG_00540;dRep_bin241_LMMMGDNI_00900;dRep_bin143_PFLDJMPF_00231;dRep_bin304_JDNJGFKH_01113;dRep_bin220_PILICLLL_00136;dRep_bin115_IFKGOGCL_01921;dRep_bin032_PPNIGLME_01078	dRep_bin337_FHKPNFDB_01408;dRep_bin152_LJMCIADF_00667;dRep_bin068_ENOLAELK_01178;dRep_bin245_MBCFLKOF_01649;dRep_bin010_MFFFGEGD_00454	>dRep_bin337_FHKPNFDB_01408 O-acetylserine sulfhydrylase;>dRep_bin152_LJMCIADF_00667 Cysteine synthase;>dRep_bin068_ENOLAELK_01178 Cysteine synthase;>dRep_bin245_MBCFLKOF_01649 O-acetylserine sulfhydrylase;>dRep_bin010_MFFFGEGD_00454 O-acetylserine sulfhyd	dRep_bin284_DEHKNOBF_00375	CDS	cysK_3	2.5.1.47	Cysteine synthase
DEHKNOBF_00389	30.30008	30.77894	30.371810000000004	31.1805	31.66818	31.79777	30.85809	31.788309999999996				22	9	0	dRep_bin191_NGFJMLOL_01304;dRep_bin138_EJGHNBMI_01845;dRep_bin284_DEHKNOBF_00389	dRep_bin191_NGFJMLOL_01304	>dRep_bin191_NGFJMLOL_01304 30S ribosomal protein S1	dRep_bin284_DEHKNOBF_00389	CDS	polC	2.7.7.7	DNA polymerase III PolC-type
DEHKNOBF_00417		25.30501										4	0	2,483E-41	dRep_bin347_EKGCMFPD_00111;dRep_bin284_DEHKNOBF_00417	dRep_bin347_EKGCMFPD_00111;dRep_bin284_DEHKNOBF_00417	>dRep_bin347_EKGCMFPD_00111 Acetate kinase;>dRep_bin284_DEHKNOBF_00417 Acetate kinase	dRep_bin284_DEHKNOBF_00417	CDS	ackA	2.7.2.1	Acetate kinase
DEHKNOBF_00421	28.738789999999998	28.75124	29.01084	29.3506	29.64461	30.02168	29.81859	30.104370000000003				12	4	1,026E-72	dRep_bin191_NGFJMLOL_01578;dRep_bin070_EMBHKIOF_00129;dRep_bin154_JGOKHKLI_00366;dRep_bin055_IBMMJAEE_00161;dRep_bin328_GIGKNKPJ_00645;dRep_bin047_IFFANOMN_00612;dRep_bin027_OFJCHLJJ_00977;dRep_bin005_CNDFPKJG_01432;dRep_bin278_BFCONKOE_00469;dRep_bin282_PKAAPBFP_00320;dRep_bin284_DEHKNOBF_00421;dRep_bin303_DDDNDJCF_00133;dRep_bin287_DONBGKDH_00272;dRep_bin220_PILICLLL_00145;dRep_bin107_EFNBPDOP_01320;dRep_bin158_OGFICEAP_01424;dRep_bin323_FBBLPLCG_01090;dRep_bin318_IEDEJOFJ_00395;dRep_bin308_JBPDGLPP_01660;dRep_bin306_FGHMKMMP_01032;dRep_bin261_FJICAFFM_00034;dRep_bin240_LDBBGJKG_01385;dRep_bin234_ECABPBME_00209;dRep_bin181_MKGPMPIA_00707;dRep_bin077_DNNBMPMC_00629;dRep_bin066_AJACLPEE_00619;dRep_bin065_DFABHCBI_01813;dRep_bin023_HGFJFKAI_00570;dRep_bin235_EGJBMLPF_00465;dRep_bin186_HJAAFFNP_00454;dRep_bin145_KMJJJOEJ_01616;dRep_bin095_HOBNOEEF_00383	dRep_bin191_NGFJMLOL_01578;dRep_bin070_EMBHKIOF_00129	>dRep_bin191_NGFJMLOL_01578 hypothetical protein;>dRep_bin070_EMBHKIOF_00129 hypothetical protein	dRep_bin284_DEHKNOBF_00421	CDS			hypothetical protein
DEHKNOBF_00489			22.460569999999997									2	1	2,4794E-10	dRep_bin135_HHKACLPM_01315;dRep_bin249_OFIIEIDJ_01934;dRep_bin284_DEHKNOBF_00489;dRep_bin001_GHHJMDAL_00077;dRep_bin300_MJPPENNL_01366;dRep_bin306_FGHMKMMP_00653;dRep_bin023_HGFJFKAI_00503;dRep_bin332_KAOPCDPF_01288;dRep_bin344_CJJBDGAA_01850;dRep_bin310_IMBAFDIF_00279;dRep_bin288_KOIAAABN_00684;dRep_bin248_CCDFPECI_01334;dRep_bin254_GJDPFAEA_02026;dRep_bin277_MIPNGEJE_00216;dRep_bin293_MEPKGOAN_00506;dRep_bin075_EPEMMOCL_01819;dRep_bin286_OEMIJKMC_00231;dRep_bin115_IFKGOGCL_01177;dRep_bin005_CNDFPKJG_01656;dRep_bin095_HOBNOEEF_00899;dRep_bin197_NHLBHFEI_00443;dRep_bin281_OGHLKMAI_00140;dRep_bin058_GJKCICJN_01024;dRep_bin263_OLEFOGIJ_00135;dRep_bin189_AHHEHGDL_00535;dRep_bin103_IGJBLKMC_00221;dRep_bin205_LKIOOBKC_01773;dRep_bin011_KOGMKLNO_00247;dRep_bin304_JDNJGFKH_00846;dRep_bin120_EKLBOPNC_01967;dRep_bin083_OCBADPJJ_00857	dRep_bin135_HHKACLPM_01315;dRep_bin249_OFIIEIDJ_01934;dRep_bin284_DEHKNOBF_00489;dRep_bin001_GHHJMDAL_00077;dRep_bin300_MJPPENNL_01366;dRep_bin306_FGHMKMMP_00653;dRep_bin023_HGFJFKAI_00503;dRep_bin332_KAOPCDPF_01288;dRep_bin344_CJJBDGAA_01850;dRep_bin310_IMBAFDIF_00279;dRep_bin288_KOIAAABN_00684;dRep_bin248_CCDFPECI_01334;dRep_bin254_GJDPFAEA_02026;dRep_bin277_MIPNGEJE_00216;dRep_bin293_MEPKGOAN_00506;dRep_bin075_EPEMMOCL_01819;dRep_bin286_OEMIJKMC_00231;dRep_bin115_IFKGOGCL_01177;dRep_bin005_CNDFPKJG_01656;dRep_bin095_HOBNOEEF_00899;dRep_bin197_NHLBHFEI_00443;dRep_bin281_OGHLKMAI_00140;dRep_bin058_GJKCICJN_01024;dRep_bin263_OLEFOGIJ_00135;dRep_bin189_AHHEHGDL_00535;dRep_bin103_IGJBLKMC_00221;dRep_bin205_LKIOOBKC_01773;dRep_bin011_KOGMKLNO_00247;dRep_bin304_JDNJGFKH_00846;dRep_bin120_EKLBOPNC_01967;dRep_bin083_OCBADPJJ_00857	>dRep_bin135_HHKACLPM_01315 Leucine--tRNA ligase;>dRep_bin249_OFIIEIDJ_01934 Leucine--tRNA ligase;>dRep_bin284_DEHKNOBF_00489 Leucine--tRNA ligase;>dRep_bin001_GHHJMDAL_00077 Leucine--tRNA ligase;>dRep_bin300_MJPPENNL_01366 Leucine--tRNA ligase;>dRep_bin30	dRep_bin284_DEHKNOBF_00489	CDS	leuS	6.1.1.4	Leucine--tRNA ligase
DEHKNOBF_00519	28.87812	31.03453	28.62721	29.76994	28.290789999999998			28.22394				41	5	0	F1S0D7;dRep_bin284_DEHKNOBF_00519;dRep_bin169_PNICKJKO_00019;dRep_bin099_DNDAGJEJ_00743	F1S0D7	>tr|F1S0D7|F1S0D7_PIG Uncharacterized protein OS=Sus scrofa OX=9823 GN=LCT PE=1 SV=3	dRep_bin284_DEHKNOBF_00519	CDS	bglA	3.2.1.21	Beta-glucosidase A
DEHKNOBF_00528					27.69551	26.73647	28.803539999999998	26.756719999999998				13	8	7,5848E-36	dRep_bin095_HOBNOEEF_02146;dRep_bin344_CJJBDGAA_00010;dRep_bin257_JHFDCHCB_01336;dRep_bin284_DEHKNOBF_00528;dRep_bin347_EKGCMFPD_01713;dRep_bin300_MJPPENNL_01266;dRep_bin078_GKFCBAEI_00853;dRep_bin277_MIPNGEJE_00107;dRep_bin282_PKAAPBFP_00957;dRep_bin328_GIGKNKPJ_01683;dRep_bin324_IPNHOHFK_00096;dRep_bin157_JPNIKEKI_00049;dRep_bin133_NOBPDBPA_03446;dRep_bin019_MOJEPLJF_00699;dRep_bin046_GKEJLOEK_00562;dRep_bin024_OLHDGABE_00401;dRep_bin203_CLFNNOCF_00605;dRep_bin179_HFEIPPPA_01869;dRep_bin005_CNDFPKJG_00925;dRep_bin088_DNGPPFDK_00832	dRep_bin095_HOBNOEEF_02146	>dRep_bin095_HOBNOEEF_02146 Phosphoglucomutase	dRep_bin284_DEHKNOBF_00528	CDS	pgcA	5.4.2.2	Phosphoglucomutase
DEHKNOBF_00534	22.557470000000002											14	2	4,8432E-121	dRep_bin284_DEHKNOBF_00534	dRep_bin284_DEHKNOBF_00534	>dRep_bin284_DEHKNOBF_00534 NADP-specific glutamate dehydrogenase	dRep_bin284_DEHKNOBF_00534	CDS	gdh	1.4.1.4	NADP-specific glutamate dehydrogenase
DEHKNOBF_00560								19.97281				4	1	5,2793E-19	dRep_bin193_GDMDPNNM_01689;dRep_bin220_PILICLLL_01952;dRep_bin041_OPKGAAAG_00715;dRep_bin254_GJDPFAEA_00837;dRep_bin310_IMBAFDIF_01407;dRep_bin201_OLKDIBOK_01392;dRep_bin039_IJNOFOJK_02171;dRep_bin082_HBEFABJN_01081;dRep_bin339_DBNBAHDK_01799;dRep_bin284_DEHKNOBF_00560;dRep_bin006_HPJGJCAG_01500;dRep_bin154_JGOKHKLI_00516;dRep_bin160_EFKMPBOM_00836	dRep_bin193_GDMDPNNM_01689;dRep_bin220_PILICLLL_01952;dRep_bin041_OPKGAAAG_00715;dRep_bin254_GJDPFAEA_00837;dRep_bin310_IMBAFDIF_01407;dRep_bin201_OLKDIBOK_01392;dRep_bin039_IJNOFOJK_02171;dRep_bin082_HBEFABJN_01081	>dRep_bin193_GDMDPNNM_01689 Oleate hydratase;>dRep_bin220_PILICLLL_01952 Oleate hydratase;>dRep_bin041_OPKGAAAG_00715 Oleate hydratase;>dRep_bin254_GJDPFAEA_00837 Oleate hydratase;>dRep_bin310_IMBAFDIF_01407 Oleate hydratase;>dRep_bin201_OLKDIBOK_01392 Ole	dRep_bin284_DEHKNOBF_00560	CDS		4.2.1.53	Oleate hydratase
DEHKNOBF_00598			22.09941									2	1	6,714E-06	dRep_bin179_HFEIPPPA_02337;dRep_bin324_IPNHOHFK_00622;dRep_bin116_CLFDBMOF_00799;dRep_bin006_HPJGJCAG_01804;dRep_bin302_AHDEPDKG_00994;dRep_bin306_FGHMKMMP_00469;dRep_bin292_JIBLDOOH_01500;dRep_bin226_NLNLHLLD_00785;dRep_bin209_NKIHFCEN_02132;dRep_bin269_PNILGKPH_00882;dRep_bin238_OLNFACLE_00688;dRep_bin025_CBEJJMLE_00614;dRep_bin347_EKGCMFPD_00065;dRep_bin001_GHHJMDAL_01148;dRep_bin322_OJELOJOF_00643;dRep_bin284_DEHKNOBF_00598;dRep_bin266_JFOCEDAE_00905;dRep_bin023_HGFJFKAI_01708;dRep_bin115_IFKGOGCL_02485;dRep_bin158_OGFICEAP_00573;dRep_bin234_ECABPBME_00814;dRep_bin027_OFJCHLJJ_01525	dRep_bin179_HFEIPPPA_02337;dRep_bin324_IPNHOHFK_00622;dRep_bin116_CLFDBMOF_00799;dRep_bin006_HPJGJCAG_01804;dRep_bin302_AHDEPDKG_00994;dRep_bin306_FGHMKMMP_00469;dRep_bin292_JIBLDOOH_01500;dRep_bin226_NLNLHLLD_00785;dRep_bin209_NKIHFCEN_02132;dRep_bin269_PNILGKPH_00882;dRep_bin238_OLNFACLE_00688;dRep_bin025_CBEJJMLE_00614;dRep_bin347_EKGCMFPD_00065;dRep_bin001_GHHJMDAL_01148;dRep_bin322_OJELOJOF_00643;dRep_bin284_DEHKNOBF_00598;dRep_bin266_JFOCEDAE_00905;dRep_bin023_HGFJFKAI_01708;dRep_bin115_IFKGOGCL_02485;dRep_bin158_OGFICEAP_00573;dRep_bin234_ECABPBME_00814;dRep_bin027_OFJCHLJJ_01525	>dRep_bin179_HFEIPPPA_02337 Diaminopimelate decarboxylase;>dRep_bin324_IPNHOHFK_00622 Diaminopimelate decarboxylase;>dRep_bin116_CLFDBMOF_00799 Diaminopimelate decarboxylase;>dRep_bin006_HPJGJCAG_01804 Diaminopimelate decarboxylase;>dRep_bin302_AHDEPDKG_00	dRep_bin284_DEHKNOBF_00598	CDS	lysA	4.1.1.20	Diaminopimelate decarboxylase
DEHKNOBF_00608	24.4106	25.16818		24.759999999999998								7	0	1,2922E-30	dRep_bin284_DEHKNOBF_00608;dRep_bin332_KAOPCDPF_00219	dRep_bin284_DEHKNOBF_00608	>dRep_bin284_DEHKNOBF_00608 Phosphoserine aminotransferase	dRep_bin284_DEHKNOBF_00608	CDS	serC	2.6.1.52	Phosphoserine aminotransferase
DEHKNOBF_00726						24.113390000000003						2	1	2,5993E-07	dRep_bin240_LDBBGJKG_01001;dRep_bin001_GHHJMDAL_01372;dRep_bin143_PFLDJMPF_00153;dRep_bin024_OLHDGABE_00846;dRep_bin181_MKGPMPIA_00709;dRep_bin077_DNNBMPMC_01859;dRep_bin005_CNDFPKJG_00656;dRep_bin150_HCDEOBMH_01568;dRep_bin135_HHKACLPM_01559;dRep_bin075_EPEMMOCL_02034;dRep_bin091_MAFACGAD_00181;dRep_bin007_LNLEAAAN_01218;dRep_bin282_PKAAPBFP_00655;dRep_bin254_GJDPFAEA_01551;dRep_bin249_OFIIEIDJ_01140;dRep_bin127_FIPNHBCH_01645;dRep_bin347_EKGCMFPD_00098;dRep_bin322_OJELOJOF_01214;dRep_bin310_IMBAFDIF_01594;dRep_bin287_DONBGKDH_00226;dRep_bin284_DEHKNOBF_00726;dRep_bin266_JFOCEDAE_00133;dRep_bin186_HJAAFFNP_01238;dRep_bin145_KMJJJOEJ_00954;dRep_bin115_IFKGOGCL_00554;dRep_bin065_DFABHCBI_01587;dRep_bin248_CCDFPECI_01609;dRep_bin095_HOBNOEEF_01791;dRep_bin160_EFKMPBOM_01116;dRep_bin154_JGOKHKLI_00150;dRep_bin081_JDPCKDNP_01583;dRep_bin336_MPGOKPOL_01589;dRep_bin306_FGHMKMMP_01590;dRep_bin056_EMNHHOJA_00230;dRep_bin309_BIOHLCGG_00694;dRep_bin302_AHDEPDKG_01234;dRep_bin257_JHFDCHCB_02163;dRep_bin147_EJLBNEBE_01266;dRep_bin124_HIHDFGCL_00964;dRep_bin194_MEPDOGGJ_01159;dRep_bin025_CBEJJMLE_01722;dRep_bin293_MEPKGOAN_00673;dRep_bin058_GJKCICJN_00893;dRep_bin074_EHAOMODJ_00750	dRep_bin240_LDBBGJKG_01001;dRep_bin001_GHHJMDAL_01372;dRep_bin143_PFLDJMPF_00153;dRep_bin024_OLHDGABE_00846;dRep_bin181_MKGPMPIA_00709;dRep_bin077_DNNBMPMC_01859;dRep_bin005_CNDFPKJG_00656;dRep_bin150_HCDEOBMH_01568;dRep_bin135_HHKACLPM_01559;dRep_bin075_EPEMMOCL_02034;dRep_bin091_MAFACGAD_00181;dRep_bin007_LNLEAAAN_01218;dRep_bin282_PKAAPBFP_00655;dRep_bin254_GJDPFAEA_01551;dRep_bin249_OFIIEIDJ_01140;dRep_bin127_FIPNHBCH_01645;dRep_bin347_EKGCMFPD_00098;dRep_bin322_OJELOJOF_01214;dRep_bin310_IMBAFDIF_01594;dRep_bin287_DONBGKDH_00226;dRep_bin284_DEHKNOBF_00726;dRep_bin266_JFOCEDAE_00133;dRep_bin186_HJAAFFNP_01238;dRep_bin145_KMJJJOEJ_00954;dRep_bin115_IFKGOGCL_00554;dRep_bin065_DFABHCBI_01587;dRep_bin248_CCDFPECI_01609;dRep_bin095_HOBNOEEF_01791;dRep_bin160_EFKMPBOM_01116;dRep_bin154_JGOKHKLI_00150;dRep_bin081_JDPCKDNP_01583;dRep_bin336_MPGOKPOL_01589;dRep_bin306_FGHMKMMP_01590;dRep_bin056_EMNHHOJA_00230;dRep_bin309_BIOHLCGG_00694;dRep_bin302_AHDEPDKG_01234;dRep_bin257_JHFDCHCB_02163;dRep_bin147_EJLBNEBE_01266;dRep_bin124_HIHDFGCL_00964;dRep_bin194_MEPDOGGJ_01159;dRep_bin025_CBEJJMLE_01722;dRep_bin293_MEPKGOAN_00673;dRep_bin058_GJKCICJN_00893;dRep_bin074_EHAOMODJ_00750	>dRep_bin240_LDBBGJKG_01001 Glutaconyl-CoA decarboxylase subunit beta;>dRep_bin001_GHHJMDAL_01372 Glutaconyl-CoA decarboxylase subunit beta;>dRep_bin143_PFLDJMPF_00153 Glutaconyl-CoA decarboxylase subunit beta;>dRep_bin024_OLHDGABE_00846 Glutaconyl-CoA dec	dRep_bin284_DEHKNOBF_00726	CDS	gcdB	4.1.1.70	Glutaconyl-CoA decarboxylase subunit beta
DEHKNOBF_00825						24.67971		24.857000000000003				8	0	1,3699E-25	dRep_bin292_JIBLDOOH_01683;dRep_bin209_NKIHFCEN_01847;dRep_bin300_MJPPENNL_01104;dRep_bin297_EDHEEICA_01589;dRep_bin158_OGFICEAP_00645;dRep_bin145_KMJJJOEJ_01481;dRep_bin075_EPEMMOCL_01001;dRep_bin279_IAEFEPEN_00173;dRep_bin261_FJICAFFM_00231;dRep_bin203_CLFNNOCF_01942;dRep_bin180_JMFOHHIL_00474;dRep_bin344_CJJBDGAA_00237;dRep_bin115_IFKGOGCL_02756;dRep_bin248_CCDFPECI_01893;dRep_bin095_HOBNOEEF_01556;dRep_bin069_EGGEOGDC_00965;dRep_bin017_FGFLFOPJ_00592;dRep_bin016_JLGAHGOJ_00202;dRep_bin007_LNLEAAAN_00807;dRep_bin047_IFFANOMN_01298;dRep_bin306_FGHMKMMP_01230;dRep_bin308_JBPDGLPP_00751;dRep_bin160_EFKMPBOM_00970;dRep_bin349_AMCJEEEG_00332;dRep_bin260_HELEPKJL_02007;dRep_bin107_EFNBPDOP_01388;dRep_bin135_HHKACLPM_01683;dRep_bin039_IJNOFOJK_01477;dRep_bin027_OFJCHLJJ_00143;dRep_bin046_GKEJLOEK_00472;dRep_bin325_EIIGOGHN_00365;dRep_bin322_OJELOJOF_00229;dRep_bin077_DNNBMPMC_00896;dRep_bin220_PILICLLL_01164;dRep_bin282_PKAAPBFP_01479;dRep_bin081_JDPCKDNP_01848;dRep_bin249_OFIIEIDJ_01249;dRep_bin091_MAFACGAD_00528;dRep_bin319_PBDBJGCJ_00293;dRep_bin284_DEHKNOBF_00825;dRep_bin154_JGOKHKLI_01489;dRep_bin186_HJAAFFNP_01555;dRep_bin332_KAOPCDPF_00765	dRep_bin292_JIBLDOOH_01683;dRep_bin209_NKIHFCEN_01847;dRep_bin300_MJPPENNL_01104;dRep_bin297_EDHEEICA_01589	>dRep_bin292_JIBLDOOH_01683 Methionine--tRNA ligase;>dRep_bin209_NKIHFCEN_01847 Methionine--tRNA ligase;>dRep_bin300_MJPPENNL_01104 Methionine--tRNA ligase;>dRep_bin297_EDHEEICA_01589 Methionine--tRNA ligase	dRep_bin284_DEHKNOBF_00825	CDS	metG	6.1.1.10	Methionine--tRNA ligase
DEHKNOBF_00839								23.62778				4	1	3,6641E-10	dRep_bin139_KGAJINND_00546;dRep_bin344_CJJBDGAA_00504;dRep_bin269_PNILGKPH_01782;dRep_bin186_HJAAFFNP_01230;dRep_bin160_EFKMPBOM_02028;dRep_bin154_JGOKHKLI_01570;dRep_bin027_OFJCHLJJ_01704;dRep_bin019_MOJEPLJF_00393;dRep_bin095_HOBNOEEF_01900;dRep_bin007_LNLEAAAN_01664;dRep_bin134_HIAPAODO_02032;dRep_bin220_PILICLLL_00626;dRep_bin201_OLKDIBOK_01146;dRep_bin158_OGFICEAP_00831;dRep_bin261_FJICAFFM_00403;dRep_bin347_EKGCMFPD_01461;dRep_bin328_GIGKNKPJ_00617;dRep_bin308_JBPDGLPP_01735;dRep_bin284_DEHKNOBF_00839;dRep_bin254_GJDPFAEA_01844;dRep_bin127_FIPNHBCH_00020;dRep_bin081_JDPCKDNP_00351;dRep_bin065_DFABHCBI_01741;dRep_bin001_GHHJMDAL_00049;dRep_bin335_JIOGNAPG_00092;dRep_bin282_PKAAPBFP_00201;dRep_bin260_HELEPKJL_01120;dRep_bin039_IJNOFOJK_00928;dRep_bin088_DNGPPFDK_00468;dRep_bin248_CCDFPECI_00111;dRep_bin107_EFNBPDOP_01463;dRep_bin077_DNNBMPMC_00533;dRep_bin300_MJPPENNL_00852;dRep_bin279_IAEFEPEN_01391;dRep_bin145_KMJJJOEJ_01298;dRep_bin062_BOFBFLDA_00998;dRep_bin016_JLGAHGOJ_00540;dRep_bin310_IMBAFDIF_00139;dRep_bin115_IFKGOGCL_00786;dRep_bin158_OGFICEAP_00832;dRep_bin066_AJACLPEE_00773;dRep_bin249_OFIIEIDJ_01720;dRep_bin324_IPNHOHFK_00378;dRep_bin287_DONBGKDH_00056;dRep_bin186_HJAAFFNP_01363;dRep_bin181_MKGPMPIA_00052;dRep_bin319_PBDBJGCJ_00396;dRep_bin278_BFCONKOE_00395;dRep_bin024_OLHDGABE_00254;dRep_bin135_HHKACLPM_01039	dRep_bin139_KGAJINND_00546;dRep_bin344_CJJBDGAA_00504;dRep_bin269_PNILGKPH_01782;dRep_bin186_HJAAFFNP_01230;dRep_bin160_EFKMPBOM_02028;dRep_bin154_JGOKHKLI_01570;dRep_bin027_OFJCHLJJ_01704;dRep_bin019_MOJEPLJF_00393;dRep_bin095_HOBNOEEF_01900;dRep_bin007_LNLEAAAN_01664;dRep_bin134_HIAPAODO_02032;dRep_bin220_PILICLLL_00626;dRep_bin201_OLKDIBOK_01146;dRep_bin158_OGFICEAP_00831;dRep_bin261_FJICAFFM_00403;dRep_bin347_EKGCMFPD_01461;dRep_bin328_GIGKNKPJ_00617;dRep_bin308_JBPDGLPP_01735;dRep_bin284_DEHKNOBF_00839;dRep_bin254_GJDPFAEA_01844;dRep_bin127_FIPNHBCH_00020;dRep_bin081_JDPCKDNP_00351;dRep_bin065_DFABHCBI_01741;dRep_bin001_GHHJMDAL_00049;dRep_bin335_JIOGNAPG_00092;dRep_bin282_PKAAPBFP_00201;dRep_bin260_HELEPKJL_01120;dRep_bin039_IJNOFOJK_00928;dRep_bin088_DNGPPFDK_00468;dRep_bin248_CCDFPECI_00111;dRep_bin107_EFNBPDOP_01463;dRep_bin077_DNNBMPMC_00533;dRep_bin300_MJPPENNL_00852;dRep_bin279_IAEFEPEN_01391;dRep_bin145_KMJJJOEJ_01298;dRep_bin062_BOFBFLDA_00998;dRep_bin016_JLGAHGOJ_00540;dRep_bin310_IMBAFDIF_00139	>dRep_bin139_KGAJINND_00546 ATP-dependent 6-phosphofructokinase;>dRep_bin344_CJJBDGAA_00504 ATP-dependent 6-phosphofructokinase;>dRep_bin269_PNILGKPH_01782 ATP-dependent 6-phosphofructokinase;>dRep_bin186_HJAAFFNP_01230 ATP-dependent 6-phosphofructokinase;	dRep_bin284_DEHKNOBF_00839	CDS	pfkA	2.7.1.11	ATP-dependent 6-phosphofructokinase
DEHKNOBF_00867	25.401519999999998	27.631240000000002	25.585659999999997	25.87893								4	2	1,8623E-78	dRep_bin284_DEHKNOBF_00867	dRep_bin284_DEHKNOBF_00867	>dRep_bin284_DEHKNOBF_00867 Flagellin	dRep_bin284_DEHKNOBF_00867	CDS	hag		Flagellin
DEHKNOBF_00930	27.902539999999995	28.78709	26.69578	26.813970000000005	25.797880000000003		24.730339999999998					6	2	2,3038E-264	dRep_bin297_EDHEEICA_01306;dRep_bin284_DEHKNOBF_00930;dRep_bin347_EKGCMFPD_00041	dRep_bin297_EDHEEICA_01306	>dRep_bin297_EDHEEICA_01306 Glucose-6-phosphate isomerase	dRep_bin284_DEHKNOBF_00930	CDS	pgi	5.3.1.9	Glucose-6-phosphate isomerase
DEHKNOBF_01030				25.503850000000003								6	2	1,1202E-80	dRep_bin347_EKGCMFPD_01441;dRep_bin284_DEHKNOBF_01030	dRep_bin347_EKGCMFPD_01441	>dRep_bin347_EKGCMFPD_01441 Phosphoglycerate kinase	dRep_bin284_DEHKNOBF_01030	CDS	pgk	2.7.2.3	Phosphoglycerate kinase
DEHKNOBF_01057					25.06357							5	1	3,6059E-73	dRep_bin203_CLFNNOCF_01682;dRep_bin347_EKGCMFPD_01504;dRep_bin284_DEHKNOBF_01057;dRep_bin260_HELEPKJL_00015;dRep_bin310_IMBAFDIF_00287;dRep_bin134_HIAPAODO_00846;dRep_bin062_BOFBFLDA_01435;dRep_bin300_MJPPENNL_01196;dRep_bin201_OLKDIBOK_02047;dRep_bin105_AAEIHAFF_01478;dRep_bin100_CODMOHGB_01221;dRep_bin088_DNGPPFDK_00866;dRep_bin277_MIPNGEJE_00690;dRep_bin166_DFIAJFEC_00146;dRep_bin161_JMKPMHCO_01114;dRep_bin059_OOBKFNPP_00125;dRep_bin046_GKEJLOEK_01062;dRep_bin091_MAFACGAD_00248;dRep_bin017_FGFLFOPJ_00727;dRep_bin354_MMOALAFN_00741;dRep_bin324_IPNHOHFK_00313;dRep_bin323_FBBLPLCG_01264;dRep_bin309_BIOHLCGG_01306;dRep_bin273_FGAEBHNP_00470;dRep_bin261_FJICAFFM_01100;dRep_bin148_NAJFKJMD_00795;dRep_bin115_IFKGOGCL_00123;dRep_bin069_EGGEOGDC_01056;dRep_bin344_CJJBDGAA_01161;dRep_bin249_OFIIEIDJ_00715;dRep_bin220_PILICLLL_00990;dRep_bin134_HIAPAODO_01436;dRep_bin065_DFABHCBI_00344;dRep_bin032_PPNIGLME_00203;dRep_bin270_GEJAHNCN_01587;dRep_bin065_DFABHCBI_00249;dRep_bin278_BFCONKOE_01054;dRep_bin016_JLGAHGOJ_00641;dRep_bin328_GIGKNKPJ_01462;dRep_bin308_JBPDGLPP_01172;dRep_bin303_DDDNDJCF_01320;dRep_bin254_GJDPFAEA_00870;dRep_bin234_ECABPBME_00536;dRep_bin186_HJAAFFNP_01789;dRep_bin167_BLMEBMNN_01296;dRep_bin107_EFNBPDOP_00511;dRep_bin077_DNNBMPMC_01864;dRep_bin066_AJACLPEE_01033;dRep_bin047_IFFANOMN_00697;dRep_bin135_HHKACLPM_00107;dRep_bin303_DDDNDJCF_00377;dRep_bin306_FGHMKMMP_01595;dRep_bin211_LGJEFJIK_00450;dRep_bin007_LNLEAAAN_01312;dRep_bin344_CJJBDGAA_01611;dRep_bin031_BNHMFOII_01628;dRep_bin353_PPDHLNJB_02118;dRep_bin254_GJDPFAEA_00869;dRep_bin094_LBLICAAO_00342;dRep_bin047_IFFANOMN_01357;dRep_bin120_EKLBOPNC_01832;dRep_bin168_HKDILBFE_01442;dRep_bin099_DNDAGJEJ_00392;dRep_bin215_ABBFGCAF_00798;dRep_bin029_LFMGBBEC_01628;dRep_bin240_LDBBGJKG_01094;dRep_bin279_IAEFEPEN_01491;dRep_bin130_OIFFANPF_01666;dRep_bin319_PBDBJGCJ_00268;dRep_bin017_FGFLFOPJ_00820;dRep_bin082_HBEFABJN_01328;dRep_bin245_MBCFLKOF_01762;dRep_bin027_OFJCHLJJ_00790;dRep_bin108_BPNCDINP_00911;dRep_bin308_JBPDGLPP_01750;dRep_bin193_GDMDPNNM_00480;dRep_bin344_CJJBDGAA_02078;dRep_bin049_MNFBDPNO_01413;dRep_bin096_GNHMEKPF_00097;dRep_bin104_EGLEJOLM_01934;dRep_bin339_DBNBAHDK_02499;dRep_bin321_EJNAAGJG_00755;dRep_bin273_FGAEBHNP_00835;dRep_bin250_NMCAMJIO_00087;dRep_bin247_EKGBJCBM_00317;dRep_bin148_NAJFKJMD_01189;dRep_bin337_FHKPNFDB_01633;dRep_bin320_LDBKCCKL_01786;dRep_bin304_JDNJGFKH_01982;dRep_bin286_OEMIJKMC_01141;dRep_bin231_CFOLMJBA_00953;dRep_bin162_JBGCCDIN_01636;dRep_bin126_PPDNCIBN_01067;dRep_bin109_MJABCPAK_00317;dRep_bin057_BNCFHBBO_00597;dRep_bin288_KOIAAABN_00012;dRep_bin263_OLEFOGIJ_00295;dRep_bin304_JDNJGFKH_00179;dRep_bin208_DHPGEIBC_00457;dRep_bin189_AHHEHGDL_01282;dRep_bin177_HLHGKLFL_00741;dRep_bin140_ACFAKGIL_00319;dRep_bin105_AAEIHAFF_01411;dRep_bin082_HBEFABJN_00692;dRep_bin010_MFFFGEGD_00717;dRep_bin005_CNDFPKJG_01705;dRep_bin287_DONBGKDH_01836;dRep_bin094_LBLICAAO_00388;dRep_bin058_GJKCICJN_00227;dRep_bin293_MEPKGOAN_00829;dRep_bin218_ACMPALGF_00229;dRep_bin205_LKIOOBKC_00417;dRep_bin172_ALNHGLMD_01439;dRep_bin159_ADJJGPBG_01342;dRep_bin143_PFLDJMPF_01248;dRep_bin101_BNDDLDCL_01982;dRep_bin091_MAFACGAD_01619;dRep_bin072_JOBJPCGA_00130;dRep_bin011_KOGMKLNO_01272;dRep_bin164_KHMELCCL_01402;dRep_bin305_FCIEFIHE_00371;dRep_bin222_GGCAJABB_00745;dRep_bin006_HPJGJCAG_01874;dRep_bin286_OEMIJKMC_01354;dRep_bin126_PPDNCIBN_00282;dRep_bin185_OOOLKACK_00819;dRep_bin043_KLAFNACO_00900;dRep_bin231_CFOLMJBA_01529;dRep_bin237_KJDLIPND_00869;dRep_bin147_EJLBNEBE_00138;dRep_bin186_HJAAFFNP_01790;dRep_bin081_JDPCKDNP_00172;dRep_bin069_EGGEOGDC_00890;dRep_bin282_PKAAPBFP_00016;dRep_bin206_OIIBOIAK_00984;dRep_bin161_JMKPMHCO_00782;dRep_bin278_BFCONKOE_00310;dRep_bin260_HELEPKJL_01944;dRep_bin336_MPGOKPOL_00897	dRep_bin203_CLFNNOCF_01682;dRep_bin347_EKGCMFPD_01504;dRep_bin284_DEHKNOBF_01057;dRep_bin260_HELEPKJL_00015;dRep_bin310_IMBAFDIF_00287;dRep_bin134_HIAPAODO_00846;dRep_bin062_BOFBFLDA_01435	>dRep_bin203_CLFNNOCF_01682 Glutamine synthetase;>dRep_bin347_EKGCMFPD_01504 Glutamine synthetase;>dRep_bin284_DEHKNOBF_01057 Glutamine synthetase;>dRep_bin260_HELEPKJL_00015 Glutamine synthetase;>dRep_bin310_IMBAFDIF_00287 Glutamine synthetase;>dRep_bin13	dRep_bin284_DEHKNOBF_01057	CDS	glnA_2	6.3.1.2	Glutamine synthetase
DEHKNOBF_01059		24.860219999999998										6	0	6,1241E-42	dRep_bin234_ECABPBME_00533;dRep_bin284_DEHKNOBF_01059	dRep_bin234_ECABPBME_00533	>dRep_bin234_ECABPBME_00533 Fructose-bisphosphate aldolase	dRep_bin284_DEHKNOBF_01059	CDS	fba	4.1.2.13	Fructose-bisphosphate aldolase
DEHKNOBF_01063		24.39774										1	1	1,3077E-05	dRep_bin284_DEHKNOBF_01063	dRep_bin284_DEHKNOBF_01063	>dRep_bin284_DEHKNOBF_01063 Putative bifunctional phosphatase/peptidyl-prolyl cis-trans isomerase	dRep_bin284_DEHKNOBF_01063	CDS			Putative bifunctional phosphatase/peptidyl-prolyl cis-trans isomerase
DEHKNOBF_01193	26.93157	28.541999999999998	26.81934	28.29693								5	4	7,792E-15	dRep_bin133_NOBPDBPA_01933;dRep_bin300_MJPPENNL_00038;dRep_bin115_IFKGOGCL_02771;dRep_bin143_PFLDJMPF_01319;dRep_bin066_AJACLPEE_00419;dRep_bin179_HFEIPPPA_00744;dRep_bin168_HKDILBFE_01479;dRep_bin016_JLGAHGOJ_00889;dRep_bin145_KMJJJOEJ_00382;dRep_bin079_GAOGCKND_00993;dRep_bin284_DEHKNOBF_01193;dRep_bin123_PJKBFKBB_00231	dRep_bin133_NOBPDBPA_01933;dRep_bin300_MJPPENNL_00038	>dRep_bin133_NOBPDBPA_01933 dTDP-4-dehydrorhamnose 3,5-epimerase;>dRep_bin300_MJPPENNL_00038 dTDP-4-dehydrorhamnose 3,5-epimerase	dRep_bin284_DEHKNOBF_01193	CDS	rfbC	5.1.3.13	dTDP-4-dehydrorhamnose 3,5-epimerase
DEHKNOBF_01291						24.5813						21	0	0	dRep_bin284_DEHKNOBF_01291	dRep_bin284_DEHKNOBF_01291	>dRep_bin284_DEHKNOBF_01291 Phosphoenolpyruvate carboxykinase (ATP)	dRep_bin284_DEHKNOBF_01291	CDS	pckA	4.1.1.49	Phosphoenolpyruvate carboxykinase (ATP)
DEHKNOBF_01357							23.661990000000003					8	1	3,9126E-84	dRep_bin284_DEHKNOBF_01357	dRep_bin284_DEHKNOBF_01357	>dRep_bin284_DEHKNOBF_01357 Xylulose-5-phosphate phosphoketolase	dRep_bin284_DEHKNOBF_01357	CDS	xpkA	4.1.2.9	Xylulose-5-phosphate phosphoketolase
DEHKNOBF_01431								22.71578				1	1	0,0044387	dRep_bin249_OFIIEIDJ_00122;dRep_bin041_OPKGAAAG_01976;dRep_bin269_PNILGKPH_00694;dRep_bin324_IPNHOHFK_01746;dRep_bin139_KGAJINND_00203;dRep_bin134_HIAPAODO_01440;dRep_bin310_IMBAFDIF_01190;dRep_bin297_EDHEEICA_00324;dRep_bin292_JIBLDOOH_01248;dRep_bin287_DONBGKDH_00552;dRep_bin284_DEHKNOBF_01431;dRep_bin282_PKAAPBFP_01594;dRep_bin248_CCDFPECI_00349;dRep_bin226_NLNLHLLD_00457;dRep_bin209_NKIHFCEN_01470;dRep_bin201_OLKDIBOK_00113;dRep_bin158_OGFICEAP_00289;dRep_bin154_JGOKHKLI_02118;dRep_bin145_KMJJJOEJ_01273;dRep_bin133_NOBPDBPA_04372;dRep_bin095_HOBNOEEF_01401;dRep_bin039_IJNOFOJK_00110;dRep_bin220_PILICLLL_01331;dRep_bin027_OFJCHLJJ_01236;dRep_bin266_JFOCEDAE_00675;dRep_bin001_GHHJMDAL_01115;dRep_bin160_EFKMPBOM_01722;dRep_bin261_FJICAFFM_00866;dRep_bin203_CLFNNOCF_02521;dRep_bin322_OJELOJOF_00188	dRep_bin249_OFIIEIDJ_00122;dRep_bin041_OPKGAAAG_01976;dRep_bin269_PNILGKPH_00694;dRep_bin324_IPNHOHFK_01746;dRep_bin139_KGAJINND_00203;dRep_bin134_HIAPAODO_01440;dRep_bin310_IMBAFDIF_01190;dRep_bin297_EDHEEICA_00324;dRep_bin292_JIBLDOOH_01248;dRep_bin287_DONBGKDH_00552;dRep_bin284_DEHKNOBF_01431;dRep_bin282_PKAAPBFP_01594;dRep_bin248_CCDFPECI_00349;dRep_bin226_NLNLHLLD_00457;dRep_bin209_NKIHFCEN_01470;dRep_bin201_OLKDIBOK_00113;dRep_bin158_OGFICEAP_00289;dRep_bin154_JGOKHKLI_02118;dRep_bin145_KMJJJOEJ_01273;dRep_bin133_NOBPDBPA_04372;dRep_bin095_HOBNOEEF_01401;dRep_bin039_IJNOFOJK_00110;dRep_bin220_PILICLLL_01331;dRep_bin027_OFJCHLJJ_01236;dRep_bin266_JFOCEDAE_00675;dRep_bin001_GHHJMDAL_01115;dRep_bin160_EFKMPBOM_01722;dRep_bin261_FJICAFFM_00866;dRep_bin203_CLFNNOCF_02521;dRep_bin322_OJELOJOF_00188	>dRep_bin249_OFIIEIDJ_00122 Glucose-1-phosphate adenylyltransferase;>dRep_bin041_OPKGAAAG_01976 Glucose-1-phosphate adenylyltransferase;>dRep_bin269_PNILGKPH_00694 Glucose-1-phosphate adenylyltransferase;>dRep_bin324_IPNHOHFK_01746 Glucose-1-phosphate aden	dRep_bin284_DEHKNOBF_01431	CDS	glgC_1	2.7.7.27	Glucose-1-phosphate adenylyltransferase
DEHKNOBF_01449	27.81201	27.62178	27.502489999999998	27.902649999999998	27.641890000000004	26.87373	27.733890000000002	27.32268				4	0	9,2841E-12	dRep_bin266_JFOCEDAE_00469;dRep_bin158_OGFICEAP_02077;dRep_bin167_BLMEBMNN_01111;dRep_bin344_CJJBDGAA_01931;dRep_bin324_IPNHOHFK_00198;dRep_bin269_PNILGKPH_01184;dRep_bin297_EDHEEICA_00055;dRep_bin145_KMJJJOEJ_01157;dRep_bin107_EFNBPDOP_01472;dRep_bin310_IMBAFDIF_01195;dRep_bin300_MJPPENNL_00128;dRep_bin115_IFKGOGCL_01978;dRep_bin308_JBPDGLPP_01709;dRep_bin075_EPEMMOCL_01920;dRep_bin047_IFFANOMN_01370;dRep_bin089_PAJFOJBN_01930;dRep_bin261_FJICAFFM_00651;dRep_bin303_DDDNDJCF_01187;dRep_bin226_NLNLHLLD_00115;dRep_bin127_FIPNHBCH_00340;dRep_bin017_FGFLFOPJ_00355;dRep_bin077_DNNBMPMC_01598;dRep_bin039_IJNOFOJK_01428;dRep_bin186_HJAAFFNP_01660;dRep_bin065_DFABHCBI_00103;dRep_bin220_PILICLLL_01833;dRep_bin134_HIAPAODO_00139;dRep_bin135_HHKACLPM_00006;dRep_bin143_PFLDJMPF_00573;dRep_bin325_EIIGOGHN_00632;dRep_bin099_DNDAGJEJ_00069;dRep_bin293_MEPKGOAN_01336;dRep_bin074_EHAOMODJ_00677;dRep_bin335_JIOGNAPG_01692;dRep_bin260_HELEPKJL_01142;dRep_bin319_PBDBJGCJ_00729;dRep_bin211_LGJEFJIK_00866;dRep_bin168_HKDILBFE_00717;dRep_bin091_MAFACGAD_00274;dRep_bin248_CCDFPECI_01081;dRep_bin240_LDBBGJKG_00905;dRep_bin095_HOBNOEEF_01654;dRep_bin306_FGHMKMMP_00881;dRep_bin282_PKAAPBFP_01110;dRep_bin249_OFIIEIDJ_01129;dRep_bin347_EKGCMFPD_00530;dRep_bin284_DEHKNOBF_01449;dRep_bin001_GHHJMDAL_00488;dRep_bin181_MKGPMPIA_00635	dRep_bin266_JFOCEDAE_00469;dRep_bin158_OGFICEAP_02077;dRep_bin167_BLMEBMNN_01111;dRep_bin344_CJJBDGAA_01931;dRep_bin324_IPNHOHFK_00198;dRep_bin269_PNILGKPH_01184;dRep_bin297_EDHEEICA_00055;dRep_bin145_KMJJJOEJ_01157;dRep_bin107_EFNBPDOP_01472;dRep_bin310_IMBAFDIF_01195;dRep_bin300_MJPPENNL_00128;dRep_bin115_IFKGOGCL_01978;dRep_bin308_JBPDGLPP_01709;dRep_bin075_EPEMMOCL_01920;dRep_bin047_IFFANOMN_01370;dRep_bin089_PAJFOJBN_01930;dRep_bin261_FJICAFFM_00651;dRep_bin303_DDDNDJCF_01187;dRep_bin226_NLNLHLLD_00115;dRep_bin127_FIPNHBCH_00340;dRep_bin017_FGFLFOPJ_00355;dRep_bin077_DNNBMPMC_01598;dRep_bin039_IJNOFOJK_01428;dRep_bin186_HJAAFFNP_01660;dRep_bin065_DFABHCBI_00103;dRep_bin220_PILICLLL_01833;dRep_bin134_HIAPAODO_00139;dRep_bin135_HHKACLPM_00006	>dRep_bin266_JFOCEDAE_00469 Phosphoribosylamine--glycine ligase;>dRep_bin158_OGFICEAP_02077 Phosphoribosylamine--glycine ligase;>dRep_bin167_BLMEBMNN_01111 Phosphoribosylamine--glycine ligase;>dRep_bin344_CJJBDGAA_01931 Phosphoribosylamine--glycine ligase;	dRep_bin284_DEHKNOBF_01449	CDS	purD	6.3.4.13	Phosphoribosylamine--glycine ligase
DEHKNOBF_01490					24.7103	25.71311		24.8075				2	2	3,0574E-05	dRep_bin041_OPKGAAAG_02321;dRep_bin134_HIAPAODO_01003;dRep_bin062_BOFBFLDA_01153;dRep_bin160_EFKMPBOM_01972;dRep_bin154_JGOKHKLI_00784;dRep_bin347_EKGCMFPD_01116;dRep_bin328_GIGKNKPJ_01328;dRep_bin322_OJELOJOF_01348;dRep_bin300_MJPPENNL_01858;dRep_bin292_JIBLDOOH_01271;dRep_bin284_DEHKNOBF_01490;dRep_bin282_PKAAPBFP_00472;dRep_bin279_IAEFEPEN_01298;dRep_bin269_PNILGKPH_02195;dRep_bin266_JFOCEDAE_00996;dRep_bin254_GJDPFAEA_01481;dRep_bin226_NLNLHLLD_00043;dRep_bin218_ACMPALGF_01304;dRep_bin211_LGJEFJIK_00685;dRep_bin186_HJAAFFNP_00351;dRep_bin145_KMJJJOEJ_01530;dRep_bin145_KMJJJOEJ_00739;dRep_bin139_KGAJINND_00952;dRep_bin133_NOBPDBPA_05091;dRep_bin088_DNGPPFDK_00708;dRep_bin081_JDPCKDNP_01249;dRep_bin065_DFABHCBI_01260;dRep_bin047_IFFANOMN_00230;dRep_bin001_GHHJMDAL_00720;dRep_bin240_LDBBGJKG_00585;dRep_bin335_JIOGNAPG_00127	dRep_bin041_OPKGAAAG_02321;dRep_bin134_HIAPAODO_01003;dRep_bin062_BOFBFLDA_01153;dRep_bin160_EFKMPBOM_01972;dRep_bin154_JGOKHKLI_00784;dRep_bin347_EKGCMFPD_01116;dRep_bin328_GIGKNKPJ_01328;dRep_bin322_OJELOJOF_01348;dRep_bin300_MJPPENNL_01858;dRep_bin292_JIBLDOOH_01271;dRep_bin284_DEHKNOBF_01490;dRep_bin282_PKAAPBFP_00472;dRep_bin279_IAEFEPEN_01298;dRep_bin269_PNILGKPH_02195;dRep_bin266_JFOCEDAE_00996;dRep_bin254_GJDPFAEA_01481;dRep_bin226_NLNLHLLD_00043;dRep_bin218_ACMPALGF_01304;dRep_bin211_LGJEFJIK_00685;dRep_bin186_HJAAFFNP_00351;dRep_bin145_KMJJJOEJ_01530;dRep_bin145_KMJJJOEJ_00739;dRep_bin139_KGAJINND_00952;dRep_bin133_NOBPDBPA_05091;dRep_bin088_DNGPPFDK_00708;dRep_bin081_JDPCKDNP_01249;dRep_bin065_DFABHCBI_01260;dRep_bin047_IFFANOMN_00230;dRep_bin001_GHHJMDAL_00720;dRep_bin240_LDBBGJKG_00585;dRep_bin335_JIOGNAPG_00127	>dRep_bin041_OPKGAAAG_02321 50S ribosomal protein L15;>dRep_bin134_HIAPAODO_01003 50S ribosomal protein L15;>dRep_bin062_BOFBFLDA_01153 50S ribosomal protein L15;>dRep_bin160_EFKMPBOM_01972 50S ribosomal protein L15;>dRep_bin154_JGOKHKLI_00784 50S ribosoma	dRep_bin284_DEHKNOBF_01490	CDS	rplO		50S ribosomal protein L15
DEHKNOBF_01533	26.25981	25.434060000000002	27.37327	27.34019	27.09235	24.631450000000005	25.781739999999996	27.179880000000004				4	2	3,5437E-22	dRep_bin201_OLKDIBOK_00037;dRep_bin005_CNDFPKJG_01090;dRep_bin203_CLFNNOCF_02313;dRep_bin322_OJELOJOF_00841;dRep_bin306_FGHMKMMP_01100;dRep_bin234_ECABPBME_01436;dRep_bin075_EPEMMOCL_00907;dRep_bin007_LNLEAAAN_00325;dRep_bin347_EKGCMFPD_01363;dRep_bin332_KAOPCDPF_00417;dRep_bin324_IPNHOHFK_00831;dRep_bin284_DEHKNOBF_01533;dRep_bin179_HFEIPPPA_02161;dRep_bin001_GHHJMDAL_00495;dRep_bin211_LGJEFJIK_01061	dRep_bin201_OLKDIBOK_00037;dRep_bin005_CNDFPKJG_01090;dRep_bin203_CLFNNOCF_02313;dRep_bin322_OJELOJOF_00841	>dRep_bin201_OLKDIBOK_00037 50S ribosomal protein L11;>dRep_bin005_CNDFPKJG_01090 50S ribosomal protein L11;>dRep_bin203_CLFNNOCF_02313 50S ribosomal protein L11;>dRep_bin322_OJELOJOF_00841 50S ribosomal protein L11	dRep_bin284_DEHKNOBF_01533	CDS	rplK		50S ribosomal protein L11
DEHKNOBF_01566			20.188699999999997									2	0	0,013699	dRep_bin284_DEHKNOBF_01566;dRep_bin335_JIOGNAPG_01357;dRep_bin186_HJAAFFNP_01603;dRep_bin347_EKGCMFPD_00174;dRep_bin325_EIIGOGHN_00933;dRep_bin226_NLNLHLLD_01138;dRep_bin211_LGJEFJIK_01575;dRep_bin168_HKDILBFE_00526;dRep_bin157_JPNIKEKI_01583;dRep_bin133_NOBPDBPA_02120;dRep_bin099_DNDAGJEJ_00490;dRep_bin023_HGFJFKAI_00001;dRep_bin181_MKGPMPIA_00811;dRep_bin344_CJJBDGAA_00826;dRep_bin154_JGOKHKLI_00807;dRep_bin209_NKIHFCEN_01867;dRep_bin160_EFKMPBOM_01681;dRep_bin324_IPNHOHFK_00236	dRep_bin284_DEHKNOBF_01566;dRep_bin335_JIOGNAPG_01357;dRep_bin186_HJAAFFNP_01603;dRep_bin347_EKGCMFPD_00174;dRep_bin325_EIIGOGHN_00933;dRep_bin226_NLNLHLLD_01138;dRep_bin211_LGJEFJIK_01575;dRep_bin168_HKDILBFE_00526;dRep_bin157_JPNIKEKI_01583;dRep_bin133_NOBPDBPA_02120;dRep_bin099_DNDAGJEJ_00490;dRep_bin023_HGFJFKAI_00001;dRep_bin181_MKGPMPIA_00811;dRep_bin344_CJJBDGAA_00826;dRep_bin154_JGOKHKLI_00807;dRep_bin209_NKIHFCEN_01867;dRep_bin160_EFKMPBOM_01681;dRep_bin324_IPNHOHFK_00236	>dRep_bin284_DEHKNOBF_01566 L-methionine gamma-lyase;>dRep_bin335_JIOGNAPG_01357 L-methionine gamma-lyase;>dRep_bin186_HJAAFFNP_01603 L-methionine gamma-lyase;>dRep_bin347_EKGCMFPD_00174 L-methionine gamma-lyase;>dRep_bin325_EIIGOGHN_00933 L-methionine gam	dRep_bin284_DEHKNOBF_01566	CDS	mgl_3	4.4.1.11	L-methionine gamma-lyase
DEHKNOBF_01656								24.67471				2	1	3,5941E-06	dRep_bin139_KGAJINND_01299;dRep_bin249_OFIIEIDJ_00342;dRep_bin201_OLKDIBOK_02433;dRep_bin016_JLGAHGOJ_01891;dRep_bin248_CCDFPECI_00660;dRep_bin135_HHKACLPM_00948;dRep_bin075_EPEMMOCL_02434;dRep_bin031_BNHMFOII_01531;dRep_bin347_EKGCMFPD_00881;dRep_bin335_JIOGNAPG_00537;dRep_bin324_IPNHOHFK_01798;dRep_bin306_FGHMKMMP_00897;dRep_bin292_JIBLDOOH_02185;dRep_bin284_DEHKNOBF_01656;dRep_bin282_PKAAPBFP_00606;dRep_bin234_ECABPBME_00660;dRep_bin160_EFKMPBOM_02159;dRep_bin157_JPNIKEKI_01765;dRep_bin154_JGOKHKLI_01946;dRep_bin089_PAJFOJBN_02017;dRep_bin066_AJACLPEE_01205;dRep_bin019_MOJEPLJF_01345;dRep_bin017_FGFLFOPJ_00396;dRep_bin007_LNLEAAAN_00779;dRep_bin303_DDDNDJCF_00484;dRep_bin134_HIAPAODO_02040;dRep_bin027_OFJCHLJJ_00472;dRep_bin319_PBDBJGCJ_00498;dRep_bin300_MJPPENNL_00779;dRep_bin297_EDHEEICA_01479;dRep_bin287_DONBGKDH_00568;dRep_bin269_PNILGKPH_00378;dRep_bin266_JFOCEDAE_00242;dRep_bin226_NLNLHLLD_00006;dRep_bin220_PILICLLL_01253;dRep_bin209_NKIHFCEN_00393;dRep_bin179_HFEIPPPA_00599;dRep_bin133_NOBPDBPA_02395;dRep_bin127_FIPNHBCH_00410;dRep_bin088_DNGPPFDK_00575;dRep_bin081_JDPCKDNP_00771;dRep_bin041_OPKGAAAG_02154;dRep_bin308_JBPDGLPP_00851;dRep_bin167_BLMEBMNN_01783;dRep_bin095_HOBNOEEF_00951;dRep_bin024_OLHDGABE_01396;dRep_bin310_IMBAFDIF_00588;dRep_bin001_GHHJMDAL_01280	dRep_bin139_KGAJINND_01299;dRep_bin249_OFIIEIDJ_00342;dRep_bin201_OLKDIBOK_02433;dRep_bin016_JLGAHGOJ_01891;dRep_bin248_CCDFPECI_00660;dRep_bin135_HHKACLPM_00948;dRep_bin075_EPEMMOCL_02434;dRep_bin031_BNHMFOII_01531;dRep_bin347_EKGCMFPD_00881;dRep_bin335_JIOGNAPG_00537;dRep_bin324_IPNHOHFK_01798;dRep_bin306_FGHMKMMP_00897;dRep_bin292_JIBLDOOH_02185;dRep_bin284_DEHKNOBF_01656;dRep_bin282_PKAAPBFP_00606;dRep_bin234_ECABPBME_00660;dRep_bin160_EFKMPBOM_02159;dRep_bin157_JPNIKEKI_01765;dRep_bin154_JGOKHKLI_01946;dRep_bin089_PAJFOJBN_02017;dRep_bin066_AJACLPEE_01205;dRep_bin019_MOJEPLJF_01345;dRep_bin017_FGFLFOPJ_00396;dRep_bin007_LNLEAAAN_00779;dRep_bin303_DDDNDJCF_00484;dRep_bin134_HIAPAODO_02040;dRep_bin027_OFJCHLJJ_00472;dRep_bin319_PBDBJGCJ_00498;dRep_bin300_MJPPENNL_00779;dRep_bin297_EDHEEICA_01479;dRep_bin287_DONBGKDH_00568;dRep_bin269_PNILGKPH_00378;dRep_bin266_JFOCEDAE_00242;dRep_bin226_NLNLHLLD_00006;dRep_bin220_PILICLLL_01253;dRep_bin209_NKIHFCEN_00393;dRep_bin179_HFEIPPPA_00599;dRep_bin133_NOBPDBPA_02395;dRep_bin127_FIPNHBCH_00410;dRep_bin088_DNGPPFDK_00575;dRep_bin081_JDPCKDNP_00771;dRep_bin041_OPKGAAAG_02154;dRep_bin308_JBPDGLPP_00851;dRep_bin167_BLMEBMNN_01783;dRep_bin095_HOBNOEEF_00951;dRep_bin024_OLHDGABE_01396;dRep_bin310_IMBAFDIF_00588;dRep_bin001_GHHJMDAL_01280	>dRep_bin139_KGAJINND_01299 Glycine--tRNA ligase;>dRep_bin249_OFIIEIDJ_00342 Glycine--tRNA ligase;>dRep_bin201_OLKDIBOK_02433 Glycine--tRNA ligase;>dRep_bin016_JLGAHGOJ_01891 Glycine--tRNA ligase;>dRep_bin248_CCDFPECI_00660 Glycine--tRNA ligase;>dRep_bin13	dRep_bin284_DEHKNOBF_01656	CDS	glyQS	6.1.1.14	Glycine--tRNA ligase
DEHKNOBF_01775					23.47482	26.06316	23.80469					5	5	4,9368E-13	dRep_bin041_OPKGAAAG_01786;dRep_bin297_EDHEEICA_00819;dRep_bin226_NLNLHLLD_00014;dRep_bin133_NOBPDBPA_02404;dRep_bin292_JIBLDOOH_01469;dRep_bin157_JPNIKEKI_01549;dRep_bin284_DEHKNOBF_01775;dRep_bin168_HKDILBFE_01874;dRep_bin099_DNDAGJEJ_00210;dRep_bin081_JDPCKDNP_00860;dRep_bin347_EKGCMFPD_00476;dRep_bin335_JIOGNAPG_00892;dRep_bin325_EIIGOGHN_01423;dRep_bin310_IMBAFDIF_01601;dRep_bin308_JBPDGLPP_00710;dRep_bin300_MJPPENNL_00786;dRep_bin282_PKAAPBFP_01049;dRep_bin269_PNILGKPH_00370;dRep_bin254_GJDPFAEA_00787;dRep_bin240_LDBBGJKG_00829;dRep_bin234_ECABPBME_01771;dRep_bin218_ACMPALGF_00712;dRep_bin209_NKIHFCEN_00384;dRep_bin186_HJAAFFNP_00308;dRep_bin179_HFEIPPPA_00593;dRep_bin127_FIPNHBCH_00962;dRep_bin091_MAFACGAD_00732;dRep_bin089_PAJFOJBN_01716;dRep_bin088_DNGPPFDK_00290;dRep_bin069_EGGEOGDC_00822;dRep_bin039_IJNOFOJK_00358;dRep_bin306_FGHMKMMP_00408;dRep_bin077_DNNBMPMC_00123;dRep_bin057_BNCFHBBO_01103	dRep_bin041_OPKGAAAG_01786;dRep_bin297_EDHEEICA_00819;dRep_bin226_NLNLHLLD_00014;dRep_bin133_NOBPDBPA_02404	>dRep_bin041_OPKGAAAG_01786 Hydroxypyruvate reductase;>dRep_bin297_EDHEEICA_00819 Hydroxypyruvate reductase;>dRep_bin226_NLNLHLLD_00014 D-3-phosphoglycerate dehydrogenase;>dRep_bin133_NOBPDBPA_02404 Hydroxypyruvate reductase	dRep_bin284_DEHKNOBF_01775	CDS		1.1.1.81	Hydroxypyruvate reductase
DEHKNOBF_01834	22.790860000000002	23.28687	23.31202	23.64768	23.10941	23.37531	23.988589999999995	23.815970000000004				5	0	5,9313E-13	dRep_bin007_LNLEAAAN_00941;dRep_bin284_DEHKNOBF_01834	dRep_bin007_LNLEAAAN_00941	>dRep_bin007_LNLEAAAN_00941 Aldehyde-alcohol dehydrogenase	dRep_bin284_DEHKNOBF_01834	CDS	adhE		Aldehyde-alcohol dehydrogenase
