GBprotID	LFQ intensity CtrPig1	LFQ intensity CtrPig2	LFQ intensity CtrPig3	LFQ intensity CtrPig4	LFQ intensity MannanPig1	LFQ intensity MannanPig2	LFQ intensity MannanPig3	LFQ intensity MannanPig4	Only identified by site	Reverse	Contaminant	Peptides	Unique peptides	PEP	Protein IDs	Majority protein IDs	Fasta headers	IDcomb	ftype	gene	EC_number	product
EJGKDKNE_00091	28.62954	29.354750000000003	29.992399999999996	30.023139999999998	30.21083	30.89937	29.70792	30.0531				20	3	1,2194E-156	dRep_bin191_NGFJMLOL_01259;dRep_bin296_FDMPKPOH_00205;dRep_bin210_AGEDAEIA_00766;dRep_bin195_DDMDFNOK_00108;dRep_bin334_NAPFFNLD_01038;dRep_bin211_LGJEFJIK_01419;dRep_bin295_EJGKDKNE_00091;dRep_bin341_NBEGOKEF_00239;dRep_bin020_JCCELPIE_00888;dRep_bin283_NLJJFFAC_01280;dRep_bin274_DBJHKLDG_00956;dRep_bin016_JLGAHGOJ_01458;dRep_bin108_BPNCDINP_01604;dRep_bin008_MNDMJLEI_00335;dRep_bin270_GEJAHNCN_01137;dRep_bin005_CNDFPKJG_01352;dRep_bin060_HNFNENOI_00669;dRep_bin146_LCCIBLJG_00571;dRep_bin326_CEEAIPKF_00877;dRep_bin333_EFOKIBLA_00153;dRep_bin168_HKDILBFE_01558;dRep_bin244_LBFMHLBI_01599;dRep_bin096_GNHMEKPF_00231;dRep_bin237_KJDLIPND_00220;dRep_bin188_EJILNMPE_01240;dRep_bin251_FGNGCJDD_00076;dRep_bin227_IJODGBOI_00103;dRep_bin151_AHBJLMBI_00923;dRep_bin116_CLFDBMOF_00729;dRep_bin141_GMCOOECB_00805;dRep_bin350_EKOOEEGH_00925;dRep_bin132_FAPBDCMG_00754;dRep_bin080_CBEBHNNK_00317;dRep_bin051_HIEIDCID_00971;dRep_bin228_CECEDMJG_00643;dRep_bin009_KMMEHEKA_00811;dRep_bin318_IEDEJOFJ_01292;dRep_bin207_OHNPDPFI_00717;dRep_bin345_GLPJDLOI_00471;dRep_bin144_NPHACCKF_01507;dRep_bin118_FGIOKLBC_00082;dRep_bin355_KJEFNADK_00986;dRep_bin293_MEPKGOAN_00544;dRep_bin230_NINMBMKB_00674;dRep_bin014_CHIHIMAN_00029;dRep_bin218_ACMPALGF_00178;dRep_bin165_HMDFFMMM_01108;dRep_bin094_LBLICAAO_00513;dRep_bin076_GLAOFBEC_01428;dRep_bin267_LJCFMAFA_00110;dRep_bin048_PABMBHAL_00321;dRep_bin147_EJLBNEBE_02032;dRep_bin128_JPBBHEMA_00007;dRep_bin042_MMFCLHOO_01063;dRep_bin351_CKFFBPHM_00913;dRep_bin123_PJKBFKBB_00095;dRep_bin330_CODAKHDJ_00708;dRep_bin252_NDAKLAGD_01294;dRep_bin233_BAGKKAOB_01574;dRep_bin217_MJCEAEPB_00244;dRep_bin110_JGOEJECF_00272;dRep_bin109_MJABCPAK_00670;dRep_bin101_BNDDLDCL_01055;dRep_bin092_OOJCPDEA_00344;dRep_bin074_EHAOMODJ_00824;dRep_bin336_MPGOKPOL_02107;dRep_bin290_OIOJKBNK_01058;dRep_bin264_DNFFGNEG_00269;dRep_bin256_KEMNAOBC_01330;dRep_bin246_MMFBABHK_01553;dRep_bin166_DFIAJFEC_00041;dRep_bin153_JGABJFBF_00098;dRep_bin143_PFLDJMPF_00060;dRep_bin106_BKDHGPBE_01156;dRep_bin071_JHMCIJPE_01039;dRep_bin250_NMCAMJIO_00472;dRep_bin312_MJFEFHMP_01194;dRep_bin194_MEPDOGGJ_00657;dRep_bin129_GADIAMAA_01832;dRep_bin061_ONFGDLGO_01341;dRep_bin030_OGPDLGOC_01109;dRep_bin025_CBEJJMLE_00255;dRep_bin223_PIMCDKJI_01311;dRep_bin204_INMOGLDN_00399;dRep_bin202_HEPPALPH_00661;dRep_bin105_AAEIHAFF_01590;dRep_bin056_EMNHHOJA_01586;dRep_bin174_LJJOKEME_01552;dRep_bin057_BNCFHBBO_00981;dRep_bin348_LCLFDNEE_01410;dRep_bin339_DBNBAHDK_00024;dRep_bin321_EJNAAGJG_00897;dRep_bin273_FGAEBHNP_01096;dRep_bin248_CCDFPECI_01765;dRep_bin124_HIHDFGCL_01059;dRep_bin068_ENOLAELK_01049;dRep_bin038_EIGFILKG_00020;dRep_bin276_EHNFLEBP_00417;dRep_bin152_LJMCIADF_00769;dRep_bin115_IFKGOGCL_00005;dRep_bin099_DNDAGJEJ_00435;dRep_bin085_MBHLGCDB_01722;dRep_bin079_GAOGCKND_00892;dRep_bin026_HNPIIINL_00985;dRep_bin353_PPDHLNJB_01438;dRep_bin319_PBDBJGCJ_01331;dRep_bin291_EILOACJB_00194;dRep_bin241_LMMMGDNI_00361;dRep_bin091_MAFACGAD_00751;dRep_bin303_DDDNDJCF_01255;dRep_bin216_JNJMCPHB_01481;dRep_bin184_MBMMJHKO_01167;dRep_bin161_JMKPMHCO_00103;dRep_bin021_AJDDCGJC_01597;dRep_bin095_HOBNOEEF_00033;dRep_bin059_OOBKFNPP_00633;dRep_bin018_ILOONPIC_00093;dRep_bin306_FGHMKMMP_00476;dRep_bin175_HANCENAK_00082;dRep_bin040_EIFLLDOA_01832;dRep_bin166_DFIAJFEC_00288;dRep_bin085_MBHLGCDB_01583	dRep_bin191_NGFJMLOL_01259	>dRep_bin191_NGFJMLOL_01259 Aspartate--tRNA ligase	dRep_bin295_EJGKDKNE_00091	CDS	aspS	6.1.1.12	Aspartate--tRNA ligase
EJGKDKNE_00129			21.461589999999998									1	1	4,4314E-05	dRep_bin295_EJGKDKNE_00129	dRep_bin295_EJGKDKNE_00129	>dRep_bin295_EJGKDKNE_00129 hypothetical protein	dRep_bin295_EJGKDKNE_00129	CDS			hypothetical protein
EJGKDKNE_00170					24.1747							6	2	4,4849E-61	dRep_bin312_MJFEFHMP_01072;dRep_bin295_EJGKDKNE_00170;dRep_bin312_MJFEFHMP_02109;dRep_bin219_HGPEELLF_00489;dRep_bin128_JPBBHEMA_01035;dRep_bin312_MJFEFHMP_01861;dRep_bin153_JGABJFBF_01436;dRep_bin129_GADIAMAA_01536	dRep_bin312_MJFEFHMP_01072;dRep_bin295_EJGKDKNE_00170;dRep_bin312_MJFEFHMP_02109;dRep_bin219_HGPEELLF_00489	>dRep_bin312_MJFEFHMP_01072 6-pyruvoyl tetrahydropterin synthase;>dRep_bin295_EJGKDKNE_00170 6-pyruvoyl tetrahydropterin synthase;>dRep_bin312_MJFEFHMP_02109 6-pyruvoyl tetrahydropterin synthase;>dRep_bin219_HGPEELLF_00489 6-pyruvoyl tetrahydropterin synth	dRep_bin295_EJGKDKNE_00170	CDS			6-pyruvoyl tetrahydropterin synthase
EJGKDKNE_00315					23.00606	23.896980000000003						2	1	8,6813E-10	dRep_bin324_IPNHOHFK_01144;dRep_bin297_EDHEEICA_00687;dRep_bin292_JIBLDOOH_02195;dRep_bin261_FJICAFFM_00057;dRep_bin226_NLNLHLLD_01357;dRep_bin209_NKIHFCEN_00791;dRep_bin203_CLFNNOCF_00406;dRep_bin179_HFEIPPPA_00190;dRep_bin157_JPNIKEKI_00583;dRep_bin133_NOBPDBPA_01168;dRep_bin041_OPKGAAAG_01275;dRep_bin168_HKDILBFE_01397;dRep_bin130_OIFFANPF_00962;dRep_bin083_OCBADPJJ_00812;dRep_bin169_PNICKJKO_00385;dRep_bin319_PBDBJGCJ_01796;dRep_bin109_MJABCPAK_00038;dRep_bin106_BKDHGPBE_00849;dRep_bin216_JNJMCPHB_01613;dRep_bin299_AKNBKJGM_00580;dRep_bin100_CODMOHGB_00911;dRep_bin317_ABPHNCOD_01390;dRep_bin272_LGBDGEIM_00788;dRep_bin249_OFIIEIDJ_00467;dRep_bin066_AJACLPEE_01038;dRep_bin335_JIOGNAPG_00681;dRep_bin234_ECABPBME_00227;dRep_bin088_DNGPPFDK_01237;dRep_bin303_DDDNDJCF_00797;dRep_bin300_MJPPENNL_00671;dRep_bin279_IAEFEPEN_01368;dRep_bin278_BFCONKOE_00336;dRep_bin269_PNILGKPH_01089;dRep_bin260_HELEPKJL_01496;dRep_bin089_PAJFOJBN_00528;dRep_bin027_OFJCHLJJ_00828;dRep_bin019_MOJEPLJF_01606;dRep_bin116_CLFDBMOF_00536;dRep_bin057_BNCFHBBO_00059;dRep_bin134_HIAPAODO_00123;dRep_bin322_OJELOJOF_01583;dRep_bin270_GEJAHNCN_00957;dRep_bin348_LCLFDNEE_00829;dRep_bin295_EJGKDKNE_00315;dRep_bin277_MIPNGEJE_01644;dRep_bin166_DFIAJFEC_00192;dRep_bin264_DNFFGNEG_00340;dRep_bin153_JGABJFBF_01236;dRep_bin114_FJHJKHGL_00133;dRep_bin111_FPJIHFKE_00195;dRep_bin252_NDAKLAGD_00473;dRep_bin247_EKGBJCBM_00710;dRep_bin035_JBNPBOKG_01025;dRep_bin026_HNPIIINL_00916;dRep_bin085_MBHLGCDB_01217;dRep_bin068_ENOLAELK_00657;dRep_bin049_MNFBDPNO_00064;dRep_bin038_EIGFILKG_00881;dRep_bin152_LJMCIADF_01515;dRep_bin079_GAOGCKND_00762;dRep_bin231_CFOLMJBA_00732;dRep_bin126_PPDNCIBN_00705;dRep_bin333_EFOKIBLA_00857;dRep_bin123_PJKBFKBB_00290;dRep_bin185_OOOLKACK_01362;dRep_bin305_FCIEFIHE_01147;dRep_bin070_EMBHKIOF_00605;dRep_bin006_HPJGJCAG_01539;dRep_bin101_BNDDLDCL_00049;dRep_bin331_HPKAPHAF_00752;dRep_bin301_NJFJIJGA_00013;dRep_bin037_GEAOEKHA_01146;dRep_bin087_FCLGAPPI_00654;dRep_bin159_ADJJGPBG_01916;dRep_bin304_JDNJGFKH_01533;dRep_bin120_EKLBOPNC_00943;dRep_bin162_JBGCCDIN_00762;dRep_bin072_JOBJPCGA_01185;dRep_bin320_LDBKCCKL_00985;dRep_bin245_MBCFLKOF_00867;dRep_bin010_MFFFGEGD_00116;dRep_bin205_LKIOOBKC_01048;dRep_bin043_KLAFNACO_01234;dRep_bin011_KOGMKLNO_01366;dRep_bin189_AHHEHGDL_01620;dRep_bin222_GGCAJABB_00316;dRep_bin208_DHPGEIBC_01479;dRep_bin130_OIFFANPF_00887	dRep_bin324_IPNHOHFK_01144;dRep_bin297_EDHEEICA_00687;dRep_bin292_JIBLDOOH_02195;dRep_bin261_FJICAFFM_00057;dRep_bin226_NLNLHLLD_01357;dRep_bin209_NKIHFCEN_00791;dRep_bin203_CLFNNOCF_00406;dRep_bin179_HFEIPPPA_00190;dRep_bin157_JPNIKEKI_00583;dRep_bin133_NOBPDBPA_01168;dRep_bin041_OPKGAAAG_01275;dRep_bin168_HKDILBFE_01397;dRep_bin130_OIFFANPF_00962;dRep_bin083_OCBADPJJ_00812;dRep_bin169_PNICKJKO_00385;dRep_bin319_PBDBJGCJ_01796;dRep_bin109_MJABCPAK_00038;dRep_bin106_BKDHGPBE_00849;dRep_bin216_JNJMCPHB_01613;dRep_bin299_AKNBKJGM_00580;dRep_bin100_CODMOHGB_00911;dRep_bin317_ABPHNCOD_01390;dRep_bin272_LGBDGEIM_00788;dRep_bin249_OFIIEIDJ_00467;dRep_bin066_AJACLPEE_01038;dRep_bin335_JIOGNAPG_00681;dRep_bin234_ECABPBME_00227;dRep_bin088_DNGPPFDK_01237;dRep_bin303_DDDNDJCF_00797;dRep_bin300_MJPPENNL_00671;dRep_bin279_IAEFEPEN_01368;dRep_bin278_BFCONKOE_00336;dRep_bin269_PNILGKPH_01089;dRep_bin260_HELEPKJL_01496;dRep_bin089_PAJFOJBN_00528;dRep_bin027_OFJCHLJJ_00828;dRep_bin019_MOJEPLJF_01606;dRep_bin116_CLFDBMOF_00536;dRep_bin057_BNCFHBBO_00059;dRep_bin134_HIAPAODO_00123;dRep_bin322_OJELOJOF_01583;dRep_bin270_GEJAHNCN_00957;dRep_bin348_LCLFDNEE_00829;dRep_bin295_EJGKDKNE_00315;dRep_bin277_MIPNGEJE_01644;dRep_bin166_DFIAJFEC_00192;dRep_bin264_DNFFGNEG_00340;dRep_bin153_JGABJFBF_01236;dRep_bin114_FJHJKHGL_00133;dRep_bin111_FPJIHFKE_00195;dRep_bin252_NDAKLAGD_00473;dRep_bin247_EKGBJCBM_00710;dRep_bin035_JBNPBOKG_01025;dRep_bin026_HNPIIINL_00916;dRep_bin085_MBHLGCDB_01217;dRep_bin068_ENOLAELK_00657;dRep_bin049_MNFBDPNO_00064;dRep_bin038_EIGFILKG_00881;dRep_bin152_LJMCIADF_01515;dRep_bin079_GAOGCKND_00762;dRep_bin231_CFOLMJBA_00732;dRep_bin126_PPDNCIBN_00705;dRep_bin333_EFOKIBLA_00857;dRep_bin123_PJKBFKBB_00290;dRep_bin185_OOOLKACK_01362;dRep_bin305_FCIEFIHE_01147;dRep_bin070_EMBHKIOF_00605;dRep_bin006_HPJGJCAG_01539;dRep_bin101_BNDDLDCL_00049;dRep_bin331_HPKAPHAF_00752;dRep_bin301_NJFJIJGA_00013;dRep_bin037_GEAOEKHA_01146;dRep_bin087_FCLGAPPI_00654;dRep_bin159_ADJJGPBG_01916;dRep_bin304_JDNJGFKH_01533;dRep_bin120_EKLBOPNC_00943;dRep_bin162_JBGCCDIN_00762;dRep_bin072_JOBJPCGA_01185;dRep_bin320_LDBKCCKL_00985;dRep_bin245_MBCFLKOF_00867;dRep_bin010_MFFFGEGD_00116;dRep_bin205_LKIOOBKC_01048;dRep_bin043_KLAFNACO_01234;dRep_bin011_KOGMKLNO_01366;dRep_bin189_AHHEHGDL_01620;dRep_bin222_GGCAJABB_00316;dRep_bin208_DHPGEIBC_01479;dRep_bin130_OIFFANPF_00887	>dRep_bin324_IPNHOHFK_01144 Glutaconyl-CoA decarboxylase subunit beta;>dRep_bin297_EDHEEICA_00687 Glutaconyl-CoA decarboxylase subunit beta;>dRep_bin292_JIBLDOOH_02195 Glutaconyl-CoA decarboxylase subunit beta;>dRep_bin261_FJICAFFM_00057 Glutaconyl-CoA dec	dRep_bin295_EJGKDKNE_00315	CDS	gcdB	4.1.1.70	Glutaconyl-CoA decarboxylase subunit beta
EJGKDKNE_00348	29.92988	30.67624	28.85103	30.48135	29.013850000000005	28.973779999999998	29.961409999999997	28.70091				5	3	1,3974E-119	dRep_bin175_HANCENAK_00554;dRep_bin094_LBLICAAO_01540;dRep_bin295_EJGKDKNE_00348	dRep_bin175_HANCENAK_00554	>dRep_bin175_HANCENAK_00554 Triosephosphate isomerase	dRep_bin295_EJGKDKNE_00348	CDS	tpiA	5.3.1.1	Triosephosphate isomerase
EJGKDKNE_00450	31.14394	31.282009999999996	31.15243	31.989219999999996	31.86975	31.89012	32.00959	31.941499999999998				12	1	0	dRep_bin170_LICLFCFF_01829;dRep_bin224_NFENHJGB_01186;dRep_bin247_EKGBJCBM_00156;dRep_bin199_JBCGANNF_01554;dRep_bin114_FJHJKHGL_00796;dRep_bin079_GAOGCKND_01272;dRep_bin005_CNDFPKJG_00102;dRep_bin312_MJFEFHMP_00467;dRep_bin295_EJGKDKNE_00450;dRep_bin244_LBFMHLBI_00694;dRep_bin233_BAGKKAOB_00356;dRep_bin223_PIMCDKJI_00904;dRep_bin204_INMOGLDN_00435;dRep_bin153_JGABJFBF_00753;dRep_bin129_GADIAMAA_01156;dRep_bin061_ONFGDLGO_01272;dRep_bin264_DNFFGNEG_00768;dRep_bin246_MMFBABHK_00504;dRep_bin030_OGPDLGOC_00593	dRep_bin170_LICLFCFF_01829;dRep_bin224_NFENHJGB_01186	>dRep_bin170_LICLFCFF_01829 hypothetical protein;>dRep_bin224_NFENHJGB_01186 hypothetical protein	dRep_bin295_EJGKDKNE_00450	CDS			hypothetical protein
EJGKDKNE_00451	29.127190000000002	29.8915	28.17845	29.130950000000006								17	2	0	dRep_bin081_JDPCKDNP_01689;dRep_bin193_GDMDPNNM_01631;dRep_bin148_NAJFKJMD_00628;dRep_bin295_EJGKDKNE_00451;dRep_bin247_EKGBJCBM_00155;dRep_bin049_MNFBDPNO_01104;dRep_bin114_FJHJKHGL_01593;dRep_bin046_GKEJLOEK_00756;dRep_bin174_LJJOKEME_00158;dRep_bin262_LLCGOPIE_00729	dRep_bin081_JDPCKDNP_01689	>dRep_bin081_JDPCKDNP_01689 GGGtGRT protein	dRep_bin295_EJGKDKNE_00451	CDS			GGGtGRT protein
EJGKDKNE_00677			19.101110000000002									1	1	0,00049955	dRep_bin295_EJGKDKNE_00677	dRep_bin295_EJGKDKNE_00677	>dRep_bin295_EJGKDKNE_00677 Chaperone protein DnaK	dRep_bin295_EJGKDKNE_00677	CDS	dnaK		Chaperone protein DnaK
EJGKDKNE_00688	26.409309999999998	26.73518	27.015850000000004	25.91205								4	2	1,2093E-20	dRep_bin336_MPGOKPOL_00896;dRep_bin147_EJLBNEBE_00136;dRep_bin085_MBHLGCDB_00357;dRep_bin238_OLNFACLE_01925;dRep_bin339_DBNBAHDK_02208;dRep_bin262_LLCGOPIE_00576;dRep_bin332_KAOPCDPF_00403;dRep_bin321_EJNAAGJG_01053;dRep_bin186_HJAAFFNP_01167;dRep_bin158_OGFICEAP_01582;dRep_bin145_KMJJJOEJ_00451;dRep_bin295_EJGKDKNE_00688;dRep_bin243_JDMELKLC_00439;dRep_bin194_MEPDOGGJ_00203;dRep_bin152_LJMCIADF_01105;dRep_bin101_BNDDLDCL_00447;dRep_bin079_GAOGCKND_00351;dRep_bin068_ENOLAELK_00629;dRep_bin026_HNPIIINL_01484;dRep_bin025_CBEJJMLE_00462;dRep_bin125_FADLGGII_01452;dRep_bin123_PJKBFKBB_00308;dRep_bin354_MMOALAFN_00213;dRep_bin248_CCDFPECI_00809;dRep_bin268_LKMHIMLG_00072;dRep_bin090_IPGNHCBJ_01072	dRep_bin336_MPGOKPOL_00896;dRep_bin147_EJLBNEBE_00136;dRep_bin085_MBHLGCDB_00357	>dRep_bin336_MPGOKPOL_00896 Serine hydroxymethyltransferase;>dRep_bin147_EJLBNEBE_00136 Serine hydroxymethyltransferase;>dRep_bin085_MBHLGCDB_00357 Serine hydroxymethyltransferase	dRep_bin295_EJGKDKNE_00688	CDS	glyA	2.1.2.1	Serine hydroxymethyltransferase
EJGKDKNE_00851				21.86884								3	1	1,3797E-13	dRep_bin021_AJDDCGJC_00051;dRep_bin252_NDAKLAGD_00826;dRep_bin317_ABPHNCOD_01131;dRep_bin216_JNJMCPHB_01076;dRep_bin272_LGBDGEIM_00618;dRep_bin097_CBBLIPAN_01579;dRep_bin053_OMGNPOOB_00833;dRep_bin337_FHKPNFDB_00090;dRep_bin052_PGOOKKFH_01594;dRep_bin168_HKDILBFE_01015;dRep_bin322_OJELOJOF_01622;dRep_bin220_PILICLLL_01543;dRep_bin055_IBMMJAEE_00610;dRep_bin061_ONFGDLGO_01234;dRep_bin168_HKDILBFE_00368;dRep_bin055_IBMMJAEE_00168;dRep_bin261_FJICAFFM_00490;dRep_bin017_FGFLFOPJ_00414;dRep_bin115_IFKGOGCL_01280;dRep_bin257_JHFDCHCB_01406;dRep_bin323_FBBLPLCG_01600;dRep_bin007_LNLEAAAN_00766;dRep_bin049_MNFBDPNO_00781;dRep_bin333_EFOKIBLA_01149;dRep_bin279_IAEFEPEN_01471;dRep_bin234_ECABPBME_01515;dRep_bin179_HFEIPPPA_02108;dRep_bin023_HGFJFKAI_01527;dRep_bin335_JIOGNAPG_00787;dRep_bin250_NMCAMJIO_00423;dRep_bin158_OGFICEAP_00549;dRep_bin100_CODMOHGB_01341;dRep_bin089_PAJFOJBN_02515;dRep_bin088_DNGPPFDK_01371;dRep_bin081_JDPCKDNP_00684;dRep_bin324_IPNHOHFK_01454;dRep_bin300_MJPPENNL_01260;dRep_bin292_JIBLDOOH_01593;dRep_bin284_DEHKNOBF_00281;dRep_bin282_PKAAPBFP_00934;dRep_bin279_IAEFEPEN_01275;dRep_bin269_PNILGKPH_00152;dRep_bin240_LDBBGJKG_01257;dRep_bin226_NLNLHLLD_00367;dRep_bin209_NKIHFCEN_01541;dRep_bin203_CLFNNOCF_01928;dRep_bin179_HFEIPPPA_00359;dRep_bin167_BLMEBMNN_00233;dRep_bin160_EFKMPBOM_02132;dRep_bin154_JGOKHKLI_02775;dRep_bin133_NOBPDBPA_00727;dRep_bin114_FJHJKHGL_00838;dRep_bin095_HOBNOEEF_00822;dRep_bin075_EPEMMOCL_00939;dRep_bin074_EHAOMODJ_00291;dRep_bin065_DFABHCBI_01203;dRep_bin347_EKGCMFPD_00625;dRep_bin325_EIIGOGHN_00612;dRep_bin310_IMBAFDIF_01359;dRep_bin308_JBPDGLPP_00545;dRep_bin306_FGHMKMMP_01018;dRep_bin297_EDHEEICA_01903;dRep_bin201_OLKDIBOK_00335;dRep_bin186_HJAAFFNP_00409;dRep_bin173_BEBNCADL_00242;dRep_bin169_PNICKJKO_00103;dRep_bin145_KMJJJOEJ_01348;dRep_bin135_HHKACLPM_00566;dRep_bin101_BNDDLDCL_00036;dRep_bin069_EGGEOGDC_01480;dRep_bin062_BOFBFLDA_00487;dRep_bin047_IFFANOMN_01271;dRep_bin042_MMFCLHOO_00308;dRep_bin041_OPKGAAAG_00762;dRep_bin024_OLHDGABE_00679;dRep_bin016_JLGAHGOJ_01831;dRep_bin001_GHHJMDAL_00660;dRep_bin349_AMCJEEEG_00131;dRep_bin312_MJFEFHMP_00833;dRep_bin264_DNFFGNEG_00100;dRep_bin246_MMFBABHK_00297;dRep_bin219_HGPEELLF_00003;dRep_bin174_LJJOKEME_01103;dRep_bin129_GADIAMAA_01409;dRep_bin127_FIPNHBCH_00703;dRep_bin077_DNNBMPMC_01278;dRep_bin030_OGPDLGOC_01790;dRep_bin004_OCHNPJPO_01519;dRep_bin218_ACMPALGF_00968;dRep_bin185_OOOLKACK_00657;dRep_bin181_MKGPMPIA_00538;dRep_bin148_NAJFKJMD_01090;dRep_bin058_GJKCICJN_01056;dRep_bin291_EILOACJB_00579;dRep_bin244_LBFMHLBI_01277;dRep_bin223_PIMCDKJI_01006;dRep_bin204_INMOGLDN_01473;dRep_bin184_MBMMJHKO_00222;dRep_bin302_AHDEPDKG_00621;dRep_bin265_LFKFBJPC_00590;dRep_bin233_BAGKKAOB_00885;dRep_bin188_EJILNMPE_01053;dRep_bin081_JDPCKDNP_01324;dRep_bin318_IEDEJOFJ_00724;dRep_bin144_NPHACCKF_00221;dRep_bin096_GNHMEKPF_00086;dRep_bin344_CJJBDGAA_01489;dRep_bin295_EJGKDKNE_00851;dRep_bin048_PABMBHAL_01507;dRep_bin303_DDDNDJCF_00663;dRep_bin283_NLJJFFAC_01754;dRep_bin201_OLKDIBOK_00523;dRep_bin139_KGAJINND_01276;dRep_bin134_HIAPAODO_01158;dRep_bin094_LBLICAAO_00942;dRep_bin062_BOFBFLDA_00417;dRep_bin336_MPGOKPOL_02385;dRep_bin082_HBEFABJN_00650;dRep_bin125_FADLGGII_00540;dRep_bin334_NAPFFNLD_01195;dRep_bin217_MJCEAEPB_00530;dRep_bin195_DDMDFNOK_00971;dRep_bin060_HNFNENOI_00088;dRep_bin328_GIGKNKPJ_00426;dRep_bin281_OGHLKMAI_01076;dRep_bin197_NHLBHFEI_00626;dRep_bin103_IGJBLKMC_00726;dRep_bin116_CLFDBMOF_00455;dRep_bin332_KAOPCDPF_00448;dRep_bin345_GLPJDLOI_00589;dRep_bin314_KCHFPLIP_00788;dRep_bin128_JPBBHEMA_00693;dRep_bin073_AKBCEHHO_01462;dRep_bin045_GJACFFBC_00428;dRep_bin329_GDOHKPBL_01522;dRep_bin316_FNLHDNEO_00349;dRep_bin307_AOCKHIKF_00400;dRep_bin294_EHJINIDK_01408;dRep_bin289_KALDCNNP_01327;dRep_bin183_FPGIOKBG_00622;dRep_bin098_DDEBHDKK_01308;dRep_bin165_HMDFFMMM_01247;dRep_bin037_GEAOEKHA_01212;dRep_bin256_KEMNAOBC_00113;dRep_bin092_OOJCPDEA_01143;dRep_bin126_PPDNCIBN_00264;dRep_bin090_IPGNHCBJ_00911;dRep_bin215_ABBFGCAF_00280;dRep_bin005_CNDFPKJG_00629;dRep_bin270_GEJAHNCN_01426;dRep_bin116_CLFDBMOF_00686;dRep_bin069_EGGEOGDC_00857;dRep_bin007_LNLEAAAN_01604;dRep_bin057_BNCFHBBO_01159;dRep_bin038_EIGFILKG_00229;dRep_bin114_FJHJKHGL_00934;dRep_bin152_LJMCIADF_00045;dRep_bin322_OJELOJOF_00826;dRep_bin266_JFOCEDAE_00030;dRep_bin194_MEPDOGGJ_01235;dRep_bin079_GAOGCKND_01437;dRep_bin068_ENOLAELK_01387;dRep_bin025_CBEJJMLE_00917;dRep_bin240_LDBBGJKG_00802;dRep_bin347_EKGCMFPD_01498;dRep_bin167_BLMEBMNN_00596;dRep_bin160_EFKMPBOM_02114;dRep_bin260_HELEPKJL_02017;dRep_bin091_MAFACGAD_00797;dRep_bin099_DNDAGJEJ_01471;dRep_bin278_BFCONKOE_01179;dRep_bin168_HKDILBFE_00397;dRep_bin284_DEHKNOBF_00737;dRep_bin001_GHHJMDAL_01209;dRep_bin236_BNONDECB_00531;dRep_bin286_OEMIJKMC_01078;dRep_bin231_CFOLMJBA_00464;dRep_bin193_GDMDPNNM_00224;dRep_bin172_ALNHGLMD_01787;dRep_bin182_EMCFODCD_00065;dRep_bin044_IPFKHAEF_00183	dRep_bin021_AJDDCGJC_00051;dRep_bin252_NDAKLAGD_00826;dRep_bin317_ABPHNCOD_01131;dRep_bin216_JNJMCPHB_01076;dRep_bin272_LGBDGEIM_00618;dRep_bin097_CBBLIPAN_01579;dRep_bin053_OMGNPOOB_00833;dRep_bin337_FHKPNFDB_00090;dRep_bin052_PGOOKKFH_01594	>dRep_bin021_AJDDCGJC_00051 ATP synthase subunit alpha;>dRep_bin252_NDAKLAGD_00826 ATP synthase subunit alpha;>dRep_bin317_ABPHNCOD_01131 ATP synthase subunit alpha;>dRep_bin216_JNJMCPHB_01076 ATP synthase subunit alpha;>dRep_bin272_LGBDGEIM_00618 ATP synt	dRep_bin295_EJGKDKNE_00851	CDS	atpA	3.6.3.14	ATP synthase subunit alpha
EJGKDKNE_00864	30.77132	30.00638	30.638930000000002	31.04205	31.82442	32.41354	31.48481	32.204350000000005				5	4	3,7621E-50	dRep_bin113_LIFKCGBF_00892;dRep_bin198_GMLJKALI_00498;dRep_bin196_BIELHBNH_00110;dRep_bin064_CMDDCDKG_00174;dRep_bin295_EJGKDKNE_00864;dRep_bin289_KALDCNNP_01416;dRep_bin138_EJGHNBMI_00960	dRep_bin113_LIFKCGBF_00892	>dRep_bin113_LIFKCGBF_00892 Desulfoferrodoxin	dRep_bin295_EJGKDKNE_00864	CDS	dfx	1.15.1.2	Desulfoferrodoxin
EJGKDKNE_00952					24.84081	25.71955		24.458579999999998				3	2	4,8336E-24	dRep_bin294_EHJINIDK_00606;dRep_bin285_IPHKFJAN_00609;dRep_bin198_GMLJKALI_01264;dRep_bin183_FPGIOKBG_02260;dRep_bin295_EJGKDKNE_00952;dRep_bin264_DNFFGNEG_00992;dRep_bin330_CODAKHDJ_00966	dRep_bin294_EHJINIDK_00606;dRep_bin285_IPHKFJAN_00609;dRep_bin198_GMLJKALI_01264;dRep_bin183_FPGIOKBG_02260;dRep_bin295_EJGKDKNE_00952	>dRep_bin294_EHJINIDK_00606 2-oxoglutarate oxidoreductase subunit KorA;>dRep_bin285_IPHKFJAN_00609 2-oxoglutarate oxidoreductase subunit KorA;>dRep_bin198_GMLJKALI_01264 2-oxoglutarate oxidoreductase subunit KorA;>dRep_bin183_FPGIOKBG_02260 2-oxoglutarate	dRep_bin295_EJGKDKNE_00952	CDS	korA	1.2.7.3	2-oxoglutarate oxidoreductase subunit KorA
EJGKDKNE_01089					24.7292	26.55668						5	4	1,2726E-26	dRep_bin294_EHJINIDK_01619;dRep_bin180_JMFOHHIL_00394;dRep_bin156_GFIMJAAC_00476;dRep_bin315_AGEMOMDG_01323;dRep_bin265_LFKFBJPC_00133;dRep_bin028_GKEJLBAM_01564;dRep_bin022_BOEAFNDE_00249;dRep_bin207_OHNPDPFI_00897;dRep_bin151_AHBJLMBI_01232;dRep_bin132_FAPBDCMG_00509;dRep_bin009_KMMEHEKA_00755;dRep_bin342_BMMENEMP_00091;dRep_bin283_NLJJFFAC_01654;dRep_bin309_BIOHLCGG_01579;dRep_bin295_EJGKDKNE_01089;dRep_bin076_GLAOFBEC_00140;dRep_bin187_CLPDGDBG_00722;dRep_bin130_OIFFANPF_00087;dRep_bin067_BELFIGIN_01347;dRep_bin343_JCMCKBGF_02577;dRep_bin150_HCDEOBMH_00088;dRep_bin102_ICFDHPGB_00827	dRep_bin294_EHJINIDK_01619	>dRep_bin294_EHJINIDK_01619 2,3-bisphosphoglycerate-dependent phosphoglycerate mutase	dRep_bin295_EJGKDKNE_01089	CDS	gpmA	5.4.2.11	2,3-bisphosphoglycerate-dependent phosphoglycerate mutase
EJGKDKNE_01187	31.51667	32.191370000000006	31.388279999999998	31.697020000000002	31.52412	30.932339999999996	31.145519999999998	31.13962				4	2	5,1821E-11	dRep_bin295_EJGKDKNE_01187	dRep_bin295_EJGKDKNE_01187	>dRep_bin295_EJGKDKNE_01187 NADP-specific glutamate dehydrogenase	dRep_bin295_EJGKDKNE_01187	CDS	gdhA	1.4.1.4	NADP-specific glutamate dehydrogenase
EJGKDKNE_01389				24.52409								3	1	3,0363E-62	dRep_bin157_JPNIKEKI_01307;dRep_bin039_IJNOFOJK_01899;dRep_bin186_HJAAFFNP_00774;dRep_bin318_IEDEJOFJ_01639;dRep_bin164_KHMELCCL_00132;dRep_bin328_GIGKNKPJ_01195;dRep_bin260_HELEPKJL_01523;dRep_bin287_DONBGKDH_01508;dRep_bin158_OGFICEAP_02168;dRep_bin127_FIPNHBCH_00569;dRep_bin115_IFKGOGCL_02347;dRep_bin099_DNDAGJEJ_00641;dRep_bin308_JBPDGLPP_01860;dRep_bin333_EFOKIBLA_01083;dRep_bin321_EJNAAGJG_00266;dRep_bin273_FGAEBHNP_00052;dRep_bin299_AKNBKJGM_00308;dRep_bin216_JNJMCPHB_01326;dRep_bin094_LBLICAAO_00532;dRep_bin295_EJGKDKNE_01389;dRep_bin021_AJDDCGJC_00388;dRep_bin336_MPGOKPOL_01887;dRep_bin147_EJLBNEBE_01158;dRep_bin091_MAFACGAD_00923;dRep_bin261_FJICAFFM_00349;dRep_bin203_CLFNNOCF_01032;dRep_bin292_JIBLDOOH_00170;dRep_bin324_IPNHOHFK_01855;dRep_bin133_NOBPDBPA_02057;dRep_bin179_HFEIPPPA_01406;dRep_bin297_EDHEEICA_01152;dRep_bin005_CNDFPKJG_00713	dRep_bin157_JPNIKEKI_01307;dRep_bin039_IJNOFOJK_01899;dRep_bin186_HJAAFFNP_00774;dRep_bin318_IEDEJOFJ_01639;dRep_bin164_KHMELCCL_00132;dRep_bin328_GIGKNKPJ_01195;dRep_bin260_HELEPKJL_01523;dRep_bin287_DONBGKDH_01508;dRep_bin158_OGFICEAP_02168;dRep_bin127_FIPNHBCH_00569;dRep_bin115_IFKGOGCL_02347;dRep_bin099_DNDAGJEJ_00641;dRep_bin308_JBPDGLPP_01860;dRep_bin333_EFOKIBLA_01083;dRep_bin321_EJNAAGJG_00266;dRep_bin273_FGAEBHNP_00052;dRep_bin299_AKNBKJGM_00308;dRep_bin216_JNJMCPHB_01326;dRep_bin094_LBLICAAO_00532;dRep_bin295_EJGKDKNE_01389;dRep_bin021_AJDDCGJC_00388;dRep_bin336_MPGOKPOL_01887;dRep_bin147_EJLBNEBE_01158;dRep_bin091_MAFACGAD_00923;dRep_bin261_FJICAFFM_00349;dRep_bin203_CLFNNOCF_01032;dRep_bin292_JIBLDOOH_00170;dRep_bin324_IPNHOHFK_01855;dRep_bin133_NOBPDBPA_02057;dRep_bin179_HFEIPPPA_01406;dRep_bin297_EDHEEICA_01152;dRep_bin005_CNDFPKJG_00713	>dRep_bin157_JPNIKEKI_01307 Galactose-1-phosphate uridylyltransferase;>dRep_bin039_IJNOFOJK_01899 Galactose-1-phosphate uridylyltransferase;>dRep_bin186_HJAAFFNP_00774 Galactose-1-phosphate uridylyltransferase;>dRep_bin318_IEDEJOFJ_01639 Galactose-1-phosph	dRep_bin295_EJGKDKNE_01389	CDS	galT	2.7.7.12	Galactose-1-phosphate uridylyltransferase
EJGKDKNE_01525			23.014990000000004									1	1	9,6625E-05	dRep_bin295_EJGKDKNE_01525	dRep_bin295_EJGKDKNE_01525	>dRep_bin295_EJGKDKNE_01525 Fimbrial protein	dRep_bin295_EJGKDKNE_01525	CDS			pilE1_25
EJGKDKNE_01558					26.768379999999997							3	1	2,9563E-09	dRep_bin183_FPGIOKBG_01973;dRep_bin034_MEBMFDLL_01112;dRep_bin063_PJANDMAH_00033;dRep_bin104_EGLEJOLM_00236;dRep_bin331_HPKAPHAF_00401;dRep_bin037_GEAOEKHA_01236;dRep_bin276_EHNFLEBP_00896;dRep_bin159_ADJJGPBG_01036;dRep_bin083_OCBADPJJ_00248;dRep_bin120_EKLBOPNC_01937;dRep_bin210_AGEDAEIA_00563;dRep_bin296_FDMPKPOH_01992;dRep_bin002_CFBNDKDN_00667;dRep_bin110_JGOEJECF_00717;dRep_bin314_KCHFPLIP_00736;dRep_bin346_JKFDGFHC_01012;dRep_bin307_AOCKHIKF_00964;dRep_bin113_LIFKCGBF_00231;dRep_bin301_NJFJIJGA_00693;dRep_bin295_EJGKDKNE_01558;dRep_bin118_FGIOKLBC_00221;dRep_bin070_EMBHKIOF_01275;dRep_bin037_GEAOEKHA_00935;dRep_bin022_BOEAFNDE_00846;dRep_bin275_NIDIBBDA_00292;dRep_bin346_JKFDGFHC_01402;dRep_bin331_HPKAPHAF_00660;dRep_bin198_GMLJKALI_01178;dRep_bin165_HMDFFMMM_00173;dRep_bin084_CGBIKHBH_01220;dRep_bin002_CFBNDKDN_00154;dRep_bin036_DOKCEIDH_00528;dRep_bin045_GJACFFBC_00872;dRep_bin034_MEBMFDLL_01631;dRep_bin137_NABPABPB_01490;dRep_bin113_LIFKCGBF_00697;dRep_bin298_EIPJCOMF_00317;dRep_bin036_DOKCEIDH_01142;dRep_bin196_BIELHBNH_01084	dRep_bin183_FPGIOKBG_01973;dRep_bin034_MEBMFDLL_01112	>dRep_bin183_FPGIOKBG_01973 4-alpha-glucanotransferase;>dRep_bin034_MEBMFDLL_01112 4-alpha-glucanotransferase	dRep_bin295_EJGKDKNE_01558	CDS	malQ_2	2.4.1.25	4-alpha-glucanotransferase
