GBprotID	LFQ intensity CtrPig1	LFQ intensity CtrPig2	LFQ intensity CtrPig3	LFQ intensity CtrPig4	LFQ intensity MannanPig1	LFQ intensity MannanPig2	LFQ intensity MannanPig3	LFQ intensity MannanPig4	Only identified by site	Reverse	Contaminant	Peptides	Unique peptides	PEP	Protein IDs	Majority protein IDs	Fasta headers	IDcomb	ftype	gene	EC_number	product
MJFEFHMP_00046					22.05239			22.141650000000002				1	1	7,5798E-05	dRep_bin030_OGPDLGOC_01829;dRep_bin312_MJFEFHMP_00046;dRep_bin129_GADIAMAA_01261	dRep_bin030_OGPDLGOC_01829;dRep_bin312_MJFEFHMP_00046;dRep_bin129_GADIAMAA_01261	>dRep_bin030_OGPDLGOC_01829 Aldehyde-alcohol dehydrogenase;>dRep_bin312_MJFEFHMP_00046 Aldehyde-alcohol dehydrogenase;>dRep_bin129_GADIAMAA_01261 Aldehyde-alcohol dehydrogenase	dRep_bin312_MJFEFHMP_00046	CDS	adhE		Aldehyde-alcohol dehydrogenase
MJFEFHMP_00078					26.19434	24.922749999999997	25.433329999999998	25.27721				3	1	9,4492E-07	dRep_bin312_MJFEFHMP_00078;dRep_bin202_HEPPALPH_00150;dRep_bin264_DNFFGNEG_01242;dRep_bin233_BAGKKAOB_00513;dRep_bin030_OGPDLGOC_00709;dRep_bin244_LBFMHLBI_00697;dRep_bin223_PIMCDKJI_00906;dRep_bin204_INMOGLDN_00167;dRep_bin050_FBECOHCI_00399	dRep_bin312_MJFEFHMP_00078;dRep_bin202_HEPPALPH_00150;dRep_bin264_DNFFGNEG_01242;dRep_bin233_BAGKKAOB_00513;dRep_bin030_OGPDLGOC_00709;dRep_bin244_LBFMHLBI_00697;dRep_bin223_PIMCDKJI_00906;dRep_bin204_INMOGLDN_00167;dRep_bin050_FBECOHCI_00399	>dRep_bin312_MJFEFHMP_00078 Phosphoglycerate kinase;>dRep_bin202_HEPPALPH_00150 Phosphoglycerate kinase;>dRep_bin264_DNFFGNEG_01242 Phosphoglycerate kinase;>dRep_bin233_BAGKKAOB_00513 Phosphoglycerate kinase;>dRep_bin030_OGPDLGOC_00709 Phosphoglycerate kin	dRep_bin312_MJFEFHMP_00078	CDS	pgk	2.7.2.3	Phosphoglycerate kinase
MJFEFHMP_00102								21.504800000000003				5	1	3,9803E-89	dRep_bin260_HELEPKJL_01435;dRep_bin135_HHKACLPM_00878;dRep_bin279_IAEFEPEN_00125;dRep_bin139_KGAJINND_00653;dRep_bin047_IFFANOMN_00833;dRep_bin220_PILICLLL_01353;dRep_bin062_BOFBFLDA_00870;dRep_bin027_OFJCHLJJ_01114;dRep_bin145_KMJJJOEJ_00674;dRep_bin300_MJPPENNL_01153;dRep_bin282_PKAAPBFP_00002;dRep_bin091_MAFACGAD_00478;dRep_bin116_CLFDBMOF_00810;dRep_bin347_EKGCMFPD_00673;dRep_bin322_OJELOJOF_01660;dRep_bin335_JIOGNAPG_01578;dRep_bin201_OLKDIBOK_02525;dRep_bin160_EFKMPBOM_02349;dRep_bin077_DNNBMPMC_01926;dRep_bin246_MMFBABHK_00869;dRep_bin219_HGPEELLF_00755;dRep_bin174_LJJOKEME_01393;dRep_bin312_MJFEFHMP_00102;dRep_bin129_GADIAMAA_01507;dRep_bin030_OGPDLGOC_00490;dRep_bin004_OCHNPJPO_00897;dRep_bin061_ONFGDLGO_00219;dRep_bin264_DNFFGNEG_00399;dRep_bin153_JGABJFBF_00375;dRep_bin244_LBFMHLBI_00924;dRep_bin204_INMOGLDN_00439;dRep_bin050_FBECOHCI_00117;dRep_bin202_HEPPALPH_01023;dRep_bin223_PIMCDKJI_00571;dRep_bin233_BAGKKAOB_00161;dRep_bin336_MPGOKPOL_01196;dRep_bin333_EFOKIBLA_00139;dRep_bin303_DDDNDJCF_00008;dRep_bin095_HOBNOEEF_01151;dRep_bin249_OFIIEIDJ_00631;dRep_bin007_LNLEAAAN_00381;dRep_bin328_GIGKNKPJ_00383;dRep_bin081_JDPCKDNP_00006;dRep_bin078_GKFCBAEI_00579;dRep_bin325_EIIGOGHN_00717;dRep_bin319_PBDBJGCJ_01544;dRep_bin306_FGHMKMMP_01785;dRep_bin181_MKGPMPIA_01340;dRep_bin127_FIPNHBCH_01090;dRep_bin066_AJACLPEE_01002;dRep_bin024_OLHDGABE_01294;dRep_bin220_PILICLLL_00488;dRep_bin078_GKFCBAEI_00372;dRep_bin006_HPJGJCAG_01324;dRep_bin142_NDNPJBEM_00465;dRep_bin350_EKOOEEGH_00689;dRep_bin228_CECEDMJG_00916;dRep_bin218_ACMPALGF_00396;dRep_bin164_KHMELCCL_00939;dRep_bin173_BEBNCADL_00342;dRep_bin058_GJKCICJN_00554;dRep_bin268_LKMHIMLG_00442;dRep_bin237_KJDLIPND_00262;dRep_bin251_FGNGCJDD_00443;dRep_bin192_GCMBELNN_00009	dRep_bin260_HELEPKJL_01435;dRep_bin135_HHKACLPM_00878;dRep_bin279_IAEFEPEN_00125;dRep_bin139_KGAJINND_00653;dRep_bin047_IFFANOMN_00833	>dRep_bin260_HELEPKJL_01435 Trehalose import ATP-binding protein SugC;>dRep_bin135_HHKACLPM_00878 Trehalose import ATP-binding protein SugC;>dRep_bin279_IAEFEPEN_00125 Trehalose import ATP-binding protein SugC;>dRep_bin139_KGAJINND_00653 Trehalose import A	dRep_bin312_MJFEFHMP_00102	CDS	sugC	3.6.3.-	Trehalose import ATP-binding protein SugC
MJFEFHMP_00467	31.14394	31.282009999999996	31.15243	31.989219999999996	31.86975	31.89012	32.00959	31.941499999999998				12	1	0	dRep_bin170_LICLFCFF_01829;dRep_bin224_NFENHJGB_01186;dRep_bin247_EKGBJCBM_00156;dRep_bin199_JBCGANNF_01554;dRep_bin114_FJHJKHGL_00796;dRep_bin079_GAOGCKND_01272;dRep_bin005_CNDFPKJG_00102;dRep_bin312_MJFEFHMP_00467;dRep_bin295_EJGKDKNE_00450;dRep_bin244_LBFMHLBI_00694;dRep_bin233_BAGKKAOB_00356;dRep_bin223_PIMCDKJI_00904;dRep_bin204_INMOGLDN_00435;dRep_bin153_JGABJFBF_00753;dRep_bin129_GADIAMAA_01156;dRep_bin061_ONFGDLGO_01272;dRep_bin264_DNFFGNEG_00768;dRep_bin246_MMFBABHK_00504;dRep_bin030_OGPDLGOC_00593	dRep_bin170_LICLFCFF_01829;dRep_bin224_NFENHJGB_01186	>dRep_bin170_LICLFCFF_01829 hypothetical protein;>dRep_bin224_NFENHJGB_01186 hypothetical protein	dRep_bin312_MJFEFHMP_00467	CDS			hypothetical protein
MJFEFHMP_00588					20.66084	20.19075						6	1	4,1576E-39	dRep_bin346_JKFDGFHC_00049;dRep_bin271_NGFBCHKH_01432;dRep_bin170_LICLFCFF_00076;dRep_bin113_LIFKCGBF_00665;dRep_bin036_DOKCEIDH_00273;dRep_bin034_MEBMFDLL_01305;dRep_bin285_IPHKFJAN_00808;dRep_bin298_EIPJCOMF_01620;dRep_bin289_KALDCNNP_01320;dRep_bin196_BIELHBNH_01057;dRep_bin138_EJGHNBMI_00590;dRep_bin064_CMDDCDKG_01375;dRep_bin183_FPGIOKBG_00615;dRep_bin073_AKBCEHHO_01469;dRep_bin323_FBBLPLCG_01598;dRep_bin101_BNDDLDCL_00033;dRep_bin049_MNFBDPNO_00783;dRep_bin087_FCLGAPPI_00381;dRep_bin281_OGHLKMAI_01074;dRep_bin210_AGEDAEIA_01693;dRep_bin118_FGIOKLBC_01781;dRep_bin022_BOEAFNDE_01420;dRep_bin131_HLFNHDGI_01253;dRep_bin002_CFBNDKDN_00034;dRep_bin014_CHIHIMAN_01271;dRep_bin329_GDOHKPBL_01515;dRep_bin314_KCHFPLIP_00795;dRep_bin307_AOCKHIKF_00407;dRep_bin098_DDEBHDKK_01315;dRep_bin306_FGHMKMMP_00477;dRep_bin153_JGABJFBF_01420;dRep_bin172_ALNHGLMD_01785;dRep_bin286_OEMIJKMC_01076;dRep_bin182_EMCFODCD_00063;dRep_bin126_PPDNCIBN_00262;dRep_bin044_IPFKHAEF_00185;dRep_bin283_NLJJFFAC_01756;dRep_bin203_CLFNNOCF_01930;dRep_bin179_HFEIPPPA_00361;dRep_bin218_ACMPALGF_01344;dRep_bin144_NPHACCKF_00223;dRep_bin094_LBLICAAO_00940;dRep_bin032_PPNIGLME_01008;dRep_bin027_OFJCHLJJ_00625;dRep_bin096_GNHMEKPF_00088;dRep_bin257_JHFDCHCB_01408;dRep_bin190_MOGDLGIN_00302;dRep_bin114_FJHJKHGL_00840;dRep_bin055_IBMMJAEE_00170;dRep_bin048_PABMBHAL_01509;dRep_bin318_IEDEJOFJ_00726;dRep_bin264_DNFFGNEG_00422;dRep_bin244_LBFMHLBI_01058;dRep_bin223_PIMCDKJI_01107;dRep_bin202_HEPPALPH_00196;dRep_bin242_LKAIBGGJ_00303;dRep_bin204_INMOGLDN_01542;dRep_bin174_LJJOKEME_00810;dRep_bin080_CBEBHNNK_00066;dRep_bin312_MJFEFHMP_00588;dRep_bin246_MMFBABHK_00194;dRep_bin116_CLFDBMOF_00457;dRep_bin061_ONFGDLGO_01437;dRep_bin030_OGPDLGOC_00261;dRep_bin004_OCHNPJPO_01274;dRep_bin251_FGNGCJDD_00242;dRep_bin219_HGPEELLF_01206;dRep_bin129_GADIAMAA_00806;dRep_bin076_GLAOFBEC_00429;dRep_bin188_EJILNMPE_01055;dRep_bin252_NDAKLAGD_01289;dRep_bin352_KFNHGNFC_00642;dRep_bin206_OIIBOIAK_00292;dRep_bin078_GKFCBAEI_00119;dRep_bin301_NJFJIJGA_00585;dRep_bin275_NIDIBBDA_00034;dRep_bin040_EIFLLDOA_01203;dRep_bin028_GKEJLBAM_00163;dRep_bin149_GABCHCDI_00012;dRep_bin093_PGADNPMG_00427;dRep_bin345_GLPJDLOI_00001;dRep_bin296_FDMPKPOH_01296;dRep_bin316_FNLHDNEO_00355;dRep_bin256_KEMNAOBC_01607;dRep_bin071_JHMCIJPE_01347;dRep_bin128_JPBBHEMA_00687;dRep_bin165_HMDFFMMM_01254;dRep_bin351_CKFFBPHM_01191;dRep_bin092_OOJCPDEA_01149	dRep_bin346_JKFDGFHC_00049;dRep_bin271_NGFBCHKH_01432;dRep_bin170_LICLFCFF_00076;dRep_bin113_LIFKCGBF_00665;dRep_bin036_DOKCEIDH_00273;dRep_bin034_MEBMFDLL_01305;dRep_bin285_IPHKFJAN_00808;dRep_bin298_EIPJCOMF_01620;dRep_bin289_KALDCNNP_01320;dRep_bin196_BIELHBNH_01057;dRep_bin138_EJGHNBMI_00590;dRep_bin064_CMDDCDKG_01375;dRep_bin183_FPGIOKBG_00615;dRep_bin073_AKBCEHHO_01469	>dRep_bin346_JKFDGFHC_00049 ATP synthase subunit beta, sodium ion specific;>dRep_bin271_NGFBCHKH_01432 ATP synthase subunit beta;>dRep_bin170_LICLFCFF_00076 ATP synthase subunit beta, sodium ion specific;>dRep_bin113_LIFKCGBF_00665 ATP synthase subunit bet	dRep_bin312_MJFEFHMP_00588	CDS	atpD	3.6.3.14	ATP synthase subunit beta
MJFEFHMP_00784						20.86423						1	1	1,4283E-33	dRep_bin312_MJFEFHMP_00784;dRep_bin129_GADIAMAA_01053	dRep_bin312_MJFEFHMP_00784;dRep_bin129_GADIAMAA_01053	>dRep_bin312_MJFEFHMP_00784 Pyruvate kinase;>dRep_bin129_GADIAMAA_01053 Pyruvate kinase	dRep_bin312_MJFEFHMP_00784	CDS	pyk	2.7.1.40	Pyruvate kinase
MJFEFHMP_00813	24.77228	24.299850000000003	24.30334	24.336060000000003	25.579	23.330470000000002	25.02141	23.461139999999997				2	2	1,8361E-08	dRep_bin233_BAGKKAOB_00746;dRep_bin061_ONFGDLGO_01373;dRep_bin312_MJFEFHMP_00813;dRep_bin264_DNFFGNEG_00471;dRep_bin246_MMFBABHK_00404;dRep_bin174_LJJOKEME_01574;dRep_bin129_GADIAMAA_00340;dRep_bin004_OCHNPJPO_00534;dRep_bin153_JGABJFBF_00777;dRep_bin223_PIMCDKJI_01532;dRep_bin219_HGPEELLF_00562;dRep_bin030_OGPDLGOC_00652	dRep_bin233_BAGKKAOB_00746;dRep_bin061_ONFGDLGO_01373;dRep_bin312_MJFEFHMP_00813;dRep_bin264_DNFFGNEG_00471;dRep_bin246_MMFBABHK_00404;dRep_bin174_LJJOKEME_01574;dRep_bin129_GADIAMAA_00340;dRep_bin004_OCHNPJPO_00534;dRep_bin153_JGABJFBF_00777;dRep_bin223_PIMCDKJI_01532;dRep_bin219_HGPEELLF_00562;dRep_bin030_OGPDLGOC_00652	>dRep_bin233_BAGKKAOB_00746 Polyribonucleotide nucleotidyltransferase;>dRep_bin061_ONFGDLGO_01373 Polyribonucleotide nucleotidyltransferase;>dRep_bin312_MJFEFHMP_00813 Polyribonucleotide nucleotidyltransferase;>dRep_bin264_DNFFGNEG_00471 Polyribonucleotide	dRep_bin312_MJFEFHMP_00813	CDS	pnp	2.7.7.8	Polyribonucleotide nucleotidyltransferase
MJFEFHMP_00833				21.86884								3	1	1,3797E-13	dRep_bin021_AJDDCGJC_00051;dRep_bin252_NDAKLAGD_00826;dRep_bin317_ABPHNCOD_01131;dRep_bin216_JNJMCPHB_01076;dRep_bin272_LGBDGEIM_00618;dRep_bin097_CBBLIPAN_01579;dRep_bin053_OMGNPOOB_00833;dRep_bin337_FHKPNFDB_00090;dRep_bin052_PGOOKKFH_01594;dRep_bin168_HKDILBFE_01015;dRep_bin322_OJELOJOF_01622;dRep_bin220_PILICLLL_01543;dRep_bin055_IBMMJAEE_00610;dRep_bin061_ONFGDLGO_01234;dRep_bin168_HKDILBFE_00368;dRep_bin055_IBMMJAEE_00168;dRep_bin261_FJICAFFM_00490;dRep_bin017_FGFLFOPJ_00414;dRep_bin115_IFKGOGCL_01280;dRep_bin257_JHFDCHCB_01406;dRep_bin323_FBBLPLCG_01600;dRep_bin007_LNLEAAAN_00766;dRep_bin049_MNFBDPNO_00781;dRep_bin333_EFOKIBLA_01149;dRep_bin279_IAEFEPEN_01471;dRep_bin234_ECABPBME_01515;dRep_bin179_HFEIPPPA_02108;dRep_bin023_HGFJFKAI_01527;dRep_bin335_JIOGNAPG_00787;dRep_bin250_NMCAMJIO_00423;dRep_bin158_OGFICEAP_00549;dRep_bin100_CODMOHGB_01341;dRep_bin089_PAJFOJBN_02515;dRep_bin088_DNGPPFDK_01371;dRep_bin081_JDPCKDNP_00684;dRep_bin324_IPNHOHFK_01454;dRep_bin300_MJPPENNL_01260;dRep_bin292_JIBLDOOH_01593;dRep_bin284_DEHKNOBF_00281;dRep_bin282_PKAAPBFP_00934;dRep_bin279_IAEFEPEN_01275;dRep_bin269_PNILGKPH_00152;dRep_bin240_LDBBGJKG_01257;dRep_bin226_NLNLHLLD_00367;dRep_bin209_NKIHFCEN_01541;dRep_bin203_CLFNNOCF_01928;dRep_bin179_HFEIPPPA_00359;dRep_bin167_BLMEBMNN_00233;dRep_bin160_EFKMPBOM_02132;dRep_bin154_JGOKHKLI_02775;dRep_bin133_NOBPDBPA_00727;dRep_bin114_FJHJKHGL_00838;dRep_bin095_HOBNOEEF_00822;dRep_bin075_EPEMMOCL_00939;dRep_bin074_EHAOMODJ_00291;dRep_bin065_DFABHCBI_01203;dRep_bin347_EKGCMFPD_00625;dRep_bin325_EIIGOGHN_00612;dRep_bin310_IMBAFDIF_01359;dRep_bin308_JBPDGLPP_00545;dRep_bin306_FGHMKMMP_01018;dRep_bin297_EDHEEICA_01903;dRep_bin201_OLKDIBOK_00335;dRep_bin186_HJAAFFNP_00409;dRep_bin173_BEBNCADL_00242;dRep_bin169_PNICKJKO_00103;dRep_bin145_KMJJJOEJ_01348;dRep_bin135_HHKACLPM_00566;dRep_bin101_BNDDLDCL_00036;dRep_bin069_EGGEOGDC_01480;dRep_bin062_BOFBFLDA_00487;dRep_bin047_IFFANOMN_01271;dRep_bin042_MMFCLHOO_00308;dRep_bin041_OPKGAAAG_00762;dRep_bin024_OLHDGABE_00679;dRep_bin016_JLGAHGOJ_01831;dRep_bin001_GHHJMDAL_00660;dRep_bin349_AMCJEEEG_00131;dRep_bin312_MJFEFHMP_00833;dRep_bin264_DNFFGNEG_00100;dRep_bin246_MMFBABHK_00297;dRep_bin219_HGPEELLF_00003;dRep_bin174_LJJOKEME_01103;dRep_bin129_GADIAMAA_01409;dRep_bin127_FIPNHBCH_00703;dRep_bin077_DNNBMPMC_01278;dRep_bin030_OGPDLGOC_01790;dRep_bin004_OCHNPJPO_01519;dRep_bin218_ACMPALGF_00968;dRep_bin185_OOOLKACK_00657;dRep_bin181_MKGPMPIA_00538;dRep_bin148_NAJFKJMD_01090;dRep_bin058_GJKCICJN_01056;dRep_bin291_EILOACJB_00579;dRep_bin244_LBFMHLBI_01277;dRep_bin223_PIMCDKJI_01006;dRep_bin204_INMOGLDN_01473;dRep_bin184_MBMMJHKO_00222;dRep_bin302_AHDEPDKG_00621;dRep_bin265_LFKFBJPC_00590;dRep_bin233_BAGKKAOB_00885;dRep_bin188_EJILNMPE_01053;dRep_bin081_JDPCKDNP_01324;dRep_bin318_IEDEJOFJ_00724;dRep_bin144_NPHACCKF_00221;dRep_bin096_GNHMEKPF_00086;dRep_bin344_CJJBDGAA_01489;dRep_bin295_EJGKDKNE_00851;dRep_bin048_PABMBHAL_01507;dRep_bin303_DDDNDJCF_00663;dRep_bin283_NLJJFFAC_01754;dRep_bin201_OLKDIBOK_00523;dRep_bin139_KGAJINND_01276;dRep_bin134_HIAPAODO_01158;dRep_bin094_LBLICAAO_00942;dRep_bin062_BOFBFLDA_00417;dRep_bin336_MPGOKPOL_02385;dRep_bin082_HBEFABJN_00650;dRep_bin125_FADLGGII_00540;dRep_bin334_NAPFFNLD_01195;dRep_bin217_MJCEAEPB_00530;dRep_bin195_DDMDFNOK_00971;dRep_bin060_HNFNENOI_00088;dRep_bin328_GIGKNKPJ_00426;dRep_bin281_OGHLKMAI_01076;dRep_bin197_NHLBHFEI_00626;dRep_bin103_IGJBLKMC_00726;dRep_bin116_CLFDBMOF_00455;dRep_bin332_KAOPCDPF_00448;dRep_bin345_GLPJDLOI_00589;dRep_bin314_KCHFPLIP_00788;dRep_bin128_JPBBHEMA_00693;dRep_bin073_AKBCEHHO_01462;dRep_bin045_GJACFFBC_00428;dRep_bin329_GDOHKPBL_01522;dRep_bin316_FNLHDNEO_00349;dRep_bin307_AOCKHIKF_00400;dRep_bin294_EHJINIDK_01408;dRep_bin289_KALDCNNP_01327;dRep_bin183_FPGIOKBG_00622;dRep_bin098_DDEBHDKK_01308;dRep_bin165_HMDFFMMM_01247;dRep_bin037_GEAOEKHA_01212;dRep_bin256_KEMNAOBC_00113;dRep_bin092_OOJCPDEA_01143;dRep_bin126_PPDNCIBN_00264;dRep_bin090_IPGNHCBJ_00911;dRep_bin215_ABBFGCAF_00280;dRep_bin005_CNDFPKJG_00629;dRep_bin270_GEJAHNCN_01426;dRep_bin116_CLFDBMOF_00686;dRep_bin069_EGGEOGDC_00857;dRep_bin007_LNLEAAAN_01604;dRep_bin057_BNCFHBBO_01159;dRep_bin038_EIGFILKG_00229;dRep_bin114_FJHJKHGL_00934;dRep_bin152_LJMCIADF_00045;dRep_bin322_OJELOJOF_00826;dRep_bin266_JFOCEDAE_00030;dRep_bin194_MEPDOGGJ_01235;dRep_bin079_GAOGCKND_01437;dRep_bin068_ENOLAELK_01387;dRep_bin025_CBEJJMLE_00917;dRep_bin240_LDBBGJKG_00802;dRep_bin347_EKGCMFPD_01498;dRep_bin167_BLMEBMNN_00596;dRep_bin160_EFKMPBOM_02114;dRep_bin260_HELEPKJL_02017;dRep_bin091_MAFACGAD_00797;dRep_bin099_DNDAGJEJ_01471;dRep_bin278_BFCONKOE_01179;dRep_bin168_HKDILBFE_00397;dRep_bin284_DEHKNOBF_00737;dRep_bin001_GHHJMDAL_01209;dRep_bin236_BNONDECB_00531;dRep_bin286_OEMIJKMC_01078;dRep_bin231_CFOLMJBA_00464;dRep_bin193_GDMDPNNM_00224;dRep_bin172_ALNHGLMD_01787;dRep_bin182_EMCFODCD_00065;dRep_bin044_IPFKHAEF_00183	dRep_bin021_AJDDCGJC_00051;dRep_bin252_NDAKLAGD_00826;dRep_bin317_ABPHNCOD_01131;dRep_bin216_JNJMCPHB_01076;dRep_bin272_LGBDGEIM_00618;dRep_bin097_CBBLIPAN_01579;dRep_bin053_OMGNPOOB_00833;dRep_bin337_FHKPNFDB_00090;dRep_bin052_PGOOKKFH_01594	>dRep_bin021_AJDDCGJC_00051 ATP synthase subunit alpha;>dRep_bin252_NDAKLAGD_00826 ATP synthase subunit alpha;>dRep_bin317_ABPHNCOD_01131 ATP synthase subunit alpha;>dRep_bin216_JNJMCPHB_01076 ATP synthase subunit alpha;>dRep_bin272_LGBDGEIM_00618 ATP synt	dRep_bin312_MJFEFHMP_00833	CDS	atpA	3.6.3.14	ATP synthase subunit alpha
MJFEFHMP_01049	28.615830000000003	28.18546	29.82558	29.92139	30.37161	30.505309999999998	29.835990000000002	30.137000000000004				19	11	0	dRep_bin191_NGFJMLOL_01017;dRep_bin307_AOCKHIKF_00836;dRep_bin232_JGAEDAFA_01923;dRep_bin098_DDEBHDKK_00570;dRep_bin073_AKBCEHHO_00429;dRep_bin329_GDOHKPBL_00208;dRep_bin289_KALDCNNP_00441;dRep_bin219_HGPEELLF_00854;dRep_bin047_IFFANOMN_01143;dRep_bin354_MMOALAFN_00793;dRep_bin093_PGADNPMG_00569;dRep_bin327_EPEGNBAG_00694;dRep_bin123_PJKBFKBB_01119;dRep_bin325_EIIGOGHN_01520;dRep_bin335_JIOGNAPG_00036;dRep_bin082_HBEFABJN_00133;dRep_bin204_INMOGLDN_01573;dRep_bin174_LJJOKEME_01467;dRep_bin050_FBECOHCI_00562;dRep_bin264_DNFFGNEG_01376;dRep_bin252_NDAKLAGD_00172;dRep_bin246_MMFBABHK_01476;dRep_bin202_HEPPALPH_01125;dRep_bin004_OCHNPJPO_00139;dRep_bin318_IEDEJOFJ_00360;dRep_bin244_LBFMHLBI_01421;dRep_bin223_PIMCDKJI_00814;dRep_bin186_HJAAFFNP_00783;dRep_bin133_NOBPDBPA_02278;dRep_bin105_AAEIHAFF_01501;dRep_bin005_CNDFPKJG_01278;dRep_bin317_ABPHNCOD_01283;dRep_bin007_LNLEAAAN_00664;dRep_bin312_MJFEFHMP_01049;dRep_bin129_GADIAMAA_00560;dRep_bin065_DFABHCBI_00478;dRep_bin287_DONBGKDH_00800;dRep_bin238_OLNFACLE_00723;dRep_bin179_HFEIPPPA_01221;dRep_bin167_BLMEBMNN_00475;dRep_bin125_FADLGGII_00749;dRep_bin103_IGJBLKMC_00712;dRep_bin088_DNGPPFDK_00743;dRep_bin048_PABMBHAL_01780;dRep_bin348_LCLFDNEE_00919;dRep_bin278_BFCONKOE_00886;dRep_bin097_CBBLIPAN_00374;dRep_bin081_JDPCKDNP_01011;dRep_bin032_PPNIGLME_00057;dRep_bin272_LGBDGEIM_01074;dRep_bin049_MNFBDPNO_01322;dRep_bin013_IODPEDPB_01734;dRep_bin299_AKNBKJGM_01764;dRep_bin266_JFOCEDAE_00776;dRep_bin216_JNJMCPHB_01258;dRep_bin021_AJDDCGJC_00529;dRep_bin316_FNLHDNEO_00493;dRep_bin314_KCHFPLIP_01715;dRep_bin296_FDMPKPOH_01763;dRep_bin275_NIDIBBDA_00322;dRep_bin118_FGIOKLBC_00279;dRep_bin037_GEAOEKHA_00835;dRep_bin028_GKEJLBAM_01763;dRep_bin331_HPKAPHAF_00024;dRep_bin301_NJFJIJGA_01995;dRep_bin149_GABCHCDI_01177;dRep_bin057_BNCFHBBO_00918;dRep_bin040_EIFLLDOA_01272;dRep_bin265_LFKFBJPC_01505;dRep_bin022_BOEAFNDE_00753;dRep_bin210_AGEDAEIA_00448	dRep_bin191_NGFJMLOL_01017	>dRep_bin191_NGFJMLOL_01017 Aspartate aminotransferase	dRep_bin312_MJFEFHMP_01049	CDS	patA_2	2.6.1.-	Putative N-acetyl-LL-diaminopimelate aminotransferase
MJFEFHMP_01068					23.06008							2	2	7,0161E-07	dRep_bin312_MJFEFHMP_01068	dRep_bin312_MJFEFHMP_01068	>dRep_bin312_MJFEFHMP_01068 typeII_sec_gspG: type II secretion system protein G	dRep_bin312_MJFEFHMP_01068	CDS			typeII_sec_gspG: type II secretion system protein G
MJFEFHMP_01072					24.1747							6	2	4,4849E-61	dRep_bin312_MJFEFHMP_01072;dRep_bin295_EJGKDKNE_00170;dRep_bin312_MJFEFHMP_02109;dRep_bin219_HGPEELLF_00489;dRep_bin128_JPBBHEMA_01035;dRep_bin312_MJFEFHMP_01861;dRep_bin153_JGABJFBF_01436;dRep_bin129_GADIAMAA_01536	dRep_bin312_MJFEFHMP_01072;dRep_bin295_EJGKDKNE_00170;dRep_bin312_MJFEFHMP_02109;dRep_bin219_HGPEELLF_00489	>dRep_bin312_MJFEFHMP_01072 6-pyruvoyl tetrahydropterin synthase;>dRep_bin295_EJGKDKNE_00170 6-pyruvoyl tetrahydropterin synthase;>dRep_bin312_MJFEFHMP_02109 6-pyruvoyl tetrahydropterin synthase;>dRep_bin219_HGPEELLF_00489 6-pyruvoyl tetrahydropterin synth	dRep_bin312_MJFEFHMP_01072	CDS			6-pyruvoyl tetrahydropterin synthase
MJFEFHMP_01073		24.89731										5	2	6,2208E-39	dRep_bin278_BFCONKOE_00123;dRep_bin029_LFMGBBEC_01676;dRep_bin349_AMCJEEEG_00957;dRep_bin312_MJFEFHMP_01073;dRep_bin195_DDMDFNOK_00825;dRep_bin188_EJILNMPE_00129;dRep_bin298_EIPJCOMF_01432	dRep_bin278_BFCONKOE_00123	>dRep_bin278_BFCONKOE_00123 Rubrerythrin-1	dRep_bin312_MJFEFHMP_01073	CDS	rbr		Rubrerythrin
MJFEFHMP_01095	27.465209999999995	26.617510000000003	28.678150000000002	28.989749999999997	28.991509999999998	29.52083	26.64733	26.935399999999998				3	1	3,1897E-56	dRep_bin314_KCHFPLIP_01289;dRep_bin232_JGAEDAFA_00471;dRep_bin036_DOKCEIDH_01120;dRep_bin331_HPKAPHAF_00114;dRep_bin307_AOCKHIKF_00040;dRep_bin165_HMDFFMMM_00264;dRep_bin098_DDEBHDKK_01390;dRep_bin070_EMBHKIOF_01571;dRep_bin037_GEAOEKHA_01075;dRep_bin112_NDMGAKCH_01044;dRep_bin084_CGBIKHBH_01665;dRep_bin035_JBNPBOKG_01411;dRep_bin296_FDMPKPOH_00654;dRep_bin198_GMLJKALI_01470;dRep_bin036_DOKCEIDH_02019;dRep_bin002_CFBNDKDN_02028;dRep_bin196_BIELHBNH_01569;dRep_bin138_EJGHNBMI_01663;dRep_bin113_LIFKCGBF_00319;dRep_bin210_AGEDAEIA_01443;dRep_bin118_FGIOKLBC_01259;dRep_bin022_BOEAFNDE_00156;dRep_bin131_HLFNHDGI_00538;dRep_bin136_NAIECEIF_00794;dRep_bin161_JMKPMHCO_00063;dRep_bin301_NJFJIJGA_01272;dRep_bin149_GABCHCDI_00372;dRep_bin128_JPBBHEMA_01131;dRep_bin111_FPJIHFKE_01180;dRep_bin204_INMOGLDN_01390;dRep_bin202_HEPPALPH_01173;dRep_bin050_FBECOHCI_00340;dRep_bin351_CKFFBPHM_01226;dRep_bin276_EHNFLEBP_02115;dRep_bin256_KEMNAOBC_01381;dRep_bin104_EGLEJOLM_01403;dRep_bin294_EHJINIDK_01819;dRep_bin264_DNFFGNEG_00661;dRep_bin092_OOJCPDEA_01313;dRep_bin312_MJFEFHMP_01095;dRep_bin246_MMFBABHK_00569;dRep_bin174_LJJOKEME_01423;dRep_bin129_GADIAMAA_00400;dRep_bin061_ONFGDLGO_00654;dRep_bin030_OGPDLGOC_01307;dRep_bin093_PGADNPMG_00805;dRep_bin047_IFFANOMN_01577	dRep_bin314_KCHFPLIP_01289;dRep_bin232_JGAEDAFA_00471;dRep_bin036_DOKCEIDH_01120;dRep_bin331_HPKAPHAF_00114;dRep_bin307_AOCKHIKF_00040;dRep_bin165_HMDFFMMM_00264;dRep_bin098_DDEBHDKK_01390;dRep_bin070_EMBHKIOF_01571;dRep_bin037_GEAOEKHA_01075;dRep_bin112_NDMGAKCH_01044;dRep_bin084_CGBIKHBH_01665;dRep_bin035_JBNPBOKG_01411;dRep_bin296_FDMPKPOH_00654;dRep_bin198_GMLJKALI_01470;dRep_bin036_DOKCEIDH_02019;dRep_bin002_CFBNDKDN_02028;dRep_bin196_BIELHBNH_01569;dRep_bin138_EJGHNBMI_01663;dRep_bin113_LIFKCGBF_00319;dRep_bin210_AGEDAEIA_01443;dRep_bin118_FGIOKLBC_01259;dRep_bin022_BOEAFNDE_00156;dRep_bin131_HLFNHDGI_00538	>dRep_bin314_KCHFPLIP_01289 30S ribosomal protein S12;>dRep_bin232_JGAEDAFA_00471 30S ribosomal protein S12;>dRep_bin036_DOKCEIDH_01120 30S ribosomal protein S12;>dRep_bin331_HPKAPHAF_00114 30S ribosomal protein S12;>dRep_bin307_AOCKHIKF_00040 30S ribosoma	dRep_bin312_MJFEFHMP_01095	CDS	rpsL		30S ribosomal protein S12
MJFEFHMP_01137					28.68465	26.883319999999998		27.97585				13	0	6,364E-130	dRep_bin170_LICLFCFF_01486;dRep_bin131_HLFNHDGI_00110;dRep_bin118_FGIOKLBC_00922;dRep_bin210_AGEDAEIA_00351;dRep_bin290_OIOJKBNK_00599;dRep_bin264_DNFFGNEG_00559;dRep_bin174_LJJOKEME_01164;dRep_bin030_OGPDLGOC_01583;dRep_bin252_NDAKLAGD_00740;dRep_bin246_MMFBABHK_01095;dRep_bin312_MJFEFHMP_01137;dRep_bin219_HGPEELLF_01025;dRep_bin153_JGABJFBF_00263;dRep_bin061_ONFGDLGO_01740;dRep_bin004_OCHNPJPO_01456;dRep_bin129_GADIAMAA_00644;dRep_bin233_BAGKKAOB_01648	dRep_bin170_LICLFCFF_01486	>dRep_bin170_LICLFCFF_01486 Adenylosuccinate synthetase	dRep_bin312_MJFEFHMP_01137	CDS	purA	6.3.4.4	Adenylosuccinate synthetase
MJFEFHMP_01194	28.62954	29.354750000000003	29.992399999999996	30.023139999999998	30.21083	30.89937	29.70792	30.0531				20	3	1,2194E-156	dRep_bin191_NGFJMLOL_01259;dRep_bin296_FDMPKPOH_00205;dRep_bin210_AGEDAEIA_00766;dRep_bin195_DDMDFNOK_00108;dRep_bin334_NAPFFNLD_01038;dRep_bin211_LGJEFJIK_01419;dRep_bin295_EJGKDKNE_00091;dRep_bin341_NBEGOKEF_00239;dRep_bin020_JCCELPIE_00888;dRep_bin283_NLJJFFAC_01280;dRep_bin274_DBJHKLDG_00956;dRep_bin016_JLGAHGOJ_01458;dRep_bin108_BPNCDINP_01604;dRep_bin008_MNDMJLEI_00335;dRep_bin270_GEJAHNCN_01137;dRep_bin005_CNDFPKJG_01352;dRep_bin060_HNFNENOI_00669;dRep_bin146_LCCIBLJG_00571;dRep_bin326_CEEAIPKF_00877;dRep_bin333_EFOKIBLA_00153;dRep_bin168_HKDILBFE_01558;dRep_bin244_LBFMHLBI_01599;dRep_bin096_GNHMEKPF_00231;dRep_bin237_KJDLIPND_00220;dRep_bin188_EJILNMPE_01240;dRep_bin251_FGNGCJDD_00076;dRep_bin227_IJODGBOI_00103;dRep_bin151_AHBJLMBI_00923;dRep_bin116_CLFDBMOF_00729;dRep_bin141_GMCOOECB_00805;dRep_bin350_EKOOEEGH_00925;dRep_bin132_FAPBDCMG_00754;dRep_bin080_CBEBHNNK_00317;dRep_bin051_HIEIDCID_00971;dRep_bin228_CECEDMJG_00643;dRep_bin009_KMMEHEKA_00811;dRep_bin318_IEDEJOFJ_01292;dRep_bin207_OHNPDPFI_00717;dRep_bin345_GLPJDLOI_00471;dRep_bin144_NPHACCKF_01507;dRep_bin118_FGIOKLBC_00082;dRep_bin355_KJEFNADK_00986;dRep_bin293_MEPKGOAN_00544;dRep_bin230_NINMBMKB_00674;dRep_bin014_CHIHIMAN_00029;dRep_bin218_ACMPALGF_00178;dRep_bin165_HMDFFMMM_01108;dRep_bin094_LBLICAAO_00513;dRep_bin076_GLAOFBEC_01428;dRep_bin267_LJCFMAFA_00110;dRep_bin048_PABMBHAL_00321;dRep_bin147_EJLBNEBE_02032;dRep_bin128_JPBBHEMA_00007;dRep_bin042_MMFCLHOO_01063;dRep_bin351_CKFFBPHM_00913;dRep_bin123_PJKBFKBB_00095;dRep_bin330_CODAKHDJ_00708;dRep_bin252_NDAKLAGD_01294;dRep_bin233_BAGKKAOB_01574;dRep_bin217_MJCEAEPB_00244;dRep_bin110_JGOEJECF_00272;dRep_bin109_MJABCPAK_00670;dRep_bin101_BNDDLDCL_01055;dRep_bin092_OOJCPDEA_00344;dRep_bin074_EHAOMODJ_00824;dRep_bin336_MPGOKPOL_02107;dRep_bin290_OIOJKBNK_01058;dRep_bin264_DNFFGNEG_00269;dRep_bin256_KEMNAOBC_01330;dRep_bin246_MMFBABHK_01553;dRep_bin166_DFIAJFEC_00041;dRep_bin153_JGABJFBF_00098;dRep_bin143_PFLDJMPF_00060;dRep_bin106_BKDHGPBE_01156;dRep_bin071_JHMCIJPE_01039;dRep_bin250_NMCAMJIO_00472;dRep_bin312_MJFEFHMP_01194;dRep_bin194_MEPDOGGJ_00657;dRep_bin129_GADIAMAA_01832;dRep_bin061_ONFGDLGO_01341;dRep_bin030_OGPDLGOC_01109;dRep_bin025_CBEJJMLE_00255;dRep_bin223_PIMCDKJI_01311;dRep_bin204_INMOGLDN_00399;dRep_bin202_HEPPALPH_00661;dRep_bin105_AAEIHAFF_01590;dRep_bin056_EMNHHOJA_01586;dRep_bin174_LJJOKEME_01552;dRep_bin057_BNCFHBBO_00981;dRep_bin348_LCLFDNEE_01410;dRep_bin339_DBNBAHDK_00024;dRep_bin321_EJNAAGJG_00897;dRep_bin273_FGAEBHNP_01096;dRep_bin248_CCDFPECI_01765;dRep_bin124_HIHDFGCL_01059;dRep_bin068_ENOLAELK_01049;dRep_bin038_EIGFILKG_00020;dRep_bin276_EHNFLEBP_00417;dRep_bin152_LJMCIADF_00769;dRep_bin115_IFKGOGCL_00005;dRep_bin099_DNDAGJEJ_00435;dRep_bin085_MBHLGCDB_01722;dRep_bin079_GAOGCKND_00892;dRep_bin026_HNPIIINL_00985;dRep_bin353_PPDHLNJB_01438;dRep_bin319_PBDBJGCJ_01331;dRep_bin291_EILOACJB_00194;dRep_bin241_LMMMGDNI_00361;dRep_bin091_MAFACGAD_00751;dRep_bin303_DDDNDJCF_01255;dRep_bin216_JNJMCPHB_01481;dRep_bin184_MBMMJHKO_01167;dRep_bin161_JMKPMHCO_00103;dRep_bin021_AJDDCGJC_01597;dRep_bin095_HOBNOEEF_00033;dRep_bin059_OOBKFNPP_00633;dRep_bin018_ILOONPIC_00093;dRep_bin306_FGHMKMMP_00476;dRep_bin175_HANCENAK_00082;dRep_bin040_EIFLLDOA_01832;dRep_bin166_DFIAJFEC_00288;dRep_bin085_MBHLGCDB_01583	dRep_bin191_NGFJMLOL_01259	>dRep_bin191_NGFJMLOL_01259 Aspartate--tRNA ligase	dRep_bin312_MJFEFHMP_01194	CDS	aspS	6.1.1.12	Aspartate--tRNA ligase
MJFEFHMP_01332				21.40997								7	0	2,6741E-22	dRep_bin261_FJICAFFM_01163;dRep_bin312_MJFEFHMP_01332	dRep_bin261_FJICAFFM_01163	>dRep_bin261_FJICAFFM_01163 Branched-chain-amino-acid aminotransferase	dRep_bin312_MJFEFHMP_01332	CDS	ilvE	2.6.1.42	Branched-chain-amino-acid aminotransferase
MJFEFHMP_01433	27.57982	28.00164	26.64609	28.334150000000005	27.444589999999998		28.467	27.618000000000002				1	1	0,00077961	dRep_bin312_MJFEFHMP_01433	dRep_bin312_MJFEFHMP_01433	>dRep_bin312_MJFEFHMP_01433 Foldase protein PrsA 2	dRep_bin312_MJFEFHMP_01433	CDS	prsA2	5.2.1.8	Foldase protein PrsA 2
MJFEFHMP_01514	24.54298	25.590870000000002	24.19978	24.54998	26.04646	26.419950000000004	24.397930000000002	24.918339999999997				6	2	5,0672E-43	dRep_bin264_DNFFGNEG_00328;dRep_bin061_ONFGDLGO_01046;dRep_bin129_GADIAMAA_00913;dRep_bin004_OCHNPJPO_00360;dRep_bin312_MJFEFHMP_01514;dRep_bin174_LJJOKEME_00285;dRep_bin219_HGPEELLF_00756	dRep_bin264_DNFFGNEG_00328;dRep_bin061_ONFGDLGO_01046;dRep_bin129_GADIAMAA_00913;dRep_bin004_OCHNPJPO_00360;dRep_bin312_MJFEFHMP_01514;dRep_bin174_LJJOKEME_00285	>dRep_bin264_DNFFGNEG_00328 60 kDa chaperonin;>dRep_bin061_ONFGDLGO_01046 60 kDa chaperonin;>dRep_bin129_GADIAMAA_00913 60 kDa chaperonin;>dRep_bin004_OCHNPJPO_00360 60 kDa chaperonin;>dRep_bin312_MJFEFHMP_01514 60 kDa chaperonin;>dRep_bin174_LJJOKEME_0028	dRep_bin312_MJFEFHMP_01514	CDS	groL		60 kDa chaperonin
MJFEFHMP_01538							25.468519999999994					1	1	0,004652	dRep_bin219_HGPEELLF_01124;dRep_bin061_ONFGDLGO_01232;dRep_bin004_OCHNPJPO_00635;dRep_bin312_MJFEFHMP_01538;dRep_bin204_INMOGLDN_00159	dRep_bin219_HGPEELLF_01124;dRep_bin061_ONFGDLGO_01232;dRep_bin004_OCHNPJPO_00635;dRep_bin312_MJFEFHMP_01538;dRep_bin204_INMOGLDN_00159	>dRep_bin219_HGPEELLF_01124 hypothetical protein;>dRep_bin061_ONFGDLGO_01232 hypothetical protein;>dRep_bin004_OCHNPJPO_00635 hypothetical protein;>dRep_bin312_MJFEFHMP_01538 hypothetical protein;>dRep_bin204_INMOGLDN_00159 hypothetical protein	dRep_bin312_MJFEFHMP_01538	CDS			hypothetical protein
MJFEFHMP_01596					24.67578	23.84134		24.06948				2	1	3,0494E-13	dRep_bin129_GADIAMAA_01113;dRep_bin312_MJFEFHMP_01596	dRep_bin129_GADIAMAA_01113;dRep_bin312_MJFEFHMP_01596	>dRep_bin129_GADIAMAA_01113 Pyruvate, phosphate dikinase;>dRep_bin312_MJFEFHMP_01596 Pyruvate, phosphate dikinase	dRep_bin312_MJFEFHMP_01596	CDS	ppdK	2.7.9.1	Pyruvate, phosphate dikinase
MJFEFHMP_01717				25.29235								1	1	0,0039623	dRep_bin312_MJFEFHMP_01717	dRep_bin312_MJFEFHMP_01717	>dRep_bin312_MJFEFHMP_01717 hypothetical protein	dRep_bin312_MJFEFHMP_01717	CDS			hypothetical protein
MJFEFHMP_01770	28.53823	29.014680000000002	28.25809	28.187970000000004	29.77135	27.7293	29.03034	28.794890000000002				13	1	1,1449E-117	dRep_bin264_DNFFGNEG_01109;dRep_bin233_BAGKKAOB_00739;dRep_bin004_OCHNPJPO_00326;dRep_bin312_MJFEFHMP_01770	dRep_bin264_DNFFGNEG_01109;dRep_bin233_BAGKKAOB_00739	>dRep_bin264_DNFFGNEG_01109 Elongation factor Tu;>dRep_bin233_BAGKKAOB_00739 Elongation factor Tu	dRep_bin312_MJFEFHMP_01770	CDS	tuf1		Elongation factor Tu
MJFEFHMP_02030	27.05858											4	1	8,3636E-21	dRep_bin129_GADIAMAA_01140;dRep_bin174_LJJOKEME_00310;dRep_bin264_DNFFGNEG_01047;dRep_bin252_NDAKLAGD_00755;dRep_bin312_MJFEFHMP_02030;dRep_bin202_HEPPALPH_00246;dRep_bin061_ONFGDLGO_00398	dRep_bin129_GADIAMAA_01140;dRep_bin174_LJJOKEME_00310;dRep_bin264_DNFFGNEG_01047;dRep_bin252_NDAKLAGD_00755;dRep_bin312_MJFEFHMP_02030;dRep_bin202_HEPPALPH_00246;dRep_bin061_ONFGDLGO_00398	>dRep_bin129_GADIAMAA_01140 Formate acetyltransferase;>dRep_bin174_LJJOKEME_00310 Formate acetyltransferase;>dRep_bin264_DNFFGNEG_01047 Formate acetyltransferase;>dRep_bin252_NDAKLAGD_00755 Formate acetyltransferase;>dRep_bin312_MJFEFHMP_02030 Formate acet	dRep_bin312_MJFEFHMP_02030	CDS	pflB_2	2.3.1.54	Formate acetyltransferase
MJFEFHMP_02060	25.197980000000005	25.53237	25.39509	25.5535	25.76491	25.12979	24.975569999999998	25.41025				3	1	3,082E-19	dRep_bin153_JGABJFBF_01117;dRep_bin129_GADIAMAA_00180;dRep_bin004_OCHNPJPO_00677;dRep_bin246_MMFBABHK_00971;dRep_bin174_LJJOKEME_00138;dRep_bin061_ONFGDLGO_00261;dRep_bin030_OGPDLGOC_00275;dRep_bin219_HGPEELLF_01182;dRep_bin312_MJFEFHMP_02060	dRep_bin153_JGABJFBF_01117;dRep_bin129_GADIAMAA_00180;dRep_bin004_OCHNPJPO_00677;dRep_bin246_MMFBABHK_00971;dRep_bin174_LJJOKEME_00138;dRep_bin061_ONFGDLGO_00261;dRep_bin030_OGPDLGOC_00275;dRep_bin219_HGPEELLF_01182	>dRep_bin153_JGABJFBF_01117 Triosephosphate isomerase;>dRep_bin129_GADIAMAA_00180 Triosephosphate isomerase;>dRep_bin004_OCHNPJPO_00677 Triosephosphate isomerase;>dRep_bin246_MMFBABHK_00971 Triosephosphate isomerase;>dRep_bin174_LJJOKEME_00138 Triosephosph	dRep_bin312_MJFEFHMP_02060	CDS			hypothetical protein
