GBprotID	LFQ intensity CtrPig1	LFQ intensity CtrPig2	LFQ intensity CtrPig3	LFQ intensity CtrPig4	LFQ intensity MannanPig1	LFQ intensity MannanPig2	LFQ intensity MannanPig3	LFQ intensity MannanPig4	Only identified by site	Reverse	Contaminant	Peptides	Unique peptides	PEP	Protein IDs	Majority protein IDs	Fasta headers	IDcomb	ftype	gene	EC_number	product
CJFGINPI_00384						26.7506	25.29684	25.30869				21	1	1,7537E-107	dRep_bin154_JGOKHKLI_00877;dRep_bin005_CNDFPKJG_00510;dRep_bin078_GKFCBAEI_00660;dRep_bin342_BMMENEMP_00951;dRep_bin313_CJFGINPI_00384;dRep_bin114_FJHJKHGL_00469;dRep_bin076_GLAOFBEC_00007;dRep_bin251_FGNGCJDD_00615	dRep_bin154_JGOKHKLI_00877	>dRep_bin154_JGOKHKLI_00877 Elongation factor G	dRep_bin313_CJFGINPI_00384	CDS	fusA		Elongation factor G
CJFGINPI_00865								21.643810000000002				9	0	4,6207E-36	dRep_bin143_PFLDJMPF_01162;dRep_bin074_EHAOMODJ_00197;dRep_bin152_LJMCIADF_00840;dRep_bin079_GAOGCKND_00311;dRep_bin068_ENOLAELK_00990;dRep_bin124_HIHDFGCL_00318;dRep_bin272_LGBDGEIM_00728;dRep_bin337_FHKPNFDB_00324;dRep_bin056_EMNHHOJA_01446;dRep_bin054_NNOKONMC_00657;dRep_bin102_ICFDHPGB_00342;dRep_bin259_IFIOODLK_00485;dRep_bin086_HHEJBMCP_01132;dRep_bin054_NNOKONMC_00873;dRep_bin161_JMKPMHCO_00072;dRep_bin044_IPFKHAEF_00005;dRep_bin085_MBHLGCDB_01101;dRep_bin059_OOBKFNPP_00481;dRep_bin171_FIDMCACI_00747;dRep_bin012_KEBBILMO_00314;dRep_bin212_IEMJENOD_00204;dRep_bin257_JHFDCHCB_01099;dRep_bin277_MIPNGEJE_00939;dRep_bin238_OLNFACLE_01881;dRep_bin200_JJGKEOHI_00480;dRep_bin144_NPHACCKF_01932;dRep_bin321_EJNAAGJG_00384;dRep_bin333_EFOKIBLA_00721;dRep_bin273_FGAEBHNP_01365;dRep_bin280_IMCGLKKG_00438;dRep_bin171_FIDMCACI_00165;dRep_bin051_HIEIDCID_00833;dRep_bin141_GMCOOECB_01065;dRep_bin122_JHMJFODI_00609;dRep_bin155_CLHNKEHA_00697;dRep_bin313_CJFGINPI_00865;dRep_bin213_HHHELMFN_00711;dRep_bin258_DAMEHFEK_00926;dRep_bin169_PNICKJKO_00880;dRep_bin055_IBMMJAEE_00781;dRep_bin096_GNHMEKPF_00270;dRep_bin082_HBEFABJN_01176;dRep_bin094_LBLICAAO_01798;dRep_bin052_PGOOKKFH_00001;dRep_bin178_FLGBGGJB_00429;dRep_bin123_PJKBFKBB_00530;dRep_bin046_GKEJLOEK_00533;dRep_bin270_GEJAHNCN_00559;dRep_bin087_FCLGAPPI_00749;dRep_bin317_ABPHNCOD_01524;dRep_bin354_MMOALAFN_01090;dRep_bin221_LMGNIMOJ_00256;dRep_bin005_CNDFPKJG_00513;dRep_bin144_NPHACCKF_01674;dRep_bin215_ABBFGCAF_00891;dRep_bin024_OLHDGABE_01486;dRep_bin207_OHNPDPFI_01006;dRep_bin109_MJABCPAK_00005;dRep_bin121_BHOOLFKN_00138;dRep_bin144_NPHACCKF_01593;dRep_bin236_BNONDECB_00589;dRep_bin166_DFIAJFEC_00113;dRep_bin352_KFNHGNFC_00788;dRep_bin187_CLPDGDBG_00447;dRep_bin192_GCMBELNN_00637;dRep_bin206_OIIBOIAK_00839;dRep_bin173_BEBNCADL_00299;dRep_bin080_CBEBHNNK_00392;dRep_bin237_KJDLIPND_00675	dRep_bin143_PFLDJMPF_01162;dRep_bin074_EHAOMODJ_00197;dRep_bin152_LJMCIADF_00840;dRep_bin079_GAOGCKND_00311;dRep_bin068_ENOLAELK_00990;dRep_bin124_HIHDFGCL_00318;dRep_bin272_LGBDGEIM_00728;dRep_bin337_FHKPNFDB_00324;dRep_bin056_EMNHHOJA_01446;dRep_bin054_NNOKONMC_00657;dRep_bin102_ICFDHPGB_00342;dRep_bin259_IFIOODLK_00485;dRep_bin086_HHEJBMCP_01132;dRep_bin054_NNOKONMC_00873;dRep_bin161_JMKPMHCO_00072;dRep_bin044_IPFKHAEF_00005;dRep_bin085_MBHLGCDB_01101	>dRep_bin143_PFLDJMPF_01162 DNA-directed RNA polymerase subunit beta;>dRep_bin074_EHAOMODJ_00197 DNA-directed RNA polymerase subunit beta;>dRep_bin152_LJMCIADF_00840 DNA-directed RNA polymerase subunit beta;>dRep_bin079_GAOGCKND_00311 DNA-directed RNA p	dRep_bin313_CJFGINPI_00865	CDS	rpoC	2.7.7.6	DNA-directed RNA polymerase subunit beta'
CJFGINPI_00866			23.64229	23.74684				24.48296				18	3	3,8972E-149	dRep_bin220_PILICLLL_02028;dRep_bin278_BFCONKOE_00441;dRep_bin081_JDPCKDNP_00377;dRep_bin322_OJELOJOF_00804;dRep_bin248_CCDFPECI_00079;dRep_bin106_BKDHGPBE_00283;dRep_bin144_NPHACCKF_01724;dRep_bin122_JHMJFODI_00608;dRep_bin141_GMCOOECB_01066;dRep_bin213_HHHELMFN_00712;dRep_bin109_MJABCPAK_00085;dRep_bin085_MBHLGCDB_01100;dRep_bin024_OLHDGABE_00645;dRep_bin127_FIPNHBCH_00373;dRep_bin318_IEDEJOFJ_00277;dRep_bin155_CLHNKEHA_00696;dRep_bin218_ACMPALGF_01353;dRep_bin119_AKFBCGDO_01001;dRep_bin146_LCCIBLJG_00301;dRep_bin354_MMOALAFN_01658;dRep_bin347_EKGCMFPD_01037;dRep_bin227_IJODGBOI_00749;dRep_bin132_FAPBDCMG_00320;dRep_bin313_CJFGINPI_00866;dRep_bin156_GFIMJAAC_00888;dRep_bin342_BMMENEMP_00958;dRep_bin280_IMCGLKKG_00439;dRep_bin197_NHLBHFEI_00889;dRep_bin281_OGHLKMAI_00400;dRep_bin276_EHNFLEBP_02113;dRep_bin104_EGLEJOLM_01406;dRep_bin207_OHNPDPFI_01068;dRep_bin121_BHOOLFKN_00245;dRep_bin008_MNDMJLEI_00892;dRep_bin054_NNOKONMC_00872;dRep_bin011_KOGMKLNO_00879;dRep_bin142_NDNPJBEM_01584;dRep_bin333_EFOKIBLA_00720;dRep_bin223_PIMCDKJI_01633;dRep_bin120_EKLBOPNC_00731;dRep_bin177_HLHGKLFL_00449;dRep_bin140_ACFAKGIL_00447;dRep_bin304_JDNJGFKH_00598;dRep_bin245_MBCFLKOF_00047;dRep_bin208_DHPGEIBC_00902;dRep_bin010_MFFFGEGD_00183;dRep_bin083_OCBADPJJ_01145;dRep_bin222_GGCAJABB_00479;dRep_bin205_LKIOOBKC_01169;dRep_bin320_LDBKCCKL_00573;dRep_bin162_JBGCCDIN_01242;dRep_bin159_ADJJGPBG_01729;dRep_bin033_DLABHNFE_00633;dRep_bin012_KEBBILMO_00315;dRep_bin350_EKOOEEGH_01215;dRep_bin121_BHOOLFKN_01088;dRep_bin212_IEMJENOD_00205;dRep_bin161_JMKPMHCO_00073;dRep_bin353_PPDHLNJB_01811;dRep_bin195_DDMDFNOK_01689;dRep_bin327_EPEGNBAG_00663;dRep_bin241_LMMMGDNI_01611;dRep_bin334_NAPFFNLD_00132	dRep_bin220_PILICLLL_02028	>dRep_bin220_PILICLLL_02028 DNA-directed RNA polymerase subunit beta	dRep_bin313_CJFGINPI_00866	CDS	rpoB	2.7.7.6	DNA-directed RNA polymerase subunit beta
CJFGINPI_00883	24.109810000000003											2	1	3,8571E-06	dRep_bin258_DAMEHFEK_00815;dRep_bin326_CEEAIPKF_00335;dRep_bin313_CJFGINPI_00883;dRep_bin311_NPLECLAD_00442;dRep_bin227_IJODGBOI_00863;dRep_bin171_FIDMCACI_00443;dRep_bin155_CLHNKEHA_00398;dRep_bin122_JHMJFODI_00580;dRep_bin009_KMMEHEKA_00227;dRep_bin180_JMFOHHIL_00465;dRep_bin156_GFIMJAAC_00069;dRep_bin015_OGEFIJFH_00072;dRep_bin213_HHHELMFN_00630	dRep_bin258_DAMEHFEK_00815;dRep_bin326_CEEAIPKF_00335;dRep_bin313_CJFGINPI_00883;dRep_bin311_NPLECLAD_00442;dRep_bin227_IJODGBOI_00863;dRep_bin171_FIDMCACI_00443;dRep_bin155_CLHNKEHA_00398;dRep_bin122_JHMJFODI_00580;dRep_bin009_KMMEHEKA_00227;dRep_bin180_JMFOHHIL_00465;dRep_bin156_GFIMJAAC_00069;dRep_bin015_OGEFIJFH_00072;dRep_bin213_HHHELMFN_00630	>dRep_bin258_DAMEHFEK_00815 Putative septation protein SpoVG;>dRep_bin326_CEEAIPKF_00335 Putative septation protein SpoVG;>dRep_bin313_CJFGINPI_00883 Putative septation protein SpoVG;>dRep_bin311_NPLECLAD_00442 Putative septation protein SpoVG;>dRep_bin227	dRep_bin313_CJFGINPI_00883	CDS	spoVG		Putative septation protein SpoVG
CJFGINPI_00886							24.625719999999998					1	1	3,3317E-07	dRep_bin313_CJFGINPI_00886	dRep_bin313_CJFGINPI_00886	>dRep_bin313_CJFGINPI_00886 Caudovirus prohead serine protease	dRep_bin313_CJFGINPI_00886	CDS			Caudovirus prohead serine protease
CJFGINPI_00978							24.966009999999997					2	2	0,00070246	dRep_bin313_CJFGINPI_00978	dRep_bin313_CJFGINPI_00978	>dRep_bin313_CJFGINPI_00978 hypothetical protein	dRep_bin313_CJFGINPI_00978	CDS			hypothetical protein
CJFGINPI_01144	28.576539999999998	29.49291	28.85638	29.498539999999995	28.86912	26.89678	27.58082	26.923199999999998				29	5	0	dRep_bin016_JLGAHGOJ_00672;dRep_bin313_CJFGINPI_01144	dRep_bin016_JLGAHGOJ_00672	>dRep_bin016_JLGAHGOJ_00672 Pyruvate, phosphate dikinase	dRep_bin313_CJFGINPI_01144	CDS	ppdK	2.7.9.1	Pyruvate, phosphate dikinase
CJFGINPI_01229					30.55472	29.694050000000004	28.751050000000003	30.063429999999997				8	7	3,8769E-152	dRep_bin048_PABMBHAL_00777;dRep_bin313_CJFGINPI_01229;dRep_bin103_IGJBLKMC_00944	dRep_bin048_PABMBHAL_00777	>dRep_bin048_PABMBHAL_00777 Rubrerythrin	dRep_bin313_CJFGINPI_01229	CDS	rbr1	1.11.1.1	Rubrerythrin-1
CJFGINPI_01381						25.37859						4	2	2,2689E-13	dRep_bin157_JPNIKEKI_00942;dRep_bin065_DFABHCBI_01945;dRep_bin282_PKAAPBFP_01707;dRep_bin075_EPEMMOCL_01191;dRep_bin089_PAJFOJBN_02054;dRep_bin269_PNILGKPH_01091;dRep_bin039_IJNOFOJK_01301;dRep_bin023_HGFJFKAI_00483;dRep_bin167_BLMEBMNN_01800;dRep_bin074_EHAOMODJ_01079;dRep_bin005_CNDFPKJG_00576;dRep_bin277_MIPNGEJE_00824;dRep_bin143_PFLDJMPF_00484;dRep_bin091_MAFACGAD_00708;dRep_bin335_JIOGNAPG_01712;dRep_bin308_JBPDGLPP_01394;dRep_bin306_FGHMKMMP_00157;dRep_bin200_JJGKEOHI_00644;dRep_bin160_EFKMPBOM_01770;dRep_bin154_JGOKHKLI_01254;dRep_bin088_DNGPPFDK_00607;dRep_bin081_JDPCKDNP_00472;dRep_bin234_ECABPBME_00056;dRep_bin101_BNDDLDCL_01417;dRep_bin250_NMCAMJIO_00706;dRep_bin041_OPKGAAAG_01876;dRep_bin240_LDBBGJKG_00488;dRep_bin001_GHHJMDAL_00373;dRep_bin315_AGEMOMDG_00838;dRep_bin239_JIMDAIOF_00250;dRep_bin313_CJFGINPI_01381;dRep_bin163_EBDOGNGI_00300;dRep_bin280_IMCGLKKG_00217;dRep_bin012_KEBBILMO_00361;dRep_bin347_EKGCMFPD_00218;dRep_bin102_ICFDHPGB_00448;dRep_bin178_FLGBGGJB_00789;dRep_bin156_GFIMJAAC_00472	dRep_bin157_JPNIKEKI_00942;dRep_bin065_DFABHCBI_01945;dRep_bin282_PKAAPBFP_01707;dRep_bin075_EPEMMOCL_01191;dRep_bin089_PAJFOJBN_02054;dRep_bin269_PNILGKPH_01091;dRep_bin039_IJNOFOJK_01301;dRep_bin023_HGFJFKAI_00483;dRep_bin167_BLMEBMNN_01800;dRep_bin074_EHAOMODJ_01079;dRep_bin005_CNDFPKJG_00576;dRep_bin277_MIPNGEJE_00824;dRep_bin143_PFLDJMPF_00484;dRep_bin091_MAFACGAD_00708;dRep_bin335_JIOGNAPG_01712;dRep_bin308_JBPDGLPP_01394;dRep_bin306_FGHMKMMP_00157;dRep_bin200_JJGKEOHI_00644;dRep_bin160_EFKMPBOM_01770;dRep_bin154_JGOKHKLI_01254;dRep_bin088_DNGPPFDK_00607;dRep_bin081_JDPCKDNP_00472;dRep_bin234_ECABPBME_00056;dRep_bin101_BNDDLDCL_01417;dRep_bin250_NMCAMJIO_00706	>dRep_bin157_JPNIKEKI_00942 Aspartate--tRNA ligase;>dRep_bin065_DFABHCBI_01945 Aspartate--tRNA ligase;>dRep_bin282_PKAAPBFP_01707 Aspartate--tRNA ligase;>dRep_bin075_EPEMMOCL_01191 Aspartate--tRNA ligase;>dRep_bin089_PAJFOJBN_02054 Aspartate--tRNA ligase;>	dRep_bin313_CJFGINPI_01381	CDS	aspS	6.1.1.12	Aspartate--tRNA ligase
