GBprotID	LFQ intensity CtrPig1	LFQ intensity CtrPig2	LFQ intensity CtrPig3	LFQ intensity CtrPig4	LFQ intensity MannanPig1	LFQ intensity MannanPig2	LFQ intensity MannanPig3	LFQ intensity MannanPig4	Only identified by site	Reverse	Contaminant	Peptides	Unique peptides	PEP	Protein IDs	Majority protein IDs	Fasta headers	IDcomb	ftype	gene	EC_number	product
IEDEJOFJ_00236		23.544629999999998										3	0	1,405E-09	dRep_bin325_EIIGOGHN_01312;dRep_bin089_PAJFOJBN_01562;dRep_bin242_LKAIBGGJ_00546;dRep_bin318_IEDEJOFJ_00236;dRep_bin145_KMJJJOEJ_00672;dRep_bin074_EHAOMODJ_00924;dRep_bin065_DFABHCBI_00561;dRep_bin240_LDBBGJKG_01805;dRep_bin167_BLMEBMNN_01354;dRep_bin069_EGGEOGDC_00103;dRep_bin017_FGFLFOPJ_00650;dRep_bin234_ECABPBME_00540;dRep_bin186_HJAAFFNP_01803;dRep_bin088_DNGPPFDK_01244	dRep_bin325_EIIGOGHN_01312;dRep_bin089_PAJFOJBN_01562	>dRep_bin325_EIIGOGHN_01312 putative peptidyl-prolyl cis-trans isomerase;>dRep_bin089_PAJFOJBN_01562 Putative bifunctional phosphatase/peptidyl-prolyl cis-trans isomerase	dRep_bin318_IEDEJOFJ_00236	CDS	ppiA_1	5.2.1.8	Peptidyl-prolyl cis-trans isomerase A
IEDEJOFJ_00277			23.64229	23.74684				24.48296				18	3	3,8972E-149	dRep_bin220_PILICLLL_02028;dRep_bin278_BFCONKOE_00441;dRep_bin081_JDPCKDNP_00377;dRep_bin322_OJELOJOF_00804;dRep_bin248_CCDFPECI_00079;dRep_bin106_BKDHGPBE_00283;dRep_bin144_NPHACCKF_01724;dRep_bin122_JHMJFODI_00608;dRep_bin141_GMCOOECB_01066;dRep_bin213_HHHELMFN_00712;dRep_bin109_MJABCPAK_00085;dRep_bin085_MBHLGCDB_01100;dRep_bin024_OLHDGABE_00645;dRep_bin127_FIPNHBCH_00373;dRep_bin318_IEDEJOFJ_00277;dRep_bin155_CLHNKEHA_00696;dRep_bin218_ACMPALGF_01353;dRep_bin119_AKFBCGDO_01001;dRep_bin146_LCCIBLJG_00301;dRep_bin354_MMOALAFN_01658;dRep_bin347_EKGCMFPD_01037;dRep_bin227_IJODGBOI_00749;dRep_bin132_FAPBDCMG_00320;dRep_bin313_CJFGINPI_00866;dRep_bin156_GFIMJAAC_00888;dRep_bin342_BMMENEMP_00958;dRep_bin280_IMCGLKKG_00439;dRep_bin197_NHLBHFEI_00889;dRep_bin281_OGHLKMAI_00400;dRep_bin276_EHNFLEBP_02113;dRep_bin104_EGLEJOLM_01406;dRep_bin207_OHNPDPFI_01068;dRep_bin121_BHOOLFKN_00245;dRep_bin008_MNDMJLEI_00892;dRep_bin054_NNOKONMC_00872;dRep_bin011_KOGMKLNO_00879;dRep_bin142_NDNPJBEM_01584;dRep_bin333_EFOKIBLA_00720;dRep_bin223_PIMCDKJI_01633;dRep_bin120_EKLBOPNC_00731;dRep_bin177_HLHGKLFL_00449;dRep_bin140_ACFAKGIL_00447;dRep_bin304_JDNJGFKH_00598;dRep_bin245_MBCFLKOF_00047;dRep_bin208_DHPGEIBC_00902;dRep_bin010_MFFFGEGD_00183;dRep_bin083_OCBADPJJ_01145;dRep_bin222_GGCAJABB_00479;dRep_bin205_LKIOOBKC_01169;dRep_bin320_LDBKCCKL_00573;dRep_bin162_JBGCCDIN_01242;dRep_bin159_ADJJGPBG_01729;dRep_bin033_DLABHNFE_00633;dRep_bin012_KEBBILMO_00315;dRep_bin350_EKOOEEGH_01215;dRep_bin121_BHOOLFKN_01088;dRep_bin212_IEMJENOD_00205;dRep_bin161_JMKPMHCO_00073;dRep_bin353_PPDHLNJB_01811;dRep_bin195_DDMDFNOK_01689;dRep_bin327_EPEGNBAG_00663;dRep_bin241_LMMMGDNI_01611;dRep_bin334_NAPFFNLD_00132	dRep_bin220_PILICLLL_02028	>dRep_bin220_PILICLLL_02028 DNA-directed RNA polymerase subunit beta	dRep_bin318_IEDEJOFJ_00277	CDS	rpoB	2.7.7.6	DNA-directed RNA polymerase subunit beta
IEDEJOFJ_00279					25.72759	26.4529	29.243429999999996	25.486189999999997				2	2	0,0039285	dRep_bin082_HBEFABJN_00347;dRep_bin046_GKEJLOEK_00074;dRep_bin318_IEDEJOFJ_00279;dRep_bin144_NPHACCKF_00978;dRep_bin094_LBLICAAO_01795	dRep_bin082_HBEFABJN_00347;dRep_bin046_GKEJLOEK_00074;dRep_bin318_IEDEJOFJ_00279;dRep_bin144_NPHACCKF_00978;dRep_bin094_LBLICAAO_01795	>dRep_bin082_HBEFABJN_00347 50S ribosomal protein L7/L12;>dRep_bin046_GKEJLOEK_00074 50S ribosomal protein L7/L12;>dRep_bin318_IEDEJOFJ_00279 50S ribosomal protein L7/L12;>dRep_bin144_NPHACCKF_00978 50S ribosomal protein L7/L12;>dRep_bin094_LBLICAAO_01795	dRep_bin318_IEDEJOFJ_00279	CDS	rplL		50S ribosomal protein L7/L12
IEDEJOFJ_00360	28.615830000000003	28.18546	29.82558	29.92139	30.37161	30.505309999999998	29.835990000000002	30.137000000000004				19	11	0	dRep_bin191_NGFJMLOL_01017;dRep_bin307_AOCKHIKF_00836;dRep_bin232_JGAEDAFA_01923;dRep_bin098_DDEBHDKK_00570;dRep_bin073_AKBCEHHO_00429;dRep_bin329_GDOHKPBL_00208;dRep_bin289_KALDCNNP_00441;dRep_bin219_HGPEELLF_00854;dRep_bin047_IFFANOMN_01143;dRep_bin354_MMOALAFN_00793;dRep_bin093_PGADNPMG_00569;dRep_bin327_EPEGNBAG_00694;dRep_bin123_PJKBFKBB_01119;dRep_bin325_EIIGOGHN_01520;dRep_bin335_JIOGNAPG_00036;dRep_bin082_HBEFABJN_00133;dRep_bin204_INMOGLDN_01573;dRep_bin174_LJJOKEME_01467;dRep_bin050_FBECOHCI_00562;dRep_bin264_DNFFGNEG_01376;dRep_bin252_NDAKLAGD_00172;dRep_bin246_MMFBABHK_01476;dRep_bin202_HEPPALPH_01125;dRep_bin004_OCHNPJPO_00139;dRep_bin318_IEDEJOFJ_00360;dRep_bin244_LBFMHLBI_01421;dRep_bin223_PIMCDKJI_00814;dRep_bin186_HJAAFFNP_00783;dRep_bin133_NOBPDBPA_02278;dRep_bin105_AAEIHAFF_01501;dRep_bin005_CNDFPKJG_01278;dRep_bin317_ABPHNCOD_01283;dRep_bin007_LNLEAAAN_00664;dRep_bin312_MJFEFHMP_01049;dRep_bin129_GADIAMAA_00560;dRep_bin065_DFABHCBI_00478;dRep_bin287_DONBGKDH_00800;dRep_bin238_OLNFACLE_00723;dRep_bin179_HFEIPPPA_01221;dRep_bin167_BLMEBMNN_00475;dRep_bin125_FADLGGII_00749;dRep_bin103_IGJBLKMC_00712;dRep_bin088_DNGPPFDK_00743;dRep_bin048_PABMBHAL_01780;dRep_bin348_LCLFDNEE_00919;dRep_bin278_BFCONKOE_00886;dRep_bin097_CBBLIPAN_00374;dRep_bin081_JDPCKDNP_01011;dRep_bin032_PPNIGLME_00057;dRep_bin272_LGBDGEIM_01074;dRep_bin049_MNFBDPNO_01322;dRep_bin013_IODPEDPB_01734;dRep_bin299_AKNBKJGM_01764;dRep_bin266_JFOCEDAE_00776;dRep_bin216_JNJMCPHB_01258;dRep_bin021_AJDDCGJC_00529;dRep_bin316_FNLHDNEO_00493;dRep_bin314_KCHFPLIP_01715;dRep_bin296_FDMPKPOH_01763;dRep_bin275_NIDIBBDA_00322;dRep_bin118_FGIOKLBC_00279;dRep_bin037_GEAOEKHA_00835;dRep_bin028_GKEJLBAM_01763;dRep_bin331_HPKAPHAF_00024;dRep_bin301_NJFJIJGA_01995;dRep_bin149_GABCHCDI_01177;dRep_bin057_BNCFHBBO_00918;dRep_bin040_EIFLLDOA_01272;dRep_bin265_LFKFBJPC_01505;dRep_bin022_BOEAFNDE_00753;dRep_bin210_AGEDAEIA_00448	dRep_bin191_NGFJMLOL_01017	>dRep_bin191_NGFJMLOL_01017 Aspartate aminotransferase	dRep_bin318_IEDEJOFJ_00360	CDS	patA	2.6.1.-	Putative N-acetyl-LL-diaminopimelate aminotransferase
IEDEJOFJ_00395	28.738789999999998	28.75124	29.01084	29.3506	29.64461	30.02168	29.81859	30.104370000000003				12	4	1,026E-72	dRep_bin191_NGFJMLOL_01578;dRep_bin070_EMBHKIOF_00129;dRep_bin154_JGOKHKLI_00366;dRep_bin055_IBMMJAEE_00161;dRep_bin328_GIGKNKPJ_00645;dRep_bin047_IFFANOMN_00612;dRep_bin027_OFJCHLJJ_00977;dRep_bin005_CNDFPKJG_01432;dRep_bin278_BFCONKOE_00469;dRep_bin282_PKAAPBFP_00320;dRep_bin284_DEHKNOBF_00421;dRep_bin303_DDDNDJCF_00133;dRep_bin287_DONBGKDH_00272;dRep_bin220_PILICLLL_00145;dRep_bin107_EFNBPDOP_01320;dRep_bin158_OGFICEAP_01424;dRep_bin323_FBBLPLCG_01090;dRep_bin318_IEDEJOFJ_00395;dRep_bin308_JBPDGLPP_01660;dRep_bin306_FGHMKMMP_01032;dRep_bin261_FJICAFFM_00034;dRep_bin240_LDBBGJKG_01385;dRep_bin234_ECABPBME_00209;dRep_bin181_MKGPMPIA_00707;dRep_bin077_DNNBMPMC_00629;dRep_bin066_AJACLPEE_00619;dRep_bin065_DFABHCBI_01813;dRep_bin023_HGFJFKAI_00570;dRep_bin235_EGJBMLPF_00465;dRep_bin186_HJAAFFNP_00454;dRep_bin145_KMJJJOEJ_01616;dRep_bin095_HOBNOEEF_00383	dRep_bin191_NGFJMLOL_01578;dRep_bin070_EMBHKIOF_00129	>dRep_bin191_NGFJMLOL_01578 hypothetical protein;>dRep_bin070_EMBHKIOF_00129 hypothetical protein	dRep_bin318_IEDEJOFJ_00395	CDS			hypothetical protein
IEDEJOFJ_00398					30.421319999999998	30.866950000000003	29.337220000000002	29.7128				5	5	1,2183E-27	dRep_bin048_PABMBHAL_00175;dRep_bin318_IEDEJOFJ_00398	dRep_bin048_PABMBHAL_00175	>dRep_bin048_PABMBHAL_00175 PTS system cellobiose-specific EIIB component	dRep_bin318_IEDEJOFJ_00398	CDS	celA_1	2.7.1.205	PTS system cellobiose-specific EIIB component
IEDEJOFJ_00455					27.68866	28.85067	26.93146	27.22683				5	1	2,0271E-61	dRep_bin071_JHMCIJPE_00774;dRep_bin271_NGFBCHKH_00710;dRep_bin063_PJANDMAH_00185;dRep_bin034_MEBMFDLL_00247;dRep_bin084_CGBIKHBH_01287;dRep_bin307_AOCKHIKF_01139;dRep_bin098_DDEBHDKK_01407;dRep_bin290_OIOJKBNK_01581;dRep_bin165_HMDFFMMM_00576;dRep_bin351_CKFFBPHM_00569;dRep_bin229_FFOBPPJI_00495;dRep_bin070_EMBHKIOF_00542;dRep_bin136_NAIECEIF_01032;dRep_bin073_AKBCEHHO_01226;dRep_bin014_CHIHIMAN_00024;dRep_bin289_KALDCNNP_00248;dRep_bin199_JBCGANNF_00237;dRep_bin244_LBFMHLBI_01073;dRep_bin036_DOKCEIDH_00668;dRep_bin004_OCHNPJPO_00478;dRep_bin329_GDOHKPBL_00723;dRep_bin316_FNLHDNEO_01012;dRep_bin256_KEMNAOBC_01521;dRep_bin198_GMLJKALI_00058;dRep_bin092_OOJCPDEA_01022;dRep_bin318_IEDEJOFJ_00455;dRep_bin301_NJFJIJGA_00149;dRep_bin183_FPGIOKBG_00223;dRep_bin149_GABCHCDI_01562;dRep_bin022_BOEAFNDE_00838;dRep_bin345_GLPJDLOI_00727;dRep_bin275_NIDIBBDA_00580;dRep_bin096_GNHMEKPF_01251;dRep_bin314_KCHFPLIP_01102;dRep_bin272_LGBDGEIM_00187;dRep_bin118_FGIOKLBC_01064;dRep_bin055_IBMMJAEE_00565;dRep_bin331_HPKAPHAF_01667;dRep_bin028_GKEJLBAM_00501;dRep_bin012_KEBBILMO_00805	dRep_bin071_JHMCIJPE_00774	>dRep_bin071_JHMCIJPE_00774 Glucose-1-phosphate thymidylyltransferase 2	dRep_bin318_IEDEJOFJ_00455	CDS	rfbA	2.7.7.24	Glucose-1-phosphate thymidylyltransferase 1
IEDEJOFJ_00655					25.00967							4	0	1,0069E-09	dRep_bin069_EGGEOGDC_00591;dRep_bin318_IEDEJOFJ_00655;dRep_bin090_IPGNHCBJ_00612	dRep_bin069_EGGEOGDC_00591;dRep_bin318_IEDEJOFJ_00655;dRep_bin090_IPGNHCBJ_00612	>dRep_bin069_EGGEOGDC_00591 O-acetylserine sulfhydrylase;>dRep_bin318_IEDEJOFJ_00655 Cysteine synthase;>dRep_bin090_IPGNHCBJ_00612 O-acetylserine sulfhydrylase	dRep_bin318_IEDEJOFJ_00655	CDS	cysK	2.5.1.47	Cysteine synthase
IEDEJOFJ_00698	27.45325		27.60633	27.34875	27.55311	26.292109999999997	27.99129	27.414820000000002				3	3	2,7731E-35	dRep_bin013_IODPEDPB_00129;dRep_bin152_LJMCIADF_00561;dRep_bin026_HNPIIINL_00624;dRep_bin194_MEPDOGGJ_00252;dRep_bin124_HIHDFGCL_00172;dRep_bin038_EIGFILKG_00845;dRep_bin025_CBEJJMLE_00504;dRep_bin353_PPDHLNJB_01721;dRep_bin079_GAOGCKND_01237;dRep_bin068_ENOLAELK_00465;dRep_bin006_HPJGJCAG_01285;dRep_bin175_HANCENAK_01299;dRep_bin337_FHKPNFDB_01083;dRep_bin318_IEDEJOFJ_00698;dRep_bin225_FLBKEJIP_00557;dRep_bin140_ACFAKGIL_00191	dRep_bin013_IODPEDPB_00129	>dRep_bin013_IODPEDPB_00129 Uridylate kinase	dRep_bin318_IEDEJOFJ_00698	CDS	pyrH	2.7.4.22	Uridylate kinase
IEDEJOFJ_00724				21.86884								3	1	1,3797E-13	dRep_bin021_AJDDCGJC_00051;dRep_bin252_NDAKLAGD_00826;dRep_bin317_ABPHNCOD_01131;dRep_bin216_JNJMCPHB_01076;dRep_bin272_LGBDGEIM_00618;dRep_bin097_CBBLIPAN_01579;dRep_bin053_OMGNPOOB_00833;dRep_bin337_FHKPNFDB_00090;dRep_bin052_PGOOKKFH_01594;dRep_bin168_HKDILBFE_01015;dRep_bin322_OJELOJOF_01622;dRep_bin220_PILICLLL_01543;dRep_bin055_IBMMJAEE_00610;dRep_bin061_ONFGDLGO_01234;dRep_bin168_HKDILBFE_00368;dRep_bin055_IBMMJAEE_00168;dRep_bin261_FJICAFFM_00490;dRep_bin017_FGFLFOPJ_00414;dRep_bin115_IFKGOGCL_01280;dRep_bin257_JHFDCHCB_01406;dRep_bin323_FBBLPLCG_01600;dRep_bin007_LNLEAAAN_00766;dRep_bin049_MNFBDPNO_00781;dRep_bin333_EFOKIBLA_01149;dRep_bin279_IAEFEPEN_01471;dRep_bin234_ECABPBME_01515;dRep_bin179_HFEIPPPA_02108;dRep_bin023_HGFJFKAI_01527;dRep_bin335_JIOGNAPG_00787;dRep_bin250_NMCAMJIO_00423;dRep_bin158_OGFICEAP_00549;dRep_bin100_CODMOHGB_01341;dRep_bin089_PAJFOJBN_02515;dRep_bin088_DNGPPFDK_01371;dRep_bin081_JDPCKDNP_00684;dRep_bin324_IPNHOHFK_01454;dRep_bin300_MJPPENNL_01260;dRep_bin292_JIBLDOOH_01593;dRep_bin284_DEHKNOBF_00281;dRep_bin282_PKAAPBFP_00934;dRep_bin279_IAEFEPEN_01275;dRep_bin269_PNILGKPH_00152;dRep_bin240_LDBBGJKG_01257;dRep_bin226_NLNLHLLD_00367;dRep_bin209_NKIHFCEN_01541;dRep_bin203_CLFNNOCF_01928;dRep_bin179_HFEIPPPA_00359;dRep_bin167_BLMEBMNN_00233;dRep_bin160_EFKMPBOM_02132;dRep_bin154_JGOKHKLI_02775;dRep_bin133_NOBPDBPA_00727;dRep_bin114_FJHJKHGL_00838;dRep_bin095_HOBNOEEF_00822;dRep_bin075_EPEMMOCL_00939;dRep_bin074_EHAOMODJ_00291;dRep_bin065_DFABHCBI_01203;dRep_bin347_EKGCMFPD_00625;dRep_bin325_EIIGOGHN_00612;dRep_bin310_IMBAFDIF_01359;dRep_bin308_JBPDGLPP_00545;dRep_bin306_FGHMKMMP_01018;dRep_bin297_EDHEEICA_01903;dRep_bin201_OLKDIBOK_00335;dRep_bin186_HJAAFFNP_00409;dRep_bin173_BEBNCADL_00242;dRep_bin169_PNICKJKO_00103;dRep_bin145_KMJJJOEJ_01348;dRep_bin135_HHKACLPM_00566;dRep_bin101_BNDDLDCL_00036;dRep_bin069_EGGEOGDC_01480;dRep_bin062_BOFBFLDA_00487;dRep_bin047_IFFANOMN_01271;dRep_bin042_MMFCLHOO_00308;dRep_bin041_OPKGAAAG_00762;dRep_bin024_OLHDGABE_00679;dRep_bin016_JLGAHGOJ_01831;dRep_bin001_GHHJMDAL_00660;dRep_bin349_AMCJEEEG_00131;dRep_bin312_MJFEFHMP_00833;dRep_bin264_DNFFGNEG_00100;dRep_bin246_MMFBABHK_00297;dRep_bin219_HGPEELLF_00003;dRep_bin174_LJJOKEME_01103;dRep_bin129_GADIAMAA_01409;dRep_bin127_FIPNHBCH_00703;dRep_bin077_DNNBMPMC_01278;dRep_bin030_OGPDLGOC_01790;dRep_bin004_OCHNPJPO_01519;dRep_bin218_ACMPALGF_00968;dRep_bin185_OOOLKACK_00657;dRep_bin181_MKGPMPIA_00538;dRep_bin148_NAJFKJMD_01090;dRep_bin058_GJKCICJN_01056;dRep_bin291_EILOACJB_00579;dRep_bin244_LBFMHLBI_01277;dRep_bin223_PIMCDKJI_01006;dRep_bin204_INMOGLDN_01473;dRep_bin184_MBMMJHKO_00222;dRep_bin302_AHDEPDKG_00621;dRep_bin265_LFKFBJPC_00590;dRep_bin233_BAGKKAOB_00885;dRep_bin188_EJILNMPE_01053;dRep_bin081_JDPCKDNP_01324;dRep_bin318_IEDEJOFJ_00724;dRep_bin144_NPHACCKF_00221;dRep_bin096_GNHMEKPF_00086;dRep_bin344_CJJBDGAA_01489;dRep_bin295_EJGKDKNE_00851;dRep_bin048_PABMBHAL_01507;dRep_bin303_DDDNDJCF_00663;dRep_bin283_NLJJFFAC_01754;dRep_bin201_OLKDIBOK_00523;dRep_bin139_KGAJINND_01276;dRep_bin134_HIAPAODO_01158;dRep_bin094_LBLICAAO_00942;dRep_bin062_BOFBFLDA_00417;dRep_bin336_MPGOKPOL_02385;dRep_bin082_HBEFABJN_00650;dRep_bin125_FADLGGII_00540;dRep_bin334_NAPFFNLD_01195;dRep_bin217_MJCEAEPB_00530;dRep_bin195_DDMDFNOK_00971;dRep_bin060_HNFNENOI_00088;dRep_bin328_GIGKNKPJ_00426;dRep_bin281_OGHLKMAI_01076;dRep_bin197_NHLBHFEI_00626;dRep_bin103_IGJBLKMC_00726;dRep_bin116_CLFDBMOF_00455;dRep_bin332_KAOPCDPF_00448;dRep_bin345_GLPJDLOI_00589;dRep_bin314_KCHFPLIP_00788;dRep_bin128_JPBBHEMA_00693;dRep_bin073_AKBCEHHO_01462;dRep_bin045_GJACFFBC_00428;dRep_bin329_GDOHKPBL_01522;dRep_bin316_FNLHDNEO_00349;dRep_bin307_AOCKHIKF_00400;dRep_bin294_EHJINIDK_01408;dRep_bin289_KALDCNNP_01327;dRep_bin183_FPGIOKBG_00622;dRep_bin098_DDEBHDKK_01308;dRep_bin165_HMDFFMMM_01247;dRep_bin037_GEAOEKHA_01212;dRep_bin256_KEMNAOBC_00113;dRep_bin092_OOJCPDEA_01143;dRep_bin126_PPDNCIBN_00264;dRep_bin090_IPGNHCBJ_00911;dRep_bin215_ABBFGCAF_00280;dRep_bin005_CNDFPKJG_00629;dRep_bin270_GEJAHNCN_01426;dRep_bin116_CLFDBMOF_00686;dRep_bin069_EGGEOGDC_00857;dRep_bin007_LNLEAAAN_01604;dRep_bin057_BNCFHBBO_01159;dRep_bin038_EIGFILKG_00229;dRep_bin114_FJHJKHGL_00934;dRep_bin152_LJMCIADF_00045;dRep_bin322_OJELOJOF_00826;dRep_bin266_JFOCEDAE_00030;dRep_bin194_MEPDOGGJ_01235;dRep_bin079_GAOGCKND_01437;dRep_bin068_ENOLAELK_01387;dRep_bin025_CBEJJMLE_00917;dRep_bin240_LDBBGJKG_00802;dRep_bin347_EKGCMFPD_01498;dRep_bin167_BLMEBMNN_00596;dRep_bin160_EFKMPBOM_02114;dRep_bin260_HELEPKJL_02017;dRep_bin091_MAFACGAD_00797;dRep_bin099_DNDAGJEJ_01471;dRep_bin278_BFCONKOE_01179;dRep_bin168_HKDILBFE_00397;dRep_bin284_DEHKNOBF_00737;dRep_bin001_GHHJMDAL_01209;dRep_bin236_BNONDECB_00531;dRep_bin286_OEMIJKMC_01078;dRep_bin231_CFOLMJBA_00464;dRep_bin193_GDMDPNNM_00224;dRep_bin172_ALNHGLMD_01787;dRep_bin182_EMCFODCD_00065;dRep_bin044_IPFKHAEF_00183	dRep_bin021_AJDDCGJC_00051;dRep_bin252_NDAKLAGD_00826;dRep_bin317_ABPHNCOD_01131;dRep_bin216_JNJMCPHB_01076;dRep_bin272_LGBDGEIM_00618;dRep_bin097_CBBLIPAN_01579;dRep_bin053_OMGNPOOB_00833;dRep_bin337_FHKPNFDB_00090;dRep_bin052_PGOOKKFH_01594	>dRep_bin021_AJDDCGJC_00051 ATP synthase subunit alpha;>dRep_bin252_NDAKLAGD_00826 ATP synthase subunit alpha;>dRep_bin317_ABPHNCOD_01131 ATP synthase subunit alpha;>dRep_bin216_JNJMCPHB_01076 ATP synthase subunit alpha;>dRep_bin272_LGBDGEIM_00618 ATP synt	dRep_bin318_IEDEJOFJ_00724	CDS	atpA_1	3.6.3.14	ATP synthase subunit alpha
IEDEJOFJ_00726					20.66084	20.19075						6	1	4,1576E-39	dRep_bin346_JKFDGFHC_00049;dRep_bin271_NGFBCHKH_01432;dRep_bin170_LICLFCFF_00076;dRep_bin113_LIFKCGBF_00665;dRep_bin036_DOKCEIDH_00273;dRep_bin034_MEBMFDLL_01305;dRep_bin285_IPHKFJAN_00808;dRep_bin298_EIPJCOMF_01620;dRep_bin289_KALDCNNP_01320;dRep_bin196_BIELHBNH_01057;dRep_bin138_EJGHNBMI_00590;dRep_bin064_CMDDCDKG_01375;dRep_bin183_FPGIOKBG_00615;dRep_bin073_AKBCEHHO_01469;dRep_bin323_FBBLPLCG_01598;dRep_bin101_BNDDLDCL_00033;dRep_bin049_MNFBDPNO_00783;dRep_bin087_FCLGAPPI_00381;dRep_bin281_OGHLKMAI_01074;dRep_bin210_AGEDAEIA_01693;dRep_bin118_FGIOKLBC_01781;dRep_bin022_BOEAFNDE_01420;dRep_bin131_HLFNHDGI_01253;dRep_bin002_CFBNDKDN_00034;dRep_bin014_CHIHIMAN_01271;dRep_bin329_GDOHKPBL_01515;dRep_bin314_KCHFPLIP_00795;dRep_bin307_AOCKHIKF_00407;dRep_bin098_DDEBHDKK_01315;dRep_bin306_FGHMKMMP_00477;dRep_bin153_JGABJFBF_01420;dRep_bin172_ALNHGLMD_01785;dRep_bin286_OEMIJKMC_01076;dRep_bin182_EMCFODCD_00063;dRep_bin126_PPDNCIBN_00262;dRep_bin044_IPFKHAEF_00185;dRep_bin283_NLJJFFAC_01756;dRep_bin203_CLFNNOCF_01930;dRep_bin179_HFEIPPPA_00361;dRep_bin218_ACMPALGF_01344;dRep_bin144_NPHACCKF_00223;dRep_bin094_LBLICAAO_00940;dRep_bin032_PPNIGLME_01008;dRep_bin027_OFJCHLJJ_00625;dRep_bin096_GNHMEKPF_00088;dRep_bin257_JHFDCHCB_01408;dRep_bin190_MOGDLGIN_00302;dRep_bin114_FJHJKHGL_00840;dRep_bin055_IBMMJAEE_00170;dRep_bin048_PABMBHAL_01509;dRep_bin318_IEDEJOFJ_00726;dRep_bin264_DNFFGNEG_00422;dRep_bin244_LBFMHLBI_01058;dRep_bin223_PIMCDKJI_01107;dRep_bin202_HEPPALPH_00196;dRep_bin242_LKAIBGGJ_00303;dRep_bin204_INMOGLDN_01542;dRep_bin174_LJJOKEME_00810;dRep_bin080_CBEBHNNK_00066;dRep_bin312_MJFEFHMP_00588;dRep_bin246_MMFBABHK_00194;dRep_bin116_CLFDBMOF_00457;dRep_bin061_ONFGDLGO_01437;dRep_bin030_OGPDLGOC_00261;dRep_bin004_OCHNPJPO_01274;dRep_bin251_FGNGCJDD_00242;dRep_bin219_HGPEELLF_01206;dRep_bin129_GADIAMAA_00806;dRep_bin076_GLAOFBEC_00429;dRep_bin188_EJILNMPE_01055;dRep_bin252_NDAKLAGD_01289;dRep_bin352_KFNHGNFC_00642;dRep_bin206_OIIBOIAK_00292;dRep_bin078_GKFCBAEI_00119;dRep_bin301_NJFJIJGA_00585;dRep_bin275_NIDIBBDA_00034;dRep_bin040_EIFLLDOA_01203;dRep_bin028_GKEJLBAM_00163;dRep_bin149_GABCHCDI_00012;dRep_bin093_PGADNPMG_00427;dRep_bin345_GLPJDLOI_00001;dRep_bin296_FDMPKPOH_01296;dRep_bin316_FNLHDNEO_00355;dRep_bin256_KEMNAOBC_01607;dRep_bin071_JHMCIJPE_01347;dRep_bin128_JPBBHEMA_00687;dRep_bin165_HMDFFMMM_01254;dRep_bin351_CKFFBPHM_01191;dRep_bin092_OOJCPDEA_01149	dRep_bin346_JKFDGFHC_00049;dRep_bin271_NGFBCHKH_01432;dRep_bin170_LICLFCFF_00076;dRep_bin113_LIFKCGBF_00665;dRep_bin036_DOKCEIDH_00273;dRep_bin034_MEBMFDLL_01305;dRep_bin285_IPHKFJAN_00808;dRep_bin298_EIPJCOMF_01620;dRep_bin289_KALDCNNP_01320;dRep_bin196_BIELHBNH_01057;dRep_bin138_EJGHNBMI_00590;dRep_bin064_CMDDCDKG_01375;dRep_bin183_FPGIOKBG_00615;dRep_bin073_AKBCEHHO_01469	>dRep_bin346_JKFDGFHC_00049 ATP synthase subunit beta, sodium ion specific;>dRep_bin271_NGFBCHKH_01432 ATP synthase subunit beta;>dRep_bin170_LICLFCFF_00076 ATP synthase subunit beta, sodium ion specific;>dRep_bin113_LIFKCGBF_00665 ATP synthase subunit bet	dRep_bin318_IEDEJOFJ_00726	CDS	atpD	3.6.3.15	ATP synthase subunit beta, sodium ion specific
IEDEJOFJ_00761				22.466279999999998								2	1	0,0033638	dRep_bin203_CLFNNOCF_01912;dRep_bin179_HFEIPPPA_02087;dRep_bin133_NOBPDBPA_00709;dRep_bin310_IMBAFDIF_00230;dRep_bin318_IEDEJOFJ_00761;dRep_bin135_HHKACLPM_01042;dRep_bin260_HELEPKJL_01477;dRep_bin236_BNONDECB_01000;dRep_bin081_JDPCKDNP_00530;dRep_bin089_PAJFOJBN_01492;dRep_bin088_DNGPPFDK_01355;dRep_bin335_JIOGNAPG_00086;dRep_bin139_KGAJINND_02257;dRep_bin141_GMCOOECB_01295;dRep_bin306_FGHMKMMP_00520	dRep_bin203_CLFNNOCF_01912;dRep_bin179_HFEIPPPA_02087;dRep_bin133_NOBPDBPA_00709;dRep_bin310_IMBAFDIF_00230;dRep_bin318_IEDEJOFJ_00761;dRep_bin135_HHKACLPM_01042;dRep_bin260_HELEPKJL_01477;dRep_bin236_BNONDECB_01000;dRep_bin081_JDPCKDNP_00530;dRep_bin089_PAJFOJBN_01492;dRep_bin088_DNGPPFDK_01355;dRep_bin335_JIOGNAPG_00086;dRep_bin139_KGAJINND_02257;dRep_bin141_GMCOOECB_01295;dRep_bin306_FGHMKMMP_00520	>dRep_bin203_CLFNNOCF_01912 Modulator of FtsH protease HflK;>dRep_bin179_HFEIPPPA_02087 Modulator of FtsH protease HflK;>dRep_bin133_NOBPDBPA_00709 Modulator of FtsH protease HflC;>dRep_bin310_IMBAFDIF_00230 SPFH domain / Band 7 family protein;>dRep_bin318	dRep_bin318_IEDEJOFJ_00761	CDS	hflK		Modulator of FtsH protease HflK
IEDEJOFJ_00789						22.585379999999997						2	1	7,3871E-06	dRep_bin150_HCDEOBMH_00593;dRep_bin265_LFKFBJPC_00857;dRep_bin216_JNJMCPHB_00025;dRep_bin161_JMKPMHCO_00408;dRep_bin212_IEMJENOD_00035;dRep_bin171_FIDMCACI_00308;dRep_bin012_KEBBILMO_00565;dRep_bin318_IEDEJOFJ_00789;dRep_bin247_EKGBJCBM_00031;dRep_bin218_ACMPALGF_00067;dRep_bin200_JJGKEOHI_00813;dRep_bin177_HLHGKLFL_00458;dRep_bin078_GKFCBAEI_00304;dRep_bin236_BNONDECB_00449	dRep_bin150_HCDEOBMH_00593;dRep_bin265_LFKFBJPC_00857;dRep_bin216_JNJMCPHB_00025;dRep_bin161_JMKPMHCO_00408;dRep_bin212_IEMJENOD_00035;dRep_bin171_FIDMCACI_00308;dRep_bin012_KEBBILMO_00565;dRep_bin318_IEDEJOFJ_00789;dRep_bin247_EKGBJCBM_00031;dRep_bin218_ACMPALGF_00067;dRep_bin200_JJGKEOHI_00813;dRep_bin177_HLHGKLFL_00458;dRep_bin078_GKFCBAEI_00304;dRep_bin236_BNONDECB_00449	>dRep_bin150_HCDEOBMH_00593 50S ribosomal protein L2;>dRep_bin265_LFKFBJPC_00857 50S ribosomal protein L2;>dRep_bin216_JNJMCPHB_00025 50S ribosomal protein L2;>dRep_bin161_JMKPMHCO_00408 50S ribosomal protein L2;>dRep_bin212_IEMJENOD_00035 50S ribosomal pr	dRep_bin318_IEDEJOFJ_00789	CDS	rplB		50S ribosomal protein L2
IEDEJOFJ_00796	25.08416	24.93656	26.538800000000002	26.86915	25.985119999999995	24.62037	24.93517	24.65649				3	0	2,2235E-28	dRep_bin282_PKAAPBFP_00481;dRep_bin160_EFKMPBOM_01980;dRep_bin154_JGOKHKLI_00793;dRep_bin139_KGAJINND_01524;dRep_bin127_FIPNHBCH_00036;dRep_bin089_PAJFOJBN_02082;dRep_bin047_IFFANOMN_01724;dRep_bin347_EKGCMFPD_01107;dRep_bin308_JBPDGLPP_01114;dRep_bin266_JFOCEDAE_01005;dRep_bin328_GIGKNKPJ_01841;dRep_bin260_HELEPKJL_01354;dRep_bin216_JNJMCPHB_00018;dRep_bin186_HJAAFFNP_00342;dRep_bin167_BLMEBMNN_01083;dRep_bin115_IFKGOGCL_00636;dRep_bin065_DFABHCBI_01269;dRep_bin047_IFFANOMN_00239;dRep_bin290_OIOJKBNK_00632;dRep_bin256_KEMNAOBC_00187;dRep_bin128_JPBBHEMA_00218;dRep_bin110_JGOEJECF_00549;dRep_bin093_PGADNPMG_00791;dRep_bin355_KJEFNADK_00780;dRep_bin350_EKOOEEGH_00173;dRep_bin345_GLPJDLOI_00878;dRep_bin320_LDBKCCKL_00884;dRep_bin318_IEDEJOFJ_00796;dRep_bin315_AGEMOMDG_01119;dRep_bin306_FGHMKMMP_01710;dRep_bin304_JDNJGFKH_00632;dRep_bin283_NLJJFFAC_00211;dRep_bin267_LJCFMAFA_00484;dRep_bin265_LFKFBJPC_00850;dRep_bin258_DAMEHFEK_00123;dRep_bin247_EKGBJCBM_00038;dRep_bin230_NINMBMKB_00063;dRep_bin217_MJCEAEPB_00583;dRep_bin211_LGJEFJIK_01307;dRep_bin205_LKIOOBKC_00363;dRep_bin195_DDMDFNOK_01673;dRep_bin189_AHHEHGDL_00011;dRep_bin162_JBGCCDIN_01258;dRep_bin159_ADJJGPBG_01745;dRep_bin156_GFIMJAAC_00195;dRep_bin150_HCDEOBMH_00586;dRep_bin144_NPHACCKF_00096;dRep_bin135_HHKACLPM_00476;dRep_bin121_BHOOLFKN_00529;dRep_bin120_EKLBOPNC_00238;dRep_bin114_FJHJKHGL_00201;dRep_bin078_GKFCBAEI_00311;dRep_bin060_HNFNENOI_00556;dRep_bin027_OFJCHLJJ_00124;dRep_bin020_JCCELPIE_00086;dRep_bin014_CHIHIMAN_01506;dRep_bin006_HPJGJCAG_00037;dRep_bin001_GHHJMDAL_00906;dRep_bin049_MNFBDPNO_01392;dRep_bin330_CODAKHDJ_00376;dRep_bin242_LKAIBGGJ_00214;dRep_bin218_ACMPALGF_00060;dRep_bin106_BKDHGPBE_00670	dRep_bin282_PKAAPBFP_00481;dRep_bin160_EFKMPBOM_01980;dRep_bin154_JGOKHKLI_00793;dRep_bin139_KGAJINND_01524;dRep_bin127_FIPNHBCH_00036;dRep_bin089_PAJFOJBN_02082;dRep_bin047_IFFANOMN_01724;dRep_bin347_EKGCMFPD_01107;dRep_bin308_JBPDGLPP_01114;dRep_bin266_JFOCEDAE_01005;dRep_bin328_GIGKNKPJ_01841;dRep_bin260_HELEPKJL_01354;dRep_bin216_JNJMCPHB_00018;dRep_bin186_HJAAFFNP_00342;dRep_bin167_BLMEBMNN_01083;dRep_bin115_IFKGOGCL_00636;dRep_bin065_DFABHCBI_01269;dRep_bin047_IFFANOMN_00239	>dRep_bin282_PKAAPBFP_00481 50S ribosomal protein L14;>dRep_bin160_EFKMPBOM_01980 50S ribosomal protein L14;>dRep_bin154_JGOKHKLI_00793 50S ribosomal protein L14;>dRep_bin139_KGAJINND_01524 50S ribosomal protein L14;>dRep_bin127_FIPNHBCH_00036 50S ribosoma	dRep_bin318_IEDEJOFJ_00796	CDS	rplN		50S ribosomal protein L14
IEDEJOFJ_00800			25.85453	26.114160000000005								3	3	1,4076E-08	dRep_bin337_FHKPNFDB_00536;dRep_bin318_IEDEJOFJ_00800;dRep_bin078_GKFCBAEI_00315	dRep_bin337_FHKPNFDB_00536	>dRep_bin337_FHKPNFDB_00536 30S ribosomal protein S8	dRep_bin318_IEDEJOFJ_00800	CDS	rpsH		30S ribosomal protein S8
IEDEJOFJ_00803						26.88402	26.283429999999996	27.83533				2	2	0,00024022	dRep_bin318_IEDEJOFJ_00803;dRep_bin078_GKFCBAEI_00318	dRep_bin318_IEDEJOFJ_00803;dRep_bin078_GKFCBAEI_00318	>dRep_bin318_IEDEJOFJ_00803 30S ribosomal protein S5;>dRep_bin078_GKFCBAEI_00318 30S ribosomal protein S5	dRep_bin318_IEDEJOFJ_00803	CDS	rpsE		30S ribosomal protein S5
IEDEJOFJ_00910	28.1661	26.90713	29.16507	27.631870000000006	31.67951	30.729639999999996	30.05258	30.857200000000002				19	18	0	dRep_bin048_PABMBHAL_00561;dRep_bin318_IEDEJOFJ_00910	dRep_bin048_PABMBHAL_00561	>dRep_bin048_PABMBHAL_00561 Phosphoglycerate kinase	dRep_bin318_IEDEJOFJ_00910	CDS	pgk	2.7.2.3	Phosphoglycerate kinase
IEDEJOFJ_00956	27.878709999999998	26.945809999999998	27.80581	28.31614	27.64141	28.85377	27.47452	28.228759999999998				12	1	1,2546E-92	dRep_bin292_JIBLDOOH_01852;dRep_bin133_NOBPDBPA_03221;dRep_bin005_CNDFPKJG_00202;dRep_bin310_IMBAFDIF_01175;dRep_bin318_IEDEJOFJ_00956;dRep_bin200_JJGKEOHI_00980;dRep_bin188_EJILNMPE_00756;dRep_bin085_MBHLGCDB_00878;dRep_bin192_GCMBELNN_00610	dRep_bin292_JIBLDOOH_01852;dRep_bin133_NOBPDBPA_03221	>dRep_bin292_JIBLDOOH_01852 Glyceraldehyde-3-phosphate dehydrogenase;>dRep_bin133_NOBPDBPA_03221 Glyceraldehyde-3-phosphate dehydrogenase	dRep_bin318_IEDEJOFJ_00956	CDS	gap	1.2.1.12	Glyceraldehyde-3-phosphate dehydrogenase
IEDEJOFJ_00987							26.36356					2	1	2,4283E-08	dRep_bin318_IEDEJOFJ_00987	dRep_bin318_IEDEJOFJ_00987	>dRep_bin318_IEDEJOFJ_00987 Phosphocarrier protein HPr	dRep_bin318_IEDEJOFJ_00987	CDS	ptsH_1	2.7.11.-	Phosphocarrier protein HPr
IEDEJOFJ_01009		23.986419999999995	23.17342									2	1	4,4745E-32	dRep_bin135_HHKACLPM_01194;dRep_bin248_CCDFPECI_00232;dRep_bin048_PABMBHAL_01807;dRep_bin347_EKGCMFPD_00759;dRep_bin293_MEPKGOAN_01297;dRep_bin001_GHHJMDAL_00886;dRep_bin017_FGFLFOPJ_00766;dRep_bin318_IEDEJOFJ_01009;dRep_bin310_IMBAFDIF_00255;dRep_bin276_EHNFLEBP_00341;dRep_bin158_OGFICEAP_00321;dRep_bin145_KMJJJOEJ_01462;dRep_bin131_HLFNHDGI_00015;dRep_bin115_IFKGOGCL_00136;dRep_bin089_PAJFOJBN_01106;dRep_bin335_JIOGNAPG_01504;dRep_bin330_CODAKHDJ_00948;dRep_bin201_OLKDIBOK_02618;dRep_bin301_NJFJIJGA_00940;dRep_bin154_JGOKHKLI_01917;dRep_bin007_LNLEAAAN_01428	dRep_bin135_HHKACLPM_01194;dRep_bin248_CCDFPECI_00232;dRep_bin048_PABMBHAL_01807;dRep_bin347_EKGCMFPD_00759;dRep_bin293_MEPKGOAN_01297;dRep_bin001_GHHJMDAL_00886;dRep_bin017_FGFLFOPJ_00766;dRep_bin318_IEDEJOFJ_01009;dRep_bin310_IMBAFDIF_00255;dRep_bin276_EHNFLEBP_00341;dRep_bin158_OGFICEAP_00321;dRep_bin145_KMJJJOEJ_01462;dRep_bin131_HLFNHDGI_00015;dRep_bin115_IFKGOGCL_00136;dRep_bin089_PAJFOJBN_01106;dRep_bin335_JIOGNAPG_01504;dRep_bin330_CODAKHDJ_00948;dRep_bin201_OLKDIBOK_02618;dRep_bin301_NJFJIJGA_00940;dRep_bin154_JGOKHKLI_01917;dRep_bin007_LNLEAAAN_01428	>dRep_bin135_HHKACLPM_01194 L-methionine gamma-lyase;>dRep_bin248_CCDFPECI_00232 L-methionine gamma-lyase;>dRep_bin048_PABMBHAL_01807 L-methionine gamma-lyase;>dRep_bin347_EKGCMFPD_00759 L-methionine gamma-lyase;>dRep_bin293_MEPKGOAN_01297 L-methionine gam	dRep_bin318_IEDEJOFJ_01009	CDS	mgl_3	4.4.1.11	L-methionine gamma-lyase
IEDEJOFJ_01034								24.62048				2	1	1,5039E-06	dRep_bin318_IEDEJOFJ_01034	dRep_bin318_IEDEJOFJ_01034	>dRep_bin318_IEDEJOFJ_01034 UDP-glucose 4-epimerase	dRep_bin318_IEDEJOFJ_01034	CDS	lnpD	5.1.3.2	UDP-glucose 4-epimerase
IEDEJOFJ_01051	28.57618	28.73908	28.601940000000003	29.525329999999997	29.361539999999998	29.35947	29.47117	28.94081				13	7	2,1177E-64	dRep_bin191_NGFJMLOL_01183;dRep_bin170_LICLFCFF_01189;dRep_bin198_GMLJKALI_01270;dRep_bin064_CMDDCDKG_00041;dRep_bin137_NABPABPB_00428;dRep_bin289_KALDCNNP_00317;dRep_bin183_FPGIOKBG_00493;dRep_bin224_NFENHJGB_01634;dRep_bin314_KCHFPLIP_00994;dRep_bin285_IPHKFJAN_01105;dRep_bin294_EHJINIDK_00253;dRep_bin002_CFBNDKDN_01884;dRep_bin229_FFOBPPJI_00639;dRep_bin318_IEDEJOFJ_01051;dRep_bin355_KJEFNADK_00398;dRep_bin267_LJCFMAFA_00932;dRep_bin230_NINMBMKB_00343;dRep_bin249_OFIIEIDJ_01003;dRep_bin007_LNLEAAAN_00258;dRep_bin037_GEAOEKHA_00979;dRep_bin346_JKFDGFHC_00518;dRep_bin196_BIELHBNH_00928;dRep_bin063_PJANDMAH_01542;dRep_bin045_GJACFFBC_02082;dRep_bin036_DOKCEIDH_00964;dRep_bin034_MEBMFDLL_02139;dRep_bin329_GDOHKPBL_01390;dRep_bin345_GLPJDLOI_00615;dRep_bin307_AOCKHIKF_00674;dRep_bin098_DDEBHDKK_00690;dRep_bin301_NJFJIJGA_01580;dRep_bin275_NIDIBBDA_00434;dRep_bin149_GABCHCDI_00617;dRep_bin093_PGADNPMG_01618;dRep_bin014_CHIHIMAN_00183;dRep_bin073_AKBCEHHO_01560;dRep_bin210_AGEDAEIA_00697;dRep_bin084_CGBIKHBH_01547;dRep_bin070_EMBHKIOF_00966;dRep_bin022_BOEAFNDE_00824;dRep_bin256_KEMNAOBC_01139;dRep_bin071_JHMCIJPE_00028;dRep_bin165_HMDFFMMM_00871;dRep_bin118_FGIOKLBC_00537;dRep_bin110_JGOEJECF_01108;dRep_bin316_FNLHDNEO_00330;dRep_bin296_FDMPKPOH_01624;dRep_bin232_JGAEDAFA_01628;dRep_bin290_OIOJKBNK_00304	dRep_bin191_NGFJMLOL_01183	>dRep_bin191_NGFJMLOL_01183 S-adenosylmethionine synthase	dRep_bin318_IEDEJOFJ_01051	CDS	metK	2.5.1.6	S-adenosylmethionine synthase
IEDEJOFJ_01068					31.699050000000003	30.009990000000002	30.110860000000006	31.23083				35	35	0	dRep_bin048_PABMBHAL_02013;dRep_bin318_IEDEJOFJ_01068	dRep_bin048_PABMBHAL_02013	>dRep_bin048_PABMBHAL_02013 Aldehyde-alcohol dehydrogenase	dRep_bin318_IEDEJOFJ_01068	CDS	adhE_1		Aldehyde-alcohol dehydrogenase
IEDEJOFJ_01109			24.408139999999996									2	1	5,7484E-08	dRep_bin336_MPGOKPOL_01506;dRep_bin318_IEDEJOFJ_01109;dRep_bin324_IPNHOHFK_02011;dRep_bin146_LCCIBLJG_00379;dRep_bin075_EPEMMOCL_01652;dRep_bin257_JHFDCHCB_01517;dRep_bin123_PJKBFKBB_00870;dRep_bin154_JGOKHKLI_00496	dRep_bin336_MPGOKPOL_01506;dRep_bin318_IEDEJOFJ_01109;dRep_bin324_IPNHOHFK_02011;dRep_bin146_LCCIBLJG_00379;dRep_bin075_EPEMMOCL_01652;dRep_bin257_JHFDCHCB_01517;dRep_bin123_PJKBFKBB_00870;dRep_bin154_JGOKHKLI_00496	>dRep_bin336_MPGOKPOL_01506 NADP-dependent 7-alpha-hydroxysteroid dehydrogenase;>dRep_bin318_IEDEJOFJ_01109 NADP-dependent 7-alpha-hydroxysteroid dehydrogenase;>dRep_bin324_IPNHOHFK_02011 NADP-dependent 7-alpha-hydroxysteroid dehydrogenase;>dRep_bin146_LCC	dRep_bin318_IEDEJOFJ_01109	CDS		1.1.1.-	NADP-dependent 7-alpha-hydroxysteroid dehydrogenase
IEDEJOFJ_01181					29.70647	28.670980000000004	28.188109999999998	28.62394				16	16	2,1105E-216	dRep_bin048_PABMBHAL_01062;dRep_bin318_IEDEJOFJ_01181;dRep_bin318_IEDEJOFJ_01369;dRep_bin048_PABMBHAL_01467;dRep_bin048_PABMBHAL_02173	dRep_bin048_PABMBHAL_01062	>dRep_bin048_PABMBHAL_01062 Aryl-phospho-beta-D-glucosidase BglH	dRep_bin318_IEDEJOFJ_01181	CDS	bglC_2	3.2.1.86	Aryl-phospho-beta-D-glucosidase BglC
IEDEJOFJ_01183						25.601300000000002						3	1	6,8547E-10	dRep_bin082_HBEFABJN_00977;dRep_bin253_CPMOAOBJ_00411;dRep_bin318_IEDEJOFJ_01183;dRep_bin102_ICFDHPGB_01117;dRep_bin349_AMCJEEEG_01437;dRep_bin277_MIPNGEJE_00445;dRep_bin116_CLFDBMOF_00363;dRep_bin242_LKAIBGGJ_01155	dRep_bin082_HBEFABJN_00977;dRep_bin253_CPMOAOBJ_00411;dRep_bin318_IEDEJOFJ_01183	>dRep_bin082_HBEFABJN_00977 Chaperone protein HtpG;>dRep_bin253_CPMOAOBJ_00411 Chaperone protein HtpG;>dRep_bin318_IEDEJOFJ_01183 Chaperone protein HtpG	dRep_bin318_IEDEJOFJ_01183	CDS	htpG		Chaperone protein HtpG
IEDEJOFJ_01222						25.56909						5	0	8,3057E-45	dRep_bin318_IEDEJOFJ_01222	dRep_bin318_IEDEJOFJ_01222	>dRep_bin318_IEDEJOFJ_01222 Fructose-bisphosphate aldolase	dRep_bin318_IEDEJOFJ_01222	CDS	fba	4.1.2.13	Fructose-bisphosphate aldolase
IEDEJOFJ_01240	24.79793	26.83846	25.03217									4	0	1,5719E-13	dRep_bin318_IEDEJOFJ_01240;dRep_bin101_BNDDLDCL_00756;dRep_bin303_DDDNDJCF_01356;dRep_bin140_ACFAKGIL_00086;dRep_bin169_PNICKJKO_00153	dRep_bin318_IEDEJOFJ_01240;dRep_bin101_BNDDLDCL_00756;dRep_bin303_DDDNDJCF_01356	>dRep_bin318_IEDEJOFJ_01240 Putative diflavin flavoprotein A 3;>dRep_bin101_BNDDLDCL_00756 Flavo-diiron protein FprA1;>dRep_bin303_DDDNDJCF_01356 Nitric oxide reductase	dRep_bin318_IEDEJOFJ_01240	CDS	dfa3	1.-.-.-	Putative diflavin flavoprotein A 3
IEDEJOFJ_01243								22.92435				1	1	0,0057051	dRep_bin318_IEDEJOFJ_01243;dRep_bin048_PABMBHAL_01347	dRep_bin318_IEDEJOFJ_01243;dRep_bin048_PABMBHAL_01347	>dRep_bin318_IEDEJOFJ_01243 Asparagine--tRNA ligase;>dRep_bin048_PABMBHAL_01347 Asparagine--tRNA ligase	dRep_bin318_IEDEJOFJ_01243	CDS	asnS	6.1.1.22	Asparagine--tRNA ligase
IEDEJOFJ_01269	23.4279	25.70237	23.973419999999997		25.801370000000002	23.910860000000003	24.2322	24.656820000000003				8	0	7,1323E-23	dRep_bin039_IJNOFOJK_00359;dRep_bin257_JHFDCHCB_02272;dRep_bin024_OLHDGABE_00804;dRep_bin006_HPJGJCAG_00183;dRep_bin323_FBBLPLCG_01753;dRep_bin124_HIHDFGCL_00732;dRep_bin318_IEDEJOFJ_01269	dRep_bin039_IJNOFOJK_00359	>dRep_bin039_IJNOFOJK_00359 Phosphoserine aminotransferase	dRep_bin318_IEDEJOFJ_01269	CDS	serC	2.6.1.52	Phosphoserine aminotransferase
IEDEJOFJ_01292	28.62954	29.354750000000003	29.992399999999996	30.023139999999998	30.21083	30.89937	29.70792	30.0531				20	3	1,2194E-156	dRep_bin191_NGFJMLOL_01259;dRep_bin296_FDMPKPOH_00205;dRep_bin210_AGEDAEIA_00766;dRep_bin195_DDMDFNOK_00108;dRep_bin334_NAPFFNLD_01038;dRep_bin211_LGJEFJIK_01419;dRep_bin295_EJGKDKNE_00091;dRep_bin341_NBEGOKEF_00239;dRep_bin020_JCCELPIE_00888;dRep_bin283_NLJJFFAC_01280;dRep_bin274_DBJHKLDG_00956;dRep_bin016_JLGAHGOJ_01458;dRep_bin108_BPNCDINP_01604;dRep_bin008_MNDMJLEI_00335;dRep_bin270_GEJAHNCN_01137;dRep_bin005_CNDFPKJG_01352;dRep_bin060_HNFNENOI_00669;dRep_bin146_LCCIBLJG_00571;dRep_bin326_CEEAIPKF_00877;dRep_bin333_EFOKIBLA_00153;dRep_bin168_HKDILBFE_01558;dRep_bin244_LBFMHLBI_01599;dRep_bin096_GNHMEKPF_00231;dRep_bin237_KJDLIPND_00220;dRep_bin188_EJILNMPE_01240;dRep_bin251_FGNGCJDD_00076;dRep_bin227_IJODGBOI_00103;dRep_bin151_AHBJLMBI_00923;dRep_bin116_CLFDBMOF_00729;dRep_bin141_GMCOOECB_00805;dRep_bin350_EKOOEEGH_00925;dRep_bin132_FAPBDCMG_00754;dRep_bin080_CBEBHNNK_00317;dRep_bin051_HIEIDCID_00971;dRep_bin228_CECEDMJG_00643;dRep_bin009_KMMEHEKA_00811;dRep_bin318_IEDEJOFJ_01292;dRep_bin207_OHNPDPFI_00717;dRep_bin345_GLPJDLOI_00471;dRep_bin144_NPHACCKF_01507;dRep_bin118_FGIOKLBC_00082;dRep_bin355_KJEFNADK_00986;dRep_bin293_MEPKGOAN_00544;dRep_bin230_NINMBMKB_00674;dRep_bin014_CHIHIMAN_00029;dRep_bin218_ACMPALGF_00178;dRep_bin165_HMDFFMMM_01108;dRep_bin094_LBLICAAO_00513;dRep_bin076_GLAOFBEC_01428;dRep_bin267_LJCFMAFA_00110;dRep_bin048_PABMBHAL_00321;dRep_bin147_EJLBNEBE_02032;dRep_bin128_JPBBHEMA_00007;dRep_bin042_MMFCLHOO_01063;dRep_bin351_CKFFBPHM_00913;dRep_bin123_PJKBFKBB_00095;dRep_bin330_CODAKHDJ_00708;dRep_bin252_NDAKLAGD_01294;dRep_bin233_BAGKKAOB_01574;dRep_bin217_MJCEAEPB_00244;dRep_bin110_JGOEJECF_00272;dRep_bin109_MJABCPAK_00670;dRep_bin101_BNDDLDCL_01055;dRep_bin092_OOJCPDEA_00344;dRep_bin074_EHAOMODJ_00824;dRep_bin336_MPGOKPOL_02107;dRep_bin290_OIOJKBNK_01058;dRep_bin264_DNFFGNEG_00269;dRep_bin256_KEMNAOBC_01330;dRep_bin246_MMFBABHK_01553;dRep_bin166_DFIAJFEC_00041;dRep_bin153_JGABJFBF_00098;dRep_bin143_PFLDJMPF_00060;dRep_bin106_BKDHGPBE_01156;dRep_bin071_JHMCIJPE_01039;dRep_bin250_NMCAMJIO_00472;dRep_bin312_MJFEFHMP_01194;dRep_bin194_MEPDOGGJ_00657;dRep_bin129_GADIAMAA_01832;dRep_bin061_ONFGDLGO_01341;dRep_bin030_OGPDLGOC_01109;dRep_bin025_CBEJJMLE_00255;dRep_bin223_PIMCDKJI_01311;dRep_bin204_INMOGLDN_00399;dRep_bin202_HEPPALPH_00661;dRep_bin105_AAEIHAFF_01590;dRep_bin056_EMNHHOJA_01586;dRep_bin174_LJJOKEME_01552;dRep_bin057_BNCFHBBO_00981;dRep_bin348_LCLFDNEE_01410;dRep_bin339_DBNBAHDK_00024;dRep_bin321_EJNAAGJG_00897;dRep_bin273_FGAEBHNP_01096;dRep_bin248_CCDFPECI_01765;dRep_bin124_HIHDFGCL_01059;dRep_bin068_ENOLAELK_01049;dRep_bin038_EIGFILKG_00020;dRep_bin276_EHNFLEBP_00417;dRep_bin152_LJMCIADF_00769;dRep_bin115_IFKGOGCL_00005;dRep_bin099_DNDAGJEJ_00435;dRep_bin085_MBHLGCDB_01722;dRep_bin079_GAOGCKND_00892;dRep_bin026_HNPIIINL_00985;dRep_bin353_PPDHLNJB_01438;dRep_bin319_PBDBJGCJ_01331;dRep_bin291_EILOACJB_00194;dRep_bin241_LMMMGDNI_00361;dRep_bin091_MAFACGAD_00751;dRep_bin303_DDDNDJCF_01255;dRep_bin216_JNJMCPHB_01481;dRep_bin184_MBMMJHKO_01167;dRep_bin161_JMKPMHCO_00103;dRep_bin021_AJDDCGJC_01597;dRep_bin095_HOBNOEEF_00033;dRep_bin059_OOBKFNPP_00633;dRep_bin018_ILOONPIC_00093;dRep_bin306_FGHMKMMP_00476;dRep_bin175_HANCENAK_00082;dRep_bin040_EIFLLDOA_01832;dRep_bin166_DFIAJFEC_00288;dRep_bin085_MBHLGCDB_01583	dRep_bin191_NGFJMLOL_01259	>dRep_bin191_NGFJMLOL_01259 Aspartate--tRNA ligase	dRep_bin318_IEDEJOFJ_01292	CDS	aspS	6.1.1.12	Aspartate--tRNA ligase
IEDEJOFJ_01444			23.989109999999997		31.32817	30.51267	28.225129999999996	30.40477				27	27	0	dRep_bin048_PABMBHAL_00694;dRep_bin216_JNJMCPHB_01401;dRep_bin021_AJDDCGJC_00369;dRep_bin318_IEDEJOFJ_01444;dRep_bin318_IEDEJOFJ_00560	dRep_bin048_PABMBHAL_00694	>dRep_bin048_PABMBHAL_00694 Pyruvate kinase	dRep_bin318_IEDEJOFJ_01444	CDS	pyk_2	2.7.1.40	Pyruvate kinase
IEDEJOFJ_01521					24.964769999999998	23.387850000000004	23.59594	23.799860000000002				7	6	2,3371E-16	dRep_bin048_PABMBHAL_00307;dRep_bin318_IEDEJOFJ_01521	dRep_bin048_PABMBHAL_00307	>dRep_bin048_PABMBHAL_00307 Polyribonucleotide nucleotidyltransferase	dRep_bin318_IEDEJOFJ_01521	CDS	pnp	2.7.7.8	Polyribonucleotide nucleotidyltransferase
IEDEJOFJ_01543					26.460719999999995	28.11867	25.90917					3	3	1,9897E-10	dRep_bin048_PABMBHAL_01794;dRep_bin318_IEDEJOFJ_01543;dRep_bin048_PABMBHAL_01724	dRep_bin048_PABMBHAL_01794	>dRep_bin048_PABMBHAL_01794 Lichenan permease IIC component	dRep_bin318_IEDEJOFJ_01543	CDS	gmuC		PTS system oligo-beta-mannoside-specific EIIC component
IEDEJOFJ_01593					24.654310000000002							4	2	1,0513E-18	dRep_bin048_PABMBHAL_00378;dRep_bin318_IEDEJOFJ_01593;dRep_bin287_DONBGKDH_01334;dRep_bin266_JFOCEDAE_00332;dRep_bin260_HELEPKJL_00976;dRep_bin176_DLEJNGKN_00909	dRep_bin048_PABMBHAL_00378;dRep_bin318_IEDEJOFJ_01593;dRep_bin287_DONBGKDH_01334;dRep_bin266_JFOCEDAE_00332	>dRep_bin048_PABMBHAL_00378 Purine nucleoside phosphorylase DeoD-type;>dRep_bin318_IEDEJOFJ_01593 Purine nucleoside phosphorylase DeoD-type;>dRep_bin287_DONBGKDH_01334 Purine nucleoside phosphorylase DeoD-type;>dRep_bin266_JFOCEDAE_00332 Purine nucleoside	dRep_bin318_IEDEJOFJ_01593	CDS	deoD	2.4.2.1	Purine nucleoside phosphorylase DeoD-type
IEDEJOFJ_01633					24.619130000000002							5	2	8,9067E-15	dRep_bin318_IEDEJOFJ_01633;dRep_bin233_BAGKKAOB_01466	dRep_bin318_IEDEJOFJ_01633;dRep_bin233_BAGKKAOB_01466	>dRep_bin318_IEDEJOFJ_01633 Formate acetyltransferase;>dRep_bin233_BAGKKAOB_01466 Formate acetyltransferase	dRep_bin318_IEDEJOFJ_01633	CDS	pflB_1	2.3.1.54	Formate acetyltransferase
IEDEJOFJ_01639				24.52409								3	1	3,0363E-62	dRep_bin157_JPNIKEKI_01307;dRep_bin039_IJNOFOJK_01899;dRep_bin186_HJAAFFNP_00774;dRep_bin318_IEDEJOFJ_01639;dRep_bin164_KHMELCCL_00132;dRep_bin328_GIGKNKPJ_01195;dRep_bin260_HELEPKJL_01523;dRep_bin287_DONBGKDH_01508;dRep_bin158_OGFICEAP_02168;dRep_bin127_FIPNHBCH_00569;dRep_bin115_IFKGOGCL_02347;dRep_bin099_DNDAGJEJ_00641;dRep_bin308_JBPDGLPP_01860;dRep_bin333_EFOKIBLA_01083;dRep_bin321_EJNAAGJG_00266;dRep_bin273_FGAEBHNP_00052;dRep_bin299_AKNBKJGM_00308;dRep_bin216_JNJMCPHB_01326;dRep_bin094_LBLICAAO_00532;dRep_bin295_EJGKDKNE_01389;dRep_bin021_AJDDCGJC_00388;dRep_bin336_MPGOKPOL_01887;dRep_bin147_EJLBNEBE_01158;dRep_bin091_MAFACGAD_00923;dRep_bin261_FJICAFFM_00349;dRep_bin203_CLFNNOCF_01032;dRep_bin292_JIBLDOOH_00170;dRep_bin324_IPNHOHFK_01855;dRep_bin133_NOBPDBPA_02057;dRep_bin179_HFEIPPPA_01406;dRep_bin297_EDHEEICA_01152;dRep_bin005_CNDFPKJG_00713	dRep_bin157_JPNIKEKI_01307;dRep_bin039_IJNOFOJK_01899;dRep_bin186_HJAAFFNP_00774;dRep_bin318_IEDEJOFJ_01639;dRep_bin164_KHMELCCL_00132;dRep_bin328_GIGKNKPJ_01195;dRep_bin260_HELEPKJL_01523;dRep_bin287_DONBGKDH_01508;dRep_bin158_OGFICEAP_02168;dRep_bin127_FIPNHBCH_00569;dRep_bin115_IFKGOGCL_02347;dRep_bin099_DNDAGJEJ_00641;dRep_bin308_JBPDGLPP_01860;dRep_bin333_EFOKIBLA_01083;dRep_bin321_EJNAAGJG_00266;dRep_bin273_FGAEBHNP_00052;dRep_bin299_AKNBKJGM_00308;dRep_bin216_JNJMCPHB_01326;dRep_bin094_LBLICAAO_00532;dRep_bin295_EJGKDKNE_01389;dRep_bin021_AJDDCGJC_00388;dRep_bin336_MPGOKPOL_01887;dRep_bin147_EJLBNEBE_01158;dRep_bin091_MAFACGAD_00923;dRep_bin261_FJICAFFM_00349;dRep_bin203_CLFNNOCF_01032;dRep_bin292_JIBLDOOH_00170;dRep_bin324_IPNHOHFK_01855;dRep_bin133_NOBPDBPA_02057;dRep_bin179_HFEIPPPA_01406;dRep_bin297_EDHEEICA_01152;dRep_bin005_CNDFPKJG_00713	>dRep_bin157_JPNIKEKI_01307 Galactose-1-phosphate uridylyltransferase;>dRep_bin039_IJNOFOJK_01899 Galactose-1-phosphate uridylyltransferase;>dRep_bin186_HJAAFFNP_00774 Galactose-1-phosphate uridylyltransferase;>dRep_bin318_IEDEJOFJ_01639 Galactose-1-phosph	dRep_bin318_IEDEJOFJ_01639	CDS	galT	2.7.7.12	Galactose-1-phosphate uridylyltransferase
IEDEJOFJ_01728				25.34089								13	0	5,2472E-139	dRep_bin160_EFKMPBOM_00312;dRep_bin318_IEDEJOFJ_01728	dRep_bin160_EFKMPBOM_00312	>dRep_bin160_EFKMPBOM_00312 Ketol-acid reductoisomerase (NAD(+))	dRep_bin318_IEDEJOFJ_01728	CDS	ilvC	1.1.1.86	Ketol-acid reductoisomerase (NADP(+))
IEDEJOFJ_01737					30.08055	29.554990000000004	28.650850000000005	29.36403				15	13	4,0344E-73	dRep_bin048_PABMBHAL_01488;dRep_bin318_IEDEJOFJ_01737	dRep_bin048_PABMBHAL_01488	>dRep_bin048_PABMBHAL_01488 Phosphoglucomutase	dRep_bin318_IEDEJOFJ_01737	CDS	pgcA	5.4.2.2	Phosphoglucomutase
