GBprotID	LFQ intensity CtrPig1	LFQ intensity CtrPig2	LFQ intensity CtrPig3	LFQ intensity CtrPig4	LFQ intensity MannanPig1	LFQ intensity MannanPig2	LFQ intensity MannanPig3	LFQ intensity MannanPig4	Only identified by site	Reverse	Contaminant	Peptides	Unique peptides	PEP	Protein IDs	Majority protein IDs	Fasta headers	IDcomb	ftype	gene	EC_number	product
EJNAAGJG_00002	28.2103	27.4479	27.63858	27.295789999999997		27.263199999999998	28.13922	27.62206				4	1	3,4299E-17	dRep_bin049_MNFBDPNO_00153;dRep_bin321_EJNAAGJG_00002	dRep_bin049_MNFBDPNO_00153;dRep_bin321_EJNAAGJG_00002	>dRep_bin049_MNFBDPNO_00153 L-fucose isomerase;>dRep_bin321_EJNAAGJG_00002 L-fucose isomerase	dRep_bin321_EJNAAGJG_00002	CDS	fucI	5.3.1.25	L-fucose isomerase
EJNAAGJG_00005	31.69062	31.497960000000003	31.258499999999998	30.57867	30.338729999999998	30.18754	31.41518	31.29647				16	13	0	dRep_bin225_FLBKEJIP_00638;dRep_bin193_GDMDPNNM_00391;dRep_bin104_EGLEJOLM_00429;dRep_bin267_LJCFMAFA_01104;dRep_bin128_JPBBHEMA_00063;dRep_bin322_OJELOJOF_01579;dRep_bin220_PILICLLL_00965;dRep_bin237_KJDLIPND_01288;dRep_bin273_FGAEBHNP_00090;dRep_bin350_EKOOEEGH_00878;dRep_bin341_NBEGOKEF_01245;dRep_bin230_NINMBMKB_00865;dRep_bin355_KJEFNADK_01484;dRep_bin306_FGHMKMMP_01597;dRep_bin291_EILOACJB_00178;dRep_bin276_EHNFLEBP_00863;dRep_bin107_EFNBPDOP_00094;dRep_bin077_DNNBMPMC_01312;dRep_bin324_IPNHOHFK_02120;dRep_bin308_JBPDGLPP_01844;dRep_bin089_PAJFOJBN_01453;dRep_bin031_BNHMFOII_01699;dRep_bin007_LNLEAAAN_01377;dRep_bin179_HFEIPPPA_01144;dRep_bin347_EKGCMFPD_01400;dRep_bin226_NLNLHLLD_00768;dRep_bin056_EMNHHOJA_00523;dRep_bin026_HNPIIINL_01583;dRep_bin020_JCCELPIE_01111;dRep_bin345_GLPJDLOI_00559;dRep_bin343_JCMCKBGF_01283;dRep_bin333_EFOKIBLA_00575;dRep_bin323_FBBLPLCG_00787;dRep_bin274_DBJHKLDG_00045;dRep_bin195_DDMDFNOK_00591;dRep_bin078_GKFCBAEI_00992;dRep_bin008_MNDMJLEI_01069;dRep_bin316_FNLHDNEO_00739;dRep_bin092_OOJCPDEA_01821;dRep_bin074_EHAOMODJ_00660;dRep_bin256_KEMNAOBC_00450;dRep_bin123_PJKBFKBB_01350;dRep_bin110_JGOEJECF_00180;dRep_bin101_BNDDLDCL_01841;dRep_bin071_JHMCIJPE_01380;dRep_bin040_EIFLLDOA_01745;dRep_bin032_PPNIGLME_01067;dRep_bin014_CHIHIMAN_00063;dRep_bin321_EJNAAGJG_00005;dRep_bin290_OIOJKBNK_00982;dRep_bin229_FFOBPPJI_01385;dRep_bin124_HIHDFGCL_00127;dRep_bin028_GKEJLBAM_01146;dRep_bin351_CKFFBPHM_00748;dRep_bin296_FDMPKPOH_01066;dRep_bin257_JHFDCHCB_01960;dRep_bin194_MEPDOGGJ_00157;dRep_bin191_NGFJMLOL_00394;dRep_bin136_NAIECEIF_01100;dRep_bin118_FGIOKLBC_00461;dRep_bin025_CBEJJMLE_00124;dRep_bin293_MEPKGOAN_00978;dRep_bin210_AGEDAEIA_00638;dRep_bin314_KCHFPLIP_00446;dRep_bin165_HMDFFMMM_00776;dRep_bin353_PPDHLNJB_00892;dRep_bin018_ILOONPIC_00585;dRep_bin060_HNFNENOI_01252;dRep_bin217_MJCEAEPB_01380	dRep_bin225_FLBKEJIP_00638	>dRep_bin225_FLBKEJIP_00638 Inosine-5-monophosphate dehydrogenase	dRep_bin321_EJNAAGJG_00005	CDS	guaB	1.1.1.205	Inosine-5'-monophosphate dehydrogenase
EJNAAGJG_00108								24.445939999999997				3	1	1,2536E-20	dRep_bin193_GDMDPNNM_01335;dRep_bin194_MEPDOGGJ_00909;dRep_bin152_LJMCIADF_01136;dRep_bin124_HIHDFGCL_01283;dRep_bin101_BNDDLDCL_01786;dRep_bin079_GAOGCKND_00249;dRep_bin068_ENOLAELK_01480;dRep_bin038_EIGFILKG_00281;dRep_bin025_CBEJJMLE_00745;dRep_bin286_OEMIJKMC_00443;dRep_bin231_CFOLMJBA_00984;dRep_bin172_ALNHGLMD_00252;dRep_bin142_NDNPJBEM_00885;dRep_bin126_PPDNCIBN_01642;dRep_bin090_IPGNHCBJ_00359;dRep_bin321_EJNAAGJG_00108;dRep_bin273_FGAEBHNP_01040;dRep_bin323_FBBLPLCG_00442;dRep_bin309_BIOHLCGG_00720;dRep_bin268_LKMHIMLG_00991;dRep_bin166_DFIAJFEC_01338;dRep_bin143_PFLDJMPF_01113;dRep_bin108_BPNCDINP_00985;dRep_bin056_EMNHHOJA_01394;dRep_bin026_HNPIIINL_00248;dRep_bin006_HPJGJCAG_00021;dRep_bin340_OFLHNGJM_01045;dRep_bin270_GEJAHNCN_00054;dRep_bin182_EMCFODCD_00202;dRep_bin044_IPFKHAEF_00804;dRep_bin354_MMOALAFN_00312;dRep_bin253_CPMOAOBJ_00594;dRep_bin074_EHAOMODJ_00802;dRep_bin049_MNFBDPNO_00646;dRep_bin257_JHFDCHCB_00163;dRep_bin336_MPGOKPOL_00030;dRep_bin169_PNICKJKO_01093;dRep_bin147_EJLBNEBE_00336;dRep_bin123_PJKBFKBB_00356;dRep_bin032_PPNIGLME_01273;dRep_bin293_MEPKGOAN_00625	dRep_bin193_GDMDPNNM_01335;dRep_bin194_MEPDOGGJ_00909;dRep_bin152_LJMCIADF_01136;dRep_bin124_HIHDFGCL_01283;dRep_bin101_BNDDLDCL_01786;dRep_bin079_GAOGCKND_00249;dRep_bin068_ENOLAELK_01480;dRep_bin038_EIGFILKG_00281;dRep_bin025_CBEJJMLE_00745;dRep_bin286_OEMIJKMC_00443;dRep_bin231_CFOLMJBA_00984;dRep_bin172_ALNHGLMD_00252;dRep_bin142_NDNPJBEM_00885;dRep_bin126_PPDNCIBN_01642;dRep_bin090_IPGNHCBJ_00359	>dRep_bin193_GDMDPNNM_01335 HPr-like protein Crh;>dRep_bin194_MEPDOGGJ_00909 HPr-like protein Crh;>dRep_bin152_LJMCIADF_01136 HPr-like protein Crh;>dRep_bin124_HIHDFGCL_01283 HPr-like protein Crh;>dRep_bin101_BNDDLDCL_01786 HPr-like protein Crh;>dRep_bin07	dRep_bin321_EJNAAGJG_00108	CDS	crh		HPr-like protein Crh
EJNAAGJG_00130	24.54681		24.82556	24.07912	25.68075	24.960489999999997	25.71652	24.847850000000005				4	2	6,1747E-25	dRep_bin201_OLKDIBOK_01863;dRep_bin310_IMBAFDIF_00705;dRep_bin143_PFLDJMPF_00140;dRep_bin319_PBDBJGCJ_00958;dRep_bin135_HHKACLPM_01053;dRep_bin344_CJJBDGAA_00153;dRep_bin306_FGHMKMMP_01802;dRep_bin234_ECABPBME_01586;dRep_bin089_PAJFOJBN_01484;dRep_bin254_GJDPFAEA_01912;dRep_bin321_EJNAAGJG_00130;dRep_bin273_FGAEBHNP_01256;dRep_bin323_FBBLPLCG_00944;dRep_bin336_MPGOKPOL_02018;dRep_bin147_EJLBNEBE_01335;dRep_bin269_PNILGKPH_01519;dRep_bin287_DONBGKDH_01452;dRep_bin300_MJPPENNL_00258;dRep_bin065_DFABHCBI_01106;dRep_bin017_FGFLFOPJ_00960;dRep_bin226_NLNLHLLD_00912;dRep_bin160_EFKMPBOM_02042;dRep_bin047_IFFANOMN_00584;dRep_bin016_JLGAHGOJ_00526;dRep_bin309_BIOHLCGG_00717;dRep_bin278_BFCONKOE_00391;dRep_bin172_ALNHGLMD_01390	dRep_bin201_OLKDIBOK_01863;dRep_bin310_IMBAFDIF_00705;dRep_bin143_PFLDJMPF_00140;dRep_bin319_PBDBJGCJ_00958;dRep_bin135_HHKACLPM_01053;dRep_bin344_CJJBDGAA_00153;dRep_bin306_FGHMKMMP_01802;dRep_bin234_ECABPBME_01586;dRep_bin089_PAJFOJBN_01484;dRep_bin254_GJDPFAEA_01912;dRep_bin321_EJNAAGJG_00130;dRep_bin273_FGAEBHNP_01256;dRep_bin323_FBBLPLCG_00944;dRep_bin336_MPGOKPOL_02018;dRep_bin147_EJLBNEBE_01335;dRep_bin269_PNILGKPH_01519;dRep_bin287_DONBGKDH_01452;dRep_bin300_MJPPENNL_00258;dRep_bin065_DFABHCBI_01106;dRep_bin017_FGFLFOPJ_00960;dRep_bin226_NLNLHLLD_00912;dRep_bin160_EFKMPBOM_02042;dRep_bin047_IFFANOMN_00584;dRep_bin016_JLGAHGOJ_00526;dRep_bin309_BIOHLCGG_00717;dRep_bin278_BFCONKOE_00391	>dRep_bin201_OLKDIBOK_01863 Lysine--tRNA ligase;>dRep_bin310_IMBAFDIF_00705 Lysine--tRNA ligase;>dRep_bin143_PFLDJMPF_00140 Lysine--tRNA ligase;>dRep_bin319_PBDBJGCJ_00958 Lysine--tRNA ligase;>dRep_bin135_HHKACLPM_01053 Lysine--tRNA ligase;>dRep_bin344_CJJ	dRep_bin321_EJNAAGJG_00130	CDS	lysS	6.1.1.6	Lysine--tRNA ligase
EJNAAGJG_00153								24.33272				2	2	0,00046459	dRep_bin029_LFMGBBEC_00364;dRep_bin286_OEMIJKMC_00210;dRep_bin231_CFOLMJBA_00436;dRep_bin164_KHMELCCL_00895;dRep_bin126_PPDNCIBN_01113;dRep_bin354_MMOALAFN_00676;dRep_bin321_EJNAAGJG_00153;dRep_bin273_FGAEBHNP_00022;dRep_bin257_JHFDCHCB_01607;dRep_bin185_OOOLKACK_00892;dRep_bin221_LMGNIMOJ_00573	dRep_bin029_LFMGBBEC_00364;dRep_bin286_OEMIJKMC_00210;dRep_bin231_CFOLMJBA_00436;dRep_bin164_KHMELCCL_00895;dRep_bin126_PPDNCIBN_01113;dRep_bin354_MMOALAFN_00676;dRep_bin321_EJNAAGJG_00153;dRep_bin273_FGAEBHNP_00022;dRep_bin257_JHFDCHCB_01607;dRep_bin185_OOOLKACK_00892;dRep_bin221_LMGNIMOJ_00573	>dRep_bin029_LFMGBBEC_00364 Ribosome-recycling factor;>dRep_bin286_OEMIJKMC_00210 Ribosome-recycling factor;>dRep_bin231_CFOLMJBA_00436 Ribosome-recycling factor;>dRep_bin164_KHMELCCL_00895 Ribosome-recycling factor;>dRep_bin126_PPDNCIBN_01113 Ribosome-rec	dRep_bin321_EJNAAGJG_00153	CDS	frr		Ribosome-recycling factor
EJNAAGJG_00196					27.772719999999996	26.47167	26.4015	26.945029999999996				6	0	1,7372E-10	dRep_bin006_HPJGJCAG_00969;dRep_bin273_FGAEBHNP_00330;dRep_bin011_KOGMKLNO_01687;dRep_bin172_ALNHGLMD_01017;dRep_bin303_DDDNDJCF_01583;dRep_bin104_EGLEJOLM_01903;dRep_bin075_EPEMMOCL_01754;dRep_bin072_JOBJPCGA_01856;dRep_bin047_IFFANOMN_01359;dRep_bin344_CJJBDGAA_00823;dRep_bin048_PABMBHAL_01817;dRep_bin134_HIAPAODO_00589;dRep_bin321_EJNAAGJG_00196;dRep_bin325_EIIGOGHN_00015;dRep_bin189_AHHEHGDL_00910;dRep_bin185_OOOLKACK_00024;dRep_bin056_EMNHHOJA_00266	dRep_bin006_HPJGJCAG_00969;dRep_bin273_FGAEBHNP_00330;dRep_bin011_KOGMKLNO_01687;dRep_bin172_ALNHGLMD_01017;dRep_bin303_DDDNDJCF_01583;dRep_bin104_EGLEJOLM_01903;dRep_bin075_EPEMMOCL_01754;dRep_bin072_JOBJPCGA_01856;dRep_bin047_IFFANOMN_01359;dRep_bin344_CJJBDGAA_00823	>dRep_bin006_HPJGJCAG_00969 O-acetylserine sulfhydrylase;>dRep_bin273_FGAEBHNP_00330 O-acetylserine sulfhydrylase;>dRep_bin011_KOGMKLNO_01687 O-acetylserine sulfhydrylase;>dRep_bin172_ALNHGLMD_01017 O-acetylserine sulfhydrylase;>dRep_bin303_DDDNDJCF_01583	dRep_bin321_EJNAAGJG_00196	CDS	cysK	2.5.1.47	Cysteine synthase
EJNAAGJG_00200		26.03836	26.20215									5	3	7,2659E-44	dRep_bin336_MPGOKPOL_00673;dRep_bin304_JDNJGFKH_01802;dRep_bin293_MEPKGOAN_00782;dRep_bin321_EJNAAGJG_00200;dRep_bin273_FGAEBHNP_00325;dRep_bin323_FBBLPLCG_01708;dRep_bin154_JGOKHKLI_00466;dRep_bin079_GAOGCKND_00498;dRep_bin309_BIOHLCGG_01096;dRep_bin194_MEPDOGGJ_00341;dRep_bin144_NPHACCKF_01515;dRep_bin123_PJKBFKBB_00283;dRep_bin049_MNFBDPNO_00845;dRep_bin025_CBEJJMLE_00317;dRep_bin064_CMDDCDKG_00427;dRep_bin037_GEAOEKHA_01381	dRep_bin336_MPGOKPOL_00673	>dRep_bin336_MPGOKPOL_00673 Lactaldehyde reductase	dRep_bin321_EJNAAGJG_00200	CDS	fucO	1.1.1.77	Lactaldehyde reductase
EJNAAGJG_00211	24.15368											1	1	0,005104	dRep_bin321_EJNAAGJG_00211;dRep_bin058_GJKCICJN_01510	dRep_bin321_EJNAAGJG_00211;dRep_bin058_GJKCICJN_01510	>dRep_bin321_EJNAAGJG_00211 hypothetical protein;>dRep_bin058_GJKCICJN_01510 hypothetical protein	dRep_bin321_EJNAAGJG_00211	CDS			hypothetical protein
EJNAAGJG_00232								24.93809				3	0	1,9818E-71	dRep_bin277_MIPNGEJE_01247;dRep_bin049_MNFBDPNO_01166;dRep_bin321_EJNAAGJG_00232;dRep_bin273_FGAEBHNP_00291	dRep_bin277_MIPNGEJE_01247;dRep_bin049_MNFBDPNO_01166;dRep_bin321_EJNAAGJG_00232;dRep_bin273_FGAEBHNP_00291	>dRep_bin277_MIPNGEJE_01247 sn-glycerol-3-phosphate import ATP-binding protein UgpC;>dRep_bin049_MNFBDPNO_01166 Trehalose import ATP-binding protein SugC;>dRep_bin321_EJNAAGJG_00232 Trehalose import ATP-binding protein SugC;>dRep_bin273_FGAEBHNP_00291 Treh	dRep_bin321_EJNAAGJG_00232	CDS	sugC	3.6.3.-	Trehalose import ATP-binding protein SugC
EJNAAGJG_00236							20.097					3	1	1,8784E-09	dRep_bin082_HBEFABJN_01139;dRep_bin283_NLJJFFAC_01668;dRep_bin144_NPHACCKF_01069;dRep_bin117_PMEMANMD_00800;dRep_bin332_KAOPCDPF_00231;dRep_bin180_JMFOHHIL_00586;dRep_bin207_OHNPDPFI_00264;dRep_bin330_CODAKHDJ_00578;dRep_bin288_KOIAAABN_01373;dRep_bin263_OLEFOGIJ_01436;dRep_bin236_BNONDECB_00176;dRep_bin096_GNHMEKPF_00698;dRep_bin188_EJILNMPE_01149;dRep_bin237_KJDLIPND_01021;dRep_bin054_NNOKONMC_00095;dRep_bin109_MJABCPAK_01188;dRep_bin102_ICFDHPGB_00117;dRep_bin078_GKFCBAEI_00283;dRep_bin108_BPNCDINP_01471;dRep_bin321_EJNAAGJG_00236;dRep_bin273_FGAEBHNP_00297;dRep_bin026_HNPIIINL_00748;dRep_bin079_GAOGCKND_00846;dRep_bin325_EIIGOGHN_01163;dRep_bin250_NMCAMJIO_01559;dRep_bin168_HKDILBFE_00882;dRep_bin099_DNDAGJEJ_00544	dRep_bin082_HBEFABJN_01139;dRep_bin283_NLJJFFAC_01668;dRep_bin144_NPHACCKF_01069	>dRep_bin082_HBEFABJN_01139 Glucose-6-phosphate isomerase;>dRep_bin283_NLJJFFAC_01668 Glucose-6-phosphate isomerase;>dRep_bin144_NPHACCKF_01069 Glucose-6-phosphate isomerase	dRep_bin321_EJNAAGJG_00236	CDS	pgi	5.3.1.9	Glucose-6-phosphate isomerase
EJNAAGJG_00266				24.52409								3	1	3,0363E-62	dRep_bin157_JPNIKEKI_01307;dRep_bin039_IJNOFOJK_01899;dRep_bin186_HJAAFFNP_00774;dRep_bin318_IEDEJOFJ_01639;dRep_bin164_KHMELCCL_00132;dRep_bin328_GIGKNKPJ_01195;dRep_bin260_HELEPKJL_01523;dRep_bin287_DONBGKDH_01508;dRep_bin158_OGFICEAP_02168;dRep_bin127_FIPNHBCH_00569;dRep_bin115_IFKGOGCL_02347;dRep_bin099_DNDAGJEJ_00641;dRep_bin308_JBPDGLPP_01860;dRep_bin333_EFOKIBLA_01083;dRep_bin321_EJNAAGJG_00266;dRep_bin273_FGAEBHNP_00052;dRep_bin299_AKNBKJGM_00308;dRep_bin216_JNJMCPHB_01326;dRep_bin094_LBLICAAO_00532;dRep_bin295_EJGKDKNE_01389;dRep_bin021_AJDDCGJC_00388;dRep_bin336_MPGOKPOL_01887;dRep_bin147_EJLBNEBE_01158;dRep_bin091_MAFACGAD_00923;dRep_bin261_FJICAFFM_00349;dRep_bin203_CLFNNOCF_01032;dRep_bin292_JIBLDOOH_00170;dRep_bin324_IPNHOHFK_01855;dRep_bin133_NOBPDBPA_02057;dRep_bin179_HFEIPPPA_01406;dRep_bin297_EDHEEICA_01152;dRep_bin005_CNDFPKJG_00713	dRep_bin157_JPNIKEKI_01307;dRep_bin039_IJNOFOJK_01899;dRep_bin186_HJAAFFNP_00774;dRep_bin318_IEDEJOFJ_01639;dRep_bin164_KHMELCCL_00132;dRep_bin328_GIGKNKPJ_01195;dRep_bin260_HELEPKJL_01523;dRep_bin287_DONBGKDH_01508;dRep_bin158_OGFICEAP_02168;dRep_bin127_FIPNHBCH_00569;dRep_bin115_IFKGOGCL_02347;dRep_bin099_DNDAGJEJ_00641;dRep_bin308_JBPDGLPP_01860;dRep_bin333_EFOKIBLA_01083;dRep_bin321_EJNAAGJG_00266;dRep_bin273_FGAEBHNP_00052;dRep_bin299_AKNBKJGM_00308;dRep_bin216_JNJMCPHB_01326;dRep_bin094_LBLICAAO_00532;dRep_bin295_EJGKDKNE_01389;dRep_bin021_AJDDCGJC_00388;dRep_bin336_MPGOKPOL_01887;dRep_bin147_EJLBNEBE_01158;dRep_bin091_MAFACGAD_00923;dRep_bin261_FJICAFFM_00349;dRep_bin203_CLFNNOCF_01032;dRep_bin292_JIBLDOOH_00170;dRep_bin324_IPNHOHFK_01855;dRep_bin133_NOBPDBPA_02057;dRep_bin179_HFEIPPPA_01406;dRep_bin297_EDHEEICA_01152;dRep_bin005_CNDFPKJG_00713	>dRep_bin157_JPNIKEKI_01307 Galactose-1-phosphate uridylyltransferase;>dRep_bin039_IJNOFOJK_01899 Galactose-1-phosphate uridylyltransferase;>dRep_bin186_HJAAFFNP_00774 Galactose-1-phosphate uridylyltransferase;>dRep_bin318_IEDEJOFJ_01639 Galactose-1-phosph	dRep_bin321_EJNAAGJG_00266	CDS	galT	2.7.7.12	Galactose-1-phosphate uridylyltransferase
EJNAAGJG_00383					26.366509999999998	24.792329999999996						9	2	9,2305E-66	dRep_bin243_JDMELKLC_00228;dRep_bin323_FBBLPLCG_00104;dRep_bin049_MNFBDPNO_01119;dRep_bin202_HEPPALPH_00473;dRep_bin204_INMOGLDN_00194;dRep_bin264_DNFFGNEG_01422;dRep_bin044_IPFKHAEF_00006;dRep_bin273_FGAEBHNP_01364;dRep_bin321_EJNAAGJG_00383	dRep_bin243_JDMELKLC_00228	>dRep_bin243_JDMELKLC_00228 DNA-directed RNA polymerase subunit beta	dRep_bin321_EJNAAGJG_00383	CDS	rpoB	2.7.7.6	DNA-directed RNA polymerase subunit beta
EJNAAGJG_00384								21.643810000000002				9	0	4,6207E-36	dRep_bin143_PFLDJMPF_01162;dRep_bin074_EHAOMODJ_00197;dRep_bin152_LJMCIADF_00840;dRep_bin079_GAOGCKND_00311;dRep_bin068_ENOLAELK_00990;dRep_bin124_HIHDFGCL_00318;dRep_bin272_LGBDGEIM_00728;dRep_bin337_FHKPNFDB_00324;dRep_bin056_EMNHHOJA_01446;dRep_bin054_NNOKONMC_00657;dRep_bin102_ICFDHPGB_00342;dRep_bin259_IFIOODLK_00485;dRep_bin086_HHEJBMCP_01132;dRep_bin054_NNOKONMC_00873;dRep_bin161_JMKPMHCO_00072;dRep_bin044_IPFKHAEF_00005;dRep_bin085_MBHLGCDB_01101;dRep_bin059_OOBKFNPP_00481;dRep_bin171_FIDMCACI_00747;dRep_bin012_KEBBILMO_00314;dRep_bin212_IEMJENOD_00204;dRep_bin257_JHFDCHCB_01099;dRep_bin277_MIPNGEJE_00939;dRep_bin238_OLNFACLE_01881;dRep_bin200_JJGKEOHI_00480;dRep_bin144_NPHACCKF_01932;dRep_bin321_EJNAAGJG_00384;dRep_bin333_EFOKIBLA_00721;dRep_bin273_FGAEBHNP_01365;dRep_bin280_IMCGLKKG_00438;dRep_bin171_FIDMCACI_00165;dRep_bin051_HIEIDCID_00833;dRep_bin141_GMCOOECB_01065;dRep_bin122_JHMJFODI_00609;dRep_bin155_CLHNKEHA_00697;dRep_bin313_CJFGINPI_00865;dRep_bin213_HHHELMFN_00711;dRep_bin258_DAMEHFEK_00926;dRep_bin169_PNICKJKO_00880;dRep_bin055_IBMMJAEE_00781;dRep_bin096_GNHMEKPF_00270;dRep_bin082_HBEFABJN_01176;dRep_bin094_LBLICAAO_01798;dRep_bin052_PGOOKKFH_00001;dRep_bin178_FLGBGGJB_00429;dRep_bin123_PJKBFKBB_00530;dRep_bin046_GKEJLOEK_00533;dRep_bin270_GEJAHNCN_00559;dRep_bin087_FCLGAPPI_00749;dRep_bin317_ABPHNCOD_01524;dRep_bin354_MMOALAFN_01090;dRep_bin221_LMGNIMOJ_00256;dRep_bin005_CNDFPKJG_00513;dRep_bin144_NPHACCKF_01674;dRep_bin215_ABBFGCAF_00891;dRep_bin024_OLHDGABE_01486;dRep_bin207_OHNPDPFI_01006;dRep_bin109_MJABCPAK_00005;dRep_bin121_BHOOLFKN_00138;dRep_bin144_NPHACCKF_01593;dRep_bin236_BNONDECB_00589;dRep_bin166_DFIAJFEC_00113;dRep_bin352_KFNHGNFC_00788;dRep_bin187_CLPDGDBG_00447;dRep_bin192_GCMBELNN_00637;dRep_bin206_OIIBOIAK_00839;dRep_bin173_BEBNCADL_00299;dRep_bin080_CBEBHNNK_00392;dRep_bin237_KJDLIPND_00675	dRep_bin143_PFLDJMPF_01162;dRep_bin074_EHAOMODJ_00197;dRep_bin152_LJMCIADF_00840;dRep_bin079_GAOGCKND_00311;dRep_bin068_ENOLAELK_00990;dRep_bin124_HIHDFGCL_00318;dRep_bin272_LGBDGEIM_00728;dRep_bin337_FHKPNFDB_00324;dRep_bin056_EMNHHOJA_01446;dRep_bin054_NNOKONMC_00657;dRep_bin102_ICFDHPGB_00342;dRep_bin259_IFIOODLK_00485;dRep_bin086_HHEJBMCP_01132;dRep_bin054_NNOKONMC_00873;dRep_bin161_JMKPMHCO_00072;dRep_bin044_IPFKHAEF_00005;dRep_bin085_MBHLGCDB_01101	>dRep_bin143_PFLDJMPF_01162 DNA-directed RNA polymerase subunit beta;>dRep_bin074_EHAOMODJ_00197 DNA-directed RNA polymerase subunit beta;>dRep_bin152_LJMCIADF_00840 DNA-directed RNA polymerase subunit beta;>dRep_bin079_GAOGCKND_00311 DNA-directed RNA p	dRep_bin321_EJNAAGJG_00384	CDS	rpoC	2.7.7.6	DNA-directed RNA polymerase subunit beta'
EJNAAGJG_00386			25.22055	25.501880000000003								4	1	1,8831E-09	dRep_bin079_GAOGCKND_00309;dRep_bin152_LJMCIADF_00842;dRep_bin049_MNFBDPNO_01112;dRep_bin213_HHHELMFN_00434;dRep_bin085_MBHLGCDB_01493;dRep_bin354_MMOALAFN_01092;dRep_bin026_HNPIIINL_00566;dRep_bin321_EJNAAGJG_00386	dRep_bin079_GAOGCKND_00309;dRep_bin152_LJMCIADF_00842;dRep_bin049_MNFBDPNO_01112	>dRep_bin079_GAOGCKND_00309 30S ribosomal protein S7;>dRep_bin152_LJMCIADF_00842 30S ribosomal protein S7;>dRep_bin049_MNFBDPNO_01112 30S ribosomal protein S7	dRep_bin321_EJNAAGJG_00386	CDS	rpsG		30S ribosomal protein S7
EJNAAGJG_00388	26.878529999999998											7	2	1,3468E-66	dRep_bin321_EJNAAGJG_00388	dRep_bin321_EJNAAGJG_00388	>dRep_bin321_EJNAAGJG_00388 Elongation factor Tu	dRep_bin321_EJNAAGJG_00388	CDS	tuf		Elongation factor Tu
EJNAAGJG_00404	25.62201	25.733629999999998	26.394980000000004	26.0239	24.619580000000003	27.74092	25.34547	24.29887				4	1	2,0465E-09	dRep_bin321_EJNAAGJG_00404;dRep_bin273_FGAEBHNP_00960	dRep_bin321_EJNAAGJG_00404;dRep_bin273_FGAEBHNP_00960	>dRep_bin321_EJNAAGJG_00404 Reverse rubrerythrin-2;>dRep_bin273_FGAEBHNP_00960 Reverse rubrerythrin-2	dRep_bin321_EJNAAGJG_00404	CDS	rbr3B	1.11.1.1	Reverse rubrerythrin-2
EJNAAGJG_00474	23.837880000000006	22.962509999999995	23.10741	23.738619999999997								5	1	2,5612E-13	dRep_bin321_EJNAAGJG_00474	dRep_bin321_EJNAAGJG_00474	>dRep_bin321_EJNAAGJG_00474 60 kDa chaperonin	dRep_bin321_EJNAAGJG_00474	CDS	groL		60 kDa chaperonin
EJNAAGJG_00498							24.288279999999997					2	1	0,00044682	dRep_bin321_EJNAAGJG_00498	dRep_bin321_EJNAAGJG_00498	>dRep_bin321_EJNAAGJG_00498 hypothetical protein	dRep_bin321_EJNAAGJG_00498	CDS			hypothetical protein
EJNAAGJG_00651	22.442129999999995		23.827260000000003	22.52984	24.373910000000002	23.1697	24.233810000000002	23.283759999999997				3	2	1,2032E-19	dRep_bin201_OLKDIBOK_02152;dRep_bin303_DDDNDJCF_00821;dRep_bin134_HIAPAODO_01657;dRep_bin287_DONBGKDH_00415;dRep_bin158_OGFICEAP_00108;dRep_bin257_JHFDCHCB_00470;dRep_bin323_FBBLPLCG_00211;dRep_bin169_PNICKJKO_00577;dRep_bin056_EMNHHOJA_00890;dRep_bin024_OLHDGABE_01284;dRep_bin066_AJACLPEE_00551;dRep_bin254_GJDPFAEA_01693;dRep_bin207_OHNPDPFI_01049;dRep_bin151_AHBJLMBI_00266;dRep_bin119_AKFBCGDO_00602;dRep_bin081_JDPCKDNP_00442;dRep_bin027_OFJCHLJJ_00341;dRep_bin009_KMMEHEKA_00446;dRep_bin322_OJELOJOF_01023;dRep_bin321_EJNAAGJG_00651;dRep_bin282_PKAAPBFP_01369;dRep_bin273_FGAEBHNP_01231;dRep_bin016_JLGAHGOJ_00303;dRep_bin147_EJLBNEBE_01876;dRep_bin026_HNPIIINL_01011;dRep_bin309_BIOHLCGG_00817;dRep_bin253_CPMOAOBJ_01191;dRep_bin278_BFCONKOE_00460;dRep_bin227_IJODGBOI_00814;dRep_bin220_PILICLLL_00789	dRep_bin201_OLKDIBOK_02152;dRep_bin303_DDDNDJCF_00821;dRep_bin134_HIAPAODO_01657;dRep_bin287_DONBGKDH_00415;dRep_bin158_OGFICEAP_00108;dRep_bin257_JHFDCHCB_00470;dRep_bin323_FBBLPLCG_00211;dRep_bin169_PNICKJKO_00577;dRep_bin056_EMNHHOJA_00890;dRep_bin024_OLHDGABE_01284	>dRep_bin201_OLKDIBOK_02152 Leucine--tRNA ligase;>dRep_bin303_DDDNDJCF_00821 Leucine--tRNA ligase;>dRep_bin134_HIAPAODO_01657 Leucine--tRNA ligase;>dRep_bin287_DONBGKDH_00415 Leucine--tRNA ligase;>dRep_bin158_OGFICEAP_00108 Leucine--tRNA ligase;>dRep_bin25	dRep_bin321_EJNAAGJG_00651	CDS	leuS	6.1.1.4	Leucine--tRNA ligase
EJNAAGJG_00673							25.98146					4	4	2,2939E-12	dRep_bin321_EJNAAGJG_00673	dRep_bin321_EJNAAGJG_00673	>dRep_bin321_EJNAAGJG_00673 S-layer homology domain protein	dRep_bin321_EJNAAGJG_00673	CDS			S-layer homology domain protein
EJNAAGJG_00716	29.246509999999997	27.419729999999998	28.246219999999997	27.716070000000002	27.892439999999997	27.222419999999996	27.322339999999997	26.19843				3	2	3,2907E-188	dRep_bin085_MBHLGCDB_00396;dRep_bin049_MNFBDPNO_01632;dRep_bin321_EJNAAGJG_00716;dRep_bin323_FBBLPLCG_00115	dRep_bin085_MBHLGCDB_00396	>dRep_bin085_MBHLGCDB_00396 Formate--tetrahydrofolate ligase	dRep_bin321_EJNAAGJG_00716	CDS	fhs	6.3.4.3	Formate--tetrahydrofolate ligase
EJNAAGJG_00755					25.06357							5	1	3,6059E-73	dRep_bin203_CLFNNOCF_01682;dRep_bin347_EKGCMFPD_01504;dRep_bin284_DEHKNOBF_01057;dRep_bin260_HELEPKJL_00015;dRep_bin310_IMBAFDIF_00287;dRep_bin134_HIAPAODO_00846;dRep_bin062_BOFBFLDA_01435;dRep_bin300_MJPPENNL_01196;dRep_bin201_OLKDIBOK_02047;dRep_bin105_AAEIHAFF_01478;dRep_bin100_CODMOHGB_01221;dRep_bin088_DNGPPFDK_00866;dRep_bin277_MIPNGEJE_00690;dRep_bin166_DFIAJFEC_00146;dRep_bin161_JMKPMHCO_01114;dRep_bin059_OOBKFNPP_00125;dRep_bin046_GKEJLOEK_01062;dRep_bin091_MAFACGAD_00248;dRep_bin017_FGFLFOPJ_00727;dRep_bin354_MMOALAFN_00741;dRep_bin324_IPNHOHFK_00313;dRep_bin323_FBBLPLCG_01264;dRep_bin309_BIOHLCGG_01306;dRep_bin273_FGAEBHNP_00470;dRep_bin261_FJICAFFM_01100;dRep_bin148_NAJFKJMD_00795;dRep_bin115_IFKGOGCL_00123;dRep_bin069_EGGEOGDC_01056;dRep_bin344_CJJBDGAA_01161;dRep_bin249_OFIIEIDJ_00715;dRep_bin220_PILICLLL_00990;dRep_bin134_HIAPAODO_01436;dRep_bin065_DFABHCBI_00344;dRep_bin032_PPNIGLME_00203;dRep_bin270_GEJAHNCN_01587;dRep_bin065_DFABHCBI_00249;dRep_bin278_BFCONKOE_01054;dRep_bin016_JLGAHGOJ_00641;dRep_bin328_GIGKNKPJ_01462;dRep_bin308_JBPDGLPP_01172;dRep_bin303_DDDNDJCF_01320;dRep_bin254_GJDPFAEA_00870;dRep_bin234_ECABPBME_00536;dRep_bin186_HJAAFFNP_01789;dRep_bin167_BLMEBMNN_01296;dRep_bin107_EFNBPDOP_00511;dRep_bin077_DNNBMPMC_01864;dRep_bin066_AJACLPEE_01033;dRep_bin047_IFFANOMN_00697;dRep_bin135_HHKACLPM_00107;dRep_bin303_DDDNDJCF_00377;dRep_bin306_FGHMKMMP_01595;dRep_bin211_LGJEFJIK_00450;dRep_bin007_LNLEAAAN_01312;dRep_bin344_CJJBDGAA_01611;dRep_bin031_BNHMFOII_01628;dRep_bin353_PPDHLNJB_02118;dRep_bin254_GJDPFAEA_00869;dRep_bin094_LBLICAAO_00342;dRep_bin047_IFFANOMN_01357;dRep_bin120_EKLBOPNC_01832;dRep_bin168_HKDILBFE_01442;dRep_bin099_DNDAGJEJ_00392;dRep_bin215_ABBFGCAF_00798;dRep_bin029_LFMGBBEC_01628;dRep_bin240_LDBBGJKG_01094;dRep_bin279_IAEFEPEN_01491;dRep_bin130_OIFFANPF_01666;dRep_bin319_PBDBJGCJ_00268;dRep_bin017_FGFLFOPJ_00820;dRep_bin082_HBEFABJN_01328;dRep_bin245_MBCFLKOF_01762;dRep_bin027_OFJCHLJJ_00790;dRep_bin108_BPNCDINP_00911;dRep_bin308_JBPDGLPP_01750;dRep_bin193_GDMDPNNM_00480;dRep_bin344_CJJBDGAA_02078;dRep_bin049_MNFBDPNO_01413;dRep_bin096_GNHMEKPF_00097;dRep_bin104_EGLEJOLM_01934;dRep_bin339_DBNBAHDK_02499;dRep_bin321_EJNAAGJG_00755;dRep_bin273_FGAEBHNP_00835;dRep_bin250_NMCAMJIO_00087;dRep_bin247_EKGBJCBM_00317;dRep_bin148_NAJFKJMD_01189;dRep_bin337_FHKPNFDB_01633;dRep_bin320_LDBKCCKL_01786;dRep_bin304_JDNJGFKH_01982;dRep_bin286_OEMIJKMC_01141;dRep_bin231_CFOLMJBA_00953;dRep_bin162_JBGCCDIN_01636;dRep_bin126_PPDNCIBN_01067;dRep_bin109_MJABCPAK_00317;dRep_bin057_BNCFHBBO_00597;dRep_bin288_KOIAAABN_00012;dRep_bin263_OLEFOGIJ_00295;dRep_bin304_JDNJGFKH_00179;dRep_bin208_DHPGEIBC_00457;dRep_bin189_AHHEHGDL_01282;dRep_bin177_HLHGKLFL_00741;dRep_bin140_ACFAKGIL_00319;dRep_bin105_AAEIHAFF_01411;dRep_bin082_HBEFABJN_00692;dRep_bin010_MFFFGEGD_00717;dRep_bin005_CNDFPKJG_01705;dRep_bin287_DONBGKDH_01836;dRep_bin094_LBLICAAO_00388;dRep_bin058_GJKCICJN_00227;dRep_bin293_MEPKGOAN_00829;dRep_bin218_ACMPALGF_00229;dRep_bin205_LKIOOBKC_00417;dRep_bin172_ALNHGLMD_01439;dRep_bin159_ADJJGPBG_01342;dRep_bin143_PFLDJMPF_01248;dRep_bin101_BNDDLDCL_01982;dRep_bin091_MAFACGAD_01619;dRep_bin072_JOBJPCGA_00130;dRep_bin011_KOGMKLNO_01272;dRep_bin164_KHMELCCL_01402;dRep_bin305_FCIEFIHE_00371;dRep_bin222_GGCAJABB_00745;dRep_bin006_HPJGJCAG_01874;dRep_bin286_OEMIJKMC_01354;dRep_bin126_PPDNCIBN_00282;dRep_bin185_OOOLKACK_00819;dRep_bin043_KLAFNACO_00900;dRep_bin231_CFOLMJBA_01529;dRep_bin237_KJDLIPND_00869;dRep_bin147_EJLBNEBE_00138;dRep_bin186_HJAAFFNP_01790;dRep_bin081_JDPCKDNP_00172;dRep_bin069_EGGEOGDC_00890;dRep_bin282_PKAAPBFP_00016;dRep_bin206_OIIBOIAK_00984;dRep_bin161_JMKPMHCO_00782;dRep_bin278_BFCONKOE_00310;dRep_bin260_HELEPKJL_01944;dRep_bin336_MPGOKPOL_00897	dRep_bin203_CLFNNOCF_01682;dRep_bin347_EKGCMFPD_01504;dRep_bin284_DEHKNOBF_01057;dRep_bin260_HELEPKJL_00015;dRep_bin310_IMBAFDIF_00287;dRep_bin134_HIAPAODO_00846;dRep_bin062_BOFBFLDA_01435	>dRep_bin203_CLFNNOCF_01682 Glutamine synthetase;>dRep_bin347_EKGCMFPD_01504 Glutamine synthetase;>dRep_bin284_DEHKNOBF_01057 Glutamine synthetase;>dRep_bin260_HELEPKJL_00015 Glutamine synthetase;>dRep_bin310_IMBAFDIF_00287 Glutamine synthetase;>dRep_bin13	dRep_bin321_EJNAAGJG_00755	CDS	glnA	6.3.1.2	Glutamine synthetase
EJNAAGJG_00783								26.72949				2	1	9,0759E-07	dRep_bin293_MEPKGOAN_00097;dRep_bin047_IFFANOMN_00065;dRep_bin269_PNILGKPH_00704;dRep_bin238_OLNFACLE_01472;dRep_bin124_HIHDFGCL_00696;dRep_bin105_AAEIHAFF_01124;dRep_bin079_GAOGCKND_01577;dRep_bin056_EMNHHOJA_01381;dRep_bin321_EJNAAGJG_00783;dRep_bin257_JHFDCHCB_00230;dRep_bin143_PFLDJMPF_01136;dRep_bin340_OFLHNGJM_01032;dRep_bin277_MIPNGEJE_01470;dRep_bin231_CFOLMJBA_00061	dRep_bin293_MEPKGOAN_00097;dRep_bin047_IFFANOMN_00065;dRep_bin269_PNILGKPH_00704;dRep_bin238_OLNFACLE_01472;dRep_bin124_HIHDFGCL_00696;dRep_bin105_AAEIHAFF_01124;dRep_bin079_GAOGCKND_01577;dRep_bin056_EMNHHOJA_01381;dRep_bin321_EJNAAGJG_00783;dRep_bin257_JHFDCHCB_00230;dRep_bin143_PFLDJMPF_01136;dRep_bin340_OFLHNGJM_01032;dRep_bin277_MIPNGEJE_01470;dRep_bin231_CFOLMJBA_00061	>dRep_bin293_MEPKGOAN_00097 30S ribosomal protein S9;>dRep_bin047_IFFANOMN_00065 30S ribosomal protein S9;>dRep_bin269_PNILGKPH_00704 30S ribosomal protein S9;>dRep_bin238_OLNFACLE_01472 30S ribosomal protein S9;>dRep_bin124_HIHDFGCL_00696 30S ribosomal pr	dRep_bin321_EJNAAGJG_00783	CDS	rpsI		30S ribosomal protein S9
EJNAAGJG_00881	26.92999	25.83241	25.71151	26.27161								7	2	1,3576E-62	dRep_bin085_MBHLGCDB_01174;dRep_bin321_EJNAAGJG_00881	dRep_bin085_MBHLGCDB_01174;dRep_bin321_EJNAAGJG_00881	>dRep_bin085_MBHLGCDB_01174 GGGtGRT protein;>dRep_bin321_EJNAAGJG_00881 GGGtGRT protein	dRep_bin321_EJNAAGJG_00881	CDS			GGGtGRT protein
EJNAAGJG_00882					25.76729							6	0	4,3301E-298	dRep_bin253_CPMOAOBJ_00729;dRep_bin321_EJNAAGJG_00882;dRep_bin354_MMOALAFN_00452	dRep_bin253_CPMOAOBJ_00729	>dRep_bin253_CPMOAOBJ_00729 NifU_clost: FeS cluster assembly scaffold protein NifU	dRep_bin321_EJNAAGJG_00882	CDS			hypothetical protein
EJNAAGJG_00897	28.62954	29.354750000000003	29.992399999999996	30.023139999999998	30.21083	30.89937	29.70792	30.0531				20	3	1,2194E-156	dRep_bin191_NGFJMLOL_01259;dRep_bin296_FDMPKPOH_00205;dRep_bin210_AGEDAEIA_00766;dRep_bin195_DDMDFNOK_00108;dRep_bin334_NAPFFNLD_01038;dRep_bin211_LGJEFJIK_01419;dRep_bin295_EJGKDKNE_00091;dRep_bin341_NBEGOKEF_00239;dRep_bin020_JCCELPIE_00888;dRep_bin283_NLJJFFAC_01280;dRep_bin274_DBJHKLDG_00956;dRep_bin016_JLGAHGOJ_01458;dRep_bin108_BPNCDINP_01604;dRep_bin008_MNDMJLEI_00335;dRep_bin270_GEJAHNCN_01137;dRep_bin005_CNDFPKJG_01352;dRep_bin060_HNFNENOI_00669;dRep_bin146_LCCIBLJG_00571;dRep_bin326_CEEAIPKF_00877;dRep_bin333_EFOKIBLA_00153;dRep_bin168_HKDILBFE_01558;dRep_bin244_LBFMHLBI_01599;dRep_bin096_GNHMEKPF_00231;dRep_bin237_KJDLIPND_00220;dRep_bin188_EJILNMPE_01240;dRep_bin251_FGNGCJDD_00076;dRep_bin227_IJODGBOI_00103;dRep_bin151_AHBJLMBI_00923;dRep_bin116_CLFDBMOF_00729;dRep_bin141_GMCOOECB_00805;dRep_bin350_EKOOEEGH_00925;dRep_bin132_FAPBDCMG_00754;dRep_bin080_CBEBHNNK_00317;dRep_bin051_HIEIDCID_00971;dRep_bin228_CECEDMJG_00643;dRep_bin009_KMMEHEKA_00811;dRep_bin318_IEDEJOFJ_01292;dRep_bin207_OHNPDPFI_00717;dRep_bin345_GLPJDLOI_00471;dRep_bin144_NPHACCKF_01507;dRep_bin118_FGIOKLBC_00082;dRep_bin355_KJEFNADK_00986;dRep_bin293_MEPKGOAN_00544;dRep_bin230_NINMBMKB_00674;dRep_bin014_CHIHIMAN_00029;dRep_bin218_ACMPALGF_00178;dRep_bin165_HMDFFMMM_01108;dRep_bin094_LBLICAAO_00513;dRep_bin076_GLAOFBEC_01428;dRep_bin267_LJCFMAFA_00110;dRep_bin048_PABMBHAL_00321;dRep_bin147_EJLBNEBE_02032;dRep_bin128_JPBBHEMA_00007;dRep_bin042_MMFCLHOO_01063;dRep_bin351_CKFFBPHM_00913;dRep_bin123_PJKBFKBB_00095;dRep_bin330_CODAKHDJ_00708;dRep_bin252_NDAKLAGD_01294;dRep_bin233_BAGKKAOB_01574;dRep_bin217_MJCEAEPB_00244;dRep_bin110_JGOEJECF_00272;dRep_bin109_MJABCPAK_00670;dRep_bin101_BNDDLDCL_01055;dRep_bin092_OOJCPDEA_00344;dRep_bin074_EHAOMODJ_00824;dRep_bin336_MPGOKPOL_02107;dRep_bin290_OIOJKBNK_01058;dRep_bin264_DNFFGNEG_00269;dRep_bin256_KEMNAOBC_01330;dRep_bin246_MMFBABHK_01553;dRep_bin166_DFIAJFEC_00041;dRep_bin153_JGABJFBF_00098;dRep_bin143_PFLDJMPF_00060;dRep_bin106_BKDHGPBE_01156;dRep_bin071_JHMCIJPE_01039;dRep_bin250_NMCAMJIO_00472;dRep_bin312_MJFEFHMP_01194;dRep_bin194_MEPDOGGJ_00657;dRep_bin129_GADIAMAA_01832;dRep_bin061_ONFGDLGO_01341;dRep_bin030_OGPDLGOC_01109;dRep_bin025_CBEJJMLE_00255;dRep_bin223_PIMCDKJI_01311;dRep_bin204_INMOGLDN_00399;dRep_bin202_HEPPALPH_00661;dRep_bin105_AAEIHAFF_01590;dRep_bin056_EMNHHOJA_01586;dRep_bin174_LJJOKEME_01552;dRep_bin057_BNCFHBBO_00981;dRep_bin348_LCLFDNEE_01410;dRep_bin339_DBNBAHDK_00024;dRep_bin321_EJNAAGJG_00897;dRep_bin273_FGAEBHNP_01096;dRep_bin248_CCDFPECI_01765;dRep_bin124_HIHDFGCL_01059;dRep_bin068_ENOLAELK_01049;dRep_bin038_EIGFILKG_00020;dRep_bin276_EHNFLEBP_00417;dRep_bin152_LJMCIADF_00769;dRep_bin115_IFKGOGCL_00005;dRep_bin099_DNDAGJEJ_00435;dRep_bin085_MBHLGCDB_01722;dRep_bin079_GAOGCKND_00892;dRep_bin026_HNPIIINL_00985;dRep_bin353_PPDHLNJB_01438;dRep_bin319_PBDBJGCJ_01331;dRep_bin291_EILOACJB_00194;dRep_bin241_LMMMGDNI_00361;dRep_bin091_MAFACGAD_00751;dRep_bin303_DDDNDJCF_01255;dRep_bin216_JNJMCPHB_01481;dRep_bin184_MBMMJHKO_01167;dRep_bin161_JMKPMHCO_00103;dRep_bin021_AJDDCGJC_01597;dRep_bin095_HOBNOEEF_00033;dRep_bin059_OOBKFNPP_00633;dRep_bin018_ILOONPIC_00093;dRep_bin306_FGHMKMMP_00476;dRep_bin175_HANCENAK_00082;dRep_bin040_EIFLLDOA_01832;dRep_bin166_DFIAJFEC_00288;dRep_bin085_MBHLGCDB_01583	dRep_bin191_NGFJMLOL_01259	>dRep_bin191_NGFJMLOL_01259 Aspartate--tRNA ligase	dRep_bin321_EJNAAGJG_00897	CDS	aspS	6.1.1.12	Aspartate--tRNA ligase
EJNAAGJG_00978							24.95757	24.02149				6	1	7,2707E-47	dRep_bin248_CCDFPECI_01517;dRep_bin095_HOBNOEEF_01190;dRep_bin269_PNILGKPH_01796;dRep_bin240_LDBBGJKG_00146;dRep_bin225_FLBKEJIP_00866;dRep_bin100_CODMOHGB_00292;dRep_bin044_IPFKHAEF_00946;dRep_bin325_EIIGOGHN_00062;dRep_bin091_MAFACGAD_01165;dRep_bin016_JLGAHGOJ_00453;dRep_bin211_LGJEFJIK_00348;dRep_bin135_HHKACLPM_00457;dRep_bin075_EPEMMOCL_00485;dRep_bin306_FGHMKMMP_00321;dRep_bin107_EFNBPDOP_00109;dRep_bin077_DNNBMPMC_01424;dRep_bin282_PKAAPBFP_00462;dRep_bin181_MKGPMPIA_00362;dRep_bin349_AMCJEEEG_00053;dRep_bin286_OEMIJKMC_00055;dRep_bin231_CFOLMJBA_01056;dRep_bin182_EMCFODCD_00166;dRep_bin172_ALNHGLMD_00138;dRep_bin270_GEJAHNCN_00840;dRep_bin169_PNICKJKO_00787;dRep_bin085_MBHLGCDB_00687;dRep_bin143_PFLDJMPF_00820;dRep_bin074_EHAOMODJ_01303;dRep_bin059_OOBKFNPP_00785;dRep_bin005_CNDFPKJG_00735;dRep_bin299_AKNBKJGM_01258;dRep_bin321_EJNAAGJG_00978;dRep_bin273_FGAEBHNP_00355;dRep_bin049_MNFBDPNO_01410	dRep_bin248_CCDFPECI_01517;dRep_bin095_HOBNOEEF_01190;dRep_bin269_PNILGKPH_01796;dRep_bin240_LDBBGJKG_00146	>dRep_bin248_CCDFPECI_01517 DNA-directed RNA polymerase subunit alpha;>dRep_bin095_HOBNOEEF_01190 DNA-directed RNA polymerase subunit alpha;>dRep_bin269_PNILGKPH_01796 DNA-directed RNA polymerase subunit alpha;>dRep_bin240_LDBBGJKG_00146 DNA-directed RNA p	dRep_bin321_EJNAAGJG_00978	CDS	rpoA	2.7.7.6	DNA-directed RNA polymerase subunit alpha
EJNAAGJG_00981								23.49826				6	1	4,9058E-104	dRep_bin095_HOBNOEEF_02007;dRep_bin297_EDHEEICA_00996;dRep_bin287_DONBGKDH_00529;dRep_bin203_CLFNNOCF_02530;dRep_bin145_KMJJJOEJ_00745;dRep_bin328_GIGKNKPJ_01323;dRep_bin308_JBPDGLPP_01130;dRep_bin306_FGHMKMMP_00318;dRep_bin282_PKAAPBFP_00465;dRep_bin211_LGJEFJIK_00345;dRep_bin139_KGAJINND_00945;dRep_bin127_FIPNHBCH_00052;dRep_bin095_HOBNOEEF_01888;dRep_bin095_HOBNOEEF_01790;dRep_bin091_MAFACGAD_01162;dRep_bin088_DNGPPFDK_00714;dRep_bin075_EPEMMOCL_00488;dRep_bin134_HIAPAODO_00290;dRep_bin160_EFKMPBOM_01967;dRep_bin154_JGOKHKLI_00778;dRep_bin016_JLGAHGOJ_00450;dRep_bin221_LMGNIMOJ_00494;dRep_bin262_LLCGOPIE_00946;dRep_bin321_EJNAAGJG_00981;dRep_bin310_IMBAFDIF_00300;dRep_bin250_NMCAMJIO_00649;dRep_bin247_EKGBJCBM_00054;dRep_bin143_PFLDJMPF_00817;dRep_bin124_HIHDFGCL_01300;dRep_bin114_FJHJKHGL_01242;dRep_bin105_AAEIHAFF_01720;dRep_bin074_EHAOMODJ_01300;dRep_bin026_HNPIIINL_00948;dRep_bin177_HLHGKLFL_00479;dRep_bin146_LCCIBLJG_00787;dRep_bin005_CNDFPKJG_00738;dRep_bin325_EIIGOGHN_00065;dRep_bin303_DDDNDJCF_01078;dRep_bin266_JFOCEDAE_00989;dRep_bin181_MKGPMPIA_00365;dRep_bin089_PAJFOJBN_02097;dRep_bin047_IFFANOMN_00393;dRep_bin024_OLHDGABE_01301;dRep_bin023_HGFJFKAI_01284;dRep_bin017_FGFLFOPJ_00125;dRep_bin081_JDPCKDNP_01256;dRep_bin065_DFABHCBI_01254;dRep_bin001_GHHJMDAL_01184	dRep_bin095_HOBNOEEF_02007;dRep_bin297_EDHEEICA_00996;dRep_bin287_DONBGKDH_00529;dRep_bin203_CLFNNOCF_02530;dRep_bin145_KMJJJOEJ_00745;dRep_bin328_GIGKNKPJ_01323;dRep_bin308_JBPDGLPP_01130;dRep_bin306_FGHMKMMP_00318;dRep_bin282_PKAAPBFP_00465;dRep_bin211_LGJEFJIK_00345;dRep_bin139_KGAJINND_00945;dRep_bin127_FIPNHBCH_00052;dRep_bin095_HOBNOEEF_01888;dRep_bin095_HOBNOEEF_01790;dRep_bin091_MAFACGAD_01162;dRep_bin088_DNGPPFDK_00714;dRep_bin075_EPEMMOCL_00488;dRep_bin134_HIAPAODO_00290;dRep_bin160_EFKMPBOM_01967;dRep_bin154_JGOKHKLI_00778;dRep_bin016_JLGAHGOJ_00450;dRep_bin221_LMGNIMOJ_00494	>dRep_bin095_HOBNOEEF_02007 30S ribosomal protein S13;>dRep_bin297_EDHEEICA_00996 30S ribosomal protein S13;>dRep_bin287_DONBGKDH_00529 30S ribosomal protein S13;>dRep_bin203_CLFNNOCF_02530 30S ribosomal protein S13;>dRep_bin145_KMJJJOEJ_00745 30S ribosoma	dRep_bin321_EJNAAGJG_00981	CDS	rpsM		30S ribosomal protein S13
EJNAAGJG_01009				26.88948								3	2	2,6618E-09	dRep_bin336_MPGOKPOL_02174;dRep_bin321_EJNAAGJG_01009	dRep_bin336_MPGOKPOL_02174	>dRep_bin336_MPGOKPOL_02174 30S ribosomal protein S19	dRep_bin321_EJNAAGJG_01009	CDS	rpsS		30S ribosomal protein S19
EJNAAGJG_01011					26.86136	26.749319999999997	26.92739	26.71516				3	0	5,3736E-34	dRep_bin347_EKGCMFPD_01103;dRep_bin081_JDPCKDNP_01236;dRep_bin176_DLEJNGKN_01638;dRep_bin003_GOBBLOGO_01252;dRep_bin109_MJABCPAK_00929;dRep_bin339_DBNBAHDK_00857;dRep_bin169_PNICKJKO_00809;dRep_bin321_EJNAAGJG_01011	dRep_bin347_EKGCMFPD_01103;dRep_bin081_JDPCKDNP_01236	>dRep_bin347_EKGCMFPD_01103 30S ribosomal protein S3;>dRep_bin081_JDPCKDNP_01236 30S ribosomal protein S3	dRep_bin321_EJNAAGJG_01011	CDS	rpsC		30S ribosomal protein S3
EJNAAGJG_01026		23.23771	23.20127									2	1	0,00017256	dRep_bin035_JBNPBOKG_01195;dRep_bin126_PPDNCIBN_01018;dRep_bin305_FCIEFIHE_00446;dRep_bin231_CFOLMJBA_01036;dRep_bin114_FJHJKHGL_01424;dRep_bin105_AAEIHAFF_01699;dRep_bin268_LKMHIMLG_01117;dRep_bin031_BNHMFOII_01346;dRep_bin321_EJNAAGJG_01026;dRep_bin324_IPNHOHFK_01645;dRep_bin236_BNONDECB_01150;dRep_bin055_IBMMJAEE_00573;dRep_bin340_OFLHNGJM_00320;dRep_bin076_GLAOFBEC_01385;dRep_bin343_JCMCKBGF_00786	dRep_bin035_JBNPBOKG_01195;dRep_bin126_PPDNCIBN_01018;dRep_bin305_FCIEFIHE_00446;dRep_bin231_CFOLMJBA_01036;dRep_bin114_FJHJKHGL_01424;dRep_bin105_AAEIHAFF_01699;dRep_bin268_LKMHIMLG_01117;dRep_bin031_BNHMFOII_01346;dRep_bin321_EJNAAGJG_01026;dRep_bin324_IPNHOHFK_01645;dRep_bin236_BNONDECB_01150;dRep_bin055_IBMMJAEE_00573;dRep_bin340_OFLHNGJM_00320;dRep_bin076_GLAOFBEC_01385;dRep_bin343_JCMCKBGF_00786	>dRep_bin035_JBNPBOKG_01195 Pseudouridine-5-phosphate glycosidase;>dRep_bin126_PPDNCIBN_01018 Pseudouridine-5-phosphate glycosidase;>dRep_bin305_FCIEFIHE_00446 Pseudouridine-5-phosphate glycosidase;>dRep_bin231_CFOLMJBA_01036 Pseudouridine-5-phosphate	dRep_bin321_EJNAAGJG_01026	CDS	psuG	4.2.1.70	Pseudouridine-5'-phosphate glycosidase
EJNAAGJG_01053	26.409309999999998	26.73518	27.015850000000004	25.91205								4	2	1,2093E-20	dRep_bin336_MPGOKPOL_00896;dRep_bin147_EJLBNEBE_00136;dRep_bin085_MBHLGCDB_00357;dRep_bin238_OLNFACLE_01925;dRep_bin339_DBNBAHDK_02208;dRep_bin262_LLCGOPIE_00576;dRep_bin332_KAOPCDPF_00403;dRep_bin321_EJNAAGJG_01053;dRep_bin186_HJAAFFNP_01167;dRep_bin158_OGFICEAP_01582;dRep_bin145_KMJJJOEJ_00451;dRep_bin295_EJGKDKNE_00688;dRep_bin243_JDMELKLC_00439;dRep_bin194_MEPDOGGJ_00203;dRep_bin152_LJMCIADF_01105;dRep_bin101_BNDDLDCL_00447;dRep_bin079_GAOGCKND_00351;dRep_bin068_ENOLAELK_00629;dRep_bin026_HNPIIINL_01484;dRep_bin025_CBEJJMLE_00462;dRep_bin125_FADLGGII_01452;dRep_bin123_PJKBFKBB_00308;dRep_bin354_MMOALAFN_00213;dRep_bin248_CCDFPECI_00809;dRep_bin268_LKMHIMLG_00072;dRep_bin090_IPGNHCBJ_01072	dRep_bin336_MPGOKPOL_00896;dRep_bin147_EJLBNEBE_00136;dRep_bin085_MBHLGCDB_00357	>dRep_bin336_MPGOKPOL_00896 Serine hydroxymethyltransferase;>dRep_bin147_EJLBNEBE_00136 Serine hydroxymethyltransferase;>dRep_bin085_MBHLGCDB_00357 Serine hydroxymethyltransferase	dRep_bin321_EJNAAGJG_01053	CDS	glyA	2.1.2.1	Serine hydroxymethyltransferase
EJNAAGJG_01095	27.95992	27.53675	28.110980000000005	28.09461	27.6766	27.06682	26.21967	26.786189999999998				25	2	1,8414E-234	dRep_bin321_EJNAAGJG_01095	dRep_bin321_EJNAAGJG_01095	>dRep_bin321_EJNAAGJG_01095 Pyruvate, phosphate dikinase	dRep_bin321_EJNAAGJG_01095	CDS	ppdK	2.7.9.1	Pyruvate, phosphate dikinase
