GBprotID	LFQ intensity CtrPig1	LFQ intensity CtrPig2	LFQ intensity CtrPig3	LFQ intensity CtrPig4	LFQ intensity MannanPig1	LFQ intensity MannanPig2	LFQ intensity MannanPig3	LFQ intensity MannanPig4	Only identified by site	Reverse	Contaminant	Peptides	Unique peptides	PEP	Protein IDs	Majority protein IDs	Fasta headers	IDcomb	ftype	gene	EC_number	product
LIGGOPOO_00101	26.55808	25.728579999999997	27.663970000000003	28.881539999999998	26.10009			25.80169				5	3	4,1196E-32	dRep_bin317_ABPHNCOD_00391;dRep_bin216_JNJMCPHB_00032;dRep_bin272_LGBDGEIM_00936;dRep_bin299_AKNBKJGM_01135;dRep_bin342_BMMENEMP_00952;dRep_bin338_LIGGOPOO_00101;dRep_bin350_EKOOEEGH_01199;dRep_bin334_NAPFFNLD_00299;dRep_bin274_DBJHKLDG_01757;dRep_bin195_DDMDFNOK_01686;dRep_bin150_HCDEOBMH_00601;dRep_bin060_HNFNENOI_01597	dRep_bin317_ABPHNCOD_00391;dRep_bin216_JNJMCPHB_00032;dRep_bin272_LGBDGEIM_00936;dRep_bin299_AKNBKJGM_01135	>dRep_bin317_ABPHNCOD_00391 30S ribosomal protein S7;>dRep_bin216_JNJMCPHB_00032 30S ribosomal protein S7;>dRep_bin272_LGBDGEIM_00936 30S ribosomal protein S7;>dRep_bin299_AKNBKJGM_01135 30S ribosomal protein S7	dRep_bin338_LIGGOPOO_00101	CDS	rpsG		30S ribosomal protein S7
LIGGOPOO_00200						27.09315						1	1	0,00032988	dRep_bin338_LIGGOPOO_00200	dRep_bin338_LIGGOPOO_00200	>dRep_bin338_LIGGOPOO_00200 Chaperone protein HtpG	dRep_bin338_LIGGOPOO_00200	CDS	htpG		Chaperone protein HtpG
LIGGOPOO_00318			24.966489999999997									1	1	0,0023649	dRep_bin338_LIGGOPOO_00318	dRep_bin338_LIGGOPOO_00318	>dRep_bin338_LIGGOPOO_00318 Long-chain-fatty-acid--CoA ligase FadD15	dRep_bin338_LIGGOPOO_00318	CDS		6.2.1.3	Long-chain-fatty-acid--CoA ligase FadD15
LIGGOPOO_00655	30.858980000000003	30.89208	30.884890000000002	31.59103	31.281129999999997	31.72976	30.253719999999998	31.013050000000003				19	5	0	dRep_bin292_JIBLDOOH_01851;dRep_bin157_JPNIKEKI_01944;dRep_bin338_LIGGOPOO_00655	dRep_bin292_JIBLDOOH_01851	>dRep_bin292_JIBLDOOH_01851 Phosphoglycerate kinase	dRep_bin338_LIGGOPOO_00655	CDS	pgk	2.7.2.3	Phosphoglycerate kinase
LIGGOPOO_00926	27.26015	25.316650000000003	25.21934	25.178050000000002	24.46986	23.69943	24.17341	23.32965				1	1	0,0030614	dRep_bin338_LIGGOPOO_00926	dRep_bin338_LIGGOPOO_00926	>dRep_bin338_LIGGOPOO_00926 Enolase	dRep_bin338_LIGGOPOO_00926	CDS	eno	4.2.1.11	Enolase
LIGGOPOO_00933					25.54058							2	1	2,3973E-05	dRep_bin175_HANCENAK_00229;dRep_bin338_LIGGOPOO_00933	dRep_bin175_HANCENAK_00229;dRep_bin338_LIGGOPOO_00933	>dRep_bin175_HANCENAK_00229 Peptide chain release factor 1;>dRep_bin338_LIGGOPOO_00933 Peptide chain release factor 1	dRep_bin338_LIGGOPOO_00933	CDS	prfA		Peptide chain release factor 1
LIGGOPOO_01139		20.79392										17	1	1,1015E-126	dRep_bin047_IFFANOMN_01218;dRep_bin338_LIGGOPOO_01139	dRep_bin047_IFFANOMN_01218	>dRep_bin047_IFFANOMN_01218 Elongation factor G	dRep_bin338_LIGGOPOO_01139	CDS	fusA		Elongation factor G
