GBprotID	LFQ intensity CtrPig1	LFQ intensity CtrPig2	LFQ intensity CtrPig3	LFQ intensity CtrPig4	LFQ intensity MannanPig1	LFQ intensity MannanPig2	LFQ intensity MannanPig3	LFQ intensity MannanPig4	Only identified by site	Reverse	Contaminant	Peptides	Unique peptides	PEP	Protein IDs	Majority protein IDs	Fasta headers	IDcomb	ftype	gene	EC_number	product
OFLHNGJM_00151		27.12159	24.495339999999995	24.9574			27.27994					2	2	8,6807E-08	dRep_bin340_OFLHNGJM_00151	dRep_bin340_OFLHNGJM_00151	>dRep_bin340_OFLHNGJM_00151 Thioredoxin reductase	dRep_bin340_OFLHNGJM_00151	CDS	trxB	1.8.1.9	Thioredoxin reductase
OFLHNGJM_00165	25.227619999999998	24.27618	25.065709999999996	24.837160000000004	24.382779999999997	23.67303	26.97585	25.681910000000002				5	4	3,3275E-13	dRep_bin340_OFLHNGJM_00165	dRep_bin340_OFLHNGJM_00165	>dRep_bin340_OFLHNGJM_00165 Acryloyl-CoA reductase electron transfer subunit beta	dRep_bin340_OFLHNGJM_00165	CDS	acrA		Acryloyl-CoA reductase electron transfer subunit beta
OFLHNGJM_00166	25.295579999999998	24.66014	25.79432	24.8307								2	1	2,966E-30	dRep_bin340_OFLHNGJM_00166	dRep_bin340_OFLHNGJM_00166	>dRep_bin340_OFLHNGJM_00166 Acryloyl-CoA reductase electron transfer subunit gamma	dRep_bin340_OFLHNGJM_00166	CDS	acrB		Acryloyl-CoA reductase electron transfer subunit gamma
OFLHNGJM_00167	27.3803	26.87631	27.483389999999996	26.075699999999998	27.38747	25.259870000000003	25.93225	24.67654				6	4	5,0109E-22	dRep_bin340_OFLHNGJM_00167;dRep_bin006_HPJGJCAG_00913;dRep_bin144_NPHACCKF_01284	dRep_bin340_OFLHNGJM_00167	>dRep_bin340_OFLHNGJM_00167 Acyl-CoA dehydrogenase, short-chain specific	dRep_bin340_OFLHNGJM_00167	CDS	bcd	1.3.8.1	Acyl-CoA dehydrogenase, short-chain specific
OFLHNGJM_00168							26.631870000000006					1	1	1,9755E-25	dRep_bin340_OFLHNGJM_00168	dRep_bin340_OFLHNGJM_00168	>dRep_bin340_OFLHNGJM_00168 3-hydroxybutyryl-CoA dehydrogenase	dRep_bin340_OFLHNGJM_00168	CDS	hbd	1.1.1.157	3-hydroxybutyryl-CoA dehydrogenase
OFLHNGJM_00182	26.994529999999997	27.04635	26.75519	26.53826								7	2	0	dRep_bin100_CODMOHGB_01258;dRep_bin305_FCIEFIHE_01434;dRep_bin340_OFLHNGJM_00182	dRep_bin100_CODMOHGB_01258	>dRep_bin100_CODMOHGB_01258 hypothetical protein	dRep_bin340_OFLHNGJM_00182	CDS			NifU_clost: FeS cluster assembly scaffold protein NifU
OFLHNGJM_00213			27.31043	26.39203								3	2	3,8362E-11	dRep_bin225_FLBKEJIP_00845;dRep_bin340_OFLHNGJM_00213;dRep_bin268_LKMHIMLG_01466	dRep_bin225_FLBKEJIP_00845	>dRep_bin225_FLBKEJIP_00845 30S ribosomal protein S19	dRep_bin340_OFLHNGJM_00213	CDS	rpsS_1		30S ribosomal protein S19
OFLHNGJM_00320		23.23771	23.20127									2	1	0,00017256	dRep_bin035_JBNPBOKG_01195;dRep_bin126_PPDNCIBN_01018;dRep_bin305_FCIEFIHE_00446;dRep_bin231_CFOLMJBA_01036;dRep_bin114_FJHJKHGL_01424;dRep_bin105_AAEIHAFF_01699;dRep_bin268_LKMHIMLG_01117;dRep_bin031_BNHMFOII_01346;dRep_bin321_EJNAAGJG_01026;dRep_bin324_IPNHOHFK_01645;dRep_bin236_BNONDECB_01150;dRep_bin055_IBMMJAEE_00573;dRep_bin340_OFLHNGJM_00320;dRep_bin076_GLAOFBEC_01385;dRep_bin343_JCMCKBGF_00786	dRep_bin035_JBNPBOKG_01195;dRep_bin126_PPDNCIBN_01018;dRep_bin305_FCIEFIHE_00446;dRep_bin231_CFOLMJBA_01036;dRep_bin114_FJHJKHGL_01424;dRep_bin105_AAEIHAFF_01699;dRep_bin268_LKMHIMLG_01117;dRep_bin031_BNHMFOII_01346;dRep_bin321_EJNAAGJG_01026;dRep_bin324_IPNHOHFK_01645;dRep_bin236_BNONDECB_01150;dRep_bin055_IBMMJAEE_00573;dRep_bin340_OFLHNGJM_00320;dRep_bin076_GLAOFBEC_01385;dRep_bin343_JCMCKBGF_00786	>dRep_bin035_JBNPBOKG_01195 Pseudouridine-5-phosphate glycosidase;>dRep_bin126_PPDNCIBN_01018 Pseudouridine-5-phosphate glycosidase;>dRep_bin305_FCIEFIHE_00446 Pseudouridine-5-phosphate glycosidase;>dRep_bin231_CFOLMJBA_01036 Pseudouridine-5-phosphate	dRep_bin340_OFLHNGJM_00320	CDS	psuG	4.2.1.70	Pseudouridine-5'-phosphate glycosidase
OFLHNGJM_00487				24.5464								17	1	6,1967E-216	dRep_bin042_MMFCLHOO_01387;dRep_bin340_OFLHNGJM_00487	dRep_bin042_MMFCLHOO_01387	>dRep_bin042_MMFCLHOO_01387 Elongation factor Tu	dRep_bin340_OFLHNGJM_00487	CDS	tuf		Elongation factor Tu
OFLHNGJM_00494			22.47422									1	1	0,0056733	dRep_bin340_OFLHNGJM_00494	dRep_bin340_OFLHNGJM_00494	>dRep_bin340_OFLHNGJM_00494 Butyrate--acetoacetate CoA-transferase subunit B	dRep_bin340_OFLHNGJM_00494	CDS	ctfB	2.8.3.9	Butyrate--acetoacetate CoA-transferase subunit B
OFLHNGJM_00495							25.47175					1	1	5,0394E-06	dRep_bin340_OFLHNGJM_00495	dRep_bin340_OFLHNGJM_00495	>dRep_bin340_OFLHNGJM_00495 Acetate CoA-transferase subunit alpha	dRep_bin340_OFLHNGJM_00495	CDS	atoD	2.8.3.8	Acetate CoA-transferase subunit alpha
OFLHNGJM_00496	23.85519	22.47289	23.066019999999998		23.73913	22.47615	25.05304	23.209880000000002				2	2	2,8942E-25	dRep_bin340_OFLHNGJM_00496;dRep_bin247_EKGBJCBM_01506	dRep_bin340_OFLHNGJM_00496;dRep_bin247_EKGBJCBM_01506	>dRep_bin340_OFLHNGJM_00496 D-lysine 5,6-aminomutase beta subunit;>dRep_bin247_EKGBJCBM_01506 D-lysine 5,6-aminomutase beta subunit	dRep_bin340_OFLHNGJM_00496	CDS	kamE	5.4.3.4	D-lysine 5,6-aminomutase beta subunit
OFLHNGJM_00497	25.722759999999997	24.70409	24.65671	23.69848	24.6184	24.022419999999997	25.777060000000002	25.219450000000002				6	5	2,6395E-31	dRep_bin247_EKGBJCBM_01505;dRep_bin340_OFLHNGJM_00497;dRep_bin114_FJHJKHGL_01005;dRep_bin110_JGOEJECF_00955;dRep_bin218_ACMPALGF_00322;dRep_bin345_GLPJDLOI_01136;dRep_bin040_EIFLLDOA_00874	dRep_bin247_EKGBJCBM_01505;dRep_bin340_OFLHNGJM_00497;dRep_bin114_FJHJKHGL_01005	>dRep_bin247_EKGBJCBM_01505 L-beta-lysine 5,6-aminomutase alpha subunit;>dRep_bin340_OFLHNGJM_00497 D-lysine 5,6-aminomutase alpha subunit;>dRep_bin114_FJHJKHGL_01005 L-beta-lysine 5,6-aminomutase alpha subunit	dRep_bin340_OFLHNGJM_00497	CDS	kamD	5.4.3.4	D-lysine 5,6-aminomutase alpha subunit
OFLHNGJM_00522	27.22656	25.469639999999995	27.139560000000003	26.76989								3	0	2,5341E-17	dRep_bin074_EHAOMODJ_00357;dRep_bin335_JIOGNAPG_00060;dRep_bin234_ECABPBME_00543;dRep_bin185_OOOLKACK_00415;dRep_bin095_HOBNOEEF_01010;dRep_bin194_MEPDOGGJ_00068;dRep_bin025_CBEJJMLE_00034;dRep_bin282_PKAAPBFP_01136;dRep_bin260_HELEPKJL_01581;dRep_bin135_HHKACLPM_00020;dRep_bin047_IFFANOMN_01119;dRep_bin049_MNFBDPNO_00067;dRep_bin268_LKMHIMLG_00651;dRep_bin303_DDDNDJCF_00095;dRep_bin248_CCDFPECI_00722;dRep_bin243_JDMELKLC_00605;dRep_bin340_OFLHNGJM_00522;dRep_bin109_MJABCPAK_00884;dRep_bin087_FCLGAPPI_00696;dRep_bin160_EFKMPBOM_01056;dRep_bin154_JGOKHKLI_00096;dRep_bin354_MMOALAFN_01723;dRep_bin349_AMCJEEEG_01213;dRep_bin116_CLFDBMOF_00907;dRep_bin347_EKGCMFPD_01393;dRep_bin001_GHHJMDAL_01273;dRep_bin247_EKGBJCBM_00529;dRep_bin254_GJDPFAEA_00457;dRep_bin145_KMJJJOEJ_01456;dRep_bin322_OJELOJOF_01191;dRep_bin336_MPGOKPOL_00223;dRep_bin147_EJLBNEBE_01602;dRep_bin134_HIAPAODO_02129;dRep_bin062_BOFBFLDA_00221;dRep_bin332_KAOPCDPF_00824;dRep_bin253_CPMOAOBJ_01534;dRep_bin114_FJHJKHGL_01331;dRep_bin352_KFNHGNFC_00409;dRep_bin192_GCMBELNN_00663;dRep_bin187_CLPDGDBG_00783	dRep_bin074_EHAOMODJ_00357;dRep_bin335_JIOGNAPG_00060;dRep_bin234_ECABPBME_00543;dRep_bin185_OOOLKACK_00415;dRep_bin095_HOBNOEEF_01010;dRep_bin194_MEPDOGGJ_00068;dRep_bin025_CBEJJMLE_00034;dRep_bin282_PKAAPBFP_01136;dRep_bin260_HELEPKJL_01581;dRep_bin135_HHKACLPM_00020;dRep_bin047_IFFANOMN_01119;dRep_bin049_MNFBDPNO_00067;dRep_bin268_LKMHIMLG_00651;dRep_bin303_DDDNDJCF_00095;dRep_bin248_CCDFPECI_00722;dRep_bin243_JDMELKLC_00605;dRep_bin340_OFLHNGJM_00522;dRep_bin109_MJABCPAK_00884;dRep_bin087_FCLGAPPI_00696;dRep_bin160_EFKMPBOM_01056;dRep_bin154_JGOKHKLI_00096;dRep_bin354_MMOALAFN_01723	>dRep_bin074_EHAOMODJ_00357 Glutamate synthase [NADPH] small chain;>dRep_bin335_JIOGNAPG_00060 Glutamate synthase [NADPH] small chain;>dRep_bin234_ECABPBME_00543 Glutamate synthase [NADPH] small chain;>dRep_bin185_OOOLKACK_00415 Glutamate synthase [NADPH]	dRep_bin340_OFLHNGJM_00522	CDS	gltD	1.4.1.13	Glutamate synthase [NADPH] small chain
OFLHNGJM_00544								23.413639999999997				1	1	1,6824E-17	dRep_bin340_OFLHNGJM_00544;dRep_bin172_ALNHGLMD_01419;dRep_bin164_KHMELCCL_00915;dRep_bin148_NAJFKJMD_00379;dRep_bin029_LFMGBBEC_00860	dRep_bin340_OFLHNGJM_00544;dRep_bin172_ALNHGLMD_01419;dRep_bin164_KHMELCCL_00915;dRep_bin148_NAJFKJMD_00379;dRep_bin029_LFMGBBEC_00860	>dRep_bin340_OFLHNGJM_00544 putative zinc-ribbon domain protein;>dRep_bin172_ALNHGLMD_01419 putative zinc-ribbon domain protein;>dRep_bin164_KHMELCCL_00915 putative zinc-ribbon domain protein;>dRep_bin148_NAJFKJMD_00379 putative zinc-ribbon domain protein;	dRep_bin340_OFLHNGJM_00544	CDS			putative zinc-ribbon domain protein
OFLHNGJM_00549	26.21356		25.671280000000003									2	2	4,7222E-07	dRep_bin006_HPJGJCAG_01240;dRep_bin182_EMCFODCD_00820;dRep_bin170_LICLFCFF_01229;dRep_bin305_FCIEFIHE_01069;dRep_bin014_CHIHIMAN_01666;dRep_bin339_DBNBAHDK_01473;dRep_bin152_LJMCIADF_00377;dRep_bin056_EMNHHOJA_01634;dRep_bin340_OFLHNGJM_00549;dRep_bin105_AAEIHAFF_01471;dRep_bin349_AMCJEEEG_01021;dRep_bin071_JHMCIJPE_00244;dRep_bin290_OIOJKBNK_00925;dRep_bin256_KEMNAOBC_00667;dRep_bin092_OOJCPDEA_00173;dRep_bin035_JBNPBOKG_00111;dRep_bin346_JKFDGFHC_01406;dRep_bin289_KALDCNNP_00852;dRep_bin224_NFENHJGB_00838;dRep_bin128_JPBBHEMA_00685;dRep_bin063_PJANDMAH_01585;dRep_bin036_DOKCEIDH_00293;dRep_bin034_MEBMFDLL_01420;dRep_bin285_IPHKFJAN_00040;dRep_bin271_NGFBCHKH_01233;dRep_bin232_JGAEDAFA_00411;dRep_bin137_NABPABPB_00329;dRep_bin113_LIFKCGBF_01779;dRep_bin064_CMDDCDKG_00556;dRep_bin002_CFBNDKDN_00103;dRep_bin045_GJACFFBC_00424;dRep_bin183_FPGIOKBG_00003;dRep_bin316_FNLHDNEO_01144;dRep_bin018_ILOONPIC_00045;dRep_bin076_GLAOFBEC_00013	dRep_bin006_HPJGJCAG_01240;dRep_bin182_EMCFODCD_00820;dRep_bin170_LICLFCFF_01229;dRep_bin305_FCIEFIHE_01069;dRep_bin014_CHIHIMAN_01666;dRep_bin339_DBNBAHDK_01473;dRep_bin152_LJMCIADF_00377;dRep_bin056_EMNHHOJA_01634;dRep_bin340_OFLHNGJM_00549;dRep_bin105_AAEIHAFF_01471;dRep_bin349_AMCJEEEG_01021;dRep_bin071_JHMCIJPE_00244;dRep_bin290_OIOJKBNK_00925;dRep_bin256_KEMNAOBC_00667;dRep_bin092_OOJCPDEA_00173;dRep_bin035_JBNPBOKG_00111;dRep_bin346_JKFDGFHC_01406;dRep_bin289_KALDCNNP_00852;dRep_bin224_NFENHJGB_00838;dRep_bin128_JPBBHEMA_00685;dRep_bin063_PJANDMAH_01585;dRep_bin036_DOKCEIDH_00293;dRep_bin034_MEBMFDLL_01420;dRep_bin285_IPHKFJAN_00040;dRep_bin271_NGFBCHKH_01233;dRep_bin232_JGAEDAFA_00411;dRep_bin137_NABPABPB_00329;dRep_bin113_LIFKCGBF_01779;dRep_bin064_CMDDCDKG_00556;dRep_bin002_CFBNDKDN_00103;dRep_bin045_GJACFFBC_00424;dRep_bin183_FPGIOKBG_00003;dRep_bin316_FNLHDNEO_01144;dRep_bin018_ILOONPIC_00045;dRep_bin076_GLAOFBEC_00013	>dRep_bin006_HPJGJCAG_01240 Putative K(+)-stimulated pyrophosphate-energized sodium pump;>dRep_bin182_EMCFODCD_00820 Putative K(+)-stimulated pyrophosphate-energized sodium pump;>dRep_bin170_LICLFCFF_01229 Putative K(+)-stimulated pyrophosphate-energized s	dRep_bin340_OFLHNGJM_00549	CDS	hppA1	3.6.1.1	Putative K(+)-stimulated pyrophosphate-energized sodium pump
OFLHNGJM_00591	26.283429999999996	26.150350000000003	25.3681	26.502499999999998	27.05951	26.52367	25.43094	25.442279999999997				5	3	5,7032E-47	dRep_bin317_ABPHNCOD_00771;dRep_bin340_OFLHNGJM_00591;dRep_bin350_EKOOEEGH_00197	dRep_bin317_ABPHNCOD_00771	>dRep_bin317_ABPHNCOD_00771 2,3-bisphosphoglycerate-independent phosphoglycerate mutase	dRep_bin340_OFLHNGJM_00591	CDS	gpmI	5.4.2.12	2,3-bisphosphoglycerate-independent phosphoglycerate mutase
OFLHNGJM_00618				26.07812								3	1	1,7255E-12	dRep_bin340_OFLHNGJM_00618	dRep_bin340_OFLHNGJM_00618	>dRep_bin340_OFLHNGJM_00618 30S ribosomal protein S4	dRep_bin340_OFLHNGJM_00618	CDS	rpsD		30S ribosomal protein S4
OFLHNGJM_00819				26.06402								3	0	5,8449E-07	dRep_bin262_LLCGOPIE_01347;dRep_bin054_NNOKONMC_00047;dRep_bin176_DLEJNGKN_01632;dRep_bin340_OFLHNGJM_00819;dRep_bin253_CPMOAOBJ_00205;dRep_bin086_HHEJBMCP_00617;dRep_bin074_EHAOMODJ_01288;dRep_bin006_HPJGJCAG_00135;dRep_bin057_BNCFHBBO_00191	dRep_bin262_LLCGOPIE_01347;dRep_bin054_NNOKONMC_00047;dRep_bin176_DLEJNGKN_01632;dRep_bin340_OFLHNGJM_00819;dRep_bin253_CPMOAOBJ_00205;dRep_bin086_HHEJBMCP_00617;dRep_bin074_EHAOMODJ_01288;dRep_bin006_HPJGJCAG_00135	>dRep_bin262_LLCGOPIE_01347 50S ribosomal protein L5;>dRep_bin054_NNOKONMC_00047 50S ribosomal protein L5;>dRep_bin176_DLEJNGKN_01632 50S ribosomal protein L5;>dRep_bin340_OFLHNGJM_00819 50S ribosomal protein L5;>dRep_bin253_CPMOAOBJ_00205 50S ribosomal pr	dRep_bin340_OFLHNGJM_00819	CDS	rplE		50S ribosomal protein L5
OFLHNGJM_00823	26.298139999999997											4	2	1,6749E-08	dRep_bin340_OFLHNGJM_00823;dRep_bin263_OLEFOGIJ_00441	dRep_bin340_OFLHNGJM_00823	>dRep_bin340_OFLHNGJM_00823 Phosphoserine aminotransferase	dRep_bin340_OFLHNGJM_00823	CDS	serC	2.6.1.52	Phosphoserine aminotransferase
OFLHNGJM_00860					25.904880000000002	26.457950000000004	25.96488					20	4	0	dRep_bin307_AOCKHIKF_00692;dRep_bin098_DDEBHDKK_01731;dRep_bin340_OFLHNGJM_00860;dRep_bin090_IPGNHCBJ_01243	dRep_bin307_AOCKHIKF_00692;dRep_bin098_DDEBHDKK_01731	>dRep_bin307_AOCKHIKF_00692 Glyceraldehyde-3-phosphate dehydrogenase A;>dRep_bin098_DDEBHDKK_01731 Glyceraldehyde-3-phosphate dehydrogenase A	dRep_bin340_OFLHNGJM_00860	CDS	gapA_2	1.2.1.12	Glyceraldehyde-3-phosphate dehydrogenase A
OFLHNGJM_00872	25.533800000000003	24.57629	25.295339999999996		25.12424		27.214470000000002	25.222179999999998				2	2	2,738E-06	dRep_bin247_EKGBJCBM_01381;dRep_bin340_OFLHNGJM_00872;dRep_bin031_BNHMFOII_01690	dRep_bin247_EKGBJCBM_01381;dRep_bin340_OFLHNGJM_00872;dRep_bin031_BNHMFOII_01690	>dRep_bin247_EKGBJCBM_01381 Cysteine synthase;>dRep_bin340_OFLHNGJM_00872 Cysteine synthase;>dRep_bin031_BNHMFOII_01690 Cysteine synthase	dRep_bin340_OFLHNGJM_00872	CDS	cysK	2.5.1.47	Cysteine synthase
OFLHNGJM_00876	24.356090000000002											1	1	0,0026017	dRep_bin340_OFLHNGJM_00876	dRep_bin340_OFLHNGJM_00876	>dRep_bin340_OFLHNGJM_00876 Sporulation and spore germination	dRep_bin340_OFLHNGJM_00876	CDS			Sporulation and spore germination
OFLHNGJM_00971					26.75723	26.372970000000002	26.64375	27.177310000000002				8	1	6,4666E-22	dRep_bin305_FCIEFIHE_01253;dRep_bin340_OFLHNGJM_00971;dRep_bin087_FCLGAPPI_00101	dRep_bin305_FCIEFIHE_01253;dRep_bin340_OFLHNGJM_00971	>dRep_bin305_FCIEFIHE_01253 Elongation factor G;>dRep_bin340_OFLHNGJM_00971 Elongation factor G	dRep_bin340_OFLHNGJM_00971	CDS	fusA_2		Elongation factor G
OFLHNGJM_00972	24.614030000000003		27.524850000000004	28.37774								6	1	8,2673E-20	dRep_bin133_NOBPDBPA_03739;dRep_bin001_GHHJMDAL_01041;dRep_bin179_HFEIPPPA_01853;dRep_bin268_LKMHIMLG_00768;dRep_bin340_OFLHNGJM_00972;dRep_bin305_FCIEFIHE_01252;dRep_bin057_BNCFHBBO_01138;dRep_bin027_OFJCHLJJ_01570	dRep_bin133_NOBPDBPA_03739;dRep_bin001_GHHJMDAL_01041;dRep_bin179_HFEIPPPA_01853	>dRep_bin133_NOBPDBPA_03739 30S ribosomal protein S7;>dRep_bin001_GHHJMDAL_01041 30S ribosomal protein S7;>dRep_bin179_HFEIPPPA_01853 30S ribosomal protein S7	dRep_bin340_OFLHNGJM_00972	CDS	rpsG		30S ribosomal protein S7
OFLHNGJM_01032								26.72949				2	1	9,0759E-07	dRep_bin293_MEPKGOAN_00097;dRep_bin047_IFFANOMN_00065;dRep_bin269_PNILGKPH_00704;dRep_bin238_OLNFACLE_01472;dRep_bin124_HIHDFGCL_00696;dRep_bin105_AAEIHAFF_01124;dRep_bin079_GAOGCKND_01577;dRep_bin056_EMNHHOJA_01381;dRep_bin321_EJNAAGJG_00783;dRep_bin257_JHFDCHCB_00230;dRep_bin143_PFLDJMPF_01136;dRep_bin340_OFLHNGJM_01032;dRep_bin277_MIPNGEJE_01470;dRep_bin231_CFOLMJBA_00061	dRep_bin293_MEPKGOAN_00097;dRep_bin047_IFFANOMN_00065;dRep_bin269_PNILGKPH_00704;dRep_bin238_OLNFACLE_01472;dRep_bin124_HIHDFGCL_00696;dRep_bin105_AAEIHAFF_01124;dRep_bin079_GAOGCKND_01577;dRep_bin056_EMNHHOJA_01381;dRep_bin321_EJNAAGJG_00783;dRep_bin257_JHFDCHCB_00230;dRep_bin143_PFLDJMPF_01136;dRep_bin340_OFLHNGJM_01032;dRep_bin277_MIPNGEJE_01470;dRep_bin231_CFOLMJBA_00061	>dRep_bin293_MEPKGOAN_00097 30S ribosomal protein S9;>dRep_bin047_IFFANOMN_00065 30S ribosomal protein S9;>dRep_bin269_PNILGKPH_00704 30S ribosomal protein S9;>dRep_bin238_OLNFACLE_01472 30S ribosomal protein S9;>dRep_bin124_HIHDFGCL_00696 30S ribosomal pr	dRep_bin340_OFLHNGJM_01032	CDS	rpsI		30S ribosomal protein S9
OFLHNGJM_01045								24.445939999999997				3	1	1,2536E-20	dRep_bin193_GDMDPNNM_01335;dRep_bin194_MEPDOGGJ_00909;dRep_bin152_LJMCIADF_01136;dRep_bin124_HIHDFGCL_01283;dRep_bin101_BNDDLDCL_01786;dRep_bin079_GAOGCKND_00249;dRep_bin068_ENOLAELK_01480;dRep_bin038_EIGFILKG_00281;dRep_bin025_CBEJJMLE_00745;dRep_bin286_OEMIJKMC_00443;dRep_bin231_CFOLMJBA_00984;dRep_bin172_ALNHGLMD_00252;dRep_bin142_NDNPJBEM_00885;dRep_bin126_PPDNCIBN_01642;dRep_bin090_IPGNHCBJ_00359;dRep_bin321_EJNAAGJG_00108;dRep_bin273_FGAEBHNP_01040;dRep_bin323_FBBLPLCG_00442;dRep_bin309_BIOHLCGG_00720;dRep_bin268_LKMHIMLG_00991;dRep_bin166_DFIAJFEC_01338;dRep_bin143_PFLDJMPF_01113;dRep_bin108_BPNCDINP_00985;dRep_bin056_EMNHHOJA_01394;dRep_bin026_HNPIIINL_00248;dRep_bin006_HPJGJCAG_00021;dRep_bin340_OFLHNGJM_01045;dRep_bin270_GEJAHNCN_00054;dRep_bin182_EMCFODCD_00202;dRep_bin044_IPFKHAEF_00804;dRep_bin354_MMOALAFN_00312;dRep_bin253_CPMOAOBJ_00594;dRep_bin074_EHAOMODJ_00802;dRep_bin049_MNFBDPNO_00646;dRep_bin257_JHFDCHCB_00163;dRep_bin336_MPGOKPOL_00030;dRep_bin169_PNICKJKO_01093;dRep_bin147_EJLBNEBE_00336;dRep_bin123_PJKBFKBB_00356;dRep_bin032_PPNIGLME_01273;dRep_bin293_MEPKGOAN_00625	dRep_bin193_GDMDPNNM_01335;dRep_bin194_MEPDOGGJ_00909;dRep_bin152_LJMCIADF_01136;dRep_bin124_HIHDFGCL_01283;dRep_bin101_BNDDLDCL_01786;dRep_bin079_GAOGCKND_00249;dRep_bin068_ENOLAELK_01480;dRep_bin038_EIGFILKG_00281;dRep_bin025_CBEJJMLE_00745;dRep_bin286_OEMIJKMC_00443;dRep_bin231_CFOLMJBA_00984;dRep_bin172_ALNHGLMD_00252;dRep_bin142_NDNPJBEM_00885;dRep_bin126_PPDNCIBN_01642;dRep_bin090_IPGNHCBJ_00359	>dRep_bin193_GDMDPNNM_01335 HPr-like protein Crh;>dRep_bin194_MEPDOGGJ_00909 HPr-like protein Crh;>dRep_bin152_LJMCIADF_01136 HPr-like protein Crh;>dRep_bin124_HIHDFGCL_01283 HPr-like protein Crh;>dRep_bin101_BNDDLDCL_01786 HPr-like protein Crh;>dRep_bin07	dRep_bin340_OFLHNGJM_01045	CDS	crh		HPr-like protein Crh
OFLHNGJM_01094	25.00144											5	0	9,4768E-61	dRep_bin268_LKMHIMLG_00105;dRep_bin090_IPGNHCBJ_00831;dRep_bin340_OFLHNGJM_01094;dRep_bin288_KOIAAABN_00442	dRep_bin268_LKMHIMLG_00105;dRep_bin090_IPGNHCBJ_00831;dRep_bin340_OFLHNGJM_01094	>dRep_bin268_LKMHIMLG_00105 Fructose-bisphosphate aldolase;>dRep_bin090_IPGNHCBJ_00831 Fructose-bisphosphate aldolase;>dRep_bin340_OFLHNGJM_01094 Fructose-bisphosphate aldolase	dRep_bin340_OFLHNGJM_01094	CDS	fba	4.1.2.13	Fructose-bisphosphate aldolase
OFLHNGJM_01242		25.271950000000004	25.01265									3	2	2,5143E-08	dRep_bin340_OFLHNGJM_01242	dRep_bin340_OFLHNGJM_01242	>dRep_bin340_OFLHNGJM_01242 Acetyl-CoA acetyltransferase	dRep_bin340_OFLHNGJM_01242	CDS	thlA	2.3.1.9	Acetyl-CoA acetyltransferase
OFLHNGJM_01280	25.60275											1	1	2,0275E-05	dRep_bin106_BKDHGPBE_00524;dRep_bin340_OFLHNGJM_01280	dRep_bin106_BKDHGPBE_00524;dRep_bin340_OFLHNGJM_01280	>dRep_bin106_BKDHGPBE_00524 3-aminobutyryl-CoA ammonia lyase;>dRep_bin340_OFLHNGJM_01280 3-aminobutyryl-CoA ammonia lyase	dRep_bin340_OFLHNGJM_01280	CDS	kal	4.3.1.14	3-aminobutyryl-CoA ammonia lyase
OFLHNGJM_01331				23.998689999999996								1	1	1,8599E-30	dRep_bin340_OFLHNGJM_01331;dRep_bin215_ABBFGCAF_01348	dRep_bin340_OFLHNGJM_01331;dRep_bin215_ABBFGCAF_01348	>dRep_bin340_OFLHNGJM_01331 2-hydroxy-3-oxopropionate reductase;>dRep_bin215_ABBFGCAF_01348 2-hydroxy-3-oxopropionate reductase	dRep_bin340_OFLHNGJM_01331	CDS	garR	1.1.1.60	2-hydroxy-3-oxopropionate reductase
OFLHNGJM_01389								25.49225				3	1	4,061E-10	dRep_bin340_OFLHNGJM_01389	dRep_bin340_OFLHNGJM_01389	>dRep_bin340_OFLHNGJM_01389 2-dehydro-3-deoxygluconokinase	dRep_bin340_OFLHNGJM_01389	CDS	kdgK	2.7.1.45	2-dehydro-3-deoxygluconokinase
OFLHNGJM_01401			24.78606									1	1	0,0073555	dRep_bin340_OFLHNGJM_01401;dRep_bin340_OFLHNGJM_00820	dRep_bin340_OFLHNGJM_01401;dRep_bin340_OFLHNGJM_00820	>dRep_bin340_OFLHNGJM_01401 50S ribosomal protein L24;>dRep_bin340_OFLHNGJM_00820 50S ribosomal protein L24	dRep_bin340_OFLHNGJM_01401	CDS	rplX_2		50S ribosomal protein L24
OFLHNGJM_01408			27.749129999999997									3	2	4,4274E-11	dRep_bin228_CECEDMJG_00202;dRep_bin042_MMFCLHOO_00245;dRep_bin340_OFLHNGJM_01408	dRep_bin228_CECEDMJG_00202;dRep_bin042_MMFCLHOO_00245	>dRep_bin228_CECEDMJG_00202 30S ribosomal protein S19;>dRep_bin042_MMFCLHOO_00245 30S ribosomal protein S19	dRep_bin340_OFLHNGJM_01408	CDS	rpsS_3		30S ribosomal protein S19
OFLHNGJM_01423	29.3004	28.06769	28.491709999999998	27.60654	27.652739999999998	27.43762	29.12994	28.29994				12	4	9,1575E-201	dRep_bin340_OFLHNGJM_01423	dRep_bin340_OFLHNGJM_01423	>dRep_bin340_OFLHNGJM_01423 NAD-specific glutamate dehydrogenase	dRep_bin340_OFLHNGJM_01423	CDS	gdh_2	1.4.1.2	NAD-specific glutamate dehydrogenase
OFLHNGJM_01438		21.842109999999998										1	1	0,001506	dRep_bin182_EMCFODCD_01320;dRep_bin126_PPDNCIBN_00296;dRep_bin340_OFLHNGJM_01438;dRep_bin268_LKMHIMLG_01003;dRep_bin193_GDMDPNNM_00555;dRep_bin172_ALNHGLMD_00077;dRep_bin286_OEMIJKMC_00286;dRep_bin231_CFOLMJBA_01152;dRep_bin148_NAJFKJMD_01267;dRep_bin305_FCIEFIHE_00295;dRep_bin108_BPNCDINP_00973;dRep_bin058_GJKCICJN_01045;dRep_bin044_IPFKHAEF_01163;dRep_bin270_GEJAHNCN_01642;dRep_bin029_LFMGBBEC_00524;dRep_bin006_HPJGJCAG_00599;dRep_bin215_ABBFGCAF_00316;dRep_bin142_NDNPJBEM_00128	dRep_bin182_EMCFODCD_01320;dRep_bin126_PPDNCIBN_00296;dRep_bin340_OFLHNGJM_01438;dRep_bin268_LKMHIMLG_01003;dRep_bin193_GDMDPNNM_00555;dRep_bin172_ALNHGLMD_00077;dRep_bin286_OEMIJKMC_00286;dRep_bin231_CFOLMJBA_01152;dRep_bin148_NAJFKJMD_01267;dRep_bin305_FCIEFIHE_00295;dRep_bin108_BPNCDINP_00973;dRep_bin058_GJKCICJN_01045;dRep_bin044_IPFKHAEF_01163;dRep_bin270_GEJAHNCN_01642;dRep_bin029_LFMGBBEC_00524;dRep_bin006_HPJGJCAG_00599;dRep_bin215_ABBFGCAF_00316;dRep_bin142_NDNPJBEM_00128	>dRep_bin182_EMCFODCD_01320 Transcriptional regulatory protein SrrA;>dRep_bin126_PPDNCIBN_00296 Transcriptional regulatory protein SrrA;>dRep_bin340_OFLHNGJM_01438 Transcriptional regulatory protein SrrA;>dRep_bin268_LKMHIMLG_01003 Transcriptional regulato	dRep_bin340_OFLHNGJM_01438	CDS	srrA_2		Transcriptional regulatory protein SrrA
OFLHNGJM_01514	26.315830000000002	25.86311	26.81372	24.902789999999996	25.562559999999998		27.192719999999998	25.765649999999997				2	2	1,2101E-15	dRep_bin263_OLEFOGIJ_00970;dRep_bin288_KOIAAABN_01196;dRep_bin268_LKMHIMLG_00673;dRep_bin340_OFLHNGJM_01514;dRep_bin310_IMBAFDIF_01448;dRep_bin164_KHMELCCL_00999;dRep_bin215_ABBFGCAF_00841;dRep_bin148_NAJFKJMD_00901	dRep_bin263_OLEFOGIJ_00970;dRep_bin288_KOIAAABN_01196;dRep_bin268_LKMHIMLG_00673;dRep_bin340_OFLHNGJM_01514;dRep_bin310_IMBAFDIF_01448;dRep_bin164_KHMELCCL_00999;dRep_bin215_ABBFGCAF_00841;dRep_bin148_NAJFKJMD_00901	>dRep_bin263_OLEFOGIJ_00970 putative succinyl-diaminopimelate desuccinylase;>dRep_bin288_KOIAAABN_01196 putative succinyl-diaminopimelate desuccinylase;>dRep_bin268_LKMHIMLG_00673 selenium_YgeY: putative selenium metabolism hydrolase;>dRep_bin340_OFLHNGJM_	dRep_bin340_OFLHNGJM_01514	CDS			selenium_YgeY: putative selenium metabolism hydrolase
OFLHNGJM_01516							26.549599999999998					2	2	2,3512E-73	dRep_bin268_LKMHIMLG_00671;dRep_bin340_OFLHNGJM_01516	dRep_bin268_LKMHIMLG_00671;dRep_bin340_OFLHNGJM_01516	>dRep_bin268_LKMHIMLG_00671 Carbamate kinase 1;>dRep_bin340_OFLHNGJM_01516 Carbamate kinase 1	dRep_bin340_OFLHNGJM_01516	CDS	arcC1	2.7.2.2	Carbamate kinase 1
