GBprotID	LFQ intensity CtrPig1	LFQ intensity CtrPig2	LFQ intensity CtrPig3	LFQ intensity CtrPig4	LFQ intensity MannanPig1	LFQ intensity MannanPig2	LFQ intensity MannanPig3	LFQ intensity MannanPig4	Only identified by site	Reverse	Contaminant	Peptides	Unique peptides	PEP	Protein IDs	Majority protein IDs	Fasta headers	IDcomb	ftype	gene	EC_number	product
CJJBDGAA_00010					27.69551	26.73647	28.803539999999998	26.756719999999998				13	8	7,5848E-36	dRep_bin095_HOBNOEEF_02146;dRep_bin344_CJJBDGAA_00010;dRep_bin257_JHFDCHCB_01336;dRep_bin284_DEHKNOBF_00528;dRep_bin347_EKGCMFPD_01713;dRep_bin300_MJPPENNL_01266;dRep_bin078_GKFCBAEI_00853;dRep_bin277_MIPNGEJE_00107;dRep_bin282_PKAAPBFP_00957;dRep_bin328_GIGKNKPJ_01683;dRep_bin324_IPNHOHFK_00096;dRep_bin157_JPNIKEKI_00049;dRep_bin133_NOBPDBPA_03446;dRep_bin019_MOJEPLJF_00699;dRep_bin046_GKEJLOEK_00562;dRep_bin024_OLHDGABE_00401;dRep_bin203_CLFNNOCF_00605;dRep_bin179_HFEIPPPA_01869;dRep_bin005_CNDFPKJG_00925;dRep_bin088_DNGPPFDK_00832	dRep_bin095_HOBNOEEF_02146	>dRep_bin095_HOBNOEEF_02146 Phosphoglucomutase	dRep_bin344_CJJBDGAA_00010	CDS		2.4.1.281	4-O-beta-D-mannosyl-D-glucose phosphorylase
CJJBDGAA_00113	30.20093	29.144940000000002	28.817510000000002	29.2031	30.70347	29.6187	30.740129999999997	29.53222				18	12	2,3916E-297	dRep_bin201_OLKDIBOK_01905;dRep_bin344_CJJBDGAA_00113	dRep_bin201_OLKDIBOK_01905	>dRep_bin201_OLKDIBOK_01905 5,10-methylenetetrahydrofolate reductase	dRep_bin344_CJJBDGAA_00113	CDS	metF	1.5.1.20	5,10-methylenetetrahydrofolate reductase
CJJBDGAA_00115	22.385769999999997											14	1	2,6654E-95	dRep_bin344_CJJBDGAA_00115	dRep_bin344_CJJBDGAA_00115	>dRep_bin344_CJJBDGAA_00115 Carbon monoxide dehydrogenase 1	dRep_bin344_CJJBDGAA_00115	CDS	cooS1	1.2.7.4	Carbon monoxide dehydrogenase 1
CJJBDGAA_00117								22.01454				5	1	4,0562E-84	dRep_bin344_CJJBDGAA_00117	dRep_bin344_CJJBDGAA_00117	>dRep_bin344_CJJBDGAA_00117 Carbon monoxide dehydrogenase/acetyl-CoA synthase subunit alpha	dRep_bin344_CJJBDGAA_00117	CDS		2.3.1.169	Carbon monoxide dehydrogenase/acetyl-CoA synthase subunit alpha
CJJBDGAA_00139					24.827160000000003	24.766939999999998	25.354940000000003	24.93778				4	1	2,6143E-16	dRep_bin179_HFEIPPPA_01106;dRep_bin081_JDPCKDNP_00227;dRep_bin310_IMBAFDIF_00789;dRep_bin047_IFFANOMN_01496;dRep_bin269_PNILGKPH_00580;dRep_bin133_NOBPDBPA_00629;dRep_bin344_CJJBDGAA_00139;dRep_bin287_DONBGKDH_00900;dRep_bin260_HELEPKJL_01759;dRep_bin167_BLMEBMNN_02130;dRep_bin017_FGFLFOPJ_00410;dRep_bin332_KAOPCDPF_00175;dRep_bin328_GIGKNKPJ_00524;dRep_bin306_FGHMKMMP_00565;dRep_bin297_EDHEEICA_01573;dRep_bin292_JIBLDOOH_01650;dRep_bin226_NLNLHLLD_00938;dRep_bin209_NKIHFCEN_01785;dRep_bin203_CLFNNOCF_02551;dRep_bin194_MEPDOGGJ_00132;dRep_bin186_HJAAFFNP_01551;dRep_bin179_HFEIPPPA_02186;dRep_bin177_HLHGKLFL_00944;dRep_bin157_JPNIKEKI_01051;dRep_bin152_LJMCIADF_00176;dRep_bin144_NPHACCKF_01603;dRep_bin133_NOBPDBPA_02384;dRep_bin127_FIPNHBCH_00466;dRep_bin079_GAOGCKND_00600;dRep_bin068_ENOLAELK_01364;dRep_bin041_OPKGAAAG_01949;dRep_bin039_IJNOFOJK_01664;dRep_bin025_CBEJJMLE_00100;dRep_bin273_FGAEBHNP_00413;dRep_bin203_CLFNNOCF_01124;dRep_bin085_MBHLGCDB_01454;dRep_bin069_EGGEOGDC_00328;dRep_bin057_BNCFHBBO_00329;dRep_bin049_MNFBDPNO_01360;dRep_bin123_PJKBFKBB_01535;dRep_bin075_EPEMMOCL_01035;dRep_bin026_HNPIIINL_00033;dRep_bin336_MPGOKPOL_00844;dRep_bin147_EJLBNEBE_01290;dRep_bin065_DFABHCBI_00546;dRep_bin257_JHFDCHCB_01035;dRep_bin299_AKNBKJGM_00588	dRep_bin179_HFEIPPPA_01106;dRep_bin081_JDPCKDNP_00227;dRep_bin310_IMBAFDIF_00789;dRep_bin047_IFFANOMN_01496	>dRep_bin179_HFEIPPPA_01106 1-deoxy-D-xylulose-5-phosphate synthase;>dRep_bin081_JDPCKDNP_00227 1-deoxy-D-xylulose-5-phosphate synthase;>dRep_bin310_IMBAFDIF_00789 1-deoxy-D-xylulose-5-phosphate synthase;>dRep_bin047_IFFANOMN_01496 1-deoxy-D-xylulose-5-pho	dRep_bin344_CJJBDGAA_00139	CDS	dxs_1	2.2.1.7	1-deoxy-D-xylulose-5-phosphate synthase
CJJBDGAA_00147						20.570990000000002						2	1	4,4978E-10	dRep_bin344_CJJBDGAA_00147	dRep_bin344_CJJBDGAA_00147	>dRep_bin344_CJJBDGAA_00147 Elongation factor Ts	dRep_bin344_CJJBDGAA_00147	CDS	tsf		Elongation factor Ts
CJJBDGAA_00153	24.54681		24.82556	24.07912	25.68075	24.960489999999997	25.71652	24.847850000000005				4	2	6,1747E-25	dRep_bin201_OLKDIBOK_01863;dRep_bin310_IMBAFDIF_00705;dRep_bin143_PFLDJMPF_00140;dRep_bin319_PBDBJGCJ_00958;dRep_bin135_HHKACLPM_01053;dRep_bin344_CJJBDGAA_00153;dRep_bin306_FGHMKMMP_01802;dRep_bin234_ECABPBME_01586;dRep_bin089_PAJFOJBN_01484;dRep_bin254_GJDPFAEA_01912;dRep_bin321_EJNAAGJG_00130;dRep_bin273_FGAEBHNP_01256;dRep_bin323_FBBLPLCG_00944;dRep_bin336_MPGOKPOL_02018;dRep_bin147_EJLBNEBE_01335;dRep_bin269_PNILGKPH_01519;dRep_bin287_DONBGKDH_01452;dRep_bin300_MJPPENNL_00258;dRep_bin065_DFABHCBI_01106;dRep_bin017_FGFLFOPJ_00960;dRep_bin226_NLNLHLLD_00912;dRep_bin160_EFKMPBOM_02042;dRep_bin047_IFFANOMN_00584;dRep_bin016_JLGAHGOJ_00526;dRep_bin309_BIOHLCGG_00717;dRep_bin278_BFCONKOE_00391;dRep_bin172_ALNHGLMD_01390	dRep_bin201_OLKDIBOK_01863;dRep_bin310_IMBAFDIF_00705;dRep_bin143_PFLDJMPF_00140;dRep_bin319_PBDBJGCJ_00958;dRep_bin135_HHKACLPM_01053;dRep_bin344_CJJBDGAA_00153;dRep_bin306_FGHMKMMP_01802;dRep_bin234_ECABPBME_01586;dRep_bin089_PAJFOJBN_01484;dRep_bin254_GJDPFAEA_01912;dRep_bin321_EJNAAGJG_00130;dRep_bin273_FGAEBHNP_01256;dRep_bin323_FBBLPLCG_00944;dRep_bin336_MPGOKPOL_02018;dRep_bin147_EJLBNEBE_01335;dRep_bin269_PNILGKPH_01519;dRep_bin287_DONBGKDH_01452;dRep_bin300_MJPPENNL_00258;dRep_bin065_DFABHCBI_01106;dRep_bin017_FGFLFOPJ_00960;dRep_bin226_NLNLHLLD_00912;dRep_bin160_EFKMPBOM_02042;dRep_bin047_IFFANOMN_00584;dRep_bin016_JLGAHGOJ_00526;dRep_bin309_BIOHLCGG_00717;dRep_bin278_BFCONKOE_00391	>dRep_bin201_OLKDIBOK_01863 Lysine--tRNA ligase;>dRep_bin310_IMBAFDIF_00705 Lysine--tRNA ligase;>dRep_bin143_PFLDJMPF_00140 Lysine--tRNA ligase;>dRep_bin319_PBDBJGCJ_00958 Lysine--tRNA ligase;>dRep_bin135_HHKACLPM_01053 Lysine--tRNA ligase;>dRep_bin344_CJJ	dRep_bin344_CJJBDGAA_00153	CDS	lysS	6.1.1.6	Lysine--tRNA ligase
CJJBDGAA_00160		21.70016										3	1	2,7649E-07	dRep_bin261_FJICAFFM_00363;dRep_bin300_MJPPENNL_00251;dRep_bin269_PNILGKPH_01526;dRep_bin297_EDHEEICA_01349;dRep_bin324_IPNHOHFK_01470;dRep_bin287_DONBGKDH_00051;dRep_bin322_OJELOJOF_00954;dRep_bin248_CCDFPECI_01142;dRep_bin007_LNLEAAAN_01237;dRep_bin095_HOBNOEEF_01161;dRep_bin016_JLGAHGOJ_00534;dRep_bin220_PILICLLL_00631;dRep_bin344_CJJBDGAA_00160;dRep_bin248_CCDFPECI_00818;dRep_bin145_KMJJJOEJ_00875;dRep_bin134_HIAPAODO_01713	dRep_bin261_FJICAFFM_00363;dRep_bin300_MJPPENNL_00251;dRep_bin269_PNILGKPH_01526;dRep_bin297_EDHEEICA_01349;dRep_bin324_IPNHOHFK_01470	>dRep_bin261_FJICAFFM_00363 Modulator of FtsH protease HflC;>dRep_bin300_MJPPENNL_00251 Modulator of FtsH protease HflK;>dRep_bin269_PNILGKPH_01526 Modulator of FtsH protease HflK;>dRep_bin297_EDHEEICA_01349 Modulator of FtsH protease HflK;>dRep_bin324_IPN	dRep_bin344_CJJBDGAA_00160	CDS	hflK_1		Modulator of FtsH protease HflK
CJJBDGAA_00170					26.73454							16	1	2,1548E-269	dRep_bin344_CJJBDGAA_00170	dRep_bin344_CJJBDGAA_00170	>dRep_bin344_CJJBDGAA_00170 Elongation factor Tu	dRep_bin344_CJJBDGAA_00170	CDS	tuf		Elongation factor Tu
CJJBDGAA_00171			23.936609999999998									8	1	4,9891E-20	dRep_bin344_CJJBDGAA_00171	dRep_bin344_CJJBDGAA_00171	>dRep_bin344_CJJBDGAA_00171 Elongation factor G	dRep_bin344_CJJBDGAA_00171	CDS	fusA_1		Elongation factor G
CJJBDGAA_00234			23.154170000000004									2	1	4,846E-07	dRep_bin344_CJJBDGAA_00234;dRep_bin266_JFOCEDAE_00366;dRep_bin260_HELEPKJL_01215	dRep_bin344_CJJBDGAA_00234;dRep_bin266_JFOCEDAE_00366;dRep_bin260_HELEPKJL_01215	>dRep_bin344_CJJBDGAA_00234 Methenyltetrahydrofolate cyclohydrolase;>dRep_bin266_JFOCEDAE_00366 Methenyltetrahydrofolate cyclohydrolase;>dRep_bin260_HELEPKJL_01215 Methenyltetrahydrofolate cyclohydrolase	dRep_bin344_CJJBDGAA_00234	CDS	fchA	3.5.4.9	Methenyltetrahydrofolate cyclohydrolase
CJJBDGAA_00237						24.67971		24.857000000000003				8	0	1,3699E-25	dRep_bin292_JIBLDOOH_01683;dRep_bin209_NKIHFCEN_01847;dRep_bin300_MJPPENNL_01104;dRep_bin297_EDHEEICA_01589;dRep_bin158_OGFICEAP_00645;dRep_bin145_KMJJJOEJ_01481;dRep_bin075_EPEMMOCL_01001;dRep_bin279_IAEFEPEN_00173;dRep_bin261_FJICAFFM_00231;dRep_bin203_CLFNNOCF_01942;dRep_bin180_JMFOHHIL_00474;dRep_bin344_CJJBDGAA_00237;dRep_bin115_IFKGOGCL_02756;dRep_bin248_CCDFPECI_01893;dRep_bin095_HOBNOEEF_01556;dRep_bin069_EGGEOGDC_00965;dRep_bin017_FGFLFOPJ_00592;dRep_bin016_JLGAHGOJ_00202;dRep_bin007_LNLEAAAN_00807;dRep_bin047_IFFANOMN_01298;dRep_bin306_FGHMKMMP_01230;dRep_bin308_JBPDGLPP_00751;dRep_bin160_EFKMPBOM_00970;dRep_bin349_AMCJEEEG_00332;dRep_bin260_HELEPKJL_02007;dRep_bin107_EFNBPDOP_01388;dRep_bin135_HHKACLPM_01683;dRep_bin039_IJNOFOJK_01477;dRep_bin027_OFJCHLJJ_00143;dRep_bin046_GKEJLOEK_00472;dRep_bin325_EIIGOGHN_00365;dRep_bin322_OJELOJOF_00229;dRep_bin077_DNNBMPMC_00896;dRep_bin220_PILICLLL_01164;dRep_bin282_PKAAPBFP_01479;dRep_bin081_JDPCKDNP_01848;dRep_bin249_OFIIEIDJ_01249;dRep_bin091_MAFACGAD_00528;dRep_bin319_PBDBJGCJ_00293;dRep_bin284_DEHKNOBF_00825;dRep_bin154_JGOKHKLI_01489;dRep_bin186_HJAAFFNP_01555;dRep_bin332_KAOPCDPF_00765	dRep_bin292_JIBLDOOH_01683;dRep_bin209_NKIHFCEN_01847;dRep_bin300_MJPPENNL_01104;dRep_bin297_EDHEEICA_01589	>dRep_bin292_JIBLDOOH_01683 Methionine--tRNA ligase;>dRep_bin209_NKIHFCEN_01847 Methionine--tRNA ligase;>dRep_bin300_MJPPENNL_01104 Methionine--tRNA ligase;>dRep_bin297_EDHEEICA_01589 Methionine--tRNA ligase	dRep_bin344_CJJBDGAA_00237	CDS	metG	6.1.1.10	Methionine--tRNA ligase
CJJBDGAA_00250	24.74026											11	1	1,2594E-103	dRep_bin344_CJJBDGAA_00250	dRep_bin344_CJJBDGAA_00250	>dRep_bin344_CJJBDGAA_00250 Ketol-acid reductoisomerase (NADP(+))	dRep_bin344_CJJBDGAA_00250	CDS	ilvC	1.1.1.86	Ketol-acid reductoisomerase (NADP(+))
CJJBDGAA_00296	24.9213	24.79709	26.017890000000005	25.546219999999998								3	1	3,3501E-13	dRep_bin134_HIAPAODO_00763;dRep_bin069_EGGEOGDC_00830;dRep_bin344_CJJBDGAA_00296;dRep_bin260_HELEPKJL_00042;dRep_bin062_BOFBFLDA_01395;dRep_bin047_IFFANOMN_02133;dRep_bin047_IFFANOMN_00595;dRep_bin282_PKAAPBFP_00292	dRep_bin134_HIAPAODO_00763;dRep_bin069_EGGEOGDC_00830;dRep_bin344_CJJBDGAA_00296;dRep_bin260_HELEPKJL_00042;dRep_bin062_BOFBFLDA_01395;dRep_bin047_IFFANOMN_02133;dRep_bin047_IFFANOMN_00595	>dRep_bin134_HIAPAODO_00763 50S ribosomal protein L11;>dRep_bin069_EGGEOGDC_00830 50S ribosomal protein L11;>dRep_bin344_CJJBDGAA_00296 50S ribosomal protein L11;>dRep_bin260_HELEPKJL_00042 50S ribosomal protein L11;>dRep_bin062_BOFBFLDA_01395 50S ribosoma	dRep_bin344_CJJBDGAA_00296	CDS	rplK		50S ribosomal protein L11
CJJBDGAA_00300	26.842539999999996		26.77656	27.525	26.973339999999997	27.195729999999998	27.93691	26.51602				4	0	6,6505E-17	dRep_bin344_CJJBDGAA_00300;dRep_bin203_CLFNNOCF_02316;dRep_bin179_HFEIPPPA_01857;dRep_bin001_GHHJMDAL_00882;dRep_bin167_BLMEBMNN_01851;dRep_bin261_FJICAFFM_01444;dRep_bin335_JIOGNAPG_00371;dRep_bin306_FGHMKMMP_01103;dRep_bin234_ECABPBME_00984;dRep_bin254_GJDPFAEA_01725	dRep_bin344_CJJBDGAA_00300;dRep_bin203_CLFNNOCF_02316;dRep_bin179_HFEIPPPA_01857;dRep_bin001_GHHJMDAL_00882;dRep_bin167_BLMEBMNN_01851;dRep_bin261_FJICAFFM_01444	>dRep_bin344_CJJBDGAA_00300 50S ribosomal protein L7/L12;>dRep_bin203_CLFNNOCF_02316 50S ribosomal protein L7/L12;>dRep_bin179_HFEIPPPA_01857 50S ribosomal protein L7/L12;>dRep_bin001_GHHJMDAL_00882 50S ribosomal protein L7/L12;>dRep_bin167_BLMEBMNN_01851	dRep_bin344_CJJBDGAA_00300	CDS	rplL		50S ribosomal protein L7/L12
CJJBDGAA_00304	24.55637	23.9105	25.01848	24.325599999999998								12	0	3,5589E-49	dRep_bin344_CJJBDGAA_00304;dRep_bin231_CFOLMJBA_00879;dRep_bin126_PPDNCIBN_00385;dRep_bin172_ALNHGLMD_01464	dRep_bin344_CJJBDGAA_00304;dRep_bin231_CFOLMJBA_00879;dRep_bin126_PPDNCIBN_00385	>dRep_bin344_CJJBDGAA_00304 DNA-directed RNA polymerase subunit beta;>dRep_bin231_CFOLMJBA_00879 DNA-directed RNA polymerase subunit beta;>dRep_bin126_PPDNCIBN_00385 DNA-directed RNA polymerase subunit beta	dRep_bin344_CJJBDGAA_00304	CDS	rpoC	2.7.7.6	DNA-directed RNA polymerase subunit beta'
CJJBDGAA_00308	26.473779999999998	26.87643	25.943759999999997	27.20256	27.84942	28.300990000000002	27.39207	27.111080000000005				8	0	3,1813E-139	dRep_bin344_CJJBDGAA_00308;dRep_bin303_DDDNDJCF_01650	dRep_bin344_CJJBDGAA_00308;dRep_bin303_DDDNDJCF_01650	>dRep_bin344_CJJBDGAA_00308 Reverse rubrerythrin-1;>dRep_bin303_DDDNDJCF_01650 Reverse rubrerythrin-2	dRep_bin344_CJJBDGAA_00308	CDS	rbr3A	1.11.1.1	Reverse rubrerythrin-1
CJJBDGAA_00362	27.15856	26.75379	26.32476	26.997870000000002	27.710890000000003		27.83358	27.75219				2	0	4,1009E-83	dRep_bin047_IFFANOMN_01839;dRep_bin344_CJJBDGAA_00362	dRep_bin047_IFFANOMN_01839;dRep_bin344_CJJBDGAA_00362	>dRep_bin047_IFFANOMN_01839 Cold shock-like protein CspLA;>dRep_bin344_CJJBDGAA_00362 Cold shock-like protein CspLA	dRep_bin344_CJJBDGAA_00362	CDS	cspLA		Cold shock-like protein CspLA
CJJBDGAA_00368	33.316759999999995	33.79894000000001	33.263740000000006	33.517469999999996	32.65662	32.15041	33.02991000000001	33.25603				24	22	0	dRep_bin108_BPNCDINP_00654;dRep_bin254_GJDPFAEA_01834;dRep_bin344_CJJBDGAA_00368	dRep_bin108_BPNCDINP_00654	>dRep_bin108_BPNCDINP_00654 Acetylornithine aminotransferase	dRep_bin344_CJJBDGAA_00368	CDS	argD_1	2.6.1.11	Acetylornithine aminotransferase
CJJBDGAA_00502				23.65349								6	1	4,8693E-26	dRep_bin269_PNILGKPH_01977;dRep_bin203_CLFNNOCF_00160;dRep_bin287_DONBGKDH_01249;dRep_bin089_PAJFOJBN_01729;dRep_bin249_OFIIEIDJ_01418;dRep_bin344_CJJBDGAA_00502	dRep_bin269_PNILGKPH_01977;dRep_bin203_CLFNNOCF_00160	>dRep_bin269_PNILGKPH_01977 Threonine synthase;>dRep_bin203_CLFNNOCF_00160 Threonine synthase	dRep_bin344_CJJBDGAA_00502	CDS	thrC	4.2.3.1	Threonine synthase
CJJBDGAA_00504								23.62778				4	1	3,6641E-10	dRep_bin139_KGAJINND_00546;dRep_bin344_CJJBDGAA_00504;dRep_bin269_PNILGKPH_01782;dRep_bin186_HJAAFFNP_01230;dRep_bin160_EFKMPBOM_02028;dRep_bin154_JGOKHKLI_01570;dRep_bin027_OFJCHLJJ_01704;dRep_bin019_MOJEPLJF_00393;dRep_bin095_HOBNOEEF_01900;dRep_bin007_LNLEAAAN_01664;dRep_bin134_HIAPAODO_02032;dRep_bin220_PILICLLL_00626;dRep_bin201_OLKDIBOK_01146;dRep_bin158_OGFICEAP_00831;dRep_bin261_FJICAFFM_00403;dRep_bin347_EKGCMFPD_01461;dRep_bin328_GIGKNKPJ_00617;dRep_bin308_JBPDGLPP_01735;dRep_bin284_DEHKNOBF_00839;dRep_bin254_GJDPFAEA_01844;dRep_bin127_FIPNHBCH_00020;dRep_bin081_JDPCKDNP_00351;dRep_bin065_DFABHCBI_01741;dRep_bin001_GHHJMDAL_00049;dRep_bin335_JIOGNAPG_00092;dRep_bin282_PKAAPBFP_00201;dRep_bin260_HELEPKJL_01120;dRep_bin039_IJNOFOJK_00928;dRep_bin088_DNGPPFDK_00468;dRep_bin248_CCDFPECI_00111;dRep_bin107_EFNBPDOP_01463;dRep_bin077_DNNBMPMC_00533;dRep_bin300_MJPPENNL_00852;dRep_bin279_IAEFEPEN_01391;dRep_bin145_KMJJJOEJ_01298;dRep_bin062_BOFBFLDA_00998;dRep_bin016_JLGAHGOJ_00540;dRep_bin310_IMBAFDIF_00139;dRep_bin115_IFKGOGCL_00786;dRep_bin158_OGFICEAP_00832;dRep_bin066_AJACLPEE_00773;dRep_bin249_OFIIEIDJ_01720;dRep_bin324_IPNHOHFK_00378;dRep_bin287_DONBGKDH_00056;dRep_bin186_HJAAFFNP_01363;dRep_bin181_MKGPMPIA_00052;dRep_bin319_PBDBJGCJ_00396;dRep_bin278_BFCONKOE_00395;dRep_bin024_OLHDGABE_00254;dRep_bin135_HHKACLPM_01039	dRep_bin139_KGAJINND_00546;dRep_bin344_CJJBDGAA_00504;dRep_bin269_PNILGKPH_01782;dRep_bin186_HJAAFFNP_01230;dRep_bin160_EFKMPBOM_02028;dRep_bin154_JGOKHKLI_01570;dRep_bin027_OFJCHLJJ_01704;dRep_bin019_MOJEPLJF_00393;dRep_bin095_HOBNOEEF_01900;dRep_bin007_LNLEAAAN_01664;dRep_bin134_HIAPAODO_02032;dRep_bin220_PILICLLL_00626;dRep_bin201_OLKDIBOK_01146;dRep_bin158_OGFICEAP_00831;dRep_bin261_FJICAFFM_00403;dRep_bin347_EKGCMFPD_01461;dRep_bin328_GIGKNKPJ_00617;dRep_bin308_JBPDGLPP_01735;dRep_bin284_DEHKNOBF_00839;dRep_bin254_GJDPFAEA_01844;dRep_bin127_FIPNHBCH_00020;dRep_bin081_JDPCKDNP_00351;dRep_bin065_DFABHCBI_01741;dRep_bin001_GHHJMDAL_00049;dRep_bin335_JIOGNAPG_00092;dRep_bin282_PKAAPBFP_00201;dRep_bin260_HELEPKJL_01120;dRep_bin039_IJNOFOJK_00928;dRep_bin088_DNGPPFDK_00468;dRep_bin248_CCDFPECI_00111;dRep_bin107_EFNBPDOP_01463;dRep_bin077_DNNBMPMC_00533;dRep_bin300_MJPPENNL_00852;dRep_bin279_IAEFEPEN_01391;dRep_bin145_KMJJJOEJ_01298;dRep_bin062_BOFBFLDA_00998;dRep_bin016_JLGAHGOJ_00540;dRep_bin310_IMBAFDIF_00139	>dRep_bin139_KGAJINND_00546 ATP-dependent 6-phosphofructokinase;>dRep_bin344_CJJBDGAA_00504 ATP-dependent 6-phosphofructokinase;>dRep_bin269_PNILGKPH_01782 ATP-dependent 6-phosphofructokinase;>dRep_bin186_HJAAFFNP_01230 ATP-dependent 6-phosphofructokinase;	dRep_bin344_CJJBDGAA_00504	CDS	pfkA	2.7.1.11	ATP-dependent 6-phosphofructokinase
CJJBDGAA_00523					24.83268	25.958789999999997	25.005599999999998					2	2	9,5407E-14	dRep_bin344_CJJBDGAA_00523;dRep_bin057_BNCFHBBO_00358;dRep_bin019_MOJEPLJF_01089;dRep_bin269_PNILGKPH_01721;dRep_bin095_HOBNOEEF_00325;dRep_bin179_HFEIPPPA_00543;dRep_bin292_JIBLDOOH_01198;dRep_bin203_CLFNNOCF_02014;dRep_bin322_OJELOJOF_00079;dRep_bin243_JDMELKLC_00639;dRep_bin029_LFMGBBEC_00202;dRep_bin167_BLMEBMNN_00528;dRep_bin268_LKMHIMLG_00933;dRep_bin325_EIIGOGHN_00136;dRep_bin253_CPMOAOBJ_01393;dRep_bin248_CCDFPECI_01736;dRep_bin279_IAEFEPEN_01247;dRep_bin266_JFOCEDAE_01546;dRep_bin278_BFCONKOE_00220;dRep_bin041_OPKGAAAG_00997;dRep_bin127_FIPNHBCH_00169	dRep_bin344_CJJBDGAA_00523;dRep_bin057_BNCFHBBO_00358;dRep_bin019_MOJEPLJF_01089;dRep_bin269_PNILGKPH_01721;dRep_bin095_HOBNOEEF_00325;dRep_bin179_HFEIPPPA_00543;dRep_bin292_JIBLDOOH_01198;dRep_bin203_CLFNNOCF_02014;dRep_bin322_OJELOJOF_00079;dRep_bin243_JDMELKLC_00639;dRep_bin029_LFMGBBEC_00202;dRep_bin167_BLMEBMNN_00528;dRep_bin268_LKMHIMLG_00933;dRep_bin325_EIIGOGHN_00136;dRep_bin253_CPMOAOBJ_01393;dRep_bin248_CCDFPECI_01736;dRep_bin279_IAEFEPEN_01247;dRep_bin266_JFOCEDAE_01546;dRep_bin278_BFCONKOE_00220;dRep_bin041_OPKGAAAG_00997;dRep_bin127_FIPNHBCH_00169	>dRep_bin344_CJJBDGAA_00523 Sirohydrochlorin cobaltochelatase;>dRep_bin057_BNCFHBBO_00358 Sirohydrochlorin cobaltochelatase;>dRep_bin019_MOJEPLJF_01089 Sirohydrochlorin cobaltochelatase;>dRep_bin269_PNILGKPH_01721 Sirohydrochlorin cobaltochelatase;>dRep_bi	dRep_bin344_CJJBDGAA_00523	CDS	cbiK	4.99.1.3	Sirohydrochlorin cobaltochelatase
CJJBDGAA_00530								22.45179				4	0	6,4263E-19	dRep_bin348_LCLFDNEE_01056;dRep_bin201_OLKDIBOK_00525;dRep_bin134_HIAPAODO_01156;dRep_bin220_PILICLLL_01541;dRep_bin139_KGAJINND_01274;dRep_bin062_BOFBFLDA_00419;dRep_bin019_MOJEPLJF_00009;dRep_bin344_CJJBDGAA_00530;dRep_bin243_JDMELKLC_01162;dRep_bin173_BEBNCADL_00240	dRep_bin348_LCLFDNEE_01056;dRep_bin201_OLKDIBOK_00525;dRep_bin134_HIAPAODO_01156;dRep_bin220_PILICLLL_01541;dRep_bin139_KGAJINND_01274;dRep_bin062_BOFBFLDA_00419;dRep_bin019_MOJEPLJF_00009;dRep_bin344_CJJBDGAA_00530;dRep_bin243_JDMELKLC_01162	>dRep_bin348_LCLFDNEE_01056 ATP synthase subunit beta;>dRep_bin201_OLKDIBOK_00525 ATP synthase subunit beta;>dRep_bin134_HIAPAODO_01156 ATP synthase subunit beta;>dRep_bin220_PILICLLL_01541 ATP synthase subunit beta;>dRep_bin139_KGAJINND_01274 ATP synthase	dRep_bin344_CJJBDGAA_00530	CDS	atpD	3.6.3.14	ATP synthase subunit beta
CJJBDGAA_00560					25.68008	27.02411	25.38281	25.32165				3	3	7,9156E-15	dRep_bin226_NLNLHLLD_00501;dRep_bin041_OPKGAAAG_00618;dRep_bin297_EDHEEICA_00183;dRep_bin269_PNILGKPH_01725;dRep_bin179_HFEIPPPA_00805;dRep_bin157_JPNIKEKI_00808;dRep_bin209_NKIHFCEN_00924;dRep_bin039_IJNOFOJK_00290;dRep_bin344_CJJBDGAA_00560;dRep_bin324_IPNHOHFK_01905;dRep_bin310_IMBAFDIF_00509;dRep_bin303_DDDNDJCF_00255;dRep_bin292_JIBLDOOH_00721;dRep_bin248_CCDFPECI_01503;dRep_bin220_PILICLLL_01871;dRep_bin203_CLFNNOCF_01497;dRep_bin201_OLKDIBOK_01842;dRep_bin158_OGFICEAP_00351;dRep_bin145_KMJJJOEJ_00076;dRep_bin133_NOBPDBPA_03150;dRep_bin115_IFKGOGCL_00616;dRep_bin095_HOBNOEEF_01083;dRep_bin279_IAEFEPEN_01129;dRep_bin306_FGHMKMMP_00759;dRep_bin282_PKAAPBFP_00753;dRep_bin016_JLGAHGOJ_01160;dRep_bin261_FJICAFFM_00017;dRep_bin031_BNHMFOII_01497;dRep_bin325_EIIGOGHN_00625;dRep_bin168_HKDILBFE_01177;dRep_bin099_DNDAGJEJ_00278;dRep_bin335_JIOGNAPG_00120;dRep_bin308_JBPDGLPP_00959;dRep_bin234_ECABPBME_01000;dRep_bin240_LDBBGJKG_01894;dRep_bin167_BLMEBMNN_00117	dRep_bin226_NLNLHLLD_00501;dRep_bin041_OPKGAAAG_00618;dRep_bin297_EDHEEICA_00183;dRep_bin269_PNILGKPH_01725;dRep_bin179_HFEIPPPA_00805;dRep_bin157_JPNIKEKI_00808	>dRep_bin226_NLNLHLLD_00501 ATP-dependent Clp protease proteolytic subunit;>dRep_bin041_OPKGAAAG_00618 ATP-dependent Clp protease proteolytic subunit;>dRep_bin297_EDHEEICA_00183 ATP-dependent Clp protease proteolytic subunit;>dRep_bin269_PNILGKPH_01725 ATP	dRep_bin344_CJJBDGAA_00560	CDS	clpP	3.4.21.92	ATP-dependent Clp protease proteolytic subunit
CJJBDGAA_00564			23.262129999999996									1	1	1,124E-05	dRep_bin325_EIIGOGHN_00455;dRep_bin287_DONBGKDH_01891;dRep_bin260_HELEPKJL_00793;dRep_bin095_HOBNOEEF_02183;dRep_bin023_HGFJFKAI_00898;dRep_bin226_NLNLHLLD_01485;dRep_bin041_OPKGAAAG_02051;dRep_bin062_BOFBFLDA_01385;dRep_bin181_MKGPMPIA_01332;dRep_bin269_PNILGKPH_01447;dRep_bin282_PKAAPBFP_01100;dRep_bin261_FJICAFFM_01242;dRep_bin203_CLFNNOCF_00622;dRep_bin234_ECABPBME_01964;dRep_bin007_LNLEAAAN_01741;dRep_bin335_JIOGNAPG_00799;dRep_bin309_BIOHLCGG_01161;dRep_bin160_EFKMPBOM_00129;dRep_bin154_JGOKHKLI_00545;dRep_bin133_NOBPDBPA_03678;dRep_bin089_PAJFOJBN_00292;dRep_bin019_MOJEPLJF_01283;dRep_bin134_HIAPAODO_00643;dRep_bin024_OLHDGABE_01143;dRep_bin005_CNDFPKJG_01361;dRep_bin209_NKIHFCEN_00699;dRep_bin179_HFEIPPPA_01887;dRep_bin157_JPNIKEKI_01833;dRep_bin107_EFNBPDOP_00671;dRep_bin077_DNNBMPMC_00160;dRep_bin039_IJNOFOJK_00262;dRep_bin016_JLGAHGOJ_00401;dRep_bin344_CJJBDGAA_00564;dRep_bin324_IPNHOHFK_02103;dRep_bin249_OFIIEIDJ_01493;dRep_bin139_KGAJINND_00448;dRep_bin081_JDPCKDNP_01186;dRep_bin319_PBDBJGCJ_01293;dRep_bin279_IAEFEPEN_01252;dRep_bin220_PILICLLL_00969;dRep_bin201_OLKDIBOK_00798;dRep_bin293_MEPKGOAN_01317;dRep_bin292_JIBLDOOH_01431;dRep_bin027_OFJCHLJJ_01511;dRep_bin347_EKGCMFPD_00408;dRep_bin211_LGJEFJIK_00568	dRep_bin325_EIIGOGHN_00455;dRep_bin287_DONBGKDH_01891;dRep_bin260_HELEPKJL_00793;dRep_bin095_HOBNOEEF_02183;dRep_bin023_HGFJFKAI_00898;dRep_bin226_NLNLHLLD_01485;dRep_bin041_OPKGAAAG_02051;dRep_bin062_BOFBFLDA_01385;dRep_bin181_MKGPMPIA_01332;dRep_bin269_PNILGKPH_01447;dRep_bin282_PKAAPBFP_01100;dRep_bin261_FJICAFFM_01242;dRep_bin203_CLFNNOCF_00622;dRep_bin234_ECABPBME_01964;dRep_bin007_LNLEAAAN_01741;dRep_bin335_JIOGNAPG_00799;dRep_bin309_BIOHLCGG_01161;dRep_bin160_EFKMPBOM_00129;dRep_bin154_JGOKHKLI_00545;dRep_bin133_NOBPDBPA_03678;dRep_bin089_PAJFOJBN_00292;dRep_bin019_MOJEPLJF_01283;dRep_bin134_HIAPAODO_00643;dRep_bin024_OLHDGABE_01143;dRep_bin005_CNDFPKJG_01361;dRep_bin209_NKIHFCEN_00699;dRep_bin179_HFEIPPPA_01887;dRep_bin157_JPNIKEKI_01833;dRep_bin107_EFNBPDOP_00671;dRep_bin077_DNNBMPMC_00160;dRep_bin039_IJNOFOJK_00262;dRep_bin016_JLGAHGOJ_00401;dRep_bin344_CJJBDGAA_00564;dRep_bin324_IPNHOHFK_02103;dRep_bin249_OFIIEIDJ_01493;dRep_bin139_KGAJINND_00448;dRep_bin081_JDPCKDNP_01186;dRep_bin319_PBDBJGCJ_01293;dRep_bin279_IAEFEPEN_01252;dRep_bin220_PILICLLL_00969;dRep_bin201_OLKDIBOK_00798;dRep_bin293_MEPKGOAN_01317;dRep_bin292_JIBLDOOH_01431;dRep_bin027_OFJCHLJJ_01511;dRep_bin347_EKGCMFPD_00408;dRep_bin211_LGJEFJIK_00568	>dRep_bin325_EIIGOGHN_00455 Valine--tRNA ligase;>dRep_bin287_DONBGKDH_01891 Valine--tRNA ligase;>dRep_bin260_HELEPKJL_00793 Valine--tRNA ligase;>dRep_bin095_HOBNOEEF_02183 Valine--tRNA ligase;>dRep_bin023_HGFJFKAI_00898 Valine--tRNA ligase;>dRep_bin226_NLN	dRep_bin344_CJJBDGAA_00564	CDS	valS	6.1.1.9	Valine--tRNA ligase
CJJBDGAA_00578					26.025489999999998	25.30952	24.82939	26.34147				6	6	7,7787E-62	dRep_bin048_PABMBHAL_01893;dRep_bin124_HIHDFGCL_01237;dRep_bin303_DDDNDJCF_00569;dRep_bin292_JIBLDOOH_02065;dRep_bin260_HELEPKJL_02000;dRep_bin160_EFKMPBOM_00903;dRep_bin007_LNLEAAAN_00317;dRep_bin325_EIIGOGHN_00731;dRep_bin201_OLKDIBOK_00331;dRep_bin167_BLMEBMNN_01052;dRep_bin268_LKMHIMLG_00660;dRep_bin069_EGGEOGDC_01019;dRep_bin344_CJJBDGAA_00578	dRep_bin048_PABMBHAL_01893	>dRep_bin048_PABMBHAL_01893 Choloylglycine hydrolase	dRep_bin344_CJJBDGAA_00578	CDS	cbh	3.5.1.24	Choloylglycine hydrolase
CJJBDGAA_00635					25.14849							14	0	3,0921E-187	dRep_bin344_CJJBDGAA_00635	dRep_bin344_CJJBDGAA_00635	>dRep_bin344_CJJBDGAA_00635 GGGtGRT protein	dRep_bin344_CJJBDGAA_00635	CDS			GGGtGRT protein
CJJBDGAA_00668					22.69413							1	1	0,00012017	dRep_bin344_CJJBDGAA_00668	dRep_bin344_CJJBDGAA_00668	>dRep_bin344_CJJBDGAA_00668 Bacterial extracellular solute-binding protein	dRep_bin344_CJJBDGAA_00668	CDS			Bacterial extracellular solute-binding protein
CJJBDGAA_00733	26.75723	26.03248	26.532429999999998		27.5034	26.667360000000002	28.461429999999996	27.981689999999997				5	0	9,8783E-13	dRep_bin328_GIGKNKPJ_00624;dRep_bin254_GJDPFAEA_00296;dRep_bin186_HJAAFFNP_00793;dRep_bin167_BLMEBMNN_01306;dRep_bin260_HELEPKJL_02061;dRep_bin248_CCDFPECI_00936;dRep_bin308_JBPDGLPP_01162;dRep_bin127_FIPNHBCH_01208;dRep_bin069_EGGEOGDC_00476;dRep_bin024_OLHDGABE_00336;dRep_bin158_OGFICEAP_02041;dRep_bin297_EDHEEICA_00455;dRep_bin160_EFKMPBOM_00755;dRep_bin154_JGOKHKLI_01879;dRep_bin047_IFFANOMN_02058;dRep_bin001_GHHJMDAL_00923;dRep_bin065_DFABHCBI_00260;dRep_bin310_IMBAFDIF_00693;dRep_bin269_PNILGKPH_00789;dRep_bin234_ECABPBME_02333;dRep_bin039_IJNOFOJK_01271;dRep_bin344_CJJBDGAA_00733	dRep_bin328_GIGKNKPJ_00624;dRep_bin254_GJDPFAEA_00296;dRep_bin186_HJAAFFNP_00793;dRep_bin167_BLMEBMNN_01306;dRep_bin260_HELEPKJL_02061;dRep_bin248_CCDFPECI_00936;dRep_bin308_JBPDGLPP_01162;dRep_bin127_FIPNHBCH_01208;dRep_bin069_EGGEOGDC_00476;dRep_bin024_OLHDGABE_00336;dRep_bin158_OGFICEAP_02041;dRep_bin297_EDHEEICA_00455;dRep_bin160_EFKMPBOM_00755;dRep_bin154_JGOKHKLI_01879;dRep_bin047_IFFANOMN_02058;dRep_bin001_GHHJMDAL_00923;dRep_bin065_DFABHCBI_00260;dRep_bin310_IMBAFDIF_00693;dRep_bin269_PNILGKPH_00789;dRep_bin234_ECABPBME_02333;dRep_bin039_IJNOFOJK_01271;dRep_bin344_CJJBDGAA_00733	>dRep_bin328_GIGKNKPJ_00624 hypothetical protein;>dRep_bin254_GJDPFAEA_00296 hypothetical protein;>dRep_bin186_HJAAFFNP_00793 hypothetical protein;>dRep_bin167_BLMEBMNN_01306 hypothetical protein;>dRep_bin260_HELEPKJL_02061 hypothetical protein;>dRep_bin24	dRep_bin344_CJJBDGAA_00733	CDS			hypothetical protein
CJJBDGAA_00764	26.06739	26.95138	25.7744	27.166339999999998	27.017120000000002	26.53912	27.01744	27.44419				7	1	4,9636E-55	dRep_bin209_NKIHFCEN_00145;dRep_bin300_MJPPENNL_01356;dRep_bin279_IAEFEPEN_00777;dRep_bin069_EGGEOGDC_01214;dRep_bin065_DFABHCBI_01689;dRep_bin292_JIBLDOOH_00391;dRep_bin226_NLNLHLLD_00910;dRep_bin095_HOBNOEEF_01500;dRep_bin041_OPKGAAAG_01855;dRep_bin324_IPNHOHFK_00257;dRep_bin047_IFFANOMN_01252;dRep_bin023_HGFJFKAI_00865;dRep_bin234_ECABPBME_01126;dRep_bin016_JLGAHGOJ_01180;dRep_bin310_IMBAFDIF_01344;dRep_bin297_EDHEEICA_00623;dRep_bin201_OLKDIBOK_01309;dRep_bin248_CCDFPECI_00260;dRep_bin157_JPNIKEKI_00566;dRep_bin240_LDBBGJKG_01099;dRep_bin308_JBPDGLPP_00042;dRep_bin319_PBDBJGCJ_00310;dRep_bin066_AJACLPEE_00006;dRep_bin344_CJJBDGAA_00764;dRep_bin075_EPEMMOCL_01885	dRep_bin209_NKIHFCEN_00145;dRep_bin300_MJPPENNL_01356;dRep_bin279_IAEFEPEN_00777;dRep_bin069_EGGEOGDC_01214;dRep_bin065_DFABHCBI_01689;dRep_bin292_JIBLDOOH_00391;dRep_bin226_NLNLHLLD_00910;dRep_bin095_HOBNOEEF_01500;dRep_bin041_OPKGAAAG_01855;dRep_bin324_IPNHOHFK_00257;dRep_bin047_IFFANOMN_01252;dRep_bin023_HGFJFKAI_00865	>dRep_bin209_NKIHFCEN_00145 Adenylosuccinate synthetase;>dRep_bin300_MJPPENNL_01356 Adenylosuccinate synthetase;>dRep_bin279_IAEFEPEN_00777 Adenylosuccinate synthetase;>dRep_bin069_EGGEOGDC_01214 Adenylosuccinate synthetase;>dRep_bin065_DFABHCBI_01689 Aden	dRep_bin344_CJJBDGAA_00764	CDS	purA	6.3.4.4	Adenylosuccinate synthetase
CJJBDGAA_00823					27.772719999999996	26.47167	26.4015	26.945029999999996				6	0	1,7372E-10	dRep_bin006_HPJGJCAG_00969;dRep_bin273_FGAEBHNP_00330;dRep_bin011_KOGMKLNO_01687;dRep_bin172_ALNHGLMD_01017;dRep_bin303_DDDNDJCF_01583;dRep_bin104_EGLEJOLM_01903;dRep_bin075_EPEMMOCL_01754;dRep_bin072_JOBJPCGA_01856;dRep_bin047_IFFANOMN_01359;dRep_bin344_CJJBDGAA_00823;dRep_bin048_PABMBHAL_01817;dRep_bin134_HIAPAODO_00589;dRep_bin321_EJNAAGJG_00196;dRep_bin325_EIIGOGHN_00015;dRep_bin189_AHHEHGDL_00910;dRep_bin185_OOOLKACK_00024;dRep_bin056_EMNHHOJA_00266	dRep_bin006_HPJGJCAG_00969;dRep_bin273_FGAEBHNP_00330;dRep_bin011_KOGMKLNO_01687;dRep_bin172_ALNHGLMD_01017;dRep_bin303_DDDNDJCF_01583;dRep_bin104_EGLEJOLM_01903;dRep_bin075_EPEMMOCL_01754;dRep_bin072_JOBJPCGA_01856;dRep_bin047_IFFANOMN_01359;dRep_bin344_CJJBDGAA_00823	>dRep_bin006_HPJGJCAG_00969 O-acetylserine sulfhydrylase;>dRep_bin273_FGAEBHNP_00330 O-acetylserine sulfhydrylase;>dRep_bin011_KOGMKLNO_01687 O-acetylserine sulfhydrylase;>dRep_bin172_ALNHGLMD_01017 O-acetylserine sulfhydrylase;>dRep_bin303_DDDNDJCF_01583	dRep_bin344_CJJBDGAA_00823	CDS	cysK	2.5.1.47	Cysteine synthase
CJJBDGAA_00826			20.188699999999997									2	0	0,013699	dRep_bin284_DEHKNOBF_01566;dRep_bin335_JIOGNAPG_01357;dRep_bin186_HJAAFFNP_01603;dRep_bin347_EKGCMFPD_00174;dRep_bin325_EIIGOGHN_00933;dRep_bin226_NLNLHLLD_01138;dRep_bin211_LGJEFJIK_01575;dRep_bin168_HKDILBFE_00526;dRep_bin157_JPNIKEKI_01583;dRep_bin133_NOBPDBPA_02120;dRep_bin099_DNDAGJEJ_00490;dRep_bin023_HGFJFKAI_00001;dRep_bin181_MKGPMPIA_00811;dRep_bin344_CJJBDGAA_00826;dRep_bin154_JGOKHKLI_00807;dRep_bin209_NKIHFCEN_01867;dRep_bin160_EFKMPBOM_01681;dRep_bin324_IPNHOHFK_00236	dRep_bin284_DEHKNOBF_01566;dRep_bin335_JIOGNAPG_01357;dRep_bin186_HJAAFFNP_01603;dRep_bin347_EKGCMFPD_00174;dRep_bin325_EIIGOGHN_00933;dRep_bin226_NLNLHLLD_01138;dRep_bin211_LGJEFJIK_01575;dRep_bin168_HKDILBFE_00526;dRep_bin157_JPNIKEKI_01583;dRep_bin133_NOBPDBPA_02120;dRep_bin099_DNDAGJEJ_00490;dRep_bin023_HGFJFKAI_00001;dRep_bin181_MKGPMPIA_00811;dRep_bin344_CJJBDGAA_00826;dRep_bin154_JGOKHKLI_00807;dRep_bin209_NKIHFCEN_01867;dRep_bin160_EFKMPBOM_01681;dRep_bin324_IPNHOHFK_00236	>dRep_bin284_DEHKNOBF_01566 L-methionine gamma-lyase;>dRep_bin335_JIOGNAPG_01357 L-methionine gamma-lyase;>dRep_bin186_HJAAFFNP_01603 L-methionine gamma-lyase;>dRep_bin347_EKGCMFPD_00174 L-methionine gamma-lyase;>dRep_bin325_EIIGOGHN_00933 L-methionine gam	dRep_bin344_CJJBDGAA_00826	CDS	mgl	4.4.1.11	L-methionine gamma-lyase
CJJBDGAA_00829		26.237920000000003		27.30226	27.379890000000003		26.413050000000002	26.67074				7	1	3,1565E-26	dRep_bin344_CJJBDGAA_00829;dRep_bin306_FGHMKMMP_00969;dRep_bin181_MKGPMPIA_01169;dRep_bin096_GNHMEKPF_00515;dRep_bin158_OGFICEAP_01179;dRep_bin082_HBEFABJN_00295;dRep_bin066_AJACLPEE_01023;dRep_bin332_KAOPCDPF_01131;dRep_bin062_BOFBFLDA_00829;dRep_bin017_FGFLFOPJ_00885;dRep_bin330_CODAKHDJ_00034;dRep_bin057_BNCFHBBO_01322;dRep_bin005_CNDFPKJG_01715	dRep_bin344_CJJBDGAA_00829	>dRep_bin344_CJJBDGAA_00829 Phosphoribosylaminoimidazole-succinocarboxamide synthase	dRep_bin344_CJJBDGAA_00829	CDS	purC	6.3.2.6	Phosphoribosylaminoimidazole-succinocarboxamide synthase
CJJBDGAA_00875				26.368709999999997								4	2	1,0849E-12	dRep_bin292_JIBLDOOH_01063;dRep_bin041_OPKGAAAG_01075;dRep_bin209_NKIHFCEN_01331;dRep_bin269_PNILGKPH_00386;dRep_bin039_IJNOFOJK_00028;dRep_bin324_IPNHOHFK_01206;dRep_bin300_MJPPENNL_00977;dRep_bin279_IAEFEPEN_01295;dRep_bin344_CJJBDGAA_00875;dRep_bin328_GIGKNKPJ_01713;dRep_bin308_JBPDGLPP_01081;dRep_bin303_DDDNDJCF_01452;dRep_bin260_HELEPKJL_01814;dRep_bin240_LDBBGJKG_01949;dRep_bin211_LGJEFJIK_01488;dRep_bin201_OLKDIBOK_00486;dRep_bin186_HJAAFFNP_00498;dRep_bin161_JMKPMHCO_00510;dRep_bin140_ACFAKGIL_00966;dRep_bin139_KGAJINND_01935;dRep_bin127_FIPNHBCH_01109;dRep_bin091_MAFACGAD_00938;dRep_bin069_EGGEOGDC_00173;dRep_bin065_DFABHCBI_01020;dRep_bin062_BOFBFLDA_00118;dRep_bin024_OLHDGABE_00006;dRep_bin016_JLGAHGOJ_01717;dRep_bin347_EKGCMFPD_00813;dRep_bin332_KAOPCDPF_00718;dRep_bin322_OJELOJOF_01104;dRep_bin310_IMBAFDIF_01100;dRep_bin306_FGHMKMMP_01495;dRep_bin282_PKAAPBFP_00123;dRep_bin266_JFOCEDAE_01441;dRep_bin249_OFIIEIDJ_00818;dRep_bin248_CCDFPECI_00304;dRep_bin234_ECABPBME_02078;dRep_bin181_MKGPMPIA_00013;dRep_bin160_EFKMPBOM_00454;dRep_bin158_OGFICEAP_01438;dRep_bin154_JGOKHKLI_00210;dRep_bin145_KMJJJOEJ_01040;dRep_bin135_HHKACLPM_01477;dRep_bin107_EFNBPDOP_01455;dRep_bin089_PAJFOJBN_01775;dRep_bin081_JDPCKDNP_00410;dRep_bin077_DNNBMPMC_01401;dRep_bin075_EPEMMOCL_00061;dRep_bin027_OFJCHLJJ_01614;dRep_bin023_HGFJFKAI_00593;dRep_bin019_MOJEPLJF_00571;dRep_bin007_LNLEAAAN_01143;dRep_bin005_CNDFPKJG_01435;dRep_bin001_GHHJMDAL_01190	dRep_bin292_JIBLDOOH_01063;dRep_bin041_OPKGAAAG_01075;dRep_bin209_NKIHFCEN_01331;dRep_bin269_PNILGKPH_00386;dRep_bin039_IJNOFOJK_00028;dRep_bin324_IPNHOHFK_01206;dRep_bin300_MJPPENNL_00977;dRep_bin279_IAEFEPEN_01295	>dRep_bin292_JIBLDOOH_01063 50S ribosomal protein L21;>dRep_bin041_OPKGAAAG_01075 50S ribosomal protein L21;>dRep_bin209_NKIHFCEN_01331 50S ribosomal protein L21;>dRep_bin269_PNILGKPH_00386 50S ribosomal protein L21;>dRep_bin039_IJNOFOJK_00028 50S ribosoma	dRep_bin344_CJJBDGAA_00875	CDS	rplU		50S ribosomal protein L21
CJJBDGAA_00877				22.68825								1	1	0,0058078	dRep_bin344_CJJBDGAA_00877;dRep_bin248_CCDFPECI_01095;dRep_bin145_KMJJJOEJ_01042;dRep_bin075_EPEMMOCL_00063;dRep_bin322_OJELOJOF_01105;dRep_bin310_IMBAFDIF_01102;dRep_bin308_JBPDGLPP_01083;dRep_bin158_OGFICEAP_01436;dRep_bin115_IFKGOGCL_01394;dRep_bin266_JFOCEDAE_01440;dRep_bin211_LGJEFJIK_01486;dRep_bin081_JDPCKDNP_00412	dRep_bin344_CJJBDGAA_00877;dRep_bin248_CCDFPECI_01095;dRep_bin145_KMJJJOEJ_01042;dRep_bin075_EPEMMOCL_00063;dRep_bin322_OJELOJOF_01105;dRep_bin310_IMBAFDIF_01102;dRep_bin308_JBPDGLPP_01083;dRep_bin158_OGFICEAP_01436;dRep_bin115_IFKGOGCL_01394;dRep_bin266_JFOCEDAE_01440;dRep_bin211_LGJEFJIK_01486;dRep_bin081_JDPCKDNP_00412	>dRep_bin344_CJJBDGAA_00877 50S ribosomal protein L27;>dRep_bin248_CCDFPECI_01095 50S ribosomal protein L27;>dRep_bin145_KMJJJOEJ_01042 50S ribosomal protein L27;>dRep_bin075_EPEMMOCL_00063 50S ribosomal protein L27;>dRep_bin322_OJELOJOF_01105 50S ribosoma	dRep_bin344_CJJBDGAA_00877	CDS	rpmA		50S ribosomal protein L27
CJJBDGAA_00898		25.633390000000002										2	2	0,00019066	dRep_bin344_CJJBDGAA_00898;dRep_bin335_JIOGNAPG_01201;dRep_bin139_KGAJINND_01130;dRep_bin041_OPKGAAAG_02277;dRep_bin134_HIAPAODO_00923;dRep_bin089_PAJFOJBN_00023;dRep_bin088_DNGPPFDK_01103;dRep_bin062_BOFBFLDA_01112;dRep_bin158_OGFICEAP_00970;dRep_bin303_DDDNDJCF_01875;dRep_bin287_DONBGKDH_00692;dRep_bin266_JFOCEDAE_01617;dRep_bin234_ECABPBME_01365;dRep_bin254_GJDPFAEA_02106;dRep_bin127_FIPNHBCH_01543;dRep_bin167_BLMEBMNN_01358;dRep_bin069_EGGEOGDC_00688;dRep_bin047_IFFANOMN_00937	dRep_bin344_CJJBDGAA_00898;dRep_bin335_JIOGNAPG_01201;dRep_bin139_KGAJINND_01130;dRep_bin041_OPKGAAAG_02277;dRep_bin134_HIAPAODO_00923;dRep_bin089_PAJFOJBN_00023;dRep_bin088_DNGPPFDK_01103;dRep_bin062_BOFBFLDA_01112;dRep_bin158_OGFICEAP_00970;dRep_bin303_DDDNDJCF_01875;dRep_bin287_DONBGKDH_00692;dRep_bin266_JFOCEDAE_01617;dRep_bin234_ECABPBME_01365;dRep_bin254_GJDPFAEA_02106;dRep_bin127_FIPNHBCH_01543;dRep_bin167_BLMEBMNN_01358;dRep_bin069_EGGEOGDC_00688;dRep_bin047_IFFANOMN_00937	>dRep_bin344_CJJBDGAA_00898 dTDP-4-dehydrorhamnose 3,5-epimerase;>dRep_bin335_JIOGNAPG_01201 dTDP-4-dehydrorhamnose 3,5-epimerase;>dRep_bin139_KGAJINND_01130 dTDP-4-dehydrorhamnose 3,5-epimerase;>dRep_bin041_OPKGAAAG_02277 dTDP-4-dehydrorhamnose 3,5-epimer	dRep_bin344_CJJBDGAA_00898	CDS	rmlC	5.1.3.13	dTDP-4-dehydrorhamnose 3,5-epimerase
CJJBDGAA_00941								21.01502				1	1	2,3198E-09	dRep_bin344_CJJBDGAA_00941	dRep_bin344_CJJBDGAA_00941	>dRep_bin344_CJJBDGAA_00941 D-galactose-binding periplasmic protein	dRep_bin344_CJJBDGAA_00941	CDS	mglB_2		D-galactose-binding periplasmic protein
CJJBDGAA_00969	26.006539999999998	26.268279999999997	26.69219	26.088589999999996	24.97412	24.5981	24.64014	24.882689999999997				3	3	1,2232E-06	dRep_bin179_HFEIPPPA_01138;dRep_bin133_NOBPDBPA_03606;dRep_bin209_NKIHFCEN_01032;dRep_bin157_JPNIKEKI_00670;dRep_bin041_OPKGAAAG_01317;dRep_bin292_JIBLDOOH_00688;dRep_bin261_FJICAFFM_00138;dRep_bin226_NLNLHLLD_01388;dRep_bin328_GIGKNKPJ_00242;dRep_bin344_CJJBDGAA_00969;dRep_bin220_PILICLLL_00069;dRep_bin249_OFIIEIDJ_00359;dRep_bin324_IPNHOHFK_00446;dRep_bin303_DDDNDJCF_00610;dRep_bin269_PNILGKPH_01850;dRep_bin260_HELEPKJL_00807;dRep_bin211_LGJEFJIK_01183;dRep_bin139_KGAJINND_01384;dRep_bin039_IJNOFOJK_00920;dRep_bin310_IMBAFDIF_00714;dRep_bin254_GJDPFAEA_00378;dRep_bin019_MOJEPLJF_01144;dRep_bin186_HJAAFFNP_00163;dRep_bin300_MJPPENNL_00484;dRep_bin279_IAEFEPEN_00580;dRep_bin069_EGGEOGDC_01257;dRep_bin127_FIPNHBCH_00608;dRep_bin065_DFABHCBI_02316;dRep_bin240_LDBBGJKG_01460;dRep_bin134_HIAPAODO_01900;dRep_bin186_HJAAFFNP_01258;dRep_bin203_CLFNNOCF_01535	dRep_bin179_HFEIPPPA_01138;dRep_bin133_NOBPDBPA_03606;dRep_bin209_NKIHFCEN_01032;dRep_bin157_JPNIKEKI_00670;dRep_bin041_OPKGAAAG_01317;dRep_bin292_JIBLDOOH_00688;dRep_bin261_FJICAFFM_00138;dRep_bin226_NLNLHLLD_01388	>dRep_bin179_HFEIPPPA_01138 Single-stranded DNA-binding protein B;>dRep_bin133_NOBPDBPA_03606 Single-stranded DNA-binding protein A;>dRep_bin209_NKIHFCEN_01032 Single-stranded DNA-binding protein B;>dRep_bin157_JPNIKEKI_00670 Single-stranded DNA-binding pr	dRep_bin344_CJJBDGAA_00969	CDS	ssbA		Single-stranded DNA-binding protein A
CJJBDGAA_01016				20.12956								4	1	1,9606E-08	dRep_bin260_HELEPKJL_00003;dRep_bin303_DDDNDJCF_01034;dRep_bin254_GJDPFAEA_00291;dRep_bin248_CCDFPECI_01105;dRep_bin240_LDBBGJKG_00257;dRep_bin234_ECABPBME_02182;dRep_bin186_HJAAFFNP_02094;dRep_bin069_EGGEOGDC_00700;dRep_bin065_DFABHCBI_02333;dRep_bin344_CJJBDGAA_01016;dRep_bin287_DONBGKDH_00957;dRep_bin158_OGFICEAP_01016;dRep_bin134_HIAPAODO_01243;dRep_bin088_DNGPPFDK_00299;dRep_bin016_JLGAHGOJ_01972;dRep_bin168_HKDILBFE_00283;dRep_bin099_DNDAGJEJ_01634;dRep_bin023_HGFJFKAI_00643;dRep_bin335_JIOGNAPG_00172	dRep_bin260_HELEPKJL_00003;dRep_bin303_DDDNDJCF_01034;dRep_bin254_GJDPFAEA_00291;dRep_bin248_CCDFPECI_01105;dRep_bin240_LDBBGJKG_00257;dRep_bin234_ECABPBME_02182;dRep_bin186_HJAAFFNP_02094;dRep_bin069_EGGEOGDC_00700;dRep_bin065_DFABHCBI_02333;dRep_bin344_CJJBDGAA_01016;dRep_bin287_DONBGKDH_00957;dRep_bin158_OGFICEAP_01016;dRep_bin134_HIAPAODO_01243;dRep_bin088_DNGPPFDK_00299;dRep_bin016_JLGAHGOJ_01972	>dRep_bin260_HELEPKJL_00003 Inosine-5-monophosphate dehydrogenase;>dRep_bin303_DDDNDJCF_01034 Inosine-5-monophosphate dehydrogenase;>dRep_bin254_GJDPFAEA_00291 Inosine-5-monophosphate dehydrogenase;>dRep_bin248_CCDFPECI_01105 Inosine-5-monophosphate de	dRep_bin344_CJJBDGAA_01016	CDS	guaB	1.1.1.205	Inosine-5'-monophosphate dehydrogenase
CJJBDGAA_01020		27.309820000000002										17	0	0	dRep_bin297_EDHEEICA_00629;dRep_bin344_CJJBDGAA_01020;dRep_bin220_PILICLLL_00199	dRep_bin297_EDHEEICA_00629	>dRep_bin297_EDHEEICA_00629 60 kDa chaperonin	dRep_bin344_CJJBDGAA_01020	CDS	groL		60 kDa chaperonin
CJJBDGAA_01045	25.70176	24.34584	24.16776	25.042019999999997	26.06484	25.962189999999996	24.131010000000003	25.44717				7	7	9,3108E-148	dRep_bin344_CJJBDGAA_01045	dRep_bin344_CJJBDGAA_01045	>dRep_bin344_CJJBDGAA_01045 Bacterial extracellular solute-binding protein	dRep_bin344_CJJBDGAA_01045	CDS			Bacterial extracellular solute-binding protein
CJJBDGAA_01060		26.56719		26.56683								2	2	3,7291E-06	dRep_bin203_CLFNNOCF_00774;dRep_bin344_CJJBDGAA_01060;dRep_bin287_DONBGKDH_01736;dRep_bin261_FJICAFFM_01506;dRep_bin133_NOBPDBPA_00592;dRep_bin179_HFEIPPPA_01290;dRep_bin041_OPKGAAAG_01378;dRep_bin324_IPNHOHFK_00424	dRep_bin203_CLFNNOCF_00774;dRep_bin344_CJJBDGAA_01060;dRep_bin287_DONBGKDH_01736;dRep_bin261_FJICAFFM_01506;dRep_bin133_NOBPDBPA_00592;dRep_bin179_HFEIPPPA_01290;dRep_bin041_OPKGAAAG_01378;dRep_bin324_IPNHOHFK_00424	>dRep_bin203_CLFNNOCF_00774 Acyl carrier protein;>dRep_bin344_CJJBDGAA_01060 Acyl carrier protein;>dRep_bin287_DONBGKDH_01736 Acyl carrier protein;>dRep_bin261_FJICAFFM_01506 Acyl carrier protein;>dRep_bin133_NOBPDBPA_00592 Acyl carrier protein;>dRep_bin17	dRep_bin344_CJJBDGAA_01060	CDS	acpP_2		Acyl carrier protein
CJJBDGAA_01136	29.748329999999996	29.82018	29.93129	30.325599999999998	30.308239999999998	30.6062	29.740399999999998	30.226309999999998				8	5	3,417E-221	dRep_bin285_IPHKFJAN_01865;dRep_bin134_HIAPAODO_00851;dRep_bin062_BOFBFLDA_00805;dRep_bin150_HCDEOBMH_00361;dRep_bin028_GKEJLBAM_01294;dRep_bin145_KMJJJOEJ_00968;dRep_bin344_CJJBDGAA_01136	dRep_bin285_IPHKFJAN_01865	>dRep_bin285_IPHKFJAN_01865 L-ribulose-5-phosphate 4-epimerase UlaF	dRep_bin344_CJJBDGAA_01136	CDS	araD	5.1.3.4	L-ribulose-5-phosphate 4-epimerase
CJJBDGAA_01155	28.193850000000005	28.14768	27.303910000000002	27.76768	28.068509999999996	26.66166	28.189519999999998	26.82953				6	2	4,91E-21	dRep_bin201_OLKDIBOK_00096;dRep_bin226_NLNLHLLD_00643;dRep_bin157_JPNIKEKI_01428;dRep_bin220_PILICLLL_00420;dRep_bin209_NKIHFCEN_01063;dRep_bin139_KGAJINND_00432;dRep_bin344_CJJBDGAA_01155;dRep_bin260_HELEPKJL_00811;dRep_bin075_EPEMMOCL_01973;dRep_bin303_DDDNDJCF_01370;dRep_bin206_OIIBOIAK_00890;dRep_bin282_PKAAPBFP_00013;dRep_bin027_OFJCHLJJ_00660;dRep_bin248_CCDFPECI_00213;dRep_bin231_CFOLMJBA_00669;dRep_bin134_HIAPAODO_01486	dRep_bin201_OLKDIBOK_00096;dRep_bin226_NLNLHLLD_00643;dRep_bin157_JPNIKEKI_01428;dRep_bin220_PILICLLL_00420;dRep_bin209_NKIHFCEN_01063;dRep_bin139_KGAJINND_00432;dRep_bin344_CJJBDGAA_01155;dRep_bin260_HELEPKJL_00811;dRep_bin075_EPEMMOCL_01973;dRep_bin303_DDDNDJCF_01370	>dRep_bin201_OLKDIBOK_00096 Peptidyl-prolyl cis-trans isomerase B;>dRep_bin226_NLNLHLLD_00643 putative peptidyl-prolyl cis-trans isomerase;>dRep_bin157_JPNIKEKI_01428 Putative peptidyl-prolyl cis-trans isomerase;>dRep_bin220_PILICLLL_00420 Peptidyl-prolyl	dRep_bin344_CJJBDGAA_01155	CDS	ppiB_2	5.2.1.8	Peptidyl-prolyl cis-trans isomerase B
CJJBDGAA_01159					25.49625							2	2	1,1538E-06	dRep_bin226_NLNLHLLD_00532;dRep_bin209_NKIHFCEN_00151;dRep_bin157_JPNIKEKI_01700;dRep_bin041_OPKGAAAG_00804;dRep_bin347_EKGCMFPD_01151;dRep_bin234_ECABPBME_02204;dRep_bin335_JIOGNAPG_00452;dRep_bin344_CJJBDGAA_01159;dRep_bin248_CCDFPECI_01755;dRep_bin243_JDMELKLC_00417;dRep_bin145_KMJJJOEJ_01171;dRep_bin139_KGAJINND_01314;dRep_bin016_JLGAHGOJ_00639;dRep_bin143_PFLDJMPF_01247;dRep_bin160_EFKMPBOM_02408;dRep_bin293_MEPKGOAN_00830;dRep_bin154_JGOKHKLI_00581;dRep_bin325_EIIGOGHN_00042;dRep_bin292_JIBLDOOH_01154;dRep_bin203_CLFNNOCF_00015;dRep_bin179_HFEIPPPA_01953;dRep_bin133_NOBPDBPA_02967;dRep_bin319_PBDBJGCJ_00929;dRep_bin260_HELEPKJL_00646;dRep_bin282_PKAAPBFP_00876	dRep_bin226_NLNLHLLD_00532;dRep_bin209_NKIHFCEN_00151;dRep_bin157_JPNIKEKI_01700;dRep_bin041_OPKGAAAG_00804;dRep_bin347_EKGCMFPD_01151;dRep_bin234_ECABPBME_02204;dRep_bin335_JIOGNAPG_00452;dRep_bin344_CJJBDGAA_01159;dRep_bin248_CCDFPECI_01755;dRep_bin243_JDMELKLC_00417;dRep_bin145_KMJJJOEJ_01171;dRep_bin139_KGAJINND_01314;dRep_bin016_JLGAHGOJ_00639;dRep_bin143_PFLDJMPF_01247;dRep_bin160_EFKMPBOM_02408;dRep_bin293_MEPKGOAN_00830;dRep_bin154_JGOKHKLI_00581;dRep_bin325_EIIGOGHN_00042;dRep_bin292_JIBLDOOH_01154;dRep_bin203_CLFNNOCF_00015;dRep_bin179_HFEIPPPA_01953;dRep_bin133_NOBPDBPA_02967;dRep_bin319_PBDBJGCJ_00929;dRep_bin260_HELEPKJL_00646;dRep_bin282_PKAAPBFP_00876	>dRep_bin226_NLNLHLLD_00532 Ferredoxin-dependent glutamate synthase 1;>dRep_bin209_NKIHFCEN_00151 Ferredoxin-dependent glutamate synthase 1;>dRep_bin157_JPNIKEKI_01700 Ferredoxin-dependent glutamate synthase 1;>dRep_bin041_OPKGAAAG_00804 Ferredoxin-depende	dRep_bin344_CJJBDGAA_01159	CDS	gltB_2	1.4.7.1	Ferredoxin-dependent glutamate synthase 1
CJJBDGAA_01161					25.06357							5	1	3,6059E-73	dRep_bin203_CLFNNOCF_01682;dRep_bin347_EKGCMFPD_01504;dRep_bin284_DEHKNOBF_01057;dRep_bin260_HELEPKJL_00015;dRep_bin310_IMBAFDIF_00287;dRep_bin134_HIAPAODO_00846;dRep_bin062_BOFBFLDA_01435;dRep_bin300_MJPPENNL_01196;dRep_bin201_OLKDIBOK_02047;dRep_bin105_AAEIHAFF_01478;dRep_bin100_CODMOHGB_01221;dRep_bin088_DNGPPFDK_00866;dRep_bin277_MIPNGEJE_00690;dRep_bin166_DFIAJFEC_00146;dRep_bin161_JMKPMHCO_01114;dRep_bin059_OOBKFNPP_00125;dRep_bin046_GKEJLOEK_01062;dRep_bin091_MAFACGAD_00248;dRep_bin017_FGFLFOPJ_00727;dRep_bin354_MMOALAFN_00741;dRep_bin324_IPNHOHFK_00313;dRep_bin323_FBBLPLCG_01264;dRep_bin309_BIOHLCGG_01306;dRep_bin273_FGAEBHNP_00470;dRep_bin261_FJICAFFM_01100;dRep_bin148_NAJFKJMD_00795;dRep_bin115_IFKGOGCL_00123;dRep_bin069_EGGEOGDC_01056;dRep_bin344_CJJBDGAA_01161;dRep_bin249_OFIIEIDJ_00715;dRep_bin220_PILICLLL_00990;dRep_bin134_HIAPAODO_01436;dRep_bin065_DFABHCBI_00344;dRep_bin032_PPNIGLME_00203;dRep_bin270_GEJAHNCN_01587;dRep_bin065_DFABHCBI_00249;dRep_bin278_BFCONKOE_01054;dRep_bin016_JLGAHGOJ_00641;dRep_bin328_GIGKNKPJ_01462;dRep_bin308_JBPDGLPP_01172;dRep_bin303_DDDNDJCF_01320;dRep_bin254_GJDPFAEA_00870;dRep_bin234_ECABPBME_00536;dRep_bin186_HJAAFFNP_01789;dRep_bin167_BLMEBMNN_01296;dRep_bin107_EFNBPDOP_00511;dRep_bin077_DNNBMPMC_01864;dRep_bin066_AJACLPEE_01033;dRep_bin047_IFFANOMN_00697;dRep_bin135_HHKACLPM_00107;dRep_bin303_DDDNDJCF_00377;dRep_bin306_FGHMKMMP_01595;dRep_bin211_LGJEFJIK_00450;dRep_bin007_LNLEAAAN_01312;dRep_bin344_CJJBDGAA_01611;dRep_bin031_BNHMFOII_01628;dRep_bin353_PPDHLNJB_02118;dRep_bin254_GJDPFAEA_00869;dRep_bin094_LBLICAAO_00342;dRep_bin047_IFFANOMN_01357;dRep_bin120_EKLBOPNC_01832;dRep_bin168_HKDILBFE_01442;dRep_bin099_DNDAGJEJ_00392;dRep_bin215_ABBFGCAF_00798;dRep_bin029_LFMGBBEC_01628;dRep_bin240_LDBBGJKG_01094;dRep_bin279_IAEFEPEN_01491;dRep_bin130_OIFFANPF_01666;dRep_bin319_PBDBJGCJ_00268;dRep_bin017_FGFLFOPJ_00820;dRep_bin082_HBEFABJN_01328;dRep_bin245_MBCFLKOF_01762;dRep_bin027_OFJCHLJJ_00790;dRep_bin108_BPNCDINP_00911;dRep_bin308_JBPDGLPP_01750;dRep_bin193_GDMDPNNM_00480;dRep_bin344_CJJBDGAA_02078;dRep_bin049_MNFBDPNO_01413;dRep_bin096_GNHMEKPF_00097;dRep_bin104_EGLEJOLM_01934;dRep_bin339_DBNBAHDK_02499;dRep_bin321_EJNAAGJG_00755;dRep_bin273_FGAEBHNP_00835;dRep_bin250_NMCAMJIO_00087;dRep_bin247_EKGBJCBM_00317;dRep_bin148_NAJFKJMD_01189;dRep_bin337_FHKPNFDB_01633;dRep_bin320_LDBKCCKL_01786;dRep_bin304_JDNJGFKH_01982;dRep_bin286_OEMIJKMC_01141;dRep_bin231_CFOLMJBA_00953;dRep_bin162_JBGCCDIN_01636;dRep_bin126_PPDNCIBN_01067;dRep_bin109_MJABCPAK_00317;dRep_bin057_BNCFHBBO_00597;dRep_bin288_KOIAAABN_00012;dRep_bin263_OLEFOGIJ_00295;dRep_bin304_JDNJGFKH_00179;dRep_bin208_DHPGEIBC_00457;dRep_bin189_AHHEHGDL_01282;dRep_bin177_HLHGKLFL_00741;dRep_bin140_ACFAKGIL_00319;dRep_bin105_AAEIHAFF_01411;dRep_bin082_HBEFABJN_00692;dRep_bin010_MFFFGEGD_00717;dRep_bin005_CNDFPKJG_01705;dRep_bin287_DONBGKDH_01836;dRep_bin094_LBLICAAO_00388;dRep_bin058_GJKCICJN_00227;dRep_bin293_MEPKGOAN_00829;dRep_bin218_ACMPALGF_00229;dRep_bin205_LKIOOBKC_00417;dRep_bin172_ALNHGLMD_01439;dRep_bin159_ADJJGPBG_01342;dRep_bin143_PFLDJMPF_01248;dRep_bin101_BNDDLDCL_01982;dRep_bin091_MAFACGAD_01619;dRep_bin072_JOBJPCGA_00130;dRep_bin011_KOGMKLNO_01272;dRep_bin164_KHMELCCL_01402;dRep_bin305_FCIEFIHE_00371;dRep_bin222_GGCAJABB_00745;dRep_bin006_HPJGJCAG_01874;dRep_bin286_OEMIJKMC_01354;dRep_bin126_PPDNCIBN_00282;dRep_bin185_OOOLKACK_00819;dRep_bin043_KLAFNACO_00900;dRep_bin231_CFOLMJBA_01529;dRep_bin237_KJDLIPND_00869;dRep_bin147_EJLBNEBE_00138;dRep_bin186_HJAAFFNP_01790;dRep_bin081_JDPCKDNP_00172;dRep_bin069_EGGEOGDC_00890;dRep_bin282_PKAAPBFP_00016;dRep_bin206_OIIBOIAK_00984;dRep_bin161_JMKPMHCO_00782;dRep_bin278_BFCONKOE_00310;dRep_bin260_HELEPKJL_01944;dRep_bin336_MPGOKPOL_00897	dRep_bin203_CLFNNOCF_01682;dRep_bin347_EKGCMFPD_01504;dRep_bin284_DEHKNOBF_01057;dRep_bin260_HELEPKJL_00015;dRep_bin310_IMBAFDIF_00287;dRep_bin134_HIAPAODO_00846;dRep_bin062_BOFBFLDA_01435	>dRep_bin203_CLFNNOCF_01682 Glutamine synthetase;>dRep_bin347_EKGCMFPD_01504 Glutamine synthetase;>dRep_bin284_DEHKNOBF_01057 Glutamine synthetase;>dRep_bin260_HELEPKJL_00015 Glutamine synthetase;>dRep_bin310_IMBAFDIF_00287 Glutamine synthetase;>dRep_bin13	dRep_bin344_CJJBDGAA_01161	CDS	glnA_2	6.3.1.2	Glutamine synthetase
CJJBDGAA_01205	23.217000000000002											4	1	1,4554E-08	dRep_bin016_JLGAHGOJ_00452;dRep_bin062_BOFBFLDA_01443;dRep_bin134_HIAPAODO_00288;dRep_bin310_IMBAFDIF_00302;dRep_bin088_DNGPPFDK_00716;dRep_bin344_CJJBDGAA_01205;dRep_bin303_DDDNDJCF_01080;dRep_bin287_DONBGKDH_00527;dRep_bin266_JFOCEDAE_00987;dRep_bin260_HELEPKJL_00667;dRep_bin335_JIOGNAPG_01221;dRep_bin234_ECABPBME_00103;dRep_bin160_EFKMPBOM_01965;dRep_bin154_JGOKHKLI_00776;dRep_bin091_MAFACGAD_01389;dRep_bin047_IFFANOMN_02010;dRep_bin001_GHHJMDAL_01182	dRep_bin016_JLGAHGOJ_00452;dRep_bin062_BOFBFLDA_01443;dRep_bin134_HIAPAODO_00288;dRep_bin310_IMBAFDIF_00302;dRep_bin088_DNGPPFDK_00716;dRep_bin344_CJJBDGAA_01205;dRep_bin303_DDDNDJCF_01080;dRep_bin287_DONBGKDH_00527;dRep_bin266_JFOCEDAE_00987;dRep_bin260_HELEPKJL_00667;dRep_bin335_JIOGNAPG_01221;dRep_bin234_ECABPBME_00103;dRep_bin160_EFKMPBOM_01965;dRep_bin154_JGOKHKLI_00776;dRep_bin091_MAFACGAD_01389;dRep_bin047_IFFANOMN_02010;dRep_bin001_GHHJMDAL_01182	>dRep_bin016_JLGAHGOJ_00452 30S ribosomal protein S4;>dRep_bin062_BOFBFLDA_01443 30S ribosomal protein S4;>dRep_bin134_HIAPAODO_00288 30S ribosomal protein S4;>dRep_bin310_IMBAFDIF_00302 30S ribosomal protein S4;>dRep_bin088_DNGPPFDK_00716 30S ribosomal pr	dRep_bin344_CJJBDGAA_01205	CDS	rpsD		30S ribosomal protein S4
CJJBDGAA_01228					24.81563	24.62042	24.26198					6	2	6,5376E-95	dRep_bin201_OLKDIBOK_01689;dRep_bin344_CJJBDGAA_01228	dRep_bin201_OLKDIBOK_01689;dRep_bin344_CJJBDGAA_01228	>dRep_bin201_OLKDIBOK_01689 Trehalose import ATP-binding protein SugC;>dRep_bin344_CJJBDGAA_01228 Trehalose import ATP-binding protein SugC	dRep_bin344_CJJBDGAA_01228	CDS	sugC_1	3.6.3.-	Trehalose import ATP-binding protein SugC
CJJBDGAA_01343	23.498749999999998	23.41377	23.664050000000003	25.007910000000003								4	3	8,0566E-12	dRep_bin292_JIBLDOOH_01418;dRep_bin303_DDDNDJCF_00505;dRep_bin077_DNNBMPMC_00941;dRep_bin152_LJMCIADF_01123;dRep_bin124_HIHDFGCL_00335;dRep_bin079_GAOGCKND_00643;dRep_bin068_ENOLAELK_01078;dRep_bin038_EIGFILKG_00380;dRep_bin309_BIOHLCGG_00617;dRep_bin194_MEPDOGGJ_00286;dRep_bin025_CBEJJMLE_00539;dRep_bin247_EKGBJCBM_00804;dRep_bin253_CPMOAOBJ_00601;dRep_bin169_PNICKJKO_01110;dRep_bin123_PJKBFKBB_01254;dRep_bin306_FGHMKMMP_00717;dRep_bin293_MEPKGOAN_00676;dRep_bin257_JHFDCHCB_01083;dRep_bin249_OFIIEIDJ_00213;dRep_bin157_JPNIKEKI_01818;dRep_bin085_MBHLGCDB_01586;dRep_bin319_PBDBJGCJ_01316;dRep_bin300_MJPPENNL_01694;dRep_bin282_PKAAPBFP_01497;dRep_bin220_PILICLLL_01502;dRep_bin209_NKIHFCEN_00711;dRep_bin179_HFEIPPPA_01156;dRep_bin166_DFIAJFEC_01129;dRep_bin160_EFKMPBOM_01097;dRep_bin154_JGOKHKLI_00129;dRep_bin088_DNGPPFDK_00244;dRep_bin075_EPEMMOCL_01534;dRep_bin069_EGGEOGDC_00523;dRep_bin344_CJJBDGAA_01343;dRep_bin324_IPNHOHFK_02132;dRep_bin310_IMBAFDIF_01633;dRep_bin297_EDHEEICA_00782;dRep_bin269_PNILGKPH_01786;dRep_bin248_CCDFPECI_00995;dRep_bin226_NLNLHLLD_00535;dRep_bin203_CLFNNOCF_00636;dRep_bin168_HKDILBFE_00313;dRep_bin139_KGAJINND_00724;dRep_bin133_NOBPDBPA_02650;dRep_bin099_DNDAGJEJ_01464;dRep_bin091_MAFACGAD_00915;dRep_bin007_LNLEAAAN_01209;dRep_bin260_HELEPKJL_00482;dRep_bin186_HJAAFFNP_01391;dRep_bin115_IFKGOGCL_02481;dRep_bin039_IJNOFOJK_00485;dRep_bin354_MMOALAFN_01391;dRep_bin261_FJICAFFM_01132;dRep_bin336_MPGOKPOL_01187;dRep_bin095_HOBNOEEF_00148;dRep_bin348_LCLFDNEE_00586;dRep_bin125_FADLGGII_01253;dRep_bin089_PAJFOJBN_00918;dRep_bin277_MIPNGEJE_00466	dRep_bin292_JIBLDOOH_01418;dRep_bin303_DDDNDJCF_00505	>dRep_bin292_JIBLDOOH_01418 Putative aminotransferase/MSMEI_6121;>dRep_bin303_DDDNDJCF_00505 Putative aminotransferase/MSMEI_6121	dRep_bin344_CJJBDGAA_01343	CDS			Putative aminotransferase/MSMEI_6121
CJJBDGAA_01388					25.158							3	3	1,2414E-07	dRep_bin201_OLKDIBOK_00577;dRep_bin115_IFKGOGCL_02473;dRep_bin247_EKGBJCBM_01258;dRep_bin161_JMKPMHCO_00071;dRep_bin250_NMCAMJIO_00285;dRep_bin124_HIHDFGCL_01631;dRep_bin154_JGOKHKLI_01454;dRep_bin146_LCCIBLJG_00619;dRep_bin106_BKDHGPBE_00808;dRep_bin106_BKDHGPBE_00753;dRep_bin344_CJJBDGAA_01388;dRep_bin325_EIIGOGHN_00333;dRep_bin260_HELEPKJL_00743;dRep_bin220_PILICLLL_01598;dRep_bin145_KMJJJOEJ_00848;dRep_bin139_KGAJINND_00377;dRep_bin115_IFKGOGCL_01096;dRep_bin095_HOBNOEEF_01156;dRep_bin081_JDPCKDNP_01298;dRep_bin047_IFFANOMN_00086;dRep_bin016_JLGAHGOJ_00176;dRep_bin322_OJELOJOF_00203;dRep_bin234_ECABPBME_02273;dRep_bin075_EPEMMOCL_00967;dRep_bin005_CNDFPKJG_01245;dRep_bin310_IMBAFDIF_01047;dRep_bin287_DONBGKDH_00172;dRep_bin089_PAJFOJBN_01160;dRep_bin158_OGFICEAP_00810	dRep_bin201_OLKDIBOK_00577	>dRep_bin201_OLKDIBOK_00577 S-adenosylmethionine synthase	dRep_bin344_CJJBDGAA_01388	CDS	metK	2.5.1.6	S-adenosylmethionine synthase
CJJBDGAA_01395	24.180329999999998	25.3291	23.20616	24.6216								2	2	5,7174E-26	dRep_bin016_JLGAHGOJ_00113;dRep_bin220_PILICLLL_01549;dRep_bin303_DDDNDJCF_00372;dRep_bin186_HJAAFFNP_00883;dRep_bin344_CJJBDGAA_01395;dRep_bin335_JIOGNAPG_00425;dRep_bin308_JBPDGLPP_01374;dRep_bin139_KGAJINND_00267;dRep_bin154_JGOKHKLI_01407	dRep_bin016_JLGAHGOJ_00113;dRep_bin220_PILICLLL_01549;dRep_bin303_DDDNDJCF_00372;dRep_bin186_HJAAFFNP_00883;dRep_bin344_CJJBDGAA_01395;dRep_bin335_JIOGNAPG_00425;dRep_bin308_JBPDGLPP_01374;dRep_bin139_KGAJINND_00267;dRep_bin154_JGOKHKLI_01407	>dRep_bin016_JLGAHGOJ_00113 Cysteine desulfurase IscS;>dRep_bin220_PILICLLL_01549 Cysteine desulfurase IscS;>dRep_bin303_DDDNDJCF_00372 Cysteine desulfurase IscS;>dRep_bin186_HJAAFFNP_00883 Cysteine desulfurase IscS;>dRep_bin344_CJJBDGAA_01395 Cysteine des	dRep_bin344_CJJBDGAA_01395	CDS	iscS_2	2.8.1.7	Cysteine desulfurase IscS
CJJBDGAA_01435			22.50928	22.762659999999997	22.054080000000003	22.38118		22.087509999999998				2	2	0,00083861	dRep_bin045_GJACFFBC_00064;dRep_bin002_CFBNDKDN_01023;dRep_bin113_LIFKCGBF_01751;dRep_bin159_ADJJGPBG_01811;dRep_bin203_CLFNNOCF_01389;dRep_bin098_DDEBHDKK_00487;dRep_bin344_CJJBDGAA_01435;dRep_bin170_LICLFCFF_01021;dRep_bin285_IPHKFJAN_01164;dRep_bin307_AOCKHIKF_00030	dRep_bin045_GJACFFBC_00064;dRep_bin002_CFBNDKDN_01023;dRep_bin113_LIFKCGBF_01751;dRep_bin159_ADJJGPBG_01811;dRep_bin203_CLFNNOCF_01389;dRep_bin098_DDEBHDKK_00487;dRep_bin344_CJJBDGAA_01435;dRep_bin170_LICLFCFF_01021;dRep_bin285_IPHKFJAN_01164;dRep_bin307_AOCKHIKF_00030	>dRep_bin045_GJACFFBC_00064 L-glyceraldehyde 3-phosphate reductase;>dRep_bin002_CFBNDKDN_01023 L-glyceraldehyde 3-phosphate reductase;>dRep_bin113_LIFKCGBF_01751 L-glyceraldehyde 3-phosphate reductase;>dRep_bin159_ADJJGPBG_01811 L-glyceraldehyde 3-phosphat	dRep_bin344_CJJBDGAA_01435	CDS	gpr_1	1.1.1.-	L-glyceraldehyde 3-phosphate reductase
CJJBDGAA_01486	25.59958											1	1	4,4137E-05	dRep_bin344_CJJBDGAA_01486;dRep_bin220_PILICLLL_00038;dRep_bin139_KGAJINND_01279;dRep_bin134_HIAPAODO_01161;dRep_bin062_BOFBFLDA_00414;dRep_bin019_MOJEPLJF_01365;dRep_bin201_OLKDIBOK_00520	dRep_bin344_CJJBDGAA_01486;dRep_bin220_PILICLLL_00038;dRep_bin139_KGAJINND_01279;dRep_bin134_HIAPAODO_01161;dRep_bin062_BOFBFLDA_00414;dRep_bin019_MOJEPLJF_01365;dRep_bin201_OLKDIBOK_00520	>dRep_bin344_CJJBDGAA_01486 ATP synthase subunit c, sodium ion specific;>dRep_bin220_PILICLLL_00038 ATP synthase subunit c, sodium ion specific;>dRep_bin139_KGAJINND_01279 ATP synthase subunit c, sodium ion specific;>dRep_bin134_HIAPAODO_01161 ATP synthase	dRep_bin344_CJJBDGAA_01486	CDS	atpE_2		ATP synthase subunit c, sodium ion specific
CJJBDGAA_01489				21.86884								3	1	1,3797E-13	dRep_bin021_AJDDCGJC_00051;dRep_bin252_NDAKLAGD_00826;dRep_bin317_ABPHNCOD_01131;dRep_bin216_JNJMCPHB_01076;dRep_bin272_LGBDGEIM_00618;dRep_bin097_CBBLIPAN_01579;dRep_bin053_OMGNPOOB_00833;dRep_bin337_FHKPNFDB_00090;dRep_bin052_PGOOKKFH_01594;dRep_bin168_HKDILBFE_01015;dRep_bin322_OJELOJOF_01622;dRep_bin220_PILICLLL_01543;dRep_bin055_IBMMJAEE_00610;dRep_bin061_ONFGDLGO_01234;dRep_bin168_HKDILBFE_00368;dRep_bin055_IBMMJAEE_00168;dRep_bin261_FJICAFFM_00490;dRep_bin017_FGFLFOPJ_00414;dRep_bin115_IFKGOGCL_01280;dRep_bin257_JHFDCHCB_01406;dRep_bin323_FBBLPLCG_01600;dRep_bin007_LNLEAAAN_00766;dRep_bin049_MNFBDPNO_00781;dRep_bin333_EFOKIBLA_01149;dRep_bin279_IAEFEPEN_01471;dRep_bin234_ECABPBME_01515;dRep_bin179_HFEIPPPA_02108;dRep_bin023_HGFJFKAI_01527;dRep_bin335_JIOGNAPG_00787;dRep_bin250_NMCAMJIO_00423;dRep_bin158_OGFICEAP_00549;dRep_bin100_CODMOHGB_01341;dRep_bin089_PAJFOJBN_02515;dRep_bin088_DNGPPFDK_01371;dRep_bin081_JDPCKDNP_00684;dRep_bin324_IPNHOHFK_01454;dRep_bin300_MJPPENNL_01260;dRep_bin292_JIBLDOOH_01593;dRep_bin284_DEHKNOBF_00281;dRep_bin282_PKAAPBFP_00934;dRep_bin279_IAEFEPEN_01275;dRep_bin269_PNILGKPH_00152;dRep_bin240_LDBBGJKG_01257;dRep_bin226_NLNLHLLD_00367;dRep_bin209_NKIHFCEN_01541;dRep_bin203_CLFNNOCF_01928;dRep_bin179_HFEIPPPA_00359;dRep_bin167_BLMEBMNN_00233;dRep_bin160_EFKMPBOM_02132;dRep_bin154_JGOKHKLI_02775;dRep_bin133_NOBPDBPA_00727;dRep_bin114_FJHJKHGL_00838;dRep_bin095_HOBNOEEF_00822;dRep_bin075_EPEMMOCL_00939;dRep_bin074_EHAOMODJ_00291;dRep_bin065_DFABHCBI_01203;dRep_bin347_EKGCMFPD_00625;dRep_bin325_EIIGOGHN_00612;dRep_bin310_IMBAFDIF_01359;dRep_bin308_JBPDGLPP_00545;dRep_bin306_FGHMKMMP_01018;dRep_bin297_EDHEEICA_01903;dRep_bin201_OLKDIBOK_00335;dRep_bin186_HJAAFFNP_00409;dRep_bin173_BEBNCADL_00242;dRep_bin169_PNICKJKO_00103;dRep_bin145_KMJJJOEJ_01348;dRep_bin135_HHKACLPM_00566;dRep_bin101_BNDDLDCL_00036;dRep_bin069_EGGEOGDC_01480;dRep_bin062_BOFBFLDA_00487;dRep_bin047_IFFANOMN_01271;dRep_bin042_MMFCLHOO_00308;dRep_bin041_OPKGAAAG_00762;dRep_bin024_OLHDGABE_00679;dRep_bin016_JLGAHGOJ_01831;dRep_bin001_GHHJMDAL_00660;dRep_bin349_AMCJEEEG_00131;dRep_bin312_MJFEFHMP_00833;dRep_bin264_DNFFGNEG_00100;dRep_bin246_MMFBABHK_00297;dRep_bin219_HGPEELLF_00003;dRep_bin174_LJJOKEME_01103;dRep_bin129_GADIAMAA_01409;dRep_bin127_FIPNHBCH_00703;dRep_bin077_DNNBMPMC_01278;dRep_bin030_OGPDLGOC_01790;dRep_bin004_OCHNPJPO_01519;dRep_bin218_ACMPALGF_00968;dRep_bin185_OOOLKACK_00657;dRep_bin181_MKGPMPIA_00538;dRep_bin148_NAJFKJMD_01090;dRep_bin058_GJKCICJN_01056;dRep_bin291_EILOACJB_00579;dRep_bin244_LBFMHLBI_01277;dRep_bin223_PIMCDKJI_01006;dRep_bin204_INMOGLDN_01473;dRep_bin184_MBMMJHKO_00222;dRep_bin302_AHDEPDKG_00621;dRep_bin265_LFKFBJPC_00590;dRep_bin233_BAGKKAOB_00885;dRep_bin188_EJILNMPE_01053;dRep_bin081_JDPCKDNP_01324;dRep_bin318_IEDEJOFJ_00724;dRep_bin144_NPHACCKF_00221;dRep_bin096_GNHMEKPF_00086;dRep_bin344_CJJBDGAA_01489;dRep_bin295_EJGKDKNE_00851;dRep_bin048_PABMBHAL_01507;dRep_bin303_DDDNDJCF_00663;dRep_bin283_NLJJFFAC_01754;dRep_bin201_OLKDIBOK_00523;dRep_bin139_KGAJINND_01276;dRep_bin134_HIAPAODO_01158;dRep_bin094_LBLICAAO_00942;dRep_bin062_BOFBFLDA_00417;dRep_bin336_MPGOKPOL_02385;dRep_bin082_HBEFABJN_00650;dRep_bin125_FADLGGII_00540;dRep_bin334_NAPFFNLD_01195;dRep_bin217_MJCEAEPB_00530;dRep_bin195_DDMDFNOK_00971;dRep_bin060_HNFNENOI_00088;dRep_bin328_GIGKNKPJ_00426;dRep_bin281_OGHLKMAI_01076;dRep_bin197_NHLBHFEI_00626;dRep_bin103_IGJBLKMC_00726;dRep_bin116_CLFDBMOF_00455;dRep_bin332_KAOPCDPF_00448;dRep_bin345_GLPJDLOI_00589;dRep_bin314_KCHFPLIP_00788;dRep_bin128_JPBBHEMA_00693;dRep_bin073_AKBCEHHO_01462;dRep_bin045_GJACFFBC_00428;dRep_bin329_GDOHKPBL_01522;dRep_bin316_FNLHDNEO_00349;dRep_bin307_AOCKHIKF_00400;dRep_bin294_EHJINIDK_01408;dRep_bin289_KALDCNNP_01327;dRep_bin183_FPGIOKBG_00622;dRep_bin098_DDEBHDKK_01308;dRep_bin165_HMDFFMMM_01247;dRep_bin037_GEAOEKHA_01212;dRep_bin256_KEMNAOBC_00113;dRep_bin092_OOJCPDEA_01143;dRep_bin126_PPDNCIBN_00264;dRep_bin090_IPGNHCBJ_00911;dRep_bin215_ABBFGCAF_00280;dRep_bin005_CNDFPKJG_00629;dRep_bin270_GEJAHNCN_01426;dRep_bin116_CLFDBMOF_00686;dRep_bin069_EGGEOGDC_00857;dRep_bin007_LNLEAAAN_01604;dRep_bin057_BNCFHBBO_01159;dRep_bin038_EIGFILKG_00229;dRep_bin114_FJHJKHGL_00934;dRep_bin152_LJMCIADF_00045;dRep_bin322_OJELOJOF_00826;dRep_bin266_JFOCEDAE_00030;dRep_bin194_MEPDOGGJ_01235;dRep_bin079_GAOGCKND_01437;dRep_bin068_ENOLAELK_01387;dRep_bin025_CBEJJMLE_00917;dRep_bin240_LDBBGJKG_00802;dRep_bin347_EKGCMFPD_01498;dRep_bin167_BLMEBMNN_00596;dRep_bin160_EFKMPBOM_02114;dRep_bin260_HELEPKJL_02017;dRep_bin091_MAFACGAD_00797;dRep_bin099_DNDAGJEJ_01471;dRep_bin278_BFCONKOE_01179;dRep_bin168_HKDILBFE_00397;dRep_bin284_DEHKNOBF_00737;dRep_bin001_GHHJMDAL_01209;dRep_bin236_BNONDECB_00531;dRep_bin286_OEMIJKMC_01078;dRep_bin231_CFOLMJBA_00464;dRep_bin193_GDMDPNNM_00224;dRep_bin172_ALNHGLMD_01787;dRep_bin182_EMCFODCD_00065;dRep_bin044_IPFKHAEF_00183	dRep_bin021_AJDDCGJC_00051;dRep_bin252_NDAKLAGD_00826;dRep_bin317_ABPHNCOD_01131;dRep_bin216_JNJMCPHB_01076;dRep_bin272_LGBDGEIM_00618;dRep_bin097_CBBLIPAN_01579;dRep_bin053_OMGNPOOB_00833;dRep_bin337_FHKPNFDB_00090;dRep_bin052_PGOOKKFH_01594	>dRep_bin021_AJDDCGJC_00051 ATP synthase subunit alpha;>dRep_bin252_NDAKLAGD_00826 ATP synthase subunit alpha;>dRep_bin317_ABPHNCOD_01131 ATP synthase subunit alpha;>dRep_bin216_JNJMCPHB_01076 ATP synthase subunit alpha;>dRep_bin272_LGBDGEIM_00618 ATP synt	dRep_bin344_CJJBDGAA_01489	CDS	atpA_2	3.6.3.14	ATP synthase subunit alpha
CJJBDGAA_01515				28.50635								2	0	0,025352	dRep_bin344_CJJBDGAA_01515;dRep_bin211_LGJEFJIK_00737;dRep_bin226_NLNLHLLD_00459;dRep_bin117_PMEMANMD_00232;dRep_bin266_JFOCEDAE_01199;dRep_bin261_FJICAFFM_00864;dRep_bin220_PILICLLL_01139;dRep_bin209_NKIHFCEN_01468;dRep_bin324_IPNHOHFK_01744;dRep_bin297_EDHEEICA_00326;dRep_bin203_CLFNNOCF_02519;dRep_bin157_JPNIKEKI_01354;dRep_bin133_NOBPDBPA_04374;dRep_bin041_OPKGAAAG_01974;dRep_bin091_MAFACGAD_01060;dRep_bin027_OFJCHLJJ_01238;dRep_bin322_OJELOJOF_00186;dRep_bin287_DONBGKDH_00550;dRep_bin081_JDPCKDNP_01704;dRep_bin249_OFIIEIDJ_00125;dRep_bin168_HKDILBFE_00610;dRep_bin135_HHKACLPM_01538;dRep_bin099_DNDAGJEJ_00403;dRep_bin089_PAJFOJBN_01181;dRep_bin005_CNDFPKJG_00525;dRep_bin260_HELEPKJL_01304;dRep_bin220_PILICLLL_01333;dRep_bin201_OLKDIBOK_00115;dRep_bin151_AHBJLMBI_00748;dRep_bin139_KGAJINND_00205;dRep_bin075_EPEMMOCL_00657;dRep_bin088_DNGPPFDK_00476;dRep_bin134_HIAPAODO_01442;dRep_bin310_IMBAFDIF_00699	dRep_bin344_CJJBDGAA_01515;dRep_bin211_LGJEFJIK_00737;dRep_bin226_NLNLHLLD_00459;dRep_bin117_PMEMANMD_00232;dRep_bin266_JFOCEDAE_01199;dRep_bin261_FJICAFFM_00864;dRep_bin220_PILICLLL_01139;dRep_bin209_NKIHFCEN_01468;dRep_bin324_IPNHOHFK_01744;dRep_bin297_EDHEEICA_00326;dRep_bin203_CLFNNOCF_02519;dRep_bin157_JPNIKEKI_01354;dRep_bin133_NOBPDBPA_04374;dRep_bin041_OPKGAAAG_01974;dRep_bin091_MAFACGAD_01060;dRep_bin027_OFJCHLJJ_01238;dRep_bin322_OJELOJOF_00186;dRep_bin287_DONBGKDH_00550;dRep_bin081_JDPCKDNP_01704;dRep_bin249_OFIIEIDJ_00125;dRep_bin168_HKDILBFE_00610;dRep_bin135_HHKACLPM_01538;dRep_bin099_DNDAGJEJ_00403;dRep_bin089_PAJFOJBN_01181;dRep_bin005_CNDFPKJG_00525;dRep_bin260_HELEPKJL_01304;dRep_bin220_PILICLLL_01333;dRep_bin201_OLKDIBOK_00115;dRep_bin151_AHBJLMBI_00748;dRep_bin139_KGAJINND_00205;dRep_bin075_EPEMMOCL_00657;dRep_bin088_DNGPPFDK_00476;dRep_bin134_HIAPAODO_01442;dRep_bin310_IMBAFDIF_00699	>dRep_bin344_CJJBDGAA_01515 Putative septation protein SpoVG;>dRep_bin211_LGJEFJIK_00737 Putative septation protein SpoVG;>dRep_bin226_NLNLHLLD_00459 Putative septation protein SpoVG;>dRep_bin117_PMEMANMD_00232 Putative septation protein SpoVG;>dRep_bin266	dRep_bin344_CJJBDGAA_01515	CDS	spoVG		Putative septation protein SpoVG
CJJBDGAA_01621	27.75328	28.502789999999997	28.382699999999996	28.23412	28.69073	28.35876	28.483929999999997	28.38299				22	2	0	dRep_bin344_CJJBDGAA_01621	dRep_bin344_CJJBDGAA_01621	>dRep_bin344_CJJBDGAA_01621 Phosphoenolpyruvate carboxykinase (ATP)	dRep_bin344_CJJBDGAA_01621	CDS	pckA	4.1.1.49	Phosphoenolpyruvate carboxykinase (ATP)
CJJBDGAA_01648			25.794890000000002	26.007830000000002								1	1	0,002462	dRep_bin344_CJJBDGAA_01648;dRep_bin324_IPNHOHFK_01432;dRep_bin300_MJPPENNL_01728;dRep_bin261_FJICAFFM_01098;dRep_bin209_NKIHFCEN_01394;dRep_bin179_HFEIPPPA_01212;dRep_bin133_NOBPDBPA_02301;dRep_bin041_OPKGAAAG_01930;dRep_bin260_HELEPKJL_00151;dRep_bin203_CLFNNOCF_01093;dRep_bin200_JJGKEOHI_00464	dRep_bin344_CJJBDGAA_01648;dRep_bin324_IPNHOHFK_01432;dRep_bin300_MJPPENNL_01728;dRep_bin261_FJICAFFM_01098;dRep_bin209_NKIHFCEN_01394;dRep_bin179_HFEIPPPA_01212;dRep_bin133_NOBPDBPA_02301;dRep_bin041_OPKGAAAG_01930;dRep_bin260_HELEPKJL_00151;dRep_bin203_CLFNNOCF_01093;dRep_bin200_JJGKEOHI_00464	>dRep_bin344_CJJBDGAA_01648 30S ribosomal protein S9;>dRep_bin324_IPNHOHFK_01432 30S ribosomal protein S9;>dRep_bin300_MJPPENNL_01728 30S ribosomal protein S9;>dRep_bin261_FJICAFFM_01098 30S ribosomal protein S9;>dRep_bin209_NKIHFCEN_01394 30S ribosomal pr	dRep_bin344_CJJBDGAA_01648	CDS	rpsI		30S ribosomal protein S9
CJJBDGAA_01807					24.24887	26.77128	24.69339	24.025629999999996				3	1	5,593E-12	dRep_bin139_KGAJINND_01577;dRep_bin344_CJJBDGAA_01807;dRep_bin300_MJPPENNL_01697;dRep_bin324_IPNHOHFK_02134;dRep_bin261_FJICAFFM_01134;dRep_bin303_DDDNDJCF_01519;dRep_bin297_EDHEEICA_00415;dRep_bin209_NKIHFCEN_00709;dRep_bin167_BLMEBMNN_00621;dRep_bin157_JPNIKEKI_01820;dRep_bin133_NOBPDBPA_02652;dRep_bin016_JLGAHGOJ_01099;dRep_bin292_JIBLDOOH_01420;dRep_bin127_FIPNHBCH_01248;dRep_bin062_BOFBFLDA_01336;dRep_bin115_IFKGOGCL_01923;dRep_bin269_PNILGKPH_02213;dRep_bin208_DHPGEIBC_01209;dRep_bin347_EKGCMFPD_00714;dRep_bin266_JFOCEDAE_00751;dRep_bin211_LGJEFJIK_00719;dRep_bin316_FNLHDNEO_01427;dRep_bin065_DFABHCBI_00784;dRep_bin319_PBDBJGCJ_00028;dRep_bin077_DNNBMPMC_00009;dRep_bin006_HPJGJCAG_01885;dRep_bin066_AJACLPEE_00266;dRep_bin279_IAEFEPEN_00114;dRep_bin254_GJDPFAEA_01714;dRep_bin035_JBNPBOKG_00265;dRep_bin092_OOJCPDEA_01135;dRep_bin173_BEBNCADL_00932;dRep_bin261_FJICAFFM_01422;dRep_bin288_KOIAAABN_01088;dRep_bin263_OLEFOGIJ_00124;dRep_bin099_DNDAGJEJ_00022;dRep_bin325_EIIGOGHN_01093;dRep_bin076_GLAOFBEC_01169;dRep_bin089_PAJFOJBN_00283;dRep_bin287_DONBGKDH_01271;dRep_bin162_JBGCCDIN_01770;dRep_bin135_HHKACLPM_00267;dRep_bin332_KAOPCDPF_00441;dRep_bin310_IMBAFDIF_00637;dRep_bin304_JDNJGFKH_01711;dRep_bin222_GGCAJABB_01248;dRep_bin159_ADJJGPBG_01860;dRep_bin043_KLAFNACO_01408;dRep_bin023_HGFJFKAI_00653;dRep_bin189_AHHEHGDL_01147;dRep_bin328_GIGKNKPJ_01484;dRep_bin282_PKAAPBFP_01012;dRep_bin229_FFOBPPJI_01006;dRep_bin203_CLFNNOCF_00634;dRep_bin102_ICFDHPGB_01107;dRep_bin072_JOBJPCGA_00187;dRep_bin029_LFMGBBEC_00768;dRep_bin017_FGFLFOPJ_00988;dRep_bin195_DDMDFNOK_00791;dRep_bin120_EKLBOPNC_01828;dRep_bin058_GJKCICJN_00813;dRep_bin046_GKEJLOEK_00003;dRep_bin186_HJAAFFNP_01596;dRep_bin349_AMCJEEEG_00676;dRep_bin200_JJGKEOHI_00578;dRep_bin027_OFJCHLJJ_00701;dRep_bin161_JMKPMHCO_01186;dRep_bin160_EFKMPBOM_00139;dRep_bin154_JGOKHKLI_00533;dRep_bin083_OCBADPJJ_00750;dRep_bin049_MNFBDPNO_00757;dRep_bin008_MNDMJLEI_00707;dRep_bin158_OGFICEAP_00389;dRep_bin334_NAPFFNLD_00463;dRep_bin339_DBNBAHDK_00481;dRep_bin241_LMMMGDNI_00312;dRep_bin179_HFEIPPPA_00773;dRep_bin245_MBCFLKOF_01292;dRep_bin010_MFFFGEGD_00549	dRep_bin139_KGAJINND_01577;dRep_bin344_CJJBDGAA_01807;dRep_bin300_MJPPENNL_01697;dRep_bin324_IPNHOHFK_02134;dRep_bin261_FJICAFFM_01134;dRep_bin303_DDDNDJCF_01519;dRep_bin297_EDHEEICA_00415;dRep_bin209_NKIHFCEN_00709;dRep_bin167_BLMEBMNN_00621;dRep_bin157_JPNIKEKI_01820;dRep_bin133_NOBPDBPA_02652;dRep_bin016_JLGAHGOJ_01099;dRep_bin292_JIBLDOOH_01420;dRep_bin127_FIPNHBCH_01248;dRep_bin062_BOFBFLDA_01336;dRep_bin115_IFKGOGCL_01923;dRep_bin269_PNILGKPH_02213	>dRep_bin139_KGAJINND_01577 Chaperone protein ClpB 1;>dRep_bin344_CJJBDGAA_01807 Chaperone protein ClpB;>dRep_bin300_MJPPENNL_01697 Chaperone protein ClpB;>dRep_bin324_IPNHOHFK_02134 Chaperone protein ClpB;>dRep_bin261_FJICAFFM_01134 Chaperone protein ClpB	dRep_bin344_CJJBDGAA_01807	CDS	clpB		Chaperone protein ClpB
CJJBDGAA_01833	26.49005											13	1	1,1846E-116	dRep_bin344_CJJBDGAA_01833	dRep_bin344_CJJBDGAA_01833	>dRep_bin344_CJJBDGAA_01833 Phosphoglycerate kinase	dRep_bin344_CJJBDGAA_01833	CDS	pgk	2.7.2.3	Phosphoglycerate kinase
CJJBDGAA_01850			22.460569999999997									2	1	2,4794E-10	dRep_bin135_HHKACLPM_01315;dRep_bin249_OFIIEIDJ_01934;dRep_bin284_DEHKNOBF_00489;dRep_bin001_GHHJMDAL_00077;dRep_bin300_MJPPENNL_01366;dRep_bin306_FGHMKMMP_00653;dRep_bin023_HGFJFKAI_00503;dRep_bin332_KAOPCDPF_01288;dRep_bin344_CJJBDGAA_01850;dRep_bin310_IMBAFDIF_00279;dRep_bin288_KOIAAABN_00684;dRep_bin248_CCDFPECI_01334;dRep_bin254_GJDPFAEA_02026;dRep_bin277_MIPNGEJE_00216;dRep_bin293_MEPKGOAN_00506;dRep_bin075_EPEMMOCL_01819;dRep_bin286_OEMIJKMC_00231;dRep_bin115_IFKGOGCL_01177;dRep_bin005_CNDFPKJG_01656;dRep_bin095_HOBNOEEF_00899;dRep_bin197_NHLBHFEI_00443;dRep_bin281_OGHLKMAI_00140;dRep_bin058_GJKCICJN_01024;dRep_bin263_OLEFOGIJ_00135;dRep_bin189_AHHEHGDL_00535;dRep_bin103_IGJBLKMC_00221;dRep_bin205_LKIOOBKC_01773;dRep_bin011_KOGMKLNO_00247;dRep_bin304_JDNJGFKH_00846;dRep_bin120_EKLBOPNC_01967;dRep_bin083_OCBADPJJ_00857	dRep_bin135_HHKACLPM_01315;dRep_bin249_OFIIEIDJ_01934;dRep_bin284_DEHKNOBF_00489;dRep_bin001_GHHJMDAL_00077;dRep_bin300_MJPPENNL_01366;dRep_bin306_FGHMKMMP_00653;dRep_bin023_HGFJFKAI_00503;dRep_bin332_KAOPCDPF_01288;dRep_bin344_CJJBDGAA_01850;dRep_bin310_IMBAFDIF_00279;dRep_bin288_KOIAAABN_00684;dRep_bin248_CCDFPECI_01334;dRep_bin254_GJDPFAEA_02026;dRep_bin277_MIPNGEJE_00216;dRep_bin293_MEPKGOAN_00506;dRep_bin075_EPEMMOCL_01819;dRep_bin286_OEMIJKMC_00231;dRep_bin115_IFKGOGCL_01177;dRep_bin005_CNDFPKJG_01656;dRep_bin095_HOBNOEEF_00899;dRep_bin197_NHLBHFEI_00443;dRep_bin281_OGHLKMAI_00140;dRep_bin058_GJKCICJN_01024;dRep_bin263_OLEFOGIJ_00135;dRep_bin189_AHHEHGDL_00535;dRep_bin103_IGJBLKMC_00221;dRep_bin205_LKIOOBKC_01773;dRep_bin011_KOGMKLNO_00247;dRep_bin304_JDNJGFKH_00846;dRep_bin120_EKLBOPNC_01967;dRep_bin083_OCBADPJJ_00857	>dRep_bin135_HHKACLPM_01315 Leucine--tRNA ligase;>dRep_bin249_OFIIEIDJ_01934 Leucine--tRNA ligase;>dRep_bin284_DEHKNOBF_00489 Leucine--tRNA ligase;>dRep_bin001_GHHJMDAL_00077 Leucine--tRNA ligase;>dRep_bin300_MJPPENNL_01366 Leucine--tRNA ligase;>dRep_bin30	dRep_bin344_CJJBDGAA_01850	CDS	leuS	6.1.1.4	Leucine--tRNA ligase
CJJBDGAA_01885						23.19969						4	0	2,4012E-12	dRep_bin112_NDMGAKCH_00731;dRep_bin289_KALDCNNP_00011;dRep_bin113_LIFKCGBF_00608;dRep_bin137_NABPABPB_00033;dRep_bin002_CFBNDKDN_00319;dRep_bin329_GDOHKPBL_01539;dRep_bin063_PJANDMAH_01116;dRep_bin136_NAIECEIF_00598;dRep_bin071_JHMCIJPE_00513;dRep_bin275_NIDIBBDA_01478;dRep_bin283_NLJJFFAC_00658;dRep_bin316_FNLHDNEO_00538;dRep_bin016_JLGAHGOJ_01021;dRep_bin093_PGADNPMG_00614;dRep_bin128_JPBBHEMA_01235;dRep_bin196_BIELHBNH_00516;dRep_bin018_ILOONPIC_00864;dRep_bin298_EIPJCOMF_01408;dRep_bin290_OIOJKBNK_00725;dRep_bin256_KEMNAOBC_00377;dRep_bin345_GLPJDLOI_01426;dRep_bin089_PAJFOJBN_01916;dRep_bin027_OFJCHLJJ_01931;dRep_bin328_GIGKNKPJ_01061;dRep_bin091_MAFACGAD_00821;dRep_bin352_KFNHGNFC_00965;dRep_bin096_GNHMEKPF_00111;dRep_bin065_DFABHCBI_02359;dRep_bin048_PABMBHAL_00218;dRep_bin240_LDBBGJKG_00200;dRep_bin094_LBLICAAO_01774;dRep_bin186_HJAAFFNP_01716;dRep_bin160_EFKMPBOM_00295;dRep_bin344_CJJBDGAA_01885;dRep_bin081_JDPCKDNP_02127;dRep_bin062_BOFBFLDA_01458;dRep_bin279_IAEFEPEN_00039;dRep_bin088_DNGPPFDK_00119;dRep_bin335_JIOGNAPG_01546;dRep_bin287_DONBGKDH_00294;dRep_bin150_HCDEOBMH_01332;dRep_bin310_IMBAFDIF_00761;dRep_bin300_MJPPENNL_00654;dRep_bin041_OPKGAAAG_01259;dRep_bin024_OLHDGABE_00962;dRep_bin322_OJELOJOF_01437;dRep_bin017_FGFLFOPJ_00437;dRep_bin158_OGFICEAP_00004;dRep_bin303_DDDNDJCF_01152;dRep_bin310_IMBAFDIF_00173;dRep_bin248_CCDFPECI_00143;dRep_bin131_HLFNHDGI_00101;dRep_bin301_NJFJIJGA_00544;dRep_bin167_BLMEBMNN_01000;dRep_bin134_HIAPAODO_00464;dRep_bin260_HELEPKJL_00441;dRep_bin220_PILICLLL_00077;dRep_bin007_LNLEAAAN_01436;dRep_bin127_FIPNHBCH_00505;dRep_bin014_CHIHIMAN_00797	dRep_bin112_NDMGAKCH_00731;dRep_bin289_KALDCNNP_00011;dRep_bin113_LIFKCGBF_00608;dRep_bin137_NABPABPB_00033;dRep_bin002_CFBNDKDN_00319;dRep_bin329_GDOHKPBL_01539;dRep_bin063_PJANDMAH_01116;dRep_bin136_NAIECEIF_00598;dRep_bin071_JHMCIJPE_00513;dRep_bin275_NIDIBBDA_01478;dRep_bin283_NLJJFFAC_00658;dRep_bin316_FNLHDNEO_00538;dRep_bin016_JLGAHGOJ_01021;dRep_bin093_PGADNPMG_00614;dRep_bin128_JPBBHEMA_01235;dRep_bin196_BIELHBNH_00516;dRep_bin018_ILOONPIC_00864;dRep_bin298_EIPJCOMF_01408;dRep_bin290_OIOJKBNK_00725;dRep_bin256_KEMNAOBC_00377;dRep_bin345_GLPJDLOI_01426	>dRep_bin112_NDMGAKCH_00731 Translation initiation factor IF-2;>dRep_bin289_KALDCNNP_00011 Translation initiation factor IF-2;>dRep_bin113_LIFKCGBF_00608 Translation initiation factor IF-2;>dRep_bin137_NABPABPB_00033 Translation initiation factor IF-2;>dRe	dRep_bin344_CJJBDGAA_01885	CDS	infB		Translation initiation factor IF-2
CJJBDGAA_01915	20.45784											2	1	7,513E-07	dRep_bin344_CJJBDGAA_01915	dRep_bin344_CJJBDGAA_01915	>dRep_bin344_CJJBDGAA_01915 NAD-dependent malic enzyme	dRep_bin344_CJJBDGAA_01915	CDS		1.1.1.38	NAD-dependent malic enzyme
CJJBDGAA_01931	27.81201	27.62178	27.502489999999998	27.902649999999998	27.641890000000004	26.87373	27.733890000000002	27.32268				4	0	9,2841E-12	dRep_bin266_JFOCEDAE_00469;dRep_bin158_OGFICEAP_02077;dRep_bin167_BLMEBMNN_01111;dRep_bin344_CJJBDGAA_01931;dRep_bin324_IPNHOHFK_00198;dRep_bin269_PNILGKPH_01184;dRep_bin297_EDHEEICA_00055;dRep_bin145_KMJJJOEJ_01157;dRep_bin107_EFNBPDOP_01472;dRep_bin310_IMBAFDIF_01195;dRep_bin300_MJPPENNL_00128;dRep_bin115_IFKGOGCL_01978;dRep_bin308_JBPDGLPP_01709;dRep_bin075_EPEMMOCL_01920;dRep_bin047_IFFANOMN_01370;dRep_bin089_PAJFOJBN_01930;dRep_bin261_FJICAFFM_00651;dRep_bin303_DDDNDJCF_01187;dRep_bin226_NLNLHLLD_00115;dRep_bin127_FIPNHBCH_00340;dRep_bin017_FGFLFOPJ_00355;dRep_bin077_DNNBMPMC_01598;dRep_bin039_IJNOFOJK_01428;dRep_bin186_HJAAFFNP_01660;dRep_bin065_DFABHCBI_00103;dRep_bin220_PILICLLL_01833;dRep_bin134_HIAPAODO_00139;dRep_bin135_HHKACLPM_00006;dRep_bin143_PFLDJMPF_00573;dRep_bin325_EIIGOGHN_00632;dRep_bin099_DNDAGJEJ_00069;dRep_bin293_MEPKGOAN_01336;dRep_bin074_EHAOMODJ_00677;dRep_bin335_JIOGNAPG_01692;dRep_bin260_HELEPKJL_01142;dRep_bin319_PBDBJGCJ_00729;dRep_bin211_LGJEFJIK_00866;dRep_bin168_HKDILBFE_00717;dRep_bin091_MAFACGAD_00274;dRep_bin248_CCDFPECI_01081;dRep_bin240_LDBBGJKG_00905;dRep_bin095_HOBNOEEF_01654;dRep_bin306_FGHMKMMP_00881;dRep_bin282_PKAAPBFP_01110;dRep_bin249_OFIIEIDJ_01129;dRep_bin347_EKGCMFPD_00530;dRep_bin284_DEHKNOBF_01449;dRep_bin001_GHHJMDAL_00488;dRep_bin181_MKGPMPIA_00635	dRep_bin266_JFOCEDAE_00469;dRep_bin158_OGFICEAP_02077;dRep_bin167_BLMEBMNN_01111;dRep_bin344_CJJBDGAA_01931;dRep_bin324_IPNHOHFK_00198;dRep_bin269_PNILGKPH_01184;dRep_bin297_EDHEEICA_00055;dRep_bin145_KMJJJOEJ_01157;dRep_bin107_EFNBPDOP_01472;dRep_bin310_IMBAFDIF_01195;dRep_bin300_MJPPENNL_00128;dRep_bin115_IFKGOGCL_01978;dRep_bin308_JBPDGLPP_01709;dRep_bin075_EPEMMOCL_01920;dRep_bin047_IFFANOMN_01370;dRep_bin089_PAJFOJBN_01930;dRep_bin261_FJICAFFM_00651;dRep_bin303_DDDNDJCF_01187;dRep_bin226_NLNLHLLD_00115;dRep_bin127_FIPNHBCH_00340;dRep_bin017_FGFLFOPJ_00355;dRep_bin077_DNNBMPMC_01598;dRep_bin039_IJNOFOJK_01428;dRep_bin186_HJAAFFNP_01660;dRep_bin065_DFABHCBI_00103;dRep_bin220_PILICLLL_01833;dRep_bin134_HIAPAODO_00139;dRep_bin135_HHKACLPM_00006	>dRep_bin266_JFOCEDAE_00469 Phosphoribosylamine--glycine ligase;>dRep_bin158_OGFICEAP_02077 Phosphoribosylamine--glycine ligase;>dRep_bin167_BLMEBMNN_01111 Phosphoribosylamine--glycine ligase;>dRep_bin344_CJJBDGAA_01931 Phosphoribosylamine--glycine ligase;	dRep_bin344_CJJBDGAA_01931	CDS	purD	6.3.4.13	Phosphoribosylamine--glycine ligase
CJJBDGAA_01932		25.59346										2	2	3,2981E-11	dRep_bin039_IJNOFOJK_01429;dRep_bin179_HFEIPPPA_01750;dRep_bin261_FJICAFFM_00652;dRep_bin091_MAFACGAD_00273;dRep_bin240_LDBBGJKG_00904;dRep_bin328_GIGKNKPJ_00458;dRep_bin254_GJDPFAEA_01539;dRep_bin157_JPNIKEKI_00686;dRep_bin145_KMJJJOEJ_00143;dRep_bin135_HHKACLPM_00007;dRep_bin127_FIPNHBCH_00339;dRep_bin324_IPNHOHFK_00197;dRep_bin269_PNILGKPH_01185;dRep_bin300_MJPPENNL_00127;dRep_bin292_JIBLDOOH_00667;dRep_bin279_IAEFEPEN_01212;dRep_bin209_NKIHFCEN_00751;dRep_bin139_KGAJINND_00495;dRep_bin041_OPKGAAAG_00838;dRep_bin344_CJJBDGAA_01932;dRep_bin226_NLNLHLLD_00116;dRep_bin133_NOBPDBPA_02511;dRep_bin203_CLFNNOCF_01554	dRep_bin039_IJNOFOJK_01429;dRep_bin179_HFEIPPPA_01750;dRep_bin261_FJICAFFM_00652;dRep_bin091_MAFACGAD_00273;dRep_bin240_LDBBGJKG_00904;dRep_bin328_GIGKNKPJ_00458;dRep_bin254_GJDPFAEA_01539;dRep_bin157_JPNIKEKI_00686;dRep_bin145_KMJJJOEJ_00143;dRep_bin135_HHKACLPM_00007;dRep_bin127_FIPNHBCH_00339;dRep_bin324_IPNHOHFK_00197;dRep_bin269_PNILGKPH_01185;dRep_bin300_MJPPENNL_00127;dRep_bin292_JIBLDOOH_00667;dRep_bin279_IAEFEPEN_01212;dRep_bin209_NKIHFCEN_00751;dRep_bin139_KGAJINND_00495;dRep_bin041_OPKGAAAG_00838;dRep_bin344_CJJBDGAA_01932;dRep_bin226_NLNLHLLD_00116;dRep_bin133_NOBPDBPA_02511;dRep_bin203_CLFNNOCF_01554	>dRep_bin039_IJNOFOJK_01429 Phosphoribosylglycinamide formyltransferase;>dRep_bin179_HFEIPPPA_01750 Phosphoribosylglycinamide formyltransferase;>dRep_bin261_FJICAFFM_00652 Phosphoribosylglycinamide formyltransferase;>dRep_bin091_MAFACGAD_00273 Phosphoribos	dRep_bin344_CJJBDGAA_01932	CDS	purN	2.1.2.2	Phosphoribosylglycinamide formyltransferase
CJJBDGAA_01938		24.53629	25.0059									2	1	0,00019779	dRep_bin023_HGFJFKAI_01250;dRep_bin099_DNDAGJEJ_01283;dRep_bin248_CCDFPECI_01188;dRep_bin145_KMJJJOEJ_01627;dRep_bin220_PILICLLL_00379;dRep_bin303_DDDNDJCF_01527;dRep_bin254_GJDPFAEA_00295;dRep_bin211_LGJEFJIK_00752;dRep_bin124_HIHDFGCL_01240;dRep_bin091_MAFACGAD_00828;dRep_bin168_HKDILBFE_00712;dRep_bin088_DNGPPFDK_00057;dRep_bin300_MJPPENNL_00870;dRep_bin203_CLFNNOCF_01251;dRep_bin069_EGGEOGDC_00393;dRep_bin344_CJJBDGAA_01938;dRep_bin328_GIGKNKPJ_00733;dRep_bin249_OFIIEIDJ_00615;dRep_bin127_FIPNHBCH_01426;dRep_bin065_DFABHCBI_01328;dRep_bin056_EMNHHOJA_00171;dRep_bin016_JLGAHGOJ_00622;dRep_bin152_LJMCIADF_01306;dRep_bin095_HOBNOEEF_00399;dRep_bin079_GAOGCKND_00062;dRep_bin068_ENOLAELK_00735;dRep_bin026_HNPIIINL_00729;dRep_bin081_JDPCKDNP_00247;dRep_bin201_OLKDIBOK_01233;dRep_bin297_EDHEEICA_00257;dRep_bin308_JBPDGLPP_00521	dRep_bin023_HGFJFKAI_01250;dRep_bin099_DNDAGJEJ_01283;dRep_bin248_CCDFPECI_01188;dRep_bin145_KMJJJOEJ_01627;dRep_bin220_PILICLLL_00379;dRep_bin303_DDDNDJCF_01527;dRep_bin254_GJDPFAEA_00295;dRep_bin211_LGJEFJIK_00752;dRep_bin124_HIHDFGCL_01240;dRep_bin091_MAFACGAD_00828;dRep_bin168_HKDILBFE_00712;dRep_bin088_DNGPPFDK_00057;dRep_bin300_MJPPENNL_00870;dRep_bin203_CLFNNOCF_01251;dRep_bin069_EGGEOGDC_00393;dRep_bin344_CJJBDGAA_01938;dRep_bin328_GIGKNKPJ_00733;dRep_bin249_OFIIEIDJ_00615;dRep_bin127_FIPNHBCH_01426;dRep_bin065_DFABHCBI_01328;dRep_bin056_EMNHHOJA_00171;dRep_bin016_JLGAHGOJ_00622;dRep_bin152_LJMCIADF_01306;dRep_bin095_HOBNOEEF_00399;dRep_bin079_GAOGCKND_00062;dRep_bin068_ENOLAELK_00735;dRep_bin026_HNPIIINL_00729;dRep_bin081_JDPCKDNP_00247;dRep_bin201_OLKDIBOK_01233;dRep_bin297_EDHEEICA_00257;dRep_bin308_JBPDGLPP_00521	>dRep_bin023_HGFJFKAI_01250 Diaminopimelate decarboxylase;>dRep_bin099_DNDAGJEJ_01283 Diaminopimelate decarboxylase;>dRep_bin248_CCDFPECI_01188 Diaminopimelate decarboxylase;>dRep_bin145_KMJJJOEJ_01627 Diaminopimelate decarboxylase;>dRep_bin220_PILICLLL_00	dRep_bin344_CJJBDGAA_01938	CDS	lysA	4.1.1.20	Diaminopimelate decarboxylase
CJJBDGAA_02006	26.357850000000006	26.35671	26.91056	27.442689999999995	27.565649999999998	26.268909999999998	27.855729999999998	26.992369999999998				6	0	1,6744E-13	dRep_bin220_PILICLLL_00989;dRep_bin016_JLGAHGOJ_00301;dRep_bin260_HELEPKJL_01949;dRep_bin024_OLHDGABE_01286;dRep_bin068_ENOLAELK_00820;dRep_bin056_EMNHHOJA_00968;dRep_bin026_HNPIIINL_01362;dRep_bin253_CPMOAOBJ_00875;dRep_bin145_KMJJJOEJ_00851;dRep_bin344_CJJBDGAA_02006;dRep_bin278_BFCONKOE_01078;dRep_bin269_PNILGKPH_01415;dRep_bin240_LDBBGJKG_01602;dRep_bin065_DFABHCBI_01421;dRep_bin158_OGFICEAP_01010	dRep_bin220_PILICLLL_00989;dRep_bin016_JLGAHGOJ_00301	>dRep_bin220_PILICLLL_00989 Elongation factor G;>dRep_bin016_JLGAHGOJ_00301 Elongation factor G	dRep_bin344_CJJBDGAA_02006	CDS	fusA_2		Elongation factor G
CJJBDGAA_02115	26.37744	25.97399	26.81323	26.86124	27.34866	27.342399999999998	27.334750000000003	27.569499999999998				5	1	5,0378E-27	dRep_bin143_PFLDJMPF_00290;dRep_bin293_MEPKGOAN_01524;dRep_bin347_EKGCMFPD_01183;dRep_bin201_OLKDIBOK_00232;dRep_bin031_BNHMFOII_00394;dRep_bin344_CJJBDGAA_02115;dRep_bin303_DDDNDJCF_01571;dRep_bin027_OFJCHLJJ_00404;dRep_bin339_DBNBAHDK_00300;dRep_bin049_MNFBDPNO_01583;dRep_bin350_EKOOEEGH_01042;dRep_bin277_MIPNGEJE_00279;dRep_bin309_BIOHLCGG_01215;dRep_bin247_EKGBJCBM_01321;dRep_bin115_IFKGOGCL_01117;dRep_bin056_EMNHHOJA_00506;dRep_bin048_PABMBHAL_01302;dRep_bin253_CPMOAOBJ_00269;dRep_bin335_JIOGNAPG_01506;dRep_bin310_IMBAFDIF_00163;dRep_bin139_KGAJINND_00868;dRep_bin019_MOJEPLJF_01034;dRep_bin005_CNDFPKJG_00855;dRep_bin144_NPHACCKF_00198;dRep_bin094_LBLICAAO_01300;dRep_bin278_BFCONKOE_00967	dRep_bin143_PFLDJMPF_00290;dRep_bin293_MEPKGOAN_01524;dRep_bin347_EKGCMFPD_01183;dRep_bin201_OLKDIBOK_00232;dRep_bin031_BNHMFOII_00394;dRep_bin344_CJJBDGAA_02115;dRep_bin303_DDDNDJCF_01571;dRep_bin027_OFJCHLJJ_00404;dRep_bin339_DBNBAHDK_00300;dRep_bin049_MNFBDPNO_01583	>dRep_bin143_PFLDJMPF_00290 Serine--tRNA ligase;>dRep_bin293_MEPKGOAN_01524 Serine--tRNA ligase;>dRep_bin347_EKGCMFPD_01183 Serine--tRNA ligase;>dRep_bin201_OLKDIBOK_00232 Serine--tRNA ligase;>dRep_bin031_BNHMFOII_00394 Serine--tRNA ligase;>dRep_bin344_CJJ	dRep_bin344_CJJBDGAA_02115	CDS	serS	6.1.1.11	Serine--tRNA ligase
CJJBDGAA_02139			25.775529999999996									10	0	1,8137E-89	dRep_bin088_DNGPPFDK_00289;dRep_bin344_CJJBDGAA_02139	dRep_bin088_DNGPPFDK_00289	>dRep_bin088_DNGPPFDK_00289 Phosphoserine aminotransferase	dRep_bin344_CJJBDGAA_02139	CDS	serC	2.6.1.52	Phosphoserine aminotransferase
