GBprotID	LFQ intensity CtrPig1	LFQ intensity CtrPig2	LFQ intensity CtrPig3	LFQ intensity CtrPig4	LFQ intensity MannanPig1	LFQ intensity MannanPig2	LFQ intensity MannanPig3	LFQ intensity MannanPig4	Only identified by site	Reverse	Contaminant	Peptides	Unique peptides	PEP	Protein IDs	Majority protein IDs	Fasta headers	IDcomb	ftype	gene	EC_number	product
EKGCMFPD_00041	27.902539999999995	28.78709	26.69578	26.813970000000005	25.797880000000003		24.730339999999998					6	2	2,3038E-264	dRep_bin297_EDHEEICA_01306;dRep_bin284_DEHKNOBF_00930;dRep_bin347_EKGCMFPD_00041	dRep_bin297_EDHEEICA_01306	>dRep_bin297_EDHEEICA_01306 Glucose-6-phosphate isomerase	dRep_bin347_EKGCMFPD_00041	CDS	pgi	5.3.1.9	Glucose-6-phosphate isomerase
EKGCMFPD_00065			22.09941									2	1	6,714E-06	dRep_bin179_HFEIPPPA_02337;dRep_bin324_IPNHOHFK_00622;dRep_bin116_CLFDBMOF_00799;dRep_bin006_HPJGJCAG_01804;dRep_bin302_AHDEPDKG_00994;dRep_bin306_FGHMKMMP_00469;dRep_bin292_JIBLDOOH_01500;dRep_bin226_NLNLHLLD_00785;dRep_bin209_NKIHFCEN_02132;dRep_bin269_PNILGKPH_00882;dRep_bin238_OLNFACLE_00688;dRep_bin025_CBEJJMLE_00614;dRep_bin347_EKGCMFPD_00065;dRep_bin001_GHHJMDAL_01148;dRep_bin322_OJELOJOF_00643;dRep_bin284_DEHKNOBF_00598;dRep_bin266_JFOCEDAE_00905;dRep_bin023_HGFJFKAI_01708;dRep_bin115_IFKGOGCL_02485;dRep_bin158_OGFICEAP_00573;dRep_bin234_ECABPBME_00814;dRep_bin027_OFJCHLJJ_01525	dRep_bin179_HFEIPPPA_02337;dRep_bin324_IPNHOHFK_00622;dRep_bin116_CLFDBMOF_00799;dRep_bin006_HPJGJCAG_01804;dRep_bin302_AHDEPDKG_00994;dRep_bin306_FGHMKMMP_00469;dRep_bin292_JIBLDOOH_01500;dRep_bin226_NLNLHLLD_00785;dRep_bin209_NKIHFCEN_02132;dRep_bin269_PNILGKPH_00882;dRep_bin238_OLNFACLE_00688;dRep_bin025_CBEJJMLE_00614;dRep_bin347_EKGCMFPD_00065;dRep_bin001_GHHJMDAL_01148;dRep_bin322_OJELOJOF_00643;dRep_bin284_DEHKNOBF_00598;dRep_bin266_JFOCEDAE_00905;dRep_bin023_HGFJFKAI_01708;dRep_bin115_IFKGOGCL_02485;dRep_bin158_OGFICEAP_00573;dRep_bin234_ECABPBME_00814;dRep_bin027_OFJCHLJJ_01525	>dRep_bin179_HFEIPPPA_02337 Diaminopimelate decarboxylase;>dRep_bin324_IPNHOHFK_00622 Diaminopimelate decarboxylase;>dRep_bin116_CLFDBMOF_00799 Diaminopimelate decarboxylase;>dRep_bin006_HPJGJCAG_01804 Diaminopimelate decarboxylase;>dRep_bin302_AHDEPDKG_00	dRep_bin347_EKGCMFPD_00065	CDS	lysA	4.1.1.20	Diaminopimelate decarboxylase
EKGCMFPD_00098						24.113390000000003						2	1	2,5993E-07	dRep_bin240_LDBBGJKG_01001;dRep_bin001_GHHJMDAL_01372;dRep_bin143_PFLDJMPF_00153;dRep_bin024_OLHDGABE_00846;dRep_bin181_MKGPMPIA_00709;dRep_bin077_DNNBMPMC_01859;dRep_bin005_CNDFPKJG_00656;dRep_bin150_HCDEOBMH_01568;dRep_bin135_HHKACLPM_01559;dRep_bin075_EPEMMOCL_02034;dRep_bin091_MAFACGAD_00181;dRep_bin007_LNLEAAAN_01218;dRep_bin282_PKAAPBFP_00655;dRep_bin254_GJDPFAEA_01551;dRep_bin249_OFIIEIDJ_01140;dRep_bin127_FIPNHBCH_01645;dRep_bin347_EKGCMFPD_00098;dRep_bin322_OJELOJOF_01214;dRep_bin310_IMBAFDIF_01594;dRep_bin287_DONBGKDH_00226;dRep_bin284_DEHKNOBF_00726;dRep_bin266_JFOCEDAE_00133;dRep_bin186_HJAAFFNP_01238;dRep_bin145_KMJJJOEJ_00954;dRep_bin115_IFKGOGCL_00554;dRep_bin065_DFABHCBI_01587;dRep_bin248_CCDFPECI_01609;dRep_bin095_HOBNOEEF_01791;dRep_bin160_EFKMPBOM_01116;dRep_bin154_JGOKHKLI_00150;dRep_bin081_JDPCKDNP_01583;dRep_bin336_MPGOKPOL_01589;dRep_bin306_FGHMKMMP_01590;dRep_bin056_EMNHHOJA_00230;dRep_bin309_BIOHLCGG_00694;dRep_bin302_AHDEPDKG_01234;dRep_bin257_JHFDCHCB_02163;dRep_bin147_EJLBNEBE_01266;dRep_bin124_HIHDFGCL_00964;dRep_bin194_MEPDOGGJ_01159;dRep_bin025_CBEJJMLE_01722;dRep_bin293_MEPKGOAN_00673;dRep_bin058_GJKCICJN_00893;dRep_bin074_EHAOMODJ_00750	dRep_bin240_LDBBGJKG_01001;dRep_bin001_GHHJMDAL_01372;dRep_bin143_PFLDJMPF_00153;dRep_bin024_OLHDGABE_00846;dRep_bin181_MKGPMPIA_00709;dRep_bin077_DNNBMPMC_01859;dRep_bin005_CNDFPKJG_00656;dRep_bin150_HCDEOBMH_01568;dRep_bin135_HHKACLPM_01559;dRep_bin075_EPEMMOCL_02034;dRep_bin091_MAFACGAD_00181;dRep_bin007_LNLEAAAN_01218;dRep_bin282_PKAAPBFP_00655;dRep_bin254_GJDPFAEA_01551;dRep_bin249_OFIIEIDJ_01140;dRep_bin127_FIPNHBCH_01645;dRep_bin347_EKGCMFPD_00098;dRep_bin322_OJELOJOF_01214;dRep_bin310_IMBAFDIF_01594;dRep_bin287_DONBGKDH_00226;dRep_bin284_DEHKNOBF_00726;dRep_bin266_JFOCEDAE_00133;dRep_bin186_HJAAFFNP_01238;dRep_bin145_KMJJJOEJ_00954;dRep_bin115_IFKGOGCL_00554;dRep_bin065_DFABHCBI_01587;dRep_bin248_CCDFPECI_01609;dRep_bin095_HOBNOEEF_01791;dRep_bin160_EFKMPBOM_01116;dRep_bin154_JGOKHKLI_00150;dRep_bin081_JDPCKDNP_01583;dRep_bin336_MPGOKPOL_01589;dRep_bin306_FGHMKMMP_01590;dRep_bin056_EMNHHOJA_00230;dRep_bin309_BIOHLCGG_00694;dRep_bin302_AHDEPDKG_01234;dRep_bin257_JHFDCHCB_02163;dRep_bin147_EJLBNEBE_01266;dRep_bin124_HIHDFGCL_00964;dRep_bin194_MEPDOGGJ_01159;dRep_bin025_CBEJJMLE_01722;dRep_bin293_MEPKGOAN_00673;dRep_bin058_GJKCICJN_00893;dRep_bin074_EHAOMODJ_00750	>dRep_bin240_LDBBGJKG_01001 Glutaconyl-CoA decarboxylase subunit beta;>dRep_bin001_GHHJMDAL_01372 Glutaconyl-CoA decarboxylase subunit beta;>dRep_bin143_PFLDJMPF_00153 Glutaconyl-CoA decarboxylase subunit beta;>dRep_bin024_OLHDGABE_00846 Glutaconyl-CoA dec	dRep_bin347_EKGCMFPD_00098	CDS	gcdB	4.1.1.70	Glutaconyl-CoA decarboxylase subunit beta
EKGCMFPD_00111		25.30501										4	0	2,483E-41	dRep_bin347_EKGCMFPD_00111;dRep_bin284_DEHKNOBF_00417	dRep_bin347_EKGCMFPD_00111;dRep_bin284_DEHKNOBF_00417	>dRep_bin347_EKGCMFPD_00111 Acetate kinase;>dRep_bin284_DEHKNOBF_00417 Acetate kinase	dRep_bin347_EKGCMFPD_00111	CDS	ackA	2.7.2.1	Acetate kinase
EKGCMFPD_00114	26.73635	26.55893	26.154760000000003	27.66031	27.01638	25.59138	26.52235	25.47997				8	0	1,569E-34	dRep_bin160_EFKMPBOM_00221;dRep_bin017_FGFLFOPJ_00310;dRep_bin347_EKGCMFPD_00114;dRep_bin335_JIOGNAPG_01316;dRep_bin211_LGJEFJIK_00890	dRep_bin160_EFKMPBOM_00221;dRep_bin017_FGFLFOPJ_00310;dRep_bin347_EKGCMFPD_00114;dRep_bin335_JIOGNAPG_01316;dRep_bin211_LGJEFJIK_00890	>dRep_bin160_EFKMPBOM_00221 hypothetical protein;>dRep_bin017_FGFLFOPJ_00310 hypothetical protein;>dRep_bin347_EKGCMFPD_00114 hypothetical protein;>dRep_bin335_JIOGNAPG_01316 hypothetical protein;>dRep_bin211_LGJEFJIK_00890 hypothetical protein	dRep_bin347_EKGCMFPD_00114	CDS			hypothetical protein
EKGCMFPD_00147	26.994419999999998	26.63464	27.34925	27.54429								8	3	1,5706E-66	dRep_bin196_BIELHBNH_00015;dRep_bin137_NABPABPB_01412;dRep_bin298_EIPJCOMF_00014;dRep_bin271_NGFBCHKH_01102;dRep_bin198_GMLJKALI_00749;dRep_bin064_CMDDCDKG_00564;dRep_bin329_GDOHKPBL_00934;dRep_bin296_FDMPKPOH_00350;dRep_bin037_GEAOEKHA_01499;dRep_bin347_EKGCMFPD_00147;dRep_bin284_DEHKNOBF_00333;dRep_bin131_HLFNHDGI_01179;dRep_bin022_BOEAFNDE_00771;dRep_bin346_JKFDGFHC_00525;dRep_bin288_KOIAAABN_00570;dRep_bin063_PJANDMAH_00650;dRep_bin036_DOKCEIDH_00956;dRep_bin034_MEBMFDLL_01721;dRep_bin007_LNLEAAAN_00850;dRep_bin183_FPGIOKBG_00464	dRep_bin196_BIELHBNH_00015;dRep_bin137_NABPABPB_01412;dRep_bin298_EIPJCOMF_00014;dRep_bin271_NGFBCHKH_01102;dRep_bin198_GMLJKALI_00749	>dRep_bin196_BIELHBNH_00015 Gluconate 5-dehydrogenase;>dRep_bin137_NABPABPB_01412 Gluconate 5-dehydrogenase;>dRep_bin298_EIPJCOMF_00014 Gluconate 5-dehydrogenase;>dRep_bin271_NGFBCHKH_01102 Gluconate 5-dehydrogenase;>dRep_bin198_GMLJKALI_00749 Gluconate 5-	dRep_bin347_EKGCMFPD_00147	CDS	gno	1.1.1.69	Gluconate 5-dehydrogenase
EKGCMFPD_00174			20.188699999999997									2	0	0,013699	dRep_bin284_DEHKNOBF_01566;dRep_bin335_JIOGNAPG_01357;dRep_bin186_HJAAFFNP_01603;dRep_bin347_EKGCMFPD_00174;dRep_bin325_EIIGOGHN_00933;dRep_bin226_NLNLHLLD_01138;dRep_bin211_LGJEFJIK_01575;dRep_bin168_HKDILBFE_00526;dRep_bin157_JPNIKEKI_01583;dRep_bin133_NOBPDBPA_02120;dRep_bin099_DNDAGJEJ_00490;dRep_bin023_HGFJFKAI_00001;dRep_bin181_MKGPMPIA_00811;dRep_bin344_CJJBDGAA_00826;dRep_bin154_JGOKHKLI_00807;dRep_bin209_NKIHFCEN_01867;dRep_bin160_EFKMPBOM_01681;dRep_bin324_IPNHOHFK_00236	dRep_bin284_DEHKNOBF_01566;dRep_bin335_JIOGNAPG_01357;dRep_bin186_HJAAFFNP_01603;dRep_bin347_EKGCMFPD_00174;dRep_bin325_EIIGOGHN_00933;dRep_bin226_NLNLHLLD_01138;dRep_bin211_LGJEFJIK_01575;dRep_bin168_HKDILBFE_00526;dRep_bin157_JPNIKEKI_01583;dRep_bin133_NOBPDBPA_02120;dRep_bin099_DNDAGJEJ_00490;dRep_bin023_HGFJFKAI_00001;dRep_bin181_MKGPMPIA_00811;dRep_bin344_CJJBDGAA_00826;dRep_bin154_JGOKHKLI_00807;dRep_bin209_NKIHFCEN_01867;dRep_bin160_EFKMPBOM_01681;dRep_bin324_IPNHOHFK_00236	>dRep_bin284_DEHKNOBF_01566 L-methionine gamma-lyase;>dRep_bin335_JIOGNAPG_01357 L-methionine gamma-lyase;>dRep_bin186_HJAAFFNP_01603 L-methionine gamma-lyase;>dRep_bin347_EKGCMFPD_00174 L-methionine gamma-lyase;>dRep_bin325_EIIGOGHN_00933 L-methionine gam	dRep_bin347_EKGCMFPD_00174	CDS	mgl_1	4.4.1.11	L-methionine gamma-lyase
EKGCMFPD_00218						25.37859						4	2	2,2689E-13	dRep_bin157_JPNIKEKI_00942;dRep_bin065_DFABHCBI_01945;dRep_bin282_PKAAPBFP_01707;dRep_bin075_EPEMMOCL_01191;dRep_bin089_PAJFOJBN_02054;dRep_bin269_PNILGKPH_01091;dRep_bin039_IJNOFOJK_01301;dRep_bin023_HGFJFKAI_00483;dRep_bin167_BLMEBMNN_01800;dRep_bin074_EHAOMODJ_01079;dRep_bin005_CNDFPKJG_00576;dRep_bin277_MIPNGEJE_00824;dRep_bin143_PFLDJMPF_00484;dRep_bin091_MAFACGAD_00708;dRep_bin335_JIOGNAPG_01712;dRep_bin308_JBPDGLPP_01394;dRep_bin306_FGHMKMMP_00157;dRep_bin200_JJGKEOHI_00644;dRep_bin160_EFKMPBOM_01770;dRep_bin154_JGOKHKLI_01254;dRep_bin088_DNGPPFDK_00607;dRep_bin081_JDPCKDNP_00472;dRep_bin234_ECABPBME_00056;dRep_bin101_BNDDLDCL_01417;dRep_bin250_NMCAMJIO_00706;dRep_bin041_OPKGAAAG_01876;dRep_bin240_LDBBGJKG_00488;dRep_bin001_GHHJMDAL_00373;dRep_bin315_AGEMOMDG_00838;dRep_bin239_JIMDAIOF_00250;dRep_bin313_CJFGINPI_01381;dRep_bin163_EBDOGNGI_00300;dRep_bin280_IMCGLKKG_00217;dRep_bin012_KEBBILMO_00361;dRep_bin347_EKGCMFPD_00218;dRep_bin102_ICFDHPGB_00448;dRep_bin178_FLGBGGJB_00789;dRep_bin156_GFIMJAAC_00472	dRep_bin157_JPNIKEKI_00942;dRep_bin065_DFABHCBI_01945;dRep_bin282_PKAAPBFP_01707;dRep_bin075_EPEMMOCL_01191;dRep_bin089_PAJFOJBN_02054;dRep_bin269_PNILGKPH_01091;dRep_bin039_IJNOFOJK_01301;dRep_bin023_HGFJFKAI_00483;dRep_bin167_BLMEBMNN_01800;dRep_bin074_EHAOMODJ_01079;dRep_bin005_CNDFPKJG_00576;dRep_bin277_MIPNGEJE_00824;dRep_bin143_PFLDJMPF_00484;dRep_bin091_MAFACGAD_00708;dRep_bin335_JIOGNAPG_01712;dRep_bin308_JBPDGLPP_01394;dRep_bin306_FGHMKMMP_00157;dRep_bin200_JJGKEOHI_00644;dRep_bin160_EFKMPBOM_01770;dRep_bin154_JGOKHKLI_01254;dRep_bin088_DNGPPFDK_00607;dRep_bin081_JDPCKDNP_00472;dRep_bin234_ECABPBME_00056;dRep_bin101_BNDDLDCL_01417;dRep_bin250_NMCAMJIO_00706	>dRep_bin157_JPNIKEKI_00942 Aspartate--tRNA ligase;>dRep_bin065_DFABHCBI_01945 Aspartate--tRNA ligase;>dRep_bin282_PKAAPBFP_01707 Aspartate--tRNA ligase;>dRep_bin075_EPEMMOCL_01191 Aspartate--tRNA ligase;>dRep_bin089_PAJFOJBN_02054 Aspartate--tRNA ligase;>	dRep_bin347_EKGCMFPD_00218	CDS	aspS_1	6.1.1.12	Aspartate--tRNA ligase
EKGCMFPD_00224	26.568379999999998	28.028489999999998	26.87526	26.77605	28.2968	25.960449999999998	26.55639	27.79383				8	3	1,6148E-37	dRep_bin243_JDMELKLC_00153;dRep_bin308_JBPDGLPP_01221;dRep_bin094_LBLICAAO_00561;dRep_bin325_EIIGOGHN_00256;dRep_bin168_HKDILBFE_00631;dRep_bin099_DNDAGJEJ_00618;dRep_bin023_HGFJFKAI_01457;dRep_bin319_PBDBJGCJ_00547;dRep_bin006_HPJGJCAG_01559;dRep_bin347_EKGCMFPD_00224;dRep_bin001_GHHJMDAL_00367	dRep_bin243_JDMELKLC_00153	>dRep_bin243_JDMELKLC_00153 Phosphoribosylaminoimidazole-succinocarboxamide synthase	dRep_bin347_EKGCMFPD_00224	CDS	purC	6.3.2.6	Phosphoribosylaminoimidazole-succinocarboxamide synthase
EKGCMFPD_00268	30.44382	31.00102	29.983459999999997	30.45738	30.50966	29.85369	30.734810000000003	30.66391				13	0	1,0711E-109	dRep_bin335_JIOGNAPG_01930;dRep_bin347_EKGCMFPD_00268;dRep_bin057_BNCFHBBO_00331	dRep_bin335_JIOGNAPG_01930	>dRep_bin335_JIOGNAPG_01930 Transaldolase	dRep_bin347_EKGCMFPD_00268	CDS	tal	2.2.1.2	Transaldolase
EKGCMFPD_00270		25.7397		26.209519999999998								13	1	8,2514E-163	dRep_bin154_JGOKHKLI_01635;dRep_bin335_JIOGNAPG_01618;dRep_bin347_EKGCMFPD_00270;dRep_bin001_GHHJMDAL_00964	dRep_bin154_JGOKHKLI_01635	>dRep_bin154_JGOKHKLI_01635 hypothetical protein	dRep_bin347_EKGCMFPD_00270	CDS			hypothetical protein
EKGCMFPD_00368					25.616020000000002	23.6184	23.54922					4	1	1,9799E-33	dRep_bin260_HELEPKJL_01845;dRep_bin201_OLKDIBOK_00112;dRep_bin303_DDDNDJCF_00142;dRep_bin287_DONBGKDH_01854;dRep_bin322_OJELOJOF_01184;dRep_bin257_JHFDCHCB_00967;dRep_bin169_PNICKJKO_00877;A0A287A8P8;dRep_bin051_HIEIDCID_00151;dRep_bin086_HHEJBMCP_00386;dRep_bin122_JHMJFODI_00063;dRep_bin023_HGFJFKAI_00771;dRep_bin181_MKGPMPIA_00103;dRep_bin066_AJACLPEE_00701;dRep_bin259_IFIOODLK_02454;dRep_bin180_JMFOHHIL_00810;dRep_bin176_DLEJNGKN_00496;dRep_bin102_ICFDHPGB_00705;dRep_bin054_NNOKONMC_00274;dRep_bin141_GMCOOECB_00272;dRep_bin081_JDPCKDNP_01556;dRep_bin191_NGFJMLOL_01066;dRep_bin347_EKGCMFPD_00368;dRep_bin258_DAMEHFEK_00953;dRep_bin207_OHNPDPFI_00730;dRep_bin155_CLHNKEHA_00341;dRep_bin147_EJLBNEBE_00007;dRep_bin003_GOBBLOGO_01064;dRep_bin001_GHHJMDAL_00643;dRep_bin178_FLGBGGJB_01411;dRep_bin161_JMKPMHCO_00287;dRep_bin096_GNHMEKPF_00190;dRep_bin074_EHAOMODJ_00071;dRep_bin059_OOBKFNPP_00877;dRep_bin009_KMMEHEKA_00693;dRep_bin308_JBPDGLPP_01578;dRep_bin276_EHNFLEBP_00798;dRep_bin337_FHKPNFDB_01542;dRep_bin273_FGAEBHNP_00709;dRep_bin167_BLMEBMNN_01919;dRep_bin114_FJHJKHGL_00074;dRep_bin085_MBHLGCDB_00354;dRep_bin058_GJKCICJN_00485;A0A287B9S9;dRep_bin342_BMMENEMP_00811;dRep_bin341_NBEGOKEF_00144;dRep_bin231_CFOLMJBA_00136;dRep_bin095_HOBNOEEF_01465;dRep_bin236_BNONDECB_00582;dRep_bin168_HKDILBFE_01225;dRep_bin099_DNDAGJEJ_01201;dRep_bin024_OLHDGABE_00735;dRep_bin006_HPJGJCAG_01680;I3LL84;dRep_bin332_KAOPCDPF_00242;dRep_bin336_MPGOKPOL_00237;A0A287BIW1;dRep_bin319_PBDBJGCJ_00470	dRep_bin260_HELEPKJL_01845;dRep_bin201_OLKDIBOK_00112;dRep_bin303_DDDNDJCF_00142;dRep_bin287_DONBGKDH_01854	>dRep_bin260_HELEPKJL_01845 UDP-glucose 4-epimerase;>dRep_bin201_OLKDIBOK_00112 UDP-glucose 4-epimerase;>dRep_bin303_DDDNDJCF_00142 UDP-glucose 4-epimerase;>dRep_bin287_DONBGKDH_01854 UDP-glucose 4-epimerase	dRep_bin347_EKGCMFPD_00368	CDS	lnpD	5.1.3.2	UDP-glucose 4-epimerase
EKGCMFPD_00408			23.262129999999996									1	1	1,124E-05	dRep_bin325_EIIGOGHN_00455;dRep_bin287_DONBGKDH_01891;dRep_bin260_HELEPKJL_00793;dRep_bin095_HOBNOEEF_02183;dRep_bin023_HGFJFKAI_00898;dRep_bin226_NLNLHLLD_01485;dRep_bin041_OPKGAAAG_02051;dRep_bin062_BOFBFLDA_01385;dRep_bin181_MKGPMPIA_01332;dRep_bin269_PNILGKPH_01447;dRep_bin282_PKAAPBFP_01100;dRep_bin261_FJICAFFM_01242;dRep_bin203_CLFNNOCF_00622;dRep_bin234_ECABPBME_01964;dRep_bin007_LNLEAAAN_01741;dRep_bin335_JIOGNAPG_00799;dRep_bin309_BIOHLCGG_01161;dRep_bin160_EFKMPBOM_00129;dRep_bin154_JGOKHKLI_00545;dRep_bin133_NOBPDBPA_03678;dRep_bin089_PAJFOJBN_00292;dRep_bin019_MOJEPLJF_01283;dRep_bin134_HIAPAODO_00643;dRep_bin024_OLHDGABE_01143;dRep_bin005_CNDFPKJG_01361;dRep_bin209_NKIHFCEN_00699;dRep_bin179_HFEIPPPA_01887;dRep_bin157_JPNIKEKI_01833;dRep_bin107_EFNBPDOP_00671;dRep_bin077_DNNBMPMC_00160;dRep_bin039_IJNOFOJK_00262;dRep_bin016_JLGAHGOJ_00401;dRep_bin344_CJJBDGAA_00564;dRep_bin324_IPNHOHFK_02103;dRep_bin249_OFIIEIDJ_01493;dRep_bin139_KGAJINND_00448;dRep_bin081_JDPCKDNP_01186;dRep_bin319_PBDBJGCJ_01293;dRep_bin279_IAEFEPEN_01252;dRep_bin220_PILICLLL_00969;dRep_bin201_OLKDIBOK_00798;dRep_bin293_MEPKGOAN_01317;dRep_bin292_JIBLDOOH_01431;dRep_bin027_OFJCHLJJ_01511;dRep_bin347_EKGCMFPD_00408;dRep_bin211_LGJEFJIK_00568	dRep_bin325_EIIGOGHN_00455;dRep_bin287_DONBGKDH_01891;dRep_bin260_HELEPKJL_00793;dRep_bin095_HOBNOEEF_02183;dRep_bin023_HGFJFKAI_00898;dRep_bin226_NLNLHLLD_01485;dRep_bin041_OPKGAAAG_02051;dRep_bin062_BOFBFLDA_01385;dRep_bin181_MKGPMPIA_01332;dRep_bin269_PNILGKPH_01447;dRep_bin282_PKAAPBFP_01100;dRep_bin261_FJICAFFM_01242;dRep_bin203_CLFNNOCF_00622;dRep_bin234_ECABPBME_01964;dRep_bin007_LNLEAAAN_01741;dRep_bin335_JIOGNAPG_00799;dRep_bin309_BIOHLCGG_01161;dRep_bin160_EFKMPBOM_00129;dRep_bin154_JGOKHKLI_00545;dRep_bin133_NOBPDBPA_03678;dRep_bin089_PAJFOJBN_00292;dRep_bin019_MOJEPLJF_01283;dRep_bin134_HIAPAODO_00643;dRep_bin024_OLHDGABE_01143;dRep_bin005_CNDFPKJG_01361;dRep_bin209_NKIHFCEN_00699;dRep_bin179_HFEIPPPA_01887;dRep_bin157_JPNIKEKI_01833;dRep_bin107_EFNBPDOP_00671;dRep_bin077_DNNBMPMC_00160;dRep_bin039_IJNOFOJK_00262;dRep_bin016_JLGAHGOJ_00401;dRep_bin344_CJJBDGAA_00564;dRep_bin324_IPNHOHFK_02103;dRep_bin249_OFIIEIDJ_01493;dRep_bin139_KGAJINND_00448;dRep_bin081_JDPCKDNP_01186;dRep_bin319_PBDBJGCJ_01293;dRep_bin279_IAEFEPEN_01252;dRep_bin220_PILICLLL_00969;dRep_bin201_OLKDIBOK_00798;dRep_bin293_MEPKGOAN_01317;dRep_bin292_JIBLDOOH_01431;dRep_bin027_OFJCHLJJ_01511;dRep_bin347_EKGCMFPD_00408;dRep_bin211_LGJEFJIK_00568	>dRep_bin325_EIIGOGHN_00455 Valine--tRNA ligase;>dRep_bin287_DONBGKDH_01891 Valine--tRNA ligase;>dRep_bin260_HELEPKJL_00793 Valine--tRNA ligase;>dRep_bin095_HOBNOEEF_02183 Valine--tRNA ligase;>dRep_bin023_HGFJFKAI_00898 Valine--tRNA ligase;>dRep_bin226_NLN	dRep_bin347_EKGCMFPD_00408	CDS	valS	6.1.1.9	Valine--tRNA ligase
EKGCMFPD_00416			22.793129999999998									2	2	1,297E-08	dRep_bin347_EKGCMFPD_00416;dRep_bin001_GHHJMDAL_01002	dRep_bin347_EKGCMFPD_00416;dRep_bin001_GHHJMDAL_01002	>dRep_bin347_EKGCMFPD_00416 Lactaldehyde reductase;>dRep_bin001_GHHJMDAL_01002 Lactaldehyde reductase	dRep_bin347_EKGCMFPD_00416	CDS	fucO	1.1.1.77	Lactaldehyde reductase
EKGCMFPD_00420							25.643060000000002	23.95722				3	1	1,9447E-16	dRep_bin322_OJELOJOF_00510;dRep_bin347_EKGCMFPD_00420;dRep_bin001_GHHJMDAL_01111;dRep_bin303_DDDNDJCF_00162;dRep_bin007_LNLEAAAN_00466	dRep_bin322_OJELOJOF_00510;dRep_bin347_EKGCMFPD_00420;dRep_bin001_GHHJMDAL_01111;dRep_bin303_DDDNDJCF_00162	>dRep_bin322_OJELOJOF_00510 Elongation factor Ts;>dRep_bin347_EKGCMFPD_00420 Elongation factor Ts;>dRep_bin001_GHHJMDAL_01111 Elongation factor Ts;>dRep_bin303_DDDNDJCF_00162 Elongation factor Ts	dRep_bin347_EKGCMFPD_00420	CDS	tsf		Elongation factor Ts
EKGCMFPD_00476					23.47482	26.06316	23.80469					5	5	4,9368E-13	dRep_bin041_OPKGAAAG_01786;dRep_bin297_EDHEEICA_00819;dRep_bin226_NLNLHLLD_00014;dRep_bin133_NOBPDBPA_02404;dRep_bin292_JIBLDOOH_01469;dRep_bin157_JPNIKEKI_01549;dRep_bin284_DEHKNOBF_01775;dRep_bin168_HKDILBFE_01874;dRep_bin099_DNDAGJEJ_00210;dRep_bin081_JDPCKDNP_00860;dRep_bin347_EKGCMFPD_00476;dRep_bin335_JIOGNAPG_00892;dRep_bin325_EIIGOGHN_01423;dRep_bin310_IMBAFDIF_01601;dRep_bin308_JBPDGLPP_00710;dRep_bin300_MJPPENNL_00786;dRep_bin282_PKAAPBFP_01049;dRep_bin269_PNILGKPH_00370;dRep_bin254_GJDPFAEA_00787;dRep_bin240_LDBBGJKG_00829;dRep_bin234_ECABPBME_01771;dRep_bin218_ACMPALGF_00712;dRep_bin209_NKIHFCEN_00384;dRep_bin186_HJAAFFNP_00308;dRep_bin179_HFEIPPPA_00593;dRep_bin127_FIPNHBCH_00962;dRep_bin091_MAFACGAD_00732;dRep_bin089_PAJFOJBN_01716;dRep_bin088_DNGPPFDK_00290;dRep_bin069_EGGEOGDC_00822;dRep_bin039_IJNOFOJK_00358;dRep_bin306_FGHMKMMP_00408;dRep_bin077_DNNBMPMC_00123;dRep_bin057_BNCFHBBO_01103	dRep_bin041_OPKGAAAG_01786;dRep_bin297_EDHEEICA_00819;dRep_bin226_NLNLHLLD_00014;dRep_bin133_NOBPDBPA_02404	>dRep_bin041_OPKGAAAG_01786 Hydroxypyruvate reductase;>dRep_bin297_EDHEEICA_00819 Hydroxypyruvate reductase;>dRep_bin226_NLNLHLLD_00014 D-3-phosphoglycerate dehydrogenase;>dRep_bin133_NOBPDBPA_02404 Hydroxypyruvate reductase	dRep_bin347_EKGCMFPD_00476	CDS	serA	1.1.1.95	D-3-phosphoglycerate dehydrogenase
EKGCMFPD_00479				24.354940000000003								9	1	3,7383E-82	dRep_bin133_NOBPDBPA_02407;dRep_bin319_PBDBJGCJ_01738;dRep_bin066_AJACLPEE_00162;dRep_bin077_DNNBMPMC_01718;dRep_bin181_MKGPMPIA_01194;dRep_bin260_HELEPKJL_01076;dRep_bin107_EFNBPDOP_00499;dRep_bin240_LDBBGJKG_00163;dRep_bin328_GIGKNKPJ_00321;dRep_bin347_EKGCMFPD_00479;dRep_bin088_DNGPPFDK_00287;dRep_bin135_HHKACLPM_00514;dRep_bin145_KMJJJOEJ_01002;dRep_bin335_JIOGNAPG_00895;dRep_bin234_ECABPBME_01768;dRep_bin134_HIAPAODO_01302;dRep_bin261_FJICAFFM_00778;dRep_bin019_MOJEPLJF_00883;dRep_bin166_DFIAJFEC_01066;dRep_bin105_AAEIHAFF_00721;dRep_bin142_NDNPJBEM_00168;dRep_bin169_PNICKJKO_01185;dRep_bin007_LNLEAAAN_00243;dRep_bin325_EIIGOGHN_01426;dRep_bin027_OFJCHLJJ_00581;dRep_bin333_EFOKIBLA_00453;dRep_bin049_MNFBDPNO_01275;dRep_bin293_MEPKGOAN_01477;dRep_bin148_NAJFKJMD_01296;dRep_bin008_MNDMJLEI_00823;dRep_bin270_GEJAHNCN_00044;dRep_bin031_BNHMFOII_00682;dRep_bin006_HPJGJCAG_00004;dRep_bin048_PABMBHAL_00541;dRep_bin143_PFLDJMPF_00665	dRep_bin133_NOBPDBPA_02407;dRep_bin319_PBDBJGCJ_01738;dRep_bin066_AJACLPEE_00162;dRep_bin077_DNNBMPMC_01718	>dRep_bin133_NOBPDBPA_02407 Dihydroxy-acid dehydratase;>dRep_bin319_PBDBJGCJ_01738 Dihydroxy-acid dehydratase;>dRep_bin066_AJACLPEE_00162 Dihydroxy-acid dehydratase;>dRep_bin077_DNNBMPMC_01718 Dihydroxy-acid dehydratase	dRep_bin347_EKGCMFPD_00479	CDS	ilvD	4.2.1.9	Dihydroxy-acid dehydratase
EKGCMFPD_00507	24.89365	26.05236	25.483019999999996	26.33376								12	2	4,4027E-232	dRep_bin347_EKGCMFPD_00507;dRep_bin001_GHHJMDAL_00897	dRep_bin347_EKGCMFPD_00507	>dRep_bin347_EKGCMFPD_00507 Ketol-acid reductoisomerase (NAD(+))	dRep_bin347_EKGCMFPD_00507	CDS	ilvC	1.1.1.382	Ketol-acid reductoisomerase (NAD(+))
EKGCMFPD_00530	27.81201	27.62178	27.502489999999998	27.902649999999998	27.641890000000004	26.87373	27.733890000000002	27.32268				4	0	9,2841E-12	dRep_bin266_JFOCEDAE_00469;dRep_bin158_OGFICEAP_02077;dRep_bin167_BLMEBMNN_01111;dRep_bin344_CJJBDGAA_01931;dRep_bin324_IPNHOHFK_00198;dRep_bin269_PNILGKPH_01184;dRep_bin297_EDHEEICA_00055;dRep_bin145_KMJJJOEJ_01157;dRep_bin107_EFNBPDOP_01472;dRep_bin310_IMBAFDIF_01195;dRep_bin300_MJPPENNL_00128;dRep_bin115_IFKGOGCL_01978;dRep_bin308_JBPDGLPP_01709;dRep_bin075_EPEMMOCL_01920;dRep_bin047_IFFANOMN_01370;dRep_bin089_PAJFOJBN_01930;dRep_bin261_FJICAFFM_00651;dRep_bin303_DDDNDJCF_01187;dRep_bin226_NLNLHLLD_00115;dRep_bin127_FIPNHBCH_00340;dRep_bin017_FGFLFOPJ_00355;dRep_bin077_DNNBMPMC_01598;dRep_bin039_IJNOFOJK_01428;dRep_bin186_HJAAFFNP_01660;dRep_bin065_DFABHCBI_00103;dRep_bin220_PILICLLL_01833;dRep_bin134_HIAPAODO_00139;dRep_bin135_HHKACLPM_00006;dRep_bin143_PFLDJMPF_00573;dRep_bin325_EIIGOGHN_00632;dRep_bin099_DNDAGJEJ_00069;dRep_bin293_MEPKGOAN_01336;dRep_bin074_EHAOMODJ_00677;dRep_bin335_JIOGNAPG_01692;dRep_bin260_HELEPKJL_01142;dRep_bin319_PBDBJGCJ_00729;dRep_bin211_LGJEFJIK_00866;dRep_bin168_HKDILBFE_00717;dRep_bin091_MAFACGAD_00274;dRep_bin248_CCDFPECI_01081;dRep_bin240_LDBBGJKG_00905;dRep_bin095_HOBNOEEF_01654;dRep_bin306_FGHMKMMP_00881;dRep_bin282_PKAAPBFP_01110;dRep_bin249_OFIIEIDJ_01129;dRep_bin347_EKGCMFPD_00530;dRep_bin284_DEHKNOBF_01449;dRep_bin001_GHHJMDAL_00488;dRep_bin181_MKGPMPIA_00635	dRep_bin266_JFOCEDAE_00469;dRep_bin158_OGFICEAP_02077;dRep_bin167_BLMEBMNN_01111;dRep_bin344_CJJBDGAA_01931;dRep_bin324_IPNHOHFK_00198;dRep_bin269_PNILGKPH_01184;dRep_bin297_EDHEEICA_00055;dRep_bin145_KMJJJOEJ_01157;dRep_bin107_EFNBPDOP_01472;dRep_bin310_IMBAFDIF_01195;dRep_bin300_MJPPENNL_00128;dRep_bin115_IFKGOGCL_01978;dRep_bin308_JBPDGLPP_01709;dRep_bin075_EPEMMOCL_01920;dRep_bin047_IFFANOMN_01370;dRep_bin089_PAJFOJBN_01930;dRep_bin261_FJICAFFM_00651;dRep_bin303_DDDNDJCF_01187;dRep_bin226_NLNLHLLD_00115;dRep_bin127_FIPNHBCH_00340;dRep_bin017_FGFLFOPJ_00355;dRep_bin077_DNNBMPMC_01598;dRep_bin039_IJNOFOJK_01428;dRep_bin186_HJAAFFNP_01660;dRep_bin065_DFABHCBI_00103;dRep_bin220_PILICLLL_01833;dRep_bin134_HIAPAODO_00139;dRep_bin135_HHKACLPM_00006	>dRep_bin266_JFOCEDAE_00469 Phosphoribosylamine--glycine ligase;>dRep_bin158_OGFICEAP_02077 Phosphoribosylamine--glycine ligase;>dRep_bin167_BLMEBMNN_01111 Phosphoribosylamine--glycine ligase;>dRep_bin344_CJJBDGAA_01931 Phosphoribosylamine--glycine ligase;	dRep_bin347_EKGCMFPD_00530	CDS	purD	6.3.4.13	Phosphoribosylamine--glycine ligase
EKGCMFPD_00563		25.248689999999996										2	1	5,3958E-20	dRep_bin248_CCDFPECI_01732;dRep_bin347_EKGCMFPD_00563	dRep_bin248_CCDFPECI_01732;dRep_bin347_EKGCMFPD_00563	>dRep_bin248_CCDFPECI_01732 LL-diaminopimelate aminotransferase;>dRep_bin347_EKGCMFPD_00563 LL-diaminopimelate aminotransferase	dRep_bin347_EKGCMFPD_00563	CDS	dapL_2	2.6.1.83	LL-diaminopimelate aminotransferase
EKGCMFPD_00625				21.86884								3	1	1,3797E-13	dRep_bin021_AJDDCGJC_00051;dRep_bin252_NDAKLAGD_00826;dRep_bin317_ABPHNCOD_01131;dRep_bin216_JNJMCPHB_01076;dRep_bin272_LGBDGEIM_00618;dRep_bin097_CBBLIPAN_01579;dRep_bin053_OMGNPOOB_00833;dRep_bin337_FHKPNFDB_00090;dRep_bin052_PGOOKKFH_01594;dRep_bin168_HKDILBFE_01015;dRep_bin322_OJELOJOF_01622;dRep_bin220_PILICLLL_01543;dRep_bin055_IBMMJAEE_00610;dRep_bin061_ONFGDLGO_01234;dRep_bin168_HKDILBFE_00368;dRep_bin055_IBMMJAEE_00168;dRep_bin261_FJICAFFM_00490;dRep_bin017_FGFLFOPJ_00414;dRep_bin115_IFKGOGCL_01280;dRep_bin257_JHFDCHCB_01406;dRep_bin323_FBBLPLCG_01600;dRep_bin007_LNLEAAAN_00766;dRep_bin049_MNFBDPNO_00781;dRep_bin333_EFOKIBLA_01149;dRep_bin279_IAEFEPEN_01471;dRep_bin234_ECABPBME_01515;dRep_bin179_HFEIPPPA_02108;dRep_bin023_HGFJFKAI_01527;dRep_bin335_JIOGNAPG_00787;dRep_bin250_NMCAMJIO_00423;dRep_bin158_OGFICEAP_00549;dRep_bin100_CODMOHGB_01341;dRep_bin089_PAJFOJBN_02515;dRep_bin088_DNGPPFDK_01371;dRep_bin081_JDPCKDNP_00684;dRep_bin324_IPNHOHFK_01454;dRep_bin300_MJPPENNL_01260;dRep_bin292_JIBLDOOH_01593;dRep_bin284_DEHKNOBF_00281;dRep_bin282_PKAAPBFP_00934;dRep_bin279_IAEFEPEN_01275;dRep_bin269_PNILGKPH_00152;dRep_bin240_LDBBGJKG_01257;dRep_bin226_NLNLHLLD_00367;dRep_bin209_NKIHFCEN_01541;dRep_bin203_CLFNNOCF_01928;dRep_bin179_HFEIPPPA_00359;dRep_bin167_BLMEBMNN_00233;dRep_bin160_EFKMPBOM_02132;dRep_bin154_JGOKHKLI_02775;dRep_bin133_NOBPDBPA_00727;dRep_bin114_FJHJKHGL_00838;dRep_bin095_HOBNOEEF_00822;dRep_bin075_EPEMMOCL_00939;dRep_bin074_EHAOMODJ_00291;dRep_bin065_DFABHCBI_01203;dRep_bin347_EKGCMFPD_00625;dRep_bin325_EIIGOGHN_00612;dRep_bin310_IMBAFDIF_01359;dRep_bin308_JBPDGLPP_00545;dRep_bin306_FGHMKMMP_01018;dRep_bin297_EDHEEICA_01903;dRep_bin201_OLKDIBOK_00335;dRep_bin186_HJAAFFNP_00409;dRep_bin173_BEBNCADL_00242;dRep_bin169_PNICKJKO_00103;dRep_bin145_KMJJJOEJ_01348;dRep_bin135_HHKACLPM_00566;dRep_bin101_BNDDLDCL_00036;dRep_bin069_EGGEOGDC_01480;dRep_bin062_BOFBFLDA_00487;dRep_bin047_IFFANOMN_01271;dRep_bin042_MMFCLHOO_00308;dRep_bin041_OPKGAAAG_00762;dRep_bin024_OLHDGABE_00679;dRep_bin016_JLGAHGOJ_01831;dRep_bin001_GHHJMDAL_00660;dRep_bin349_AMCJEEEG_00131;dRep_bin312_MJFEFHMP_00833;dRep_bin264_DNFFGNEG_00100;dRep_bin246_MMFBABHK_00297;dRep_bin219_HGPEELLF_00003;dRep_bin174_LJJOKEME_01103;dRep_bin129_GADIAMAA_01409;dRep_bin127_FIPNHBCH_00703;dRep_bin077_DNNBMPMC_01278;dRep_bin030_OGPDLGOC_01790;dRep_bin004_OCHNPJPO_01519;dRep_bin218_ACMPALGF_00968;dRep_bin185_OOOLKACK_00657;dRep_bin181_MKGPMPIA_00538;dRep_bin148_NAJFKJMD_01090;dRep_bin058_GJKCICJN_01056;dRep_bin291_EILOACJB_00579;dRep_bin244_LBFMHLBI_01277;dRep_bin223_PIMCDKJI_01006;dRep_bin204_INMOGLDN_01473;dRep_bin184_MBMMJHKO_00222;dRep_bin302_AHDEPDKG_00621;dRep_bin265_LFKFBJPC_00590;dRep_bin233_BAGKKAOB_00885;dRep_bin188_EJILNMPE_01053;dRep_bin081_JDPCKDNP_01324;dRep_bin318_IEDEJOFJ_00724;dRep_bin144_NPHACCKF_00221;dRep_bin096_GNHMEKPF_00086;dRep_bin344_CJJBDGAA_01489;dRep_bin295_EJGKDKNE_00851;dRep_bin048_PABMBHAL_01507;dRep_bin303_DDDNDJCF_00663;dRep_bin283_NLJJFFAC_01754;dRep_bin201_OLKDIBOK_00523;dRep_bin139_KGAJINND_01276;dRep_bin134_HIAPAODO_01158;dRep_bin094_LBLICAAO_00942;dRep_bin062_BOFBFLDA_00417;dRep_bin336_MPGOKPOL_02385;dRep_bin082_HBEFABJN_00650;dRep_bin125_FADLGGII_00540;dRep_bin334_NAPFFNLD_01195;dRep_bin217_MJCEAEPB_00530;dRep_bin195_DDMDFNOK_00971;dRep_bin060_HNFNENOI_00088;dRep_bin328_GIGKNKPJ_00426;dRep_bin281_OGHLKMAI_01076;dRep_bin197_NHLBHFEI_00626;dRep_bin103_IGJBLKMC_00726;dRep_bin116_CLFDBMOF_00455;dRep_bin332_KAOPCDPF_00448;dRep_bin345_GLPJDLOI_00589;dRep_bin314_KCHFPLIP_00788;dRep_bin128_JPBBHEMA_00693;dRep_bin073_AKBCEHHO_01462;dRep_bin045_GJACFFBC_00428;dRep_bin329_GDOHKPBL_01522;dRep_bin316_FNLHDNEO_00349;dRep_bin307_AOCKHIKF_00400;dRep_bin294_EHJINIDK_01408;dRep_bin289_KALDCNNP_01327;dRep_bin183_FPGIOKBG_00622;dRep_bin098_DDEBHDKK_01308;dRep_bin165_HMDFFMMM_01247;dRep_bin037_GEAOEKHA_01212;dRep_bin256_KEMNAOBC_00113;dRep_bin092_OOJCPDEA_01143;dRep_bin126_PPDNCIBN_00264;dRep_bin090_IPGNHCBJ_00911;dRep_bin215_ABBFGCAF_00280;dRep_bin005_CNDFPKJG_00629;dRep_bin270_GEJAHNCN_01426;dRep_bin116_CLFDBMOF_00686;dRep_bin069_EGGEOGDC_00857;dRep_bin007_LNLEAAAN_01604;dRep_bin057_BNCFHBBO_01159;dRep_bin038_EIGFILKG_00229;dRep_bin114_FJHJKHGL_00934;dRep_bin152_LJMCIADF_00045;dRep_bin322_OJELOJOF_00826;dRep_bin266_JFOCEDAE_00030;dRep_bin194_MEPDOGGJ_01235;dRep_bin079_GAOGCKND_01437;dRep_bin068_ENOLAELK_01387;dRep_bin025_CBEJJMLE_00917;dRep_bin240_LDBBGJKG_00802;dRep_bin347_EKGCMFPD_01498;dRep_bin167_BLMEBMNN_00596;dRep_bin160_EFKMPBOM_02114;dRep_bin260_HELEPKJL_02017;dRep_bin091_MAFACGAD_00797;dRep_bin099_DNDAGJEJ_01471;dRep_bin278_BFCONKOE_01179;dRep_bin168_HKDILBFE_00397;dRep_bin284_DEHKNOBF_00737;dRep_bin001_GHHJMDAL_01209;dRep_bin236_BNONDECB_00531;dRep_bin286_OEMIJKMC_01078;dRep_bin231_CFOLMJBA_00464;dRep_bin193_GDMDPNNM_00224;dRep_bin172_ALNHGLMD_01787;dRep_bin182_EMCFODCD_00065;dRep_bin044_IPFKHAEF_00183	dRep_bin021_AJDDCGJC_00051;dRep_bin252_NDAKLAGD_00826;dRep_bin317_ABPHNCOD_01131;dRep_bin216_JNJMCPHB_01076;dRep_bin272_LGBDGEIM_00618;dRep_bin097_CBBLIPAN_01579;dRep_bin053_OMGNPOOB_00833;dRep_bin337_FHKPNFDB_00090;dRep_bin052_PGOOKKFH_01594	>dRep_bin021_AJDDCGJC_00051 ATP synthase subunit alpha;>dRep_bin252_NDAKLAGD_00826 ATP synthase subunit alpha;>dRep_bin317_ABPHNCOD_01131 ATP synthase subunit alpha;>dRep_bin216_JNJMCPHB_01076 ATP synthase subunit alpha;>dRep_bin272_LGBDGEIM_00618 ATP synt	dRep_bin347_EKGCMFPD_00625	CDS	atpA_1	3.6.3.14	ATP synthase subunit alpha
EKGCMFPD_00657					24.562029999999996							2	1	3,0916E-05	dRep_bin335_JIOGNAPG_00600;dRep_bin322_OJELOJOF_00311;dRep_bin007_LNLEAAAN_00207;dRep_bin023_HGFJFKAI_00434;dRep_bin347_EKGCMFPD_00657;dRep_bin160_EFKMPBOM_02824;dRep_bin154_JGOKHKLI_01039;dRep_bin081_JDPCKDNP_00803;dRep_bin249_OFIIEIDJ_00404;dRep_bin031_BNHMFOII_01368;dRep_bin324_IPNHOHFK_01694	dRep_bin335_JIOGNAPG_00600;dRep_bin322_OJELOJOF_00311;dRep_bin007_LNLEAAAN_00207;dRep_bin023_HGFJFKAI_00434;dRep_bin347_EKGCMFPD_00657;dRep_bin160_EFKMPBOM_02824;dRep_bin154_JGOKHKLI_01039;dRep_bin081_JDPCKDNP_00803;dRep_bin249_OFIIEIDJ_00404;dRep_bin031_BNHMFOII_01368;dRep_bin324_IPNHOHFK_01694	>dRep_bin335_JIOGNAPG_00600 Chaperone protein HtpG;>dRep_bin322_OJELOJOF_00311 Chaperone protein HtpG;>dRep_bin007_LNLEAAAN_00207 Chaperone protein HtpG;>dRep_bin023_HGFJFKAI_00434 Chaperone protein HtpG;>dRep_bin347_EKGCMFPD_00657 Chaperone protein HtpG;>	dRep_bin347_EKGCMFPD_00657	CDS	htpG		Chaperone protein HtpG
EKGCMFPD_00673								21.504800000000003				5	1	3,9803E-89	dRep_bin260_HELEPKJL_01435;dRep_bin135_HHKACLPM_00878;dRep_bin279_IAEFEPEN_00125;dRep_bin139_KGAJINND_00653;dRep_bin047_IFFANOMN_00833;dRep_bin220_PILICLLL_01353;dRep_bin062_BOFBFLDA_00870;dRep_bin027_OFJCHLJJ_01114;dRep_bin145_KMJJJOEJ_00674;dRep_bin300_MJPPENNL_01153;dRep_bin282_PKAAPBFP_00002;dRep_bin091_MAFACGAD_00478;dRep_bin116_CLFDBMOF_00810;dRep_bin347_EKGCMFPD_00673;dRep_bin322_OJELOJOF_01660;dRep_bin335_JIOGNAPG_01578;dRep_bin201_OLKDIBOK_02525;dRep_bin160_EFKMPBOM_02349;dRep_bin077_DNNBMPMC_01926;dRep_bin246_MMFBABHK_00869;dRep_bin219_HGPEELLF_00755;dRep_bin174_LJJOKEME_01393;dRep_bin312_MJFEFHMP_00102;dRep_bin129_GADIAMAA_01507;dRep_bin030_OGPDLGOC_00490;dRep_bin004_OCHNPJPO_00897;dRep_bin061_ONFGDLGO_00219;dRep_bin264_DNFFGNEG_00399;dRep_bin153_JGABJFBF_00375;dRep_bin244_LBFMHLBI_00924;dRep_bin204_INMOGLDN_00439;dRep_bin050_FBECOHCI_00117;dRep_bin202_HEPPALPH_01023;dRep_bin223_PIMCDKJI_00571;dRep_bin233_BAGKKAOB_00161;dRep_bin336_MPGOKPOL_01196;dRep_bin333_EFOKIBLA_00139;dRep_bin303_DDDNDJCF_00008;dRep_bin095_HOBNOEEF_01151;dRep_bin249_OFIIEIDJ_00631;dRep_bin007_LNLEAAAN_00381;dRep_bin328_GIGKNKPJ_00383;dRep_bin081_JDPCKDNP_00006;dRep_bin078_GKFCBAEI_00579;dRep_bin325_EIIGOGHN_00717;dRep_bin319_PBDBJGCJ_01544;dRep_bin306_FGHMKMMP_01785;dRep_bin181_MKGPMPIA_01340;dRep_bin127_FIPNHBCH_01090;dRep_bin066_AJACLPEE_01002;dRep_bin024_OLHDGABE_01294;dRep_bin220_PILICLLL_00488;dRep_bin078_GKFCBAEI_00372;dRep_bin006_HPJGJCAG_01324;dRep_bin142_NDNPJBEM_00465;dRep_bin350_EKOOEEGH_00689;dRep_bin228_CECEDMJG_00916;dRep_bin218_ACMPALGF_00396;dRep_bin164_KHMELCCL_00939;dRep_bin173_BEBNCADL_00342;dRep_bin058_GJKCICJN_00554;dRep_bin268_LKMHIMLG_00442;dRep_bin237_KJDLIPND_00262;dRep_bin251_FGNGCJDD_00443;dRep_bin192_GCMBELNN_00009	dRep_bin260_HELEPKJL_01435;dRep_bin135_HHKACLPM_00878;dRep_bin279_IAEFEPEN_00125;dRep_bin139_KGAJINND_00653;dRep_bin047_IFFANOMN_00833	>dRep_bin260_HELEPKJL_01435 Trehalose import ATP-binding protein SugC;>dRep_bin135_HHKACLPM_00878 Trehalose import ATP-binding protein SugC;>dRep_bin279_IAEFEPEN_00125 Trehalose import ATP-binding protein SugC;>dRep_bin139_KGAJINND_00653 Trehalose import A	dRep_bin347_EKGCMFPD_00673	CDS	sugC	3.6.3.-	Trehalose import ATP-binding protein SugC
EKGCMFPD_00712		23.92316										5	1	3,3144E-81	dRep_bin347_EKGCMFPD_00712	dRep_bin347_EKGCMFPD_00712	>dRep_bin347_EKGCMFPD_00712 Phosphoenolpyruvate carboxykinase (ATP)	dRep_bin347_EKGCMFPD_00712	CDS	pckA	4.1.1.49	Phosphoenolpyruvate carboxykinase (ATP)
EKGCMFPD_00714					24.24887	26.77128	24.69339	24.025629999999996				3	1	5,593E-12	dRep_bin139_KGAJINND_01577;dRep_bin344_CJJBDGAA_01807;dRep_bin300_MJPPENNL_01697;dRep_bin324_IPNHOHFK_02134;dRep_bin261_FJICAFFM_01134;dRep_bin303_DDDNDJCF_01519;dRep_bin297_EDHEEICA_00415;dRep_bin209_NKIHFCEN_00709;dRep_bin167_BLMEBMNN_00621;dRep_bin157_JPNIKEKI_01820;dRep_bin133_NOBPDBPA_02652;dRep_bin016_JLGAHGOJ_01099;dRep_bin292_JIBLDOOH_01420;dRep_bin127_FIPNHBCH_01248;dRep_bin062_BOFBFLDA_01336;dRep_bin115_IFKGOGCL_01923;dRep_bin269_PNILGKPH_02213;dRep_bin208_DHPGEIBC_01209;dRep_bin347_EKGCMFPD_00714;dRep_bin266_JFOCEDAE_00751;dRep_bin211_LGJEFJIK_00719;dRep_bin316_FNLHDNEO_01427;dRep_bin065_DFABHCBI_00784;dRep_bin319_PBDBJGCJ_00028;dRep_bin077_DNNBMPMC_00009;dRep_bin006_HPJGJCAG_01885;dRep_bin066_AJACLPEE_00266;dRep_bin279_IAEFEPEN_00114;dRep_bin254_GJDPFAEA_01714;dRep_bin035_JBNPBOKG_00265;dRep_bin092_OOJCPDEA_01135;dRep_bin173_BEBNCADL_00932;dRep_bin261_FJICAFFM_01422;dRep_bin288_KOIAAABN_01088;dRep_bin263_OLEFOGIJ_00124;dRep_bin099_DNDAGJEJ_00022;dRep_bin325_EIIGOGHN_01093;dRep_bin076_GLAOFBEC_01169;dRep_bin089_PAJFOJBN_00283;dRep_bin287_DONBGKDH_01271;dRep_bin162_JBGCCDIN_01770;dRep_bin135_HHKACLPM_00267;dRep_bin332_KAOPCDPF_00441;dRep_bin310_IMBAFDIF_00637;dRep_bin304_JDNJGFKH_01711;dRep_bin222_GGCAJABB_01248;dRep_bin159_ADJJGPBG_01860;dRep_bin043_KLAFNACO_01408;dRep_bin023_HGFJFKAI_00653;dRep_bin189_AHHEHGDL_01147;dRep_bin328_GIGKNKPJ_01484;dRep_bin282_PKAAPBFP_01012;dRep_bin229_FFOBPPJI_01006;dRep_bin203_CLFNNOCF_00634;dRep_bin102_ICFDHPGB_01107;dRep_bin072_JOBJPCGA_00187;dRep_bin029_LFMGBBEC_00768;dRep_bin017_FGFLFOPJ_00988;dRep_bin195_DDMDFNOK_00791;dRep_bin120_EKLBOPNC_01828;dRep_bin058_GJKCICJN_00813;dRep_bin046_GKEJLOEK_00003;dRep_bin186_HJAAFFNP_01596;dRep_bin349_AMCJEEEG_00676;dRep_bin200_JJGKEOHI_00578;dRep_bin027_OFJCHLJJ_00701;dRep_bin161_JMKPMHCO_01186;dRep_bin160_EFKMPBOM_00139;dRep_bin154_JGOKHKLI_00533;dRep_bin083_OCBADPJJ_00750;dRep_bin049_MNFBDPNO_00757;dRep_bin008_MNDMJLEI_00707;dRep_bin158_OGFICEAP_00389;dRep_bin334_NAPFFNLD_00463;dRep_bin339_DBNBAHDK_00481;dRep_bin241_LMMMGDNI_00312;dRep_bin179_HFEIPPPA_00773;dRep_bin245_MBCFLKOF_01292;dRep_bin010_MFFFGEGD_00549	dRep_bin139_KGAJINND_01577;dRep_bin344_CJJBDGAA_01807;dRep_bin300_MJPPENNL_01697;dRep_bin324_IPNHOHFK_02134;dRep_bin261_FJICAFFM_01134;dRep_bin303_DDDNDJCF_01519;dRep_bin297_EDHEEICA_00415;dRep_bin209_NKIHFCEN_00709;dRep_bin167_BLMEBMNN_00621;dRep_bin157_JPNIKEKI_01820;dRep_bin133_NOBPDBPA_02652;dRep_bin016_JLGAHGOJ_01099;dRep_bin292_JIBLDOOH_01420;dRep_bin127_FIPNHBCH_01248;dRep_bin062_BOFBFLDA_01336;dRep_bin115_IFKGOGCL_01923;dRep_bin269_PNILGKPH_02213	>dRep_bin139_KGAJINND_01577 Chaperone protein ClpB 1;>dRep_bin344_CJJBDGAA_01807 Chaperone protein ClpB;>dRep_bin300_MJPPENNL_01697 Chaperone protein ClpB;>dRep_bin324_IPNHOHFK_02134 Chaperone protein ClpB;>dRep_bin261_FJICAFFM_01134 Chaperone protein ClpB	dRep_bin347_EKGCMFPD_00714	CDS	clpB_2		Chaperone protein ClpB
EKGCMFPD_00717	29.895639999999997	30.7809	30.231350000000003	30.858900000000002	29.677760000000003	30.19049	29.354850000000006	29.610980000000005				14	2	9,6215E-110	dRep_bin133_NOBPDBPA_01525;dRep_bin069_EGGEOGDC_00770;dRep_bin095_HOBNOEEF_02261;dRep_bin279_IAEFEPEN_00690;dRep_bin240_LDBBGJKG_00170;dRep_bin324_IPNHOHFK_01232;dRep_bin168_HKDILBFE_01877;dRep_bin186_HJAAFFNP_00589;dRep_bin023_HGFJFKAI_01138;dRep_bin308_JBPDGLPP_00699;dRep_bin107_EFNBPDOP_00870;dRep_bin319_PBDBJGCJ_01310;dRep_bin107_EFNBPDOP_01430;dRep_bin089_PAJFOJBN_01445;dRep_bin077_DNNBMPMC_01129;dRep_bin066_AJACLPEE_00745;dRep_bin347_EKGCMFPD_00717;dRep_bin001_GHHJMDAL_01300;dRep_bin181_MKGPMPIA_00661	dRep_bin133_NOBPDBPA_01525;dRep_bin069_EGGEOGDC_00770;dRep_bin095_HOBNOEEF_02261;dRep_bin279_IAEFEPEN_00690;dRep_bin240_LDBBGJKG_00170;dRep_bin324_IPNHOHFK_01232;dRep_bin168_HKDILBFE_01877;dRep_bin186_HJAAFFNP_00589;dRep_bin023_HGFJFKAI_01138	>dRep_bin133_NOBPDBPA_01525 Aspartate-semialdehyde dehydrogenase 2;>dRep_bin069_EGGEOGDC_00770 Aspartate-semialdehyde dehydrogenase 2;>dRep_bin095_HOBNOEEF_02261 Aspartate-semialdehyde dehydrogenase 2;>dRep_bin279_IAEFEPEN_00690 Aspartate-semialdehyde dehy	dRep_bin347_EKGCMFPD_00717	CDS	asd	1.2.1.11	Aspartate-semialdehyde dehydrogenase
EKGCMFPD_00759		23.986419999999995	23.17342									2	1	4,4745E-32	dRep_bin135_HHKACLPM_01194;dRep_bin248_CCDFPECI_00232;dRep_bin048_PABMBHAL_01807;dRep_bin347_EKGCMFPD_00759;dRep_bin293_MEPKGOAN_01297;dRep_bin001_GHHJMDAL_00886;dRep_bin017_FGFLFOPJ_00766;dRep_bin318_IEDEJOFJ_01009;dRep_bin310_IMBAFDIF_00255;dRep_bin276_EHNFLEBP_00341;dRep_bin158_OGFICEAP_00321;dRep_bin145_KMJJJOEJ_01462;dRep_bin131_HLFNHDGI_00015;dRep_bin115_IFKGOGCL_00136;dRep_bin089_PAJFOJBN_01106;dRep_bin335_JIOGNAPG_01504;dRep_bin330_CODAKHDJ_00948;dRep_bin201_OLKDIBOK_02618;dRep_bin301_NJFJIJGA_00940;dRep_bin154_JGOKHKLI_01917;dRep_bin007_LNLEAAAN_01428	dRep_bin135_HHKACLPM_01194;dRep_bin248_CCDFPECI_00232;dRep_bin048_PABMBHAL_01807;dRep_bin347_EKGCMFPD_00759;dRep_bin293_MEPKGOAN_01297;dRep_bin001_GHHJMDAL_00886;dRep_bin017_FGFLFOPJ_00766;dRep_bin318_IEDEJOFJ_01009;dRep_bin310_IMBAFDIF_00255;dRep_bin276_EHNFLEBP_00341;dRep_bin158_OGFICEAP_00321;dRep_bin145_KMJJJOEJ_01462;dRep_bin131_HLFNHDGI_00015;dRep_bin115_IFKGOGCL_00136;dRep_bin089_PAJFOJBN_01106;dRep_bin335_JIOGNAPG_01504;dRep_bin330_CODAKHDJ_00948;dRep_bin201_OLKDIBOK_02618;dRep_bin301_NJFJIJGA_00940;dRep_bin154_JGOKHKLI_01917;dRep_bin007_LNLEAAAN_01428	>dRep_bin135_HHKACLPM_01194 L-methionine gamma-lyase;>dRep_bin248_CCDFPECI_00232 L-methionine gamma-lyase;>dRep_bin048_PABMBHAL_01807 L-methionine gamma-lyase;>dRep_bin347_EKGCMFPD_00759 L-methionine gamma-lyase;>dRep_bin293_MEPKGOAN_01297 L-methionine gam	dRep_bin347_EKGCMFPD_00759	CDS	mgl_2	4.4.1.11	L-methionine gamma-lyase
EKGCMFPD_00789	25.8986	25.973339999999997	26.19903	26.281	26.514310000000002	26.59049	25.7571	26.25906				4	1	4,6283E-12	dRep_bin145_KMJJJOEJ_01258;dRep_bin242_LKAIBGGJ_00691;dRep_bin081_JDPCKDNP_01525;dRep_bin317_ABPHNCOD_01232;dRep_bin347_EKGCMFPD_00789;dRep_bin282_PKAAPBFP_00053;dRep_bin039_IJNOFOJK_00980;dRep_bin001_GHHJMDAL_00862;dRep_bin272_LGBDGEIM_01970;dRep_bin186_HJAAFFNP_02184;dRep_bin005_CNDFPKJG_01374;dRep_bin332_KAOPCDPF_00412;dRep_bin167_BLMEBMNN_01248;dRep_bin260_HELEPKJL_00916;dRep_bin160_EFKMPBOM_00919;dRep_bin209_NKIHFCEN_00567;dRep_bin158_OGFICEAP_02130;dRep_bin283_NLJJFFAC_01508;dRep_bin278_BFCONKOE_00571;dRep_bin325_EIIGOGHN_00662;dRep_bin218_ACMPALGF_01369;dRep_bin094_LBLICAAO_00052;dRep_bin299_AKNBKJGM_01021;dRep_bin157_JPNIKEKI_01309;dRep_bin075_EPEMMOCL_02359;dRep_bin055_IBMMJAEE_00109;dRep_bin306_FGHMKMMP_00327;dRep_bin216_JNJMCPHB_00254;dRep_bin292_JIBLDOOH_01625;dRep_bin179_HFEIPPPA_02175;dRep_bin133_NOBPDBPA_01803;dRep_bin088_DNGPPFDK_01392;dRep_bin024_OLHDGABE_00503;dRep_bin324_IPNHOHFK_01870;dRep_bin203_CLFNNOCF_00851;dRep_bin017_FGFLFOPJ_00925;dRep_bin065_DFABHCBI_01998;dRep_bin192_GCMBELNN_00043;dRep_bin310_IMBAFDIF_01495;dRep_bin218_ACMPALGF_00670	dRep_bin145_KMJJJOEJ_01258;dRep_bin242_LKAIBGGJ_00691;dRep_bin081_JDPCKDNP_01525;dRep_bin317_ABPHNCOD_01232;dRep_bin347_EKGCMFPD_00789;dRep_bin282_PKAAPBFP_00053;dRep_bin039_IJNOFOJK_00980;dRep_bin001_GHHJMDAL_00862;dRep_bin272_LGBDGEIM_01970;dRep_bin186_HJAAFFNP_02184;dRep_bin005_CNDFPKJG_01374;dRep_bin332_KAOPCDPF_00412;dRep_bin167_BLMEBMNN_01248;dRep_bin260_HELEPKJL_00916;dRep_bin160_EFKMPBOM_00919;dRep_bin209_NKIHFCEN_00567;dRep_bin158_OGFICEAP_02130;dRep_bin283_NLJJFFAC_01508;dRep_bin278_BFCONKOE_00571;dRep_bin325_EIIGOGHN_00662;dRep_bin218_ACMPALGF_01369;dRep_bin094_LBLICAAO_00052;dRep_bin299_AKNBKJGM_01021;dRep_bin157_JPNIKEKI_01309;dRep_bin075_EPEMMOCL_02359;dRep_bin055_IBMMJAEE_00109;dRep_bin306_FGHMKMMP_00327;dRep_bin216_JNJMCPHB_00254;dRep_bin292_JIBLDOOH_01625;dRep_bin179_HFEIPPPA_02175;dRep_bin133_NOBPDBPA_01803;dRep_bin088_DNGPPFDK_01392;dRep_bin024_OLHDGABE_00503;dRep_bin324_IPNHOHFK_01870;dRep_bin203_CLFNNOCF_00851;dRep_bin017_FGFLFOPJ_00925;dRep_bin065_DFABHCBI_01998	>dRep_bin145_KMJJJOEJ_01258 GMP synthase [glutamine-hydrolyzing];>dRep_bin242_LKAIBGGJ_00691 GMP synthase [glutamine-hydrolyzing];>dRep_bin081_JDPCKDNP_01525 GMP synthase [glutamine-hydrolyzing];>dRep_bin317_ABPHNCOD_01232 GMP synthase [glutamine-hydrolyzi	dRep_bin347_EKGCMFPD_00789	CDS	guaA	6.3.5.2	GMP synthase [glutamine-hydrolyzing]
EKGCMFPD_00813				26.368709999999997								4	2	1,0849E-12	dRep_bin292_JIBLDOOH_01063;dRep_bin041_OPKGAAAG_01075;dRep_bin209_NKIHFCEN_01331;dRep_bin269_PNILGKPH_00386;dRep_bin039_IJNOFOJK_00028;dRep_bin324_IPNHOHFK_01206;dRep_bin300_MJPPENNL_00977;dRep_bin279_IAEFEPEN_01295;dRep_bin344_CJJBDGAA_00875;dRep_bin328_GIGKNKPJ_01713;dRep_bin308_JBPDGLPP_01081;dRep_bin303_DDDNDJCF_01452;dRep_bin260_HELEPKJL_01814;dRep_bin240_LDBBGJKG_01949;dRep_bin211_LGJEFJIK_01488;dRep_bin201_OLKDIBOK_00486;dRep_bin186_HJAAFFNP_00498;dRep_bin161_JMKPMHCO_00510;dRep_bin140_ACFAKGIL_00966;dRep_bin139_KGAJINND_01935;dRep_bin127_FIPNHBCH_01109;dRep_bin091_MAFACGAD_00938;dRep_bin069_EGGEOGDC_00173;dRep_bin065_DFABHCBI_01020;dRep_bin062_BOFBFLDA_00118;dRep_bin024_OLHDGABE_00006;dRep_bin016_JLGAHGOJ_01717;dRep_bin347_EKGCMFPD_00813;dRep_bin332_KAOPCDPF_00718;dRep_bin322_OJELOJOF_01104;dRep_bin310_IMBAFDIF_01100;dRep_bin306_FGHMKMMP_01495;dRep_bin282_PKAAPBFP_00123;dRep_bin266_JFOCEDAE_01441;dRep_bin249_OFIIEIDJ_00818;dRep_bin248_CCDFPECI_00304;dRep_bin234_ECABPBME_02078;dRep_bin181_MKGPMPIA_00013;dRep_bin160_EFKMPBOM_00454;dRep_bin158_OGFICEAP_01438;dRep_bin154_JGOKHKLI_00210;dRep_bin145_KMJJJOEJ_01040;dRep_bin135_HHKACLPM_01477;dRep_bin107_EFNBPDOP_01455;dRep_bin089_PAJFOJBN_01775;dRep_bin081_JDPCKDNP_00410;dRep_bin077_DNNBMPMC_01401;dRep_bin075_EPEMMOCL_00061;dRep_bin027_OFJCHLJJ_01614;dRep_bin023_HGFJFKAI_00593;dRep_bin019_MOJEPLJF_00571;dRep_bin007_LNLEAAAN_01143;dRep_bin005_CNDFPKJG_01435;dRep_bin001_GHHJMDAL_01190	dRep_bin292_JIBLDOOH_01063;dRep_bin041_OPKGAAAG_01075;dRep_bin209_NKIHFCEN_01331;dRep_bin269_PNILGKPH_00386;dRep_bin039_IJNOFOJK_00028;dRep_bin324_IPNHOHFK_01206;dRep_bin300_MJPPENNL_00977;dRep_bin279_IAEFEPEN_01295	>dRep_bin292_JIBLDOOH_01063 50S ribosomal protein L21;>dRep_bin041_OPKGAAAG_01075 50S ribosomal protein L21;>dRep_bin209_NKIHFCEN_01331 50S ribosomal protein L21;>dRep_bin269_PNILGKPH_00386 50S ribosomal protein L21;>dRep_bin039_IJNOFOJK_00028 50S ribosoma	dRep_bin347_EKGCMFPD_00813	CDS	rplU		50S ribosomal protein L21
EKGCMFPD_00881								24.67471				2	1	3,5941E-06	dRep_bin139_KGAJINND_01299;dRep_bin249_OFIIEIDJ_00342;dRep_bin201_OLKDIBOK_02433;dRep_bin016_JLGAHGOJ_01891;dRep_bin248_CCDFPECI_00660;dRep_bin135_HHKACLPM_00948;dRep_bin075_EPEMMOCL_02434;dRep_bin031_BNHMFOII_01531;dRep_bin347_EKGCMFPD_00881;dRep_bin335_JIOGNAPG_00537;dRep_bin324_IPNHOHFK_01798;dRep_bin306_FGHMKMMP_00897;dRep_bin292_JIBLDOOH_02185;dRep_bin284_DEHKNOBF_01656;dRep_bin282_PKAAPBFP_00606;dRep_bin234_ECABPBME_00660;dRep_bin160_EFKMPBOM_02159;dRep_bin157_JPNIKEKI_01765;dRep_bin154_JGOKHKLI_01946;dRep_bin089_PAJFOJBN_02017;dRep_bin066_AJACLPEE_01205;dRep_bin019_MOJEPLJF_01345;dRep_bin017_FGFLFOPJ_00396;dRep_bin007_LNLEAAAN_00779;dRep_bin303_DDDNDJCF_00484;dRep_bin134_HIAPAODO_02040;dRep_bin027_OFJCHLJJ_00472;dRep_bin319_PBDBJGCJ_00498;dRep_bin300_MJPPENNL_00779;dRep_bin297_EDHEEICA_01479;dRep_bin287_DONBGKDH_00568;dRep_bin269_PNILGKPH_00378;dRep_bin266_JFOCEDAE_00242;dRep_bin226_NLNLHLLD_00006;dRep_bin220_PILICLLL_01253;dRep_bin209_NKIHFCEN_00393;dRep_bin179_HFEIPPPA_00599;dRep_bin133_NOBPDBPA_02395;dRep_bin127_FIPNHBCH_00410;dRep_bin088_DNGPPFDK_00575;dRep_bin081_JDPCKDNP_00771;dRep_bin041_OPKGAAAG_02154;dRep_bin308_JBPDGLPP_00851;dRep_bin167_BLMEBMNN_01783;dRep_bin095_HOBNOEEF_00951;dRep_bin024_OLHDGABE_01396;dRep_bin310_IMBAFDIF_00588;dRep_bin001_GHHJMDAL_01280	dRep_bin139_KGAJINND_01299;dRep_bin249_OFIIEIDJ_00342;dRep_bin201_OLKDIBOK_02433;dRep_bin016_JLGAHGOJ_01891;dRep_bin248_CCDFPECI_00660;dRep_bin135_HHKACLPM_00948;dRep_bin075_EPEMMOCL_02434;dRep_bin031_BNHMFOII_01531;dRep_bin347_EKGCMFPD_00881;dRep_bin335_JIOGNAPG_00537;dRep_bin324_IPNHOHFK_01798;dRep_bin306_FGHMKMMP_00897;dRep_bin292_JIBLDOOH_02185;dRep_bin284_DEHKNOBF_01656;dRep_bin282_PKAAPBFP_00606;dRep_bin234_ECABPBME_00660;dRep_bin160_EFKMPBOM_02159;dRep_bin157_JPNIKEKI_01765;dRep_bin154_JGOKHKLI_01946;dRep_bin089_PAJFOJBN_02017;dRep_bin066_AJACLPEE_01205;dRep_bin019_MOJEPLJF_01345;dRep_bin017_FGFLFOPJ_00396;dRep_bin007_LNLEAAAN_00779;dRep_bin303_DDDNDJCF_00484;dRep_bin134_HIAPAODO_02040;dRep_bin027_OFJCHLJJ_00472;dRep_bin319_PBDBJGCJ_00498;dRep_bin300_MJPPENNL_00779;dRep_bin297_EDHEEICA_01479;dRep_bin287_DONBGKDH_00568;dRep_bin269_PNILGKPH_00378;dRep_bin266_JFOCEDAE_00242;dRep_bin226_NLNLHLLD_00006;dRep_bin220_PILICLLL_01253;dRep_bin209_NKIHFCEN_00393;dRep_bin179_HFEIPPPA_00599;dRep_bin133_NOBPDBPA_02395;dRep_bin127_FIPNHBCH_00410;dRep_bin088_DNGPPFDK_00575;dRep_bin081_JDPCKDNP_00771;dRep_bin041_OPKGAAAG_02154;dRep_bin308_JBPDGLPP_00851;dRep_bin167_BLMEBMNN_01783;dRep_bin095_HOBNOEEF_00951;dRep_bin024_OLHDGABE_01396;dRep_bin310_IMBAFDIF_00588;dRep_bin001_GHHJMDAL_01280	>dRep_bin139_KGAJINND_01299 Glycine--tRNA ligase;>dRep_bin249_OFIIEIDJ_00342 Glycine--tRNA ligase;>dRep_bin201_OLKDIBOK_02433 Glycine--tRNA ligase;>dRep_bin016_JLGAHGOJ_01891 Glycine--tRNA ligase;>dRep_bin248_CCDFPECI_00660 Glycine--tRNA ligase;>dRep_bin13	dRep_bin347_EKGCMFPD_00881	CDS	glyQS	6.1.1.14	Glycine--tRNA ligase
EKGCMFPD_00942			23.286019999999997	23.610880000000005								4	1	5,7789E-14	dRep_bin133_NOBPDBPA_01467;dRep_bin209_NKIHFCEN_01581;dRep_bin179_HFEIPPPA_02264;dRep_bin226_NLNLHLLD_01531;dRep_bin324_IPNHOHFK_01023;dRep_bin335_JIOGNAPG_00849;dRep_bin297_EDHEEICA_01086;dRep_bin308_JBPDGLPP_01561;dRep_bin249_OFIIEIDJ_01347;dRep_bin024_OLHDGABE_00861;dRep_bin248_CCDFPECI_00398;dRep_bin095_HOBNOEEF_00461;dRep_bin168_HKDILBFE_01532;dRep_bin099_DNDAGJEJ_00152;dRep_bin091_MAFACGAD_01498;dRep_bin053_OMGNPOOB_00496;dRep_bin347_EKGCMFPD_00942;dRep_bin017_FGFLFOPJ_00104;dRep_bin001_GHHJMDAL_00099;dRep_bin260_HELEPKJL_01156;dRep_bin139_KGAJINND_00655;dRep_bin284_DEHKNOBF_00340;dRep_bin158_OGFICEAP_00774;dRep_bin115_IFKGOGCL_00685;dRep_bin023_HGFJFKAI_00316;dRep_bin127_FIPNHBCH_00146;dRep_bin254_GJDPFAEA_01402;dRep_bin167_BLMEBMNN_01288;dRep_bin328_GIGKNKPJ_00098;dRep_bin065_DFABHCBI_00298	dRep_bin133_NOBPDBPA_01467;dRep_bin209_NKIHFCEN_01581;dRep_bin179_HFEIPPPA_02264;dRep_bin226_NLNLHLLD_01531;dRep_bin324_IPNHOHFK_01023;dRep_bin335_JIOGNAPG_00849;dRep_bin297_EDHEEICA_01086	>dRep_bin133_NOBPDBPA_01467 2,3-dimethylmalate dehydratase large subunit;>dRep_bin209_NKIHFCEN_01581 2,3-dimethylmalate dehydratase large subunit;>dRep_bin179_HFEIPPPA_02264 2,3-dimethylmalate dehydratase large subunit;>dRep_bin226_NLNLHLLD_01531 Homoaconi	dRep_bin347_EKGCMFPD_00942	CDS	dmdA_2	4.2.1.85	2,3-dimethylmalate dehydratase large subunit
EKGCMFPD_01027				24.726399999999998								2	1	4,821E-05	dRep_bin350_EKOOEEGH_00545;dRep_bin027_OFJCHLJJ_00315;dRep_bin335_JIOGNAPG_01981;dRep_bin005_CNDFPKJG_01220;dRep_bin181_MKGPMPIA_00090;dRep_bin347_EKGCMFPD_01027	dRep_bin350_EKOOEEGH_00545;dRep_bin027_OFJCHLJJ_00315;dRep_bin335_JIOGNAPG_01981;dRep_bin005_CNDFPKJG_01220;dRep_bin181_MKGPMPIA_00090;dRep_bin347_EKGCMFPD_01027	>dRep_bin350_EKOOEEGH_00545 Enolase;>dRep_bin027_OFJCHLJJ_00315 Enolase;>dRep_bin335_JIOGNAPG_01981 Enolase;>dRep_bin005_CNDFPKJG_01220 Enolase;>dRep_bin181_MKGPMPIA_00090 Enolase;>dRep_bin347_EKGCMFPD_01027 Enolase	dRep_bin347_EKGCMFPD_01027	CDS	eno	4.2.1.11	Enolase
EKGCMFPD_01033			28.77903	29.416960000000003	27.236439999999998	27.457870000000003	26.988259999999997	26.782069999999997				3	1	5,5654E-46	dRep_bin005_CNDFPKJG_00512;dRep_bin135_HHKACLPM_00996;dRep_bin007_LNLEAAAN_00555;dRep_bin303_DDDNDJCF_00538;dRep_bin328_GIGKNKPJ_00724;dRep_bin308_JBPDGLPP_01472;dRep_bin292_JIBLDOOH_00033;dRep_bin278_BFCONKOE_00439;dRep_bin269_PNILGKPH_00427;dRep_bin179_HFEIPPPA_01854;dRep_bin133_NOBPDBPA_03738;dRep_bin127_FIPNHBCH_00184;dRep_bin065_DFABHCBI_01543;dRep_bin039_IJNOFOJK_00835;dRep_bin031_BNHMFOII_01289;dRep_bin024_OLHDGABE_00632;dRep_bin001_GHHJMDAL_01042;dRep_bin027_OFJCHLJJ_01571;dRep_bin134_HIAPAODO_00757;dRep_bin339_DBNBAHDK_00274;dRep_bin268_LKMHIMLG_00767;dRep_bin215_ABBFGCAF_00889;dRep_bin142_NDNPJBEM_01236;dRep_bin347_EKGCMFPD_01033;dRep_bin325_EIIGOGHN_00650;dRep_bin310_IMBAFDIF_01183;dRep_bin293_MEPKGOAN_00730;dRep_bin282_PKAAPBFP_00286;dRep_bin100_CODMOHGB_00949;dRep_bin091_MAFACGAD_00437;dRep_bin079_GAOGCKND_00310;dRep_bin323_FBBLPLCG_01106;dRep_bin322_OJELOJOF_01654;dRep_bin273_FGAEBHNP_01366;dRep_bin266_JFOCEDAE_01192;dRep_bin231_CFOLMJBA_00878;dRep_bin194_MEPDOGGJ_01303;dRep_bin182_EMCFODCD_01258;dRep_bin169_PNICKJKO_01164;dRep_bin158_OGFICEAP_00873;dRep_bin115_IFKGOGCL_01307;dRep_bin108_BPNCDINP_01062;dRep_bin087_FCLGAPPI_00927;dRep_bin056_EMNHHOJA_01448;dRep_bin047_IFFANOMN_00919;dRep_bin044_IPFKHAEF_00004;dRep_bin026_HNPIIINL_00567;dRep_bin025_CBEJJMLE_00162;dRep_bin336_MPGOKPOL_00656;dRep_bin277_MIPNGEJE_00938;dRep_bin257_JHFDCHCB_01267;dRep_bin172_ALNHGLMD_01450;dRep_bin166_DFIAJFEC_00114;dRep_bin147_EJLBNEBE_01610;dRep_bin105_AAEIHAFF_01928	dRep_bin005_CNDFPKJG_00512;dRep_bin135_HHKACLPM_00996;dRep_bin007_LNLEAAAN_00555;dRep_bin303_DDDNDJCF_00538;dRep_bin328_GIGKNKPJ_00724;dRep_bin308_JBPDGLPP_01472;dRep_bin292_JIBLDOOH_00033;dRep_bin278_BFCONKOE_00439;dRep_bin269_PNILGKPH_00427;dRep_bin179_HFEIPPPA_01854;dRep_bin133_NOBPDBPA_03738;dRep_bin127_FIPNHBCH_00184;dRep_bin065_DFABHCBI_01543;dRep_bin039_IJNOFOJK_00835;dRep_bin031_BNHMFOII_01289;dRep_bin024_OLHDGABE_00632;dRep_bin001_GHHJMDAL_01042;dRep_bin027_OFJCHLJJ_01571	>dRep_bin005_CNDFPKJG_00512 30S ribosomal protein S12;>dRep_bin135_HHKACLPM_00996 30S ribosomal protein S12;>dRep_bin007_LNLEAAAN_00555 30S ribosomal protein S12;>dRep_bin303_DDDNDJCF_00538 30S ribosomal protein S12;>dRep_bin328_GIGKNKPJ_00724 30S ribosoma	dRep_bin347_EKGCMFPD_01033	CDS	rpsL		30S ribosomal protein S12
EKGCMFPD_01037			23.64229	23.74684				24.48296				18	3	3,8972E-149	dRep_bin220_PILICLLL_02028;dRep_bin278_BFCONKOE_00441;dRep_bin081_JDPCKDNP_00377;dRep_bin322_OJELOJOF_00804;dRep_bin248_CCDFPECI_00079;dRep_bin106_BKDHGPBE_00283;dRep_bin144_NPHACCKF_01724;dRep_bin122_JHMJFODI_00608;dRep_bin141_GMCOOECB_01066;dRep_bin213_HHHELMFN_00712;dRep_bin109_MJABCPAK_00085;dRep_bin085_MBHLGCDB_01100;dRep_bin024_OLHDGABE_00645;dRep_bin127_FIPNHBCH_00373;dRep_bin318_IEDEJOFJ_00277;dRep_bin155_CLHNKEHA_00696;dRep_bin218_ACMPALGF_01353;dRep_bin119_AKFBCGDO_01001;dRep_bin146_LCCIBLJG_00301;dRep_bin354_MMOALAFN_01658;dRep_bin347_EKGCMFPD_01037;dRep_bin227_IJODGBOI_00749;dRep_bin132_FAPBDCMG_00320;dRep_bin313_CJFGINPI_00866;dRep_bin156_GFIMJAAC_00888;dRep_bin342_BMMENEMP_00958;dRep_bin280_IMCGLKKG_00439;dRep_bin197_NHLBHFEI_00889;dRep_bin281_OGHLKMAI_00400;dRep_bin276_EHNFLEBP_02113;dRep_bin104_EGLEJOLM_01406;dRep_bin207_OHNPDPFI_01068;dRep_bin121_BHOOLFKN_00245;dRep_bin008_MNDMJLEI_00892;dRep_bin054_NNOKONMC_00872;dRep_bin011_KOGMKLNO_00879;dRep_bin142_NDNPJBEM_01584;dRep_bin333_EFOKIBLA_00720;dRep_bin223_PIMCDKJI_01633;dRep_bin120_EKLBOPNC_00731;dRep_bin177_HLHGKLFL_00449;dRep_bin140_ACFAKGIL_00447;dRep_bin304_JDNJGFKH_00598;dRep_bin245_MBCFLKOF_00047;dRep_bin208_DHPGEIBC_00902;dRep_bin010_MFFFGEGD_00183;dRep_bin083_OCBADPJJ_01145;dRep_bin222_GGCAJABB_00479;dRep_bin205_LKIOOBKC_01169;dRep_bin320_LDBKCCKL_00573;dRep_bin162_JBGCCDIN_01242;dRep_bin159_ADJJGPBG_01729;dRep_bin033_DLABHNFE_00633;dRep_bin012_KEBBILMO_00315;dRep_bin350_EKOOEEGH_01215;dRep_bin121_BHOOLFKN_01088;dRep_bin212_IEMJENOD_00205;dRep_bin161_JMKPMHCO_00073;dRep_bin353_PPDHLNJB_01811;dRep_bin195_DDMDFNOK_01689;dRep_bin327_EPEGNBAG_00663;dRep_bin241_LMMMGDNI_01611;dRep_bin334_NAPFFNLD_00132	dRep_bin220_PILICLLL_02028	>dRep_bin220_PILICLLL_02028 DNA-directed RNA polymerase subunit beta	dRep_bin347_EKGCMFPD_01037	CDS	rpoB	2.7.7.6	DNA-directed RNA polymerase subunit beta
EKGCMFPD_01103					26.86136	26.749319999999997	26.92739	26.71516				3	0	5,3736E-34	dRep_bin347_EKGCMFPD_01103;dRep_bin081_JDPCKDNP_01236;dRep_bin176_DLEJNGKN_01638;dRep_bin003_GOBBLOGO_01252;dRep_bin109_MJABCPAK_00929;dRep_bin339_DBNBAHDK_00857;dRep_bin169_PNICKJKO_00809;dRep_bin321_EJNAAGJG_01011	dRep_bin347_EKGCMFPD_01103;dRep_bin081_JDPCKDNP_01236	>dRep_bin347_EKGCMFPD_01103 30S ribosomal protein S3;>dRep_bin081_JDPCKDNP_01236 30S ribosomal protein S3	dRep_bin347_EKGCMFPD_01103	CDS	rpsC		30S ribosomal protein S3
EKGCMFPD_01105		22.40091										2	2	4,8015E-09	dRep_bin260_HELEPKJL_01352;dRep_bin347_EKGCMFPD_01105;dRep_bin115_IFKGOGCL_00638;dRep_bin047_IFFANOMN_00241;dRep_bin328_GIGKNKPJ_01559;dRep_bin282_PKAAPBFP_00483;dRep_bin135_HHKACLPM_00478;dRep_bin089_PAJFOJBN_02080;dRep_bin027_OFJCHLJJ_00122;dRep_bin234_ECABPBME_00121;dRep_bin167_BLMEBMNN_01081;dRep_bin160_EFKMPBOM_01982;dRep_bin154_JGOKHKLI_00795;dRep_bin139_KGAJINND_01526;dRep_bin088_DNGPPFDK_00697;dRep_bin016_JLGAHGOJ_00433	dRep_bin260_HELEPKJL_01352;dRep_bin347_EKGCMFPD_01105;dRep_bin115_IFKGOGCL_00638;dRep_bin047_IFFANOMN_00241;dRep_bin328_GIGKNKPJ_01559;dRep_bin282_PKAAPBFP_00483;dRep_bin135_HHKACLPM_00478;dRep_bin089_PAJFOJBN_02080;dRep_bin027_OFJCHLJJ_00122;dRep_bin234_ECABPBME_00121;dRep_bin167_BLMEBMNN_01081;dRep_bin160_EFKMPBOM_01982;dRep_bin154_JGOKHKLI_00795;dRep_bin139_KGAJINND_01526;dRep_bin088_DNGPPFDK_00697;dRep_bin016_JLGAHGOJ_00433	>dRep_bin260_HELEPKJL_01352 50S ribosomal protein L29;>dRep_bin347_EKGCMFPD_01105 50S ribosomal protein L29;>dRep_bin115_IFKGOGCL_00638 50S ribosomal protein L29;>dRep_bin047_IFFANOMN_00241 50S ribosomal protein L29;>dRep_bin328_GIGKNKPJ_01559 50S ribosoma	dRep_bin347_EKGCMFPD_01105	CDS	rpmC		50S ribosomal protein L29
EKGCMFPD_01107	25.08416	24.93656	26.538800000000002	26.86915	25.985119999999995	24.62037	24.93517	24.65649				3	0	2,2235E-28	dRep_bin282_PKAAPBFP_00481;dRep_bin160_EFKMPBOM_01980;dRep_bin154_JGOKHKLI_00793;dRep_bin139_KGAJINND_01524;dRep_bin127_FIPNHBCH_00036;dRep_bin089_PAJFOJBN_02082;dRep_bin047_IFFANOMN_01724;dRep_bin347_EKGCMFPD_01107;dRep_bin308_JBPDGLPP_01114;dRep_bin266_JFOCEDAE_01005;dRep_bin328_GIGKNKPJ_01841;dRep_bin260_HELEPKJL_01354;dRep_bin216_JNJMCPHB_00018;dRep_bin186_HJAAFFNP_00342;dRep_bin167_BLMEBMNN_01083;dRep_bin115_IFKGOGCL_00636;dRep_bin065_DFABHCBI_01269;dRep_bin047_IFFANOMN_00239;dRep_bin290_OIOJKBNK_00632;dRep_bin256_KEMNAOBC_00187;dRep_bin128_JPBBHEMA_00218;dRep_bin110_JGOEJECF_00549;dRep_bin093_PGADNPMG_00791;dRep_bin355_KJEFNADK_00780;dRep_bin350_EKOOEEGH_00173;dRep_bin345_GLPJDLOI_00878;dRep_bin320_LDBKCCKL_00884;dRep_bin318_IEDEJOFJ_00796;dRep_bin315_AGEMOMDG_01119;dRep_bin306_FGHMKMMP_01710;dRep_bin304_JDNJGFKH_00632;dRep_bin283_NLJJFFAC_00211;dRep_bin267_LJCFMAFA_00484;dRep_bin265_LFKFBJPC_00850;dRep_bin258_DAMEHFEK_00123;dRep_bin247_EKGBJCBM_00038;dRep_bin230_NINMBMKB_00063;dRep_bin217_MJCEAEPB_00583;dRep_bin211_LGJEFJIK_01307;dRep_bin205_LKIOOBKC_00363;dRep_bin195_DDMDFNOK_01673;dRep_bin189_AHHEHGDL_00011;dRep_bin162_JBGCCDIN_01258;dRep_bin159_ADJJGPBG_01745;dRep_bin156_GFIMJAAC_00195;dRep_bin150_HCDEOBMH_00586;dRep_bin144_NPHACCKF_00096;dRep_bin135_HHKACLPM_00476;dRep_bin121_BHOOLFKN_00529;dRep_bin120_EKLBOPNC_00238;dRep_bin114_FJHJKHGL_00201;dRep_bin078_GKFCBAEI_00311;dRep_bin060_HNFNENOI_00556;dRep_bin027_OFJCHLJJ_00124;dRep_bin020_JCCELPIE_00086;dRep_bin014_CHIHIMAN_01506;dRep_bin006_HPJGJCAG_00037;dRep_bin001_GHHJMDAL_00906;dRep_bin049_MNFBDPNO_01392;dRep_bin330_CODAKHDJ_00376;dRep_bin242_LKAIBGGJ_00214;dRep_bin218_ACMPALGF_00060;dRep_bin106_BKDHGPBE_00670	dRep_bin282_PKAAPBFP_00481;dRep_bin160_EFKMPBOM_01980;dRep_bin154_JGOKHKLI_00793;dRep_bin139_KGAJINND_01524;dRep_bin127_FIPNHBCH_00036;dRep_bin089_PAJFOJBN_02082;dRep_bin047_IFFANOMN_01724;dRep_bin347_EKGCMFPD_01107;dRep_bin308_JBPDGLPP_01114;dRep_bin266_JFOCEDAE_01005;dRep_bin328_GIGKNKPJ_01841;dRep_bin260_HELEPKJL_01354;dRep_bin216_JNJMCPHB_00018;dRep_bin186_HJAAFFNP_00342;dRep_bin167_BLMEBMNN_01083;dRep_bin115_IFKGOGCL_00636;dRep_bin065_DFABHCBI_01269;dRep_bin047_IFFANOMN_00239	>dRep_bin282_PKAAPBFP_00481 50S ribosomal protein L14;>dRep_bin160_EFKMPBOM_01980 50S ribosomal protein L14;>dRep_bin154_JGOKHKLI_00793 50S ribosomal protein L14;>dRep_bin139_KGAJINND_01524 50S ribosomal protein L14;>dRep_bin127_FIPNHBCH_00036 50S ribosoma	dRep_bin347_EKGCMFPD_01107	CDS	rplN		50S ribosomal protein L14
EKGCMFPD_01109	25.431729999999998	25.53528	26.810660000000002	26.399990000000003								3	1	7,4747E-07	dRep_bin266_JFOCEDAE_01003;dRep_bin047_IFFANOMN_01722;dRep_bin328_GIGKNKPJ_01839;dRep_bin328_GIGKNKPJ_01335;dRep_bin005_CNDFPKJG_00749;dRep_bin260_HELEPKJL_01356;dRep_bin089_PAJFOJBN_02084;dRep_bin088_DNGPPFDK_00701;dRep_bin001_GHHJMDAL_00904;dRep_bin211_LGJEFJIK_01532;dRep_bin186_HJAAFFNP_00344;dRep_bin065_DFABHCBI_01267;dRep_bin211_LGJEFJIK_01305;dRep_bin347_EKGCMFPD_01109;dRep_bin308_JBPDGLPP_01116;dRep_bin282_PKAAPBFP_00479;dRep_bin167_BLMEBMNN_01085;dRep_bin160_EFKMPBOM_01978;dRep_bin154_JGOKHKLI_00791;dRep_bin127_FIPNHBCH_00038;dRep_bin095_HOBNOEEF_01777	dRep_bin266_JFOCEDAE_01003;dRep_bin047_IFFANOMN_01722;dRep_bin328_GIGKNKPJ_01839;dRep_bin328_GIGKNKPJ_01335;dRep_bin005_CNDFPKJG_00749;dRep_bin260_HELEPKJL_01356;dRep_bin089_PAJFOJBN_02084;dRep_bin088_DNGPPFDK_00701;dRep_bin001_GHHJMDAL_00904;dRep_bin211_LGJEFJIK_01532;dRep_bin186_HJAAFFNP_00344;dRep_bin065_DFABHCBI_01267;dRep_bin211_LGJEFJIK_01305	>dRep_bin266_JFOCEDAE_01003 50S ribosomal protein L5;>dRep_bin047_IFFANOMN_01722 50S ribosomal protein L5;>dRep_bin328_GIGKNKPJ_01839 50S ribosomal protein L5;>dRep_bin328_GIGKNKPJ_01335 50S ribosomal protein L5;>dRep_bin005_CNDFPKJG_00749 50S ribosomal pr	dRep_bin347_EKGCMFPD_01109	CDS	rplE		50S ribosomal protein L5
EKGCMFPD_01116					24.7103	25.71311		24.8075				2	2	3,0574E-05	dRep_bin041_OPKGAAAG_02321;dRep_bin134_HIAPAODO_01003;dRep_bin062_BOFBFLDA_01153;dRep_bin160_EFKMPBOM_01972;dRep_bin154_JGOKHKLI_00784;dRep_bin347_EKGCMFPD_01116;dRep_bin328_GIGKNKPJ_01328;dRep_bin322_OJELOJOF_01348;dRep_bin300_MJPPENNL_01858;dRep_bin292_JIBLDOOH_01271;dRep_bin284_DEHKNOBF_01490;dRep_bin282_PKAAPBFP_00472;dRep_bin279_IAEFEPEN_01298;dRep_bin269_PNILGKPH_02195;dRep_bin266_JFOCEDAE_00996;dRep_bin254_GJDPFAEA_01481;dRep_bin226_NLNLHLLD_00043;dRep_bin218_ACMPALGF_01304;dRep_bin211_LGJEFJIK_00685;dRep_bin186_HJAAFFNP_00351;dRep_bin145_KMJJJOEJ_01530;dRep_bin145_KMJJJOEJ_00739;dRep_bin139_KGAJINND_00952;dRep_bin133_NOBPDBPA_05091;dRep_bin088_DNGPPFDK_00708;dRep_bin081_JDPCKDNP_01249;dRep_bin065_DFABHCBI_01260;dRep_bin047_IFFANOMN_00230;dRep_bin001_GHHJMDAL_00720;dRep_bin240_LDBBGJKG_00585;dRep_bin335_JIOGNAPG_00127	dRep_bin041_OPKGAAAG_02321;dRep_bin134_HIAPAODO_01003;dRep_bin062_BOFBFLDA_01153;dRep_bin160_EFKMPBOM_01972;dRep_bin154_JGOKHKLI_00784;dRep_bin347_EKGCMFPD_01116;dRep_bin328_GIGKNKPJ_01328;dRep_bin322_OJELOJOF_01348;dRep_bin300_MJPPENNL_01858;dRep_bin292_JIBLDOOH_01271;dRep_bin284_DEHKNOBF_01490;dRep_bin282_PKAAPBFP_00472;dRep_bin279_IAEFEPEN_01298;dRep_bin269_PNILGKPH_02195;dRep_bin266_JFOCEDAE_00996;dRep_bin254_GJDPFAEA_01481;dRep_bin226_NLNLHLLD_00043;dRep_bin218_ACMPALGF_01304;dRep_bin211_LGJEFJIK_00685;dRep_bin186_HJAAFFNP_00351;dRep_bin145_KMJJJOEJ_01530;dRep_bin145_KMJJJOEJ_00739;dRep_bin139_KGAJINND_00952;dRep_bin133_NOBPDBPA_05091;dRep_bin088_DNGPPFDK_00708;dRep_bin081_JDPCKDNP_01249;dRep_bin065_DFABHCBI_01260;dRep_bin047_IFFANOMN_00230;dRep_bin001_GHHJMDAL_00720;dRep_bin240_LDBBGJKG_00585;dRep_bin335_JIOGNAPG_00127	>dRep_bin041_OPKGAAAG_02321 50S ribosomal protein L15;>dRep_bin134_HIAPAODO_01003 50S ribosomal protein L15;>dRep_bin062_BOFBFLDA_01153 50S ribosomal protein L15;>dRep_bin160_EFKMPBOM_01972 50S ribosomal protein L15;>dRep_bin154_JGOKHKLI_00784 50S ribosoma	dRep_bin347_EKGCMFPD_01116	CDS	rplO		50S ribosomal protein L15
EKGCMFPD_01125	24.414550000000002	27.55903		25.04806								5	1	6,8153E-96	dRep_bin347_EKGCMFPD_01125	dRep_bin347_EKGCMFPD_01125	>dRep_bin347_EKGCMFPD_01125 Formate acetyltransferase	dRep_bin347_EKGCMFPD_01125	CDS	pflB	2.3.1.54	Formate acetyltransferase
EKGCMFPD_01151					25.49625							2	2	1,1538E-06	dRep_bin226_NLNLHLLD_00532;dRep_bin209_NKIHFCEN_00151;dRep_bin157_JPNIKEKI_01700;dRep_bin041_OPKGAAAG_00804;dRep_bin347_EKGCMFPD_01151;dRep_bin234_ECABPBME_02204;dRep_bin335_JIOGNAPG_00452;dRep_bin344_CJJBDGAA_01159;dRep_bin248_CCDFPECI_01755;dRep_bin243_JDMELKLC_00417;dRep_bin145_KMJJJOEJ_01171;dRep_bin139_KGAJINND_01314;dRep_bin016_JLGAHGOJ_00639;dRep_bin143_PFLDJMPF_01247;dRep_bin160_EFKMPBOM_02408;dRep_bin293_MEPKGOAN_00830;dRep_bin154_JGOKHKLI_00581;dRep_bin325_EIIGOGHN_00042;dRep_bin292_JIBLDOOH_01154;dRep_bin203_CLFNNOCF_00015;dRep_bin179_HFEIPPPA_01953;dRep_bin133_NOBPDBPA_02967;dRep_bin319_PBDBJGCJ_00929;dRep_bin260_HELEPKJL_00646;dRep_bin282_PKAAPBFP_00876	dRep_bin226_NLNLHLLD_00532;dRep_bin209_NKIHFCEN_00151;dRep_bin157_JPNIKEKI_01700;dRep_bin041_OPKGAAAG_00804;dRep_bin347_EKGCMFPD_01151;dRep_bin234_ECABPBME_02204;dRep_bin335_JIOGNAPG_00452;dRep_bin344_CJJBDGAA_01159;dRep_bin248_CCDFPECI_01755;dRep_bin243_JDMELKLC_00417;dRep_bin145_KMJJJOEJ_01171;dRep_bin139_KGAJINND_01314;dRep_bin016_JLGAHGOJ_00639;dRep_bin143_PFLDJMPF_01247;dRep_bin160_EFKMPBOM_02408;dRep_bin293_MEPKGOAN_00830;dRep_bin154_JGOKHKLI_00581;dRep_bin325_EIIGOGHN_00042;dRep_bin292_JIBLDOOH_01154;dRep_bin203_CLFNNOCF_00015;dRep_bin179_HFEIPPPA_01953;dRep_bin133_NOBPDBPA_02967;dRep_bin319_PBDBJGCJ_00929;dRep_bin260_HELEPKJL_00646;dRep_bin282_PKAAPBFP_00876	>dRep_bin226_NLNLHLLD_00532 Ferredoxin-dependent glutamate synthase 1;>dRep_bin209_NKIHFCEN_00151 Ferredoxin-dependent glutamate synthase 1;>dRep_bin157_JPNIKEKI_01700 Ferredoxin-dependent glutamate synthase 1;>dRep_bin041_OPKGAAAG_00804 Ferredoxin-depende	dRep_bin347_EKGCMFPD_01151	CDS	gltB_1	1.4.7.1	Ferredoxin-dependent glutamate synthase 1
EKGCMFPD_01183	26.37744	25.97399	26.81323	26.86124	27.34866	27.342399999999998	27.334750000000003	27.569499999999998				5	1	5,0378E-27	dRep_bin143_PFLDJMPF_00290;dRep_bin293_MEPKGOAN_01524;dRep_bin347_EKGCMFPD_01183;dRep_bin201_OLKDIBOK_00232;dRep_bin031_BNHMFOII_00394;dRep_bin344_CJJBDGAA_02115;dRep_bin303_DDDNDJCF_01571;dRep_bin027_OFJCHLJJ_00404;dRep_bin339_DBNBAHDK_00300;dRep_bin049_MNFBDPNO_01583;dRep_bin350_EKOOEEGH_01042;dRep_bin277_MIPNGEJE_00279;dRep_bin309_BIOHLCGG_01215;dRep_bin247_EKGBJCBM_01321;dRep_bin115_IFKGOGCL_01117;dRep_bin056_EMNHHOJA_00506;dRep_bin048_PABMBHAL_01302;dRep_bin253_CPMOAOBJ_00269;dRep_bin335_JIOGNAPG_01506;dRep_bin310_IMBAFDIF_00163;dRep_bin139_KGAJINND_00868;dRep_bin019_MOJEPLJF_01034;dRep_bin005_CNDFPKJG_00855;dRep_bin144_NPHACCKF_00198;dRep_bin094_LBLICAAO_01300;dRep_bin278_BFCONKOE_00967	dRep_bin143_PFLDJMPF_00290;dRep_bin293_MEPKGOAN_01524;dRep_bin347_EKGCMFPD_01183;dRep_bin201_OLKDIBOK_00232;dRep_bin031_BNHMFOII_00394;dRep_bin344_CJJBDGAA_02115;dRep_bin303_DDDNDJCF_01571;dRep_bin027_OFJCHLJJ_00404;dRep_bin339_DBNBAHDK_00300;dRep_bin049_MNFBDPNO_01583	>dRep_bin143_PFLDJMPF_00290 Serine--tRNA ligase;>dRep_bin293_MEPKGOAN_01524 Serine--tRNA ligase;>dRep_bin347_EKGCMFPD_01183 Serine--tRNA ligase;>dRep_bin201_OLKDIBOK_00232 Serine--tRNA ligase;>dRep_bin031_BNHMFOII_00394 Serine--tRNA ligase;>dRep_bin344_CJJ	dRep_bin347_EKGCMFPD_01183	CDS	serS	6.1.1.11	Serine--tRNA ligase
EKGCMFPD_01209	29.24715	28.64375	30.52608	26.95505	29.76626	26.59847	27.253860000000003	27.63623				5	3	0	dRep_bin347_EKGCMFPD_01209	dRep_bin347_EKGCMFPD_01209	>dRep_bin347_EKGCMFPD_01209 Flagellin	dRep_bin347_EKGCMFPD_01209	CDS	hag_2		Flagellin
EKGCMFPD_01249	28.269099999999998	27.321050000000003	27.52313	27.43349	29.555850000000003	28.4649	29.5133	30.816810000000004				23	9	0	dRep_bin139_KGAJINND_01821;dRep_bin215_ABBFGCAF_00253;dRep_bin042_MMFCLHOO_00160;dRep_bin283_NLJJFFAC_00705;dRep_bin160_EFKMPBOM_00712;dRep_bin154_JGOKHKLI_01926;dRep_bin087_FCLGAPPI_00028;dRep_bin046_GKEJLOEK_00646;dRep_bin308_JBPDGLPP_01510;dRep_bin226_NLNLHLLD_01292;dRep_bin203_CLFNNOCF_00196;dRep_bin169_PNICKJKO_01458;dRep_bin167_BLMEBMNN_02003;dRep_bin144_NPHACCKF_00207;dRep_bin127_FIPNHBCH_01156;dRep_bin101_BNDDLDCL_00920;dRep_bin091_MAFACGAD_00174;dRep_bin089_PAJFOJBN_01094;dRep_bin055_IBMMJAEE_01006;dRep_bin024_OLHDGABE_00811;dRep_bin017_FGFLFOPJ_01094;dRep_bin005_CNDFPKJG_00650;dRep_bin282_PKAAPBFP_01434;dRep_bin347_EKGCMFPD_01249;dRep_bin250_NMCAMJIO_00216;dRep_bin257_JHFDCHCB_02386;dRep_bin186_HJAAFFNP_01166;dRep_bin123_PJKBFKBB_01198	dRep_bin139_KGAJINND_01821	>dRep_bin139_KGAJINND_01821 Formate--tetrahydrofolate ligase	dRep_bin347_EKGCMFPD_01249	CDS	fhs	6.3.4.3	Formate--tetrahydrofolate ligase
EKGCMFPD_01363	26.25981	25.434060000000002	27.37327	27.34019	27.09235	24.631450000000005	25.781739999999996	27.179880000000004				4	2	3,5437E-22	dRep_bin201_OLKDIBOK_00037;dRep_bin005_CNDFPKJG_01090;dRep_bin203_CLFNNOCF_02313;dRep_bin322_OJELOJOF_00841;dRep_bin306_FGHMKMMP_01100;dRep_bin234_ECABPBME_01436;dRep_bin075_EPEMMOCL_00907;dRep_bin007_LNLEAAAN_00325;dRep_bin347_EKGCMFPD_01363;dRep_bin332_KAOPCDPF_00417;dRep_bin324_IPNHOHFK_00831;dRep_bin284_DEHKNOBF_01533;dRep_bin179_HFEIPPPA_02161;dRep_bin001_GHHJMDAL_00495;dRep_bin211_LGJEFJIK_01061	dRep_bin201_OLKDIBOK_00037;dRep_bin005_CNDFPKJG_01090;dRep_bin203_CLFNNOCF_02313;dRep_bin322_OJELOJOF_00841	>dRep_bin201_OLKDIBOK_00037 50S ribosomal protein L11;>dRep_bin005_CNDFPKJG_01090 50S ribosomal protein L11;>dRep_bin203_CLFNNOCF_02313 50S ribosomal protein L11;>dRep_bin322_OJELOJOF_00841 50S ribosomal protein L11	dRep_bin347_EKGCMFPD_01363	CDS	rplK		50S ribosomal protein L11
EKGCMFPD_01393	27.22656	25.469639999999995	27.139560000000003	26.76989								3	0	2,5341E-17	dRep_bin074_EHAOMODJ_00357;dRep_bin335_JIOGNAPG_00060;dRep_bin234_ECABPBME_00543;dRep_bin185_OOOLKACK_00415;dRep_bin095_HOBNOEEF_01010;dRep_bin194_MEPDOGGJ_00068;dRep_bin025_CBEJJMLE_00034;dRep_bin282_PKAAPBFP_01136;dRep_bin260_HELEPKJL_01581;dRep_bin135_HHKACLPM_00020;dRep_bin047_IFFANOMN_01119;dRep_bin049_MNFBDPNO_00067;dRep_bin268_LKMHIMLG_00651;dRep_bin303_DDDNDJCF_00095;dRep_bin248_CCDFPECI_00722;dRep_bin243_JDMELKLC_00605;dRep_bin340_OFLHNGJM_00522;dRep_bin109_MJABCPAK_00884;dRep_bin087_FCLGAPPI_00696;dRep_bin160_EFKMPBOM_01056;dRep_bin154_JGOKHKLI_00096;dRep_bin354_MMOALAFN_01723;dRep_bin349_AMCJEEEG_01213;dRep_bin116_CLFDBMOF_00907;dRep_bin347_EKGCMFPD_01393;dRep_bin001_GHHJMDAL_01273;dRep_bin247_EKGBJCBM_00529;dRep_bin254_GJDPFAEA_00457;dRep_bin145_KMJJJOEJ_01456;dRep_bin322_OJELOJOF_01191;dRep_bin336_MPGOKPOL_00223;dRep_bin147_EJLBNEBE_01602;dRep_bin134_HIAPAODO_02129;dRep_bin062_BOFBFLDA_00221;dRep_bin332_KAOPCDPF_00824;dRep_bin253_CPMOAOBJ_01534;dRep_bin114_FJHJKHGL_01331;dRep_bin352_KFNHGNFC_00409;dRep_bin192_GCMBELNN_00663;dRep_bin187_CLPDGDBG_00783	dRep_bin074_EHAOMODJ_00357;dRep_bin335_JIOGNAPG_00060;dRep_bin234_ECABPBME_00543;dRep_bin185_OOOLKACK_00415;dRep_bin095_HOBNOEEF_01010;dRep_bin194_MEPDOGGJ_00068;dRep_bin025_CBEJJMLE_00034;dRep_bin282_PKAAPBFP_01136;dRep_bin260_HELEPKJL_01581;dRep_bin135_HHKACLPM_00020;dRep_bin047_IFFANOMN_01119;dRep_bin049_MNFBDPNO_00067;dRep_bin268_LKMHIMLG_00651;dRep_bin303_DDDNDJCF_00095;dRep_bin248_CCDFPECI_00722;dRep_bin243_JDMELKLC_00605;dRep_bin340_OFLHNGJM_00522;dRep_bin109_MJABCPAK_00884;dRep_bin087_FCLGAPPI_00696;dRep_bin160_EFKMPBOM_01056;dRep_bin154_JGOKHKLI_00096;dRep_bin354_MMOALAFN_01723	>dRep_bin074_EHAOMODJ_00357 Glutamate synthase [NADPH] small chain;>dRep_bin335_JIOGNAPG_00060 Glutamate synthase [NADPH] small chain;>dRep_bin234_ECABPBME_00543 Glutamate synthase [NADPH] small chain;>dRep_bin185_OOOLKACK_00415 Glutamate synthase [NADPH]	dRep_bin347_EKGCMFPD_01393	CDS	gltD_2	1.4.1.13	Glutamate synthase [NADPH] small chain
EKGCMFPD_01400	31.69062	31.497960000000003	31.258499999999998	30.57867	30.338729999999998	30.18754	31.41518	31.29647				16	13	0	dRep_bin225_FLBKEJIP_00638;dRep_bin193_GDMDPNNM_00391;dRep_bin104_EGLEJOLM_00429;dRep_bin267_LJCFMAFA_01104;dRep_bin128_JPBBHEMA_00063;dRep_bin322_OJELOJOF_01579;dRep_bin220_PILICLLL_00965;dRep_bin237_KJDLIPND_01288;dRep_bin273_FGAEBHNP_00090;dRep_bin350_EKOOEEGH_00878;dRep_bin341_NBEGOKEF_01245;dRep_bin230_NINMBMKB_00865;dRep_bin355_KJEFNADK_01484;dRep_bin306_FGHMKMMP_01597;dRep_bin291_EILOACJB_00178;dRep_bin276_EHNFLEBP_00863;dRep_bin107_EFNBPDOP_00094;dRep_bin077_DNNBMPMC_01312;dRep_bin324_IPNHOHFK_02120;dRep_bin308_JBPDGLPP_01844;dRep_bin089_PAJFOJBN_01453;dRep_bin031_BNHMFOII_01699;dRep_bin007_LNLEAAAN_01377;dRep_bin179_HFEIPPPA_01144;dRep_bin347_EKGCMFPD_01400;dRep_bin226_NLNLHLLD_00768;dRep_bin056_EMNHHOJA_00523;dRep_bin026_HNPIIINL_01583;dRep_bin020_JCCELPIE_01111;dRep_bin345_GLPJDLOI_00559;dRep_bin343_JCMCKBGF_01283;dRep_bin333_EFOKIBLA_00575;dRep_bin323_FBBLPLCG_00787;dRep_bin274_DBJHKLDG_00045;dRep_bin195_DDMDFNOK_00591;dRep_bin078_GKFCBAEI_00992;dRep_bin008_MNDMJLEI_01069;dRep_bin316_FNLHDNEO_00739;dRep_bin092_OOJCPDEA_01821;dRep_bin074_EHAOMODJ_00660;dRep_bin256_KEMNAOBC_00450;dRep_bin123_PJKBFKBB_01350;dRep_bin110_JGOEJECF_00180;dRep_bin101_BNDDLDCL_01841;dRep_bin071_JHMCIJPE_01380;dRep_bin040_EIFLLDOA_01745;dRep_bin032_PPNIGLME_01067;dRep_bin014_CHIHIMAN_00063;dRep_bin321_EJNAAGJG_00005;dRep_bin290_OIOJKBNK_00982;dRep_bin229_FFOBPPJI_01385;dRep_bin124_HIHDFGCL_00127;dRep_bin028_GKEJLBAM_01146;dRep_bin351_CKFFBPHM_00748;dRep_bin296_FDMPKPOH_01066;dRep_bin257_JHFDCHCB_01960;dRep_bin194_MEPDOGGJ_00157;dRep_bin191_NGFJMLOL_00394;dRep_bin136_NAIECEIF_01100;dRep_bin118_FGIOKLBC_00461;dRep_bin025_CBEJJMLE_00124;dRep_bin293_MEPKGOAN_00978;dRep_bin210_AGEDAEIA_00638;dRep_bin314_KCHFPLIP_00446;dRep_bin165_HMDFFMMM_00776;dRep_bin353_PPDHLNJB_00892;dRep_bin018_ILOONPIC_00585;dRep_bin060_HNFNENOI_01252;dRep_bin217_MJCEAEPB_01380	dRep_bin225_FLBKEJIP_00638	>dRep_bin225_FLBKEJIP_00638 Inosine-5-monophosphate dehydrogenase	dRep_bin347_EKGCMFPD_01400	CDS	guaB	1.1.1.205	Inosine-5'-monophosphate dehydrogenase
EKGCMFPD_01411	25.71667	26.639200000000002	25.68584	25.86417								4	3	1,1473E-08	dRep_bin160_EFKMPBOM_01052;dRep_bin347_EKGCMFPD_01411;dRep_bin154_JGOKHKLI_00092;dRep_bin065_DFABHCBI_00960;dRep_bin043_KLAFNACO_00446;dRep_bin297_EDHEEICA_01026	dRep_bin160_EFKMPBOM_01052;dRep_bin347_EKGCMFPD_01411;dRep_bin154_JGOKHKLI_00092	>dRep_bin160_EFKMPBOM_01052 Putative KHG/KDPG aldolase;>dRep_bin347_EKGCMFPD_01411 Putative KHG/KDPG aldolase;>dRep_bin154_JGOKHKLI_00092 Putative KHG/KDPG aldolase	dRep_bin347_EKGCMFPD_01411	CDS	eda_2		Putative KHG/KDPG aldolase
EKGCMFPD_01412	25.27153	26.70636	25.16454	25.252589999999998								2	2	2,0876E-05	dRep_bin300_MJPPENNL_01704;dRep_bin300_MJPPENNL_01252;dRep_bin203_CLFNNOCF_00791;dRep_bin260_HELEPKJL_01877;dRep_bin134_HIAPAODO_01500;dRep_bin328_GIGKNKPJ_01849;dRep_bin249_OFIIEIDJ_01438;dRep_bin160_EFKMPBOM_00895;dRep_bin145_KMJJJOEJ_01164;dRep_bin065_DFABHCBI_00956;dRep_bin055_IBMMJAEE_00337;dRep_bin154_JGOKHKLI_01528;dRep_bin347_EKGCMFPD_01412	dRep_bin300_MJPPENNL_01704;dRep_bin300_MJPPENNL_01252;dRep_bin203_CLFNNOCF_00791;dRep_bin260_HELEPKJL_01877;dRep_bin134_HIAPAODO_01500;dRep_bin328_GIGKNKPJ_01849;dRep_bin249_OFIIEIDJ_01438;dRep_bin160_EFKMPBOM_00895;dRep_bin145_KMJJJOEJ_01164;dRep_bin065_DFABHCBI_00956;dRep_bin055_IBMMJAEE_00337;dRep_bin154_JGOKHKLI_01528;dRep_bin347_EKGCMFPD_01412	>dRep_bin300_MJPPENNL_01704 5-dehydro-2-deoxygluconokinase;>dRep_bin300_MJPPENNL_01252 5-dehydro-2-deoxygluconokinase;>dRep_bin203_CLFNNOCF_00791 5-dehydro-2-deoxygluconokinase;>dRep_bin260_HELEPKJL_01877 5-dehydro-2-deoxygluconokinase;>dRep_bin134_HIAPAOD	dRep_bin347_EKGCMFPD_01412	CDS	iolC	2.7.1.92	5-dehydro-2-deoxygluconokinase
EKGCMFPD_01440			24.226699999999997									7	1	1,9574E-70	dRep_bin347_EKGCMFPD_01440	dRep_bin347_EKGCMFPD_01440	>dRep_bin347_EKGCMFPD_01440 Glyceraldehyde-3-phosphate dehydrogenase	dRep_bin347_EKGCMFPD_01440	CDS	gap	1.2.1.12	Glyceraldehyde-3-phosphate dehydrogenase
EKGCMFPD_01441				25.503850000000003								6	2	1,1202E-80	dRep_bin347_EKGCMFPD_01441;dRep_bin284_DEHKNOBF_01030	dRep_bin347_EKGCMFPD_01441	>dRep_bin347_EKGCMFPD_01441 Phosphoglycerate kinase	dRep_bin347_EKGCMFPD_01441	CDS	pgk	2.7.2.3	Phosphoglycerate kinase
EKGCMFPD_01443		21.61962										4	1	2,8514E-10	dRep_bin347_EKGCMFPD_01443;dRep_bin001_GHHJMDAL_00633	dRep_bin347_EKGCMFPD_01443;dRep_bin001_GHHJMDAL_00633	>dRep_bin347_EKGCMFPD_01443 Maltodextrin phosphorylase;>dRep_bin001_GHHJMDAL_00633 Maltodextrin phosphorylase	dRep_bin347_EKGCMFPD_01443	CDS	malP	2.4.1.1	Maltodextrin phosphorylase
EKGCMFPD_01449						20.86378						1	1	0,00011498	dRep_bin347_EKGCMFPD_01449	dRep_bin347_EKGCMFPD_01449	>dRep_bin347_EKGCMFPD_01449 Aldehyde-alcohol dehydrogenase	dRep_bin347_EKGCMFPD_01449	CDS	adhE		Aldehyde-alcohol dehydrogenase
EKGCMFPD_01457			25.494239999999998	23.728579999999997	24.27902	23.62656	24.484439999999996	24.347260000000002				5	0	3,3568E-13	dRep_bin139_KGAJINND_01684;dRep_bin001_GHHJMDAL_00951;dRep_bin347_EKGCMFPD_01457;dRep_bin308_JBPDGLPP_01901;dRep_bin031_BNHMFOII_01110;dRep_bin181_MKGPMPIA_00426;dRep_bin335_JIOGNAPG_01505;dRep_bin288_KOIAAABN_00041;dRep_bin263_OLEFOGIJ_00542	dRep_bin139_KGAJINND_01684;dRep_bin001_GHHJMDAL_00951;dRep_bin347_EKGCMFPD_01457	>dRep_bin139_KGAJINND_01684 Aspartate--tRNA ligase;>dRep_bin001_GHHJMDAL_00951 Aspartate--tRNA ligase;>dRep_bin347_EKGCMFPD_01457 Aspartate--tRNA ligase	dRep_bin347_EKGCMFPD_01457	CDS	aspS_2	6.1.1.12	Aspartate--tRNA ligase
EKGCMFPD_01461								23.62778				4	1	3,6641E-10	dRep_bin139_KGAJINND_00546;dRep_bin344_CJJBDGAA_00504;dRep_bin269_PNILGKPH_01782;dRep_bin186_HJAAFFNP_01230;dRep_bin160_EFKMPBOM_02028;dRep_bin154_JGOKHKLI_01570;dRep_bin027_OFJCHLJJ_01704;dRep_bin019_MOJEPLJF_00393;dRep_bin095_HOBNOEEF_01900;dRep_bin007_LNLEAAAN_01664;dRep_bin134_HIAPAODO_02032;dRep_bin220_PILICLLL_00626;dRep_bin201_OLKDIBOK_01146;dRep_bin158_OGFICEAP_00831;dRep_bin261_FJICAFFM_00403;dRep_bin347_EKGCMFPD_01461;dRep_bin328_GIGKNKPJ_00617;dRep_bin308_JBPDGLPP_01735;dRep_bin284_DEHKNOBF_00839;dRep_bin254_GJDPFAEA_01844;dRep_bin127_FIPNHBCH_00020;dRep_bin081_JDPCKDNP_00351;dRep_bin065_DFABHCBI_01741;dRep_bin001_GHHJMDAL_00049;dRep_bin335_JIOGNAPG_00092;dRep_bin282_PKAAPBFP_00201;dRep_bin260_HELEPKJL_01120;dRep_bin039_IJNOFOJK_00928;dRep_bin088_DNGPPFDK_00468;dRep_bin248_CCDFPECI_00111;dRep_bin107_EFNBPDOP_01463;dRep_bin077_DNNBMPMC_00533;dRep_bin300_MJPPENNL_00852;dRep_bin279_IAEFEPEN_01391;dRep_bin145_KMJJJOEJ_01298;dRep_bin062_BOFBFLDA_00998;dRep_bin016_JLGAHGOJ_00540;dRep_bin310_IMBAFDIF_00139;dRep_bin115_IFKGOGCL_00786;dRep_bin158_OGFICEAP_00832;dRep_bin066_AJACLPEE_00773;dRep_bin249_OFIIEIDJ_01720;dRep_bin324_IPNHOHFK_00378;dRep_bin287_DONBGKDH_00056;dRep_bin186_HJAAFFNP_01363;dRep_bin181_MKGPMPIA_00052;dRep_bin319_PBDBJGCJ_00396;dRep_bin278_BFCONKOE_00395;dRep_bin024_OLHDGABE_00254;dRep_bin135_HHKACLPM_01039	dRep_bin139_KGAJINND_00546;dRep_bin344_CJJBDGAA_00504;dRep_bin269_PNILGKPH_01782;dRep_bin186_HJAAFFNP_01230;dRep_bin160_EFKMPBOM_02028;dRep_bin154_JGOKHKLI_01570;dRep_bin027_OFJCHLJJ_01704;dRep_bin019_MOJEPLJF_00393;dRep_bin095_HOBNOEEF_01900;dRep_bin007_LNLEAAAN_01664;dRep_bin134_HIAPAODO_02032;dRep_bin220_PILICLLL_00626;dRep_bin201_OLKDIBOK_01146;dRep_bin158_OGFICEAP_00831;dRep_bin261_FJICAFFM_00403;dRep_bin347_EKGCMFPD_01461;dRep_bin328_GIGKNKPJ_00617;dRep_bin308_JBPDGLPP_01735;dRep_bin284_DEHKNOBF_00839;dRep_bin254_GJDPFAEA_01844;dRep_bin127_FIPNHBCH_00020;dRep_bin081_JDPCKDNP_00351;dRep_bin065_DFABHCBI_01741;dRep_bin001_GHHJMDAL_00049;dRep_bin335_JIOGNAPG_00092;dRep_bin282_PKAAPBFP_00201;dRep_bin260_HELEPKJL_01120;dRep_bin039_IJNOFOJK_00928;dRep_bin088_DNGPPFDK_00468;dRep_bin248_CCDFPECI_00111;dRep_bin107_EFNBPDOP_01463;dRep_bin077_DNNBMPMC_00533;dRep_bin300_MJPPENNL_00852;dRep_bin279_IAEFEPEN_01391;dRep_bin145_KMJJJOEJ_01298;dRep_bin062_BOFBFLDA_00998;dRep_bin016_JLGAHGOJ_00540;dRep_bin310_IMBAFDIF_00139	>dRep_bin139_KGAJINND_00546 ATP-dependent 6-phosphofructokinase;>dRep_bin344_CJJBDGAA_00504 ATP-dependent 6-phosphofructokinase;>dRep_bin269_PNILGKPH_01782 ATP-dependent 6-phosphofructokinase;>dRep_bin186_HJAAFFNP_01230 ATP-dependent 6-phosphofructokinase;	dRep_bin347_EKGCMFPD_01461	CDS	pfkA	2.7.1.11	ATP-dependent 6-phosphofructokinase
EKGCMFPD_01503	25.00868	25.29957		24.659650000000003	25.446759999999998	25.745579999999997		24.425019999999996				4	3	4,4545E-15	dRep_bin021_AJDDCGJC_01785;dRep_bin250_NMCAMJIO_01385;dRep_bin328_GIGKNKPJ_00241;dRep_bin282_PKAAPBFP_01339;dRep_bin234_ECABPBME_00488;dRep_bin001_GHHJMDAL_00402;dRep_bin347_EKGCMFPD_01503;dRep_bin069_EGGEOGDC_01255;dRep_bin127_FIPNHBCH_00606	dRep_bin021_AJDDCGJC_01785	>dRep_bin021_AJDDCGJC_01785 4-hydroxy-tetrahydrodipicolinate synthase	dRep_bin347_EKGCMFPD_01503	CDS	dapA	4.3.3.7	4-hydroxy-tetrahydrodipicolinate synthase
EKGCMFPD_01504					25.06357							5	1	3,6059E-73	dRep_bin203_CLFNNOCF_01682;dRep_bin347_EKGCMFPD_01504;dRep_bin284_DEHKNOBF_01057;dRep_bin260_HELEPKJL_00015;dRep_bin310_IMBAFDIF_00287;dRep_bin134_HIAPAODO_00846;dRep_bin062_BOFBFLDA_01435;dRep_bin300_MJPPENNL_01196;dRep_bin201_OLKDIBOK_02047;dRep_bin105_AAEIHAFF_01478;dRep_bin100_CODMOHGB_01221;dRep_bin088_DNGPPFDK_00866;dRep_bin277_MIPNGEJE_00690;dRep_bin166_DFIAJFEC_00146;dRep_bin161_JMKPMHCO_01114;dRep_bin059_OOBKFNPP_00125;dRep_bin046_GKEJLOEK_01062;dRep_bin091_MAFACGAD_00248;dRep_bin017_FGFLFOPJ_00727;dRep_bin354_MMOALAFN_00741;dRep_bin324_IPNHOHFK_00313;dRep_bin323_FBBLPLCG_01264;dRep_bin309_BIOHLCGG_01306;dRep_bin273_FGAEBHNP_00470;dRep_bin261_FJICAFFM_01100;dRep_bin148_NAJFKJMD_00795;dRep_bin115_IFKGOGCL_00123;dRep_bin069_EGGEOGDC_01056;dRep_bin344_CJJBDGAA_01161;dRep_bin249_OFIIEIDJ_00715;dRep_bin220_PILICLLL_00990;dRep_bin134_HIAPAODO_01436;dRep_bin065_DFABHCBI_00344;dRep_bin032_PPNIGLME_00203;dRep_bin270_GEJAHNCN_01587;dRep_bin065_DFABHCBI_00249;dRep_bin278_BFCONKOE_01054;dRep_bin016_JLGAHGOJ_00641;dRep_bin328_GIGKNKPJ_01462;dRep_bin308_JBPDGLPP_01172;dRep_bin303_DDDNDJCF_01320;dRep_bin254_GJDPFAEA_00870;dRep_bin234_ECABPBME_00536;dRep_bin186_HJAAFFNP_01789;dRep_bin167_BLMEBMNN_01296;dRep_bin107_EFNBPDOP_00511;dRep_bin077_DNNBMPMC_01864;dRep_bin066_AJACLPEE_01033;dRep_bin047_IFFANOMN_00697;dRep_bin135_HHKACLPM_00107;dRep_bin303_DDDNDJCF_00377;dRep_bin306_FGHMKMMP_01595;dRep_bin211_LGJEFJIK_00450;dRep_bin007_LNLEAAAN_01312;dRep_bin344_CJJBDGAA_01611;dRep_bin031_BNHMFOII_01628;dRep_bin353_PPDHLNJB_02118;dRep_bin254_GJDPFAEA_00869;dRep_bin094_LBLICAAO_00342;dRep_bin047_IFFANOMN_01357;dRep_bin120_EKLBOPNC_01832;dRep_bin168_HKDILBFE_01442;dRep_bin099_DNDAGJEJ_00392;dRep_bin215_ABBFGCAF_00798;dRep_bin029_LFMGBBEC_01628;dRep_bin240_LDBBGJKG_01094;dRep_bin279_IAEFEPEN_01491;dRep_bin130_OIFFANPF_01666;dRep_bin319_PBDBJGCJ_00268;dRep_bin017_FGFLFOPJ_00820;dRep_bin082_HBEFABJN_01328;dRep_bin245_MBCFLKOF_01762;dRep_bin027_OFJCHLJJ_00790;dRep_bin108_BPNCDINP_00911;dRep_bin308_JBPDGLPP_01750;dRep_bin193_GDMDPNNM_00480;dRep_bin344_CJJBDGAA_02078;dRep_bin049_MNFBDPNO_01413;dRep_bin096_GNHMEKPF_00097;dRep_bin104_EGLEJOLM_01934;dRep_bin339_DBNBAHDK_02499;dRep_bin321_EJNAAGJG_00755;dRep_bin273_FGAEBHNP_00835;dRep_bin250_NMCAMJIO_00087;dRep_bin247_EKGBJCBM_00317;dRep_bin148_NAJFKJMD_01189;dRep_bin337_FHKPNFDB_01633;dRep_bin320_LDBKCCKL_01786;dRep_bin304_JDNJGFKH_01982;dRep_bin286_OEMIJKMC_01141;dRep_bin231_CFOLMJBA_00953;dRep_bin162_JBGCCDIN_01636;dRep_bin126_PPDNCIBN_01067;dRep_bin109_MJABCPAK_00317;dRep_bin057_BNCFHBBO_00597;dRep_bin288_KOIAAABN_00012;dRep_bin263_OLEFOGIJ_00295;dRep_bin304_JDNJGFKH_00179;dRep_bin208_DHPGEIBC_00457;dRep_bin189_AHHEHGDL_01282;dRep_bin177_HLHGKLFL_00741;dRep_bin140_ACFAKGIL_00319;dRep_bin105_AAEIHAFF_01411;dRep_bin082_HBEFABJN_00692;dRep_bin010_MFFFGEGD_00717;dRep_bin005_CNDFPKJG_01705;dRep_bin287_DONBGKDH_01836;dRep_bin094_LBLICAAO_00388;dRep_bin058_GJKCICJN_00227;dRep_bin293_MEPKGOAN_00829;dRep_bin218_ACMPALGF_00229;dRep_bin205_LKIOOBKC_00417;dRep_bin172_ALNHGLMD_01439;dRep_bin159_ADJJGPBG_01342;dRep_bin143_PFLDJMPF_01248;dRep_bin101_BNDDLDCL_01982;dRep_bin091_MAFACGAD_01619;dRep_bin072_JOBJPCGA_00130;dRep_bin011_KOGMKLNO_01272;dRep_bin164_KHMELCCL_01402;dRep_bin305_FCIEFIHE_00371;dRep_bin222_GGCAJABB_00745;dRep_bin006_HPJGJCAG_01874;dRep_bin286_OEMIJKMC_01354;dRep_bin126_PPDNCIBN_00282;dRep_bin185_OOOLKACK_00819;dRep_bin043_KLAFNACO_00900;dRep_bin231_CFOLMJBA_01529;dRep_bin237_KJDLIPND_00869;dRep_bin147_EJLBNEBE_00138;dRep_bin186_HJAAFFNP_01790;dRep_bin081_JDPCKDNP_00172;dRep_bin069_EGGEOGDC_00890;dRep_bin282_PKAAPBFP_00016;dRep_bin206_OIIBOIAK_00984;dRep_bin161_JMKPMHCO_00782;dRep_bin278_BFCONKOE_00310;dRep_bin260_HELEPKJL_01944;dRep_bin336_MPGOKPOL_00897	dRep_bin203_CLFNNOCF_01682;dRep_bin347_EKGCMFPD_01504;dRep_bin284_DEHKNOBF_01057;dRep_bin260_HELEPKJL_00015;dRep_bin310_IMBAFDIF_00287;dRep_bin134_HIAPAODO_00846;dRep_bin062_BOFBFLDA_01435	>dRep_bin203_CLFNNOCF_01682 Glutamine synthetase;>dRep_bin347_EKGCMFPD_01504 Glutamine synthetase;>dRep_bin284_DEHKNOBF_01057 Glutamine synthetase;>dRep_bin260_HELEPKJL_00015 Glutamine synthetase;>dRep_bin310_IMBAFDIF_00287 Glutamine synthetase;>dRep_bin13	dRep_bin347_EKGCMFPD_01504	CDS	glnA_2	6.3.1.2	Glutamine synthetase
EKGCMFPD_01514	27.315960000000004	27.198729999999998	29.88066	29.84848	27.34079	26.47335	27.272309999999997	28.263109999999998				5	0	2,0841E-15	dRep_bin081_JDPCKDNP_01234;dRep_bin347_EKGCMFPD_01514;dRep_bin282_PKAAPBFP_00487;dRep_bin154_JGOKHKLI_00799;dRep_bin089_PAJFOJBN_02076	dRep_bin081_JDPCKDNP_01234;dRep_bin347_EKGCMFPD_01514;dRep_bin282_PKAAPBFP_00487;dRep_bin154_JGOKHKLI_00799;dRep_bin089_PAJFOJBN_02076	>dRep_bin081_JDPCKDNP_01234 30S ribosomal protein S19;>dRep_bin347_EKGCMFPD_01514 30S ribosomal protein S19;>dRep_bin282_PKAAPBFP_00487 30S ribosomal protein S19;>dRep_bin154_JGOKHKLI_00799 30S ribosomal protein S19;>dRep_bin089_PAJFOJBN_02076 30S ribosoma	dRep_bin347_EKGCMFPD_01514	CDS	rpsS		30S ribosomal protein S19
EKGCMFPD_01516	24.54734	24.70767	26.50335	29.17174								2	1	2,7267E-18	dRep_bin292_JIBLDOOH_00003;dRep_bin261_FJICAFFM_00378;dRep_bin203_CLFNNOCF_02133;dRep_bin347_EKGCMFPD_01516;dRep_bin328_GIGKNKPJ_01345;dRep_bin308_JBPDGLPP_01106;dRep_bin303_DDDNDJCF_00709;dRep_bin211_LGJEFJIK_01521;dRep_bin167_BLMEBMNN_01075;dRep_bin154_JGOKHKLI_00801;dRep_bin135_HHKACLPM_00484	dRep_bin292_JIBLDOOH_00003;dRep_bin261_FJICAFFM_00378;dRep_bin203_CLFNNOCF_02133;dRep_bin347_EKGCMFPD_01516;dRep_bin328_GIGKNKPJ_01345;dRep_bin308_JBPDGLPP_01106;dRep_bin303_DDDNDJCF_00709;dRep_bin211_LGJEFJIK_01521;dRep_bin167_BLMEBMNN_01075;dRep_bin154_JGOKHKLI_00801;dRep_bin135_HHKACLPM_00484	>dRep_bin292_JIBLDOOH_00003 50S ribosomal protein L23;>dRep_bin261_FJICAFFM_00378 50S ribosomal protein L23;>dRep_bin203_CLFNNOCF_02133 50S ribosomal protein L23;>dRep_bin347_EKGCMFPD_01516 50S ribosomal protein L23;>dRep_bin328_GIGKNKPJ_01345 50S ribosoma	dRep_bin347_EKGCMFPD_01516	CDS	rplW		50S ribosomal protein L23
EKGCMFPD_01585	33.160180000000004	31.47899	31.890050000000002	32.69946	31.77002	30.58082	32.3945	32.5541				27	17	0	dRep_bin209_NKIHFCEN_02075;dRep_bin347_EKGCMFPD_01585;dRep_bin001_GHHJMDAL_01379;dRep_bin115_IFKGOGCL_01688;dRep_bin347_EKGCMFPD_00796;dRep_bin324_IPNHOHFK_00839;dRep_bin154_JGOKHKLI_00894	dRep_bin209_NKIHFCEN_02075	>dRep_bin209_NKIHFCEN_02075 Flagellin	dRep_bin347_EKGCMFPD_01585	CDS	hag_4		Flagellin
EKGCMFPD_01599	29.39679	29.82083	28.888699999999996	30.023	29.064629999999998	28.535050000000002	28.569679999999998	28.7529				16	4	1,348E-126	dRep_bin292_JIBLDOOH_01787;dRep_bin181_MKGPMPIA_00606;dRep_bin127_FIPNHBCH_00771;dRep_bin105_AAEIHAFF_01288;dRep_bin347_EKGCMFPD_01599;dRep_bin001_GHHJMDAL_00086	dRep_bin292_JIBLDOOH_01787	>dRep_bin292_JIBLDOOH_01787 Bifunctional purine biosynthesis protein PurH	dRep_bin347_EKGCMFPD_01599	CDS	purH		Bifunctional purine biosynthesis protein PurH
EKGCMFPD_01623							27.34308	25.94015				3	1	1,8891E-41	dRep_bin201_OLKDIBOK_00769;dRep_bin347_EKGCMFPD_01623	dRep_bin201_OLKDIBOK_00769;dRep_bin347_EKGCMFPD_01623	>dRep_bin201_OLKDIBOK_00769 Putrescine aminotransferase;>dRep_bin347_EKGCMFPD_01623 Putrescine aminotransferase	dRep_bin347_EKGCMFPD_01623	CDS	patA_6	2.6.1.82	Putrescine aminotransferase
EKGCMFPD_01626	28.87041	28.19967	28.86676	28.382369999999998								5	3	1,0591E-300	dRep_bin347_EKGCMFPD_01626	dRep_bin347_EKGCMFPD_01626	>dRep_bin347_EKGCMFPD_01626 Flagellin	dRep_bin347_EKGCMFPD_01626	CDS	hag_5		Flagellin
EKGCMFPD_01638	25.394960000000005	26.539960000000004										8	0	2,0848E-53	dRep_bin335_JIOGNAPG_01899;dRep_bin065_DFABHCBI_01752;dRep_bin347_EKGCMFPD_01638;dRep_bin001_GHHJMDAL_00699	dRep_bin335_JIOGNAPG_01899;dRep_bin065_DFABHCBI_01752;dRep_bin347_EKGCMFPD_01638;dRep_bin001_GHHJMDAL_00699	>dRep_bin335_JIOGNAPG_01899 Branched-chain-amino-acid aminotransferase;>dRep_bin065_DFABHCBI_01752 Branched-chain-amino-acid aminotransferase;>dRep_bin347_EKGCMFPD_01638 Branched-chain-amino-acid aminotransferase;>dRep_bin001_GHHJMDAL_00699 Branched-chain-	dRep_bin347_EKGCMFPD_01638	CDS	ilvE	2.6.1.42	Branched-chain-amino-acid aminotransferase
EKGCMFPD_01680								26.17575				3	1	6,4251E-08	dRep_bin347_EKGCMFPD_01680;dRep_bin001_GHHJMDAL_00832	dRep_bin347_EKGCMFPD_01680;dRep_bin001_GHHJMDAL_00832	>dRep_bin347_EKGCMFPD_01680 DNA-directed RNA polymerase subunit alpha;>dRep_bin001_GHHJMDAL_00832 DNA-directed RNA polymerase subunit alpha	dRep_bin347_EKGCMFPD_01680	CDS	rpoA	2.7.7.6	DNA-directed RNA polymerase subunit alpha
EKGCMFPD_01713					27.69551	26.73647	28.803539999999998	26.756719999999998				13	8	7,5848E-36	dRep_bin095_HOBNOEEF_02146;dRep_bin344_CJJBDGAA_00010;dRep_bin257_JHFDCHCB_01336;dRep_bin284_DEHKNOBF_00528;dRep_bin347_EKGCMFPD_01713;dRep_bin300_MJPPENNL_01266;dRep_bin078_GKFCBAEI_00853;dRep_bin277_MIPNGEJE_00107;dRep_bin282_PKAAPBFP_00957;dRep_bin328_GIGKNKPJ_01683;dRep_bin324_IPNHOHFK_00096;dRep_bin157_JPNIKEKI_00049;dRep_bin133_NOBPDBPA_03446;dRep_bin019_MOJEPLJF_00699;dRep_bin046_GKEJLOEK_00562;dRep_bin024_OLHDGABE_00401;dRep_bin203_CLFNNOCF_00605;dRep_bin179_HFEIPPPA_01869;dRep_bin005_CNDFPKJG_00925;dRep_bin088_DNGPPFDK_00832	dRep_bin095_HOBNOEEF_02146	>dRep_bin095_HOBNOEEF_02146 Phosphoglucomutase	dRep_bin347_EKGCMFPD_01713	CDS	pgcA	5.4.2.2	Phosphoglucomutase
EKGCMFPD_01728	25.19914	24.54828	24.900299999999998	25.3334								2	2	4,9537E-08	dRep_bin347_EKGCMFPD_01728;dRep_bin001_GHHJMDAL_00470	dRep_bin347_EKGCMFPD_01728;dRep_bin001_GHHJMDAL_00470	>dRep_bin347_EKGCMFPD_01728 hypothetical protein;>dRep_bin001_GHHJMDAL_00470 hypothetical protein	dRep_bin347_EKGCMFPD_01728	CDS			hypothetical protein
EKGCMFPD_01776	25.929329999999997	25.80334	28.56587	25.608739999999997	28.330830000000002	28.851180000000003	29.565199999999997	28.06394				23	21	2,0039E-260	dRep_bin053_OMGNPOOB_01278;dRep_bin302_AHDEPDKG_00299;dRep_bin238_OLNFACLE_00618;dRep_bin125_FADLGGII_00735;dRep_bin097_CBBLIPAN_01892;dRep_bin134_HIAPAODO_01198;dRep_bin261_FJICAFFM_00295;dRep_bin282_PKAAPBFP_01577;dRep_bin074_EHAOMODJ_00946;dRep_bin347_EKGCMFPD_01776;dRep_bin127_FIPNHBCH_01523;dRep_bin075_EPEMMOCL_00770;dRep_bin201_OLKDIBOK_02470;dRep_bin323_FBBLPLCG_00116;dRep_bin242_LKAIBGGJ_01298;dRep_bin029_LFMGBBEC_01403;dRep_bin250_NMCAMJIO_00064;dRep_bin049_MNFBDPNO_00772;dRep_bin309_BIOHLCGG_00465;dRep_bin193_GDMDPNNM_00894;dRep_bin106_BKDHGPBE_01007;dRep_bin243_JDMELKLC_00010;dRep_bin057_BNCFHBBO_00002;dRep_bin026_HNPIIINL_00319;dRep_bin085_MBHLGCDB_00395;dRep_bin140_ACFAKGIL_00161;dRep_bin150_HCDEOBMH_00480;dRep_bin177_HLHGKLFL_01057;dRep_bin260_HELEPKJL_01297;dRep_bin159_ADJJGPBG_00428	dRep_bin053_OMGNPOOB_01278	>dRep_bin053_OMGNPOOB_01278 Phosphoribosylformylglycinamidine synthase	dRep_bin347_EKGCMFPD_01776	CDS	purL	6.3.5.3	Phosphoribosylformylglycinamidine synthase
EKGCMFPD_01790	27.598329999999997	25.482719999999993	26.17653									11	1	1,5954E-65	dRep_bin284_DEHKNOBF_00300;dRep_bin347_EKGCMFPD_01790;dRep_bin124_HIHDFGCL_00314;dRep_bin236_BNONDECB_00048	dRep_bin284_DEHKNOBF_00300	>dRep_bin284_DEHKNOBF_00300 60 kDa chaperonin	dRep_bin347_EKGCMFPD_01790	CDS	groL		60 kDa chaperonin
