GBprotID	LFQ intensity CtrPig1	LFQ intensity CtrPig2	LFQ intensity CtrPig3	LFQ intensity CtrPig4	LFQ intensity MannanPig1	LFQ intensity MannanPig2	LFQ intensity MannanPig3	LFQ intensity MannanPig4	Only identified by site	Reverse	Contaminant	Peptides	Unique peptides	PEP	Protein IDs	Majority protein IDs	Fasta headers	IDcomb	ftype	gene	EC_number	product
CKFFBPHM_00051						23.851860000000006						4	1	0	dRep_bin351_CKFFBPHM_00051	dRep_bin351_CKFFBPHM_00051	>dRep_bin351_CKFFBPHM_00051 hypothetical protein	dRep_bin351_CKFFBPHM_00051	CDS			hypothetical protein
CKFFBPHM_00087	27.28392	26.818	26.87291	26.391840000000002								8	6	4,7232E-83	dRep_bin002_CFBNDKDN_01413;dRep_bin232_JGAEDAFA_01292;dRep_bin351_CKFFBPHM_00087;dRep_bin296_FDMPKPOH_00251;dRep_bin037_GEAOEKHA_00196	dRep_bin002_CFBNDKDN_01413	>dRep_bin002_CFBNDKDN_01413 Meso-diaminopimelate D-dehydrogenase	dRep_bin351_CKFFBPHM_00087	CDS	ddh	1.4.1.16	Meso-diaminopimelate D-dehydrogenase
CKFFBPHM_00093	25.594800000000003	25.963179999999998	25.127270000000003	29.77143								6	5	6,6697E-157	dRep_bin351_CKFFBPHM_00093	dRep_bin351_CKFFBPHM_00093	>dRep_bin351_CKFFBPHM_00093 UDP-glucose 6-dehydrogenase	dRep_bin351_CKFFBPHM_00093	CDS	rkpK	1.1.1.22	UDP-glucose 6-dehydrogenase
CKFFBPHM_00106	24.827890000000004	24.995289999999997	27.57773	24.967539999999996								2	2	5,745E-05	dRep_bin094_LBLICAAO_00035;dRep_bin029_LFMGBBEC_00468;dRep_bin351_CKFFBPHM_00106;dRep_bin115_IFKGOGCL_01618;dRep_bin105_AAEIHAFF_00821;dRep_bin118_FGIOKLBC_00146;dRep_bin348_LCLFDNEE_00839;dRep_bin057_BNCFHBBO_00956;dRep_bin328_GIGKNKPJ_00687;dRep_bin056_EMNHHOJA_00366;dRep_bin026_HNPIIINL_00089	dRep_bin094_LBLICAAO_00035;dRep_bin029_LFMGBBEC_00468;dRep_bin351_CKFFBPHM_00106;dRep_bin115_IFKGOGCL_01618;dRep_bin105_AAEIHAFF_00821;dRep_bin118_FGIOKLBC_00146;dRep_bin348_LCLFDNEE_00839;dRep_bin057_BNCFHBBO_00956;dRep_bin328_GIGKNKPJ_00687;dRep_bin056_EMNHHOJA_00366;dRep_bin026_HNPIIINL_00089	>dRep_bin094_LBLICAAO_00035 UDP-2,3-diacetamido-2,3-dideoxy-D-glucuronate 2-epimerase;>dRep_bin029_LFMGBBEC_00468 UDP-2,3-diacetamido-2,3-dideoxy-D-glucuronate 2-epimerase;>dRep_bin351_CKFFBPHM_00106 UDP-2,3-diacetamido-2,3-dideoxy-D-glucuronate 2-epimeras	dRep_bin351_CKFFBPHM_00106	CDS	wbpI	5.1.3.23	UDP-2,3-diacetamido-2,3-dideoxy-D-glucuronate 2-epimerase
CKFFBPHM_00162					25.532519999999998	25.534450000000003						8	2	1,8177E-98	dRep_bin138_EJGHNBMI_01237;dRep_bin073_AKBCEHHO_01425;dRep_bin093_PGADNPMG_00264;dRep_bin198_GMLJKALI_01619;dRep_bin037_GEAOEKHA_01026;dRep_bin298_EIPJCOMF_01662;dRep_bin037_GEAOEKHA_01025;dRep_bin351_CKFFBPHM_00162;dRep_bin165_HMDFFMMM_00429;dRep_bin307_AOCKHIKF_00219;dRep_bin098_DDEBHDKK_00922	dRep_bin138_EJGHNBMI_01237;dRep_bin073_AKBCEHHO_01425	>dRep_bin138_EJGHNBMI_01237 Ferredoxin-dependent glutamate synthase 1;>dRep_bin073_AKBCEHHO_01425 Ferredoxin-dependent glutamate synthase 1	dRep_bin351_CKFFBPHM_00162	CDS	gltB	1.4.7.1	Ferredoxin-dependent glutamate synthase 1
CKFFBPHM_00235	29.55217	28.908729999999995	30.150250000000003	30.392739999999996	30.614650000000005	30.432709999999997	29.68903	30.4334				14	3	5,1196E-220	dRep_bin191_NGFJMLOL_00686;dRep_bin331_HPKAPHAF_00146;dRep_bin314_KCHFPLIP_01258;dRep_bin210_AGEDAEIA_01410;dRep_bin022_BOEAFNDE_00125;dRep_bin229_FFOBPPJI_00283;dRep_bin110_JGOEJECF_00566;dRep_bin301_NJFJIJGA_01219;dRep_bin093_PGADNPMG_00774;dRep_bin040_EIFLLDOA_00852;dRep_bin028_GKEJLBAM_00671;dRep_bin351_CKFFBPHM_00235;dRep_bin136_NAIECEIF_00365;dRep_bin092_OOJCPDEA_00171;dRep_bin290_OIOJKBNK_00923;dRep_bin256_KEMNAOBC_00204;dRep_bin071_JHMCIJPE_00242;dRep_bin018_ILOONPIC_00166	dRep_bin191_NGFJMLOL_00686	>dRep_bin191_NGFJMLOL_00686 DNA-directed RNA polymerase subunit alpha	dRep_bin351_CKFFBPHM_00235	CDS	rpoA	2.7.7.6	DNA-directed RNA polymerase subunit alpha
CKFFBPHM_00241					26.11662			27.45136				3	1	2,0455E-07	dRep_bin233_BAGKKAOB_00067;dRep_bin219_HGPEELLF_00478;dRep_bin061_ONFGDLGO_00678;dRep_bin351_CKFFBPHM_00241;dRep_bin244_LBFMHLBI_00960;dRep_bin004_OCHNPJPO_00797;dRep_bin030_OGPDLGOC_00585;dRep_bin018_ILOONPIC_01210	dRep_bin233_BAGKKAOB_00067;dRep_bin219_HGPEELLF_00478;dRep_bin061_ONFGDLGO_00678	>dRep_bin233_BAGKKAOB_00067 Pyruvate, phosphate dikinase;>dRep_bin219_HGPEELLF_00478 Pyruvate, phosphate dikinase;>dRep_bin061_ONFGDLGO_00678 Pyruvate, phosphate dikinase	dRep_bin351_CKFFBPHM_00241	CDS	ppdK_2	2.7.9.1	Pyruvate, phosphate dikinase
CKFFBPHM_00245		26.22299	26.24411	27.07602	25.614110000000004	26.66139	26.677070000000004	25.945339999999995				9	3	7,3712E-36	dRep_bin290_OIOJKBNK_01012;dRep_bin018_ILOONPIC_00819;dRep_bin256_KEMNAOBC_00797;dRep_bin351_CKFFBPHM_00245;dRep_bin316_FNLHDNEO_01132;dRep_bin128_JPBBHEMA_01120	dRep_bin290_OIOJKBNK_01012;dRep_bin018_ILOONPIC_00819;dRep_bin256_KEMNAOBC_00797;dRep_bin351_CKFFBPHM_00245;dRep_bin316_FNLHDNEO_01132;dRep_bin128_JPBBHEMA_01120	>dRep_bin290_OIOJKBNK_01012 60 kDa chaperonin;>dRep_bin018_ILOONPIC_00819 60 kDa chaperonin;>dRep_bin256_KEMNAOBC_00797 60 kDa chaperonin;>dRep_bin351_CKFFBPHM_00245 60 kDa chaperonin;>dRep_bin316_FNLHDNEO_01132 60 kDa chaperonin;>dRep_bin128_JPBBHEMA_0112	dRep_bin351_CKFFBPHM_00245	CDS	groL		60 kDa chaperonin
CKFFBPHM_00346	27.173890000000004	28.12065	28.612560000000002	27.767870000000002	27.968509999999995	27.479309999999998	27.199850000000005	27.587639999999997				16	2	1,9102E-187	dRep_bin138_EJGHNBMI_01838;dRep_bin351_CKFFBPHM_00346	dRep_bin138_EJGHNBMI_01838	>dRep_bin138_EJGHNBMI_01838 GGGtGRT protein	dRep_bin351_CKFFBPHM_00346	CDS			GGGtGRT protein
CKFFBPHM_00409								26.04743				2	1	4,8217E-05	dRep_bin028_GKEJLBAM_01643;dRep_bin128_JPBBHEMA_01073;dRep_bin118_FGIOKLBC_00883;dRep_bin071_JHMCIJPE_01696;dRep_bin037_GEAOEKHA_00348;dRep_bin035_JBNPBOKG_00973;dRep_bin345_GLPJDLOI_00032;dRep_bin138_EJGHNBMI_00982;dRep_bin331_HPKAPHAF_01081;dRep_bin196_BIELHBNH_00149;dRep_bin131_HLFNHDGI_00011;dRep_bin346_JKFDGFHC_00817;dRep_bin307_AOCKHIKF_01413;dRep_bin301_NJFJIJGA_00837;dRep_bin289_KALDCNNP_01573;dRep_bin232_JGAEDAFA_00772;dRep_bin229_FFOBPPJI_00082;dRep_bin137_NABPABPB_00505;dRep_bin098_DDEBHDKK_01005;dRep_bin040_EIFLLDOA_01981;dRep_bin002_CFBNDKDN_00501;dRep_bin329_GDOHKPBL_00262;dRep_bin294_EHJINIDK_00096;dRep_bin285_IPHKFJAN_01572;dRep_bin224_NFENHJGB_00105;dRep_bin183_FPGIOKBG_00084;dRep_bin170_LICLFCFF_01487;dRep_bin136_NAIECEIF_00942;dRep_bin210_AGEDAEIA_01305;dRep_bin198_GMLJKALI_00447;dRep_bin070_EMBHKIOF_00743;dRep_bin063_PJANDMAH_01551;dRep_bin034_MEBMFDLL_00116;dRep_bin045_GJACFFBC_00808;dRep_bin036_DOKCEIDH_00110;A0A287A876;dRep_bin314_KCHFPLIP_01194;dRep_bin014_CHIHIMAN_00691;dRep_bin256_KEMNAOBC_01441;dRep_bin092_OOJCPDEA_00764;dRep_bin022_BOEAFNDE_01392;dRep_bin351_CKFFBPHM_00409;dRep_bin316_FNLHDNEO_00929;dRep_bin271_NGFBCHKH_00981;F1RGD8;F1RGD9	dRep_bin028_GKEJLBAM_01643;dRep_bin128_JPBBHEMA_01073;dRep_bin118_FGIOKLBC_00883;dRep_bin071_JHMCIJPE_01696;dRep_bin037_GEAOEKHA_00348;dRep_bin035_JBNPBOKG_00973;dRep_bin345_GLPJDLOI_00032;dRep_bin138_EJGHNBMI_00982;dRep_bin331_HPKAPHAF_01081;dRep_bin196_BIELHBNH_00149;dRep_bin131_HLFNHDGI_00011;dRep_bin346_JKFDGFHC_00817;dRep_bin307_AOCKHIKF_01413;dRep_bin301_NJFJIJGA_00837;dRep_bin289_KALDCNNP_01573;dRep_bin232_JGAEDAFA_00772;dRep_bin229_FFOBPPJI_00082;dRep_bin137_NABPABPB_00505;dRep_bin098_DDEBHDKK_01005;dRep_bin040_EIFLLDOA_01981;dRep_bin002_CFBNDKDN_00501;dRep_bin329_GDOHKPBL_00262;dRep_bin294_EHJINIDK_00096;dRep_bin285_IPHKFJAN_01572;dRep_bin224_NFENHJGB_00105;dRep_bin183_FPGIOKBG_00084;dRep_bin170_LICLFCFF_01487;dRep_bin136_NAIECEIF_00942;dRep_bin210_AGEDAEIA_01305;dRep_bin198_GMLJKALI_00447;dRep_bin070_EMBHKIOF_00743;dRep_bin063_PJANDMAH_01551;dRep_bin034_MEBMFDLL_00116;dRep_bin045_GJACFFBC_00808;dRep_bin036_DOKCEIDH_00110;A0A287A876;dRep_bin314_KCHFPLIP_01194;dRep_bin014_CHIHIMAN_00691;dRep_bin256_KEMNAOBC_01441;dRep_bin092_OOJCPDEA_00764;dRep_bin022_BOEAFNDE_01392;dRep_bin351_CKFFBPHM_00409;dRep_bin316_FNLHDNEO_00929;dRep_bin271_NGFBCHKH_00981;F1RGD8;F1RGD9	>dRep_bin028_GKEJLBAM_01643 Histidine--tRNA ligase;>dRep_bin128_JPBBHEMA_01073 Histidine--tRNA ligase;>dRep_bin118_FGIOKLBC_00883 Histidine--tRNA ligase;>dRep_bin071_JHMCIJPE_01696 Histidine--tRNA ligase;>dRep_bin037_GEAOEKHA_00348 Histidine--tRNA ligase;>	dRep_bin351_CKFFBPHM_00409	CDS	hisS	6.1.1.21	Histidine--tRNA ligase
CKFFBPHM_00484	26.24999	26.34379	27.166150000000002	27.415789999999998	27.87068	28.467779999999998	27.36152	27.501050000000003				3	3	3,2505E-23	dRep_bin022_BOEAFNDE_01478;dRep_bin351_CKFFBPHM_00484;dRep_bin229_FFOBPPJI_00949;dRep_bin136_NAIECEIF_00523;dRep_bin118_FGIOKLBC_00743;dRep_bin040_EIFLLDOA_01348;dRep_bin018_ILOONPIC_00352	dRep_bin022_BOEAFNDE_01478	>dRep_bin022_BOEAFNDE_01478 CTP synthase	dRep_bin351_CKFFBPHM_00484	CDS	pyrG	6.3.4.2	CTP synthase
CKFFBPHM_00569					27.68866	28.85067	26.93146	27.22683				5	1	2,0271E-61	dRep_bin071_JHMCIJPE_00774;dRep_bin271_NGFBCHKH_00710;dRep_bin063_PJANDMAH_00185;dRep_bin034_MEBMFDLL_00247;dRep_bin084_CGBIKHBH_01287;dRep_bin307_AOCKHIKF_01139;dRep_bin098_DDEBHDKK_01407;dRep_bin290_OIOJKBNK_01581;dRep_bin165_HMDFFMMM_00576;dRep_bin351_CKFFBPHM_00569;dRep_bin229_FFOBPPJI_00495;dRep_bin070_EMBHKIOF_00542;dRep_bin136_NAIECEIF_01032;dRep_bin073_AKBCEHHO_01226;dRep_bin014_CHIHIMAN_00024;dRep_bin289_KALDCNNP_00248;dRep_bin199_JBCGANNF_00237;dRep_bin244_LBFMHLBI_01073;dRep_bin036_DOKCEIDH_00668;dRep_bin004_OCHNPJPO_00478;dRep_bin329_GDOHKPBL_00723;dRep_bin316_FNLHDNEO_01012;dRep_bin256_KEMNAOBC_01521;dRep_bin198_GMLJKALI_00058;dRep_bin092_OOJCPDEA_01022;dRep_bin318_IEDEJOFJ_00455;dRep_bin301_NJFJIJGA_00149;dRep_bin183_FPGIOKBG_00223;dRep_bin149_GABCHCDI_01562;dRep_bin022_BOEAFNDE_00838;dRep_bin345_GLPJDLOI_00727;dRep_bin275_NIDIBBDA_00580;dRep_bin096_GNHMEKPF_01251;dRep_bin314_KCHFPLIP_01102;dRep_bin272_LGBDGEIM_00187;dRep_bin118_FGIOKLBC_01064;dRep_bin055_IBMMJAEE_00565;dRep_bin331_HPKAPHAF_01667;dRep_bin028_GKEJLBAM_00501;dRep_bin012_KEBBILMO_00805	dRep_bin071_JHMCIJPE_00774	>dRep_bin071_JHMCIJPE_00774 Glucose-1-phosphate thymidylyltransferase 2	dRep_bin351_CKFFBPHM_00569	CDS	rffH	2.7.7.24	Glucose-1-phosphate thymidylyltransferase 2
CKFFBPHM_00653		25.30744	27.366950000000003	26.114240000000002	28.8031	29.84742	27.367950000000004	28.02099				20	2	1,04E-100	dRep_bin191_NGFJMLOL_01299;dRep_bin138_EJGHNBMI_00239;dRep_bin346_JKFDGFHC_01257;dRep_bin036_DOKCEIDH_00826;dRep_bin183_FPGIOKBG_00488;dRep_bin331_HPKAPHAF_00454;dRep_bin232_JGAEDAFA_01447;dRep_bin196_BIELHBNH_01253;dRep_bin296_FDMPKPOH_01263;dRep_bin131_HLFNHDGI_00252;dRep_bin098_DDEBHDKK_00888;dRep_bin070_EMBHKIOF_01302;dRep_bin073_AKBCEHHO_00450;dRep_bin084_CGBIKHBH_01137;dRep_bin329_GDOHKPBL_01294;dRep_bin040_EIFLLDOA_01849;dRep_bin210_AGEDAEIA_00524;dRep_bin307_AOCKHIKF_00203;dRep_bin165_HMDFFMMM_01534;dRep_bin093_PGADNPMG_01180;dRep_bin022_BOEAFNDE_00338;dRep_bin035_JBNPBOKG_01124;dRep_bin229_FFOBPPJI_00119;dRep_bin118_FGIOKLBC_00645;dRep_bin028_GKEJLBAM_01034;dRep_bin128_JPBBHEMA_00126;dRep_bin290_OIOJKBNK_00154;dRep_bin092_OOJCPDEA_00297;dRep_bin351_CKFFBPHM_00653;dRep_bin110_JGOEJECF_00871;dRep_bin256_KEMNAOBC_00992;dRep_bin071_JHMCIJPE_00892;dRep_bin316_FNLHDNEO_00335	dRep_bin191_NGFJMLOL_01299	>dRep_bin191_NGFJMLOL_01299 Methionine--tRNA ligase	dRep_bin351_CKFFBPHM_00653	CDS	metG	6.1.1.10	Methionine--tRNA ligase
CKFFBPHM_00677	19.76007											5	1	1,1584E-13	dRep_bin118_FGIOKLBC_00184;dRep_bin229_FFOBPPJI_01310;dRep_bin028_GKEJLBAM_01552;dRep_bin040_EIFLLDOA_00149;dRep_bin022_BOEAFNDE_00554;dRep_bin037_GEAOEKHA_01143;dRep_bin018_ILOONPIC_00816;dRep_bin128_JPBBHEMA_00202;dRep_bin247_EKGBJCBM_01673;dRep_bin232_JGAEDAFA_00095;dRep_bin351_CKFFBPHM_00677;dRep_bin290_OIOJKBNK_00415;dRep_bin256_KEMNAOBC_01107;dRep_bin136_NAIECEIF_00972;dRep_bin071_JHMCIJPE_00736	dRep_bin118_FGIOKLBC_00184;dRep_bin229_FFOBPPJI_01310;dRep_bin028_GKEJLBAM_01552;dRep_bin040_EIFLLDOA_00149;dRep_bin022_BOEAFNDE_00554	>dRep_bin118_FGIOKLBC_00184 Propionyl-CoA carboxylase beta chain;>dRep_bin229_FFOBPPJI_01310 Propionyl-CoA carboxylase beta chain;>dRep_bin028_GKEJLBAM_01552 Propionyl-CoA carboxylase beta chain;>dRep_bin040_EIFLLDOA_00149 Propionyl-CoA carboxylase beta ch	dRep_bin351_CKFFBPHM_00677	CDS	pccB	6.4.1.3	Propionyl-CoA carboxylase beta chain
CKFFBPHM_00719		25.214190000000002										17	1	0	dRep_bin351_CKFFBPHM_00719	dRep_bin351_CKFFBPHM_00719	>dRep_bin351_CKFFBPHM_00719 Phosphoenolpyruvate carboxykinase (ATP)	dRep_bin351_CKFFBPHM_00719	CDS	pckA	4.1.1.49	Phosphoenolpyruvate carboxykinase (ATP)
CKFFBPHM_00748	31.69062	31.497960000000003	31.258499999999998	30.57867	30.338729999999998	30.18754	31.41518	31.29647				16	13	0	dRep_bin225_FLBKEJIP_00638;dRep_bin193_GDMDPNNM_00391;dRep_bin104_EGLEJOLM_00429;dRep_bin267_LJCFMAFA_01104;dRep_bin128_JPBBHEMA_00063;dRep_bin322_OJELOJOF_01579;dRep_bin220_PILICLLL_00965;dRep_bin237_KJDLIPND_01288;dRep_bin273_FGAEBHNP_00090;dRep_bin350_EKOOEEGH_00878;dRep_bin341_NBEGOKEF_01245;dRep_bin230_NINMBMKB_00865;dRep_bin355_KJEFNADK_01484;dRep_bin306_FGHMKMMP_01597;dRep_bin291_EILOACJB_00178;dRep_bin276_EHNFLEBP_00863;dRep_bin107_EFNBPDOP_00094;dRep_bin077_DNNBMPMC_01312;dRep_bin324_IPNHOHFK_02120;dRep_bin308_JBPDGLPP_01844;dRep_bin089_PAJFOJBN_01453;dRep_bin031_BNHMFOII_01699;dRep_bin007_LNLEAAAN_01377;dRep_bin179_HFEIPPPA_01144;dRep_bin347_EKGCMFPD_01400;dRep_bin226_NLNLHLLD_00768;dRep_bin056_EMNHHOJA_00523;dRep_bin026_HNPIIINL_01583;dRep_bin020_JCCELPIE_01111;dRep_bin345_GLPJDLOI_00559;dRep_bin343_JCMCKBGF_01283;dRep_bin333_EFOKIBLA_00575;dRep_bin323_FBBLPLCG_00787;dRep_bin274_DBJHKLDG_00045;dRep_bin195_DDMDFNOK_00591;dRep_bin078_GKFCBAEI_00992;dRep_bin008_MNDMJLEI_01069;dRep_bin316_FNLHDNEO_00739;dRep_bin092_OOJCPDEA_01821;dRep_bin074_EHAOMODJ_00660;dRep_bin256_KEMNAOBC_00450;dRep_bin123_PJKBFKBB_01350;dRep_bin110_JGOEJECF_00180;dRep_bin101_BNDDLDCL_01841;dRep_bin071_JHMCIJPE_01380;dRep_bin040_EIFLLDOA_01745;dRep_bin032_PPNIGLME_01067;dRep_bin014_CHIHIMAN_00063;dRep_bin321_EJNAAGJG_00005;dRep_bin290_OIOJKBNK_00982;dRep_bin229_FFOBPPJI_01385;dRep_bin124_HIHDFGCL_00127;dRep_bin028_GKEJLBAM_01146;dRep_bin351_CKFFBPHM_00748;dRep_bin296_FDMPKPOH_01066;dRep_bin257_JHFDCHCB_01960;dRep_bin194_MEPDOGGJ_00157;dRep_bin191_NGFJMLOL_00394;dRep_bin136_NAIECEIF_01100;dRep_bin118_FGIOKLBC_00461;dRep_bin025_CBEJJMLE_00124;dRep_bin293_MEPKGOAN_00978;dRep_bin210_AGEDAEIA_00638;dRep_bin314_KCHFPLIP_00446;dRep_bin165_HMDFFMMM_00776;dRep_bin353_PPDHLNJB_00892;dRep_bin018_ILOONPIC_00585;dRep_bin060_HNFNENOI_01252;dRep_bin217_MJCEAEPB_01380	dRep_bin225_FLBKEJIP_00638	>dRep_bin225_FLBKEJIP_00638 Inosine-5-monophosphate dehydrogenase	dRep_bin351_CKFFBPHM_00748	CDS	guaB	1.1.1.205	Inosine-5'-monophosphate dehydrogenase
CKFFBPHM_00751	25.966509999999996	25.54336	27.191880000000005	28.03255	28.42926	28.15904	28.30077	28.32023				6	4	3,3843E-93	dRep_bin289_KALDCNNP_00778;dRep_bin131_HLFNHDGI_00691;dRep_bin196_BIELHBNH_01631;dRep_bin198_GMLJKALI_00708;dRep_bin113_LIFKCGBF_00462;dRep_bin351_CKFFBPHM_00751;dRep_bin112_NDMGAKCH_00487;dRep_bin018_ILOONPIC_00378	dRep_bin289_KALDCNNP_00778	>dRep_bin289_KALDCNNP_00778 Transketolase	dRep_bin351_CKFFBPHM_00751	CDS	tkt	2.2.1.1	Transketolase
CKFFBPHM_00780					26.02968							4	1	6,1883E-107	dRep_bin137_NABPABPB_01529;dRep_bin298_EIPJCOMF_00725;dRep_bin289_KALDCNNP_00408;dRep_bin271_NGFBCHKH_00538;dRep_bin070_EMBHKIOF_00832;dRep_bin064_CMDDCDKG_00560;dRep_bin034_MEBMFDLL_00411;dRep_bin170_LICLFCFF_01212;dRep_bin198_GMLJKALI_01075;dRep_bin224_NFENHJGB_00152;dRep_bin229_FFOBPPJI_00419;dRep_bin113_LIFKCGBF_01546;dRep_bin351_CKFFBPHM_00780;dRep_bin314_KCHFPLIP_01641;dRep_bin307_AOCKHIKF_00296;dRep_bin098_DDEBHDKK_00655;dRep_bin296_FDMPKPOH_00083;dRep_bin073_AKBCEHHO_00805;dRep_bin232_JGAEDAFA_00612	dRep_bin137_NABPABPB_01529;dRep_bin298_EIPJCOMF_00725;dRep_bin289_KALDCNNP_00408;dRep_bin271_NGFBCHKH_00538;dRep_bin070_EMBHKIOF_00832;dRep_bin064_CMDDCDKG_00560;dRep_bin034_MEBMFDLL_00411;dRep_bin170_LICLFCFF_01212	>dRep_bin137_NABPABPB_01529 Aspartate-semialdehyde dehydrogenase;>dRep_bin298_EIPJCOMF_00725 Aspartate-semialdehyde dehydrogenase;>dRep_bin289_KALDCNNP_00408 Aspartate-semialdehyde dehydrogenase;>dRep_bin271_NGFBCHKH_00538 Aspartate-semialdehyde dehydrogen	dRep_bin351_CKFFBPHM_00780	CDS	asd	1.2.1.11	Aspartate-semialdehyde dehydrogenase
CKFFBPHM_00809								25.355850000000004				14	0	8,5438E-56	dRep_bin045_GJACFFBC_01164;dRep_bin256_KEMNAOBC_00772;dRep_bin316_FNLHDNEO_01095;dRep_bin351_CKFFBPHM_00809;dRep_bin290_OIOJKBNK_01580;dRep_bin071_JHMCIJPE_01737	dRep_bin045_GJACFFBC_01164	>dRep_bin045_GJACFFBC_01164 Phosphoribosylaminoimidazole-succinocarboxamide synthase	dRep_bin351_CKFFBPHM_00809	CDS	purC	6.3.2.6	Phosphoribosylaminoimidazole-succinocarboxamide synthase
CKFFBPHM_00817	28.16902	27.741429999999998	27.62881	28.69302	28.87622	29.227980000000002	28.498379999999997	28.26428				15	12	3,6647E-90	dRep_bin191_NGFJMLOL_01091;dRep_bin183_FPGIOKBG_01137;dRep_bin063_PJANDMAH_00377;dRep_bin170_LICLFCFF_00888;dRep_bin112_NDMGAKCH_01444;dRep_bin070_EMBHKIOF_00530;dRep_bin034_MEBMFDLL_02032;dRep_bin137_NABPABPB_01566;dRep_bin224_NFENHJGB_01099;dRep_bin285_IPHKFJAN_00218;dRep_bin113_LIFKCGBF_01196;dRep_bin045_GJACFFBC_01762;dRep_bin064_CMDDCDKG_00290;dRep_bin110_JGOEJECF_00930;dRep_bin316_FNLHDNEO_00708;dRep_bin351_CKFFBPHM_00817;dRep_bin289_KALDCNNP_00882;dRep_bin196_BIELHBNH_01594	dRep_bin191_NGFJMLOL_01091	>dRep_bin191_NGFJMLOL_01091 N-acetylornithine carbamoyltransferase	dRep_bin351_CKFFBPHM_00817	CDS	argF'	2.1.3.9	N-acetylornithine carbamoyltransferase
CKFFBPHM_00819					25.715439999999997	27.2488	24.95434	25.242089999999997				3	1	3,8266E-08	dRep_bin138_EJGHNBMI_01316;dRep_bin298_EIPJCOMF_01404;dRep_bin070_EMBHKIOF_00537;dRep_bin045_GJACFFBC_01769;dRep_bin036_DOKCEIDH_00089;dRep_bin351_CKFFBPHM_00819;dRep_bin064_CMDDCDKG_01208;dRep_bin183_FPGIOKBG_01130;dRep_bin271_NGFBCHKH_00968;dRep_bin346_JKFDGFHC_01026	dRep_bin138_EJGHNBMI_01316;dRep_bin298_EIPJCOMF_01404;dRep_bin070_EMBHKIOF_00537;dRep_bin045_GJACFFBC_01769;dRep_bin036_DOKCEIDH_00089;dRep_bin351_CKFFBPHM_00819;dRep_bin064_CMDDCDKG_01208;dRep_bin183_FPGIOKBG_01130;dRep_bin271_NGFBCHKH_00968	>dRep_bin138_EJGHNBMI_01316 N-acetyl-gamma-glutamyl-phosphate reductase;>dRep_bin298_EIPJCOMF_01404 N-acetyl-gamma-glutamyl-phosphate reductase;>dRep_bin070_EMBHKIOF_00537 N-acetyl-gamma-glutamyl-phosphate reductase;>dRep_bin045_GJACFFBC_01769 N-acetyl-gam	dRep_bin351_CKFFBPHM_00819	CDS	argC	1.2.1.38	N-acetyl-gamma-glutamyl-phosphate reductase
CKFFBPHM_00833						24.823719999999998						5	1	7,6896E-85	dRep_bin285_IPHKFJAN_01724;dRep_bin294_EHJINIDK_00946;dRep_bin351_CKFFBPHM_00833;dRep_bin110_JGOEJECF_00755;dRep_bin084_CGBIKHBH_00765	dRep_bin285_IPHKFJAN_01724;dRep_bin294_EHJINIDK_00946;dRep_bin351_CKFFBPHM_00833	>dRep_bin285_IPHKFJAN_01724 Valine--tRNA ligase;>dRep_bin294_EHJINIDK_00946 Valine--tRNA ligase;>dRep_bin351_CKFFBPHM_00833 Valine--tRNA ligase	dRep_bin351_CKFFBPHM_00833	CDS	valS	6.1.1.9	Valine--tRNA ligase
CKFFBPHM_00873								23.37743				1	1	0,0065947	dRep_bin351_CKFFBPHM_00873	dRep_bin351_CKFFBPHM_00873	>dRep_bin351_CKFFBPHM_00873 Malonyl CoA-acyl carrier protein transacylase	dRep_bin351_CKFFBPHM_00873	CDS	fabD	2.3.1.39	Malonyl CoA-acyl carrier protein transacylase
CKFFBPHM_00874			24.71649									4	0	5,3774E-38	dRep_bin351_CKFFBPHM_00874	dRep_bin351_CKFFBPHM_00874	>dRep_bin351_CKFFBPHM_00874 Pyruvate synthase	dRep_bin351_CKFFBPHM_00874	CDS	por	1.2.7.1	Pyruvate synthase
CKFFBPHM_00875							20.81839					1	1	0,00019929	dRep_bin351_CKFFBPHM_00875;dRep_bin290_OIOJKBNK_00958	dRep_bin351_CKFFBPHM_00875;dRep_bin290_OIOJKBNK_00958	>dRep_bin351_CKFFBPHM_00875 hypothetical protein;>dRep_bin290_OIOJKBNK_00958 Tetratricopeptide repeat protein	dRep_bin351_CKFFBPHM_00875	CDS			hypothetical protein
CKFFBPHM_00883					25.900119999999998	27.46987	26.849950000000003	26.325139999999998				4	0	3,2743E-28	dRep_bin307_AOCKHIKF_00160;dRep_bin098_DDEBHDKK_00652;dRep_bin183_FPGIOKBG_00590;dRep_bin128_JPBBHEMA_00391;dRep_bin137_NABPABPB_01015;dRep_bin198_GMLJKALI_00983;dRep_bin112_NDMGAKCH_00558;dRep_bin073_AKBCEHHO_00630;dRep_bin111_FPJIHFKE_01146;dRep_bin064_CMDDCDKG_00952;dRep_bin070_EMBHKIOF_00143;dRep_bin037_GEAOEKHA_00627;dRep_bin314_KCHFPLIP_01340;dRep_bin232_JGAEDAFA_00436;dRep_bin290_OIOJKBNK_01502;dRep_bin136_NAIECEIF_00125;dRep_bin018_ILOONPIC_00511;dRep_bin110_JGOEJECF_00059;dRep_bin092_OOJCPDEA_01586;dRep_bin271_NGFBCHKH_00234;dRep_bin224_NFENHJGB_01651;dRep_bin084_CGBIKHBH_01000;dRep_bin346_JKFDGFHC_00749;dRep_bin036_DOKCEIDH_01514;dRep_bin002_CFBNDKDN_00078;dRep_bin351_CKFFBPHM_00883;dRep_bin289_KALDCNNP_01019;dRep_bin298_EIPJCOMF_00289;dRep_bin229_FFOBPPJI_00563;dRep_bin275_NIDIBBDA_01303;dRep_bin210_AGEDAEIA_00620;dRep_bin104_EGLEJOLM_00781;dRep_bin257_JHFDCHCB_01689;dRep_bin097_CBBLIPAN_01153;dRep_bin337_FHKPNFDB_01364;dRep_bin335_JIOGNAPG_00046;dRep_bin282_PKAAPBFP_01042;dRep_bin234_ECABPBME_00099;dRep_bin135_HHKACLPM_00078;dRep_bin089_PAJFOJBN_00724;dRep_bin088_DNGPPFDK_00540;dRep_bin075_EPEMMOCL_00011;dRep_bin035_JBNPBOKG_00075;dRep_bin093_PGADNPMG_00660;dRep_bin169_PNICKJKO_01447;dRep_bin230_NINMBMKB_00368;dRep_bin294_EHJINIDK_00696;dRep_bin028_GKEJLBAM_00575;dRep_bin014_CHIHIMAN_01200;dRep_bin355_KJEFNADK_00480;dRep_bin063_PJANDMAH_00595;dRep_bin034_MEBMFDLL_01871;dRep_bin320_LDBKCCKL_00526;dRep_bin301_NJFJIJGA_01347;dRep_bin149_GABCHCDI_01402;dRep_bin310_IMBAFDIF_01474;dRep_bin242_LKAIBGGJ_00169;dRep_bin181_MKGPMPIA_00142;dRep_bin267_LJCFMAFA_00611;dRep_bin306_FGHMKMMP_00339;dRep_bin150_HCDEOBMH_01051;dRep_bin091_MAFACGAD_01386;dRep_bin040_EIFLLDOA_01982;dRep_bin005_CNDFPKJG_00382;dRep_bin333_EFOKIBLA_01313;dRep_bin317_ABPHNCOD_01616;dRep_bin081_JDPCKDNP_00758;dRep_bin138_EJGHNBMI_00536;dRep_bin162_JBGCCDIN_00612;dRep_bin272_LGBDGEIM_00307;dRep_bin168_HKDILBFE_01242;dRep_bin118_FGIOKLBC_01317	dRep_bin307_AOCKHIKF_00160;dRep_bin098_DDEBHDKK_00652;dRep_bin183_FPGIOKBG_00590;dRep_bin128_JPBBHEMA_00391;dRep_bin137_NABPABPB_01015;dRep_bin198_GMLJKALI_00983;dRep_bin112_NDMGAKCH_00558;dRep_bin073_AKBCEHHO_00630;dRep_bin111_FPJIHFKE_01146;dRep_bin064_CMDDCDKG_00952;dRep_bin070_EMBHKIOF_00143;dRep_bin037_GEAOEKHA_00627;dRep_bin314_KCHFPLIP_01340;dRep_bin232_JGAEDAFA_00436;dRep_bin290_OIOJKBNK_01502;dRep_bin136_NAIECEIF_00125;dRep_bin018_ILOONPIC_00511;dRep_bin110_JGOEJECF_00059;dRep_bin092_OOJCPDEA_01586;dRep_bin271_NGFBCHKH_00234;dRep_bin224_NFENHJGB_01651;dRep_bin084_CGBIKHBH_01000;dRep_bin346_JKFDGFHC_00749;dRep_bin036_DOKCEIDH_01514;dRep_bin002_CFBNDKDN_00078;dRep_bin351_CKFFBPHM_00883;dRep_bin289_KALDCNNP_01019;dRep_bin298_EIPJCOMF_00289;dRep_bin229_FFOBPPJI_00563;dRep_bin275_NIDIBBDA_01303;dRep_bin210_AGEDAEIA_00620;dRep_bin104_EGLEJOLM_00781;dRep_bin257_JHFDCHCB_01689;dRep_bin097_CBBLIPAN_01153;dRep_bin337_FHKPNFDB_01364;dRep_bin335_JIOGNAPG_00046;dRep_bin282_PKAAPBFP_01042;dRep_bin234_ECABPBME_00099;dRep_bin135_HHKACLPM_00078;dRep_bin089_PAJFOJBN_00724;dRep_bin088_DNGPPFDK_00540;dRep_bin075_EPEMMOCL_00011;dRep_bin035_JBNPBOKG_00075;dRep_bin093_PGADNPMG_00660	>dRep_bin307_AOCKHIKF_00160 NADPH-dependent 7-cyano-7-deazaguanine reductase;>dRep_bin098_DDEBHDKK_00652 NADPH-dependent 7-cyano-7-deazaguanine reductase;>dRep_bin183_FPGIOKBG_00590 NADPH-dependent 7-cyano-7-deazaguanine reductase;>dRep_bin128_JPBBHEMA_003	dRep_bin351_CKFFBPHM_00883	CDS	queF	1.7.1.13	NADPH-dependent 7-cyano-7-deazaguanine reductase
CKFFBPHM_00913	28.62954	29.354750000000003	29.992399999999996	30.023139999999998	30.21083	30.89937	29.70792	30.0531				20	3	1,2194E-156	dRep_bin191_NGFJMLOL_01259;dRep_bin296_FDMPKPOH_00205;dRep_bin210_AGEDAEIA_00766;dRep_bin195_DDMDFNOK_00108;dRep_bin334_NAPFFNLD_01038;dRep_bin211_LGJEFJIK_01419;dRep_bin295_EJGKDKNE_00091;dRep_bin341_NBEGOKEF_00239;dRep_bin020_JCCELPIE_00888;dRep_bin283_NLJJFFAC_01280;dRep_bin274_DBJHKLDG_00956;dRep_bin016_JLGAHGOJ_01458;dRep_bin108_BPNCDINP_01604;dRep_bin008_MNDMJLEI_00335;dRep_bin270_GEJAHNCN_01137;dRep_bin005_CNDFPKJG_01352;dRep_bin060_HNFNENOI_00669;dRep_bin146_LCCIBLJG_00571;dRep_bin326_CEEAIPKF_00877;dRep_bin333_EFOKIBLA_00153;dRep_bin168_HKDILBFE_01558;dRep_bin244_LBFMHLBI_01599;dRep_bin096_GNHMEKPF_00231;dRep_bin237_KJDLIPND_00220;dRep_bin188_EJILNMPE_01240;dRep_bin251_FGNGCJDD_00076;dRep_bin227_IJODGBOI_00103;dRep_bin151_AHBJLMBI_00923;dRep_bin116_CLFDBMOF_00729;dRep_bin141_GMCOOECB_00805;dRep_bin350_EKOOEEGH_00925;dRep_bin132_FAPBDCMG_00754;dRep_bin080_CBEBHNNK_00317;dRep_bin051_HIEIDCID_00971;dRep_bin228_CECEDMJG_00643;dRep_bin009_KMMEHEKA_00811;dRep_bin318_IEDEJOFJ_01292;dRep_bin207_OHNPDPFI_00717;dRep_bin345_GLPJDLOI_00471;dRep_bin144_NPHACCKF_01507;dRep_bin118_FGIOKLBC_00082;dRep_bin355_KJEFNADK_00986;dRep_bin293_MEPKGOAN_00544;dRep_bin230_NINMBMKB_00674;dRep_bin014_CHIHIMAN_00029;dRep_bin218_ACMPALGF_00178;dRep_bin165_HMDFFMMM_01108;dRep_bin094_LBLICAAO_00513;dRep_bin076_GLAOFBEC_01428;dRep_bin267_LJCFMAFA_00110;dRep_bin048_PABMBHAL_00321;dRep_bin147_EJLBNEBE_02032;dRep_bin128_JPBBHEMA_00007;dRep_bin042_MMFCLHOO_01063;dRep_bin351_CKFFBPHM_00913;dRep_bin123_PJKBFKBB_00095;dRep_bin330_CODAKHDJ_00708;dRep_bin252_NDAKLAGD_01294;dRep_bin233_BAGKKAOB_01574;dRep_bin217_MJCEAEPB_00244;dRep_bin110_JGOEJECF_00272;dRep_bin109_MJABCPAK_00670;dRep_bin101_BNDDLDCL_01055;dRep_bin092_OOJCPDEA_00344;dRep_bin074_EHAOMODJ_00824;dRep_bin336_MPGOKPOL_02107;dRep_bin290_OIOJKBNK_01058;dRep_bin264_DNFFGNEG_00269;dRep_bin256_KEMNAOBC_01330;dRep_bin246_MMFBABHK_01553;dRep_bin166_DFIAJFEC_00041;dRep_bin153_JGABJFBF_00098;dRep_bin143_PFLDJMPF_00060;dRep_bin106_BKDHGPBE_01156;dRep_bin071_JHMCIJPE_01039;dRep_bin250_NMCAMJIO_00472;dRep_bin312_MJFEFHMP_01194;dRep_bin194_MEPDOGGJ_00657;dRep_bin129_GADIAMAA_01832;dRep_bin061_ONFGDLGO_01341;dRep_bin030_OGPDLGOC_01109;dRep_bin025_CBEJJMLE_00255;dRep_bin223_PIMCDKJI_01311;dRep_bin204_INMOGLDN_00399;dRep_bin202_HEPPALPH_00661;dRep_bin105_AAEIHAFF_01590;dRep_bin056_EMNHHOJA_01586;dRep_bin174_LJJOKEME_01552;dRep_bin057_BNCFHBBO_00981;dRep_bin348_LCLFDNEE_01410;dRep_bin339_DBNBAHDK_00024;dRep_bin321_EJNAAGJG_00897;dRep_bin273_FGAEBHNP_01096;dRep_bin248_CCDFPECI_01765;dRep_bin124_HIHDFGCL_01059;dRep_bin068_ENOLAELK_01049;dRep_bin038_EIGFILKG_00020;dRep_bin276_EHNFLEBP_00417;dRep_bin152_LJMCIADF_00769;dRep_bin115_IFKGOGCL_00005;dRep_bin099_DNDAGJEJ_00435;dRep_bin085_MBHLGCDB_01722;dRep_bin079_GAOGCKND_00892;dRep_bin026_HNPIIINL_00985;dRep_bin353_PPDHLNJB_01438;dRep_bin319_PBDBJGCJ_01331;dRep_bin291_EILOACJB_00194;dRep_bin241_LMMMGDNI_00361;dRep_bin091_MAFACGAD_00751;dRep_bin303_DDDNDJCF_01255;dRep_bin216_JNJMCPHB_01481;dRep_bin184_MBMMJHKO_01167;dRep_bin161_JMKPMHCO_00103;dRep_bin021_AJDDCGJC_01597;dRep_bin095_HOBNOEEF_00033;dRep_bin059_OOBKFNPP_00633;dRep_bin018_ILOONPIC_00093;dRep_bin306_FGHMKMMP_00476;dRep_bin175_HANCENAK_00082;dRep_bin040_EIFLLDOA_01832;dRep_bin166_DFIAJFEC_00288;dRep_bin085_MBHLGCDB_01583	dRep_bin191_NGFJMLOL_01259	>dRep_bin191_NGFJMLOL_01259 Aspartate--tRNA ligase	dRep_bin351_CKFFBPHM_00913	CDS	aspS	6.1.1.12	Aspartate--tRNA ligase
CKFFBPHM_00917								22.32083				4	4	4,2814E-09	dRep_bin285_IPHKFJAN_00256;dRep_bin191_NGFJMLOL_01989;dRep_bin198_GMLJKALI_00587;dRep_bin331_HPKAPHAF_00007;dRep_bin329_GDOHKPBL_01268;dRep_bin289_KALDCNNP_00981;dRep_bin165_HMDFFMMM_00696;dRep_bin131_HLFNHDGI_00718;dRep_bin113_LIFKCGBF_00500;dRep_bin063_PJANDMAH_00059;dRep_bin034_MEBMFDLL_01272;dRep_bin002_CFBNDKDN_00541;dRep_bin351_CKFFBPHM_00917;dRep_bin296_FDMPKPOH_00587;dRep_bin196_BIELHBNH_01300;dRep_bin183_FPGIOKBG_00770;dRep_bin112_NDMGAKCH_01434;dRep_bin111_FPJIHFKE_00148;dRep_bin070_EMBHKIOF_01137;dRep_bin064_CMDDCDKG_00052;dRep_bin036_DOKCEIDH_01300;dRep_bin346_JKFDGFHC_01112;dRep_bin138_EJGHNBMI_00733;dRep_bin045_GJACFFBC_00441;dRep_bin037_GEAOEKHA_00158;dRep_bin014_CHIHIMAN_01042;dRep_bin271_NGFBCHKH_01000;dRep_bin035_JBNPBOKG_00959;dRep_bin128_JPBBHEMA_00009;dRep_bin018_ILOONPIC_00875;dRep_bin210_AGEDAEIA_00260	dRep_bin285_IPHKFJAN_00256;dRep_bin191_NGFJMLOL_01989;dRep_bin198_GMLJKALI_00587;dRep_bin331_HPKAPHAF_00007;dRep_bin329_GDOHKPBL_01268;dRep_bin289_KALDCNNP_00981;dRep_bin165_HMDFFMMM_00696;dRep_bin131_HLFNHDGI_00718;dRep_bin113_LIFKCGBF_00500;dRep_bin063_PJANDMAH_00059;dRep_bin034_MEBMFDLL_01272;dRep_bin002_CFBNDKDN_00541;dRep_bin351_CKFFBPHM_00917;dRep_bin296_FDMPKPOH_00587;dRep_bin196_BIELHBNH_01300;dRep_bin183_FPGIOKBG_00770;dRep_bin112_NDMGAKCH_01434;dRep_bin111_FPJIHFKE_00148;dRep_bin070_EMBHKIOF_01137;dRep_bin064_CMDDCDKG_00052;dRep_bin036_DOKCEIDH_01300;dRep_bin346_JKFDGFHC_01112;dRep_bin138_EJGHNBMI_00733;dRep_bin045_GJACFFBC_00441;dRep_bin037_GEAOEKHA_00158;dRep_bin014_CHIHIMAN_01042;dRep_bin271_NGFBCHKH_01000;dRep_bin035_JBNPBOKG_00959	>dRep_bin285_IPHKFJAN_00256 UDP-N-acetylglucosamine 1-carboxyvinyltransferase;>dRep_bin191_NGFJMLOL_01989 UDP-N-acetylglucosamine 1-carboxyvinyltransferase;>dRep_bin198_GMLJKALI_00587 UDP-N-acetylglucosamine 1-carboxyvinyltransferase 1;>dRep_bin331_HPKAPHA	dRep_bin351_CKFFBPHM_00917	CDS	murA	2.5.1.7	UDP-N-acetylglucosamine 1-carboxyvinyltransferase
CKFFBPHM_00990							25.381890000000002					2	1	4,3166E-05	dRep_bin334_NAPFFNLD_00035;dRep_bin274_DBJHKLDG_01032;dRep_bin008_MNDMJLEI_00090;dRep_bin101_BNDDLDCL_01207;dRep_bin213_HHHELMFN_00597;dRep_bin126_PPDNCIBN_01035;dRep_bin231_CFOLMJBA_00960;dRep_bin286_OEMIJKMC_00392;dRep_bin172_ALNHGLMD_01600;dRep_bin108_BPNCDINP_00887;dRep_bin217_MJCEAEPB_00017;dRep_bin060_HNFNENOI_00909;dRep_bin059_OOBKFNPP_00477;dRep_bin111_FPJIHFKE_00906;dRep_bin267_LJCFMAFA_01025;dRep_bin161_JMKPMHCO_00371;dRep_bin184_MBMMJHKO_00057;dRep_bin355_KJEFNADK_01062;dRep_bin351_CKFFBPHM_00990;dRep_bin195_DDMDFNOK_01354;dRep_bin118_FGIOKLBC_00994;dRep_bin210_AGEDAEIA_00037;dRep_bin028_GKEJLBAM_01078;dRep_bin022_BOEAFNDE_00877;dRep_bin241_LMMMGDNI_00858	dRep_bin334_NAPFFNLD_00035;dRep_bin274_DBJHKLDG_01032;dRep_bin008_MNDMJLEI_00090;dRep_bin101_BNDDLDCL_01207;dRep_bin213_HHHELMFN_00597;dRep_bin126_PPDNCIBN_01035;dRep_bin231_CFOLMJBA_00960;dRep_bin286_OEMIJKMC_00392;dRep_bin172_ALNHGLMD_01600;dRep_bin108_BPNCDINP_00887;dRep_bin217_MJCEAEPB_00017;dRep_bin060_HNFNENOI_00909;dRep_bin059_OOBKFNPP_00477;dRep_bin111_FPJIHFKE_00906;dRep_bin267_LJCFMAFA_01025;dRep_bin161_JMKPMHCO_00371;dRep_bin184_MBMMJHKO_00057;dRep_bin355_KJEFNADK_01062;dRep_bin351_CKFFBPHM_00990;dRep_bin195_DDMDFNOK_01354;dRep_bin118_FGIOKLBC_00994;dRep_bin210_AGEDAEIA_00037;dRep_bin028_GKEJLBAM_01078;dRep_bin022_BOEAFNDE_00877;dRep_bin241_LMMMGDNI_00858	>dRep_bin334_NAPFFNLD_00035 Translation initiation factor IF-2;>dRep_bin274_DBJHKLDG_01032 Translation initiation factor IF-2;>dRep_bin008_MNDMJLEI_00090 Translation initiation factor IF-2;>dRep_bin101_BNDDLDCL_01207 Translation initiation factor IF-2;>dRe	dRep_bin351_CKFFBPHM_00990	CDS	infB		Translation initiation factor IF-2
CKFFBPHM_01025	21.02587											6	1	9,37E-78	dRep_bin301_NJFJIJGA_01953;dRep_bin014_CHIHIMAN_00051;dRep_bin351_CKFFBPHM_01025;dRep_bin290_OIOJKBNK_00963;dRep_bin092_OOJCPDEA_00442;dRep_bin276_EHNFLEBP_01325;dRep_bin104_EGLEJOLM_01567	dRep_bin301_NJFJIJGA_01953;dRep_bin014_CHIHIMAN_00051;dRep_bin351_CKFFBPHM_01025;dRep_bin290_OIOJKBNK_00963;dRep_bin092_OOJCPDEA_00442	>dRep_bin301_NJFJIJGA_01953 Fumarate reductase flavoprotein subunit;>dRep_bin014_CHIHIMAN_00051 Fumarate reductase flavoprotein subunit;>dRep_bin351_CKFFBPHM_01025 Fumarate reductase flavoprotein subunit;>dRep_bin290_OIOJKBNK_00963 Fumarate reductase flavo	dRep_bin351_CKFFBPHM_01025	CDS	frdA	1.3.5.4	Fumarate reductase flavoprotein subunit
CKFFBPHM_01026		21.801950000000005										11	0	8,5488E-139	dRep_bin196_BIELHBNH_00453;dRep_bin232_JGAEDAFA_00722;dRep_bin084_CGBIKHBH_01126;dRep_bin329_GDOHKPBL_00983;dRep_bin037_GEAOEKHA_00748;dRep_bin331_HPKAPHAF_01779;dRep_bin131_HLFNHDGI_00381;dRep_bin351_CKFFBPHM_01026;dRep_bin290_OIOJKBNK_00964;dRep_bin256_KEMNAOBC_00895;dRep_bin128_JPBBHEMA_00416	dRep_bin196_BIELHBNH_00453;dRep_bin232_JGAEDAFA_00722;dRep_bin084_CGBIKHBH_01126	>dRep_bin196_BIELHBNH_00453 Fumarate reductase iron-sulfur subunit;>dRep_bin232_JGAEDAFA_00722 Fumarate reductase iron-sulfur subunit;>dRep_bin084_CGBIKHBH_01126 Fumarate reductase iron-sulfur subunit	dRep_bin351_CKFFBPHM_01026	CDS	frdB	1.3.5.1	Fumarate reductase iron-sulfur subunit
CKFFBPHM_01104	28.20093	27.32629	28.5721	28.23032	29.17312	29.656830000000003	27.66255	29.27126				6	5	7,9369E-18	dRep_bin183_FPGIOKBG_02435;dRep_bin092_OOJCPDEA_01762;dRep_bin084_CGBIKHBH_00450;dRep_bin307_AOCKHIKF_00180;dRep_bin098_DDEBHDKK_00913;dRep_bin296_FDMPKPOH_02071;dRep_bin331_HPKAPHAF_00125;dRep_bin314_KCHFPLIP_01279;dRep_bin232_JGAEDAFA_01038;dRep_bin035_JBNPBOKG_01421;dRep_bin128_JPBBHEMA_00034;dRep_bin210_AGEDAEIA_01433;dRep_bin351_CKFFBPHM_01104;dRep_bin290_OIOJKBNK_00535;dRep_bin256_KEMNAOBC_00172;dRep_bin022_BOEAFNDE_00146;A0A287AJV9;A0A287B388;A0A286ZTN6;A0A287B4T5;A0A287A049;F1S643;K7GLV1;A0A287BD18;A0A286ZJK1	dRep_bin183_FPGIOKBG_02435	>dRep_bin183_FPGIOKBG_02435 30S ribosomal protein S3	dRep_bin351_CKFFBPHM_01104	CDS	rpsC		30S ribosomal protein S3
CKFFBPHM_01124				25.453719999999997								2	2	0,00039724	dRep_bin113_LIFKCGBF_01095;dRep_bin351_CKFFBPHM_01124	dRep_bin113_LIFKCGBF_01095;dRep_bin351_CKFFBPHM_01124	>dRep_bin113_LIFKCGBF_01095 TonB-dependent receptor SusC;>dRep_bin351_CKFFBPHM_01124 TonB-dependent receptor SusC	dRep_bin351_CKFFBPHM_01124	CDS	susC_6		TonB-dependent receptor SusC
CKFFBPHM_01156	24.62204	27.0502	24.411450000000002	24.13579								9	4	1,748E-53	dRep_bin329_GDOHKPBL_01232;dRep_bin131_HLFNHDGI_00754;dRep_bin331_HPKAPHAF_00629;dRep_bin229_FFOBPPJI_01139;dRep_bin118_FGIOKLBC_00295;dRep_bin314_KCHFPLIP_01144;dRep_bin301_NJFJIJGA_01193;dRep_bin149_GABCHCDI_00521;dRep_bin070_EMBHKIOF_00666;dRep_bin022_BOEAFNDE_01194;dRep_bin210_AGEDAEIA_00398;dRep_bin275_NIDIBBDA_01660;dRep_bin128_JPBBHEMA_00659;dRep_bin018_ILOONPIC_01318;dRep_bin136_NAIECEIF_00973;dRep_bin290_OIOJKBNK_00409;dRep_bin316_FNLHDNEO_01155;dRep_bin071_JHMCIJPE_01263;dRep_bin256_KEMNAOBC_00999;dRep_bin110_JGOEJECF_01178;dRep_bin345_GLPJDLOI_00146;dRep_bin351_CKFFBPHM_01156	dRep_bin329_GDOHKPBL_01232	>dRep_bin329_GDOHKPBL_01232 hypothetical protein	dRep_bin351_CKFFBPHM_01156	CDS			hypothetical protein
CKFFBPHM_01191					20.66084	20.19075						6	1	4,1576E-39	dRep_bin346_JKFDGFHC_00049;dRep_bin271_NGFBCHKH_01432;dRep_bin170_LICLFCFF_00076;dRep_bin113_LIFKCGBF_00665;dRep_bin036_DOKCEIDH_00273;dRep_bin034_MEBMFDLL_01305;dRep_bin285_IPHKFJAN_00808;dRep_bin298_EIPJCOMF_01620;dRep_bin289_KALDCNNP_01320;dRep_bin196_BIELHBNH_01057;dRep_bin138_EJGHNBMI_00590;dRep_bin064_CMDDCDKG_01375;dRep_bin183_FPGIOKBG_00615;dRep_bin073_AKBCEHHO_01469;dRep_bin323_FBBLPLCG_01598;dRep_bin101_BNDDLDCL_00033;dRep_bin049_MNFBDPNO_00783;dRep_bin087_FCLGAPPI_00381;dRep_bin281_OGHLKMAI_01074;dRep_bin210_AGEDAEIA_01693;dRep_bin118_FGIOKLBC_01781;dRep_bin022_BOEAFNDE_01420;dRep_bin131_HLFNHDGI_01253;dRep_bin002_CFBNDKDN_00034;dRep_bin014_CHIHIMAN_01271;dRep_bin329_GDOHKPBL_01515;dRep_bin314_KCHFPLIP_00795;dRep_bin307_AOCKHIKF_00407;dRep_bin098_DDEBHDKK_01315;dRep_bin306_FGHMKMMP_00477;dRep_bin153_JGABJFBF_01420;dRep_bin172_ALNHGLMD_01785;dRep_bin286_OEMIJKMC_01076;dRep_bin182_EMCFODCD_00063;dRep_bin126_PPDNCIBN_00262;dRep_bin044_IPFKHAEF_00185;dRep_bin283_NLJJFFAC_01756;dRep_bin203_CLFNNOCF_01930;dRep_bin179_HFEIPPPA_00361;dRep_bin218_ACMPALGF_01344;dRep_bin144_NPHACCKF_00223;dRep_bin094_LBLICAAO_00940;dRep_bin032_PPNIGLME_01008;dRep_bin027_OFJCHLJJ_00625;dRep_bin096_GNHMEKPF_00088;dRep_bin257_JHFDCHCB_01408;dRep_bin190_MOGDLGIN_00302;dRep_bin114_FJHJKHGL_00840;dRep_bin055_IBMMJAEE_00170;dRep_bin048_PABMBHAL_01509;dRep_bin318_IEDEJOFJ_00726;dRep_bin264_DNFFGNEG_00422;dRep_bin244_LBFMHLBI_01058;dRep_bin223_PIMCDKJI_01107;dRep_bin202_HEPPALPH_00196;dRep_bin242_LKAIBGGJ_00303;dRep_bin204_INMOGLDN_01542;dRep_bin174_LJJOKEME_00810;dRep_bin080_CBEBHNNK_00066;dRep_bin312_MJFEFHMP_00588;dRep_bin246_MMFBABHK_00194;dRep_bin116_CLFDBMOF_00457;dRep_bin061_ONFGDLGO_01437;dRep_bin030_OGPDLGOC_00261;dRep_bin004_OCHNPJPO_01274;dRep_bin251_FGNGCJDD_00242;dRep_bin219_HGPEELLF_01206;dRep_bin129_GADIAMAA_00806;dRep_bin076_GLAOFBEC_00429;dRep_bin188_EJILNMPE_01055;dRep_bin252_NDAKLAGD_01289;dRep_bin352_KFNHGNFC_00642;dRep_bin206_OIIBOIAK_00292;dRep_bin078_GKFCBAEI_00119;dRep_bin301_NJFJIJGA_00585;dRep_bin275_NIDIBBDA_00034;dRep_bin040_EIFLLDOA_01203;dRep_bin028_GKEJLBAM_00163;dRep_bin149_GABCHCDI_00012;dRep_bin093_PGADNPMG_00427;dRep_bin345_GLPJDLOI_00001;dRep_bin296_FDMPKPOH_01296;dRep_bin316_FNLHDNEO_00355;dRep_bin256_KEMNAOBC_01607;dRep_bin071_JHMCIJPE_01347;dRep_bin128_JPBBHEMA_00687;dRep_bin165_HMDFFMMM_01254;dRep_bin351_CKFFBPHM_01191;dRep_bin092_OOJCPDEA_01149	dRep_bin346_JKFDGFHC_00049;dRep_bin271_NGFBCHKH_01432;dRep_bin170_LICLFCFF_00076;dRep_bin113_LIFKCGBF_00665;dRep_bin036_DOKCEIDH_00273;dRep_bin034_MEBMFDLL_01305;dRep_bin285_IPHKFJAN_00808;dRep_bin298_EIPJCOMF_01620;dRep_bin289_KALDCNNP_01320;dRep_bin196_BIELHBNH_01057;dRep_bin138_EJGHNBMI_00590;dRep_bin064_CMDDCDKG_01375;dRep_bin183_FPGIOKBG_00615;dRep_bin073_AKBCEHHO_01469	>dRep_bin346_JKFDGFHC_00049 ATP synthase subunit beta, sodium ion specific;>dRep_bin271_NGFBCHKH_01432 ATP synthase subunit beta;>dRep_bin170_LICLFCFF_00076 ATP synthase subunit beta, sodium ion specific;>dRep_bin113_LIFKCGBF_00665 ATP synthase subunit bet	dRep_bin351_CKFFBPHM_01191	CDS	atpD_2	3.6.3.14	ATP synthase subunit beta
CKFFBPHM_01226	27.465209999999995	26.617510000000003	28.678150000000002	28.989749999999997	28.991509999999998	29.52083	26.64733	26.935399999999998				3	1	3,1897E-56	dRep_bin314_KCHFPLIP_01289;dRep_bin232_JGAEDAFA_00471;dRep_bin036_DOKCEIDH_01120;dRep_bin331_HPKAPHAF_00114;dRep_bin307_AOCKHIKF_00040;dRep_bin165_HMDFFMMM_00264;dRep_bin098_DDEBHDKK_01390;dRep_bin070_EMBHKIOF_01571;dRep_bin037_GEAOEKHA_01075;dRep_bin112_NDMGAKCH_01044;dRep_bin084_CGBIKHBH_01665;dRep_bin035_JBNPBOKG_01411;dRep_bin296_FDMPKPOH_00654;dRep_bin198_GMLJKALI_01470;dRep_bin036_DOKCEIDH_02019;dRep_bin002_CFBNDKDN_02028;dRep_bin196_BIELHBNH_01569;dRep_bin138_EJGHNBMI_01663;dRep_bin113_LIFKCGBF_00319;dRep_bin210_AGEDAEIA_01443;dRep_bin118_FGIOKLBC_01259;dRep_bin022_BOEAFNDE_00156;dRep_bin131_HLFNHDGI_00538;dRep_bin136_NAIECEIF_00794;dRep_bin161_JMKPMHCO_00063;dRep_bin301_NJFJIJGA_01272;dRep_bin149_GABCHCDI_00372;dRep_bin128_JPBBHEMA_01131;dRep_bin111_FPJIHFKE_01180;dRep_bin204_INMOGLDN_01390;dRep_bin202_HEPPALPH_01173;dRep_bin050_FBECOHCI_00340;dRep_bin351_CKFFBPHM_01226;dRep_bin276_EHNFLEBP_02115;dRep_bin256_KEMNAOBC_01381;dRep_bin104_EGLEJOLM_01403;dRep_bin294_EHJINIDK_01819;dRep_bin264_DNFFGNEG_00661;dRep_bin092_OOJCPDEA_01313;dRep_bin312_MJFEFHMP_01095;dRep_bin246_MMFBABHK_00569;dRep_bin174_LJJOKEME_01423;dRep_bin129_GADIAMAA_00400;dRep_bin061_ONFGDLGO_00654;dRep_bin030_OGPDLGOC_01307;dRep_bin093_PGADNPMG_00805;dRep_bin047_IFFANOMN_01577	dRep_bin314_KCHFPLIP_01289;dRep_bin232_JGAEDAFA_00471;dRep_bin036_DOKCEIDH_01120;dRep_bin331_HPKAPHAF_00114;dRep_bin307_AOCKHIKF_00040;dRep_bin165_HMDFFMMM_00264;dRep_bin098_DDEBHDKK_01390;dRep_bin070_EMBHKIOF_01571;dRep_bin037_GEAOEKHA_01075;dRep_bin112_NDMGAKCH_01044;dRep_bin084_CGBIKHBH_01665;dRep_bin035_JBNPBOKG_01411;dRep_bin296_FDMPKPOH_00654;dRep_bin198_GMLJKALI_01470;dRep_bin036_DOKCEIDH_02019;dRep_bin002_CFBNDKDN_02028;dRep_bin196_BIELHBNH_01569;dRep_bin138_EJGHNBMI_01663;dRep_bin113_LIFKCGBF_00319;dRep_bin210_AGEDAEIA_01443;dRep_bin118_FGIOKLBC_01259;dRep_bin022_BOEAFNDE_00156;dRep_bin131_HLFNHDGI_00538	>dRep_bin314_KCHFPLIP_01289 30S ribosomal protein S12;>dRep_bin232_JGAEDAFA_00471 30S ribosomal protein S12;>dRep_bin036_DOKCEIDH_01120 30S ribosomal protein S12;>dRep_bin331_HPKAPHAF_00114 30S ribosomal protein S12;>dRep_bin307_AOCKHIKF_00040 30S ribosoma	dRep_bin351_CKFFBPHM_01226	CDS	rpsL		30S ribosomal protein S12
CKFFBPHM_01278	26.0818	26.512980000000002	26.613860000000006	26.819580000000002	27.345789999999997	27.25079	27.05992	27.00764				5	2	1,9168E-42	dRep_bin170_LICLFCFF_01825;dRep_bin113_LIFKCGBF_01076;dRep_bin196_BIELHBNH_00790;dRep_bin351_CKFFBPHM_01278;dRep_bin137_NABPABPB_01530;dRep_bin290_OIOJKBNK_00844;dRep_bin314_KCHFPLIP_01885;dRep_bin329_GDOHKPBL_00611;dRep_bin092_OOJCPDEA_00587;dRep_bin256_KEMNAOBC_01198;dRep_bin110_JGOEJECF_00834;dRep_bin316_FNLHDNEO_00800;dRep_bin138_EJGHNBMI_01105	dRep_bin170_LICLFCFF_01825;dRep_bin113_LIFKCGBF_01076	>dRep_bin170_LICLFCFF_01825 Isoleucine--tRNA ligase;>dRep_bin113_LIFKCGBF_01076 Isoleucine--tRNA ligase	dRep_bin351_CKFFBPHM_01278	CDS	ileS	6.1.1.5	Isoleucine--tRNA ligase
CKFFBPHM_01335	30.60143	30.443419999999996	30.89309	32.03318	31.982199999999995	32.064130000000006	31.759900000000002	31.66276				26	6	0	dRep_bin113_LIFKCGBF_00164;dRep_bin073_AKBCEHHO_01251;dRep_bin232_JGAEDAFA_01299;dRep_bin022_BOEAFNDE_00071;dRep_bin002_CFBNDKDN_00571;dRep_bin118_FGIOKLBC_00081;dRep_bin210_AGEDAEIA_00904;dRep_bin307_AOCKHIKF_00462;dRep_bin098_DDEBHDKK_00798;dRep_bin149_GABCHCDI_00668;dRep_bin037_GEAOEKHA_01107;dRep_bin229_FFOBPPJI_00185;dRep_bin040_EIFLLDOA_00453;dRep_bin092_OOJCPDEA_01611;dRep_bin136_NAIECEIF_00398;dRep_bin256_KEMNAOBC_00652;dRep_bin301_NJFJIJGA_00993;dRep_bin071_JHMCIJPE_01709;dRep_bin331_HPKAPHAF_00551;dRep_bin002_CFBNDKDN_00991;dRep_bin018_ILOONPIC_00361;dRep_bin351_CKFFBPHM_01335;dRep_bin316_FNLHDNEO_01449;dRep_bin020_JCCELPIE_00772;dRep_bin130_OIFFANPF_01695;dRep_bin298_EIPJCOMF_01103;dRep_bin346_JKFDGFHC_00396;dRep_bin301_NJFJIJGA_01061;dRep_bin289_KALDCNNP_01031;dRep_bin271_NGFBCHKH_00336;dRep_bin138_EJGHNBMI_01314;dRep_bin063_PJANDMAH_00202;dRep_bin036_DOKCEIDH_01987;dRep_bin034_MEBMFDLL_00863;dRep_bin343_JCMCKBGF_00754;dRep_bin137_NABPABPB_01723;dRep_bin037_GEAOEKHA_01156;dRep_bin296_FDMPKPOH_01780;dRep_bin341_NBEGOKEF_00571;dRep_bin334_NAPFFNLD_01049;dRep_bin274_DBJHKLDG_01583;dRep_bin060_HNFNENOI_00249;dRep_bin217_MJCEAEPB_00911;dRep_bin291_EILOACJB_01199;dRep_bin329_GDOHKPBL_00752;dRep_bin104_EGLEJOLM_00885;dRep_bin276_EHNFLEBP_00929;F1SSS0	dRep_bin113_LIFKCGBF_00164	>dRep_bin113_LIFKCGBF_00164 Carbamoyl-phosphate synthase large chain	dRep_bin351_CKFFBPHM_01335	CDS	carB_2	6.3.5.5	Carbamoyl-phosphate synthase large chain
CKFFBPHM_01413	25.94907	28.2359	26.30212	26.50361								15	3	8,0627E-287	dRep_bin329_GDOHKPBL_00135;dRep_bin351_CKFFBPHM_01413;dRep_bin110_JGOEJECF_00247	dRep_bin329_GDOHKPBL_00135	>dRep_bin329_GDOHKPBL_00135 Ketol-acid reductoisomerase (NAD(+))	dRep_bin351_CKFFBPHM_01413	CDS		1.1.1.382	Ketol-acid reductoisomerase (NAD(+))
CKFFBPHM_01478								26.44155				1	1	0,0011601	dRep_bin351_CKFFBPHM_01478;dRep_bin018_ILOONPIC_00419	dRep_bin351_CKFFBPHM_01478;dRep_bin018_ILOONPIC_00419	>dRep_bin351_CKFFBPHM_01478 50S ribosomal protein L11;>dRep_bin018_ILOONPIC_00419 50S ribosomal protein L11	dRep_bin351_CKFFBPHM_01478	CDS	rplK		50S ribosomal protein L11
CKFFBPHM_01481						27.139360000000003						1	1	0,0018994	dRep_bin351_CKFFBPHM_01481;dRep_bin092_OOJCPDEA_01786	dRep_bin351_CKFFBPHM_01481;dRep_bin092_OOJCPDEA_01786	>dRep_bin351_CKFFBPHM_01481 50S ribosomal protein L7/L12;>dRep_bin092_OOJCPDEA_01786 50S ribosomal protein L7/L12	dRep_bin351_CKFFBPHM_01481	CDS	rplL		50S ribosomal protein L7/L12
CKFFBPHM_01482	25.94118	26.19282	26.34881	26.159370000000003	26.822499999999998	27.5145	25.60221	26.67047				31	0	0	dRep_bin183_FPGIOKBG_01647;dRep_bin128_JPBBHEMA_00862;dRep_bin256_KEMNAOBC_00052;dRep_bin136_NAIECEIF_00998;dRep_bin351_CKFFBPHM_01482;dRep_bin018_ILOONPIC_00415;dRep_bin092_OOJCPDEA_02013;dRep_bin290_OIOJKBNK_00595;dRep_bin014_CHIHIMAN_00205;dRep_bin345_GLPJDLOI_00169	dRep_bin183_FPGIOKBG_01647	>dRep_bin183_FPGIOKBG_01647 DNA-directed RNA polymerase subunit beta	dRep_bin351_CKFFBPHM_01482	CDS	rpoB	2.7.7.6	DNA-directed RNA polymerase subunit beta
CKFFBPHM_01541	26.53865	27.32466	25.925329999999995	27.27675								9	0	1,4703E-42	dRep_bin224_NFENHJGB_00540;dRep_bin196_BIELHBNH_00163;dRep_bin034_MEBMFDLL_01422;dRep_bin036_DOKCEIDH_01531;dRep_bin137_NABPABPB_01656;dRep_bin298_EIPJCOMF_01468;dRep_bin064_CMDDCDKG_00553;dRep_bin063_PJANDMAH_01092;dRep_bin346_JKFDGFHC_00567;dRep_bin073_AKBCEHHO_01240;dRep_bin232_JGAEDAFA_01050;dRep_bin229_FFOBPPJI_01002;dRep_bin093_PGADNPMG_00042;dRep_bin131_HLFNHDGI_00370;dRep_bin002_CFBNDKDN_00482;dRep_bin229_FFOBPPJI_01490;dRep_bin351_CKFFBPHM_01541	dRep_bin224_NFENHJGB_00540;dRep_bin196_BIELHBNH_00163;dRep_bin034_MEBMFDLL_01422;dRep_bin036_DOKCEIDH_01531;dRep_bin137_NABPABPB_01656;dRep_bin298_EIPJCOMF_01468;dRep_bin064_CMDDCDKG_00553;dRep_bin063_PJANDMAH_01092;dRep_bin346_JKFDGFHC_00567;dRep_bin073_AKBCEHHO_01240;dRep_bin232_JGAEDAFA_01050	>dRep_bin224_NFENHJGB_00540 Enoyl-[acyl-carrier-protein] reductase [NADH] FabI;>dRep_bin196_BIELHBNH_00163 Enoyl-[acyl-carrier-protein] reductase [NADH] FabI;>dRep_bin034_MEBMFDLL_01422 Enoyl-[acyl-carrier-protein] reductase [NADH] FabI;>dRep_bin036_DOKCEI	dRep_bin351_CKFFBPHM_01541	CDS	fabI	1.3.1.9	Enoyl-[acyl-carrier-protein] reductase [NADH] FabI
CKFFBPHM_01653					23.84738	21.44698	22.59994	22.59621				4	1	1,6537E-12	dRep_bin095_HOBNOEEF_02143;dRep_bin005_CNDFPKJG_01243;dRep_bin310_IMBAFDIF_01073;dRep_bin158_OGFICEAP_01844;dRep_bin047_IFFANOMN_01995;dRep_bin348_LCLFDNEE_00129;dRep_bin088_DNGPPFDK_00883;dRep_bin019_MOJEPLJF_00878;dRep_bin306_FGHMKMMP_01415;dRep_bin282_PKAAPBFP_01259;dRep_bin211_LGJEFJIK_01231;dRep_bin089_PAJFOJBN_01458;dRep_bin260_HELEPKJL_02091;dRep_bin007_LNLEAAAN_01036;dRep_bin136_NAIECEIF_01114;dRep_bin351_CKFFBPHM_01653;dRep_bin028_GKEJLBAM_00395;dRep_bin339_DBNBAHDK_01331	dRep_bin095_HOBNOEEF_02143;dRep_bin005_CNDFPKJG_01243;dRep_bin310_IMBAFDIF_01073;dRep_bin158_OGFICEAP_01844;dRep_bin047_IFFANOMN_01995;dRep_bin348_LCLFDNEE_00129	>dRep_bin095_HOBNOEEF_02143 Aspartate carbamoyltransferase catalytic subunit;>dRep_bin005_CNDFPKJG_01243 Aspartate carbamoyltransferase catalytic subunit;>dRep_bin310_IMBAFDIF_01073 Aspartate carbamoyltransferase catalytic subunit;>dRep_bin158_OGFICEAP_018	dRep_bin351_CKFFBPHM_01653	CDS	pyrB	2.1.3.2	Aspartate carbamoyltransferase catalytic subunit
CKFFBPHM_01705	25.569029999999998	24.631680000000003	25.514820000000004	26.644170000000003	27.9173	30.07048	28.11073	27.22784				19	14	0	dRep_bin191_NGFJMLOL_01463;dRep_bin036_DOKCEIDH_01593;dRep_bin183_FPGIOKBG_00132;dRep_bin002_CFBNDKDN_01254;dRep_bin346_JKFDGFHC_01083;dRep_bin289_KALDCNNP_00662;dRep_bin162_JBGCCDIN_00229;dRep_bin196_BIELHBNH_01548;dRep_bin351_CKFFBPHM_01705;dRep_bin290_OIOJKBNK_00323;dRep_bin028_GKEJLBAM_01870;dRep_bin018_ILOONPIC_01070;dRep_bin198_GMLJKALI_00687	dRep_bin191_NGFJMLOL_01463	>dRep_bin191_NGFJMLOL_01463 Cellobiose phosphorylase	dRep_bin351_CKFFBPHM_01705	CDS	cbpA	2.4.1.20	Cellobiose phosphorylase
CKFFBPHM_01718							26.85472					2	1	7,0517E-09	dRep_bin073_AKBCEHHO_01223;dRep_bin028_GKEJLBAM_01663;dRep_bin276_EHNFLEBP_00390;dRep_bin071_JHMCIJPE_01213;dRep_bin345_GLPJDLOI_00728;dRep_bin070_EMBHKIOF_00544;dRep_bin136_NAIECEIF_01086;dRep_bin351_CKFFBPHM_01718	dRep_bin073_AKBCEHHO_01223;dRep_bin028_GKEJLBAM_01663;dRep_bin276_EHNFLEBP_00390;dRep_bin071_JHMCIJPE_01213;dRep_bin345_GLPJDLOI_00728;dRep_bin070_EMBHKIOF_00544;dRep_bin136_NAIECEIF_01086;dRep_bin351_CKFFBPHM_01718	>dRep_bin073_AKBCEHHO_01223 dTDP-glucose 4,6-dehydratase;>dRep_bin028_GKEJLBAM_01663 dTDP-glucose 4,6-dehydratase;>dRep_bin276_EHNFLEBP_00390 dTDP-glucose 4,6-dehydratase;>dRep_bin071_JHMCIJPE_01213 dTDP-glucose 4,6-dehydratase;>dRep_bin345_GLPJDLOI_00728	dRep_bin351_CKFFBPHM_01718	CDS	rfbB	4.2.1.46	dTDP-glucose 4,6-dehydratase
